-0.232384547682686,0.446667673818298
-0.234852256592658,0.437997713366084
-0.237312758401441,0.429405000793279
-0.239766006626651,0.420889157638901
-0.242211954785905,0.412449805441973
-0.244650556396821,0.404086565741513
-0.247081764977015,0.395799060076541
-0.249505534044103,0.387586909986077
-0.251921817115702,0.379449737009143
-0.25433056770943,0.371387162684756
-0.256731739342902,0.363398808551939
-0.259125285533736,0.355484296149709
-0.261511159799548,0.347643247017089
-0.263889315657955,0.339875282693097
-0.266259706626573,0.332180024716754
-0.26862228622302,0.32455709462708
-0.270977007964913,0.317006113963095
-0.273323825369867,0.309526704263818
-0.275662691955499,0.302118487068271
-0.277993561239427,0.294781083915472
-0.280316386739267,0.287514116344442
-0.282631121972636,0.280317205894201
-0.28493772045715,0.273189974103769
-0.287236135710427,0.266132042512166
-0.289526321250082,0.259143032658413
-0.291808230593733,0.252222566081528
-0.294081817258997,0.245370264320533
-0.29634703476349,0.238585748914447
-0.298603836624828,0.23186864140229
-0.30085217636063,0.225218563323082
-0.30309200748851,0.218635136215844
-0.305323283526087,0.212117981619595
-0.307545957990976,0.205666721073355
-0.309759984400795,0.199280976116145
-0.311965316273161,0.192960368286985
-0.314161907125689,0.186704519124893
-0.316349710475997,0.180513050168892
-0.318528679841701,0.174385582958
-0.320698768740419,0.168321739031237
-0.322859930689766,0.162321139927624
-0.32501211920736,0.156383407186181
-0.327155287810818,0.150508162345928
-0.329289390017755,0.144695026945884
-0.33141437934579,0.13894362252507
-0.333530209312538,0.133253570622506
-0.335636833435616,0.127624492777212
-0.337734205232641,0.122056010528208
-0.33982227822123,0.116547745414514
-0.341901005919,0.111099318975149
-0.343970341843567,0.105710352749135
-0.346030239512547,0.100380468275491
-0.348080652443558,0.0951092870932365
-0.350121534154217,0.0898964307413924
-0.35215283816214,0.0847415207589785
-0.354174517984943,0.0796441786850147
-0.356186527140245,0.0746040260585212
-0.35818881914566,0.069620684418518
-0.360181347518807,0.064693775304025
-0.362164065777301,0.0598229202540624
-0.364136927438759,0.0550077408076502
-0.3660998860208,0.0502478585038083
-0.368052895041037,0.045542894881557
-0.36999590801709,0.0408924714799161
-0.371928878466574,0.0362962098379058
-0.373851759907106,0.031753731494546
-0.375764505856303,0.0272646579888568
-0.377667069831782,0.0228286108598582
-0.379559405351159,0.0184452116465703
-0.381441465932051,0.0141140818880131
-0.383313205092074,0.0098348431232067
-0.385174576348847,0.00560711689117104
-0.387025533219984,0.00143052473092614
-0.388866029223104,-0.00269531181850786
-0.390696017875822,-0.00677077121811094
-0.392515452695755,-0.0107962319288632
-0.394324287200521,-0.0147720724117444
-0.396122474907736,-0.0186986711277347
-0.397909969335016,-0.0225764065378139
-0.399686723999979,-0.026405657102962
-0.40145269242024,-0.030186801284159
-0.403207828113418,-0.0339202175423849
-0.404952084597128,-0.0376062843386196
-0.406685415388987,-0.0412453801338431
-0.408407774006612,-0.0448378833890353
-0.41011911396762,-0.0483841725651763
-0.411819388789628,-0.0518846261232459
-0.413508551990251,-0.0553396225242241
-0.415186557087108,-0.058749540229091
-0.416853357597814,-0.0621147576988264
-0.418508907039986,-0.0654356533944103
-0.420153158931242,-0.0687126057768228
-0.421786066789197,-0.0719459933070437
-0.423407584131469,-0.075136194446053
-0.425017664475675,-0.0782835876548307
-0.42661626133943,-0.0813885513943567
-0.428203328240352,-0.084451464125611
-0.429778818696057,-0.0874727043095737
-0.431342686224163,-0.0904526504072245
-0.432894884342286,-0.0933916808795436
-0.434435366568042,-0.0962901741875108
-0.435964086419048,-0.0991485087921061
-0.437480997412922,-0.10196706315431
-0.43898605306728,-0.104746215735101
-0.440479206899738,-0.107486344995461
-0.441960412427913,-0.110187829396368
-0.443429623169423,-0.112851047398803
-0.444886792641883,-0.115476377463747
-0.344332119389826,-0.0189543457844086
-0.339028618966462,-0.0285517393430993
-0.353514242287056,-0.214355993032192
-0.450594128193566,-0.125606387568198
-0.340270348953248,-0.242789677317606
-0.336642113863221,-0.220621043938202
-0.568281017777441,-0.241356737157275
-0.561658296274811,-0.0379887937392111
-0.337873020712986,-0.23451368622006
-0.341864550882482,-0.242834590131751
-0.3641027428177,-0.0273571926293129
-0.564802599467166,-0.03581685491979
-0.567435159262244,-0.253078999671247
-0.352311405309967,-0.260671735350488
-0.565479233204893,-0.265113601904679
-0.370123535578685,-0.257964661183247
-0.352786807667286,-0.269254605838696
-0.378898985656508,-0.0564293843542714
-0.470223349929522,-0.158662293677523
-0.589174642632486,-0.276027242933005
-0.575072424176831,-0.0617338363804258
-0.473803999622811,-0.164413995730446
-0.474971390769356,-0.166272358463541
-0.476125625069653,-0.168101916322663
-0.570234580580522,-0.0700963802073095
-0.478394437201971,-0.171676131262909
-0.384490440868892,-0.276012589147858
-0.59069833594881,-0.28818104097862
-0.481697816994008,-0.176830878642978
-0.482772134086771,-0.178495554938842
-0.598305157324526,-0.0670317364644441
-0.48488027512112,-0.181746819050209
-0.48591400609794,-0.183334163787673
-0.48693411540468,-0.184896488260963
-0.487940556558956,-0.18643417093106
-0.488933283078386,-0.187947590258944
-0.489912248480584,-0.189437124705594
-0.49087740628317,-0.190903152731991
-0.491828710003759,-0.192346052799114
-0.492766113159967,-0.193766203367943
-0.493689569269412,-0.195163982899459
-0.494599031849711,-0.196539769854642
-0.49549445441848,-0.197893942694471
-0.496375790493335,-0.199226879879926
-0.497242993591894,-0.200538959871987
-0.498096017231774,-0.201830561131634
-0.49893481493059,-0.203102062119848
-0.499759340205961,-0.204353841297608
-0.500569546575501,-0.205586277125894
-0.501365387556829,-0.206799748065686
-0.502146816667561,-0.207994632577964
-0.502913787425314,-0.209171309123708
-0.503666253347704,-0.210330156163898
-0.504404167952348,-0.211471552159514
-0.505127484756863,-0.212595875571536
-0.505836157278865,-0.213703504860944
-0.506530139035972,-0.214794818488718
-0.5072093835458,-0.215870194915837
-0.507873844325966,-0.216930012603282
-0.508523474894086,-0.217974650012033
-0.509158228767777,-0.219004485603069
-0.509778059464657,-0.220019897837372
-0.510382920502341,-0.221021265175919
-0.510972765398447,-0.222008966079693
-0.51154754767059,-0.222983379009672
-0.512107220836389,-0.223944882426836
-0.512651738413459,-0.224893854792166
-0.513181053919418,-0.225830674566641
-0.513695120871881,-0.226755720211242
-0.514193892788467,-0.227669370186948
-0.514677323186791,-0.228572002954739
-0.51514536558447,-0.229463996975595
-0.515597973499121,-0.230345730710497
-0.516035100448361,-0.231217582620424
-0.516456699949807,-0.232079931166356
-0.516862725521074,-0.232933154809274
-0.517253130679781,-0.233777632010156
-0.517627868943543,-0.234613741229983
-0.517986893829977,-0.235441860929736
-0.518330158856701,-0.236262369570393
-0.51865761754133,-0.237075645612936
-0.518969223401482,-0.237882067518343
-0.519264929954773,-0.238682013747595
-0.51954469071882,-0.239475862761672
-0.51980845921124,-0.240263993021554
-0.52005618894965,-0.241046782988221
-0.520287833451666,-0.241824611122652
-0.520503346234904,-0.242597855885828
-0.520702680816982,-0.243366895738729
-0.520885790715517,-0.244132109142334
-0.521052629448125,-0.244893874557624
-0.521203150532422,-0.245652570445578
-0.521337307486026,-0.246408575267177
-0.521455053826554,-0.2471622674834
-0.521556343071621,-0.247914025555228
-0.521641128738845,-0.248664227943641
-0.521709364345843,-0.249413253109617
-0.521761003410231,-0.250161479514138
-0.521795999449626,-0.250909285618183
-0.521814305981644,-0.251657049882733
-0.521815876523903,-0.252405150768766
-0.521800664594019,-0.253153966737264
-0.521768623709609,-0.253903876249206
-0.52171970738829,-0.254655257765572
-0.521653869147678,-0.255408489747342
-0.52157106250539,-0.256163950655497
-0.521471240979042,-0.256922018951015
-0.521354358086253,-0.257683073094877
-0.521220367344637,-0.258447491548063
-0.521069222271812,-0.259215652771553
-0.520900876385395,-0.259987935226327
-0.520715283203003,-0.260764717373364
-0.520512396242252,-0.261546377673646
-0.520292169020758,-0.262333294588151
-0.520054555056139,-0.26312584657786
-0.519799507866012,-0.263924412103752
-0.519526980967993,-0.264729369626808
-0.519236927879698,-0.265541097608008
-0.518929302118745,-0.266359974508331
-0.51860405720275,-0.267186378788758
-0.51826114664933,-0.268020688910269
-0.517900523976102,-0.268863283333842
-0.517522142700683,-0.269714540520459
-0.517125956340688,-0.2705748389311
-0.516711918413735,-0.271444557026744
-0.516279982437442,-0.272324073268371
-0.515830101929423,-0.273213766116962
-0.515362230407296,-0.274114014033495
-0.514876321388679,-0.275025195478952
-0.514372328391187,-0.275947688914312
-0.513850204932437,-0.276881872800555
-0.513309904530046,-0.277828125598661
-0.512751380701631,-0.278786825769611
-0.512174586964809,-0.279758351774383
-0.511579476837195,-0.280743082073958
-0.510966003836408,-0.281741395129317
-0.510334121480063,-0.282753669401438
-0.509683783285777,-0.283780283351302
-0.509014942771168,-0.284821615439888
-0.508327553453851,-0.285878044128178
-0.507621568851445,-0.28694994787715
-0.506896942481564,-0.288037705147785
-0.506153627861826,-0.289141694401063
-0.505391578509849,-0.290262294097963
-0.504610747943247,-0.291399882699466
-0.503811089679639,-0.292554838666552
-0.502992557236641,-0.2937275404602
-0.502155104131869,-0.294918366541391
-0.501298683882941,-0.296127695371104
-0.500423250007473,-0.297355905410319
-0.499528756023082,-0.298603375120017
-0.498615155447385,-0.299870482961177
-0.497682401797998,-0.30115760739478
-0.496730448592538,-0.302465126881805
-0.495759249348621,-0.303793419883232
-0.494768757583866,-0.305142864860041
-0.493758926815887,-0.306513840273212
-0.492729710562302,-0.307906724583726
-0.491681062340728,-0.309321896252562
-0.490612935668782,-0.310759733740699
-0.48952528406408,-0.312220615509119
-0.488418061044238,-0.313704920018801
-0.487291220126874,-0.315213025730725
-0.486144714829605,-0.31674531110587
-0.484978498670046,-0.318302154605218
-0.483792525165816,-0.319883934689747
-0.48258674783453,-0.321491029820438
-0.481361120193805,-0.323123818458271
-0.480115595761258,-0.324782679064226
-0.478850128054506,-0.326467990099282
-0.477564670591165,-0.32818013002442
-0.476259176888853,-0.32991947730062
-0.474933600465185,-0.331686410388861
-0.473587894837779,-0.333481307750124
-0.472222013524252,-0.335304547845388
-0.470835910042219,-0.337156509135634
-0.469429537909298,-0.339037570081841
-0.468002850643106,-0.340948109144989
-0.466555801761259,-0.342888504786059
-0.465088344781375,-0.34485913546603
-0.463600433221068,-0.346860379645883
-0.462092020597958,-0.348892615786597
-0.460563060429659,-0.350956222349152
-0.45901350623379,-0.353051577794528
-0.457443311527966,-0.355179060583706
-0.455852429829804,-0.357339049177664
-0.454240814656922,-0.359531922037384
-0.452608419526936,-0.361758057623844
-0.450955197957462,-0.364017834398026
-0.449281103466117,-0.366311630820908
-0.447586089570518,-0.368639825353472
-0.445870109788283,-0.371002796456696
-0.444133117637026,-0.373400922591561
-0.442375066634366,-0.375834582219047
-0.440595910297919,-0.378304153800134
-0.438795602145301,-0.380810015795802
-0.43697409569413,-0.38335254666703
-0.435131344462022,-0.385932124874799
-0.433267301966594,-0.388549128880089
-0.431381921725463,-0.391203937143879
-0.429475157256244,-0.393896928127149
-0.427546962076556,-0.396628480290881
-0.425597289704015,-0.399398972096053
-0.423626093656237,-0.402208782003645
-0.421633327450839,-0.405058288474637
-0.419618944605439,-0.40794786997001
-0.417582898637652,-0.410877904950744
-0.415525143065095,-0.413848771877817
-0.413445631405386,-0.416860849212211
-0.41134431717614,-0.419914515414905
-0.409221153894975,-0.42301014894688
-0.407076095079508,-0.426148128269114
-0.404909094247354,-0.429328831842589
-0.402720104916132,-0.432552638128284
-0.400509080603457,-0.435819925587178
-0.398275974826946,-0.439131072680253
-0.396020741104216,-0.442486457868488
-0.393743332952884,-0.445886459612863
-0.391443703890566,-0.449331456374357
-0.38912180743488,-0.452821826613952
-0.386777597103441,-0.456357948792626
-0.384411026413867,-0.45994020137136
-0.382022048883774,-0.463568962811134
-0.37961061803078,-0.467244611572928
-0.3771766873725,-0.470967526117721
-0.374720210426552,-0.474738084906494
-0.372241140710552,-0.478556666400226
-0.369739431742117,-0.482423649059898
-0.367215037038864,-0.48633941134649
-0.364667910118409,-0.490304331720981
-0.36209800449837,-0.494318788644352
-0.359505273696362,-0.498383160577582
-0.356889671230003,-0.502497825981651
-0.35425115061691,-0.50666316331754
-0.351589665374698,-0.510879551046228
-0.348905169020986,-0.515147367628696
-0.346197615073389,-0.519466991525922
-0.343466957049524,-0.523838801198888
-0.340713148467009,-0.528263175108573
-0.337936142843459,-0.532740491715957
-0.335135893696491,-0.537271129482021
-0.332312354543723,-0.541855466867743
-0.329465478902771,-0.546493882334104
-0.326595220291251,-0.551186754342085
-0.323701532226781,-0.555934461352664
-0.320784368226977,-0.560737381826822
-0.317843681809456,-0.565595894225539
-0.314879426491834,-0.570510377009795
-0.311891555791729,-0.57548120864057
-0.308880023226757,-0.580508767578844
-0.305844782314535,-0.585593432285596
-0.302785786572679,-0.590735581221807
-0.299702989518806,-0.595935592848456
-0.296596344670533,-0.601193845626525
-0.293465805545477,-0.606510718016992
-0.290311325661255,-0.611886588480837
-0.287132858535482,-0.617321835479041
-0.283930357685777,-0.622816837472583
-0.280703776629755,-0.628371972922444
-0.277453068885033,-0.633987620289603
-0.274178187969229,-0.639664158035041
-0.270879087399958,-0.645401964619737
-0.267555720694838,-0.651201418504671
-0.264208041371485,-0.657062898150824
-0.260836002947516,-0.662986782019174
-0.257439558940548,-0.668973448570703
-0.254018662868197,-0.67502327626639
-0.250573268248081,-0.681136643567215
-0.247103328597815,-0.687313928934159
-0.243608797435017,-0.6935555108282
-0.240089628277303,-0.699861767710319
-0.236545774642291,-0.706233078041497
-0.232977190047596,-0.712669820282712
-0.229383828010836,-0.719172372894945
-0.225765642049627,-0.725741114339176
-0.222122585681586,-0.732376423076385
-0.21845461242433,-0.739078677567551
-0.214761675795475,-0.745848256273655
-0.211043729312638,-0.752685537655678
-0.207300726493437,-0.759590900174597
-0.203532620855487,-0.766564722291395
-0.199739365916405,-0.773607382467049
-0.195920915193809,-0.780719259162542
-0.192077222205314,-0.787900730838852
-0.188208240468538,-0.79515217595696
-0.184313923501097,-0.802473972977845
-0.180394224820609,-0.809866500362487
-0.176449097944689,-0.817330136571867
-0.172478496390954,-0.824865260066964
-0.168482373677022,-0.832472249308758
-0.164460683320509,-0.84015148275823
-0.160413378839031,-0.847903338876359
-0.156340413750206,-0.855728196124125
