0.158357375654973,0.923200004804817
0.172682856202495,0.826778910681612
0.187229522514626,0.740189828959895
0.201914713898881,0.662992810701319
0.216655769662775,0.594747906967536
0.231370029113823,0.535015168820198
0.24597483155954,0.483354647320956
0.260387516307441,0.439326393531463
0.27452542266504,0.40249045851337
0.288305889939853,0.37240689332833
0.301646257439395,0.348635749037994
0.314463864471179,0.330737076704015
0.326676050342722,0.318270927388045
0.338200154361538,0.310797352151734
0.348953515835142,0.307876402056737
0.358853474071049,0.309068128164703
0.367817368376774,0.313932581537286
0.375762538059831,0.322029813236137
0.382606322427737,0.332919874322909
0.388266060788004,0.346162815859253
0.392659092448149,0.361318688906821
0.395702756715687,0.377947544527265
0.397314392898132,0.395609433782237
0.397411340302999,0.41386440773339
0.395910938237802,0.432272517442374
0.392730526010058,0.450393813970843
0.387787442927281,0.467788348380447
0.380999028296985,0.48401617173284
0.372282621426686,0.498637335089672
0.361555561623899,0.511211889512597
0.348735188196138,0.521299886063265
0.333738840450918,0.528461375803329
0.316483857695755,0.532256409794442
0.296887579238162,0.532245039098253
0.274867344385656,0.527987314776417
0.25034049244575,0.519043287890585
0.223224362725961,0.504973009502408
0.193436294533802,0.485336530673539
0.160893627176789,0.459693902465629
0.125513699962436,0.427605175940331
0.0911775892291544,0.392850290208651
0.0553115526025698,0.353320162182087
0.0264083551335859,0.318204574953089
0.0040478150909093,0.287213582256793
-0.0121902492567536,0.260057237828336
-0.0227260196406961,0.236445595402852
-0.0279796777922117,0.216088708715478
-0.0283714054425938,0.19869663150135
-0.024321384323136,0.183979417495604
-0.0162497961651315,0.171647120433375
-0.00457682269987394,0.161409794049801
0.0102773543413433,0.152977492080016
0.0278925532272269,0.146060268259157
0.0478485922264832,0.14036817632236
0.069725289607819,0.13561127000476
0.0931024636399406,0.131499603041494
0.117559932591555,0.127743229167697
0.142677514731368,0.124052202118506
0.168035028328087,0.120136575629056
0.193212291650417,0.115706403434484
0.217789122967067,0.110471739269925
0.241345340546742,0.104142636870515
0.257577221434468,0.126412764299608
0.283715207569994,0.0870413323076871
0.322662549902128,0.109120814907596
0.33840521426344,0.0448014741561904
0.319041723003547,0.0802195493167616
0.331573830455859,0.0145244172984983
0.342366413540524,0.00483916325024772
0.342631178897838,-0.0206835105630731
0.3103227697318,-0.0182944692079582
0.328333779925323,-0.0831306683104601
0.340640861617546,-0.148601122267464
0.291465929827998,-0.162713214651268
0.283497459460794,-0.210368562924811
0.218387236255483,-0.218516079970835
0.198705288934102,-0.322344491324706
0.161327343204111,-0.365981539554751
0.0784910400207353,-0.451859084504864
0.0221967322077807,-0.526208418265961
