-0.320189284004239,-0.528243787028268
-0.324193795929917,-0.520631880264905
-0.328134609167931,-0.513078513795477
-0.332011959927923,-0.50558348401678
-0.335826084419534,-0.498146587325614
-0.339577218852403,-0.490767620118775
-0.343265599436173,-0.483446378793064
-0.346891462380483,-0.476182659745276
-0.350455043894974,-0.468976259372211
-0.353956580189288,-0.461826974070666
-0.357396307473065,-0.45473460023744
-0.360774461955945,-0.44769893426933
-0.364091279847571,-0.440719772563134
-0.367346997357581,-0.433796911515652
-0.370541850695618,-0.42693014752368
-0.373676076071321,-0.420119276984017
-0.376749909694333,-0.41336409629346
-0.379763587774293,-0.406664401848809
-0.382717346520842,-0.40001999004686
-0.385611422143621,-0.393430657284412
-0.388446050852271,-0.386896199958263
-0.391221468856432,-0.380416414465212
-0.393937912365746,-0.373991097202055
-0.396595617589854,-0.367620044565591
-0.399194820738395,-0.361303052952619
-0.401735758021011,-0.355039918759936
-0.404218665647342,-0.34883043838434
-0.40664377982703,-0.342674408222629
-0.409011336769715,-0.336571624671602
-0.411321572685038,-0.330521884128057
-0.413574723782639,-0.324524982988791
-0.41577102627216,-0.318580717650602
-0.417910716363241,-0.312688884510289
-0.419994030265524,-0.30684927996465
-0.422021204188648,-0.301061700410483
-0.423992474342254,-0.295325942244585
-0.425908076935984,-0.289641801863755
-0.427768248179478,-0.284009075664791
-0.429573224282377,-0.278427560044491
-0.431323241454322,-0.272897051399653
-0.433018535904953,-0.267417346127075
-0.434659343843912,-0.261988240623555
-0.436245901480839,-0.256609531285891
-0.437778445025374,-0.251281014510881
-0.439257210687159,-0.246002486695324
-0.440682434675835,-0.240773744236016
-0.442054353201042,-0.235594583529757
-0.44337320247242,-0.230464800973345
-0.444639218699612,-0.225384192963577
-0.445852638092257,-0.220352555897252
-0.447013696859996,-0.215369686171167
-0.448122631212471,-0.21043538018212
-0.449179677359321,-0.205549434326911
-0.450185071510188,-0.200711645002336
-0.451139049874713,-0.195921808605194
-0.452041848662535,-0.191179721532282
-0.452893704083297,-0.1864851801804
-0.453694852346639,-0.181837980946344
-0.454445529662201,-0.177237920226913
-0.455145972239625,-0.172684794418906
-0.455796416288551,-0.168178399919119
-0.456397098018619,-0.163718533124352
-0.456948253639472,-0.159304990431402
-0.457450119360749,-0.154937568237067
-0.457902931392091,-0.150616062938145
-0.45830692594314,-0.146340270931435
-0.458662339223535,-0.142109988613734
-0.458969407442917,-0.13792501238184
-0.459228366810929,-0.133785138632552
-0.459439453537209,-0.129690163762668
-0.4596029038314,-0.125639884168985
-0.459718953903141,-0.121634096248301
-0.459787839962074,-0.117672596397416
-0.459809798217839,-0.113755181013126
-0.459785064880077,-0.10988164649223
-0.459713876158429,-0.106051789231526
-0.459596468262536,-0.102265405627812
-0.459433077402039,-0.0985222920778855
-0.459223939786577,-0.0948222449785452
-0.458969291625793,-0.091165060726589
-0.458669369129327,-0.087550535718815
-0.458324408506819,-0.0839784663520211
-0.45793464596791,-0.0804486490230054
-0.457500317722242,-0.076960880128566
-0.457021659979454,-0.0735149560655009
-0.456498908949189,-0.0701106732306083
-0.455932300841086,-0.066747828020686
-0.455322071864786,-0.0634262168325322
-0.45466845822993,-0.060145636062945
-0.453971696146159,-0.0569058821087224
-0.453232021823114,-0.0537067513666623
-0.452449671470435,-0.050548040233563
-0.451624881297764,-0.0474295451062225
-0.45075788751474,-0.0443510623814387
-0.449848926331005,-0.0413123884560097
-0.4488982339562,-0.0383133197267338
-0.447906046599965,-0.0353536525904087
-0.446872600471942,-0.0324331834438327
-0.44579813178177,-0.0295517086838037
-0.444682876739091,-0.0267090247071198
-0.443527071553545,-0.023904927910579
-0.442330952434774,-0.0211392146909795
-0.441094755592417,-0.0184116814451193
-0.439818717236117,-0.0157221245697963
-0.438503073575513,-0.0130703404618088
-0.437148060820247,-0.0104561255179547
-0.435753915179958,-0.00787927613503202
-0.434320872864289,-0.00533958870983887
-0.432849170082879,-0.00283685963917338
-0.43133904304537,-0.000370885319833439
-0.429790727961403,0.0020585378513828
-0.428204461040617,0.00445161347767729
-0.426580478492654,0.00680854516225199
-0.424919016527155,0.00912953650830885
-0.423220311353761,0.0114147911190498
-0.421484599182111,0.0136645125976768
-0.419712116221848,0.0158789045473919
-0.417903098682611,0.0180581705713968
-0.416057782774042,0.0202025142728937
-0.414176404705781,0.0223121392550844
-0.41225920068747,0.0243872491211709
-0.410306406928748,0.0264280474743552
-0.408318259639257,0.0284347379178391
-0.406294995028638,0.0304075240548247
-0.404236849306531,0.0323466094885138
-0.402144058682577,0.0342521978221085
-0.400016859366417,0.0361244926588107
-0.397855487567691,0.0379636976018223
-0.395660179496041,0.0397700162543453
-0.393431171361107,0.0415436522195816
-0.39116869937253,0.0432848091007332
-0.38887299973995,0.044993690501002
-0.38654430867301,0.0466705000235899
-0.384182862381348,0.048315441271699
-0.381788897074607,0.0499287178485311
-0.379362648962427,0.0515105333572883
-0.376904354254448,0.0530610914011724
-0.374414249160312,0.0545805955833854
-0.371892569889659,0.0560692495071293
-0.369339552652129,0.0575272567756059
-0.366755433657365,0.0589548209920173
-0.364140449115007,0.0603521457595655
-0.361494835234694,0.0617194346814522
-0.358818828226069,0.0630568913608796
-0.356112664298772,0.0643647194010495
-0.353376579662444,0.0656431224051638
-0.350610810526725,0.0668923039764247
-0.347815593101256,0.0681124677180339
-0.344991163595678,0.0693038172331934
-0.342137758219633,0.0704665561251052
-0.339255613182759,0.0716008879969712
-0.3363449646947,0.0727070164519935
-0.333406048965094,0.0737851450933738
-0.330439102203584,0.0748354775243142
-0.327444360619809,0.0758582173480167
-0.32442206042341,0.0768535681676831
-0.32137243782403,0.0778217335865154
-0.318295729031307,0.0787629172077156
-0.315192170254883,0.0796773226344855
-0.312061997704399,0.0805651534700273
-0.308905447589495,0.0814266133175428
-0.305722756119813,0.0822619057802338
-0.302514159504992,0.0830712344613025
-0.299279893954674,0.0838548029639508
-0.2960201956785,0.0846128148913806
-0.292735300886111,0.0853454738467938
-0.289425445787146,0.0860529834333923
-0.286090866591247,0.0867355472543783
-0.282731799508056,0.0873933689129535
-0.279348480747211,0.08802665201232
-0.275941146518355,0.0886356001556796
-0.272510033031128,0.0892204169462344
-0.269055376495171,0.0897813059871862
-0.265577413120125,0.0903184708817371
-0.26207637911563,0.0908321152330889
-0.258552510691327,0.0913224426444437
-0.255006044056857,0.0917896567190034
-0.251437215421861,0.0922339610599698
-0.247846260995979,0.0926555592705451
-0.244233416988853,0.093054654953931
-0.240598919610123,0.0934314517133296
-0.23694300506943,0.0937861531519428
-0.233265909576414,0.0941189628729726
-0.229567869340717,0.0944300844796208
-0.22584912057198,0.0947197215750896
-0.222109899479842,0.0949880777625807
-0.218350442273945,0.0952353566452962
-0.21457098516393,0.0954617618264379
-0.210771764359437,0.095667496909208
-0.206953016070107,0.0958527654968082
-0.203114976505581,0.0960177711924406
-0.1992578818755,0.096162717599307
-0.195381968389505,0.0962878083206095
-0.191487472257236,0.0963932469595499
-0.187574629688333,0.0964792371193303
-0.183643676892439,0.0965459824031526
-0.179694850079194,0.0965936864142187
-0.175728385458237,0.0966225527557306
-0.171744519239211,0.0966327850308902
-0.167743487631756,0.0966245868428994
-0.163725526845513,0.0965981617949603
-0.159690873090122,0.0965537134902748
-0.155639762575225,0.0964914455320447
-0.151572431510462,0.0964115615234721
-0.147489116105474,0.096314265067759
-0.143390052569901,0.0961997597681072
-0.139275477113385,0.0960682492277187
-0.135145625945566,0.0959199370497954
-0.131000735276086,0.0957550268375394
-0.126841041314584,0.0955737221941525
-0.122666780270702,0.0953762267228367
-0.11847818835408,0.0951627440267939
-0.114275501774359,0.0949334777092261
-0.11005895674118,0.0946886313733353
-0.105828789464184,0.0944284086223234
-0.101585236153012,0.0941530130593922
-0.0973285330173035,0.0938626482877439
-0.0930589162667004,0.0935575179105803
-0.0887766221108433,0.0932378255311034
-0.0844818867593726,0.0929037747525151
-0.0801749464219296,0.0925555691780174
-0.0758560373081546,0.0921934124108122
-0.0715253956276888,0.0918175080541015
-0.0671832575901727,0.0914280597110872
-0.0628298594052472,0.0910252709849713
-0.058465437282553,0.0906093454789556
-0.0540902274317311,0.0901804867962423
-0.0497044660624219,0.0897388985400331
-0.0453083893842666,0.0892847843135301
-0.0409022336069056,0.0888183477199352
-0.0364862349399801,0.0883397923624504
-0.0320606295931304,0.0878493218442775
-0.0276256537759978,0.0873471397686186
-0.0231815436982226,0.0868334497386756
-0.018728535569446,0.0863084553576505
-0.0142668655993084,0.0857723602287451
-0.00979676999745088,0.0852253679551615
-0.00531848497351406,0.0846676821401015
-0.000832246737138831,0.0840995063867672
0.00366170850203418,0.0835210442983605
0.00816314453436387,0.0829324994780833
0.01267182515021,0.0823340755291376
0.0171875141399311,0.0817259760547253
0.0217099752938871,0.0811084046580484
0.0262389724024366,0.0804815649423088
0.0307742692559392,0.0798456605107085
0.0353156296447539,0.0792008949664494
0.0398628173592402,0.0785474719127335
0.044415596189757,0.0778855949527626
0.0489737299266637,0.0772154676897389
0.0535369823603194,0.0765372937268641
0.0581051172810835,0.0758512766673403
0.0626778984793149,0.0751576201143695
0.0672550897453733,0.0744565276711534
0.0718364548696174,0.0737482029408942
0.0764217576424068,0.0730328495267937
0.0810107618541005,0.0723106710320539
0.0856032312950579,0.0715818710598767
0.0901989297556379,0.0708466532134641
0.0947976210262001,0.0701052210960181
0.0993990688971034,0.0693577783107406
0.104003037158707,0.0686045284608335
0.108609289601371,0.0678456751494987
0.113217590015453,0.0670814219799383
0.117827702191314,0.0663119725553542
0.122439389919311,0.0655375304789483
0.127052416989806,0.0647582993539226
0.131666547193156,0.063974482783479
0.136281544319721,0.0631862843708195
0.14089717215986,0.062393907719146
0.145513194503933,0.0615975564316605
0.150129375142298,0.0607974341115648
0.154745477865315,0.059993744362061
0.159361266463344,0.0591866907863511
0.163976504726742,0.0583764769876369
0.16859095644587,0.0575633065691204
0.173204385411087,0.0567473831340035
0.177816555412751,0.0559289102854882
0.182427230241223,0.0551080916267766
0.187036173686861,0.0542851307610703
0.191643149540025,0.0534602312915716
0.196247921591073,0.0526335968214822
0.200850253630366,0.0518054309540042
0.205449909448262,0.0509759372923394
0.21004665283512,0.0501453194396899
0.2146402475813,0.0493137809992575
0.21923045747716,0.0484815255742444
0.223817046313061,0.0476487567678522
0.228399777879361,0.0468156781832831
0.23297841596642,0.045982493423739
0.237552724364596,0.0451494060924218
0.24212246686425,0.0443166197925334
0.246687407255739,0.0434843381272759
0.251247309329424,0.0426527646998511
0.255801936875664,0.0418221031134611
0.260351053684817,0.0409925569713077
0.264894423547244,0.0401643298765929
0.269431810253302,0.0393376254325187
0.273962977593353,0.038512647242287
0.278487689357754,0.0376895989090997
0.283005709336864,0.0368686840361588
0.287516801321045,0.0360501062266663
0.292020729100653,0.0352340690838241
0.296517256466049,0.0344207762108341
0.301006147207591,0.0336104312108983
0.30548716511564,0.0328032376872186
0.309960073980554,0.0319993992429971
0.314424637592692,0.0311991194814355
0.318880619742414,0.030402602005736
0.323327784220079,0.0296100504191003
0.327765894816046,0.0288216683247306
0.332194715320674,0.0280376593258286
0.336614009524323,0.0272582270255965
0.341023541217352,0.026483575027236
0.345423074190119,0.0257139069339493
0.349812372232985,0.0249494263489381
0.354191199136308,0.0241903368754045
0.358559318690447,0.0234368421165504
0.362916494685763,0.0226891456755779
0.367262490912613,0.0219474511556886
0.371597071161358,0.0212119621600848
0.375919999222356,0.0204828822919682
0.380231038885967,0.0197604151545409
0.38452995394255,0.0190447643510048
0.388816508182464,0.0183361334845619
0.393090465396069,0.017634726158414
0.397351589373722,0.0169407459757632
0.401599643905785,0.0162543965398114
0.405834392782616,0.0155758814537605
0.410055599794574,0.0149054043208125
0.414263028732018,0.0142431687441693
0.418456443385308,0.0135893783270329
0.422635607544802,0.0129442366726053
0.426800285000861,0.0123079473840882
0.430950239543843,0.0116807140646839
0.435085234964108,0.0110627403175941
0.439205035052015,0.0104542297460208
0.443309403597922,0.00985538595316602
0.44739810439219,0.00926641254223165
0.451470901225177,0.00868751311641962
0.455527557887242,0.00811889127893192
0.459567838168745,0.00756075063297046
0.463591505860046,0.00701329478173722
0.467598324751502,0.00647672732843412
0.471588058633474,0.00595125187626314
0.475560471296321,0.00543707202842619
0.479515326530402,0.00493439138812526
0.483452388126076,0.00444341355856226
0.487371419873702,0.00396434214293917
0.491272185563639,0.0034973807444579
0.495154448986248,0.00304273296632044
0.499017973931886,0.0026006024117287
0.502862524190914,0.00217119268388466
0.50668786355369,0.00175470738599024
0.510493755810574,0.00135135012124742
0.514279964751924,0.000961324492858105
0.518046254168101,0.000584834104024284
0.521792387849462,0.000222082557947871
0.525518129586369,-0.000126726542169153
0.529223243169179,-0.000461389593124873
0.532907492388252,-0.000781702991717312
0.536570641033947,-0.00108746313474455
0.540212452896624,-0.00137846641900461
0.543832691766641,-0.00165450924129557
0.547431121434358,-0.00191538799841546
0.551007505690134,-0.00216089908716236
0.554561608324328,-0.00239083890433429
0.5580931931273,-0.00260500384672933
0.561602023889408,-0.00280319031114551
0.565087864401013,-0.0029851946943809
0.568550478452472,-0.00315081339323354
0.571989629834146,-0.00329984280450149
0.575405082336393,-0.00343207932498279
0.578796599749573,-0.00354731935147552
0.582163945864045,-0.00364535928077769
0.585506884470168,-0.00372599550968739
0.588825179358302,-0.00378902443500265
0.592118594318805,-0.00383424245352154
0.595386893142037,-0.00386144596204209
0.598629839618357,-0.00387043135736237
0.601847197538124,-0.00386099503628043
0.605038730691699,-0.00383293339559431
0.608204202869438,-0.00378604283210208
0.611343377861703,-0.00372011974260178
0.614456019458851,-0.00363496052389146
0.617541891451243,-0.00353036157276918
0.620600757629238,-0.003406119286033
0.623632381783194,-0.00326203006048094
0.626636527703472,-0.00309789029291109
0.62961295918043,-0.00291349638012148
0.632561440004427,-0.00270864471891018
0.635481733965823,-0.00248313170607521
0.638373604854976,-0.00223675373841466
0.641236816462247,-0.00196930721272656
0.644071132577994,-0.00168058852580897
0.646876316992577,-0.00137039407445992
0.649652133496354,-0.00103852025547751
0.652398345879685,-0.00068476346565974
0.65511471793293,-0.000308920101804704
0.657801013446447,8.92134392895816e-05
0.657801013446447,8.92134392895816e-05
0.660442475140243,0.000498584096429502
0.663024635780588,0.000908025826274357
0.665547694227242,0.00131757275880542
0.668011849339961,0.00172725902400395
0.670417299978502,0.00213711875185122
0.672764245002622,0.00254718607232849
0.67505288327208,0.00295749511541704
0.677283413646633,0.00336808001109814
0.679456034986037,0.00377897488935305
0.681570946150051,0.00419021388016303
0.683628345998431,0.00460183111350937
0.685628433390935,0.00501386071937332
0.687571407187321,0.00542633682773615
0.689457466247346,0.00583929356857914
0.691286809430766,0.00625276507188354
0.69305963559734,0.00666678546763063
0.694776143606825,0.00708138888580168
0.696436532318978,0.00749660945637795
0.698041000593557,0.00791248130934072
0.699589747290318,0.00832903857467125
0.70108297126902,0.0087463153823508
0.70252087138942,0.00916434586236065
0.703903646511274,0.00958316414468206
0.705231495494342,0.0100028043592963
0.706504617198379,0.0104233006361847
0.707723210483142,0.0108446871053284
0.708887474208391,0.0112669978967087
0.709997607233881,0.011690267140307
0.711053808419371,0.0121145289661044
0.712056276624618,0.0125398175040823
0.713005210709378,0.0129661668842218
0.71390080953341,0.0133936112365044
0.71474327195647,0.0138221846909112
0.715532796838317,0.0142519213774235
0.716269583038707,0.0146828554260226
0.716953829417398,0.0151150209666897
0.717585734834147,0.0155484521294062
0.718165498148712,0.0159831830441532
0.71869331822085,0.0164192478409121
0.719169393910318,0.0168566806496641
0.719593924076874,0.0172955156003905
0.719967107580274,0.0177357868230726
0.720289143280277,0.0181775284476916
0.720560230036641,0.0186207746042288
0.720780566709121,0.0190655594226654
0.720950352157476,0.0195119170329828
0.721069785241462,0.0199598815651622
0.721139064820838,0.0204094871491848
0.721158389755361,0.020860767915032
0.721127958904788,0.0213137579926849
0.721047971128875,0.021768491512125
0.720918625287382,0.0222250026033333
0.720740120240065,0.0226833253962913
0.720512654846682,0.0231434940209802
0.720236427966989,0.0236055426073812
0.719911638460744,0.0240695052854756
0.719538485187705,0.0245354161852447
0.719117167007629,0.0250033094366697
0.718647882780274,0.0254732191697319
0.718130831365396,0.0259451795144127
0.717566211622753,0.0264192246006931
0.716954222412103,0.0268953885585546
0.716295062593202,0.0273737055179784
0.715588931025809,0.0278542096089457
0.71483602656968,0.0283369349614379
0.714036548084573,0.0288219157054362
0.713190694430245,0.0293091859709218
0.712298664466454,0.029798779887876
0.711360657052957,0.0302907315862801
0.710376871049511,0.0307850751961154
0.709347505315874,0.0312818448473631
0.708272758711804,0.0317810746700045
0.707152830097056,0.0322827987940209
0.70598791833139,0.0327870513493935
0.704778222274562,0.0332938664661037
0.70352394078633,0.0338032782741326
0.70222527272645,0.0343153209034615
0.700882416954681,0.0348300284840717
0.699495572330779,0.0353474351459445
0.698064937714503,0.0358675750190612
0.696590711965609,0.036390482233403
0.695073093943855,0.0369161909189511
0.693512282508998,0.0374447352056869
0.691908476520795,0.0379761492235916
0.690261874839005,0.0385104671026465
0.688572676323384,0.0390477229728328
0.686841079833689,0.0395879509641319
0.685067284229679,0.0401311852065249
0.68325148837111,0.0406774598299933
0.681393891117739,0.0412268089645181
0.679494691329325,0.0417792667400807
0.677554087865625,0.0423348672866624
0.675572279586395,0.0428936447342444
0.673549465351393,0.043455633212808
0.671485844020377,0.0440208668523344
0.669381614453104,0.044589379782805
0.667236975509332,0.045161206134201
0.665052126048816,0.0457363800365037
0.662827264931317,0.0463149356196943
0.660562591016589,0.0468969070137541
0.658258303164392,0.0474823283486644
0.655914600234482,0.0480712337544064
0.653531681086615,0.0486636573609614
0.651109744580552,0.0492596332983107
0.648648989576047,0.0498591956964356
0.646149614932859,0.0504623786853172
0.643611819510745,0.051069216394937
0.641035802169463,0.051679742955276
0.63842176176877,0.0522939924963157
0.635769897168422,0.0529119991480373
0.633080407228178,0.0535337970404221
0.630353490807795,0.0541594203034512
0.62758934676703,0.0547889030671061
0.624788173965641,0.0554222794613679
0.621950171263384,0.0560595836162179
0.619075537520019,0.0567008496616374
0.616164471595301,0.0573461117276077
0.613217172348987,0.05799540394411
0.610233838640837,0.0586487604411256
0.607214669330606,0.0593062153486358
0.604159863278053,0.0599678027966218
0.601069619342933,0.0606335569150649
0.597944136385006,0.0613035118339464
0.594783613264029,0.0619777016832475
0.591588248839757,0.0626561605929495
0.58835824197195,0.0633389226930337
0.585093791520365,0.0640260221134813
0.581795096344758,0.0647174929842737
0.578462355304887,0.065413369435392
0.57509576726051,0.0661136855968176
0.571695531071384,0.0668184755985316
0.568261845597266,0.0675277735705155
0.564794909697913,0.0682416136427504
0.561294922233084,0.0689600299452176
0.557762082062535,0.0696830566078984
0.554196588046023,0.0704107277607741
0.550598639043307,0.0711430775338259
0.546968433914144,0.0718801400570351
0.54330617151829,0.0726219494603829
0.539612050715503,0.0733685398738507
0.535886270365541,0.0741199454274196
0.532129029328161,0.074876200251071
0.52834052646312,0.0756373384747862
0.524520960630176,0.0764033942285463
0.520670530689086,0.0771744016423327
0.516789435499607,0.0779503948461267
0.512877873921497,0.0787314079699094
0.508936044814513,0.0795174751436622
0.504964147038413,0.0803086304973664
0.500962379452954,0.0811049081610031
0.496930940917892,0.0819063422645538
0.492870030292987,0.0827129669379996
0.488779846437995,0.0835248163113217
0.484660588212673,0.0843419245145016
0.480512454476778,0.0851643256775204
0.476335644090069,0.0859920539303594
0.472130355912303,0.086825143403
0.467896788803236,0.0876636282254232
0.463635141622626,0.0885075425276105
0.459345613230231,0.0893569204395431
0.455028402485808,0.0902117960912022
0.450683708249114,0.0910722036125691
0.446311729379907,0.0919381771336251
0.441912664737944,0.0928097507843516
0.437486713182982,0.0936869586947296
0.433034073574779,0.0945698349947405
0.428554944773093,0.0954584138143656
0.42404952563768,0.0963527292835861
0.419518015028298,0.0972528155323833
0.414960611804703,0.0981587066907385
0.410377514826655,0.0990704368886328
0.40576892295391,0.0999880402560478
0.401135035046225,0.100911550922964
0.396476049963358,0.101841003019364
0.391792166565066,0.102776430675228
0.387083583711106,0.103717868020538
0.382350500261237,0.104665349185274
0.377593115075214,0.105618908299419
0.372811627012796,0.106578579492953
0.36800623493374,0.107544396895857
0.363177137697804,0.108516394638114
0.358324534164744,0.109494606849704
0.353448623194318,0.110479067660608
0.348549603646284,0.111469811200808
0.343627674380398,0.112466871600284
0.338683034256419,0.11347028298902
0.333715882134103,0.114480079496994
0.328726416873208,0.11549629525419
0.323714837333491,0.116518964390587
0.31868134237471,0.117548121036168
0.313626130856622,0.118583799320913
0.308549401638984,0.119626033374805
0.303451353581555,0.120674857327823
0.29833218554409,0.12173030530995
0.293192096386347,0.122792411451166
0.288031284968085,0.123861209881454
0.28284995014906,0.124936734730793
0.277648290789029,0.126019020129166
0.272426505747751,0.127108100206554
0.267184793884982,0.128204009092938
0.261923354060479,0.129306780918299
0.256642385134001,0.130416449812619
0.251342085965303,0.131533049905878
0.246022655414145,0.132656615328059
0.240684292340283,0.133787180209142
0.235327195603475,0.134924778679108
0.229951564063477,0.13606944486794
0.224557596580048,0.137221212905617
0.219145492012944,0.138380116922122
0.213715449221924,0.139546191047436
0.208267667066743,0.14071946941154
0.202802344407161,0.141899986144414
0.197319680102934,0.143087775376042
0.191819873013819,0.144282871236403
0.186303121999574,0.145485307855479
0.180769625919956,0.146695119363251
0.175219583634723,0.147912339889701
0.169653194003632,0.14913700356481
0.16407065588644,0.150369144518559
0.158472168142905,0.151608796880929
0.152857929632784,0.152855994781902
0.147228139215835,0.154110772351459
0.141582995751814,0.155373163719581
0.135922698100479,0.15664320301625
0.130247445121588,0.157920924371446
0.124557435674898,0.159206361915151
0.118852868620167,0.160499549777346
0.113133942817151,0.161800522088013
0.107400857125607,0.163109312977133
0.101653810405295,0.164425956574687
0.09589300151597,0.165750487010656
0.0901186293173904,0.167082938415021
0.084330892669313,0.168423344917765
0.0785299904314958,0.169771740648868
0.0727161214636955,0.171128159738311
0.0668894846256702,0.172492636316075
0.0610502787771766,0.173865204512143
0.0551987027779725,0.175245898456495
0.049334955487815,0.176634752279112
0.0434592357664617,0.178031800109976
0.0375717424736697,0.179437076079068
0.0316726744691968,0.180850614316369
0.0257622306127999,0.182272448951861
0.0198406097642366,0.183702614115524
0.0139080107832641,0.185141143937341
0.00796463252964019,0.186588072547292
0.00201067386312168,0.188043434075359
-0.00395366635653346,0.189507262651522
-0.00992818926956857,0.190979592405764
-0.0159126960162257,0.192460457468065
-0.0219069877367478,0.193949891968407
-0.0279108655713771,0.19544793003677
-0.0339241306603568,0.196954605803137
-0.0399465841439291,0.198469953397488
-0.0459780271623371,0.199994006949806
-0.0520182608558226,0.20152680059007
-0.0580670863646291,0.203068368448262
-0.0641243048289988,0.204618744654364
-0.0701897173891744,0.206177963338357
-0.0762631251853983,0.207746058630222
-0.0823443293579137,0.20932306465994
-0.0884331310469627,0.210909015557493
-0.0945293313927883,0.212503945452862
-0.100632731535633,0.214107888476028
-0.106743132615739,0.215720878756972
-0.11286033577335,0.217342950425676
-0.118984142148707,0.218974137612121
-0.125114352882054,0.220614474446288
-0.131250769113634,0.222263995058159
-0.137393191983688,0.223922733577715
-0.143541422632459,0.225590724134936
-0.149695262200191,0.227268000859805
-0.155854511827126,0.228954597882303
-0.162018972653505,0.23065054933241
-0.168188445819573,0.232355889340108
-0.174362732465572,0.234070652035379
-0.180541633731744,0.235794871548204
-0.186724950758331,0.237528582008563
-0.192912484685577,0.239271817546439
-0.199104036653725,0.241024612291812
-0.205299407803016,0.242787000374663
-0.211498399273693,0.244559015924975
-0.217700812206,0.246340693072728
-0.223906447740178,0.248132065947903
-0.230115107016471,0.249933168680483
-0.23632659117512,0.251744035400447
-0.24254070135637,0.253564700237778
-0.248757238700461,0.255395197322456
-0.254976004347637,0.257235560784463
-0.261196799438141,0.259085824753781
-0.267419425112215,0.260946023360389
-0.273643682510101,0.262816190734271
-0.279869372772043,0.264696361005406
-0.286096297038282,0.266586568303776
-0.292324256449063,0.268486846759363
-0.298553052144627,0.270397230502148
-0.304782485265216,0.272317753662112
-0.311012356951074,0.274248450369236
-0.317242468342444,0.276189354753501
-0.323472620579567,0.27814050094489
-0.329702614802686,0.280101923073382
-0.335932252152045,0.28207365526896
-0.342161333767885,0.284055731661604
-0.348389660790449,0.286048186381297
-0.354617034359981,0.288051053558018
-0.360843255616722,0.29006436732175
-0.367068125700915,0.292088161802473
-0.373291445752803,0.29412247113017
-0.379513016912629,0.296167329434821
-0.385732640320634,0.298222770846407
-0.391950117117062,0.30028882949491
-0.398165248442156,0.302365539510311
-0.404377835436158,0.304452935022591
-0.41058767923931,0.306551050161732
-0.416794580991856,0.308659919057715
-0.422998341834037,0.310779575840521
-0.429198762906097,0.312910054640131
-0.435395645348278,0.315051389586527
-0.441588790300823,0.317203614809689
-0.447777998903974,0.3193667644396
-0.453963072297974,0.321540872606241
-0.460143811623066,0.323725973439592
-0.466320018019493,0.325922101069635
-0.472491492627496,0.328129289626351
-0.478658036587318,0.330347573239722
-0.484819451039203,0.332576986039728
-0.490975537123393,0.334817562156352
-0.49712609598013,0.337069335719574
-0.503270928749658,0.339332340859376
-0.509409836572217,0.341606611705738
-0.515542620588053,0.343892182388642
-0.521669081937406,0.34618908703807
-0.52778902176052,0.348497359784003
-0.533902241197637,0.350817034756421
-0.540008541389,0.353148146085307
-0.546107723474852,0.355490727900641
-0.552199588595435,0.357844814332405
-0.558283937890991,0.36021043951058
-0.564360572501764,0.362587637565147
-0.570429293567996,0.364976442626088
-0.576489902229929,0.367376888823383
-0.582542199627807,0.369789010287015
-0.588585986901872,0.372212841146964
-0.594621065192366,0.374648415533211
-0.600647235639533,0.377095767575739
-0.606664299383614,0.379554931404527
-0.612672057564853,0.382025941149558
-0.618670311323492,0.384508830940813
-0.624658861799773,0.387003634908273
-0.63063751013394,0.389510387181918
-0.636606057466235,0.392029121891732
-0.642564304936901,0.394559873167694
-0.648512053686179,0.397102675139786
-0.654449104854314,0.399657561937989
-0.660375259581547,0.402224567692285
-0.666290319008121,0.404803726532655
-0.672194084274279,0.407395072589079
-0.678086356520264,0.409998639991541
-0.683966936886317,0.412614462870019
-0.689835626512682,0.415242575354497
-0.695692226539601,0.417883011574955
-0.701536538107318,0.420535805661374
-0.707368362356073,0.423200991743736
-0.713187500426111,0.425878603952022
-0.718993753457674,0.428568676416213
-0.724786922591004,0.431271243266291
-0.730566808966345,0.433986338632236
-0.736333213723938,0.436713996644031
-0.742085938004026,0.439454251431656
-0.747824782946852,0.442207137125092
-0.753549549692659,0.444972687854322
-0.759260039381689,0.447750937749325
-0.764956053154185,0.450541920940084
-0.77063739215039,0.453345671556579
-0.776303857510545,0.456162223728792
-0.781955250374895,0.458991611586705
-0.78759137188368,0.461833869260298
-0.793212023177145,0.464689030879552
-0.798817005395531,0.46755713057445
-0.804406119679082,0.470438202474972
-0.80997916716804,0.473332280711099
-0.815535949002647,0.476239399412814
-0.821076266323146,0.479159592710096
-0.82659992026978,0.482092894732927
-0.832106711982792,0.48503933961129
-0.837596442602423,0.487998961475164
-0.843068913268917,0.490971794454531
-0.848523925122517,0.493957872679373
-0.853961279303465,0.49695723027967
-0.859380776952003,0.499969901385404
-0.864782219208374,0.502995920126556
-0.870165407212821,0.506035320633108
-0.875530142105587,0.509088137035041
-0.880876225026914,0.512154403462336
-0.886203457117044,0.515234154044974
-0.891511639516221,0.518327422912936
-0.896800573364687,0.521434244196205
-0.902070059802685,0.52455465202476
-0.907319899970457,0.527688680528584
