-0.540906552861316,-0.0650806698748772
-0.537322120916611,-0.0719748853462418
-0.533761637891279,-0.0788156454520448
-0.530225043247059,-0.0856031628633199
-0.526712276445686,-0.0923376502511013
-0.523223276948894,-0.0990193202864228
-0.519757984218422,-0.105648385640318
-0.516316337716003,-0.112225058983822
-0.512898276903375,-0.118749552987968
-0.509503741242272,-0.125222080323789
-0.506132670194432,-0.131642853662321
-0.502785003221588,-0.138012085674596
-0.499460679785479,-0.14432998903165
-0.496159639347839,-0.150596776404515
-0.492881821370405,-0.156812660464226
-0.489627165314911,-0.162977853881816
-0.486395610643095,-0.16909256932832
-0.483187096816691,-0.175157019474772
-0.480001563297436,-0.181171416992206
-0.476838949547066,-0.187135974551655
-0.473699195027316,-0.193050904824153
-0.470582239199923,-0.198916420480735
-0.467488021526621,-0.204732734192434
-0.464416481469148,-0.210500058630285
-0.461367558489239,-0.216218606465321
-0.45834119204863,-0.221888590368576
-0.455337321609056,-0.227510223011084
-0.452355886632254,-0.23308371706388
-0.449396826579959,-0.238609285197997
-0.446460080913907,-0.244087140084468
-0.443545589095835,-0.249517494394329
-0.440653290587477,-0.254900560798613
-0.437783124850571,-0.260236551968354
-0.434935031346851,-0.265525680574586
-0.432108949538054,-0.270768159288342
-0.429304818885915,-0.275964200780658
-0.426522578852171,-0.281114017722566
-0.423762168898556,-0.286217822785101
-0.421023528486808,-0.291275828639297
-0.418306597078662,-0.296288247956187
-0.415611314135853,-0.301255293406806
-0.412937619120118,-0.306177177662188
-0.410285451493193,-0.311054113393366
-0.407654750716813,-0.315886313271374
-0.405045456252714,-0.320673989967247
-0.402457507562633,-0.325417356152019
-0.399890844108304,-0.330116624496723
-0.397345405351464,-0.334772007672393
-0.394821130753849,-0.339383718350063
-0.392317959777194,-0.343951969200767
-0.389835831883236,-0.34847697289554
-0.38737468653371,-0.352958942105415
-0.384934463190353,-0.357398089501426
-0.382515101314899,-0.361794627754607
-0.380116540369085,-0.366148769535992
-0.377738719814647,-0.370460727516615
-0.375381579113321,-0.374730714367509
-0.373045057726842,-0.37895894275971
-0.370729095116946,-0.383145625364251
-0.36843363074537,-0.387290974852165
-0.366158604073849,-0.391395203894487
-0.363903954564118,-0.395458525162251
-0.361669621677915,-0.39948115132649
-0.359455544876974,-0.403463295058239
-0.357261663623032,-0.407405169028532
-0.355087917377824,-0.411306985908402
-0.352934245603086,-0.415168958368883
-0.350800587760555,-0.41899129908101
-0.348686883311965,-0.422774220715817
-0.346593071719054,-0.426517935944336
-0.344519092443556,-0.430222657437603
-0.342464884947207,-0.433888597866651
-0.340430388691745,-0.437515969902515
-0.338415543138903,-0.441104986216228
-0.336420287750419,-0.444655859478823
-0.334444561988027,-0.448168802361336
-0.332488305313465,-0.4516440275348
-0.330551457188468,-0.455081747670249
-0.328633957074771,-0.458482175438717
-0.32673574443411,-0.461845523511237
-0.324856758728222,-0.465172004558845
-0.322996939418843,-0.468461831252574
-0.321156225967707,-0.471715216263457
-0.319334557836551,-0.474932372262528
-0.317531874487112,-0.478113511920823
-0.315748115381124,-0.481258847909374
-0.313983219980323,-0.484368592899216
-0.312237127746446,-0.487442959561382
-0.310509778141228,-0.490482160566907
-0.308801110626406,-0.493486408586825
-0.307111064663714,-0.496455916292169
-0.305439579714889,-0.499390896353973
-0.303786595241667,-0.502291561443271
-0.302152050705784,-0.505158124231098
-0.300535885568975,-0.507990797388487
-0.298938039292977,-0.510789793586472
-0.297358451339525,-0.513555325496088
-0.295797061170355,-0.516287605788367
-0.294253808247202,-0.518986847134345
-0.292728632031804,-0.521653262205054
-0.291221471985895,-0.52428706367153
-0.289732267571212,-0.526888464204806
-0.288260958249491,-0.529457676475915
-0.286807483482466,-0.531994913155892
-0.285371782731875,-0.534500386915771
-0.283953795459453,-0.536974310426586
-0.282553461126935,-0.539416896359371
-0.281170719196059,-0.541828357385159
-0.279805509128559,-0.544208906174985
-0.278457770386171,-0.546558755399883
-0.277127442430632,-0.548878117730886
-0.275814464723677,-0.551167205839028
-0.274518776727042,-0.553426232395344
-0.273240317902463,-0.555655410070868
-0.271979027711675,-0.557854951536633
-0.270734845616416,-0.560025069463673
-0.26950771107842,-0.562165976523022
-0.268297563559423,-0.564277885385715
-0.267104342521162,-0.566361008722785
-0.265927987425371,-0.568415559205266
-0.264768437733788,-0.570441749504192
-0.263625632908148,-0.572439792290597
-0.262499512410186,-0.574409900235515
-0.261390015701639,-0.57635228600998
-0.260297082244242,-0.578267162285027
-0.259220651499732,-0.580154741731688
-0.258160662929843,-0.582015237020997
-0.257117055996313,-0.58384886082399
-0.256089770160877,-0.5856558258117
-0.25507874488527,-0.58743634465516
-0.25408391963123,-0.589190630025405
-0.25310523386049,-0.590918894593468
-0.252142627034788,-0.592621351030384
-0.251196038615859,-0.594298212007187
-0.25026540806544,-0.59594969019491
-0.249350674845265,-0.597575998264587
-0.248451778417071,-0.599177348887253
-0.247568658242594,-0.600753954733942
-0.246701253783569,-0.602306028475686
-0.245849504501733,-0.603833782783521
-0.245013349858821,-0.60533743032848
-0.244192729316569,-0.606817183781598
-0.243387582336713,-0.608273255813907
-0.242597848380989,-0.609705859096443
-0.241823466911133,-0.611115206300238
-0.241064377388881,-0.612501510096328
-0.240320519275968,-0.613864983155746
-0.23959183203413,-0.615205838149525
-0.238878255125103,-0.616524287748701
-0.238179728010624,-0.617820544624306
-0.237496190152427,-0.619094821447375
-0.23682758101225,-0.620347330888942
-0.236173840051827,-0.62157828562004
-0.235534906732894,-0.622787898311705
-0.234910720517188,-0.623976381634968
-0.234301220866444,-0.625143948260866
-0.233706347242399,-0.626290810860431
-0.233126039106787,-0.627417182104697
-0.232560235921345,-0.628523274664699
-0.232008877147809,-0.62960930121147
-0.231471902247914,-0.630675474416045
-0.230949250683397,-0.631722006949457
-0.230440861915993,-0.63274911148274
-0.229946675407439,-0.633757000686929
-0.229466630619469,-0.634745887233056
-0.229000667013821,-0.635715983792157
-0.228548724052229,-0.636667503035265
-0.22811074119643,-0.637600657633414
-0.227686657908159,-0.638515660257638
-0.227276413649153,-0.639412723578971
-0.226879947881146,-0.640292060268447
-0.226497200065876,-0.641153882997099
-0.226128109665078,-0.641998404435963
-0.225772616140488,-0.642825837256071
-0.225430658953842,-0.643636394128458
-0.225102177566875,-0.644430287724158
-0.224787111441323,-0.645207730714205
-0.224485400038923,-0.645968935769632
-0.22419698282141,-0.646714115561473
-0.22392179925052,-0.647443482760763
-0.223659788787989,-0.648157250038536
-0.223410890895553,-0.648855630065825
-0.223175045034947,-0.649538835513665
-0.222952190667907,-0.650207079053088
-0.222742267256171,-0.650860573355131
-0.222545214261472,-0.651499531090825
-0.222360971145547,-0.652124164931206
-0.222189477370133,-0.652734687547306
-0.222030672396964,-0.653331311610161
-0.221884495687776,-0.653914249790805
-0.221750886704307,-0.65448371476027
-0.22162978490829,-0.655039919189591
-0.221521129761463,-0.655583075749802
-0.221424860725562,-0.656113397111937
-0.221340917262321,-0.656631095947029
-0.221269238833477,-0.657136384926114
-0.221209764900766,-0.657629476720224
-0.221162434925923,-0.658110584000395
-0.221127188370685,-0.658579919437658
-0.221103964696787,-0.65903769570305
-0.221092703365965,-0.659484125467603
-0.221093343839955,-0.659919421402352
-0.221105825580494,-0.66034379617833
-0.221130088049316,-0.660757462466572
-0.221166070708158,-0.661160632938111
-0.221213713018755,-0.661553520263981
-0.221272954442843,-0.661936337115217
-0.221343734442159,-0.662309296162853
-0.221425992478438,-0.662672610077921
-0.221519668013416,-0.663026491531457
-0.221624700508829,-0.663371153194493
-0.221741029426413,-0.663706807738065
-0.221868594227903,-0.664033667833206
-0.222007334375035,-0.66435194615095
-0.222157189329546,-0.664661855362331
-0.222318098553171,-0.664963608138383
-0.222490001507646,-0.66525741715014
-0.222672837654707,-0.665543495068636
-0.222866546456089,-0.665822054564905
-0.22307106737353,-0.66609330830998
-0.223286339868764,-0.666357468974896
-0.223512303403527,-0.666614749230687
-0.223748897439555,-0.666865361748386
-0.223996061438584,-0.667109519199028
-0.224253734862351,-0.667347434253647
-0.22452185717259,-0.667579319583276
-0.224800367831038,-0.66780538785895
-0.22508920629943,-0.668025851751702
-0.225388312039503,-0.668240923932566
-0.225697624512992,-0.668450817072577
-0.226017083181634,-0.668655743842768
-0.226346627507163,-0.668855916914173
-0.226686196951316,-0.669051548957827
-0.227035730975829,-0.669242852644762
-0.227395169042438,-0.669430040646014
-0.227764450612878,-0.669613325632616
-0.228143515148885,-0.669792920275602
-0.228532302112195,-0.669969037246006
-0.228930750964545,-0.670141889214862
-0.229338801167669,-0.670311688853203
-0.229756392183305,-0.670478648832065
-0.230183463473187,-0.67064298182248
-0.230619954499051,-0.670804900495483
-0.231065804722634,-0.670964617522108
-0.231520953605671,-0.671122345573389
-0.231985340609898,-0.671278297320359
-0.232458905197051,-0.671432685434053
-0.232941586828867,-0.671585722585504
-0.233433324967079,-0.671737621445747
-0.233934059073426,-0.671888594685815
-0.234443728609641,-0.672038854976743
-0.234962273037462,-0.672188614989564
-0.235489631818625,-0.672338087395313
-0.236025744414864,-0.672487484865022
-0.236570550287916,-0.672637020069727
-0.237123988899517,-0.672786905680461
-0.237685999711403,-0.672937354368259
-0.238256522185309,-0.673088578804153
-0.238835495782971,-0.673240791659179
-0.239422859966126,-0.673394205604369
-0.240018554196509,-0.673549033310759
-0.240622517935856,-0.673705487449381
-0.241234690645902,-0.673863780691271
-0.241855011788385,-0.674024125707461
-0.242483420825038,-0.674186735168986
-0.2431198572176,-0.67435182174688
-0.243764260427804,-0.674519598112176
-0.244416569917388,-0.674690276935909
-0.245076725148087,-0.674864070889113
-0.245744665581636,-0.675041192642822
-0.246420330679772,-0.675221854868069
-0.247103659904231,-0.675406270235888
-0.247794592716749,-0.675594651417314
-0.248493068579061,-0.67578721108338
-0.249199026952903,-0.675984161905121
-0.249912407300011,-0.67618571655357
-0.250633149082121,-0.676392087699761
-0.251361191760968,-0.676603488014729
-0.25209647479829,-0.676820130169506
-0.252838937655821,-0.677042226835128
-0.253588519795297,-0.677269990682628
-0.254345160678455,-0.67750363438304
-0.255108799767029,-0.677743370607398
-0.255879376522757,-0.677989412026736
-0.256656830407374,-0.678241971312088
-0.257441100882615,-0.678501261134488
-0.258232127410217,-0.67876749416497
-0.259029849451915,-0.679040883074567
-0.259834206469446,-0.679321640534315
-0.260645137924545,-0.679609979215246
-0.261462583278948,-0.679906111788394
-0.26228648199439,-0.680210250924795
-0.263116773532609,-0.68052260929548
-0.263953397355339,-0.680843399571486
-0.264796292924317,-0.681172834423845
-0.265645399701278,-0.681511126523591
-0.266500657147958,-0.681858488541759
-0.267362004726094,-0.682215133149382
-0.26822938189742,-0.682581273017494
-0.269102728123673,-0.68295712081713
-0.269981982866589,-0.683342889219323
-0.270867085587904,-0.683738790895107
-0.271757975749353,-0.684145038515516
-0.272654592812672,-0.684561844751585
-0.273556876239597,-0.684989422274346
-0.274464765491864,-0.685427983754834
-0.27537820003121,-0.685877741864084
-0.276297119319369,-0.686338909273128
-0.277221462818077,-0.686811698653001
-0.278151169989072,-0.687296322674737
-0.279086180294087,-0.68779299400937
-0.28002643319486,-0.688301925327934
-0.280971868153125,-0.688823329301462
-0.28192242463062,-0.689357418600989
-0.28287804208908,-0.689904405897548
-0.28383865999024,-0.690464503862174
-0.284804217795837,-0.691037925165901
-0.285774654967606,-0.691624882479762
-0.286749910967283,-0.692225588474792
-0.287729925256605,-0.692840255822024
-0.288714637297306,-0.693469097192492
-0.289703986551124,-0.694112325257231
-0.290697912479793,-0.694770152687274
-0.291696354545049,-0.695442792153655
-0.29269925220863,-0.696130456327408
-0.293706544932269,-0.696833357879568
-0.294718172177704,-0.697551709481167
-0.295734073406669,-0.698285723803241
-0.296754188080902,-0.699035613516822
-0.297778455662138,-0.699801591292946
-0.298806815612112,-0.700583869802645
-0.29983920739256,-0.701382661716955
-0.300875570465219,-0.702198179706908
-0.301915844291824,-0.703030636443539
-0.302959968334112,-0.703880244597882
-0.304007882053817,-0.70474721684097
-0.305059524912676,-0.705631765843838
-0.306114836372425,-0.70653410427752
-0.307173755894799,-0.707454444813049
-0.308236222941535,-0.70839300012146
-0.309302176974368,-0.709349982873786
-0.310371557455035,-0.710325605741062
-0.31144430384527,-0.711320081394321
-0.31252035560681,-0.712333622504597
-0.313599652201391,-0.713366441742925
-0.314682133090749,-0.714418751780338
-0.315767737736619,-0.71549076528787
-0.316856405600737,-0.716582694936556
-0.31794807614484,-0.717694753397428
-0.319042688830663,-0.718827153341522
-0.320140183119942,-0.719980107439871
-0.321240498474412,-0.721153828363508
-0.32234357435581,-0.722348528783469
-0.323449350225872,-0.723564421370786
-0.324557765546333,-0.724801718796495
-0.32566875977893,-0.726060633731628
-0.326782272385397,-0.72734137884722
-0.327898242827472,-0.728644166814305
-0.329016610566889,-0.729969210303916
-0.330137315065386,-0.731316721987088
-0.331260295784696,-0.732686914534855
-0.332385492186558,-0.73408000061825
-0.333512843732705,-0.735496192908308
-0.334642289884875,-0.736935704076062
-0.335773770104803,-0.738398746792547
-0.336907223854225,-0.739885533728796
-0.338042590594876,-0.741396277555843
-0.339179809788493,-0.742931190944723
-0.340318820896812,-0.744490486566469
-0.341459563381568,-0.746074377092115
-0.342601976704498,-0.747683075192695
-0.343746000327336,-0.749316793539244
-0.34489157371182,-0.750975744802794
-0.346038636319684,-0.752660141654381
-0.347187127612665,-0.754370196765037
-0.348336987052499,-0.756106122805797
-0.349488154100921,-0.757868132447696
-0.350640568219667,-0.759656438361766
-0.351794168870473,-0.761471253219042
-0.352948895515076,-0.763312789690558
-0.35410468761521,-0.765181260447348
-0.355261484632613,-0.767076878160445
-0.356419226029019,-0.768999855500884
-0.357577851266164,-0.770950405139698
-0.358737299805785,-0.772928739747922
-0.359897511109617,-0.77493507199659
-0.361058424639396,-0.776969614556735
-0.362219979856858,-0.779032580099391
-0.363382116223738,-0.781124181295593
-0.364544773201774,-0.783244630816374
-0.3657078902527,-0.785394141332769
-0.366871406838253,-0.78757292551581
-0.368035262420167,-0.789781196036533
-0.36919939646018,-0.792019165565971
-0.370363748420027,-0.794287046775159
-0.371528257761444,-0.796585052335129
-0.372692863946167,-0.798913394916916
-0.373857506435931,-0.801272287191555
-0.375022124692472,-0.803661941830078
-0.376186658177527,-0.80608257150352
