0.111897400710523,-0.683735049986478
0.107351337836242,-0.683385851517536
0.102851821252364,-0.683028451410609
0.098398726814336,-0.682662826326839
0.0939919303776079,-0.682288952927367
0.0896313077976281,-0.681906807873335
0.085316734929845,-0.681516367825884
0.0810480876297073,-0.681117609446157
0.0768252417526638,-0.680710509395295
0.072648073154163,-0.680295044334439
0.0685164576896535,-0.679871190924732
0.064430271214584,-0.679438925827314
0.0603893895844031,-0.678998225703329
0.0563936886545595,-0.678549067213917
0.0524430442805018,-0.67809142702022
0.0446764286215385,-0.677150608164538
0.0408602090475302,-0.676667382824836
0.0370885494511023,-0.676175582425416
0.0333613256877035,-0.67567518362742
0.0296784136127824,-0.675166163091989
0.0260396890817876,-0.674648497480265
0.0224450279501677,-0.67412216345339
0.0188943060733715,-0.673587137672504
0.0153873993068474,-0.673043396798752
0.0119241835060443,-0.672490917493272
0.00850453452641058,-0.671929676417208
0.00512832822339504,-0.671359650231701
0.00179544045244621,-0.670780815597893
-0.00149425293098719,-0.670193149176926
-0.00474087607145656,-0.66959662762994
-0.00794455311351331,-0.668991227618078
-0.0111054082017087,-0.668376925802482
-0.0142235654805942,-0.667753698844293
-0.0172991490947212,-0.667121523404653
-0.0203322831886409,-0.666480376144703
-0.0233230919069048,-0.665830233725586
-0.0262716993940643,-0.665171072808443
-0.0291782297946706,-0.664502870054416
-0.0320428072532752,-0.663825602124645
-0.0348655559144295,-0.663139245680274
-0.0376465999226848,-0.662443777382444
-0.0403860634225924,-0.661739173892296
-0.0430840705587037,-0.661025411870972
-0.0457407454755702,-0.660302467979614
-0.0483562123177431,-0.659570318879364
-0.0509305952297739,-0.658828941231362
-0.0534640183562138,-0.658078311696752
-0.0559566058416144,-0.657318406936674
-0.0584084818305268,-0.656549203612271
-0.0608197704675025,-0.655770678384683
-0.0631905958970929,-0.654982807915053
-0.0655210822638494,-0.654185568864522
-0.0678113537123232,-0.653378937894233
-0.0700615343870658,-0.652562891665326
-0.0722717484326285,-0.651737406838943
-0.0765727732144198,-0.650058028038319
-0.0786638322397511,-0.649204087386359
-0.0807154212141079,-0.648340614781491
-0.0827276642820418,-0.647467586884856
-0.0847006855881039,-0.646584980357596
-0.0866346092768458,-0.645692771860851
-0.0885295594928187,-0.644790938055765
-0.090385660380574,-0.643879455603478
-0.0922030360846631,-0.642958301165133
-0.0939818107496374,-0.64202745140187
-0.0974240535404469,-0.640136572545161
-0.0990877699553848,-0.639176496773998
-0.100713381909413,-0.638206632322484
-0.102301013547084,-0.637226955851762
-0.103850789012948,-0.636237444022973
-0.105362832451556,-0.635238073497259
-0.106837268007461,-0.634228820935761
-0.108274219825213,-0.633209662999622
-0.109673812049364,-0.632180576349983
-0.111036168824465,-0.631141537647985
-0.112361414295068,-0.63009252355477
-0.113649672605723,-0.629033510731481
-0.114901067900983,-0.627964475839258
-0.116115724325399,-0.626885395539243
-0.117293766023521,-0.625796246492579
-0.118435317139902,-0.624697005360406
-0.119540501819093,-0.623587648803866
-0.120609444205645,-0.622468153484102
-0.122639098679037,-0.620198653199466
-0.12360005905498,-0.619048601556877
-0.12452527371649,-0.61788831779563
-0.125414866808118,-0.616717778576867
-0.126268962474415,-0.615536960561729
-0.127871158109223,-0.613144394786895
-0.128619506366836,-0.611932600349483
-0.129332853777324,-0.610710433760263
-0.130011324485238,-0.609477871680377
-0.13126413237155,-0.606981467693172
-0.131838717839051,-0.605717579108137
-0.133356690073548,-0.601862886921001
-0.133794499910884,-0.600556902918418
-0.134568593091617,-0.597913164969795
-0.134905124724117,-0.596575364346039
-0.135208145244109,-0.595226911504175
-0.135477778796144,-0.593867783105345
-0.135714149524772,-0.592497955810691
-0.135917381574545,-0.591117406281354
-0.136087599090015,-0.589726111178476
-0.136224926215734,-0.588324047163199
-0.136329487096251,-0.586911190896664
-0.136401405876119,-0.585487519040014
-0.13644080669989,-0.584053008254389
-0.136422551057342,-0.581151376540784
-0.136365142880127,-0.579684208935087
-0.136275713325019,-0.578206109044982
-0.13615438653657,-0.576717053531612
-0.136001286659332,-0.575217019056118
-0.135600264216691,-0.572183919863324
-0.135352589940392,-0.570650808468308
-0.135073639153509,-0.569106624755735
-0.134763536000592,-0.567551345386746
-0.134422404626194,-0.565984947022483
-0.134050369174866,-0.564407406324088
-0.133647553791159,-0.562818699952702
-0.133214082619625,-0.561218804569468
-0.132750079804814,-0.559607696835526
-0.131730975823571,-0.556351750960089
-0.13117612294624,-0.554706866140876
-0.129976436140919,-0.551383156045171
-0.128657602231727,-0.548014036414038
-0.127953815474557,-0.54631238967554
-0.127220614375074,-0.544599320536611
-0.126458123077828,-0.542874805658391
-0.125666465727371,-0.541138821702023
-0.12399614944503,-0.537632353199407
-0.123117738802249,-0.535861821975444
-0.118298126354284,-0.526835262574732
-0.11724956102974,-0.524995006666403
-0.113936813988128,-0.519403930785593
-0.110376097380126,-0.513706902555024
-0.109134666837279,-0.511784239263549
-0.107866180698594,-0.509849710133334
-0.106570763108622,-0.507903291825521
-0.102524163076503,-0.501992468447911
-0.0996940484487662,-0.497992045762445
-0.0982396491866548,-0.495973802273019
-0.0952527874887027,-0.49190113430649
-0.0937205733419648,-0.48984666315167
-0.0921626691894541,-0.487780069430669
-0.087336058142799,-0.481507319481996
-0.0839921433996068,-0.477264445472906
-0.0822827062480382,-0.475124626238794
-0.0805484481025564,-0.472972521066492
-0.0787894931077127,-0.470808106617142
-0.0770059654080585,-0.468631359551886
-0.0733656884725243,-0.464240774218224
-0.0715091875257469,-0.462026889272101
-0.0677240813969285,-0.457561818126978
-0.063843663918101,-0.453046856385631
-0.0598689282456753,-0.448481817337195
-0.053732150653689,-0.441539955383727
-0.0473887436309184,-0.434484369240683
-0.0430466667482092,-0.429717153855223
-0.0386152374539566,-0.424898927608341
-0.0363663260138798,-0.42247062706472
-0.0340954489045713,-0.420029503789169
-0.0318027302705823,-0.41757553444283
-0.0294882942564643,-0.415108695686843
-0.0271522650067686,-0.412628964182351
-0.0224159233788496,-0.407630729572417
-0.0200158592897291,-0.405112179789259
-0.0261472915607642,-0.410585647161656
-0.010492090927055,-0.417413721581953
-0.0126895836563394,-0.397478520460719
-0.0268860587036651,-0.42550830303131
0.00735662269768819,-0.387892819409506
0.00364847986964931,-0.394135230256565
0.00512461390597339,-0.379208595329429
0.0103949437130603,-0.373869991370668
0.0214880611320155,-0.360033067940935
0.0157437012111706,-0.368478322730953
0.0184471799829811,-0.365762530808592
0.0211698932438933,-0.363033402699418
0.00498176884211972,-0.3724826001572
0.0294521985157266,-0.354765767862434
0.0258467317860541,-0.354350541644157
0.0350676318256825,-0.349186902491308
0.0408156263632087,-0.38387271279075
0.0641155208698984,-0.340494370131509
0.0234736971470875,-0.308025932051434
0.0485946232392304,-0.348847957905272
0.0664723074995614,-0.304876804979938
0.0582590183731378,-0.326330525099616
0.0612379793035808,-0.323412239794934
0.0602269989703075,-0.297993106385461
0.0775208757072553,-0.317876147341383
0.070411829073328,-0.333392397952662
0.0920545554163861,-0.261890068988228
0.0561272578442218,-0.309475909616775
0.0968612746182068,-0.30468332668786
0.105331348425896,-0.291711271414306
0.135854537775768,-0.245378648017548
0.134297572681227,-0.252467029504141
0.137659205415442,-0.249213832202055
0.141035231001256,-0.245946388497681
0.15468077896947,-0.232733682880144
0.161586682304832,-0.226041244847335
0.165059981804397,-0.222673422838917
0.16854668099915,-0.219291167717345
0.172046655744538,-0.21589445614376
0.189741317671727,-0.198693234635615
0.193318338685354,-0.195209294233933
0.200509476184386,-0.18819753061965
0.207749246682114,-0.181127100998419
0.21138705894411,-0.177569828088052
0.215036657022126,-0.173997818659373
0.222370714048012,-0.166809496891647
0.229750424603361,-0.159561948984374
0.252153545882073,-0.137462081316606
0.267299019847661,-0.122429282474473
0.298058357619515,-0.0916380342463215
0.317577219393339,-0.0718978799748992
0.349233050681025,-0.0395121391900752
0.353224257864542,-0.0353940714225349
0.373285697905392,-0.0145692649666268
0.377318197726355,-0.0103572467797959
0.381357145147628,-0.0061294885037456
0.385402416024661,-0.001885966799618
0.393511431567801,0.00664846024830315
0.426175603060474,0.0414213733347497
0.430282238410473,0.0458398331123785
0.316841387006228,0.157490691471453
0.552166756607421,0.15530609864976
0.581971165579228,-0.0143792024104775
0.559186230809855,0.180350380647724
0.47574694105462,0.0955068958440179
0.389598739850297,-0.0162596282738498
0.488226188259633,0.109393456089318
0.496561371791016,0.118732975213389
0.509085192289121,0.132865439117467
0.521631287559232,0.147146285415711
0.422049953867759,0.0389946954640549
0.555170949483676,0.185958759494745
0.472361542371415,0.318627663884018
0.491812456105611,0.117488236110057
0.496587944723789,0.347787469972557
0.524304130556161,0.171256307329982
0.748741838181863,0.377514501092563
0.551978931433157,0.230967025066192
0.574167701653771,0.447063649111859
0.79632249275738,0.242730162639865
0.591179824866804,0.239525414448129
