0.656945326437137,0.342804927188015
0.666149720660039,0.0608361475988024
0.197655896368674,0.423223978570286
0.0760574318666631,0.496111206400132
-0.0455410326353474,0.568998434229977
-0.948176729091827,0.472343223060554
-0.842730412048648,0.109531136150649
