-0.653656722441992,-0.506612670219013
-0.6432722018261,-0.50081679115328
-0.63297831028939,-0.495023473217248
-0.622774652155949,-0.489232798420014
-0.612660831749865,-0.483444848770678
-0.602636453395225,-0.477659706278335
-0.592701121416117,-0.471877452952084
-0.582854440136627,-0.466098170801022
-0.573096013880844,-0.460321941834247
-0.563425446972855,-0.454548848060855
-0.553842343736748,-0.448778971489946
-0.544346308496609,-0.443012394130615
-0.534936945576526,-0.437249197991962
-0.525613859300588,-0.431489465083082
-0.51637665399288,-0.425733277413074
-0.50722493397749,-0.419980716991036
-0.498158303578507,-0.414231865826064
-0.489176367120017,-0.408486805927257
-0.480278728926108,-0.402745619303711
-0.471464993320867,-0.397008387964525
-0.462734764628382,-0.391275193918796
-0.45408764717274,-0.385546119175621
-0.445523245278028,-0.379821245744098
-0.437041163268334,-0.374100655633325
-0.428641005467747,-0.368384430852398
-0.412084879790236,-0.356965405316477
-0.403928120561489,-0.351262768579676
-0.395851702838197,-0.345564825209113
-0.387855230944448,-0.339871657213885
-0.372100541941927,-0.328499975385822
-0.36434153348133,-0.322821625571182
-0.356660888146625,-0.317148379168268
-0.3490582102619,-0.311480318186175
-0.341533104151243,-0.305817524634002
-0.33408517413874,-0.300160080520847
-0.326714024548479,-0.294508067855806
-0.319419259704548,-0.288861568647978
-0.312200483931034,-0.28322066490646
-0.305057301552024,-0.277585438640349
-0.297989316891606,-0.271955971858743
-0.290996134273867,-0.266332346570739
-0.284077358022895,-0.260714644785436
-0.277232592462777,-0.255102948511929
-0.2704614419176,-0.249497339759319
-0.263763510711453,-0.2438979005367
-0.257138403168422,-0.238304712853172
-0.250585723612595,-0.232717858717831
-0.237696065758902,-0.221563479128102
-0.231358296109211,-0.215996117691909
-0.225091371743074,-0.210435417840294
-0.218894896984578,-0.204881461582354
-0.21276847615781,-0.199334330927187
-0.206711713586858,-0.19379410788389
-0.200724213595809,-0.188260874461561
-0.194805580508752,-0.182734712669297
-0.188955418649772,-0.177215704516196
-0.171811803682178,-0.160702421982846
-0.166231569976386,-0.155212848477372
-0.160717829119109,-0.149730838656548
-0.155270185434435,-0.144256474529472
-0.149888243246451,-0.138789838105242
-0.144571606879245,-0.133331011392955
-0.139319880656904,-0.127880076401708
-0.134132668903516,-0.1224371151406
-0.129009575943168,-0.117002209618727
-0.123950206099947,-0.111575441845187
-0.118954163697941,-0.106156893829078
-0.114021053061238,-0.100746647579497
-0.109150478513924,-0.0953447851055423
-0.104342044380087,-0.0899513884163104
-0.099595354983815,-0.0845665395208993
-0.0902856277003145,-0.0738228131479297
-0.0857217984612609,-0.0684640996885661
-0.0812181312561216,-0.0631142620594133
-0.0767742304089842,-0.0577733822695691
-0.072389700243936,-0.0524415423281308
-0.0680641450850644,-0.0471188242441959
-0.063797169256457,-0.0418053100268619
-0.059588377082201,-0.0365010816852265
-0.055437372886384,-0.0312062212283872
-0.0513437609930935,-0.0259208106654414
-0.0473071457264167,-0.0206449320054866
-0.0433271314104414,-0.0153786672576205
-0.0394033223692546,-0.0101220984309405
-0.136725513641076,-0.115527264633479
-0.027965170135301,0.00558861243100753
-0.0242622254341435,0.0108055774819677
-0.115672120685867,-0.0973215092571208
-0.108853583385502,0.133280912115074
-0.105350461226842,0.132784259149163
-0.115508642496924,-0.0609594541709032
0.0960222884304062,0.143001434672221
0.115810839005564,0.138679762265712
-0.101713414491354,0.159659111813326
-0.109316438844776,0.174048634698858
0.00985002886558191,0.0624058683234218
0.12706893494015,-0.0313818247230339
0.0160565764631221,0.0725974380910454
0.136705439974827,0.194150665744785
0.0220652089235619,0.0827446475552927
-0.0899082454685933,-0.00960542777633928
-0.0802507525728436,-0.0113053479460887
0.132011224193464,-0.00385412032989237
-0.0540150911460824,0.0209652374838057
-0.0636409546569211,0.226615694269773
0.0467397276571686,0.127840540438706
0.148415586615388,0.223009950718774
0.146938577667693,0.0273395754187174
0.0565157493912904,0.147574916651722
0.157311288324588,0.03499566157224
-0.0342728698972725,0.262560301699384
0.171927260892966,0.270409473055444
-0.0418628148162851,0.273470479025362
0.0677590121025877,0.171965067072855
-0.0240127860785512,0.0895494235329647
0.07400302112978,0.186447050304781
0.0760030734277218,0.191248534824045
0.07796314316329,0.196036961049124
0.0798836260123973,0.200812246970922
0.0854115100000789,0.215058442825646
0.0905973563424641,0.229183423623319
0.0922518099118964,0.23386443116741
0.0938698420021682,0.238531642335439
0.0969982244488808,0.24782434750692
0.0999856690899023,0.257060883064981
0.10142752892306,0.261657882216235
0.102835341332533,0.266240592936842
0.104209501994234,0.270808933217704
0.105550406584074,0.275362821049723
0.106858450777967,0.279902174423802
0.108134030251826,0.284426911330843
0.109377540681562,0.288936949761749
0.110589377743088,0.293432207707423
0.114038805477535,0.306828478542072
0.115127905825349,0.311263794455839
0.117217417230948,0.320088772682115
0.118218619640558,0.324478270976429
0.11919131408926,0.328852332712731
0.121942306429034,0.341881078482581
0.122804925793225,0.346192573895856
0.125235189101369,0.359031652478285
0.125994064195649,0.363279269422972
0.127437369427035,0.371725897383577
0.128122590915965,0.3759247443813
0.130629835131227,0.392555105609384
0.13120021412949,0.396671029180215
0.132782245005559,0.408917487580295
0.133733300583127,0.41699654616236
0.134605143797365,0.425006641711792
0.136458970728797,0.444725861839978
0.137078498253868,0.452489420202047
0.137363701167018,0.456344272127577
0.137633057748461,0.460181063203972
0.138125814619876,0.467800134772972
0.138559934275413,0.475345978836267
0.138755994337009,0.479091235530531
0.138938582122374,0.482817939321077
0.139264923568057,0.490215360154621
0.139409468580202,0.493885913179425
0.13966328556266,0.501170294399608
0.139773348884798,0.504783958576792
0.139961763570455,0.511953824019859
0.140222824032848,0.526061407006053
0.140266278735244,0.529539460220379
0.140350628665347,0.539855085640461
0.140374266523988,0.549991187535152
0.140361571846659,0.556647760051762
0.140347875560805,0.559945551658819
0.140307763474282,0.56647973552495
0.140282139025438,0.569715963765829
0.132806690752935,0.599575325664499
0.143885018932989,0.578953718257402
0.140187740167527,0.579300209610549
0.129335833451612,0.582968396890251
0.139955688482625,0.597901345530584
0.160486649218059,0.595840975665977
0.147002689009467,0.635005283722145
0.118067891545246,0.602541828041756
0.143537706975223,0.605797280008175
0.106520056798734,0.624236993497172
0.123520662967018,0.610012696122858
0.139627111486221,0.629987577030255
0.139617700226411,0.632772195415309
0.167548619311663,0.615078622776342
0.139635256862885,0.643685775551526
0.156120731741636,0.61694374293037
0.126828302123422,0.614465603226149
0.12709856785616,0.625983810032178
0.124436943250502,0.662948761836332
0.140204046753469,0.669366768879932
0.11787379170525,0.664925013401995
0.140564627578101,0.676615466848367
0.160150906476683,0.72070415239589
0.0895457642699056,0.700576685102005
0.14121316224895,0.68594679396038
0.166768719487359,0.678147543375648
0.152114738470439,0.701568028605569
0.137919984575929,0.643675515769993
0.159919630812936,0.691143887004518
0.142880528349745,0.701344472445653
0.143830251561424,0.707574563902222
0.14418107928733,0.709601471173223
0.144549693134097,0.711603346821801
0.146209923248027,0.71935889300993
0.146673402837787,0.721234380409929
0.14766123822223,0.724908702169803
0.148186385368737,0.726707372511484
0.148732879719318,0.728480273148864
0.149891492736353,0.73194843727433
0.151140242680635,0.735312538473421
0.151799408190275,0.736955360452833
0.152482294959464,0.738571920673358
0.156266396355593,0.746257925074279
0.15795993438783,0.74914562420403
0.158846835566267,0.750549138025955
0.160702880627342,0.753275084138416
0.161672815861804,0.754597352410756
0.171730835753985,0.765261861707576
0.181332673621778,0.771992440526206
0.184383322396942,0.773659671059725
0.185961836251957,0.774450244283316
0.189227221276418,0.77594489659867
0.190914883797687,0.77664881167224
0.196202499508607,0.778585928447346
0.198041233047659,0.779173151193522
0.199918723530937,0.779730995835106
0.201835366634356,0.780259380363
0.207824168424573,0.78166695317357
0.216381378498844,0.783126300110758
0.21862548689623,0.783416051401624
0.225615677012154,0.784103788064428
0.238149284172668,0.784640037923934
0.257634335770368,0.784092612201914
0.263633397809392,0.783654580000955
0.286208254038169,0.781122002787884
0.30758917410374,0.777697798295393
0.326904039932578,0.773946938418149
0.330935117475573,0.773097888937148
0.339168542346089,0.771300256396814
0.343371681025436,0.770351509319285
0.393530829419227,0.75769307714054
0.398457823476114,0.756338158858124
0.434729948622443,0.745886479904602
0.44017116700403,0.744254220091126
