0.0038932695006999,0.338418112522902
9.23106683179738e-05,0.338967659947523
-0.0036392088206686,0.339472277782957
-0.00730163328676167,0.339932249549746
-0.0108953070504631,0.340347858768434
-0.0144205744322747,0.340719388959563
-0.0178777797526983,0.341047123643677
-0.0212672673322359,0.34133134634132
-0.0245893814913891,0.341572340573034
-0.02784446655066,0.341770389859362
-0.0310328668305503,0.341925777720849
-0.0341549266515618,0.342038787678037
-0.0372109903341965,0.34210970325147
-0.0402014021989562,0.34213880796169
-0.0431265065663427,0.342126385329241
-0.0459866477568579,0.342072718874667
-0.0487821700910036,0.34197809211851
-0.0515134178892816,0.341842788581314
-0.0541807354721939,0.341667091783623
-0.0567844671602422,0.341451285245978
-0.0593249572739285,0.341195652488924
-0.0618025501337546,0.340900477033004
-0.0642175900602222,0.340566042398761
-0.0665704213738333,0.340192632106739
-0.0688613883950897,0.33978052967748
-0.0710908354444933,0.339330018631528
-0.0732591068425459,0.338841382489427
-0.0753665469097493,0.338314904771718
-0.0774134999666054,0.337750868998947
-0.0794003103336161,0.337149558691655
-0.0813273223312832,0.336511257370387
-0.0831948802801085,0.335836248555685
-0.0850033285005939,0.335124815768092
-0.0867530113132413,0.334377242528153
-0.0884442730385524,0.33359381235641
-0.0900774579970292,0.332774808773407
-0.0916529105091736,0.331920515299686
-0.0931709748954872,0.331031215455791
-0.094631995476472,0.330107192762266
-0.0960363165726298,0.329148730739653
-0.0973842825044625,0.328156112908496
-0.098676237592472,0.327129622789337
-0.09991252615716,0.326069543902722
-0.101093492519028,0.324976159769191
-0.102219480998579,0.32384975390929
-0.103290835916314,0.322690609843561
-0.104307901592735,0.321499011092547
-0.105271022348344,0.320275241176792
-0.106180542503642,0.319019583616838
-0.107036806379132,0.31773232193323
-0.107840158295315,0.31641373964651
-0.108590942572693,0.315064120277222
-0.109289503531769,0.313683747345909
-0.109936185493043,0.312272904373114
-0.110531332777018,0.31083187487938
-0.111075289704196,0.309360942385251
-0.111568400595078,0.30786039041127
-0.112011009770167,0.30633050247798
-0.112403461549964,0.304771562105925
-0.11274610025497,0.303183852815647
-0.113039270205689,0.30156765812769
-0.113283315722621,0.299923261562598
-0.113478581126269,0.298250946640913
-0.113625410737134,0.296550996883179
-0.113724148875718,0.294823695809939
-0.113775139862524,0.293069326941736
-0.113778728018052,0.291288173799113
-0.113735257662805,0.289480519902615
-0.113645073117285,0.287646648772783
-0.113508518701993,0.285786843930163
-0.113325938737432,0.283901388895295
-0.113097677544103,0.281990567188724
-0.112824079442508,0.280054662330994
-0.112505488753149,0.278093957842646
-0.112142249796527,0.276108737244226
-0.111734706893145,0.274099284056275
-0.111283204363504,0.272065881799337
-0.110788086528107,0.270008813993956
-0.110249697707455,0.267928364160675
-0.10966838222205,0.265824815820036
-0.109044484392393,0.263698452492584
-0.108378348538988,0.261549557698861
-0.107670318982335,0.25937841495941
-0.106920740042936,0.257185307794776
-0.106129956041293,0.254970519725501
-0.105298311297908,0.252734334272128
-0.104426150133284,0.250477034955201
-0.103513816867921,0.248198905295263
-0.102561655822322,0.245900228812858
-0.101570011316988,0.243581289028527
-0.100539227672421,0.241242369462816
-0.0994696492091236,0.238883753636266
-0.0983616202475972,0.236505725069422
-0.0972154851083436,0.234108567282827
-0.0960315881118647,0.231692563797023
-0.0948102735786623,0.229257998132554
-0.0935518858292383,0.226805153809964
-0.0922567691840946,0.224334314349795
-0.090925267963733,0.221845763272591
-0.0895577264886552,0.219339784098895
-0.0881544890793633,0.216816660349251
-0.086715900056359,0.214276675544201
-0.0852423037401441,0.211720113204289
-0.0837340444512206,0.209147256850058
-0.0821914665100903,0.206558390002052
-0.0806149142372549,0.203953796180813
-0.0790047319532165,0.201333758906885
-0.0773612639784767,0.198698561700812
-0.0756848546335376,0.196048488083135
-0.0739758482389009,0.1933838215744
-0.0722345891150684,0.190704845695148
-0.070461421582542,0.188011843965924
-0.0686566899618236,0.18530509990727
-0.066820738573415,0.18258489703973
-0.064953911737818,0.179851518883847
-0.0630565537755346,0.177105248960164
-0.0611290090070665,0.174346370789225
-0.0591716217529156,0.171575167891572
-0.0571847363335838,0.168791923787749
-0.0551686970695729,0.1659969219983
-0.0531238482813847,0.163190446043767
-0.0510505342895211,0.160372779444694
-0.048949099414484,0.157544205721625
-0.046819887976775,0.154705008395101
-0.0446632442968964,0.151855470985667
-0.0424795126953496,0.148995877013866
-0.0402690374926367,0.146126510000241
-0.0380321630092595,0.143247653465335
-0.0357692335657198,0.140359590929692
-0.0334805934825196,0.137462605913855
-0.0311665870801605,0.134556981938367
-0.0288275586791445,0.131643002523772
-0.0264638525999734,0.128720951190612
-0.0240758131631492,0.125791111459431
-0.0216637846891735,0.122853766850772
-0.0192281114985483,0.119909200885179
-0.0167691379117754,0.116957697083194
-0.0142872082493567,0.113999538965362
-0.011782666831794,0.111035010052224
-0.00925585797958919,0.108064393864325
-0.00670712601324414,0.105087973922208
-0.00413681525326058,0.102106033746416
-0.00154527002014043,0.0991188568574917
0.00106716536561448,0.0961267267759792
0.00370014658350223,0.0931299270224216
0.00635332931302104,0.0901287411173619
0.00902636923366905,0.0871234525813435
0.0117189220249444,0.0841143449349097
0.0144306433663453,0.0811017016986037
0.0171611889373698,0.0780858063929688
0.0199102144175161,0.0750669425385482
0.0226773754862824,0.0720453936558852
0.0254623278231668,0.0690214432655231
0.0282647271076674,0.0659953748880051
0.0310842290192825,0.0629674720438744
0.0339204892375101,0.0599380182536744
0.0367731634418485,0.0569072970379483
0.0396419073117956,0.0538755919172393
0.0425263765268498,0.0508431864120907
0.0454262267665092,0.0478103640430458
0.0483411137102719,0.0447774083306478
0.051270693037636,0.04174460279544
0.0542146204280999,0.0387122309579657
0.0571725515611615,0.035680576338768
0.060144142116319,0.0326499224583903
0.0631290477730705,0.0296205528373759
0.0661269242109143,0.0265927509962679
0.0691374271093486,0.0235668004556096
0.0721602121478713,0.0205429847359445
0.0751949350059807,0.0175215873578155
0.0782412513631749,0.014502891841766
0.0812988168989522,0.0114871817083394
0.0843672872928106,0.00847474047807874
0.0874463182242482,0.00546585167152744
0.0905355653727633,0.00246079880922866
0.0936346844178541,-0.00054013458827433
0.0967433310390186,-0.00353666500043819
0.0998611609157549,-0.00652850890671969
0.102987829727561,-0.00951538278657565
0.106122993153936,-0.0124970031194628
0.109266306874377,-0.0154730863848377
0.112417426568382,-0.0184433490621573
0.115576007915451,-0.0214075076308783
0.118741706595079,-0.0243652785704574
0.121914178286767,-0.0273163783603513
0.125093078670012,-0.0302605234800168
0.128278063424313,-0.0331974304089107
0.131468788229166,-0.0361268156264896
0.134664908764072,-0.0390483956122103
0.137866080708527,-0.0419618868455295
0.141071959742029,-0.0448670058059041
0.144282201544078,-0.0477634689727907
0.147496461794171,-0.0506509928256461
0.150714396171807,-0.0535292938439269
0.153935660356483,-0.05639808850709
0.157159910027697,-0.0592570932945922
0.160386800864948,-0.06210602468589
0.163615988547735,-0.0649445991604403
0.166847128755554,-0.0677725331976999
0.170079877167904,-0.0705895432771254
0.173313889464284,-0.0733953458781736
0.176548821324192,-0.0761896574803013
0.179784328427125,-0.0789721945629651
0.183020066452582,-0.0817426736056219
0.186255691080061,-0.0845008110877282
0.18949085798906,-0.0872463234887411
0.192725222859078,-0.089978927288117
0.195958441369611,-0.0926983389653128
0.19919016920016,-0.0954042749997852
0.202420062030221,-0.0980964518709911
0.205647775539293,-0.100774586058387
0.208872965406875,-0.10343839404143
0.212095287312463,-0.106087592299576
0.215314396935557,-0.108721897312283
0.218529949955654,-0.111341025559006
0.221741602052253,-0.113944693519204
0.224949008904852,-0.116532617672332
0.228151826192948,-0.119104514497847
0.231349709596041,-0.121660100475207
0.234542314793628,-0.124199092083867
0.237729297465208,-0.126721205803285
0.240910313290278,-0.129226158112917
0.244085017948337,-0.13171366549222
0.247253067118883,-0.13418344442065
0.250414116481413,-0.136635211377665
0.253567821715427,-0.139068682842722
0.256713838500422,-0.141483575295276
0.259851822515897,-0.143879605214785
0.26298142944135,-0.146256489080705
0.266102314956278,-0.148613943372494
0.26921413474018,-0.150951684569607
0.272316544472554,-0.153269429151503
0.275409199832899,-0.155566893597636
0.278491756500711,-0.157843794387465
0.281563870155491,-0.160099848000445
0.284625196476735,-0.162334770916035
0.287675391143942,-0.164548279613689
0.29071410983661,-0.166740090572866
0.293741008234237,-0.168909920273021
0.296755742016321,-0.171057485193612
0.299757966862361,-0.173182501814096
0.302747338451854,-0.175284686613928
0.3057235124643,-0.177363756072566
0.308686144579195,-0.179419426669467
0.311634890476038,-0.181451414884087
0.314569405834327,-0.183459437195883
0.317489346333561,-0.185443210084312
0.320394367653237,-0.187402450028831
0.323284125472854,-0.189336873508895
0.32615827547191,-0.191246197003963
0.329016473329903,-0.19313013699349
0.331858374726331,-0.194988409956934
0.334683635340692,-0.196820732373751
0.337491910852484,-0.198626820723398
0.340282856941206,-0.200406391485332
0.343056129286356,-0.202159161139009
0.345811383567432,-0.203884846163886
0.348548275463932,-0.20558316303942
0.351266460655354,-0.207253828245068
0.353965594821196,-0.208896558260286
0.356645333640957,-0.210511069564532
0.359305332794134,-0.212097078637261
0.361945247960227,-0.213654301957931
0.364564734818732,-0.215182456005998
0.367163449049148,-0.216681257260919
0.369741046330974,-0.218150422202151
0.372297182343707,-0.219589667309151
0.374831512766845,-0.220998709061375
0.377343693279887,-0.22237726393828
0.379833379562331,-0.223725048419323
0.382300227293675,-0.22504177898396
0.384743892153418,-0.226327172111649
0.387164029821056,-0.227580944281846
0.389560295976089,-0.228802811974007
0.391932346298015,-0.22999249166759
0.394279836466331,-0.231149699842051
0.396602422160536,-0.232274152976848
0.398899759060129,-0.233365567551436
0.401171502844606,-0.234423660045272
0.403417309193467,-0.235448146937814
0.40563683378621,-0.236438744708517
0.407829732302332,-0.237395169836839
0.409995660421332,-0.238317138802237
0.412134273822708,-0.239204368084167
0.414245228185958,-0.240056574162086
0.41632817919058,-0.24087347351545
0.418382782516073,-0.241654782623717
0.420408693841934,-0.242400217966343
0.422405568847662,-0.243109496022784
0.424373063212755,-0.243782333272499
0.426310832616711,-0.244418446194943
0.428218532739029,-0.245017551269572
0.430095819259205,-0.245579364975845
0.431942347856739,-0.246103603793217
0.433757774211129,-0.246589984201146
0.435541754001872,-0.247038222679088
0.437293942908468,-0.247448035706499
0.439013996610413,-0.247819139762837
0.440701570787207,-0.248151251327558
0.442356321118347,-0.248444086880119
0.443977903283332,-0.248697362899977
0.44556597296166,-0.248910795866589
0.447120185832828,-0.24908410225941
0.448640197576335,-0.249216998557899
0.45012566387168,-0.249309201241512
0.45157624039836,-0.249360426789704
0.452991582835873,-0.249370391681935
0.454371346863718,-0.249338812397659
0.455715188161393,-0.249265405416333
0.457022762408395,-0.249149887217415
0.458293725284224,-0.248991974280362
0.459527732468377,-0.248791383084629
0.460724439640352,-0.248547830109674
0.461883502479648,-0.248261031834953
0.463004576665763,-0.247930704739923
0.464087317878194,-0.247556565304042
0.46513138179644,-0.247138330006764
0.4661364241,-0.246675715327549
0.46710210046837,-0.246168437745851
0.468028066581051,-0.245616213741128
0.468913978117538,-0.245018759792837
0.469759490757332,-0.244375792380434
0.470564260179929,-0.243687027983376
0.471327942064829,-0.24295218308112
0.472050192091529,-0.242170974153122
0.472730665939527,-0.24134311767884
0.473369019288321,-0.240468330137729
0.47396490781741,-0.239546328009248
0.474517987206292,-0.238576827772851
0.475027913134465,-0.237559545907998
0.475494341281427,-0.236494198894143
0.475916927326676,-0.235380503210743
0.476295326949711,-0.234218175337257
0.476629195830029,-0.233006931753139
0.476918189647129,-0.231746488937848
0.477161964080509,-0.230436563370839
0.477360174809667,-0.229076871531569
0.477512477514101,-0.227667129899496
0.477618527873309,-0.226207054954076
0.47767798156679,-0.224696363174765
0.477690494274042,-0.22313477104102
0.477655721674562,-0.221521995032299
0.477573319447849,-0.219857751628058
0.477442943273401,-0.218141757307753
0.477264248830717,-0.216373728550841
0.477036891799294,-0.21455338183678
0.47676052785863,-0.212680433645025
0.476434812688224,-0.210754600455034
0.476059401967574,-0.208775598746264
0.475633951376178,-0.20674314499817
0.475158116593534,-0.20465695569021
0.47463155329914,-0.202516747301841
0.474053917172495,-0.200322236312519
0.473424863893097,-0.198073139201701
0.472744049140443,-0.195769172448844
0.472011128594032,-0.193410052533404
0.471225757933362,-0.190995495934838
0.470387592837931,-0.188525219132604
0.469496288987238,-0.185998938606157
0.46855150206078,-0.183416370834954
0.467552887738056,-0.180777232298453
0.466500101698563,-0.17808123947611
0.465392799621801,-0.175328108847381
0.464230637187267,-0.172517556891724
0.463013270074459,-0.169649300088595
0.461740353962875,-0.166723054917451
0.460411544532014,-0.163738537857748
0.459026497461374,-0.160695465388944
0.457584868430452,-0.157593553990495
0.456086313118748,-0.154432520141858
0.454530487205758,-0.151212080322489
0.452917046370982,-0.147931951011846
0.451245646293918,-0.144591848689385
0.449515942654063,-0.141191489834563
0.447727591130916,-0.137730590926836
0.445880247403975,-0.134208868445661
0.443973567152738,-0.130626038870496
0.442007206056703,-0.126981818680796
0.439980819795369,-0.123275924356019
0.437894064048233,-0.119508072375621
0.435746594494794,-0.11567797921906
0.433538066814549,-0.11178536136579
0.431268136686998,-0.107829935295271
0.428936459791638,-0.103811417486957
0.426542691807967,-0.0997295244203072
0.424086488415484,-0.0955839725747764
0.421567505293686,-0.0913744784298222
0.418985398122072,-0.0871007584649011
0.41633982258014,-0.0827625291594701
0.413630434347387,-0.0783595069929855
0.410856889103314,-0.0738914084449046
0.408018842527416,-0.0693579499946836
0.405115950299193,-0.0647588481217797
0.402147868098143,-0.0600938193056493
0.399114251603763,-0.0553625800257494
0.396014756495553,-0.0505648467615364
0.392849038453009,-0.0457003359924675
0.389616753155631,-0.040768764197999
0.386317556282916,-0.035769847857588
0.382951103514363,-0.0307033034506909
