-0.640876009604933,0.895339182018055
-0.632911989680253,0.892021589478876
-0.625002240139426,0.888686021858429
-0.617146527961719,0.885332704674449
-0.6093446201264,0.881961863444667
-0.601596283612735,0.878573723686816
-0.593901285399993,0.875168510918628
-0.58625939246744,0.871746450657836
-0.578670371794344,0.868307768422173
-0.571133990359972,0.86485268972937
-0.563650015143591,0.861381440097161
-0.556218213124469,0.857894245043277
-0.548838351281873,0.854391330085452
-0.54151019659507,0.850872920741418
-0.534233516043327,0.847339242528907
-0.527008076605913,0.843790520965652
-0.519833645262094,0.840226981569385
-0.512709988991137,0.836648849857839
-0.505636874772309,0.833056351348747
-0.498614069584879,0.82944971155984
-0.491641340408113,0.825829156008852
-0.484718454221279,0.822194910213515
-0.477845178003643,0.818547199691561
-0.471021278734474,0.814886249960723
-0.464246523393038,0.811212286538734
-0.457520678958604,0.807525534943325
-0.450843512410437,0.80382622069223
-0.444214790727805,0.80011456930318
-0.437634280889977,0.79639080629391
-0.431101749876219,0.79265515718215
-0.424616964665797,0.788907847485633
-0.41817969223798,0.785149102722092
-0.411789699572036,0.78137914840926
-0.40544675364723,0.777598210064869
-0.399150621442831,0.773806513206651
-0.392901069938106,0.770004283352339
-0.386697866112322,0.766191746019666
-0.380540776944746,0.762369126726363
-0.374429569414646,0.758536650990164
-0.368364010501289,0.754694544328801
-0.362343867183943,0.750843032260006
-0.356368906441874,0.746982340301513
-0.35043889525435,0.743112693971052
-0.344553600600638,0.739234318786357
-0.338712789460005,0.735347440265162
-0.33291622881172,0.731452283925197
-0.327163685635048,0.727549075284195
-0.321454926909258,0.72363803985989
-0.315789719613617,0.719719403170013
-0.310167830727391,0.715793390732297
-0.304589027229849,0.711860228064474
-0.299053076100258,0.707920140684278
-0.293559744317884,0.70397335410944
-0.288108798861996,0.700020093857693
-0.28270000671186,0.696060585446769
-0.277333134846744,0.692095054394401
-0.272007950245915,0.688123726218322
-0.26672421988864,0.684146826436264
-0.261481710754187,0.68016458056596
-0.256280189821823,0.676177214125141
-0.251119424070816,0.672184952631541
-0.245999180480431,0.668188021602892
-0.240919226029938,0.664186646556926
-0.235879327698603,0.660181053011377
-0.230879252465694,0.656171466483976
-0.225918767310477,0.652158112492456
-0.22099763921222,0.648141216554549
-0.216115635150191,0.644121004187989
-0.211272522103657,0.640097700910507
-0.206468067051884,0.636071532239836
-0.201702036974141,0.632042723693709
-0.196974198849694,0.628011500789857
-0.192284319657811,0.623978089046015
-0.18763216637776,0.619942713979913
-0.183017505988807,0.615905601109285
-0.178440105470219,0.611866975951863
-0.173899731801265,0.607827064025379
-0.169396151961211,0.603786090847567
-0.164929132929325,0.599744281936158
-0.160498441684873,0.595701862808885
-0.156103845207124,0.591659058983481
-0.151745110475345,0.587616095977678
-0.147422004468803,0.583573199309208
-0.143134294166764,0.579530594495804
-0.138881746548497,0.5754885070552
-0.134664128593269,0.571447162505126
-0.130481207280347,0.567406786363315
-0.126332749588998,0.563367604147501
-0.12221852249849,0.559329841375416
-0.11813829298809,0.555293723564791
-0.114091828037066,0.55125947623336
-0.110078894624683,0.547227324898855
-0.106099259730211,0.543197495079009
-0.102152690332916,0.539170212291554
-0.0982389534120651,0.535145702054223
-0.094357815946926,0.531124189884747
-0.0905090449167662,0.527105901300861
-0.0866924073008527,0.523091061820296
-0.0829076700784527,0.519079896960783
-0.0791546002288338,0.515072632240057
-0.0754329647312631,0.51106949317585
-0.0717425305650081,0.507070705285894
-0.0680830647093358,0.503076494087922
-0.0644543341435137,0.499087085099665
-0.0608561058468091,0.495102703838858
-0.0572881467984892,0.491123575823232
-0.0537502239778213,0.487149926570519
-0.0502421043640729,0.483181981598452
-0.046763554936511,0.479219966424764
-0.0433143426744032,0.475264106567187
-0.0398942345570165,0.471314627543454
-0.0365029975636184,0.467371754871297
-0.0331403986734762,0.463435714068448
-0.0298062048658572,0.459506730652641
-0.0265001831200285,0.455585030141608
-0.0232221004152576,0.45167083805308
-0.0199717237308117,0.447764379904792
-0.0167488200459583,0.443865881214474
-0.0135531563399644,0.43997556749986
-0.0103844995920975,0.436093664278682
-0.00724261678162479,0.432220397068674
-0.00412727488781373,0.428355991387566
-0.0010382408899314,0.424500672753092
0.00202471823275482,0.420654666682984
0.0050618355009775,0.416818198694975
0.00807334393546949,0.412991494306797
0.0110594765569634,0.409174779036183
0.0140204663861921,0.405368278400865
0.016956546443888,0.401572217918575
0.019867949750784,0.397786823107047
0.0227549093276129,0.394012319484013
0.0256176581951071,0.390248932567205
0.0284564293739995,0.386496887874355
0.0312714558850229,0.382756410923197
0.0340629707489097,0.379027727231463
0.0368312069863929,0.375311062316885
0.039576397618205,0.371606641697195
0.0422987756650788,0.367914690890127
0.044998574147747,0.364235435413413
0.0476760260869422,0.360569100784784
0.0503313645033973,0.356915912521975
0.0529648224178447,0.353276096142717
0.0555766328510173,0.349649877164742
0.0581670288236479,0.346037481105784
0.0607362433564691,0.342439133483575
0.0632845094702135,0.338855059815847
0.0658120601856138,0.335285485620332
0.0683191285234029,0.331730636414764
0.0708059475043134,0.328190737716875
0.0732727501490779,0.324666015044397
0.0757197694784292,0.321156693915063
0.0781472385131,0.317662999846604
0.080555390273823,0.314185158356755
0.0829444577813308,0.310723394963248
0.0853146740563563,0.307277935183813
0.087666272119632,0.303849004536186
0.0899994849918908,0.300436828538097
0.0923145456938652,0.297041632707279
0.094611687246288,0.293663642561465
0.0968911426698919,0.290303083618387
0.0991531449854096,0.286960181395779
0.101397927213574,0.283635161411371
0.103625722375117,0.280328249182898
0.105836763490772,0.27703967022809
0.108031283581272,0.273769650064682
0.110209515667349,0.270518414210405
0.112371692769737,0.267286188182991
0.114518047909167,0.264073197500174
0.116648814106372,0.260879667679686
0.118764224382085,0.25770582423926
0.120864511757039,0.254551892696627
0.122949909251967,0.25141809856952
0.125020649887601,0.248304667375672
0.127076966684674,0.245211824632816
0.129119092663918,0.242139795858683
0.131147260846067,0.239088806571007
0.133161704251852,0.23605908228752
0.135162655902008,0.233050848525954
0.137150348817265,0.230064330804042
0.139125016018358,0.227099754639516
0.141086890526019,0.224157345550109
0.14303620536098,0.221237329053554
0.144973193543975,0.218339930667582
0.146898088095735,0.215465375909927
0.148811122036994,0.212613890298321
0.150712528388484,0.209785699350496
0.152602540170938,0.206981028584185
0.154481390405089,0.20420010351712
0.15634931211167,0.201443149667034
0.158206538311412,0.19871039255166
0.16005330202505,0.196002057688729
0.161889836273314,0.193318370595975
0.16371637407694,0.19065955679113
0.165533148456658,0.188025841791927
0.167340392433201,0.185417451116097
0.169138339027303,0.182834610281373
0.170927221259696,0.180277544805489
0.172707272151113,0.177746480206176
0.174478724722286,0.175241642001167
0.176241811993948,0.172763255708194
0.177996766986832,0.17031154684499
0.179743822721671,0.167886740929288
0.181483212219196,0.16548906347882
0.183215168500142,0.163118740011318
0.18493992458524,0.160775996044515
0.186657713495224,0.158461057096143
0.188368768250826,0.156174148683936
0.190073321872778,0.153915496325625
0.191771607381814,0.151685325538943
0.193463857798666,0.149483861841622
0.195150306144067,0.147311330751395
0.196831185438749,0.145167957785995
0.198506728703446,0.143053968463154
0.20017716895889,0.140969588300604
0.201842739225813,0.138915042816078
0.203503672524948,0.136890557527309
0.205160201877029,0.134896357952029
0.206812560302787,0.13293266960797
0.208460980822956,0.130999718012865
0.210105696458268,0.129097728684446
0.211746940229455,0.127226927140447
0.213384945157252,0.125387538898599
0.215019944262389,0.123579789476635
0.216652170565601,0.121803904392288
0.218281857087619,0.12006010916329
0.219909236849176,0.118348629307373
0.221534542871006,0.11666969034227
0.22315800817384,0.115023517785713
0.224779865778411,0.113410337155436
0.226400348705453,0.11183037396917
0.228019689975698,0.110283853744649
0.229638122609878,0.108771001999603
0.231255879628727,0.107292044251767
0.232873194052976,0.105847206018873
0.234490298903359,0.104436712818652
0.236107427200609,0.103060790168838
0.237724811965457,0.101719663587163
0.239342686218637,0.100413558591359
0.240961282980882,0.0991427006991599
0.242580835272924,0.0979073154282969
0.244201576115496,0.0967076282965031
0.24582373852933,0.0955438648215109
0.247447555535159,0.0944162505210527
0.249073260153717,0.093325010912861
0.250701085405735,0.0922703715146685
0.252331264311947,0.0912525578442074
0.253964029893084,0.0902717954192105
0.255599615169881,0.0893283097574101
0.257238253163068,0.0884223263765389
0.25888017689338,0.0875540707943292
0.260525619381549,0.0867237685285136
0.262174813648308,0.0859316450968246
0.263827992714388,0.0851779260169947
0.265485389600524,0.0844628368067563
0.267147237327447,0.0837866029838421
0.268813768915891,0.0831494500659845
0.270485217386588,0.082551603570916
0.27216181576027,0.0819932890163691
0.273843797057671,0.0814747319200763
0.275531394299524,0.0809961577997701
0.27722484050656,0.080557792173183
0.278924368699512,0.0801598605580476
0.280630211899114,0.0798025884720963
0.282342603126098,0.0794862014330616
0.284061775401197,0.079210924958676
0.285787961745143,0.0789769845666721
0.287521395178669,0.0787846057747823
0.289262308722507,0.0786340141007391
0.291010935397392,0.0785254350622751
0.292767508224054,0.0784590941771227
0.294532260223228,0.0784352169630145
0.296305424415645,0.0784540289376829
0.298087233822038,0.0785157556188605
0.29987792146314,0.0786206225242797
0.301677720359684,0.0787688551716731
0.303486863532402,0.0789606790787732
0.305305584002027,0.0791963197633124
0.307134114789293,0.0794760027430233
0.30897268891493,0.0797999535356384
0.310821539399673,0.0801683976588901
0.312680899264254,0.080581560630511
0.314551001529405,0.0810396679682336
0.31643207921586,0.0815429451897904
0.31832436534435,0.0820916178129139
0.32022809293561,0.0826859113553365
0.32214349501037,0.0833260513347909
0.324070804589365,0.0840122632690094
0.326010254693327,0.0847447726757247
0.327962078342988,0.0855238050726691
0.329926508559081,0.0863495859775753
0.331903778362339,0.0872223409081756
0.333894120773495,0.0881422953822027
0.335897768813281,0.089109674917389
0.33791495550243,0.090124705031467
0.339945913861675,0.0911876112421692
0.341990876911748,0.0922986190672282
0.344050077673383,0.0934579540243763
0.346123749167311,0.0946658416313463
0.348212124414265,0.0959225074058703
0.350315436434979,0.0972281768656813
0.352433918250185,0.0985830755285114
0.354567802880615,0.0999874289120932
0.356717323347003,0.101441462534159
0.358882712670081,0.102945401912442
0.361064203870581,0.104499472564674
0.363262029969237,0.106103900008588
0.365476423986781,0.107758909761916
0.367707618943945,0.109464727342391
0.369955847861464,0.111221578267745
0.372221343760068,0.113029688055711
0.374504339660491,0.114889282224021
0.376805068583466,0.116800586290408
0.379123763549726,0.118763825772604
0.381460657580002,0.120779226188342
0.383815983695028,0.122847013055355
0.386189974915537,0.124967411891374
0.38858286426226,0.127140648214132
0.390994884755932,0.129366947541362
0.393426269417284,0.131646535390797
0.395877251267049,0.133979637280168
0.39834806332596,0.136366478727208
0.400838938614749,0.138807285249651
0.403350110154151,0.141302282365227
0.405881810964896,0.143851695591671
0.408434274067717,0.146455750446713
0.411007732483349,0.149114672448088
0.413602419232522,0.151828687113527
0.41621856733597,0.154598019960763
0.418856409814426,0.157422896507528
0.421516179688622,0.160303542271555
0.424198109979291,0.163240182770576
0.426902433707165,0.166233043522324
0.429629383892978,0.169282350044531
0.432379193557462,0.17238832785493
0.435152095721349,0.175551202471254
0.437948323405373,0.178771199411234
0.440768109630267,0.182048544192604
0.443611687416762,0.185383462333096
0.446479289785591,0.188776179350441
0.449371149757488,0.192226920762374
0.452287500353185,0.195735912086626
0.455228574593414,0.19930337884093
0.458194605498909,0.202929546543019
0.461185826090402,0.206614640710624
0.464202469388625,0.210358886861479
0.467244768414312,0.214162510513315
0.470312956188195,0.218025737183866
0.473407265731007,0.221948792390864
0.476527930063481,0.225931901652041
0.479675182206349,0.22997529048513
0.482849255180343,0.234079184407863
0.486050382006198,0.238243808937974
0.489278795704644,0.242469389593193
0.492534729296416,0.246756151891255
0.495818415802246,0.251104321349891
0.499130088242866,0.255514123486834
0.502469979639009,0.259985783819816
0.505838323011408,0.26451952786657
0.509235351380795,0.269115581144829
0.512661297767904,0.273774169172325
0.516116395193467,0.278495517466789
0.519600876678216,0.283279851545956
0.523114975242885,0.288127396927558
0.526658923908206,0.293038379129326
0.530232955694911,0.298013023668994
0.533837303623734,0.303051556064293
0.537472200715408,0.308154201832957
0.541137879990664,0.313321186492719
0.544834574470235,0.318552735561309
0.548562517174855,0.323849074556461
0.552321941125256,0.329210428995908
0.556113079342171,0.334637024397382
0.559936164846332,0.340129086278615
0.563791430658472,0.345686840157341
0.567679109799323,0.35131051155129
0.57159943528962,0.357000325978197
0.575552640150093,0.362756508955793
0.579538957401476,0.368579286001811
0.583558620064502,0.374468882633984
0.587611861159903,0.380425524370043
0.591698913708412,0.386449436727722
0.595820010730762,0.392540845224753
0.599975385247685,0.398699975378869
0.604165270279915,0.404927052707801
0.608389898848182,0.411222302729283
0.612649503973222,0.417585950961047
0.616944318675766,0.424018222920826
0.621274575976546,0.430519344126351
0.625640508896296,0.437089540095356
0.630042350455749,0.443729036345573
0.634480333675636,0.450438058394735
0.638954691576691,0.457216831760573
0.643465657179647,0.464065581960821
0.648013463505235,0.470984534513212
0.65259834357419,0.477973914935476
0.657220530407242,0.485033948745348
0.661880257025126,0.492164861460559
0.666577756448574,0.499366878598842
0.671313261698319,0.50664022567793
0.676087005795093,0.513985128215555
