-0.992578918331112,-0.779185746493057
0.310865555965266,-0.848589853450833
0.816727326465017,-0.460970158759535
0.361374497225878,0.0663964286987169
-0.0939783320132601,0.593763016156968
0.0186445643235311,-0.496666012982129
-0.682187566683507,-0.656000871529513
