-0.514809046599049,-0.029355126967241
-0.559560249147166,0.0130658839613918
-0.545582210256531,-0.0034869581744485
-0.537916241298403,-0.0170564131186381
-0.53821632976414,-0.0438893086830755
-0.599547195189137,-0.0195308152841354
-0.576018379698123,-0.0474782597496804
-0.574116536163672,-0.0101576210074011
-0.549163574256985,-0.0286234912113182
-0.549637877827065,-0.0327165267533388
-0.553505036543051,-0.0211996406135666
-0.565652994768932,-0.0876958539800763
-0.550853202504939,-0.044832226044305
-0.541853751119481,-0.0895544896331212
-0.551491715091789,-0.0527740995702617
-0.560326387887677,-0.0869524786219289
-0.551994063448812,-0.0606086181767234
-0.552194497164949,-0.0644858477462832
-0.542596270348072,-0.0600966477550163
-0.565485190209454,-0.0536468989829316
-0.552594377858147,-0.0759585136537497
-0.551228703482446,-0.0491033885838056
-0.552694399102844,-0.0834753520356084
-0.55099764389721,-0.0864774308610763
-0.513639191362911,-0.07968925781948
-0.545042444620442,-0.0884727337635033
-0.560108465461832,-0.0779113011976056
-0.536217002458985,-0.103067287470276
-0.549327570200814,-0.138781256489863
-0.521832454900537,-0.115000640836744
-0.538251802900228,-0.0766167074673947
-0.545560910531352,-0.095454849308627
-0.502137982327202,-0.154636312043376
-0.56338345228926,-0.122059458002779
-0.552961736397185,-0.13904733354746
-0.561747535205963,-0.148523620377414
-0.498386665147256,-0.118663216061932
-0.549306310488946,-0.136573340997518
-0.548826948718564,-0.139911894276184
-0.548316628679303,-0.143225801091918
-0.529383081279241,-0.15400027698192
-0.534622312904886,-0.153898634165002
-0.546601203443488,-0.153020556206083
-0.53529390808685,-0.171388238686715
-0.545305150183159,-0.159428835282554
-0.547078173567606,-0.134196749057362
-0.51999240101371,-0.172454871330161
-0.522596672215668,-0.161287801193448
-0.551583680799846,-0.176534712425262
-0.541538982393657,-0.175029409568257
-0.513918084242452,-0.214314726504979
-0.547808246157882,-0.171780636925959
-0.538923710234396,-0.184105323297017
-0.545363981588149,-0.18526396798076
-0.537034181501308,-0.190038942006013
-0.546128667322266,-0.223785866635208
-0.559208702621795,-0.158487054567359
-0.532966173801048,-0.239069522060489
-0.508176522852165,-0.19689422774302
-0.521879948858971,-0.192968276581514
-0.53067603185097,-0.207286282316264
-0.530637381955167,-0.200003162424779
-0.528330219471142,-0.212853326332926
-0.56664257324556,-0.199768270081152
-0.525872905170111,-0.218330553565622
-0.553122826850079,-0.226304385458418
-0.52330511654407,-0.223718694769999
-0.488185890475904,-0.225183805765934
-0.520627881189211,-0.229018480701705
-0.553367712358322,-0.279358743156827
-0.52369914338756,-0.224187999314505
-0.51640906340706,-0.236804091990982
-0.51494918067781,-0.239355909769689
-0.505475465257674,-0.257237005730704
-0.520509939482806,-0.250042583112245
-0.531903883382174,-0.231108629286653
-0.487162059381175,-0.253188477179236
-0.513275454936156,-0.249011196631588
-0.496479475500446,-0.239616054539103
-0.489451257236873,-0.251243360548839
-0.502323633141674,-0.259002657882069
-0.500629055729751,-0.261363897298294
-0.454896407192803,-0.256189068846158
-0.529744049492072,-0.276826445188515
-0.493465247138731,-0.227993522038628
-0.469470357016256,-0.272421411004764
-0.491777213570472,-0.272861141498595
-0.486698188129402,-0.296358956025497
-0.488062028718033,-0.277317566264172
-0.49669243736254,-0.323100364328677
-0.470396576225308,-0.286649736337302
-0.482305554118125,-0.283851837472638
-0.496080474225998,-0.309472677305939
-0.489818247651162,-0.281198032458028
-0.462670849227734,-0.293133980951299
-0.506601540781325,-0.287684167907232
-0.455740861337313,-0.24984064643172
-0.470144011064697,-0.296388105607066
-0.465566552729527,-0.277769341120895
-0.424301622026508,-0.268905857107799
-0.440897159745613,-0.275252835853771
-0.443338947788646,-0.331104867097159
-0.47292136998062,-0.312731360857791
-0.457140797120788,-0.308231116700212
-0.456449075867021,-0.298699040846163
-0.454030438058246,-0.276432522181018
-0.428585222032422,-0.324992443225997
-0.448018094168261,-0.315751058036893
-0.422611793778542,-0.328773546166537
-0.4433236573836,-0.319400601154549
-0.426922263552051,-0.341159700740097
-0.437576801710082,-0.297261288633009
-0.425295349834054,-0.310693596586146
-0.425177171782867,-0.382663169345536
-0.477968441623734,-0.321927869124312
-0.429866729141653,-0.319842293843607
-0.425401068705066,-0.31208145033366
-0.42368265210013,-0.333279640919043
-0.391205766919967,-0.334457587233805
-0.397074738361883,-0.316725911789701
-0.435357290836703,-0.312318390360439
-0.413358580918197,-0.339797911756671
-0.404068531327873,-0.327738267399348
-0.408074249778856,-0.342954292559095
-0.390173656670506,-0.334705345266709
-0.393126184877451,-0.29887605591827
-0.3744661273778,-0.351219769122454
-0.402929709123442,-0.345340678901077
-0.394514968758871,-0.350551404869936
-0.391744405321645,-0.352021185568571
-0.384302212972108,-0.369190791096113
-0.40510015210931,-0.332835156430057
-0.412141192582293,-0.370016420334469
-0.372364087542314,-0.377231931168463
-0.377605116693186,-0.359126904189153
-0.374720863825698,-0.360500050349942
-0.351086645821489,-0.390441101574973
-0.368896990545118,-0.36319907586384
-0.377809965320437,-0.398135679980232
-0.370177790440378,-0.345096092514718
-0.384884796037859,-0.365133963080146
-0.355649502989909,-0.350241262207302
-0.334310349582187,-0.347533935732747
-0.352776860636653,-0.339740009176898
-0.347945562034279,-0.372158954849706
-0.386176688450979,-0.39456041378883
-0.341801429285817,-0.374582874551918
-0.342680307948641,-0.373010529907139
-0.318142829705986,-0.363867276873569
-0.356032025368922,-0.366763318895652
-0.339228546352409,-0.38624103228213
-0.361607069320932,-0.408463719912313
-0.356608986916801,-0.39494593926591
-0.306929755272849,-0.392445198642984
-0.341780732817161,-0.412430945609535
-0.31146035746099,-0.392863433305923
-0.317167322840959,-0.412329023271567
-0.287433671468312,-0.386117028761498
-0.287618643973255,-0.312116809543285
-0.289770517436466,-0.393595708076722
-0.280801664435864,-0.410600178590837
-0.277216439724712,-0.411362450048826
-0.305476978741711,-0.44690611373205
-0.28692068008975,-0.392872778904723
-0.283552116442805,-0.39382521544395
-0.30085803000601,-0.419689955238935
-0.260463681775343,-0.450405937815655
-0.258006961143575,-0.366601140247809
-0.268309221928615,-0.394557695670637
-0.324929835869525,-0.374739436461729
-0.244856608698391,-0.383983858754439
-0.249435735258715,-0.409214119716185
-0.252600231836166,-0.381906780636543
-0.243143253758801,-0.39683454556433
-0.249075124558408,-0.402642114289405
-0.272303086211133,-0.427423761851119
-0.274998257600547,-0.38991150401381
-0.238463144434479,-0.405044667240111
-0.229035973350495,-0.452847764091744
-0.231322758010831,-0.406586469048664
-0.22773323024527,-0.407339673938732
-0.224130984043252,-0.408081203278603
-0.207141912573164,-0.399859561311713
-0.23183616371877,-0.381222633340299
-0.213249219313683,-0.410236651441591
-0.209597383861069,-0.410932392025231
-0.202839762934007,-0.420730109880176
-0.143856024762721,-0.42999891930236
-0.180532822413214,-0.438804855326083
-0.204776143879901,-0.431074259958722
-0.158901810886093,-0.418819904425577
-0.185754937293364,-0.401842050285584
-0.174143901473596,-0.399029070347118
-0.179958747202007,-0.416102111823599
-0.191962774203805,-0.429882997567727
-0.172436033120302,-0.417287834161364
-0.168658424314292,-0.41786519158298
-0.175923808718296,-0.413255797394005
-0.165025975219904,-0.439062764751037
-0.164454011810844,-0.4165584340649
-0.153442641144758,-0.420073394324969
-0.159731711885038,-0.405183984013309
-0.183995425565792,-0.401107080567921
-0.142494999805857,-0.430911564531922
-0.140001828293656,-0.480336715314832
-0.134195513019786,-0.42261273796158
-0.140887979676265,-0.396143238862166
-0.126429212234633,-0.423562092433431
-0.144313295152643,-0.432259522703611
-0.119569414838852,-0.440293313111407
-0.114710704935899,-0.424917283128182
-0.110786634668816,-0.425351021134116
-0.106853827900522,-0.425775915267985
-0.102912413080539,-0.426192056874245
-0.0839269826648747,-0.420817240443279
-0.0833283302674177,-0.449570671789853
-0.0762436939183378,-0.427383042345786
-0.083246308820916,-0.422710323342626
-0.0903521773471964,-0.393147804716047
-0.0605021038021264,-0.441598547183602
-0.0740957762876581,-0.451305222416815
-0.0710866186027985,-0.429217060065098
-0.0916897995175655,-0.398541881479238
-0.0666880297909996,-0.434195355737813
-0.0683116608678214,-0.414363549336135
-0.0549907628358466,-0.430536308377787
-9.31928288899556e-05,-0.428391455834437
-0.0603374133113012,-0.468229224593572
-0.0428455702546115,-0.431445991885039
-0.0387838957428955,-0.431734515895552
-0.00220497668392539,-0.447665208912069
-0.0270474752796807,-0.43897274296364
-0.0325375040357207,-0.421307293589445
-0.0256518295665617,-0.410155119311098
-0.0183817260281188,-0.433070967759345
-0.0546341822956761,-0.438370471829918
0.00269322112025666,-0.439914602745646
-0.0319663087377853,-0.434717739822994
-0.0105373021626248,-0.414617075112915
0.0021649977406126,-0.434238845883644
0.0300585717924046,-0.456373420132524
0.010420565796538,-0.434661354131069
0.00876819784806783,-0.47454774461706
0.0186956659144217,-0.43505944822494
0.00954205310263644,-0.430265673010285
0.0651622030105978,-0.438880868510626
0.0387021772309174,-0.446934641733308
0.0135161111699317,-0.39124828695952
0.0411149498708595,-0.40289948587087
0.0864842059831027,-0.453003679438502
0.0354107788172859,-0.438903612617725
0.0770284195515976,-0.415183293812843
0.03405663988069,-0.437198720310702
0.0566035770619348,-0.405443445924798
0.0812233664117741,-0.45843405571646
0.0865124652367384,-0.449497447855173
0.072888942328844,-0.437102432654088
0.0770819463942568,-0.437223894056867
0.056450755090519,-0.400651638434431
0.085476309544871,-0.437452982125596
0.0620772512535504,-0.428047200481715
0.115505408741078,-0.404763879889279
0.0886739782633749,-0.454451173613671
0.0997120539299743,-0.418056629153734
0.0894915519198246,-0.466041135815726
0.109594571268859,-0.417011522436436
0.114930821079772,-0.438119116797327
0.126047979956306,-0.473148001311116
0.114318425745505,-0.415765080231513
0.172202259247518,-0.465315888338327
0.131801575520341,-0.438413717209329
0.149618827186028,-0.432777827626288
0.140244414414468,-0.438539924742498
0.144871194508072,-0.457534353848815
0.147932769510812,-0.455235890332071
0.152915109733671,-0.43870492545147
0.156810875541655,-0.444998730642431
0.142407366001251,-0.455203296126774
0.16996223852382,-0.461598078074727
0.135448450340925,-0.416922108576997
0.172614037033871,-0.435150232211273
0.168959243286011,-0.4476272581497
0.205619594256815,-0.413123181732317
0.186716903146625,-0.439019721552391
0.157167841371727,-0.425584042434831
0.195164801845125,-0.439073922976088
0.190395790213809,-0.400691971474895
0.203609625489345,-0.439119786870466
0.197935632559625,-0.446801849303004
0.21251777086533,-0.413294469727875
0.216268847362226,-0.439174548372537
0.172747608051643,-0.445232595905694
0.224701487637402,-0.439202765499573
0.228915370134393,-0.439214660934154
0.252806921820168,-0.428127760410391
0.237337617599564,-0.439234482267726
0.241545725668694,-0.439242590855627
0.24575165202949,-0.439249619850213
0.249955268232427,-0.43925566059594
0.253911171291419,-0.448787523438272
0.260181862548869,-0.42859211124733
0.262550971398841,-0.439268766784523
0.249012394357914,-0.452578737605656
0.23954118626018,-0.467510117224801
0.275121258961655,-0.439276267133786
0.279305107472903,-0.439277947782263
0.283485618230099,-0.439279370937527
0.287662662783719,-0.439280627944036
0.300613391767073,-0.435879170923394
0.296005839482136,-0.439283008888607
0.306058613845372,-0.441504396978212
0.293501582511526,-0.458358694797757
0.331580239486465,-0.447985785086839
0.312644946656998,-0.439289796148733
0.290501469166618,-0.458272941829683
0.300218647668795,-0.469617513781401
0.299994714359593,-0.418533796892229
0.349810897658209,-0.465294883344036
0.322125866406752,-0.430821942425461
0.337470077921473,-0.439316001801085
0.311875492197577,-0.447562129311786
0.320999921663974,-0.476039752051255
0.349815040982534,-0.439341659420904
0.363506273141113,-0.446152287386916
0.328172137117427,-0.450491135346099
0.376165067906144,-0.435787151326548
0.389702022255025,-0.434515779244749
0.350017408808983,-0.412740865597287
0.374352421276551,-0.439430415749372
0.379481446352058,-0.451679383710285
0.407604644842642,-0.418580539505768
0.386537902235206,-0.439498447058638
0.398790328647243,-0.459116148180391
0.379342556124756,-0.425215569580784
0.423279928706805,-0.435149881878965
0.409123188627777,-0.444922754851319
0.378668761654234,-0.436635868431916
0.388489132144713,-0.462342643125017
0.41473098636888,-0.43973556071396
0.418729291059353,-0.439779730832972
0.403252013197747,-0.445791312343996
0.426702656877165,-0.439876707070316
0.461134720138011,-0.422604423638674
0.41963258971798,-0.429004159015733
0.409725171084476,-0.470220747791141
0.454452175046239,-0.449739039092516
0.413556361049085,-0.448889289586286
0.465949992562327,-0.446538865426508
0.459233746265023,-0.424688909007235
0.451410062902858,-0.422503272289529
0.462173851259797,-0.440473680329395
0.466071217827233,-0.440558057801949
0.458933049737576,-0.454574986268871
0.460936000406506,-0.451385882943761
0.48237919356854,-0.433500212083723
0.490538918814573,-0.398556926973919
0.489347175233039,-0.425136235607272
0.49731331070971,-0.416686690678128
0.504801597843686,-0.443921037340764
0.496906489048942,-0.441382747179976
0.509149394476166,-0.424461435410818
0.497035019768684,-0.417077261678685
0.504778624316276,-0.459950608132947
0.512081658364109,-0.441904371424132
0.515848802250588,-0.442047150337104
0.538681688689133,-0.43127403574747
0.46103086346886,-0.446242076928941
0.527084222456095,-0.442506643431951
0.544095647354409,-0.455505758823152
0.534518208552914,-0.442839849236352
0.511340771380755,-0.448422364561935
0.576523040949536,-0.433053288999271
0.539964714400151,-0.442483273938871
0.564931340933549,-0.44064794966866
0.508552732600686,-0.44108886097298
0.556538651892362,-0.443976514919285
0.560166322798578,-0.444186904522563
0.575864191155281,-0.439975436611862
0.560858279662378,-0.472958879531596
0.570974075697559,-0.444855806489153
0.562123626148014,-0.422822957986152
0.574363735970952,-0.4504814915371
0.582889218062764,-0.459897228580631
0.581840313079429,-0.41065562518576
0.593495716125901,-0.437263507612653
0.597481099400266,-0.426708463959526
0.595736665824863,-0.446648410364111
0.599220237634374,-0.446932331507172
0.602689938828858,-0.447223485402403
0.606145640958792,-0.44752196339426
0.63390060661014,-0.451899337979375
0.613014534226909,-0.448141257045676
0.61028831438441,-0.438518635843611
0.624868065417998,-0.464436380128013
0.633979219433751,-0.43457626122048
0.626578680209474,-0.449471752664078
0.629932792300877,-0.449824056977082
0.62976496701791,-0.452661744050035
0.658023813005364,-0.43885084346699
0.631579697339771,-0.448334640341757
0.639904454812527,-0.450929664407556
0.643172226102359,-0.451313300451109
0.646373803619874,-0.451702331061832
0.634742422379231,-0.436488535101628
0.652579505196405,-0.452496016328388
0.663251263174458,-0.416667590105242
0.694848903627626,-0.477675672515207
0.682666266449041,-0.439304496605169
0.667553032332108,-0.468051280845411
0.666955105645166,-0.454564840433233
0.692677890260078,-0.448234838658554
0.646899708236044,-0.450880117157518
0.659762963659505,-0.44375551183011
0.658938159620406,-0.450979790972874
0.668693587788804,-0.429499000329896
0.682098971966107,-0.45718697369808
0.684403442955667,-0.457636837268654
0.687843861857507,-0.471296936663219
0.722850547137961,-0.476323345958303
0.688501153956015,-0.463845576383713
0.693004503529005,-0.459467850966605
0.695001972649186,-0.459932794674505
0.696938887289334,-0.46040033466757
0.683812648878261,-0.480245699501338
0.711483160907493,-0.476470493492618
0.702389123975725,-0.461817133216746
0.717118120444095,-0.493111187804023
0.712890025596055,-0.4514060275769
0.687570898455137,-0.463099143214219
0.721399951761943,-0.495547463012137
0.705295672180548,-0.509839770144111
0.690204265935916,-0.496523140058372
0.713039569504145,-0.465187749180192
0.756232017941419,-0.454389033155515
0.736420304163749,-0.506472913825854
0.71029811505076,-0.466868494102897
0.73910409221207,-0.452970407254076
0.694773396597565,-0.492609126072285
0.719924195372468,-0.468119899433125
0.710290852140136,-0.477979676795641
0.724158192894047,-0.436983270602927
0.677269436959644,-0.443403742629835
0.728035011095443,-0.480291700741726
0.724125369176701,-0.470570628523293
0.69294861711886,-0.477891053390174
0.718381702282348,-0.462338215183316
0.741061090641255,-0.456037171041124
0.734712231880169,-0.490799611368828
0.726967761517952,-0.473009311987416
0.727583444598187,-0.47042767811763
0.727732154654017,-0.473977495002964
0.728035643980413,-0.474459464632173
0.716272613965135,-0.455934858639873
0.728069489466591,-0.529508567244551
0.746094429433974,-0.471648841196395
0.719716262498503,-0.477769871487134
0.703331707871914,-0.523318219334772
0.724817129705937,-0.456688634313099
0.700641400114536,-0.465675137634827
0.739797107875606,-0.481279554824188
0.71501645960249,-0.515269122227099
0.72825180661744,-0.479168012516287
0.742413256730707,-0.485320308579833
0.727694705531637,-0.480078195998156
0.758161214043981,-0.493338833455732
0.705193764866759,-0.480223730553345
0.744240209468689,-0.487718989500606
0.725998215482136,-0.481858082364522
0.725454427788782,-0.482293804332743
0.681920605918204,-0.499960293990411
0.7242252279372,-0.483153169322437
0.720274306375886,-0.473867572937499
0.729676473452398,-0.482005651845899
0.706124981522796,-0.508787155300572
0.718715358150088,-0.486299487390432
0.720339243945144,-0.485224591949303
0.743870489331575,-0.464460892890814
0.745348939429683,-0.479541435514452
0.695684589799753,-0.47061228761061
0.716412853928278,-0.486793306162882
0.685369211886046,-0.482958522889348
0.69701856097947,-0.450773677025345
0.709171214800213,-0.454901923908975
0.711779255392915,-0.488273720654029
0.728012087605187,-0.504242323102236
0.709202892223082,-0.488978017221686
0.707850806538778,-0.489320698136683
0.724734487317609,-0.487922382715067
0.724808046246299,-0.478123950616566
0.706072519330322,-0.47151020898081
0.702023015646641,-0.490625041342131
0.700462615707947,-0.490933832459357
0.717939061247133,-0.485132547314217
0.685541731123661,-0.462212006677329
0.712071119838378,-0.48324942863429
0.697728240944145,-0.482829305934954
0.681624717445157,-0.497260048251892
0.690252928739553,-0.492630530430234
0.707818890897898,-0.483679575238681
0.678198186740724,-0.496024371958882
0.705604717426646,-0.47862422082192
0.661663579378261,-0.504755701940938
0.68066632943315,-0.493824705324316
0.676214217683582,-0.496059487353958
0.687858136173689,-0.46431530800155
0.674459529977056,-0.494437488490066
0.672316481967335,-0.49462362309893
0.660826789275325,-0.553481233518215
0.664763667806524,-0.489258065170443
0.695285336203439,-0.491628002614677
0.634946994059726,-0.529382798009477
0.654061000797239,-0.508092794540956
0.658699725426262,-0.495540309078059
0.65390526812085,-0.479495906157743
0.640963330850463,-0.49313592827417
0.648637006558729,-0.528532455865355
0.648354422748529,-0.494444966355439
0.646390211879341,-0.496026759412649
0.62767011930998,-0.486603759469048
0.641230031568822,-0.496146470665948
0.630010660616481,-0.511657898434792
0.63593816346696,-0.496221720732595
0.64646942672536,-0.485697975045322
0.630516863290668,-0.496251390299785
0.651146251697323,-0.472256133997281
0.601221994174622,-0.483932150611413
0.635233093884747,-0.520141665734944
0.619294989582453,-0.496169510684592
0.607838732605135,-0.516979977686824
0.61784025895797,-0.501372997488142
0.610555602000463,-0.495980127273161
0.606939002591382,-0.508408543255799
0.604579771986051,-0.495790833096875
0.604385584562449,-0.4843405521181
0.598486916340237,-0.495549802200721
0.583617473144587,-0.50706393709522
0.6062574671319,-0.461796247929531
0.608399811740685,-0.480083383220754
0.585959151022058,-0.494908052997602
0.582757593230565,-0.494713531320651
0.561906036021583,-0.496381493986645
0.580037963210587,-0.513084307671015
0.572990351781239,-0.494045925161384
0.590117784921818,-0.457037215429181
0.572107760385249,-0.49544766325693
0.562985179476541,-0.49324931911339
0.538657784839844,-0.48397327830724
0.543168069917792,-0.507297884181651
0.544358808726733,-0.503516172850541
0.591089954307676,-0.499382454706115
0.516651400786713,-0.482164880111376
0.531192956624801,-0.494430533087926
0.53875725540563,-0.490867685128919
0.535199399216324,-0.490465641167478
0.531618207876067,-0.490047724829964
0.522354089268462,-0.467303387275801
0.515547588196407,-0.498379922273108
0.503823402835047,-0.479755757817322
0.477036622841891,-0.507883269800711
0.518585865401543,-0.44889281498562
0.509905253516135,-0.522779393208475
0.505920169295232,-0.486666131152903
0.491814488395283,-0.529606815189692
0.48931664048219,-0.45416987333353
0.483065191067328,-0.446637657897335
0.506500864354439,-0.46866935046045
0.470560150831367,-0.477971809166699
0.464809576063942,-0.496998947778446
0.470308598644911,-0.500267384571898
0.475787239356642,-0.499566117639996
0.448623017429467,-0.474363865413469
0.448105660574658,-0.498785408312937
0.464039098515108,-0.51866666910253
0.454160734760994,-0.527744780807682
0.455528224877133,-0.478140731389953
0.451522129192794,-0.477357174997744
0.43944459526173,-0.465635428578633
0.467257727903678,-0.476072708096596
0.437913155871599,-0.480263737500117
0.435329246807207,-0.474032045425115
0.44380755467483,-0.470308538536169
0.427135653330073,-0.47225297943912
0.4342316298191,-0.500993733268487
0.404318971536475,-0.497841503392363
0.408581362544508,-0.462023171860234
0.415975058117309,-0.430962734080907
0.441238660880271,-0.452252331893395
0.405929486723734,-0.425879876498355
0.395192730461483,-0.491767108560664
0.417841757557518,-0.475668225465898
0.391762751165658,-0.428129199874452
0.359493904251282,-0.463838499806311
0.381027400480325,-0.461023122023667
0.395444347448552,-0.453201356938252
0.341208245471154,-0.426767493466857
0.368177523261096,-0.457520359281588
0.343879774524973,-0.424091492364362
0.330905387497304,-0.48467384736889
0.346068799886727,-0.420039191704348
0.357241925209532,-0.443914077873026
0.34653496801419,-0.451245580491094
0.320851631166123,-0.434309146805301
0.35017736880263,-0.478745261133287
0.349371769921607,-0.456046353293665
0.329037741375518,-0.445822526845151
0.320845142887394,-0.453504936692736
0.299089894689137,-0.392426127559041
0.315819807486311,-0.441514142360578
0.302909674503796,-0.459833282882657
0.306966836310242,-0.438524980540256
0.286714854208921,-0.453656786283054
0.298083684603962,-0.43544098845718
0.293631495963528,-0.433863081281858
0.326176259701141,-0.433691370620875
0.284707302931144,-0.430634745093146
0.280235862468423,-0.428984036251555
0.28991695855035,-0.440960542895463
0.263855950283152,-0.401711022946817
0.303362650625715,-0.433694682980238
0.262294386815007,-0.422134331241284
0.249499642729732,-0.429303720926518
0.25030728818545,-0.430897177269345
0.243784707030602,-0.38583904932267
0.233244683584843,-0.385972509612685
0.239763333538612,-0.413006249722135
0.235246048034858,-0.411103774243128
0.224516196069326,-0.410462428932261
0.251309601946719,-0.388648142171129
0.184541265920208,-0.430973220328249
0.206499233393097,-0.399856397526853
0.212619754327506,-0.401199405696689
0.214765286243612,-0.37857993972859
0.220454867440402,-0.403735441276118
0.199022235878338,-0.394938154740093
0.194487797812175,-0.392797126631838
0.211690282077871,-0.403546454143889
0.247118041804365,-0.398223527759993
0.177015141427593,-0.354312211821229
0.170793935730231,-0.389807248850953
0.163588671397231,-0.386467964828477
0.16728062181557,-0.379374747206684
0.144297971090683,-0.413574416940886
0.190320415558156,-0.392550803884215
0.15260117381489,-0.372502706475953
0.179750184065037,-0.378928393535328
0.144638274164551,-0.367419478738047
0.137576795504683,-0.36916616778585
0.135597600506765,-0.362437139436202
0.131081876979749,-0.359902503290081
0.126569604940135,-0.35733870292836
0.129836939506981,-0.340477846650244
0.117556543181575,-0.352123049901719
0.113056317391856,-0.349470917408597
0.114086577462796,-0.349655092333205
0.133299304918462,-0.332483507383753
0.0621737622242808,-0.305149963331948
0.0663700087608818,-0.368002139171353
0.0618329943141582,-0.331932002731223
0.0861609976781058,-0.332929024144343
0.0931404391760257,-0.315373405531421
0.0950633187358629,-0.32553268131284
0.0440900380259792,-0.322534320828638
0.0387097671851535,-0.357633138436571
0.0639181027468549,-0.318304903330149
0.0535692849535037,-0.352198231553616
0.0158706100808013,-0.319193437912184
0.0537968356665261,-0.283998704374794
0.0462603522332734,-0.306043713475526
0.0303039299071392,-0.286096152500962
0.0170824788125811,-0.301482492267065
0.0552929123932121,-0.278862189896625
0.028743542760875,-0.293273362284823
0.0243884771650672,-0.290000168672633
0.04956757505226,-0.301096607065593
0.024291606908152,-0.255795626900579
0.011385720064972,-0.279984895255622
0.0313820169421034,-0.283081635737309
0.00277206805049141,-0.273143570019579
-0.00151745624723119,-0.269673144771846
-0.0160189164402107,-0.220254198316424
-0.00741607654473744,-0.280655064542489
-0.0143134387269578,-0.259061139540597
0.00245288950032499,-0.251105605611177
-0.0227807820560983,-0.251817795672054
-0.0269946143296226,-0.248145101881168
-0.0311948443896307,-0.244438206967072
-0.0426612311642837,-0.22816684343538
0.00739763531473039,-0.238161725442902
-0.0437111016424145,-0.233110916344523
-0.047854103202215,-0.229265817796586
-0.0528660302796527,-0.221019666566048
-0.0437676485962857,-0.215976827633921
-0.0677887912283538,-0.215314641547807
-0.0766715078303863,-0.229189051761232
-0.0479297426129562,-0.225554471617997
-0.100495083398298,-0.224603007131564
-0.0764189870779674,-0.201365073347493
-0.0833436448471957,-0.193863568504818
-0.0882946639473835,-0.166969575732751
-0.0914877736996182,-0.172816463707452
-0.0925825647525215,-0.17664918199857
-0.0776918098721658,-0.154277451142597
-0.124073020140682,-0.203298014290258
-0.112266906537216,-0.203279926972058
-0.10803978202473,-0.167322904436018
-0.0992583384992533,-0.155867950555755
-0.0944264713220598,-0.145250347845103
-0.101547607217553,-0.121661167075612
-0.117915255123703,-0.147472140436496
-0.137267290642171,-0.124144423415047
-0.127907979275566,-0.169582451258935
-0.134702732929324,-0.135595986361423
-0.166111700437158,-0.155898794538523
-0.169710248496304,-0.145924288823911
-0.176205989225641,-0.11073675223537
-0.142852656469975,-0.0926647029297726
-0.153116879410426,-0.111797336186909
-0.163180097003225,-0.10717215635171
-0.171488243560811,-0.137042097054791
-0.198345805618716,-0.102811238368597
-0.167442636921889,-0.0920630447923615
-0.170965398862217,-0.0870317266519253
-0.201645120084567,-0.0654845849277396
-0.185333981634241,-0.0468349677567893
-0.163856684109659,-0.0797063021097501
-0.184813277934948,-0.0665112754999759
-0.174204052780169,-0.0917732490846662
-0.191587368753566,-0.0560119839724741
-0.194935965107289,-0.0507020820214906
-0.198258552804467,-0.0453518227268847
-0.170813435929798,-0.0321509277674601
-0.160316339424004,-0.0508202765433157
-0.196766357926756,-0.0324487682748774
-0.211283177735462,-0.0235444138302338
-0.225800076605583,-0.00816856852986986
-0.227429559657997,0.0179704564568788
-0.213918735816283,-0.0220652000642682
-0.199564207363811,0.013952406555674
-0.226944928373266,0.00463967721411312
-0.225472507330725,0.0283346150072035
-0.233388974903247,0.063026000828469
-0.234501596889187,0.0312891366327373
-0.257149821453176,0.00959640140154195
-0.276567667090124,0.0551838423753737
-0.240235215067029,0.0535086704777376
-0.25484770795115,0.0808786552996035
-0.262059794955555,0.0364030087181953
-0.240430203464995,0.0158716993271897
-0.256071061370635,0.064157084912219
-0.25881426336795,0.0703438730403283
-0.253948994547624,0.0802592315178375
-0.264204595657637,0.082847475829831
-0.269951404803086,0.0927530479575607
-0.287897383863699,0.0704981844650562
-0.285511657397539,0.124651889561823
-0.280186562422714,0.12796873547916
-0.304258199153225,0.109027366210324
-0.279586717434927,0.121408570279837
-0.307968316968156,0.127963077705016
-0.284443613940387,0.134616094833012
-0.286820078836046,0.141286829173646
-0.32141476385457,0.153074608978227
-0.291467632090151,0.154762941553508
-0.284117274263782,0.148259303518265
-0.294687121904286,0.188337077060239
-0.313984277106393,0.187125417812373
-0.290553521950851,0.207068380538117
-0.30245866040967,0.189245173402974
-0.304546978102532,0.196278502097065
-0.342688798492424,0.190127899431175
-0.305757478678363,0.245604304489646
-0.302541466770682,0.215933500509399
-0.312524556816701,0.22487275509077
-0.277852175292124,0.256443576409196
-0.316283983434819,0.239448403315428
-0.318105369182985,0.24680634755906
-0.327435025423403,0.265216885133869
-0.324518043508394,0.258883414611693
-0.334707102085778,0.293270721084103
-0.282111909582301,0.286614550666893
-0.354367234861236,0.274323730836444
-0.328199334048804,0.291944509447407
-0.364981804115319,0.282768438650377
-0.356341376765076,0.294910259204162
-0.327730730000147,0.313286349363366
-0.334113347865558,0.322990207670377
-0.325070167565648,0.341390971887687
-0.324615282698461,0.329308457559992
-0.338107998388935,0.346781482335305
-0.337068355391247,0.351438189268674
-0.363324894423837,0.360918276627506
-0.356243488635463,0.370441047160092
-0.370576488286768,0.381028443114608
-0.34483092441114,0.391292833905323
-0.344930669989336,0.395684118466125
-0.332865806798975,0.444504677933798
-0.346850954910013,0.412380238153256
-0.368339325176875,0.432726341286777
-0.348590510829439,0.429275843850152
-0.349391810502147,0.437798803737512
