-0.942619357869552,0.181325966595518
-0.95161515515557,0.166553421958167
-0.931693234195832,0.154658518704304
-0.90570047940058,0.177186080697519
-0.893625698601968,0.141036966463996
-0.897413067925457,0.161115921448567
-0.850529563107311,0.080936881932319
-0.834905053941712,0.127464831416614
-0.876697413071225,0.104352648966243
-0.77545712550957,0.107693365254119
-0.784298956927735,0.069090978352974
-0.760265105996314,0.034469143150221
-0.750684266713937,0.0502636078200975
-0.75039447823301,0.0228053690601688
-0.718322022003465,0.0324184754386897
-0.686395512483337,-0.00641664839155497
-0.688937238084857,0.017576569044416
-0.670347164159805,-0.00347071921002132
-0.681905816112898,-0.00599489359490496
-0.642760979789146,-0.00804002002102641
-0.674300768547783,-0.0364924023363564
-0.573359333409926,-0.0193787619400314
-0.600986436815207,-0.0295753492773892
-0.617746153087969,-0.0425884743070794
-0.549415385186805,-0.0408896698485461
-0.567333902149216,-0.0405501496728325
-0.540647528286913,-0.0495051406472918
-0.558799677104997,-0.00450975162278795
-0.548006623626129,-0.0721978831590442
-0.520778084290645,-0.0915482986015963
-0.499551680045241,-0.0644910949769727
-0.456161989997138,-0.0957788009463225
-0.480030610876919,-0.0875813319952536
-0.441788836153475,-0.102568469236336
-0.459062402405714,-0.0968021938010964
-0.448964468391121,-0.101132782227948
-0.401673670181684,-0.0888144400516717
-0.429528095135839,-0.109247889026545
-0.437614046569284,-0.113152916452439
-0.402027657767764,-0.10897814717624
-0.402233735183335,-0.120096218777787
-0.39430013318845,-0.12653176767416
-0.37775459054977,-0.151711712651515
-0.37710995594039,-0.129420703498812
-0.36920572483796,-0.132202940080783
-0.361532392835434,-0.134826752465914
-0.35408739079919,-0.137294863633612
-0.334686464678583,-0.184034992397247
-0.348527250049511,-0.14668045258584
-0.303675587089022,-0.184368981162964
-0.361114542248062,-0.161413826657249
-0.35251838616169,-0.18416463791067
-0.323070640788289,-0.174928318648413
-0.277437874801814,-0.125792453226246
-0.299375582913967,-0.12075971146568
-0.279163935230914,-0.152029307344537
-0.308882068555738,-0.155542458983435
-0.300562919365059,-0.153173857677474
-0.26933428150614,-0.167935539033448
-0.278849104645492,-0.148625149612422
-0.251741093019688,-0.168191550927887
-0.268064945345887,-0.157484011053951
-0.264392860978353,-0.142915109525598
-0.259967350543729,-0.15806903426271
-0.256192966051071,-0.158200152995228
-0.240613884411484,-0.129926758489154
-0.25822485889143,-0.133238023999932
-0.245936634603306,-0.157980613458222
-0.263788194632947,-0.13758543388556
-0.259307928258024,-0.176228918519926
-0.237226584394776,-0.156898912886924
-0.224263939736924,-0.157047202111368
-0.232244674273696,-0.155735107212435
-0.22999344881767,-0.155028571725326
-0.224163694698261,-0.160709215358807
-0.211886830915156,-0.163686260734249
-0.224167861264173,-0.152443110417419
-0.23107175772765,-0.160546690082478
-0.221031852237766,-0.150358486967405
-0.219680455126472,-0.149216049407196
-0.218917869717468,-0.124721384129261
-0.221666316424007,-0.142538438946036
-0.215490962651259,-0.170177401158821
-0.239677471760817,-0.165371299166785
-0.214759644200996,-0.113152294841897
-0.218531598187791,-0.156832888402447
-0.240162430729503,-0.119169119290411
-0.205959944001871,-0.138166292221939
-0.228350926011509,-0.153388496050846
-0.188963384368056,-0.159159659805315
-0.229662376279379,-0.125543388994163
-0.251618052643734,-0.131888594843196
-0.212385184192424,-0.146997184941955
-0.206579095828607,-0.104274754327034
-0.232532176519024,-0.129127993580713
-0.244730333690036,-0.0863615971082101
-0.216180142934024,-0.122359214688312
-0.21471379472277,-0.121455195316795
-0.217861188072711,-0.118621147944901
-0.218841244035282,-0.116733678120208
-0.246886626552835,-0.135476757646353
-0.240355678834494,-0.137506487808732
-0.222308715892432,-0.111030198587056
-0.247848792964635,-0.11758363544032
-0.225034092435502,-0.107220883643134
-0.22651319189766,-0.105322296532849
-0.187373532008578,-0.120300681250089
-0.246216252804046,-0.132249932848131
-0.256571407840468,-0.0684166646752618
-0.233145717899248,-0.097831953355705
-0.234434358837656,-0.086041228096641
-0.222476215475397,-0.107322733145875
-0.238800111219606,-0.0923996449234455
-0.22931242708405,-0.0525300781205176
-0.246115408150027,-0.0263000643215865
-0.264065148767845,-0.0386281883638387
-0.247147960363171,-0.0304540620205733
-0.202785725635255,-0.0808170583657461
-0.225533923774522,-0.0589780782236844
-0.240134112400074,-0.0682343822412349
-0.251878268263607,-0.125104636562107
-0.256077962666973,-0.0748215931252465
-0.260911307902704,-0.0764429315440884
-0.247322346643372,-0.0694240670780478
-0.265781839643235,-0.0738120718901519
-0.269530341855961,-0.0533125458447274
-0.280917942146273,-0.0594403015944926
-0.273271477495624,-0.0703181960257227
-0.275806770976354,-0.0692851062862682
-0.249789493039334,-0.0405563545932264
-0.280920064430978,-0.0674325680068345
-0.283492926137627,-0.0666185654256695
-0.278147406548243,-0.0537587599080336
-0.316432362376701,-0.070210766897225
-0.292536480130189,-0.0701849623210062
-0.29383252637527,-0.0641745350108544
-0.315906812142885,-0.0330847939135474
-0.298995250670001,-0.0634778294610531
-0.301565851893665,-0.0632703345284789
-0.256600841095724,-0.0987524538180865
-0.300767055136448,-0.0522763552506345
-0.309203782266377,-0.0632439568529469
-0.321547911120115,-0.0641893103927288
-0.305532323060843,-0.0710633873490884
-0.269209763772162,-0.0444638082776068
-0.319119404078756,-0.0647013611352144
-0.294418021957011,-0.051850699481363
-0.33336547439037,-0.0943908853671524
-0.308957254403677,-0.083987102457782
-0.332371825807454,-0.108010671213086
-0.362143707967891,-0.0837975952083811
-0.349107216450457,-0.0714314582095712
-0.335272369860305,-0.0718456271825103
-0.366656576605379,-0.0652539879754203
-0.338530702593353,-0.0715472824779205
-0.358396636322788,-0.100390886856764
-0.338852799583804,-0.0925201381506623
-0.370663710478757,-0.0550114995889522
-0.354723417865619,-0.0752224831855476
-0.341975762048292,-0.0893151820624735
-0.330084285457728,-0.0434979750406199
-0.352564302451226,-0.0909291608091057
-0.375249400374593,-0.104361892159447
-0.337647284340934,-0.0563899691274212
-0.363738185486988,-0.114476299797288
-0.336184734844931,-0.100794330160696
-0.3598516908824,-0.107009805345321
-0.342749190476385,-0.10403199274983
-0.362206883775753,-0.114639457339738
-0.373444721578067,-0.089833132494837
-0.334474821578085,-0.0856228031937034
-0.365075699261877,-0.127434932152182
-0.383315352109421,-0.116929131314539
-0.383674251398753,-0.146912769455301
-0.362654740907781,-0.157563065963456
-0.367553465103929,-0.14713179110273
-0.358022363805486,-0.141086262194373
-0.368168680131411,-0.158159045293314
-0.352936533936688,-0.170347062944189
-0.410434897498394,-0.117575315600009
-0.368254112299194,-0.176234724509987
-0.372246445198968,-0.193927304718372
-0.36971558194342,-0.214490179443175
-0.391756625031884,-0.211759143581589
-0.366696989546995,-0.203314951404802
-0.36599218267481,-0.210635182980372
-0.318749911678187,-0.206330297294703
-0.364185953574118,-0.225954916809601
-0.364387744141127,-0.254969927836581
-0.391259210822139,-0.205125236737058
-0.360446534527935,-0.250673538939773
-0.358915098206011,-0.259387710603813
-0.339478763806856,-0.296770868227983
-0.355409365800633,-0.27754433823931
-0.350995135221985,-0.275961123241523
-0.338034935489428,-0.306693661283372
-0.358449738861871,-0.262189811244087
-0.346554526202318,-0.31684697416337
-0.344410835380359,-0.298215275277637
-0.338765533845357,-0.368093541932615
