-0.799625713609191,-0.639621346121434
-0.798813910814466,-0.62832988541889
-0.797974736518478,-0.617139882709514
-0.797108320186901,-0.606051017031523
-0.796214791285408,-0.595062967423134
-0.795294279279672,-0.584175412922565
-0.794346913635368,-0.573388032568032
-0.793372823818168,-0.562700505397754
-0.792372139293746,-0.552112510449948
-0.791344989527776,-0.54162372676283
-0.79029150398593,-0.531233833374619
-0.789211812133882,-0.520942509323531
-0.788106043437307,-0.510749433647784
-0.786974327361876,-0.500654285385596
-0.785816793373265,-0.490656743575183
-0.784633570937145,-0.480756487254764
-0.783424789519191,-0.470953195462555
-0.782190578585076,-0.461246547236773
-0.780931067600473,-0.451636221615637
-0.779646386031057,-0.442121897637363
-0.7783366633425,-0.432703254340169
-0.777002029000475,-0.423379970762272
-0.775642612470657,-0.414151725941889
-0.774258543218718,-0.405018198917238
-0.772849950710333,-0.395979068726537
-0.771416964411175,-0.387034014408002
-0.769959713786916,-0.378182714999851
-0.76847832830323,-0.369424849540301
-0.766972937425792,-0.36076009706757
-0.765443670620275,-0.352188136619875
-0.763890657352351,-0.343708647235433
-0.762314027087694,-0.335321307952461
-0.760713909291978,-0.327025797809178
-0.759090433430877,-0.3188217958438
-0.757443728970063,-0.310708981094544
-0.75577392537521,-0.302687032599629
-0.754081152111992,-0.294755629397271
-0.752365538646082,-0.286914450525688
-0.750627214443153,-0.279163175023096
-0.748866308968879,-0.271501481927714
-0.747082951688934,-0.263929050277759
-0.74527727206899,-0.256445559111448
-0.743449399574722,-0.249050687466999
-0.741599463671802,-0.241744114382628
-0.739727593825905,-0.234525518896554
-0.73591857016787,-0.220350976872163
-0.73398167528708,-0.213394388410281
-0.732023364326006,-0.206524493699564
-0.730043766750321,-0.199740971778231
-0.728043012025699,-0.193043501684498
-0.726021229617813,-0.186431762456582
-0.723978548992338,-0.179905433132701
-0.721915099614945,-0.173464192751073
-0.719831010951309,-0.167107720349914
-0.717726412467103,-0.160835694967443
-0.715601433628001,-0.154647795641875
-0.713456203899676,-0.14854370141143
-0.711290852747801,-0.142523091314323
-0.70910550963805,-0.136585644388773
-0.706900304036097,-0.130731039672996
-0.704675365407614,-0.124958956205211
-0.702430823218276,-0.119269073023634
-0.700166806933755,-0.113661069166483
-0.697883446019726,-0.108134623671975
-0.695580869941861,-0.102689415578328
-0.693259208165834,-0.0973251239237579
-0.690918590157319,-0.0920414277464833
-0.688559145381989,-0.0868380060847215
-0.686181003305517,-0.0817145379766893
-0.683784293393577,-0.0766707024606045
-0.681369145111842,-0.0717061785746843
-0.678935687925987,-0.066820645357146
-0.676484051301683,-0.062013781846207
-0.674014364704605,-0.0572852670800846
-0.671526757600426,-0.0526347800969961
-0.66902135945482,-0.048061999935159
-0.66649829973346,-0.0435666056327906
-0.663957707902019,-0.0391482762281081
-0.661399713426171,-0.0348066907593291
-0.656232034403949,-0.0263524677823506
-0.650996298392179,-0.0182013690075937
-0.648353232679398,-0.0142386887915918
-0.64569354111625,-0.0103508267407973
-0.640324798301549,-0.00279827328770012
-0.637616005981343,0.000867060038167819
-0.634891105673465,0.00445885904595891
-0.632150226843587,0.00797744469745587
-0.629393498957383,0.0114231379544412
-0.623833013878693,0.0180971311320078
-0.621029515617554,0.0213260729761544
-0.615376654980052,0.0275694519840873
-0.612527551535037,0.030584531071439
-0.606784645720846,0.0364030732218259
-0.603891102283017,0.0392071782084266
-0.600983004445597,0.0419416004183421
-0.598060481674259,0.0446066608133554
-0.595123663434676,0.0472026803552487
-0.592172679192523,0.0497299800058051
-0.589207658413473,0.052188880726807
-0.586228730563199,0.0545797034800371
-0.580229671511672,0.0591583989303125
-0.577209799241767,0.0613469135509232
-0.574176537763331,0.0634686340508926
-0.571130016542039,0.0655238813920035
-0.568070365043563,0.0675129765360385
-0.564997712733579,0.0694362404447803
-0.561912189077757,0.0712939940800115
-0.558813923541773,0.0730865584035147
-0.555703045591299,0.0748142543770727
-0.552579684692009,0.0764774029624681
-0.549443970309577,0.0780763251214835
-0.546296031909676,0.0796113418159016
-0.543135998957979,0.0810827740075049
-0.53996400092016,0.0824909426580763
-0.536780167261893,0.0838361687293982
-0.533584627448849,0.0851187731832535
-0.530377510946705,0.0863390769814247
-0.527158947221132,0.0874974010856945
-0.523929065737804,0.0885940664578454
-0.520687995962394,0.0896293940596603
-0.517435867360577,0.0906037048529217
-0.514172809398025,0.0915173197994124
-0.507614423253411,0.0931637459992117
-0.504319354002696,0.0938971991760857
-0.501013873253941,0.0945712403533196
-0.497698110472817,0.0951861904926958
-0.494372195125,0.0957423705559972
-0.491036256676163,0.0962401015050063
-0.487690424591979,0.0966797043015058
-0.484334828338121,0.0970614999072784
-0.480969597380263,0.0973858092841067
-0.477594861184079,0.0976529533937733
-0.474210749215242,0.0978632531980609
-0.470817390939424,0.0980170296587521
-0.467414915822301,0.0981146037376296
-0.464003453329545,0.0981562963964761
-0.460583132926829,0.0981424285970742
-0.457154084079828,0.0980733213012066
-0.453716436254214,0.0979492954706558
-0.450270318915661,0.0977706720672046
-0.446815861529842,0.0975377720526356
-0.443353193562432,0.0972509163887316
-0.439882444479102,0.0969104260372749
-0.436403743745528,0.0965166219600484
-0.432917220827382,0.0960698251188348
-0.429423005190337,0.0955703564754167
-0.422412013622247,0.0944146876290972
-0.418895496622549,0.0937591293497614
-0.415371804766645,0.0930521831153515
-0.411841067520211,0.0922941698876505
-0.408303414348919,0.0914854106284407
-0.404758974718444,0.0906262262995051
-0.401207878094457,0.089716937862626
-0.397650253942633,0.0887578662795862
-0.394086231728645,0.0877493325121685
-0.390515940918167,0.0866916575221554
-0.386939510976872,0.0855851622713296
-0.379768751564526,0.0832269948343703
-0.376174681024821,0.0819759645718022
-0.372574989216993,0.080677397895552
-0.368969805606715,0.0793316157674023
-0.365359259659661,0.0779389391491357
-0.361743480841505,0.0764996890025351
-0.358122598617919,0.0750141862893829
-0.354496742454577,0.0734827519714618
-0.350866041817153,0.0719057070105546
-0.347230626171321,0.0702833723684437
-0.343590624982752,0.068616069006912
-0.339946167717121,0.066904117887742
-0.328987354114592,0.061503587602229
-0.325326367197448,0.0596162550703324
-0.317993096582749,0.0557127821221471
-0.31432107181654,0.0536972836294234
-0.303284993270563,0.0473995916181211
-0.288528378683912,0.0384285262656295
-0.284832616143165,0.0360853741958037
-0.281134468976131,0.0337027097568621
-0.277434066648484,0.0312808539105874
-0.273731538625897,0.0288201276187621
-0.26261249504523,0.0212079356878094
-0.258902758899618,0.0185949372316084
-0.255191544387433,0.0159446731387702
-0.251478980974348,0.0132574643710773
-0.247765198126038,0.0105336318903125
-0.244050325308176,0.00777349665825829
-0.236617827626487,0.00214560178741253
-0.232900461694009,-0.000721515927813693
-0.225464142974149,-0.00656048710895972
-0.221745449118115,-0.00953169865131427
-0.218026571552243,-0.0125369662124795
-0.214307639742206,-0.0155759688306729
-0.210588783153678,-0.0186483855441117
-0.206870131252332,-0.0217538953910134
-0.203151813503841,-0.0248921774095952
-0.19943395937388,-0.0280629106380746
-0.195716698328121,-0.0312657741146687
-0.192000159832238,-0.0345004468775952
-0.188284473351905,-0.0377666079650711
-0.184569768352795,-0.0410639364153141
-0.180856174300581,-0.0443921112665412
-0.177143820660936,-0.04775081155697
-0.173432836899535,-0.0511397163248176
-0.166015496874156,-0.0580068554456394
-0.162309399541525,-0.0614844478750481
-0.158605189949831,-0.0649909609347451
-0.154902997564748,-0.0685260736629479
-0.151202951851949,-0.0720894650978736
-0.147505182277107,-0.0756808142777399
-0.143809818305896,-0.0792998002407638
-0.136426825037059,-0.0866193986691543
-0.129055007770828,-0.094045692688784
-0.125373613802873,-0.097798048140857
-0.121695402232589,-0.101576114605392
-0.11802050252565,-0.105379571120606
-0.11434904414773,-0.109208096724716
-0.107016969241638,-0.116939071352496
-0.103356611644814,-0.1208408784526
-0.0960479034919754,-0.128715527416324
-0.0923998118673082,-0.132687727356378
-0.0887560678313734,-0.13668274965285
-0.0851168008498448,-0.140700273343957
-0.0814821403883955,-0.144739977467917
-0.0778522159126993,-0.148801541062947
-0.0742271568884293,-0.152884643167265
-0.0633824671809125,-0.165259970918115
-0.0597781646190826,-0.169426017441756
-0.0525862273004772,-0.177817590628376
-0.0489988514750487,-0.182042475367791
-0.045417376826434,-0.186286330922232
-0.0418419328203069,-0.190548836329916
-0.0382726489223405,-0.194829670629062
-0.0347096545982086,-0.199128512857885
-0.0240597037255532,-0.212129877504599
-0.0169935578836345,-0.220881609284784
-0.0134710197816511,-0.225281758894241
-0.00995567751321605,-0.229697669700898
-0.00644766054400306,-0.234129020742972
-0.00294709833968532,-0.23857549105868
0.000545879634063412,-0.24303675968624
0.0075085650271608,-0.252002408029785
0.0109780135151625,-0.256506145822204
0.0144393599099013,-0.261023398079344
0.0178924747457043,-0.265553843839423
0.0213372285568976,-0.270097162140657
0.024773491877808,-0.274653032021265
0.0282011352427618,-0.279221132519463
0.0316200291860859,-0.283801142673469
0.0350300442421065,-0.2883927415215
0.0384310509451505,-0.292995608101774
0.041822919829544,-0.297609421452507
0.045205521429614,-0.302233860611918
0.0519424049140891,-0.311513332509641
0.0619749888665376,-0.325504209876738
0.0652992679815229,-0.330185663690777
0.0686133735524703,-0.334875496581014
0.0719171761137066,-0.339573387585668
0.075210546199558,-0.344279015742954
0.0784933543443513,-0.348992060091092
0.0817654710824129,-0.353712199668297
0.0850267669480694,-0.358439113512788
0.0882771124756473,-0.363172480662782
0.0947444346538737,-0.372657291032147
0.0979611523731755,-0.377408092327953
0.101166401891705,-0.382164063082131
0.104360053743788,-0.386924882332899
0.107541978463752,-0.391690229118474
0.110712046585924,-0.396459782477073
0.120149816708948,-0.410790472373188
0.123271163783214,-0.415573642406057
0.12638000693132,-0.420359414203037
0.129476216687593,-0.425147466802346
0.135630218161945,-0.434729130560817
0.138687750948677,-0.439522099796414
0.141732132480882,-0.44431606598721
0.144763233292886,-0.44911070817142
0.147780923919016,-0.453905705387263
0.15377555675096,-0.463495481066715
0.156752240025427,-0.468289617606759
0.159714995251326,-0.473082825331304
0.162663692962983,-0.477874783278569
0.165598203694726,-0.482665170486771
0.174315319353732,-0.497023698059167
0.177191787509081,-0.501804592693288
0.188548022390923,-0.520893206132178
0.191349024348127,-0.525655013408588
0.194134544668682,-0.530412040328109
0.196904453886915,-0.535163965928956
0.199658622537151,-0.539910469249349
0.202396921153717,-0.544651229327504
0.207825390423148,-0.554114235909968
0.221109775410363,-0.57764877830218
0.226306095351562,-0.587006665436049
0.228878573019392,-0.591672340193778
0.233971516421146,-0.600975547281912
0.236491723223723,-0.605612437688752
0.238994247473202,-0.610239091388396
0.24147895970391,-0.614855187419063
0.243945730450172,-0.61946040481897
0.246394430246317,-0.624054422626333
0.251237099125557,-0.6332075756163
0.253630809277306,-0.637766068875339
0.256005930616242,-0.642312078694704
0.258362333676693,-0.646845284112612
0.260699888992986,-0.651365364167282
0.265317938530399,-0.660364864339773
0.267598173820173,-0.66484364253403
0.269859043503095,-0.669308011517918
0.27210041811349,-0.673757650329653
0.274322168185685,-0.678192238007453
0.276524164254008,-0.682611453589535
0.278706276852784,-0.687014976114118
0.283010333779002,-0.695773658143652
0.285132019175097,-0.700128175725038
0.287233303238951,-0.704465716401794
0.291374149507246,-0.713088583194282
0.295431836858497,-0.721639690826855
0.297429172276048,-0.725887532553717
0.299405329567318,-0.730116471605252
0.305205438026706,-0.742686663090071
0.30896391283088,-0.750966393070635
0.31081028258532,-0.755075175872775
0.316216367669977,-0.767273343985231
0.319708276254125,-0.775295429530741
0.323109257980824,-0.783226498209376
0.328037977063867,-0.794946827770745
0.32963429796032,-0.798805314188981
0.33120711034837,-0.802639120619803
0.332756284762343,-0.806447926101428
0.335783201805365,-0.813989250369956
0.337260685503067,-0.817721127233294
0.337260685503067,-0.817721127233294
0.338700603598805,-0.821415849666892
0.342716002507331,-0.832212472887643
0.351230420109873,-0.858922140449491
0.352074356676439,-0.862050780835632
0.354317612797973,-0.871160337915898
0.356132647410751,-0.879858609712811
0.356643522803839,-0.882667361545233
0.358222196172383,-0.89345314911695
0.358924276729439,-0.901075156828377
0.359067678948514,-0.903527638410502
0.359166134633371,-0.905936284961456
0.358991896475181,-0.917327426971827
0.358825281813211,-0.919476324169648
0.358615256903184,-0.921582473280928
0.358362041214552,-0.923646029583471
0.356921660063009,-0.931477432262342
0.356455782523128,-0.933330353688256
0.354807784009924,-0.938639772225729
0.354175727439175,-0.940326980750811
0.352034459100208,-0.945142987253085
0.350404892713148,-0.948150528471831
0.349530151679648,-0.949593825979785
0.348615731378772,-0.950997015123864
0.344565646890526,-0.956211793617521
0.343456122294538,-0.957416770109289
0.342308235247884,-0.958582569904007
0.339898251680381,-0.960797260513508
0.337337451943631,-0.962857107668455
0.336001044685418,-0.963829353144982
0.334627591793248,-0.964763353591281
0.330287154007516,-0.96733743752686
0.328767713274037,-0.968120010630293
0.325621206416438,-0.969572906191343
0.32399457923122,-0.970243539204568
0.32233266216766,-0.970877169409999
0.320635674695209,-0.971473952085438
0.31713736640144,-0.97255759595756
0.313501410105528,-0.973495713043367
0.309729561563087,-0.97428954556529
0.307793226373047,-0.974632743309305
0.30582357652973,-0.974940335745761
0.303820831502587,-0.975212478152462
0.295483288944797,-0.975949653037794
0.291121652768695,-0.976109577524833
0.288893386599423,-0.976137917501759
0.284343055445695,-0.976092129311447
0.279669122334735,-0.975910752114272
0.277286353718922,-0.975769605832622
0.272430309713889,-0.975387174292215
0.269957473263572,-0.975146199589066
0.257153925312056,-0.973449947856027
0.254506878867929,-0.973013508810588
0.246397016278029,-0.971512609277081
0.243638219227062,-0.970948966226195
0.232331335936908,-0.968381818732172
0.229437788690056,-0.967662664425067
0.217602878088948,-0.964481235796363
0.205361347439601,-0.960819562261802
0.202239076415615,-0.95983027019515
0.195921804619826,-0.957764124586863
0.192727242786926,-0.956687581600835
0.189509022956625,-0.955582265530623
0.186267364598375,-0.95444833165403
0.183002487181627,-0.953285935248861
0.179714610175834,-0.952095231592919
0.176403953050446,-0.950876375964008
0.159516647060405,-0.944365252948067
0.156073918075938,-0.942980746315229
0.142092758498269,-0.937173622278508
0.124159721045504,-0.929320893680828
0.120514429852045,-0.927672724265761
0.113166919517834,-0.924300003962528
0.105744968383577,-0.920826476880522
0.094476305897513,-0.915429890908885
0.0792072668349982,-0.907893213297028
0.0518544515140777,-0.893793544185121
0.0358872718495165,-0.88523339479895
0.0318593762323051,-0.883037728911363
0.0278174792735687,-0.880820122162966
0.0156099750427268,-0.874037209530957
0.00740565578782221,-0.869408410231974
-0.00915344126414844,-0.85989994352861
-0.0175047075499867,-0.855022760569092
-0.0428243083795484,-0.839914319928373
-0.0513469234613715,-0.834723349868851
-0.0858043043321421,-0.813218479665865
-0.0988614848170671,-0.804859597342209
-0.116370803645492,-0.793475364056005
-0.120764481803013,-0.790587652195767
-0.133981241045348,-0.781827032567068
-0.14724697858385,-0.772923447700274
-0.178357551125273,-0.751615990885433
-0.182816663740366,-0.74851349726722
-0.187278804224397,-0.745396826678395
-0.196211290921467,-0.739121575700129
-0.232018458576945,-0.713484548523403
-0.245462307989669,-0.703660656098855
-0.249943794346407,-0.700361812090889
-0.267864903350471,-0.687049510801548
-0.272342874148505,-0.683692980553863
-0.281294511714834,-0.676946861092701
-0.290238947445165,-0.670157698195843
-0.303638256882759,-0.659895964770195
-0.308099190375376,-0.656455210984766
-0.312557006592284,-0.653004628007236
-0.325909556894229,-0.642595456700086
-0.334791647110362,-0.635609709961225
-0.339226150814524,-0.632103412664977
-0.343656000956814,-0.628588373121258
-0.34808097806778,-0.62506474660787
-0.356915435317933,-0.617992353783304
-0.365727766809372,-0.610887476413712
-0.370125086721943,-0.607323244219042
-0.378900937533532,-0.600171969198971
-0.400720720075691,-0.58216796593372
-0.405062376059341,-0.578546839094804
-0.409396086439343,-0.574919299175475
-0.413721631746246,-0.571285501453537
-0.426647082533838,-0.560348114250109
-0.443753391413826,-0.545686742262455
-0.460700967034399,-0.530945120991966
-0.489935024595473,-0.504984074909056
-0.510450833890513,-0.486338139278036
-0.522600887143857,-0.475118962053229
-0.546514617771346,-0.452629036952976
-0.554364941801273,-0.445121669875692
-0.566021030393208,-0.433854834358253
-0.569873676058592,-0.430098300989918
-0.573709597342258,-0.426341565653329
-0.611100685905096,-0.388797265150339
-0.618356264091886,-0.381301509211089
-0.621954796693122,-0.377556278567358
-0.629092251564019,-0.370071888320705
-0.64312257483486,-0.355131739769143
-0.660183773060611,-0.33652304938929
-0.676689693336103,-0.318006358430565
-0.689476193998365,-0.303272288582331
-0.695725204148847,-0.295935097409483
-0.698812881035844,-0.29227450623319
-0.701875713171412,-0.28861945836739
-0.707925965310445,-0.281326613678484
-0.710912946375008,-0.277689127410987
-0.716809521146968,-0.270432803418921
-0.719718675915462,-0.266814276249961
-0.736611921306157,-0.245247783316871
-0.747323054073238,-0.231019289429646
-0.749929946608361,-0.22748223534623
-0.752508043941922,-0.223953519573779
-0.764958921155483,-0.206440450099123
-0.776656997912229,-0.189159130069168
-0.787574840530693,-0.17212896920941
-0.799607715986814,-0.152051635175858
-0.812112871473341,-0.129165260080719
