0.728595801058812,0.763044866612309
0.722820566846609,0.751306588660428
0.717099383658618,0.739669918644715
0.711431981573308,0.728134441162017
0.705818090669149,0.716699740809184
0.700257441024608,0.705365402183063
0.694749762718153,0.694131009880502
0.689294785828253,0.682996148498351
0.683892240433377,0.671960402633458
0.678541856611992,0.66102335688267
0.673243364442568,0.650184595842838
0.667996494003573,0.639443704110808
0.662800975373474,0.628800266283429
0.657656538630742,0.618253866957551
0.652562913853843,0.60780409073002
0.647519831121247,0.597450522197686
0.642527020511422,0.587192745957397
0.637584212102835,0.577030346606002
0.632691135973957,0.566962908740348
0.627847522203255,0.556990016957285
0.623053100869197,0.54711125585366
0.618307602050252,0.537326210026323
0.613610755824888,0.527634464072121
0.608962292271575,0.518035602587902
0.604361941468779,0.508529210170517
0.599809433494971,0.499114871416812
0.595304498428617,0.489792170923636
0.590846866348186,0.480560693287838
0.586436267332148,0.471420023106266
0.58207243145897,0.462369744975768
0.577755088807121,0.453409443493193
0.573483969455068,0.444538703255389
0.569258803481282,0.435757108859205
0.565079320964229,0.42706424490149
0.560945251982379,0.41845969597909
0.5568563266142,0.409943046688856
0.55281227493816,0.401513881627635
0.548812827032728,0.393171785392275
0.544857712976371,0.384916342579626
0.54094666284756,0.376747137786535
0.537079406724761,0.368663755609852
0.533255674686444,0.360665780646424
0.529475196811076,0.3527527974931
0.525737703177127,0.344924390746727
0.522042923863065,0.337180145004156
0.518390588947357,0.329519644862234
0.514780428508473,0.321942474917809
0.511212172624881,0.31444821976773
0.50768555137505,0.307036464008846
0.504200294837447,0.299706792238004
0.500756133090541,0.292458789052053
0.497352796212801,0.285292039047842
0.493990014282694,0.278206126822219
0.490667517378691,0.271200636972033
0.487385035579258,0.264275154094131
0.484142298962864,0.257429262785362
0.480939037607979,0.250662547642576
0.477774981593069,0.243974593262619
0.474649860996604,0.237364984242341
0.471563405897052,0.230833305178589
0.468515346372881,0.224379140668213
0.46550541250256,0.218002075308061
0.462533334364558,0.211701693694981
0.459598842037342,0.205477580425821
0.456701665599381,0.199329320097431
0.453841535129144,0.193256497306658
0.451018180705098,0.18725869665035
0.448231332405713,0.181335502725357
0.445480720309457,0.175486500128527
0.442766074494798,0.169711273456708
0.440087125040205,0.164009407306748
0.437443602024145,0.158380486275496
0.434835235525088,0.1528240949598
0.432261755621502,0.147339817956509
0.429722892391856,0.141927239862471
0.427218375914617,0.136585945274535
0.424747936268254,0.131315518789549
0.422311303531236,0.126115545004362
0.419908207782031,0.120985608515821
0.417538379099107,0.115925293920775
0.415201547560933,0.110934185816073
0.412897443245977,0.106011868798563
0.410625796232708,0.101157927465093
0.408386336599594,0.0963719464125128
0.406178794425104,0.0916535102376695
0.404002899787706,0.087002203537412
0.401858382765868,0.0824176109085886
0.399744973438059,0.0778993169480478
0.397662401882747,0.0734469062526379
0.3956103981784,0.0690599634192075
0.393588692403488,0.0647380730446049
0.391597014636478,0.0604808197256785
0.38963509495584,0.0562877880592768
0.38770266344004,0.0521585626422481
0.385799450167548,0.0480927280714409
0.383925185216833,0.0440898689437035
0.382079598666362,0.0401495698558846
0.380262420594604,0.0362714154048323
0.378473381080027,0.0324549901873952
0.376712210201101,0.0286998788004215
0.374978638036292,0.02500566584076
0.373272394664071,0.0213719359052588
0.371593210162904,0.0177982735907664
0.369940814611261,0.0142842634941312
0.36831493808761,0.0108294902122016
0.36671531067042,0.00743353834182624
0.365141662438158,0.00409599247985319
0.363593723469293,0.000816437223131114
0.362071223842294,-0.00240554283149173
0.36057389363563,-0.00557036308716674
0.359101462927767,-0.00867843894704579
0.357653661797176,-0.0117301858142801
0.356230220322324,-0.0147260190920216
0.35483086858168,-0.0176663541834216
0.353455336653712,-0.0205516064916319
0.352103354616888,-0.0233821914198039
0.350774652549678,-0.0261585243710893
0.349468960530549,-0.0288810207486397
0.34818600863797,-0.0315500959556065
0.346925526950409,-0.0341661653951416
0.345687245546336,-0.0367296444703963
0.344470894504217,-0.0392409485845223
0.343276203902521,-0.0417004931406711
0.342102903819718,-0.0441086935419945
0.340950724334275,-0.0464659651916437
0.339819395524661,-0.0487727234927708
0.338708647469344,-0.0510293838485269
0.337618210246793,-0.0532363616620639
0.336547813935476,-0.0553940723365332
0.335497188613862,-0.0575029312750865
0.334466064360418,-0.0595633538808753
0.333454171253614,-0.0615757555570513
0.332461239371918,-0.063540551706766
0.331486998793798,-0.0654581577331709
0.330531179597722,-0.0673289890394178
0.32959351186216,-0.0691534610286581
0.328673725665579,-0.0709319891040435
0.327771551086448,-0.0726649886687254
0.326886718203235,-0.0743528751258556
0.326018957094409,-0.0759960638785855
0.325167997838438,-0.0775949703300669
0.324333570513791,-0.0791500098834512
0.323515405198936,-0.0806615979418901
0.322713231972341,-0.0821301499085351
0.321926780912475,-0.0835560811865378
0.321155782097807,-0.0849398071790498
0.320399965606804,-0.0862817432892227
0.319659061517935,-0.0875823049202081
0.318932799909668,-0.0888419074751575
0.318220910860473,-0.0900609663572225
0.317523124448817,-0.0912398969695548
0.316839170753169,-0.0923791147153058
0.316168779851997,-0.0934790349976273
0.31551168182377,-0.0945400732196707
0.314867606746956,-0.0955626447845877
0.314236284700023,-0.0965471650955298
0.31361744576144,-0.0974940495556486
0.313010820009676,-0.0984037135680958
0.312416137523198,-0.0992765725360228
0.311833128380476,-0.100113041862581
0.311261522659977,-0.100913536950923
0.31070105044017,-0.101678473204199
0.310151441799524,-0.102408266025561
0.309612426816506,-0.103103330818162
0.309083735569586,-0.103764082985151
0.308565098137232,-0.104390937929682
0.308056244597911,-0.104984311054905
0.307556905030093,-0.105544617763972
0.307066809512247,-0.106072273460035
0.306585688122839,-0.106567693546246
0.30611327094034,-0.107031293425755
0.305649288043216,-0.107463488501715
0.305193469509938,-0.107864694177277
0.304745545418972,-0.108235325855592
0.304305245848788,-0.108575798939813
0.303872300877854,-0.10888652883309
0.303446440584638,-0.109167930938576
0.303027395047609,-0.109420420659422
0.302614894345236,-0.109644413398779
0.302208668555985,-0.1098403245598
0.301808447758327,-0.110008569545635
0.30141396203073,-0.110149563759437
0.301024941451661,-0.110263722604356
0.300641116099589,-0.110351461483545
0.300262216052984,-0.110413195800155
0.299887971390312,-0.110449340957338
0.299518112190043,-0.110460312358245
0.299152368530645,-0.110446525406028
0.298790470490587,-0.110408395503838
0.298432148148336,-0.110346338054827
0.298077131582362,-0.110260768462147
0.297725150871132,-0.110152102128949
0.297375936093116,-0.110020754458385
0.297029217326781,-0.109867140853606
0.296684724650595,-0.109691676717764
0.296342188143029,-0.10949477745401
0.296001337882549,-0.109276858465496
0.295661903947624,-0.109038335155374
0.295323616416723,-0.108779622926796
0.294986205368314,-0.108501137182912
0.294649400880865,-0.108203293326875
0.294312933032846,-0.107886506761835
0.293976531902724,-0.107551192890945
0.293639927568967,-0.107197767117357
0.293302850110045,-0.106826644844221
0.292965029604425,-0.106438241474689
0.292626196130576,-0.106032972411914
0.292286079766967,-0.105611253059045
0.291944410592066,-0.105173498819236
0.29160091868434,-0.104720125095638
0.29125533412226,-0.104251547291402
0.290907386984293,-0.103768180809679
0.290556807348907,-0.103270441053623
0.290203325294571,-0.102758743426383
0.289846670899754,-0.102233503331111
0.289486574242923,-0.10169513617096
0.289122765402548,-0.101144057349081
0.288754974457096,-0.100580682268625
0.288382931485037,-0.100005426332744
0.288006366564838,-0.0994187049445889
0.287625009774967,-0.0988209335073123
0.287238591193895,-0.0982125274240654
0.286846840900088,-0.0975939020979998
0.286449488972015,-0.096965472932267
0.286046265488145,-0.0963276553300187
0.285636900526945,-0.0956808646944063
0.285221124166886,-0.0950255164285816
0.284798666486434,-0.094362025935696
0.284369257564058,-0.0936908086189012
0.283932627478227,-0.0930122798813487
0.28348850630741,-0.0923268551261902
0.283036624130074,-0.0916349497565771
0.282576711024688,-0.0909369791756612
0.28210849706972,-0.0902333587865939
0.281631712343639,-0.0895245039925269
0.281146086924913,-0.0888108301966118
0.280651350892012,-0.0880927528020001
0.280147234323402,-0.0873706872118433
0.279633467297553,-0.0866450488292932
0.279109779892932,-0.0859162530575013
0.278575902188009,-0.0851847152996192
0.278031564261252,-0.0844508509587983
0.277476496191129,-0.0837150754381905
0.276910428056109,-0.0829778041409471
0.276333089934659,-0.0822394524702199
0.27574421190525,-0.0815004358291603
0.275143524046348,-0.08076116962092
0.274530756436422,-0.0800220692486505
0.273905639153941,-0.0792835501155036
0.273267902277374,-0.0785460276246306
0.272617275885187,-0.0778099171791832
0.271953490055851,-0.077075634182313
0.271276274867834,-0.0763435940371715
0.270585360399603,-0.0756142121469105
0.269880476729627,-0.0748879039146814
0.269161353936376,-0.0741650847436358
0.268427722098316,-0.0734461700369253
0.267679311293917,-0.0727315751977015
0.266915851601647,-0.072021715629116
0.266137073099974,-0.0713170067343203
0.265342705867367,-0.0706178639164661
0.264532479982294,-0.0699247025787049
0.263706125523224,-0.0692379381241883
0.262863372568625,-0.0685579859560679
0.262003951196965,-0.0678852614774953
0.261127591486714,-0.0672201800916221
0.260234023516338,-0.0665631572015998
0.259322977364308,-0.06591460821058
0.25839418310909,-0.0652749485217144
0.257447370829155,-0.0646445935381544
0.256482270602969,-0.0640239586630518
0.255498612509002,-0.0634134592995579
0.254496126625721,-0.0628135108508246
0.253474543031596,-0.0622245287200033
0.252433591805095,-0.0616469283102456
0.251373003024685,-0.0610811250247031
0.250292506768837,-0.0605275342665274
0.249191833116017,-0.05998657143887
0.248070712144695,-0.0594586519448827
0.246928873933338,-0.0589441911877168
0.245766048560416,-0.0584436045705241
0.244581966104396,-0.057957307496456
0.243376356643748,-0.0574857153686643
0.242148950256939,-0.0570292435903004
0.240899477022438,-0.056588307564516
0.239627667018713,-0.0561633226944627
0.238333250324233,-0.0557547043832919
0.237015957017467,-0.0553628680341554
0.235675517176882,-0.0549882290502046
0.234311660880947,-0.0546312028345913
0.23292411820813,-0.0542922047904669
0.2315126192369,-0.053971650320983
0.230076894045726,-0.0536699548292913
0.228616672713076,-0.0533875337185432
0.227131685317417,-0.0531248023918905
0.225621661937219,-0.0528821762524847
0.22408633265095,-0.0526600707034773
0.222525427537079,-0.0524589011480199
0.220938676674073,-0.0522790829892642
0.219325810140402,-0.0521210316303617
0.217686558014533,-0.051985162474464
0.216020650374936,-0.0518718909247227
0.214327817300078,-0.0517816323842894
0.212607788868428,-0.0517148022563156
0.210860295158454,-0.0516718159439529
0.209085066248625,-0.051653088850353
0.207281832217409,-0.0516590363786673
0.205450323143275,-0.0516900739320476
0.203590269104691,-0.0517466169136453
0.201701400180126,-0.051829080726612
0.199783446448047,-0.0519378807740994
0.197836137986924,-0.0520734324592591
0.195859204875225,-0.0522361511852425
0.193852377191417,-0.0524264523552013
0.19181538501397,-0.0526447513722871
0.189747958421353,-0.0528914636396514
0.187649827492032,-0.0531670045604459
0.185520722304478,-0.0534717895378222
0.183360372937158,-0.0538062339749317
0.181168509468541,-0.0541707532749261
0.178944861977094,-0.054565762840957
0.176689160541287,-0.0549916780761759
0.174401135239589,-0.0554489143837345
0.172080516150466,-0.0559378871667843
0.169727033352389,-0.0564590118284769
0.167340416923824,-0.057012703771964
0.164920396943242,-0.057599378400397
0.162466703489109,-0.0582194511169275
0.159979066639895,-0.0588733373247072
0.157457216474068,-0.0595614524268877
0.154900883070096,-0.0602842118266204
0.152309796506448,-0.0610420309270571
0.149683686861592,-0.0618353251313492
0.147022284213997,-0.0626645098426485
0.144325318642131,-0.0635300004641063
0.141592520224462,-0.0644322123988744
0.138823619039459,-0.0653715610501043
0.136018345165591,-0.0663484618209476
0.133176428681325,-0.0673633301145559
0.13029759966513,-0.0684165813340808
0.127381588195475,-0.0695086308826738
0.124428124350828,-0.0706398941634866
0.121436938209657,-0.0718107865796706
0.118407759850431,-0.0730217235343776
0.115340319351619,-0.0742731204307591
0.112234346791688,-0.0755653926719666
0.109089572249107,-0.0768989556611518
0.105905725802345,-0.0782742248014662
0.102682537529869,-0.0796916154960615
0.0994197375101492,-0.0811515431480892
0.096117055821653,-0.0826544231607008
0.0927742225428489,-0.0842006709370481
0.0893909677522056,-0.0857907018802825
0.0859670215281912,-0.0874249313935556
0.0825021139492744,-0.089103774880019
0.0789959750939234,-0.0908276477428245
0.0754483350406068,-0.0925969653851233
0.0718589238677928,-0.0944121432100673
0.0682274716539502,-0.0962735966208079
0.0645537084775469,-0.0981817410204968
0.0608373644170519,-0.100136991812285
0.057078169550933,-0.102139764399326
0.0532758539576593,-0.104190474184769
0.0494301477156986,-0.106289536571766
0.0455407809035198,-0.10843736696347
0.0416074835995909,-0.110634380763032
0.0376299858823808,-0.112880993373603
0.0336080178303574,-0.115177620198335
0.0295413095219896,-0.117524676640379
0.0254295910357454,-0.119922578102887
0.0212725924500937,-0.122371739989012
0.0170700438435024,-0.124872577701903
0.0128216752944403,-0.127425506644713
0.00852721688137559,-0.130030942220594
0.00418639868277698,-0.132689299832696
-0.00020104922288753,-0.135400994884173
-0.00463539675714907,-0.138166442778174
-0.00911691384153961,-0.140986058917852
-0.0136458703975904,-0.143860258706359
-0.0182225363468333,-0.146789457546845
-0.0228471816107995,-0.149774070842463
-0.0275200761110211,-0.152814513996364
-0.0322414897690293,-0.1559112024117
-0.0370116925063558,-0.159064551491622
-0.0418309542445321,-0.162274976639281
-0.04669954490509,-0.165542893257831
-0.0516177344095607,-0.168868716750421
-0.0565857926794763,-0.172252862520204
-0.0616039896363678,-0.175695745970331
-0.0666725952017672,-0.179197782503953
-0.0717918792972058,-0.182759387524224
-0.0769621118442155,-0.186380976434293
-0.0821835627643275,-0.190062964637312
-0.0874565019790737,-0.193805767536434
-0.0927811994099854,-0.197609800534809
-0.0981579249785945,-0.20147547903559
-0.103586948606432,-0.205403218441927
-0.109068540215031,-0.209393434156973
-0.114602969725921,-0.213446541583879
-0.120190507060634,-0.217562956125797
-0.120190507060634,-0.217562956125797
-0.125791978477882,-0.221680191258029
-0.131367989522842,-0.225735640343299
-0.136918479046751,-0.229729538615883
-0.142443385900846,-0.23366212131006
-0.147942648936362,-0.237533623660108
-0.153416207004537,-0.241344280900306
-0.158863998956605,-0.245094328264931
-0.164285963643804,-0.248784000988263
-0.16968203991737,-0.252413534304578
-0.175052166628538,-0.255983163448155
-0.180396282628545,-0.259493123653273
-0.185714326768627,-0.262943650154209
-0.191006237900021,-0.266334978185242
-0.196271954873963,-0.269667342980651
-0.201511416541688,-0.272940979774712
-0.206724561754433,-0.276156123801705
-0.211911329363435,-0.279313010295907
-0.217071658219929,-0.282411874491597
-0.222205487175151,-0.285452951623053
-0.227312755080339,-0.288436476924553
-0.232393400786728,-0.291362685630376
-0.237447363145554,-0.294231812974799
-0.242474581008054,-0.297044094192101
-0.247474993225463,-0.29979976451656
-0.252448538649019,-0.302499059182454
-0.257395156129956,-0.305142213424061
-0.262314784519512,-0.30772946247566
-0.267207362668923,-0.310261041571529
-0.272072829429425,-0.312737185945946
-0.276911123652253,-0.315158130833189
-0.281722184188645,-0.317524111467536
-0.286505949889837,-0.319835363083266
-0.291262359607064,-0.322092120914657
-0.295991352191563,-0.324294620195986
-0.30069286649457,-0.326443096161533
-0.305366841367322,-0.328537784045575
-0.310013215661054,-0.330578919082391
-0.314631928227003,-0.332566736506258
-0.319222917916405,-0.334501471551455
-0.323786123580496,-0.336383359452261
-0.328321484070513,-0.338212635442953
-0.332828938237691,-0.339989534757809
-0.337308424933267,-0.341714292631108
-0.341759883008477,-0.343387144297128
-0.346183251314558,-0.345008324990147
-0.350578468702745,-0.346578069944444
-0.354945474024275,-0.348096614394296
-0.359284206130383,-0.349564193573982
-0.363594603872307,-0.350981042717779
-0.367876606101282,-0.352347397059967
-0.372130151668545,-0.353663491834823
-0.376355179425332,-0.354929562276626
-0.380551628222879,-0.356145843619654
-0.384719436912422,-0.357312571098184
-0.388858544345197,-0.358429979946496
-0.392968889372441,-0.359498305398866
-0.39705041084539,-0.360517782689575
-0.40110304761528,-0.361488647052899
-0.405126738533347,-0.362411133723117
-0.409121422450828,-0.363285477934507
-0.413087038218959,-0.364111914921347
-0.417023524688975,-0.364890679917916
-0.420930820712114,-0.365622008158492
-0.424808865139611,-0.366306134877352
-0.428657596822703,-0.366943295308776
-0.432476954612625,-0.367533724687041
-0.436266877360615,-0.368077658246425
-0.440027303917908,-0.368575331221207
-0.44375817313574,-0.369026978845666
-0.447459423865348,-0.369432836354078
-0.451130994957968,-0.369793138980722
-0.454772825264836,-0.370108121959877
-0.458384853637188,-0.370378020525821
-0.461967018926261,-0.370603069912831
-0.46551925998329,-0.370783505355187
-0.469041515659513,-0.370919562087166
-0.472533724806165,-0.371011475343046
-0.475995826274482,-0.371059480357106
-0.479427758915701,-0.371063812363624
-0.482829461581058,-0.371024706596878
-0.486200873121788,-0.370942398291147
-0.489541932389129,-0.370817122680707
-0.492852578234317,-0.370649114999839
-0.496132749508587,-0.370438610482819
-0.499382385063176,-0.370185844363927
-0.50260142374932,-0.36989105187744
-0.505789804418255,-0.369554468257636
-0.508947465921219,-0.369176328738794
-0.512074347109446,-0.368756868555191
-0.515170386834172,-0.368296322941107
-0.518235523946635,-0.367794927130819
-0.521269697298071,-0.367252916358606
-0.524272845739715,-0.366670525858745
-0.527244908122804,-0.366047990865515
-0.530185823298574,-0.365385546613194
-0.533095530118261,-0.36468342833606
-0.535973967433102,-0.363941871268392
-0.538821074094333,-0.363161110644468
-0.541636788953189,-0.362341381698565
-0.544421050860908,-0.361482919664963
-0.547173798668725,-0.360585959777938
-0.549894971227876,-0.35965073727177
-0.552584507389598,-0.358677487380737
-0.555242346005128,-0.357666445339117
-0.5578684259257,-0.356617846381187
-0.560462686002552,-0.355531925741227
-0.56302506508692,-0.354408918653514
-0.565555502030039,-0.353249060352327
-0.568053935683147,-0.352052586071944
-0.570520304897479,-0.350819731046643
-0.572954548524271,-0.349550730510702
-0.57535660541476,-0.348245819698399
-0.577726414420182,-0.346905233844014
-0.580063914391773,-0.345529208181822
-0.58236904418077,-0.344117977946104
-0.584641742638408,-0.342671778371138
-0.586881948615924,-0.3411908446912
-0.589089600964554,-0.339675412140571
-0.591264638535534,-0.338125715953527
-0.593407000180101,-0.336541991364347
-0.59551662474949,-0.334924473607309
-0.597593451094938,-0.333273397916692
-0.599637418067681,-0.331588999526773
-0.601648464518956,-0.329871513671831
-0.603626529299998,-0.328121175586144
-0.605571551262044,-0.326338220503991
-0.60748346925633,-0.324522883659648
-0.609362222134092,-0.322675400287396
-0.611207748746566,-0.320796005621511
-0.613019987944989,-0.318884934896272
-0.614798878580597,-0.316942423345958
-0.616544359504626,-0.314968706204845
-0.618256369568312,-0.312964018707214
-0.619934847622892,-0.310928596087341
-0.621579732519601,-0.308862673579505
-0.623190963109676,-0.306766486417985
-0.624768478244353,-0.304640269837057
-0.626312216774869,-0.302484259071002
-0.627822117552459,-0.300298689354096
-0.62929811942836,-0.298083795920618
-0.630740161253808,-0.295839814004846
-0.632148181880039,-0.293566978841059
-0.633522120158289,-0.291265525663534
-0.634861914939795,-0.28893568970655
-0.636167505075793,-0.286577706204385
-0.637438829417519,-0.284191810391318
-0.638675826816209,-0.281778237501625
-0.6398784361231,-0.279337222769586
-0.641046596189427,-0.276869001429479
-0.642180245866427,-0.274373808715582
-0.643279324005336,-0.271851879862173
-0.644343769457392,-0.269303450103531
-0.645373521073828,-0.266728754673933
-0.646368517705882,-0.264128028807658
-0.64732869820479,-0.261501507738983
-0.648254001421788,-0.258849426702188
-0.649144366208113,-0.256172020931551
-0.649999731415,-0.253469525661348
-0.650820035893686,-0.25074217612586
-0.651605218495407,-0.247990207559364
-0.6523552180714,-0.245213855196137
-0.6530699734729,-0.242413354270459
-0.653749423551143,-0.239588940016608
-0.654393507157367,-0.236740847668861
-0.655002163142807,-0.233869312461498
-0.655575330358699,-0.230974569628795
-0.65611294765628,-0.228056854405032
-0.656614953886785,-0.225116402024486
-0.657081287901452,-0.222153447721436
-0.657511888551515,-0.21916822673016
-0.657906694688212,-0.216160974284936
-0.658265645162779,-0.213131925620043
-0.658588678826452,-0.210081315969758
-0.658875734530467,-0.20700938056836
-0.659126751126059,-0.203916354650126
-0.659341667464467,-0.200802473449336
-0.659520422396925,-0.197667972200267
-0.65966295477467,-0.194513086137198
-0.659769203448939,-0.191338050494406
-0.659839107270966,-0.188143100506171
-0.65987260509199,-0.184928471406769
-0.659869635763245,-0.18169439843048
-0.659830138135968,-0.178441116811581
-0.659754051061395,-0.175168861784351
-0.659641313390763,-0.171877868583068
-0.659491863975307,-0.16856837244201
-0.659305641666265,-0.165240608595455
-0.659082585314871,-0.161894812277682
-0.658822633772363,-0.158531218722969
-0.658525725889976,-0.155150063165593
-0.658191800518947,-0.151751580839834
-0.657820796510512,-0.148336006979969
-0.657412652715907,-0.144903576820276
-0.656967307986368,-0.141454525595034
-0.656484701173133,-0.137989088538521
-0.655964771127435,-0.134507500885015
-0.655407456700513,-0.131009997868795
-0.654812696743603,-0.127496814724138
-0.654180430107939,-0.123968186685322
-0.65351059564476,-0.120424348986627
-0.6528031322053,-0.116865536862329
-0.652057978640796,-0.113291985546708
-0.651275073802485,-0.109703930274041
-0.650454356541602,-0.106101606278607
-0.649595765709384,-0.102485248794684
-0.648699240157067,-0.0988550930565502
-0.647764718735887,-0.0952113742984833
-0.64679214029708,-0.0915543277547622
-0.645781443691883,-0.0878841886596645
-0.644732567771532,-0.0842011922474689
-0.643645451387263,-0.0805055737524531
-0.642520033390312,-0.0767975684088958
-0.641356252631916,-0.0730774114510749
-0.640154047963311,-0.0693453381132687
-0.638913358235732,-0.0656015836297553
-0.637634122300416,-0.061846383234813
-0.6363162790086,-0.0580799721627199
-0.634959767211519,-0.0543025856477544
-0.63356452576041,-0.0505144589241944
-0.63213049350651,-0.0467158272263185
-0.630657609301053,-0.0429069257884044
-0.629145811995276,-0.0390879898447307
-0.627595040440417,-0.0352592546295754
-0.62600523348771,-0.0314209553772168
-0.624376329988392,-0.027573327321933
-0.6227082687937,-0.0237166056980023
-0.621000988754869,-0.0198510257397028
-0.619254428723135,-0.0159768226813128
-0.617468527549736,-0.0120942317571104
-0.615643224085907,-0.00820348820137388
-0.613778457182883,-0.0043048272483813
-0.611874165691903,-0.000398484132411114
-0.609930288464202,0.00351530591225879
-0.607946764351015,0.00743630765134988
-0.60592353220358,0.0113642858505843
-0.603860530873132,0.0152990052756836
-0.601757699210908,0.0192402306923697
-0.599614976068143,0.0231877268663643
-0.597432300296075,0.0271412585633894
-0.595209610745939,0.0311005905491665
-0.592946846268971,0.0350654875894178
-0.590643945716409,0.0390357144498646
-0.588300847939487,0.0430110358962293
-0.585917491789442,0.0469912166942331
-0.583493816117511,0.0509760216095983
-0.581029759774929,0.0549652154080462
-0.578525261612933,0.0589585628552992
-0.575980260482759,0.0629558287170785
-0.573394695235643,0.0669567777591064
-0.570768504722822,0.0709611747471043
-0.568101627795531,0.0749687844467944
-0.565394003305008,0.0789793716238981
-0.562645570102487,0.0829927010441376
-0.559856267039206,0.0870085374732343
-0.5570260329664,0.0910266456769104
-0.554154806735306,0.0950467904208872
-0.551242527197159,0.0990687364708871
-0.548289133203197,0.103092248592631
-0.545294563604656,0.107117091551842
-0.542258757252771,0.111143030114241
-0.539181652998779,0.11516982904555
-0.536063189693915,0.119197253111491
-0.532903306189418,0.123225067077785
-0.529701941336521,0.127253035710155
-0.526459033986462,0.131280923774322
-0.523174522990477,0.135308496036008
-0.519848347199803,0.139335517260935
-0.516480445465674,0.143361752214825
-0.513070756639328,0.147386965663399
-0.509619219572001,0.151410922372379
-0.506125773114929,0.155433387107487
-0.502590356119348,0.159454124634445
-0.499012907436494,0.163472899718974
-0.495393365917604,0.167489477126797
-0.491731670413914,0.171503621623636
-0.48802775977666,0.175515097975211
-0.484281572857078,0.179523670947245
-0.480493048506404,0.18352910530546
-0.476662125575875,0.187531165815577
-0.472788742916728,0.191529617243318
-0.468872839380197,0.195524224354406
-0.46491435381752,0.199514751914561
-0.460913225079932,0.203500964689506
-0.45686939201867,0.207482627444962
-0.45278279348497,0.211459504946652
-0.448653368330068,0.215431361960297
-0.4444810554052,0.219397963251618
-0.440265793561603,0.223359073586338
-0.436007521650513,0.227314457730179
-0.431706178523167,0.231263880448862
-0.427361703030799,0.235207106508109
-0.422974034024647,0.239143900673641
-0.418543110355946,0.243074027711182
-0.414068870875933,0.246997252386452
-0.409551254435845,0.250913339465173
-0.404990199886917,0.254822053713067
-0.400385646080385,0.258723159895856
-0.395737531867487,0.262616422779262
-0.391045796099457,0.266501607129006
-0.386310377627532,0.27037847771081
-0.381531215302949,0.274246799290397
-0.376708247976944,0.278106336633487
-0.371841414500752,0.281956854505804
-0.366930653725611,0.285798117673067
-0.361975904502755,0.289629890901
-0.356977105683423,0.293451938955324
-0.351934196118849,0.297264026601761
-0.34684711466027,0.301065918606032
-0.341715800158922,0.30485737973386
-0.336540191466041,0.308638174750966
-0.331320227432864,0.312408068423073
-0.326055846910627,0.316166825515901
-0.320746988750566,0.319914210795173
-0.315393591803917,0.32364998902661
-0.309995594921916,0.327373924975935
-0.3045529369558,0.331085783408869
-0.299065556756805,0.334785329091133
-0.293533393176167,0.338472326788451
-0.287956385065123,0.342146541266543
-0.282334471274908,0.345807737291131
-0.276667590656758,0.349455679627937
-0.270955682061911,0.353090133042683
-0.265198684341601,0.356710862301091
-0.259396536347067,0.360317632168883
-0.253549176929542,0.363910207411779
-0.247656544940265,0.367488352795503
-0.24171857923047,0.371051833085776
-0.235735218651395,0.374600413048319
-0.229706402054276,0.378133857448855
-0.223632068290348,0.381651931053106
-0.217512156210847,0.385154398626792
-0.211346604667011,0.388641024935636
-0.205135352510075,0.39211157474536
-0.198878338591276,0.395565812821686
-0.19257550176185,0.399003503930335
-0.186226780873032,0.402424412837029
-0.17983211477606,0.40582830430749
-0.173391442322169,0.409214943107439
-0.166904702362595,0.4125840940026
-0.160371833748576,0.415935521758692
-0.153792775331346,0.419268991141439
-0.147167465962143,0.422584266916561
-0.140495844492203,0.425881113849782
-0.133777849772761,0.429159296706821
-0.127013420655053,0.432418580253403
-0.120202495990317,0.435658729255247
-0.113345014629789,0.438879508478076
-0.106440915424703,0.442080682687612
-0.0994901372262979,0.445262016649577
-0.0924926188858087,0.448423275129692
-0.0854482992544713,0.451564222893679
-0.0783571171835226,0.45468462470726
-0.0712190115241983,0.457784245336157
-0.064033921127735,0.460862849546091
-0.0568017848453686,0.463920202102785
-0.0495225415283357,0.46695606777196
-0.042196130027872,0.469970211319338
-0.0348224891952143,0.47296239751064
-0.0274015578815982,0.475932391111589
-0.0199332749382605,0.478879956887907
-0.012417579216437,0.481804859605315
-0.00485440956736422,0.484706864029534
0.00275629515772209,0.487585734926288
0.010414596107585,0.490441237061296
0.0181205544309891,0.493273135200283
0.0258742312766974,0.496081194108968
0.0336756877934744,0.498865178553075
0.0415249851300833,0.501624853298324
0.0494221844352884,0.504359983110438
0.0573673468578528,0.507070332755138
0.0653605335465412,0.509755666998147
0.0734018056501164,0.512415750605185
0.0814912243173431,0.515050348341975
0.0896288506969842,0.517659224974239
0.0978147459378045,0.520242145267698
0.106048971188567,0.522798873988075
0.114331587598035,0.52532917590109
0.122662656314974,0.527832815772466
0.131042238488146,0.530309558367925
0.139470395266316,0.532759168453188
0.147947187798248,0.535181410793977
0.156472677232704,0.537576050156015
0.16504692471845,0.539942851305022
0.173669991404247,0.54228157900672
0.182341938438862,0.544591998026833
0.191062826971057,0.54687387313108
0.199832718149596,0.549126969085184
0.208651673123242,0.551351050654867
0.217519753040761,0.553545882605851
0.226437019050914,0.555711229703857
0.235403532302467,0.557846856714608
0.244419353944183,0.559952528403824
0.253484545124826,0.562028009537229
0.262599166993159,0.564073064880542
0.271763280697947,0.566087459199488
0.280976947387952,0.568070957259786
0.29024022821194,0.57002332382716
0.299553184318673,0.57194432366733
0.308915876856916,0.573833721546019
