-0.828655468604669,-0.846966263270222
-0.819598077615828,-0.843262835038731
-0.810631821750675,-0.839548695081436
-0.801756248816214,-0.835823994013651
-0.792970906619451,-0.832088882450692
-0.784275342967391,-0.828343511007873
-0.775669105667039,-0.824588030300507
-0.7671517425254,-0.820822590943911
-0.75872280134948,-0.8170473435534
-0.750381829946284,-0.813262438744288
-0.742128376122817,-0.809468027131889
-0.733961987686085,-0.805664259331519
-0.725882212443093,-0.801851285958492
-0.717888598200846,-0.798029257628123
-0.709980692766349,-0.794198324955728
-0.702158043946609,-0.790358638556619
-0.694420199548629,-0.786510349046114
-0.686766707379416,-0.782653607039525
-0.679197115245974,-0.778788563152169
-0.671710970955309,-0.774915367999359
-0.664307822314427,-0.771034172196412
-0.656987217130332,-0.76714512635864
-0.649748703210029,-0.76324838110136
-0.642591828360525,-0.759344087039886
-0.635516140388825,-0.755432394789532
-0.628521187101933,-0.751513454965614
-0.621606516306854,-0.747587418183447
-0.614771675810595,-0.743654435058344
-0.608016213420161,-0.739714656205621
-0.601339676942556,-0.735768232240594
-0.594741614184787,-0.731815313778575
-0.588221572953858,-0.727856051434881
-0.581779101056774,-0.723890595824826
-0.575413746300542,-0.719919097563725
-0.569125056492166,-0.715941707266892
-0.562912579438651,-0.711958575549642
-0.556775862947003,-0.707969853027291
-0.550714454824228,-0.703975690315153
-0.54472790287733,-0.699976238028543
-0.538815754913314,-0.695971646782775
-0.532977558739187,-0.691962067193165
-0.527212862161953,-0.687947649875026
-0.521521212988617,-0.683928545443674
-0.515902159026185,-0.679904904514425
-0.510355248081663,-0.675876877702591
-0.504880027962055,-0.671844615623489
-0.499476046474366,-0.667808268892433
-0.494142851425603,-0.663767988124738
-0.48887999062277,-0.659723923935718
-0.483687011872873,-0.655676226940689
-0.478563462982916,-0.651625047754965
-0.473508891759905,-0.647570536993861
-0.468522846010847,-0.643512845272691
-0.463604873542745,-0.639452123206772
-0.458754522162604,-0.635388521411416
-0.453971339677432,-0.63132219050194
-0.449254873894232,-0.627253281093657
-0.44460467262001,-0.623181943801884
-0.440020283661771,-0.619108329241933
-0.43550125482652,-0.615032588029121
-0.431047133921264,-0.610954870778762
-0.426657468753006,-0.606875328106171
-0.422331807128753,-0.602794110626662
-0.418069696855509,-0.59871136895555
-0.413870685740281,-0.594627253708151
-0.409734321590072,-0.59054191549978
-0.405660152211889,-0.586455504945749
-0.401647725412737,-0.582368172661375
-0.397696588999621,-0.578280069261973
-0.393806290779547,-0.574191345362856
-0.389976378559519,-0.570102151579341
-0.386206400146543,-0.56601263852674
-0.382495903347625,-0.561922956820371
-0.378844435969769,-0.557833257075547
-0.37525154581998,-0.553743689907583
-0.371716780705265,-0.549654405931793
-0.368239688432628,-0.545565555763494
-0.364819816809076,-0.541477290017998
-0.361456713641612,-0.537389759310622
-0.358149926737242,-0.533303114256679
-0.354899003902972,-0.529217505471486
-0.351703492945807,-0.525133083570356
-0.348562941672751,-0.521049999168604
-0.345476897890812,-0.516968402881546
-0.342444909406993,-0.512888445324495
-0.3394665240283,-0.508810277112767
-0.336541289561739,-0.504734048861676
-0.333668753814314,-0.500659911186538
-0.33084846459303,-0.496588014702666
-0.328079969704895,-0.492518510025377
-0.325362816956911,-0.488451547769984
-0.322696554156085,-0.484387278551802
-0.320080729109423,-0.480325852986147
-0.317514889623929,-0.476267421688332
-0.314998583506608,-0.472212135273674
-0.312531358564466,-0.468160144357485
-0.310112762604509,-0.464111599555082
-0.307742343433741,-0.46006665148178
-0.305419648859168,-0.456025450752891
-0.303144226687794,-0.451988147983733
-0.300915624726626,-0.447954893789619
-0.298733390782669,-0.443925838785865
-0.296597072662928,-0.439901133587784
-0.294506218174408,-0.435880928810692
-0.292460375124115,-0.431865375069904
-0.290459091319053,-0.427854622980734
-0.288501914566229,-0.423848823158497
-0.286588392672646,-0.419848126218508
-0.284718073445312,-0.415852682776082
-0.28289050469123,-0.411862643446534
-0.281105234217407,-0.407878158845177
-0.279361809830847,-0.403899379587328
-0.277659779338557,-0.399926456288301
-0.27599869054754,-0.39595953956341
-0.274378091264802,-0.391998780027971
-0.27279752929735,-0.388044328297298
-0.271256552452187,-0.384096334986706
-0.26975470853632,-0.38015495071151
-0.268291545356753,-0.376220326087024
-0.266866610720492,-0.372292611728563
-0.265479452434542,-0.368371958251444
-0.264129618305909,-0.364458516270978
-0.262816656141597,-0.360552436402483
-0.261540113748613,-0.356653869261272
-0.260299538933961,-0.35276296546266
-0.259094479504646,-0.348879875621962
-0.257924483267674,-0.345004750354494
-0.25678909803005,-0.341137740275568
-0.25568787159878,-0.337278996000502
-0.254620351780869,-0.333428668144608
-0.253586086383322,-0.329586907323203
-0.252584623213144,-0.3257538641516
-0.25161551007734,-0.321929689245115
-0.250678294782917,-0.318114533219062
-0.249772525136878,-0.314308546688757
-0.248897748946231,-0.310511880269513
-0.248053514017979,-0.306724684576646
-0.247239368159128,-0.30294711022547
-0.246454859176683,-0.299179307831301
-0.24569953487765,-0.295421428009453
-0.244972943069034,-0.291673621375241
-0.24427463155784,-0.287936038543979
-0.243604148151074,-0.284208830130983
-0.242961040655741,-0.280492146751567
-0.242344856878845,-0.276786139021046
-0.241755144627394,-0.273090957554735
-0.24119145170839,-0.269406752967948
-0.240653325928841,-0.265733675876
-0.240140315095751,-0.262071876894207
-0.239651967016125,-0.258421506637883
-0.23918782949697,-0.254782715722342
-0.238747450345289,-0.2511556547629
-0.238330377368089,-0.247540474374872
-0.237936158372374,-0.243937325173571
-0.237564341165151,-0.240346357774313
-0.237214473553424,-0.236767722792413
-0.236886103344198,-0.233201570843185
-0.236578778344479,-0.229648052541944
-0.236292046361273,-0.226107318504006
-0.236025455201583,-0.222579519344684
-0.235778552672417,-0.219064805679293
-0.235550886580778,-0.215563328123149
-0.235342004733673,-0.212075237291566
-0.235151454938107,-0.208600683799859
-0.234978785001084,-0.205139818263343
-0.234823542729611,-0.201692791297333
-0.234685275930692,-0.198259753517142
-0.234563532411332,-0.194840855538086
-0.234457859978538,-0.191436247975481
-0.234367806439314,-0.18804608144464
-0.234292919600666,-0.184670506560878
-0.234232747269598,-0.181309673939511
-0.234186837253117,-0.177963734195853
-0.234154737358227,-0.174632837945218
-0.234135995391934,-0.171317135802922
-0.234130159161244,-0.168016778384279
-0.23413677647316,-0.164731916304605
-0.234155395134689,-0.161462700179213
-0.234185562952836,-0.158209280623419
-0.234226827734606,-0.154971808252537
-0.234278737287005,-0.151750433681883
-0.234340839417038,-0.148545307526771
-0.23441268193171,-0.145356580402516
-0.234493812638026,-0.142184402924432
-0.234583779342991,-0.139028925707834
-0.234682129853612,-0.135890299368038
-0.234788411976893,-0.132768674520358
-0.234902173519839,-0.129664201780109
-0.235022962289457,-0.126577031762605
-0.23515032609275,-0.123507315083161
-0.235283812736725,-0.120455202357093
-0.235422970028386,-0.117420844199714
-0.23556734577474,-0.11440439122634
-0.235716487782791,-0.111405994052286
-0.235869943859544,-0.108425803292866
-0.236027261812005,-0.105463969563395
-0.23618798944718,-0.102520643479188
-0.236351674572072,-0.0995959756555589
-0.236517864993689,-0.0966901167078236
-0.236686108519034,-0.0938032172512965
-0.236855952955114,-0.0909354279012925
-0.237026946108934,-0.088086899273126
-0.237198635787498,-0.0852577819821123
-0.237370569797812,-0.0824482266435658
-0.237542295946882,-0.0796583838728015
-0.237713362041713,-0.0768884042851339
-0.237883315889309,-0.0741384384958783
-0.238051705296677,-0.0714086371203488
-0.238218078070822,-0.0686991507738608
-0.238381982018748,-0.0660101300717287
-0.238542964947462,-0.0633417256292676
-0.238700574663968,-0.0606940880617919
-0.238854358975272,-0.0580673679846168
-0.239003865688379,-0.0554617160130567
-0.239148642610295,-0.0528772827624266
-0.239288237548024,-0.0503142188480412
-0.239422198308572,-0.0477726748852155
-0.239550072698944,-0.045252801489264
-0.239671408526145,-0.0427547492755016
-0.239785753597182,-0.0402786688592431
-0.239892655719058,-0.0378247108558033
-0.23999166269878,-0.0353930258804969
-0.240082322343353,-0.0329837645486389
-0.240164182459781,-0.0305970774755437
-0.240236790855071,-0.0282331152765265
-0.240299695336227,-0.0258920285669018
-0.240352443710256,-0.0235739679619846
-0.240394583784161,-0.0212790840770894
-0.240425663364948,-0.0190075275275313
-0.240445230259624,-0.0167594489286249
-0.240452832275192,-0.014534998895685
-0.240448017218659,-0.0123343280440264
-0.240430332897029,-0.010157586988964
-0.240399327117308,-0.00800492634581235
-0.240354547686501,-0.00587649672988648
-0.240295542411613,-0.00377244875650094
-0.240221859099651,-0.00169293304097078
-0.240133045557618,0.000361899801389495
-0.240028649592521,0.00239189915526487
-0.239908219011364,0.00439691440534073
-0.239771301621153,0.0063767949363021
-0.239617445228893,0.00833139013283441
-0.23944619764159,0.0102605493796227
-0.239257106666248,0.0121641220613523
-0.239049720109873,0.0140419575627083
-0.238823585779471,0.0158939052683761
-0.238578251482046,0.0177198145630407
-0.238313265024605,0.0195195348313876
-0.238028174214151,0.0212929154581017
-0.237722526857691,0.0230398058278684
-0.23739587076223,0.0247600553253728
-0.237047753734772,0.0264535133353003
-0.236677723582324,0.0281200292423358
-0.236285328111891,0.0297594524311649
-0.235870115130478,0.0313716322864726
-0.23543163244509,0.0329564181929441
-0.234969427862732,0.0345136595352646
-0.23448304919041,0.0360432056981195
-0.233972044235129,0.0375449060661938
-0.233435960803895,0.0390186100241729
-0.232874346703712,0.0404641669567418
-0.232286749741586,0.0418814262485859
-0.231672717724523,0.0432702372843903
-0.231031798459527,0.0446304494488403
-0.230363539753603,0.045961912126621
-0.229667489413758,0.0472644747024178
-0.228943195246997,0.0485379865609157
-0.228190205060324,0.0497822970868001
-0.227408066660745,0.050997255664756
-0.226596327855265,0.0521827116794689
-0.225754536450889,0.0533385145156238
-0.224882240254624,0.054464513557906
-0.223978987073474,0.0555605581910006
-0.223044324714444,0.0566264977995931
-0.22207780098454,0.0576621817683683
-0.221078963690767,0.0586674594820118
-0.22004736064013,0.0596421803252086
-0.218982539639635,0.060586193682644
-0.217884048496286,0.0614993489390031
-0.21675143501709,0.0623814954789712
-0.215584247009051,0.0632324826872335
-0.214382032279175,0.0640521599484754
-0.213144338634467,0.0648403766473818
-0.211870713881932,0.065596982168638
-0.210560705828576,0.0663218258969293
-0.209213862281404,0.067014757216941
-0.207829731047421,0.0676756255133581
-0.206407859933633,0.0683042801708659
-0.204947796747044,0.0689005705741497
-0.20344908929466,0.0694643461078946
-0.201911285383487,0.0699954561567858
-0.200333932820529,0.0704937501055087
-0.198716579412792,0.0709590773387483
-0.197058772967281,0.0713912872411899
-0.195360061291002,0.0717902291975187
-0.19361999219096,0.07215575259242
-0.19183811347416,0.0724877068105789
-0.190013972947607,0.0727859412366807
-0.188147118418306,0.0730503052554106
-0.186237097693264,0.0732806482514537
-0.184283458579485,0.0734768196094953
-0.182285748883974,0.0736386687142207
-0.180243516413738,0.073766044950315
-0.17815630897578,0.0738587977024635
-0.176023674377107,0.0739167763553513
-0.173845160424723,0.0739398302936637
-0.171620314925635,0.0739278089020859
-0.169348685686846,0.0738805615653031
-0.167029820515364,0.0737979376680005
-0.164663267218192,0.0736797865948633
-0.162248573602336,0.0735259577305769
-0.159785287474801,0.0733363004598262
-0.157272956642594,0.0731106641672967
-0.154711128912718,0.0728488982376734
-0.15209935209218,0.0725508520556417
-0.149437173987984,0.0722163750058867
-0.146724142407136,0.0718453164730936
-0.143959805156641,0.0714375258419477
-0.141143710043505,0.0709928524971341
-0.138275404874732,0.0705111458233382
-0.135354437457328,0.069992255205245
-0.132380355598299,0.0694360300275399
-0.129352707104649,0.068842319674908
-0.126271039783384,0.0682109735320345
-0.12313490144151,0.0675418409836047
-0.119943839886031,0.0668347714143038
-0.116697402923952,0.0660896142088169
-0.11339513836228,0.0653062187518294
-0.110036594008019,0.0644844344280264
-0.106621317668174,0.063624110622093
-0.103148857149752,0.0627250967187147
-0.0996187602597565,0.0617872421025765
-0.0960305748051938,0.0608103961583637
-0.0923838485930687,0.0597944082707614
-0.0886781294303869,0.0587391278244551
-0.0849129651241532,0.0576444042041296
-0.0810879034813734,0.0565100867944705
-0.0772024923090523,0.0553360249801628
-0.0732562794141956,0.0541220681458918
-0.0692488126038083,0.0528680656763426
-0.0651796396848959,0.0515738669562005
-0.0610483084644635,0.0502393213701507
-0.0568543667495166,0.0488642783028785
-0.0525973623470603,0.047448587139069
-0.0482768430641001,0.0459920972634075
-0.0438923567076409,0.0444946580605791
-0.0394434510846885,0.0429561189152691
-0.0349296740022477,0.0413763292121627
-0.0303505732673243,0.0397551383359452
-0.025705696686923,0.0380923956713016
-0.0209945920680498,0.0363879506029173
-0.0162168072177092,0.0346416525154774
-0.0113718899429071,0.0328533507936673
-0.00645938805064837,0.0310228948221719
-0.00147884934793878,0.0291501339856768
0.00357017835821689,0.0272349176688668
0.00868814726081296,0.0252770952564275
0.0138755095528445,0.0232765161330439
0.0191327174273058,0.0212330296834013
0.024460223077192,0.0191464852921847
0.0298584786954974,0.0170167323440797
0.0353279364752171,0.0148436202237712
0.0408690486093454,0.0126269983159446
0.0464822672908775,0.0103667160052849
0.0521680447128076,0.00806262267647756
0.057926833068131,0.0057145677142076
0.0637590845498416,0.0033224005031604
0.069665251350935,0.000885970428020997
0.0756457856644052,-0.00159487312652518
0.0817011396832475,-0.00412028077579316
0.0878317656004559,-0.00669040313509748
0.0940381156090259,-0.00930539081975319
0.100320641901952,-0.0119653944450748
0.106679796672228,-0.0146705646263773
0.11311603211285,-0.0174210519789753
0.119629800416812,-0.0202170071181839
0.126221553777108,-0.0230585806593175
0.132891744386735,-0.0259459232176912
0.139640824438685,-0.0288791854086195
0.146469246125954,-0.0318585178474174
0.153377461641537,-0.0348840711493996
0.160365923178428,-0.0379559959298809
0.167435082929622,-0.041074442804176
0.174585393088114,-0.0442395623876
0.181817305846898,-0.0474515052954672
0.18913127339897,-0.0507104221430929
0.196527747937323,-0.0540164635457914
0.204007181654954,-0.0573697801188779
0.211570026744855,-0.0607705224776668
0.219216735400022,-0.0642188412374733
0.22694775981345,-0.0677148870136118
0.234763552178134,-0.0712588104213973
0.242664564687067,-0.0748507620761445
0.250651249533246,-0.0784908925931683
0.258724058909664,-0.0821793525877833
0.266883445009317,-0.0859162926753046
0.275129860025198,-0.0897018634710466
0.283463756150303,-0.0935362155903244
0.291885585577626,-0.0974194996484525
0.300395800500163,-0.101351866260746
