-0.413168577798868,0.320605014617116
-0.411502505733679,0.314726593942824
-0.409804917244428,0.30891351125378
-0.408076124942212,0.30316539517511
-0.406316441438129,0.297481874331939
-0.404526179343276,0.291862577349389
-0.40270565126875,0.286307132852587
-0.400855169825648,0.280815169466655
-0.398975047625068,0.27538631581672
-0.397065597278107,0.270020200527904
-0.395127131395861,0.264716452225333
-0.393159962589428,0.259474699534131
-0.391164403469906,0.254294571079422
-0.389140766648391,0.249175695486331
-0.387089364735981,0.244117701379982
-0.385010510343773,0.2391202173855
-0.382904516082864,0.234182872128009
-0.380771694564352,0.229305294232633
-0.378612358399332,0.224487112324496
-0.376426820198904,0.219727955028724
-0.374215392574163,0.215027450970441
-0.371978388136208,0.210385228774771
-0.369716119496135,0.205800917066838
-0.367428899265041,0.201274144471767
-0.365117040054025,0.196804539614682
-0.362780854474182,0.192391731120708
-0.36042065513661,0.188035347614969
-0.358036754652407,0.18373501772259
-0.355629465632669,0.179490370068694
-0.353199100688494,0.175301033278407
-0.350745972430979,0.171166635976853
-0.348270393471222,0.167086806789156
-0.345772676420318,0.16306117434044
-0.343253133889367,0.15908936725583
-0.340712078489464,0.155171014160451
-0.338149822831707,0.151305743679427
-0.335566679527193,0.147493184437881
-0.33296296118702,0.14373296506094
-0.330338980422284,0.140024714173726
-0.327695049844083,0.136368060401366
-0.325031482063514,0.132762632368981
-0.322348589691675,0.129208058701699
-0.319646685339661,0.125703968024642
-0.316926081618572,0.122249988962935
-0.314187091139503,0.118845750141702
-0.311430026513553,0.115490880186069
-0.308655200351817,0.112185007721159
-0.305862925265394,0.108927761372096
-0.303053513865381,0.105718769764006
-0.300227278762875,0.102557661522013
-0.297384532568973,0.0994440652712401
-0.294525587894771,0.096377609636813
-0.291650757351369,0.0933579232438558
-0.288760353549862,0.0903846347174928
-0.285854689101348,0.0874573726828485
-0.282934076616924,0.0845757657650474
-0.279998828707688,0.0817394425892137
-0.277049257984736,0.0789480317804718
-0.274085677059166,0.0762011619639463
-0.271108398542074,0.0734984617647616
-0.268117735044559,0.070839559808042
-0.265113999177717,0.068224084718912
-0.262097503552646,0.0656516651224959
-0.259068560780442,0.0631219296439182
-0.256027483472203,0.0606345069083034
-0.252974584239027,0.0581890255407757
-0.249910175692009,0.0557851141664597
-0.246834570442249,0.0534224014104796
-0.243748081100842,0.0511005158979601
-0.240651020278886,0.0488190862540255
-0.237543700587478,0.0465777411038001
-0.234426434637716,0.0443761090724084
-0.231299535040696,0.0422138187849748
-0.228163314407516,0.0400904988666238
-0.225018085349273,0.0380057779424796
-0.221864160477064,0.0359592846376668
-0.218701852401987,0.0339506475773098
-0.215531473735138,0.031979495386533
-0.212353337087615,0.0300454566904607
-0.209167755070515,0.0281481601142174
-0.205975040294935,0.0262872342829276
-0.202775505371973,0.0244623078217156
-0.199569462912725,0.0226730093557057
-0.196357225528289,0.0209189675100226
-0.193139105829762,0.0191998109097905
-0.189915416428242,0.0175151681801339
-0.186686469934825,0.0158646679461772
-0.183452578960608,0.0142479388330448
-0.18021405611669,0.0126646094658611
-0.176971214014166,0.0111143084697505
-0.173724365264135,0.00959666446983749
-0.170473822477693,0.00811130609124641
-0.167219898265938,0.00665786195910171
-0.163962905239966,0.00523596069852782
-0.160703156010876,0.00384523093464907
-0.157440963189764,0.00248530129258994
-0.154176639387728,0.00115580039747486
-0.150910497215864,-0.000143643125571788
-0.14764284928527,-0.00141340065142564
-0.144374008207043,-0.00265384355496217
-0.141104286592281,-0.00386534321105705
-0.13783399705208,-0.00504827099458585
-0.134563452197538,-0.00620299828042413
-0.131292964639752,-0.00732989644344754
-0.128022846989819,-0.0084293368585316
-0.124753411858836,-0.00950169090055191
-0.121484971857901,-0.0105473299443841
-0.11821783959811,-0.0115666253649037
-0.114952327690562,-0.0125599485369863
-0.111688748746352,-0.0135276708355075
-0.108427415376579,-0.0144701636353429
-0.10516864019234,-0.0153877983113682
-0.101912735804731,-0.0162809462384588
-0.0986600148248506,-0.0171499787914903
-0.0954107898637951,-0.0179952673453384
-0.0921653735326619,-0.0188171832748786
-0.0889240784425484,-0.0196160979549865
-0.0856872172045517,-0.0203923827605377
-0.0824551024297689,-0.0211464090664078
-0.0792280467292974,-0.0218785482474725
-0.0760063627142343,-0.0225891716786071
-0.0727903629956768,-0.0232786507346874
-0.0695803601847221,-0.023947356790589
-0.0663766668924674,-0.0245956612211874
-0.06317959573001,-0.0252239354013582
-0.059989459308447,-0.025832550705977
-0.0568065702388756,-0.0264218785099193
-0.053631241132393,-0.0269922901880609
-0.0504637846000966,-0.0275441571152772
-0.0473045132530834,-0.0280778506664439
-0.0441537397024506,-0.0285937422164365
-0.0410117765592954,-0.0290922031401306
-0.0378789364347152,-0.0295736048124018
-0.0347555319398071,-0.0300383186081257
-0.0316418756856681,-0.0304867159021779
-0.0285382802833957,-0.0309191680694339
-0.0254450583440869,-0.0313360464847695
-0.0223625224788392,-0.03173772252306
-0.0192909852987494,-0.0321245675591812
-0.0162307594149148,-0.0324969529680086
-0.0131821574384329,-0.0328552501244179
-0.0101454919804007,-0.0331998304032845
-0.00712107565191536,-0.033531065179484
-0.0041092210640741,-0.0338493258278922
-0.00111024082797426,-0.0341549837233845
0.0018755524452871,-0.0344484102408365
0.00484784614461278,-0.0347299767551238
0.00780632765890549,-0.0350000546411221
0.010750684377068,-0.0352590152737068
0.0136806036880032,-0.0355072300277537
0.0165957729806139,-0.0357450702781382
0.0194958796438028,-0.035972907399736
0.0223806110664728,-0.0361911127674226
0.0252496546375265,-0.0364000577560737
0.0281026977458669,-0.0366001137405647
0.0309394277803968,-0.0367916520957714
0.0337595321300188,-0.0369750441965693
0.0365626981836359,-0.0371506614178339
0.0393486133301508,-0.0373188751344409
0.0421169649584663,-0.0374800567212659
0.0448674404574852,-0.0376345775531845
0.0475997272161102,-0.0377828090050721
0.0503135126232443,-0.0379251224518045
0.0530084840677902,-0.0380618892682571
0.0556843289386507,-0.0381934808293057
0.0583407346247285,-0.0383202685098257
0.0609773885149265,-0.0384426236846928
0.0635939779981474,-0.0385609177287825
0.0661901904632942,-0.0386755220169705
0.0687657132992695,-0.0387868079241323
0.0713202338949761,-0.0388951468251435
0.0738534396393169,-0.0390009100948797
0.0763650179211947,-0.0391044691082165
0.0788546561295121,-0.0392061952400294
0.0813220416531722,-0.0393064598651941
0.0837668618810775,-0.0394056343585862
0.086188804202131,-0.0395040900950812
0.0885875560052354,-0.0396021984495547
0.0909628046792935,-0.0397003307968823
0.0933142376132081,-0.0397988585119396
0.0956415421958821,-0.0398981529696022
0.0979444058162181,-0.0399985855447457
0.100222515863119,-0.0401005276122455
0.102475559725488,-0.0402043505469775
0.104703224792227,-0.0403104257238171
0.106905198452239,-0.0404191245176398
0.109081168094428,-0.0405308183033214
0.111230821107695,-0.0406458784557374
0.113353844880944,-0.0407646763497633
0.115449926803077,-0.0408875833602748
0.117518754262998,-0.0410149708621475
0.119560014649609,-0.0411472102302568
0.121573395351813,-0.0412846728394786
0.123558583758512,-0.0414277300646882
0.12551526725861,-0.0415767532807613
0.127443133241009,-0.0417321138625735
0.129341869094612,-0.0418941831850003
0.131211162208322,-0.0420633326229175
0.133050699971041,-0.0422399335512004
0.134860169771673,-0.0424243573447248
0.13663925899912,-0.0426169753783662
0.138387655042285,-0.0428181590270003
0.140105045290071,-0.0430282796655025
0.14179111713138,-0.0432477086687484
0.143445557955116,-0.0434768174116138
0.145068055150181,-0.0437159772689741
0.146658296105478,-0.0439655596157049
0.14821596820991,-0.0442259358266819
0.14974075885238,-0.0444974772767806
0.151232355421789,-0.0447805553408766
0.152690445307042,-0.0450755413938454
0.154114715897041,-0.0453828068105628
0.155504854580689,-0.0457027229659041
0.156860548746888,-0.0460356612347452
0.158181485784542,-0.0463819929919615
0.159467353082552,-0.0467420896124286
0.160717838029823,-0.047116322471022
0.161932628015256,-0.0475050629426176
0.163111410427755,-0.0479086824020906
0.164253872656222,-0.0483275522243169
0.165359702089561,-0.0487620437841718
0.166428586116673,-0.0492125284565312
0.167460212126462,-0.0496793776162704
0.16845426750783,-0.0501629626382653
0.169410439649681,-0.0506636548973911
0.170328415940917,-0.0511818257685237
0.171207883770441,-0.0517178466265386
0.172048530527155,-0.0522720888463113
0.172850043599963,-0.0528449238027175
0.173612110377767,-0.0534367228706327
0.17433441824947,-0.0540478574249325
0.175016654603975,-0.0546786988404926
0.175658506830185,-0.0553296184921884
0.176259662317002,-0.0560009877548956
0.17681980845333,-0.0566931780034898
0.17733863262807,-0.0574065606128466
0.177815822230127,-0.0581415069578415
0.178251064648402,-0.0588983884133501
0.178644047271798,-0.059677576354248
0.178994457489219,-0.0604794421554109
0.179301982689566,-0.0613043571917142
0.179566310261744,-0.0621526928380337
0.179787127594654,-0.0630248204692448
0.1799641220772,-0.0639211114602232
0.180096981098283,-0.0648419371858443
0.180185392046808,-0.065787669020984
0.180229042311677,-0.0667586783405176
0.180227619281792,-0.0677553365193208
0.180180810346056,-0.0687780149322692
0.180088302893373,-0.0698270849542385
0.179949784312644,-0.070902917960104
0.179764941992774,-0.0720058853247416
0.179533463322664,-0.0731363584230266
0.179255035691217,-0.0742947086298348
0.178929346487337,-0.0754813073200416
0.178556083099925,-0.0766965258685228
0.178134932917885,-0.0779407356501538
0.17766558333012,-0.0792143080398104
0.177147721725532,-0.080517614412368
0.176581035493024,-0.0818510261427022
0.1759652120215,-0.0832149146056887
0.17529993869986,-0.084609651176203
0.17458490291701,-0.0860356072291206
0.17381979206185,-0.0874931541393173
0.173004293523285,-0.0889826632816685
0.172138094690217,-0.09050450603105
0.171220882951548,-0.0920590537623372
0.170252345696182,-0.0936466778504057
0.169232170313021,-0.0952677496701311
0.168160044190969,-0.0969226405963891
0.167035654718927,-0.0986117220040551
0.165858689285799,-0.100335365268005
0.164628835280487,-0.102093941763114
0.163345780091894,-0.103887822864258
0.162009211108924,-0.105717379946312
0.160618815720479,-0.107582984384152
0.159174281315461,-0.109485007552654
0.157675295282773,-0.111423820826694
0.156121545011319,-0.113399795581146
0.154512717890001,-0.115413303190886
0.152848501307722,-0.11746471503079
0.151128582653384,-0.119554402475734
0.149352649315891,-0.121682736900593
0.147520388684145,-0.123850089680243
0.145631488147049,-0.126056832189559
0.143685635093505,-0.128303335803417
0.141682516912418,-0.130589971896693
0.139621820992689,-0.132917111844261
0.137503234723221,-0.135285127020998
0.135326445492917,-0.13769438880178
0.133091140690679,-0.140145268561481
0.130797007705412,-0.142638137674978
0.128443733926017,-0.145173367517146
0.126031006741396,-0.14775132946286
0.123558513540454,-0.150372394886996
0.121025941712093,-0.153036935164431
0.118432978645215,-0.155745321670038
0.115779311728724,-0.158497925778695
0.113064628351521,-0.161295118865276
0.110288615902511,-0.164137272304657
0.107450961770595,-0.167024757471714
0.104551353344677,-0.169957945741323
0.101589478013659,-0.172937208488358
0.0985650231664447,-0.175962917087695
0.095477676191936,-0.179035442914211
0.0923271244790359,-0.18215515734278
0.0891130554166474,-0.185322431748279
0.0858351563936732,-0.188537637505582
0.0824931147990161,-0.191801145989566
0.0790866180215788,-0.195113328575106
0.0756153534502644,-0.198474556637077
0.0720790084739753,-0.201885201550356
0.0684772704816147,-0.205345634689817
0.0648098268620849,-0.208856227430337
0.0610763650042891,-0.21241735114679
0.05727657229713,-0.216029377214053
0.0534101361295104,-0.219692677007001
0.0494767438903328,-0.22340762190051
0.0454760829685005,-0.227174583269455
0.041407840752916,-0.230993932488712
0.0372717046324822,-0.234866040933156
0.0330673619961017,-0.238791279977664
0.0287945002326776,-0.24277002099711
0.0244528067311123,-0.24680263536637
0.020041968880309,-0.25088949446032
0.0155616740691702,-0.255030969653835
0.011011609686599,-0.259227432321792
0.0063914631214978,-0.263479253839065
0.00170092176276983,-0.26778680558053
-0.00306032700068254,-0.272150458921062
-0.00789259577995619,-0.276570585235538
-0.0127961971861486,-0.281047555898834
-0.0177714438303566,-0.285581742285823
-0.0228186483236778,-0.290173515771383
-0.0279381232772091,-0.294823247730388
-0.033130181302048,-0.299531309537714
-0.0383951350092913,-0.304298072568237
-0.0437332970100366,-0.309123908196833
-0.0491449799153808,-0.314009187798377
-0.0546304963364215,-0.318954282747744
-0.0601901588842554,-0.323959564419811
-0.0658242801699802,-0.329025404189452
-0.0715331728046925,-0.334152173431544
-0.0773171493994902,-0.339340243520962
-0.0831765225654699,-0.34458998583258
-0.0891116049137294,-0.349901771741277
-0.0951227090553653,-0.355275972621926
-0.101210147601475,-0.360712959849403
-0.107374233163156,-0.366213104798584
-0.113615278351506,-0.371776778844345
-0.11993359577762,-0.37740435336156
-0.126329498052598,-0.383096199725107
-0.132803297787535,-0.388852689309859
-0.13935530759353,-0.394674193490693
-0.145985840081678,-0.400561083642485
-0.152695207863079,-0.40651373114011
-0.159483723548828,-0.412532507358443
-0.166351699750023,-0.418617783672361
-0.173299449077761,-0.424769931456738
-0.18032728414314,-0.43098932208645
-0.187435517557255,-0.437276326936374
-0.194624461931206,-0.443631317381384
-0.201894429876089,-0.450054664796356
-0.209245734003001,-0.456546740556166
-0.216678686923039,-0.463107916035688
-0.224193601247301,-0.4697385626098
-0.231790789586883,-0.476439051653377
-0.239470564552884,-0.483209754541293
-0.2472332387564,-0.490051042648425
-0.255079124808528,-0.496963287349648
-0.263008535320366,-0.503946860019838
-0.27102178290301,-0.51100213203387
-0.279119180167559,-0.51812947476662
-0.287301039725109,-0.525329259592965
-0.295567674186757,-0.532601857887777
-0.303919396163601,-0.539947641025935
-0.312356518266737,-0.547366980382313
-0.320879353107264,-0.554860247331787
-0.329488213296277,-0.562427813249232
-0.338183411444876,-0.570070049509525
-0.346965260164156,-0.57778732748754
-0.355834072065215,-0.585580018558153
-0.364790159759149,-0.59344849409624
-0.373833835857058,-0.601393125476677
-0.382965412970036,-0.609414284074339
-0.392185203709182,-0.617512341264101
-0.401493520685593,-0.625687668420839
-0.410890676510367,-0.63394063691943
-0.420376983794599,-0.642271618134747
-0.429952755149388,-0.650680983441668
-0.43961830318583,-0.659169104215066
-0.449373940515024,-0.66773635182982
-0.459219979748065,-0.676383097660802
-0.469156733496053,-0.685109713082891
-0.479184514370082,-0.693916569470959
-0.489303634981251,-0.702804038199885
-0.499514407940657,-0.711772490644543
-0.509817145859397,-0.720822298179808
-0.520212161348569,-0.729953832180556
-0.530699767019269,-0.739167464021663
