-0.366602876735435,-0.727364007929236
-0.387875611773757,-0.751045058903748
-0.405219274985904,-0.647686683620465
-0.416290086566432,-0.679021013790693
-0.419607772737903,-0.667616873284804
-0.424584869490978,-0.687227266404956
-0.377647107964221,-0.633222956324069
-0.433929290399527,-0.586817668469584
-0.419249220890556,-0.668842446429806
-0.435133090983237,-0.612037099638691
-0.464672606065103,-0.634272730906173
-0.440852570707654,-0.590470768839324
-0.480127979598021,-0.56959993202165
-0.48770802216175,-0.520669206393347
-0.448913424561586,-0.558825212069898
-0.451463317479584,-0.54846294143803
-0.460916245022092,-0.537496426417119
-0.431048759177435,-0.483598523110891
-0.436564574302729,-0.555588177539376
-0.46098541395439,-0.507935307767203
-0.43637439831411,-0.49174829600927
-0.465344080807401,-0.488219219130918
-0.467423844821289,-0.478496821583843
-0.494096631995125,-0.487549242529009
-0.471385699643088,-0.459321483919381
-0.473268376698702,-0.449867809357014
-0.475085944349261,-0.440502974677903
-0.509651009900982,-0.397666171385473
-0.447248165685467,-0.412751242427851
-0.480150922109122,-0.41293783771521
-0.511047092763475,-0.365396663898857
-0.434150779116867,-0.411373252481264
-0.484640467682141,-0.38615903969219
-0.451982112807243,-0.336627363308889
-0.487317721833929,-0.368738466343465
-0.472854788539701,-0.324867186072469
-0.489745090824151,-0.351660032518133
-0.490865801193304,-0.343248199870515
-0.475945329122678,-0.333057330264751
-0.525047472675118,-0.307822816721537
-0.530943749405082,-0.280153206617876
-0.478720356208871,-0.281686220346529
-0.463000094693842,-0.323810567628283
-0.473929592688889,-0.256947697810812
-0.497002614985625,-0.286708936852363
-0.483674854714978,-0.321249906343537
-0.493975893516775,-0.29724478417773
-0.468176107299319,-0.229604109423931
-0.499193035858083,-0.256209843881958
-0.46921447516202,-0.19896817975112
-0.499936868460085,-0.241444128882661
-0.541756344801449,-0.23752201437731
-0.527017818823581,-0.266712440323463
-0.524733050671173,-0.177033709480245
-0.489756750125156,-0.226175356051279
-0.515024157731398,-0.233027639575591
-0.453805190908427,-0.155764519925364
-0.503629707755156,-0.188321346363491
-0.500624396425528,-0.185538263926751
-0.52777090693494,-0.189800252460127
-0.453941252983191,-0.16629739137317
-0.533932202028166,-0.137779538453938
-0.49962830881408,-0.159438399554707
-0.466053352303388,-0.169987800462975
-0.544478036718536,-0.152582263213512
-0.510933816361458,-0.0942283559533582
-0.531004528574983,-0.183466542208634
-0.476255739303586,-0.0808976582870527
-0.49651212519747,-0.122538838080868
-0.464279856666714,-0.133581404056892
-0.466714890985903,-0.123406057363666
-0.487663626815105,-0.142166762643842
-0.493380659546247,-0.0994050130554123
-0.529978924075314,-0.138392127731992
-0.446910224171775,-0.0463003280653467
-0.510630303192775,-0.108481416528161
-0.536591198323804,-0.0879648120149909
-0.488313542770344,-0.0720955371952343
-0.449664042747752,-0.0368857292041579
-0.509517226215101,-0.0543999196780582
-0.509318966966795,-0.0382241248118609
-0.49005176854417,-0.033297256732842
-0.464185477638783,-0.085491450391866
-0.501457769012562,0.00308217767184142
-0.479133374231323,-0.0367812499403361
-0.467854141789399,-0.0219685263460873
-0.486598321658444,-0.0159314894676474
-0.50845328394948,0.00579334265603115
-0.428029939881734,-0.000901763965722432
-0.517818613950655,-0.0442773476886883
-0.475220841451685,-0.0082674027849559
-0.438346004396977,0.0276206260645739
-0.436030303606436,0.000921540073437407
-0.441347522824055,0.0275148048005373
-0.483752476465899,-0.012414855089847
-0.460012392763237,0.0121109015207824
-0.425963668134152,-0.00709840538691272
-0.443700589382754,0.0126937194757315
-0.461570716181851,-0.0212976929339812
-0.451701067859951,0.0279701308450441
-0.477817577392032,-0.0121313139670905
-0.447283723472646,0.0355282841031443
-0.411542655121742,0.00269301869895694
-0.437394251093074,0.0203379736677332
-0.440337199758769,0.0464094497412762
-0.417271956915621,0.0370033507974204
-0.484193329127475,0.045344703436848
-0.433013102457824,0.0567521516203412
-0.415617729190215,0.0821047180486493
-0.415003560326644,0.0714434729123233
-0.381863454861967,0.0221989721310936
-0.46814015665866,0.031590801937122
-0.429363908483827,0.0665568000480489
-0.399248753754762,0.101291826929026
-0.441094036113007,0.123644683756913
-0.448466929066034,0.0606515904157719
-0.409653759476797,0.0897577295372315
-0.448671847213498,0.0661623740025495
-0.403055626927781,0.0902287666512726
-0.400099264263199,0.0929366216904166
-0.397105345835605,0.0955901557603445
-0.401996380689928,0.0505935436550939
-0.39610657501458,0.11257706732108
-0.346348106727593,0.14066943905784
-0.391271217593811,0.137429470282107
-0.381582676587251,0.108055864358883
-0.378369579182464,0.1103911842858
-0.41290905588728,0.0736857069814742
-0.371837165808587,0.114906940126759
-0.368518436087199,0.117088110485782
-0.365165081841314,0.119218632100486
-0.349351042914344,0.075794360352894
-0.365968979989011,0.141785027009221
-0.324472412053523,0.0876955746648139
-0.38093206721181,0.142883832282793
-0.347889202079233,0.129124361796376
-0.344334256287247,0.130958702617456
-0.292340914285335,0.0875913508488907
-0.289721074666082,0.105676805869611
-0.333475155461473,0.136174724849316
-0.355128667043167,0.160365123446837
-0.37595077734447,0.179141381185036
-0.332145181740284,0.113976565330394
-0.358688606742307,0.109196256839859
-0.314746696683563,0.143933461147206
-0.350521852537027,0.100734973320858
-0.307041667638367,0.146718402260133
-0.30314454442531,0.148044080262364
-0.329914632261601,0.196570645485194
-0.25871321079408,0.140759574910673
-0.266535172944739,0.150082449171075
-0.25489643945019,0.135895114497821
-0.250515633635051,0.119026862703543
-0.31348120287151,0.177325772110155
-0.247383726635322,0.117527097756742
-0.257046742866743,0.190667867143686
-0.269046241613001,0.171752754353502
-0.226583930838135,0.19008156031252
-0.259075872750381,0.196524393060077
-0.254173732266917,0.160622220240045
-0.279967041632665,0.180636015292734
-0.245636619802123,0.162146590878724
-0.262961697229933,0.192207782579379
-0.2310337777559,0.134747595102572
-0.232642349705196,0.164142332708127
-0.228261805128364,0.164731498440257
-0.182541612551487,0.211715840633387
-0.226635148366274,0.165812626346709
-0.178826033697592,0.168812603301128
-0.198166059467324,0.148434650862036
-0.206003863733591,0.167123240530413
-0.201483283619476,0.167493342191774
-0.196940390182627,0.167828218453388
-0.220553302326956,0.136386428767697
-0.164189029417799,0.182980374913074
-0.214178901057528,0.166958075115394
-0.163848962055673,0.181365500757422
-0.158891640816907,0.204162794001995
-0.123438691952126,0.151715786251112
-0.164539985491672,0.169216887780905
-0.178489195396462,0.129955273094988
-0.127992019904474,0.123317524903061
-0.138233539717062,0.156690936089508
-0.163147148223929,0.185928959296081
-0.140791926849177,0.169232821398754
-0.126421461305494,0.119563040041678
-0.125152232567297,0.181377516281656
-0.1000403044321,0.215219114188045
-0.0985789272808524,0.146676368543695
-0.165712583998437,0.147684664789977
-0.111686891322644,0.168251081444021
-0.106775738285646,0.167986447383497
-0.0691589863186377,0.188368551136802
-0.0869209308828072,0.145636920864673
-0.131328509414175,0.158141524618024
-0.0869695489191404,0.166652773866786
-0.0979053776677331,0.18332073164273
-0.076973611638699,0.165825995858517
-0.117638766416375,0.182854087396636
-0.0669189059478813,0.164896507390197
-0.0618702477582103,0.164394164789742
-0.106503482040003,0.12050734376265
-0.0282522401472067,0.191212375379416
-0.0567628269621264,0.179679976848753
-0.0303438484138314,0.208831302415042
-0.0364256283212926,0.161521157024115
-0.00280753513417523,0.14189953731433
-0.019083019549213,0.18284328990993
-0.0618191367181338,0.196733984275938
-0.0420163107267106,0.197941866930936
-0.036722240512568,0.174986148112812
-0.0511601217940117,0.163707384136539
-0.000292789882610694,0.156554155307984
0.0300731504718119,0.196916759282629
0.0101279323038913,0.154947980124178
0.0583262038708998,0.140287576637523
0.0205874904788662,0.153264065609626
-0.0213557821406467,0.115933674543849
0.0654824046645331,0.101591479142303
0.0363445155523141,0.150598858986223
0.0620459409715242,0.157995121127293
0.0468909043636684,0.14873344893195
0.100828092465392,0.100394790850064
0.100228798964452,0.147417159096818
0.062767183247253,0.145809769842332
0.0680732225574562,0.14480319530023
0.116059820942091,0.163582500698336
0.0787044619582655,0.142744227282618
0.0496919692301649,0.0967258659728886
0.130667031739527,0.136454357746384
0.0935239919347152,0.181710940374148
0.121864609716656,0.102586145593143
0.0770663438446557,0.122999909942392
0.135066015502153,0.0894216716325285
0.164997159412724,0.164267586688341
0.134362849223475,0.169151988559579
0.150946531821139,0.126051927256433
0.149350477664923,0.181350758952679
0.116813386696623,0.157088217170064
0.0986563650571575,0.162597133248332
0.148277819023838,0.128062775527129
0.12875846732532,0.121617726111057
0.125141981696482,0.16855470171077
0.198117477229939,0.0958164688338755
0.169785888863379,0.123171789431887
0.217847317959467,0.0895075432867302
0.161114748882014,0.111316383922599
0.14088875846561,0.101612891511514
0.191308603208082,0.118146112808762
0.169679427499021,0.088327326241352
0.243255668238934,0.0952256176188388
0.20744896415484,0.114302602748351
0.201167574228582,0.0732314001679128
0.24655738441836,0.0878576017265684
0.223579095833107,0.110406464282862
0.265146982835978,0.0719556914064571
0.232335605925839,0.153428286229022
0.228843252617383,0.0645728757559706
0.245056346762294,0.105146883637169
0.26723072605296,0.0817341684736966
0.28873602564902,0.07562295608102
0.30586633157639,0.110005045180253
0.236299192183054,0.0806350559047781
0.231265258590277,0.110394910846898
0.245192631979422,0.141936687885088
0.268686723118671,0.0681363265860302
0.287839042981442,0.0944939265146152
0.293165057315053,0.0931569243536749
0.318463624375363,0.11965681997315
0.342351425916304,0.0969812124348995
0.353239397034931,0.106957795241879
0.343184957968771,0.0918327982520783
0.319701868000896,0.0864796773878555
0.277153422970765,0.115898635891614
0.330267598838306,0.0838192565461486
0.346397872908752,0.0948826072632098
0.340801815939824,0.0811692297712453
0.346056374029995,0.0798490322150694
0.351302174314638,0.0785325348430639
0.356538923669903,0.0772201048777184
0.361766328971938,0.0759121095415228
0.359855263345605,0.0553460679600874
0.359947071970213,0.0462760269649499
0.397195390631037,0.0680628122959665
0.417299071244504,0.0553091360114212
0.43375263345017,0.0586145739381266
0.39291812073062,0.0681778291959241
0.398071910192199,0.0669111584934915
0.376368570671066,0.083668723242836
0.408344128859378,0.0644003015383205
0.460987050994074,0.0251332818848213
0.403363280222246,0.0187253788886287
0.423659659362425,0.0606957355671465
0.417387630347734,0.031215588301037
0.411125739509543,0.0132243650364294
0.469731531632731,0.0573632711739575
0.443894833502313,0.0558869472784393
0.484065697283695,0.0357813308752402
0.453927630115425,0.0535451487129841
0.469379290821913,0.00628342354088663
0.442537089372458,0.0342175291487978
0.468864241677396,0.0501189578444443
0.453794029165992,0.0381817038781621
0.504289510078697,0.0266271692806405
0.465465851996767,0.00904553936549143
0.537783779578612,0.0951596501497902
0.493438830403384,0.0446638065085787
0.456605154683446,0.0627276724505988
0.545233609978038,0.0198327012556954
0.523254734059413,0.053469935967527
0.489252908904009,0.0580679123421887
0.469903568835341,0.0534881364210432
0.535532811300266,0.031497482817715
0.50606320667789,0.00852041771885789
0.57748711295853,-0.00372854405112125
0.516129606847946,0.0124631793802691
0.548258260157201,0.00559548642470085
0.502730848735353,0.0146912654400257
0.518477402206002,0.0265786302338348
0.548209676767915,0.00278215180099801
0.555990815718633,0.0728088245915052
0.563698177583238,0.0211523692304122
0.568997539300818,0.02984427019837
0.573545855150409,0.0290743563909571
0.569109303930671,0.0630751105344886
0.563059642665893,-0.013423588356785
0.593840390967779,-0.0178586871643603
0.554423889228837,-0.0135875793911881
0.595947949380874,0.0255410180841961
0.600358419356509,0.024900167126333
0.604744889086338,0.0242821119221092
0.650510190144834,0.0177817919192612
0.625179002988999,-0.0113130464129501
0.663537442523274,-0.00801306736887337
0.622044903070559,0.0220451930914022
0.592958444472137,0.0409777254233921
0.615306292820583,0.00426301403134557
0.682814074989468,0.00143274001939361
0.638937463213758,0.020202384118106
0.620747769915153,0.0159365795676411
0.597720197909779,-0.00746252364624532
0.665909077118926,0.00299345690927425
0.648830912005627,-0.027350068139964
0.702068857911782,0.0498506072286112
0.663471290137427,0.0182285377893771
0.637471866487493,-0.0207307739721942
0.677358103954718,0.00322869705527098
0.690439876350514,-0.00893543230940311
0.679263140999646,0.0174738257567484
0.683137912527366,0.0173586621447297
0.667961079833761,-0.0152370271219846
0.674501894786783,0.0317941262009589
0.715038999996868,0.0262824472431569
0.74246429889694,0.045816753140681
0.702057966846389,0.0172422915859571
0.705749165179317,0.0173134775318952
0.729714153692559,0.0522433292378702
0.748260111834125,0.0657653662412978
0.71663185888702,0.0177225654899109
0.720194812613055,0.0179253289242826
0.67424250399263,0.00819409545681316
0.755412048323447,0.0203757444319015
0.76467662653539,0.0320838296050217
0.772707754111882,0.020059933341771
0.781407675374326,-0.0241298480465574
0.749842415150768,0.0351701947584148
0.736004118815322,0.0502331803554599
0.758167064719129,-0.0156258187422591
0.753088043418572,0.0145187365533637
0.753972316563561,0.0218732385371221
0.778420323317488,0.0109517674568247
0.779192231906306,0.0500026902997059
0.76342226348655,0.0237718535356881
0.766499427483172,0.0244814082132906
0.727872739643419,0.0698224353782654
0.772542769266745,0.0260177454205551
0.79369258917774,0.0658356271633031
0.778436175278414,0.0277128345804974
0.80088808127541,0.00364437913209356
0.800314977573264,0.0138518216440218
0.827737416816683,0.07557726660422
0.758834574035636,0.0706485407891191
0.749838707201872,-0.0170263819620432
0.795193328773872,0.0337799915755748
0.792743394333586,0.0829720978081449
0.806037937069301,0.0341955555311874
0.794331131383663,0.0256589726998396
0.805572094079765,0.0386723819675179
0.807375352559749,0.033103270200292
0.810516640652952,0.0413816762218118
0.820036241198741,0.0142051408628957
0.776276015992264,0.081712284934641
0.831374946956818,-0.00282034531318687
0.781033182997377,0.0367289095964551
0.807715910265683,0.0744454133886257
0.869049248802195,0.0013394688108242
0.826497152834634,0.0522956020378891
0.780367121814852,0.0844174991168433
0.791238239408785,0.0208203183768716
0.869337870604337,0.0838858159133786
0.819334341854341,0.0427882374900346
0.795111902578522,0.0201013129477732
0.850147832517715,0.0837731975708406
0.849755995493546,0.0423198152272408
0.840330740118704,0.0648075732794694
0.814518855250072,0.0371058505492174
0.857949222776151,0.114852357363044
0.845579341306728,0.0697236118361585
0.810166119129845,0.0682853831974229
0.848855327312015,0.0727978747983077
0.850427164738855,0.0742746158080352
0.890326321878333,0.114550755863947
0.834357346004302,0.113624795725703
0.880206030306555,0.06843821746229
0.856279457298103,0.0797831638817671
0.878152912407121,0.098647646041162
0.861119988134319,0.098041371014139
0.836550575138501,0.0921960219634089
0.87365494585206,0.0503712378498546
0.862635165919311,0.085785871835932
0.863780916233894,0.086870477646185
0.864885467414313,0.0879168569139584
0.848874050569209,0.0822912096172117
0.85035177038127,0.054110651835078
0.819685697692091,0.0489619658939303
0.905831527285257,0.0778666116653122
0.869799206339824,0.0925816358813324
0.854386491750812,0.0777263353232881
0.886842762678086,0.100465292287689
0.910349252014916,0.077141001703215
0.839904077826815,0.0743553384182151
0.873721409922075,0.0963176688540142
0.922790104520216,0.136746614967571
0.914634883941515,0.0565649959922752
0.853713501216583,0.122373941381994
0.911962633226793,0.0954113456627431
0.876684114003411,0.0991473871380879
0.867704574189383,0.0784922107650146
0.877607711804373,0.10003053095147
0.855401244643683,0.115977962229757
0.830784168460591,0.11159764350586
0.878719354426172,0.101093222039638
0.891037515382533,0.134249446527518
0.87928093679956,0.101629093265714
0.836140223677232,0.0688544450876847
0.879701301016261,0.102028567763149
0.90032897077848,0.0647941021194637
0.884258940909258,0.141452904797177
0.880071548315451,0.102375176025952
0.88012657615524,0.102424068986455
0.88014783717629,0.102439939467489
0.892611905813958,0.0603611576660773
0.926905959891273,0.0570392948909767
0.885078762414755,0.0986637372144767
0.879900338807869,0.102176785605917
0.879756610036303,0.102030235446341
0.859965499286192,0.0562135349872831
0.837471493762252,0.0943251247201175
0.879133074278717,0.101399628108749
0.926623072472299,0.0701772495555802
0.866949717669328,0.114470560304522
0.89944946395358,0.112804316295635
0.855236393350508,0.0645978369169101
0.904174346790965,0.0936792044749411
0.913404379900266,0.109986930942217
0.876589009225649,0.0988373254519179
0.830983168855457,0.0767434788942693
0.875591293116844,0.0978311857712029
0.875048576432909,0.097283337648533
0.923484602485653,0.084424650431255
0.847059609563001,0.11001433750095
0.917689802590239,0.120676021253581
0.858467637566533,0.0648753908806208
0.871906658187457,0.0941034922300065
0.833120345164343,0.0978055119909072
0.86032013226932,0.101711284078918
0.838412261485277,0.110588298380889
0.868894499004489,0.091041657155893
0.913344615926302,0.102878172117997
0.822019257607711,0.0556386485318894
0.839625609690045,0.114336469759082
0.821379634977499,0.126735539564656
0.911684326894851,0.0591801511119643
0.892183602300488,0.116036394613668
0.823660055277578,0.11444557320167
0.8743789016606,0.0576517830275819
0.841536086833554,0.11708251657572
0.859538625886661,0.081452341850052
0.876156468169167,0.0876577160532281
0.857370915015447,0.0792142960255034
0.868349715317408,0.0402454375745803
0.843052926088421,0.0694662404412439
0.825618672661333,0.102232253953966
0.806578315293666,0.0334533827429808
0.851544604244519,0.0731700437703624
0.859511998429676,0.0254228428850596
0.885127571867991,0.113436058480019
0.824208824397722,0.0496584729097397
0.882698318587087,0.0589259535304792
0.851869326281343,0.0448649773230703
0.852551998470222,0.0157735517091012
0.815676505892136,0.0253951345155096
0.88357992416042,0.0385710515658511
0.841809456381329,0.0694149006059575
0.814542696322965,0.0306247698039847
0.832706766245733,0.0293321471351385
0.862986731021004,0.0167515052747494
0.874245346152366,0.096506668769088
0.78366203615086,0.0344408570251282
0.830858727976675,0.0513849308375989
0.829322984605251,0.0497478468716156
0.827769107906151,0.0480886869035332
0.844756364249123,0.0846732291116608
0.844248353876875,0.0643888698959
0.814367165127816,0.0729080041268717
0.804705525036017,0.0101614253595383
0.850558927358276,0.0213208262902722
0.818079399887718,0.0376801802760845
0.816405765923568,0.0358715129058716
0.855295159745445,0.0616112663546799
0.817625785375659,0.0278594267288983
0.772222617675297,0.0663189539581701
0.849040173279102,0.0113139012205215
0.774021166720989,0.0324592745018467
0.81229460588057,0.0187896308568332
0.789935510568419,-0.00363705987737224
0.83066553217502,0.0655911704684803
0.772104812546958,0.0651790428842105
0.798827146736806,0.0166792266097418
0.796990695171855,0.0146533846305995
0.795140979727264,0.0126088762078831
0.835656125701029,-0.0364179118310262
0.820650424800665,0.0164997091988006
0.805779569968927,-0.0197090557620935
0.74721175699799,-0.0142375982012491
0.78570241434556,0.00211261820639047
0.757547669484557,0.0128361855795833
0.781843111071252,-0.00221026933352268
0.735808360766239,0.0366489503043618
0.818930455227668,-0.0192023574616785
0.747324966049141,-0.00408195105002273
0.724142824469544,0.0153310305181643
0.784853423356487,-0.0103101896519917
0.723404588226767,-0.0532772704143774
0.767995776714447,-0.0178737260341867
0.761774635655327,-0.0122636231088223
0.807845651850103,0.0218793423590056
0.80191511821852,-0.0662913910941628
0.759870145188288,-0.0271796637407223
0.772438025365053,-0.0383307812076878
0.747157709057679,-0.0552026244635292
0.753686883008237,-0.0343199423902136
0.750233035924435,-0.00441578168899315
0.717229623478632,-0.0710865969923529
0.753087346561388,-0.0442029063775633
0.790580441255953,-0.0713410849678379
0.778853702691846,-0.0757187950960382
0.766488931312727,-0.0607706100105868
0.716928166255787,-0.0410501029070178
0.773601782523138,-0.0938864884410168
0.719791914494339,-0.0864639232511896
0.767160904222803,-0.0574190344774515
0.730480376894852,-0.061597444041384
0.728336730282561,-0.0641572734003446
0.726188533539747,-0.0667296678876246
0.766496240095314,-0.043882601404594
0.753325707395347,-0.0754933035745157
0.719719205395552,-0.0745204476148938
0.764097567644565,-0.0458330913724626
0.687225682767556,-0.0900147348175059
0.671999346638557,-0.0675536283024103
0.745489835659888,-0.0484355983251132
0.671315463642474,-0.125729831228027
0.673014927860569,-0.102656141435848
0.666702048840113,-0.135187571593508
0.740168334309716,-0.0657590573505534
0.700148550818062,-0.098513161780575
0.708318752374794,-0.0581092104591945
0.695779536009098,-0.103962036931817
0.741154144309852,-0.0682646244473651
0.740561306519961,-0.0834813366857552
0.689221360791682,-0.112208951319477
0.687035086731772,-0.114976832089782
0.684849131989376,-0.117753868429881
0.721665601150933,-0.166506742526027
0.690145122167633,-0.144893241162323
0.678295746534651,-0.126138116364459
0.676113631929693,-0.12894998047925
0.646538382612747,-0.094068924497948
0.70815022249567,-0.150372640238165
0.669577917769013,-0.137434404927133
0.640033395144345,-0.108489982856056
0.665232195907775,-0.143129586807496
0.648119033655544,-0.12914715811698
0.623447155456491,-0.13922924938967
0.62979312187954,-0.165744265112434
0.65657738869801,-0.154606847748326
0.653278680463462,-0.122419867559705
0.652272403937303,-0.160386055601614
0.650126413271579,-0.163285175797406
0.647985098797926,-0.166190400905364
0.645848716803083,-0.169101551475042
0.662379916787737,-0.160101902897601
0.646211399062657,-0.147456965022683
0.686436435229082,-0.151865516031128
0.637357639346587,-0.180801819361962
0.607875454846042,-0.153651475600758
0.633148358946406,-0.186682840364067
0.676975436633416,-0.175692630397049
0.62896598449015,-0.192582538600482
0.668138383996943,-0.20719849188892
0.656086206896605,-0.197470212695601
0.653488345914434,-0.218306105145471
0.571183745083714,-0.185106841831032
0.618641216907965,-0.207404075943074
0.61660079972403,-0.210379340679698
0.635788282856159,-0.175080125750895
0.659010245115669,-0.239058961726814
0.615111886361312,-0.192358899490027
0.59072972031957,-0.261215941832355
0.585001429975954,-0.195240133548163
0.584240083114777,-0.241330309083238
0.632934627735991,-0.205123902463177
0.57894786939615,-0.226713322148391
0.622385476979562,-0.27872633782703
0.596721638090582,-0.240280232496263
0.594791861256079,-0.243281198213081
0.592873680355594,-0.246283423679951
0.590967351675865,-0.249286729446426
0.564872081912314,-0.257992681171766
0.546510564341713,-0.272319680562165
0.580835205999814,-0.223359830166923
0.596200756040355,-0.307020147848734
0.618787967702484,-0.237610619270877
0.545196092236733,-0.239634419468849
0.593751252211173,-0.269709238000412
0.536011797907136,-0.263758727232963
0.584419480972222,-0.298123214688687
0.613640111777231,-0.262219371653134
0.536930726003668,-0.239371808989345
0.535931766426391,-0.323391237770802
0.562765229396091,-0.3016109974385
0.565666753912722,-0.291345949384259
0.534105865602529,-0.343761539011903
0.53511124797894,-0.251620514452908
0.567804769513097,-0.306473101295247
0.556102218582503,-0.304048901635594
0.605212880505848,-0.35563742578335
0.568501155072089,-0.301575025629123
0.511006288947999,-0.320256572064442
0.552545456932279,-0.31526956440062
0.550982464469828,-0.318248188734157
0.51168624843902,-0.330527746751922
0.52193385807301,-0.323307041513446
0.546402530844344,-0.327163984865991
0.51189788316603,-0.330651847172646
0.5388652922934,-0.35030420299368
0.509066871201354,-0.338294250057439
0.540559956159638,-0.338998167531201
0.57012599677771,-0.359462969129885
0.55817671032045,-0.295715680676112
0.567506210344964,-0.38524218310262
0.535034135229442,-0.350760627567536
0.533704094921576,-0.353688690037492
0.492896604865429,-0.395523755105327
0.564359886602209,-0.317109811333512
0.517081364352147,-0.316332417051034
0.49638758410553,-0.415172196940822
0.535372832817635,-0.360584148557244
0.526175472520593,-0.37113780584402
0.524998364037694,-0.374024440438718
0.520409715792523,-0.327037925010892
0.522713021010198,-0.3797776219686
0.498032843386901,-0.361327225583535
0.496865095765742,-0.370731768566284
0.50088535301119,-0.429190607107993
0.518425006737108,-0.391198609777739
0.517413388129373,-0.394035023425193
0.529412745302966,-0.385784574152782
0.502226670666719,-0.39746772047381
0.472835194931991,-0.392999955615023
0.508812064889384,-0.448830414055283
0.512730419190869,-0.408095119311048
0.472709014977472,-0.364500514015552
0.511037073548002,-0.413658887493021
0.509370741978621,-0.454463344378581
0.522135553285337,-0.38688961166748
0.522554274279312,-0.41952964255358
0.526114532126751,-0.423237202944955
0.511681332949778,-0.392579240369612
0.48499980196255,-0.407302143327165
0.505957326644966,-0.432834481138308
0.505342616510192,-0.435533669146208
0.477715123313554,-0.483822519207583
0.504198985103703,-0.440900113772882
0.48874018415863,-0.399499601392156
0.481304426614559,-0.409741613309954
0.453467474781295,-0.481601962710325
0.502262053771653,-0.451500252857157
0.463297831538282,-0.418686834093783
0.49796253741687,-0.422600939951578
0.501123968350696,-0.459328548083291
0.500805899706904,-0.461913821025405
0.47947286951437,-0.448403903428911
0.500263239884543,-0.467047052007045
0.50003916127945,-0.469594651145674
0.479812354154664,-0.427287923096144
0.490447726587405,-0.448658686072189
0.491089228108117,-0.468560803497332
0.465943466393199,-0.529477150670921
0.469135403554092,-0.528593375285266
0.481761010903244,-0.490140050467233
0.499376555519745,-0.487056124499964
0.499414393634357,-0.489495364342891
0.499486124629257,-0.491920251746836
0.462391033139467,-0.505041721501203
0.490515396814449,-0.496308203327293
0.487495235202887,-0.519992074469074
0.496717488770496,-0.51630557489458
0.479628005224728,-0.527677204375921
0.485434604441859,-0.552523669186991
0.51484109236682,-0.498213002919843
0.518560222870987,-0.503603064139763
0.516917877446442,-0.47594892068516
0.502123926076585,-0.51534026254358
0.549673026761089,-0.565833350028341
0.503083829603373,-0.51983409039028
0.503683417173745,-0.515128485631854
0.538135920356799,-0.502543753995172
0.501834003043744,-0.490861679625198
0.50545238224555,-0.528620086942316
0.50840714578913,-0.567625950055747
0.50686513194876,-0.532909384440473
0.50762952214948,-0.535027479918516
0.48866827908146,-0.512853574961201
0.515740702831756,-0.567577829755516
0.537621109180903,-0.559555332162917
0.511079831970371,-0.543318652846648
0.51204187811379,-0.545345246580428
0.513044224305965,-0.547353001614009
0.53976660322941,-0.510006459432482
0.545360690982325,-0.579075926184073
0.51629562604241,-0.553261440009074
0.519838383552331,-0.528985507163146
0.531626257657356,-0.563552241194832
0.542406012993088,-0.531123893500655
0.521210577102403,-0.560864729405827
0.570619306122523,-0.550914800858757
0.523921129541439,-0.56454544608327
0.491777143826676,-0.59054648760488
0.526803133645048,-0.568143629941971
0.490976954389178,-0.604850936703634
0.52985863970714,-0.571657845378342
0.514428955500716,-0.623249528444453
0.555002184406387,-0.541055514819967
0.513651707644229,-0.618008729018457
0.536498358882411,-0.578428628569732
0.588148583764631,-0.569393118701507
0.499208760888071,-0.578735162281529
0.541948839965836,-0.58327562155296
0.543856689418532,-0.584846310828726
0.545810477228236,-0.586394213494423
0.572574352315084,-0.571999760760157
0.549856893065622,-0.589420941193812
0.539948803860758,-0.564265379522569
0.534005665239138,-0.6003001157185
0.586227862493881,-0.617244386166644
0.599565820671897,-0.612697030812561
0.560794793978441,-0.596576433234664
0.549840833874922,-0.5690506441106
0.586911788995218,-0.599343348384189
0.601887081908093,-0.552333046086928
0.570407372704787,-0.601865903724178
0.618779649226356,-0.571544624185697
0.575506719708242,-0.604361716678008
0.564624522433386,-0.645418651025595
0.5808041721971,-0.606756333966434
0.591419530070081,-0.588818092344862
0.632293722094842,-0.600555275722478
0.589126283733441,-0.61015537764359
0.640708815975418,-0.597609342262083
0.594927969971659,-0.612290725002804
0.612047767162734,-0.641850555397742
0.600934937723962,-0.614319852084051
0.575909779194167,-0.659004565254082
0.611926412834726,-0.621980062062787
0.581100429681369,-0.618927558489057
0.613572918946467,-0.618053702998289
0.616863918782631,-0.61891853492251
0.589309023460922,-0.608544903619155
0.623605517898777,-0.620564585652608
0.627056629752236,-0.621345445557587
0.630561624851603,-0.622097955888587
0.619746521880364,-0.642041483365132
0.687141841742656,-0.638631062014791
0.641402472492547,-0.624183594933232
0.626101801168605,-0.624814811647301
0.649395247780655,-0.65495822962316
0.680152732094883,-0.623150769934089
0.644971681475368,-0.577010380660997
