0.930495865823177,-0.171370036003758
-0.00239286687195173,0.321130199940169
0.901366314164352,-0.154260182051275
0.437591432964701,-0.0457365468366624
-0.0261834482349497,0.06278708837795
-0.979177835816557,0.228358632419804
-0.994973656321356,0.604625574919528
