0.599883565723459,0.869732119748306
0.611951021290529,0.835333915476025
0.409415843902756,0.734196496395816
0.39069959235178,0.710513197201338
0.396374924640253,0.773920010797817
0.418259671364086,0.735007237761362
0.4086907878347,0.731534786064959
0.410315692716877,0.759987377812753
0.353725276308176,0.771864819275439
0.380280511920744,0.721332313239375
0.344738830173527,0.735915159417343
0.346722159846441,0.684925515558623
0.358840319036334,0.684721174313444
0.343089996858071,0.708220497171354
0.223962012956833,0.59698560332522
0.352919646424271,0.728424626169971
0.310373547706178,0.671178323813687
0.341893591601931,0.732531163337709
0.319619060700497,0.730685686423857
0.2887766021633,0.689571435486643
0.255251795953359,0.697810313074844
0.254707982971919,0.668787447854392
0.262279829703434,0.680689772681145
0.255560532773396,0.683384497739645
0.24816946450673,0.645360597030009
0.285118686706293,0.689274950807367
0.275211639268941,0.717117811823144
0.196636959258736,0.701310026781175
0.210600030326884,0.663776344564776
0.225394815231267,0.633191746088221
0.204199110899527,0.632065298970441
0.175613436480712,0.628836957370444
0.146096180932475,0.69603706729214
0.137321009036049,0.661408980878156
0.160663752698767,0.647948328335797
0.13938535818897,0.615624935406109
0.116502255297491,0.645820752917902
0.176942325060942,0.61214000881759
0.16416861576473,0.672705723196501
0.12037499865689,0.635546079668288
0.119444394465927,0.597636572549431
0.086762756757782,0.624062896328477
0.0440567430154543,0.553827832089848
0.0890070747234092,0.626116016254387
0.216760119177538,0.752913350209281
0.113805187490866,0.6153944728413
0.0262716920813714,0.617771800196017
0.0385347922622581,0.590224663653332
0.0600084522119143,0.600390570746508
0.0020049631473533,0.575452866008898
0.00239476126787995,0.608440562234798
0.0567543235009421,0.638304784310869
0.0212183825953191,0.606403333707836
-0.00732777373114082,0.556380436446166
0.0322207615541579,0.577599899722331
-0.0281180249778559,0.602985314282779
-0.0527479063397124,0.626978053064111
-0.0301627005642017,0.56278065512513
-0.0218414757487652,0.594343547763051
-0.0288530937200206,0.592412783724817
-0.108128468567617,0.441540024801631
-0.0772607731160989,0.579332001591943
0.0556666504510332,0.697730547483516
-0.0316347527700404,0.571571949943295
-0.0632066461992677,0.583082465072972
-0.118622951089678,0.553599645185854
0.0164189376505108,0.676145967177006
-0.083256775580354,0.577733518158905
-0.0477835126274259,0.592277409133131
-0.0972656242626943,0.581377037074438
-0.129446783539862,0.534598621800478
-0.124020154899845,0.610110185120287
-0.0974713178642344,0.60243780155315
-0.0210783419738308,0.655788929150779
-0.0892632035437427,0.56338394829665
-0.161208807241638,0.571737011176651
-0.0936100679583333,0.583912786832063
-0.150173222920816,0.556655506833275
-0.153189787056777,0.559590568915358
-0.15489548786221,0.601586409605489
-0.319058152610736,0.499092694822929
-0.158652464575637,0.507465705739677
-0.177231697898989,0.553518019265604
-0.183127088900871,0.552040082776984
-0.101750447821428,0.606542588477657
-0.165477010434322,0.573500208480954
-0.200537777270223,0.547698507992987
-0.19772084839737,0.548250177349526
-0.310800978399018,0.445058916765143
-0.217536188232312,0.543489710341708
-0.254737630759414,0.540326858885446
-0.180468784513064,0.513330038399026
-0.230011949823559,0.586919397237591
-0.269580584405453,0.490294434328072
-0.267366590873681,0.582237752275969
-0.23538120477864,0.53352498029911
-0.154035506910396,0.627286422329203
-0.225938336549069,0.488401237932019
-0.192919488034277,0.604682324040677
-0.271235674118004,0.530327300864474
-0.332776747568901,0.42776785311378
-0.399853687006631,0.411586792562667
-0.241785365304084,0.479322529786035
-0.291446754341624,0.525393656431972
-0.226216794047375,0.654038929301235
-0.195901022251132,0.629544987582573
-0.306131987094013,0.521801872345098
-0.27463729777427,0.540278326427624
-0.190464344529538,0.660657415242892
-0.360818593563876,0.562184764847368
-0.305742623739981,0.497691683040455
-0.257058713398787,0.663634087297842
-0.350458997687499,0.500721394699505
-0.39519864205507,0.438102042345389
-0.378021398785811,0.521731768360066
-0.347767738147935,0.511507803384826
-0.33413332863317,0.483552453819456
-0.356529496178285,0.509304644186493
-0.406081451470481,0.508089676216038
-0.365113626655408,0.507127578648577
-0.36933919460284,0.506048167324886
-0.394015344518534,0.460839066725959
-0.263572965165092,0.60525705384739
-0.352078937340642,0.481294322622711
-0.385799206170793,0.501785137342917
-0.341321639064509,0.488055923642668
-0.503281182400806,0.393198706084748
-0.397681107676797,0.498637777748104
-0.401553771777454,0.497596749255527
-0.320097283546032,0.56476503853042
-0.409167416675945,0.495525236503175
-0.303853575679112,0.612072808897799
-0.552435040622539,0.394326678461965
-0.384845888947569,0.47446851329033
-0.423869239324541,0.491416954742909
-0.411107326925732,0.511481273228597
-0.430958140539162,0.489375938199696
-0.44025840871113,0.521559974453567
-0.344991986670014,0.605178498927896
-0.402537661045575,0.439698959884208
-0.444433937073263,0.520301832957866
-0.549759708881752,0.373264201704659
-0.451181144531412,0.483279900705944
-0.454399913771183,0.482265046281763
-0.428558740522103,0.502379065091299
-0.411975176868212,0.52519132214177
-0.506319830400121,0.526991780325011
-0.466843130310912,0.478199185577909
-0.49345192813256,0.458720538488417
-0.472806255360616,0.47615867282832
-0.515379265986715,0.431343104679503
-0.619634944612231,0.403475437027103
-0.481428856281948,0.473082452610344
-0.440461865503858,0.464890920580572
-0.536159254745499,0.494539377587785
-0.489666038416186,0.469981319777108
-0.492326328185395,0.468940833831509
-0.483146108850381,0.458815601593863
-0.454926896825099,0.515093811998748
-0.500051517697862,0.465795334397768
-0.547504874837418,0.504747128732478
-0.543346987922283,0.461861908758366
-0.507394137064768,0.462608197678527
-0.502812422971779,0.427090589180894
-0.512077280560045,0.460456768427673
-0.479390955756688,0.410590771516036
-0.523890956431251,0.424609826032102
-0.492564832911375,0.437462101543386
-0.569735663508225,0.418753711841545
-0.507501971282219,0.466355051689856
-0.525113396903953,0.453851096328439
-0.527138782755829,0.452725286649636
-0.529122203412141,0.451591664954305
-0.545000938365353,0.480336615905833
-0.498342917655545,0.40738955898905
-0.543908188953689,0.44201182359962
-0.504091082766772,0.482772947945447
-0.53841141133887,0.445797084746233
-0.50897411316817,0.468741615929937
-0.541834920719243,0.443415277063829
-0.541262319462415,0.428184512446377
-0.545092016246393,0.440993726244708
-0.543735988856993,0.43469500596445
-0.427917126269837,0.5146314481414
-0.579932877342557,0.412375207002029
-0.55569336346005,0.409019323516074
-0.552509068324358,0.434752035748569
-0.553868437031082,0.433469377290548
-0.552251287962792,0.480664291805254
-0.55646349446792,0.430867616248064
-0.536008006130742,0.385068114834529
-0.556503622738031,0.459170073412957
-0.595169747578929,0.471810212490085
-0.54497939139962,0.403787334567205
-0.517013920132169,0.445966268705957
-0.560591797212367,0.466312991385572
-0.564252303478325,0.421350914821323
-0.565201289618525,0.419935714651986
-0.566109486192999,0.418505800221259
-0.579087625886155,0.393160369269665
-0.615452178292096,0.453256184225317
-0.572924459485491,0.445894300960012
-0.61256031967503,0.422534845092883
-0.570040208158125,0.411126222663293
-0.570704616885427,0.409602447774141
-0.557187470669966,0.436785812531796
-0.558347679593981,0.357217670445348
-0.569861353228906,0.376555325542482
-0.703713787816837,0.268049025735692
-0.573420469102596,0.401729675537999
-0.573842717777888,0.400102483236
-0.574224764702374,0.39845712555018
-0.574566655092587,0.396793337009583
-0.680313842360495,0.281196269174719
-0.662220093780089,0.253793118605231
-0.599530277000341,0.380924519405891
-0.575533555641352,0.389948564880298
-0.601229844888884,0.384715063394043
-0.55987777457095,0.423444234647373
-0.579472322654569,0.415674461562337
-0.547175959217447,0.385583017521508
-0.684328363846698,0.272654875530645
-0.475095876984308,0.472360515665151
-0.575690050051127,0.377199301954243
-0.59783821623121,0.366567475107698
-0.639294593023234,0.288537559844898
-0.575162005714953,0.371416393954141
-0.630312095282675,0.298585862604362
-0.574612509365171,0.367449499810066
-0.621170377014975,0.337333329262516
-0.615156921834723,0.341984832001302
-0.557805017359628,0.400947791585611
-0.459793971189756,0.453029278772587
-0.5725502723486,0.357126101140075
-0.602362714802036,0.3461831835786
-0.571450928632303,0.352828701458078
-0.593835381063653,0.316148973867939
-0.614201684326395,0.346605436196805
-0.722498546949631,0.220628553430763
-0.544528686092028,0.347327026418092
-0.518152533075366,0.362168026050642
-0.567216632312476,0.339332755556067
-0.566374852361998,0.336992597377522
-0.593652621655191,0.308782537174921
-0.464562951691257,0.441621343907865
-0.520634814028056,0.355373537779555
-0.593855716794762,0.294907285451512
-0.561585534613665,0.324886590249388
-0.580476625703591,0.325898951502891
-0.559399789824826,0.319850131030427
-0.556747480217973,0.286519398869803
-0.44142024569277,0.436334221115391
-0.538302887659831,0.32502072303357
-0.656704093527289,0.217349410853357
-0.54611122087112,0.333255214245631
-0.541362848853348,0.287375594021729
-0.532775736547798,0.327289390807299
-0.549122895750174,0.298542306433588
-0.468320871954822,0.417126190357504
-0.546172002162978,0.292914234515881
-0.494717945786373,0.268921726151179
-0.566988296982813,0.303057041826954
-0.526103305285579,0.308466135283367
-0.538415011408249,0.318646518332609
-0.532074395682267,0.285058917782954
-0.539952522488292,0.280362960366281
-0.559562269179678,0.319631027472739
-0.532852599507807,0.269133770741585
-0.499544693947006,0.235384537095499
-0.525299918251311,0.248936945484155
-0.568441499232934,0.225273065158143
-0.525288465448004,0.256452900445261
-0.52330371003588,0.253197448768199
-0.521281556297952,0.249907372508032
-0.481769052272535,0.206257604067563
-0.566337994655584,0.250230010838038
-0.51647142930568,0.200443882432436
-0.463601197734224,0.268837394019303
-0.541686312173539,0.196997177295975
-0.508365801154289,0.229424932328282
-0.487949573792456,0.229038187026128
-0.508107593565222,0.214918936911432
-0.48569822544021,0.231125607542328
-0.495237949308954,0.199937726299499
-0.487779099022482,0.169924510208343
-0.484613970075753,0.19405860314102
-0.491610883578837,0.203864754778254
-0.369738453968321,0.332410384228842
-0.50398154109378,0.15805464794885
-0.461517613948363,0.184045028687305
-0.50934258411451,0.218631552295431
-0.513973298140876,0.221732691495065
-0.371086658030845,0.233330904043286
-0.473054466580093,0.176425859580142
-0.502585552156733,0.162835785395883
-0.488113744250297,0.146296711761043
-0.447471004500011,0.160494231192372
-0.440097909164878,0.169001813246935
-0.458705515320105,0.155625973947927
-0.455726876114082,0.151342478221411
-0.452712059428625,0.147017190195974
-0.406926750635728,0.119735710310414
-0.452077247203569,0.138180087412925
-0.478372453601143,0.127069619298666
-0.468211638392566,0.159031696901569
-0.425227904602167,0.0995661731429297
-0.427790348318902,0.102967128286332
-0.447735717986728,0.0991078774059181
-0.459450250819414,0.0775086585060328
-0.306597488865406,0.199029342273814
-0.417538688229627,0.138225039060806
-0.442594797036654,0.0823338912731116
-0.364759342036287,0.070517365603503
-0.41024786541143,0.0868645573783216
-0.447594559150165,0.0711752993255369
-0.403179258856709,0.0769422736935671
-0.399591751948707,0.0719122048353367
-0.400324031862975,0.0816752867905226
-0.375317848980187,0.0512839737218128
-0.402940645093227,0.0724207228462489
-0.384888088498173,0.0513262216410807
-0.406528974627429,0.0660070459451834
-0.436369234246727,-0.0668522664264235
-0.383537748367646,0.00124458800169616
-0.419129639725314,0.048778317226318
-0.266050222709,0.164336569465226
-0.337153521240699,0.0367672712628857
-0.369678245120569,0.0124503312393075
-0.353792714706896,0.00786364003927983
-0.392891339494709,-0.0312644203934503
-0.204783061448802,0.112552128235375
-0.341589636120849,0.00463486409656316
-0.334788739186545,-0.0468665891863052
-0.423824429235925,-0.0685175257351591
-0.377960190031174,-0.0129512458730931
-0.323187997988582,0.00516874929696437
-0.282687674886601,-0.0620034064081326
-0.35717331715439,-0.00712234220501579
-0.311788252459958,-0.0509347013189725
-0.355005982358785,-0.0416804941244554
-0.30297294466544,-0.0633116225145849
-0.298513782757499,-0.0695789652891018
-0.28126230133517,-0.123523883130161
-0.301525349302886,-0.0964621925195118
-0.143017874044895,-0.0103144536380687
-0.296291229636371,-0.0683477735821914
-0.285013667489423,-0.131100526151072
-0.241344848362841,-0.0612762720299446
-0.266342386745537,-0.114947609298558
-0.278778089901734,-0.168290353374403
-0.333075714451297,-0.219479438370668
-0.236996524739638,-0.128767414891422
-0.173334928980271,-0.0356179663093153
-0.195481476907754,-0.129974710724577
-0.242205083867766,-0.170987534060306
-0.191164633395326,-0.163444248551699
-0.220401799371146,-0.170385546922785
-0.246254437185998,-0.197942251846977
-0.24775777448207,-0.158717058453238
-0.212431079385996,-0.191701472109955
-0.207328360188591,-0.199020109920536
-0.305772551126367,-0.310140038242494
-0.215307027235171,-0.231325187790865
-0.191819867836717,-0.221325001399601
-0.186583742854646,-0.228877176144917
-0.225484971780025,-0.272601207640279
-0.197011832113212,-0.206686578929282
-0.170676118345549,-0.251889049731137
-0.208337967479525,-0.213213290823465
-0.159905446202401,-0.267529077956736
-0.108311757509247,-0.232992110016039
-0.149002724770557,-0.283410607245757
-0.12044402235202,-0.249183741230625
-0.168069460657473,-0.318248003877428
-0.139023763926656,-0.289314200953276
-0.126802580969806,-0.315906664084659
-0.0808862531617911,-0.335226059429694
-0.118823545296441,-0.317842639926191
-0.129626146541508,-0.370199245560176
-0.144717204340736,-0.303952534807975
-0.124065648305551,-0.322511742992286
-0.0637701699766775,-0.40841540373742
-0.120565715172764,-0.349560326605685
-0.0720071810854853,-0.357225808857144
-0.0816155021490337,-0.3739422770805
-0.0690166801737913,-0.401521738527243
-0.0630597553042879,-0.410434291107072
0.045186911464102,-0.365990918174027
-0.0232574628277353,-0.40162531094516
-0.192128321936235,-0.588030419899922
0.00866712938804443,-0.466935354191888
0.00802872688193214,-0.445300669380738
-0.0524463321936692,-0.457785117685506
-0.145397163818585,-0.538311726954639
0.118839975810151,-0.418308478167772
0.114089458105315,-0.371733228059673
0.0183123438733122,-0.506712016397084
0.00458455093745751,-0.512813399054846
-0.0868293887894641,-0.619746323341543
0.0531131356008064,-0.564195970046136
