-0.640679990107484,0.958323978706404
0.309394911051674,0.0235095530255121
0.567892278417454,0.176496027758483
-0.526231195389187,0.395614671421406
-1.62035466919583,0.614733315084329
0.372954976257438,-0.221393722844553
0.180498196434342,-0.371502295528635
