-0.64731089161271,-0.902237238936126
0.924100311782902,0.60481544791732
-0.356559177961927,0.912722170852455
-0.324153965978001,-0.37193361238902
-0.291748753994075,-1.6565893956305
0.471369208162311,-0.218160901930925
0.640381457209052,0.526242593185646
