-0.686936934213543,-0.0964885104058546
-0.685049658663433,-0.0894455335592765
-0.682949126229773,-0.082458602739906
-0.680637721969057,-0.0755278440394752
-0.678117830937778,-0.0686533835497161
-0.67539183819243,-0.0618353473623606
-0.672462128789509,-0.055073861569141
-0.669331087785507,-0.0483690522617892
-0.666001100236919,-0.0417210455320372
-0.662474551200239,-0.0351299674716171
-0.65875382573196,-0.028595944172261
-0.654841308888578,-0.0221191017257008
-0.650739385726586,-0.0156995662236686
-0.646450441302478,-0.00933746375789651
-0.641976860672748,-0.00303292042011645
-0.63732102889389,0.00321393769793946
-0.632485331022399,0.00940298450453923
-0.627472152114767,0.0155340939079508
-0.622283877227491,0.0216071398164421
-0.616922891417062,0.0276219961382811
-0.611391579739977,0.0335785367817359
-0.605692327252728,0.0394766356550742
-0.599827519011809,0.0453161666665642
-0.593799540073716,0.0510970037244737
-0.58761077549494,0.0568190207370708
-0.581263610331978,0.0624820916126233
-0.574760429641323,0.0680860902593993
-0.568103618479469,0.0736308905856667
-0.561295561902909,0.0791163664996934
-0.554338644968139,0.0845423919097475
-0.547235252731652,0.0899088407240969
-0.539987770249942,0.0952155868510095
-0.532598582579503,0.100462504198753
-0.52507007477683,0.105649466675596
-0.517404631898416,0.110776348189807
-0.509604639000755,0.115843022649652
-0.501672481140342,0.1208493639634
-0.49361054337367,0.125795246039319
-0.485421210757234,0.130680542785678
-0.477106868347528,0.135505128110743
-0.468669901201045,0.140268875922783
-0.460112694374281,0.144971660130066
-0.451437632923728,0.14961335464086
-0.442647101905881,0.154193833363432
-0.433743486377233,0.158712970206052
-0.42472917139428,0.163170639076986
-0.415606542013515,0.167566713884502
-0.406377983291432,0.17190106853687
-0.397045880284526,0.176173576942356
-0.387612618049289,0.180384113009228
-0.378080581642217,0.184532550645755
-0.368452156119804,0.188618763760205
-0.358729726538542,0.192642626260844
-0.348915677954928,0.196604012055943
-0.339012395425453,0.200502795053767
-0.329022264006614,0.204338849162586
-0.318947668754903,0.208112048290667
-0.308790994726815,0.211822266346279
-0.298554626978844,0.215469377237688
-0.288240950567483,0.219053254873164
-0.277852350549228,0.222573773160974
-0.267391211980571,0.226030806009386
-0.256859919918007,0.229424227326668
-0.246260859418031,0.232753911021088
-0.235596415537136,0.236019731000914
-0.224868973331816,0.239221561174414
-0.214080917858565,0.242359275449856
-0.203234634173878,0.245432747735507
-0.192332507334248,0.248441851939637
-0.181376922396169,0.251386461970512
-0.170370264416136,0.254266451736401
-0.159314918450643,0.257081695145572
-0.148213269556183,0.259832066106292
-0.137067702789251,0.26251743852683
-0.12588060320634,0.265137686315453
-0.114654355863946,0.26769268338043
-0.103391345818561,0.270182303630029
-0.0920939581266805,0.272606420972517
-0.0807645778447977,0.274964909316162
-0.0694055900294071,0.277257642569233
-0.0580193797370026,0.279484494639997
-0.0466083320240782,0.281645339436722
-0.0351748319471282,0.283740050867677
-0.0237212645626464,0.285768502841128
-0.0122500149271269,0.287730569265345
-0.000763468097063874,0.289626124048595
0.0107359908710487,0.291455041099147
0.0222459769207166,0.293217194325267
0.033764104995446,0.294912457635224
0.0452879900387428,0.296540704937287
0.0568152469941128,0.298101810139722
0.0683434908050621,0.299595647150798
0.0798703364150964,0.301022089878783
0.0913933987677219,0.302381012231945
0.102910292806444,0.303672288118552
0.11441863347477,0.304895791446871
0.125916035716204,0.306051396125171
0.137400114474254,0.30713897606172
0.148868484692424,0.308158405164785
0.160318761314221,0.309109557342635
0.17174855928315,0.309992306503538
0.183155493542718,0.310806526555761
0.194537179036431,0.311552091407572
0.205891230707794,0.31222887496724
0.217215263500314,0.312836751143033
0.228506892357496,0.313375593843217
0.239763732222846,0.313845276976062
0.250983398039871,0.314245674449836
0.262163504752076,0.314576660172805
0.273301667302967,0.314838108053239
0.28439550063605,0.315029891999405
0.295442619694831,0.315151885919571
0.306440639422816,0.315203963722005
0.317387174763511,0.315185999314975
0.328279840660421,0.31509786660675
0.339116252057054,0.314939439505596
0.349894023896914,0.314710591919782
0.360610771123508,0.314411197757576
0.371264108680342,0.314041130927246
0.381851651510921,0.313600265337059
0.392371014558752,0.313088474895285
0.402819812767339,0.31250563351019
0.413195661080191,0.311851615090043
0.423496174440812,0.311126293543111
0.433718967792707,0.310329542777663
0.443861656079384,0.309461236701967
0.453921854244349,0.30852124922429
0.463897177231106,0.307509454252901
0.473785239983162,0.306425725696067
0.483583657444023,0.305269937462057
0.493290044557195,0.304041963459138
0.502902016266184,0.302741677595578
0.512417187514496,0.301368953779646
0.521833173245636,0.299923665919609
0.531147588403111,0.298405687923735
0.540358047930427,0.296814893700292
0.549462166771089,0.295151157157548
0.558457559868604,0.293414352203772
0.567341842166477,0.291604352747231
0.576112628608214,0.289721032696192
0.584767534137322,0.287764265958925
0.593304173697306,0.285733926443697
0.601720162231672,0.283629888058775
0.610013114683926,0.281452024712428
0.618180645997574,0.279200210312925
0.626220371116122,0.276874318768532
0.634129904983076,0.274474223987517
0.641906862541942,0.27199979987815
0.649548858736226,0.269450920348697
0.657053508509433,0.266827459307427
0.664418426805071,0.264129290662607
0.671641228566644,0.261356288322506
0.678719528737658,0.258508326195392
0.68565094226162,0.255585278189532
0.692433084082035,0.252587018213194
0.69906356914241,0.249513420174647
0.70554001238625,0.246364357982158
0.711860028757061,0.243139705543996
0.71802123319835,0.239839336768427
0.724021240653621,0.236463125563721
0.729857666066382,0.233010945838146
0.735528124380138,0.229482671499968
0.741030230538395,0.225878176457457
0.746361599484658,0.222197334618879
0.751519846162435,0.218440019892504
0.75650258551523,0.214606106186599
0.76130743248655,0.210695467409431
0.765932002019901,0.20670797746927
0.770373909058788,0.202643510274383
0.774630768546718,0.198501939733037
0.778700195427196,0.194283139753501
0.782579804643729,0.189986984244043
0.786267211139822,0.185613347112931
0.789760029858981,0.181162102268432
0.793055875744713,0.176633123618815
0.796152363740523,0.172026285072348
0.799047108789917,0.167341460537298
0.801737725836401,0.162578523921934
0.804221829823481,0.157737349134523
0.806497035694663,0.152817810083334
0.808560958393453,0.147819780676634
0.810411212863357,0.142743134822692
0.81204541404788,0.137587746429775
0.813461176890529,0.132353489406151
0.81465611633481,0.127040237660089
0.815627847324229,0.121647865099855
0.816373984802291,0.116176245633719
0.816892143712502,0.110625253169949
0.817179938998369,0.104994761616811
0.817234985603397,0.0992846448825741
0.817054898471093,0.0934947768755064
0.816637292544961,0.0876250315038758
0.815979782768509,0.08167528267595
0.815079984085242,0.0756454042999973
0.813935511438666,0.0695352702842854
0.812543979772287,0.0633447545370823
0.810903004029611,0.057073730966656
0.809010199154144,0.0507220734812745
0.806863180089392,0.0442896559892057
0.80445956177886,0.0377763523987176
