0.0905093019536238,-0.806499975425916
0.843297665489375,0.641825037807124
0.180150596905745,-0.445758459601399
-0.307256290243135,0.511525208670506
-0.794663177392014,1.46880887694241
0.531005012475805,-0.687916900456152
0.348114877635739,0.67335114382993
