0.431016669482763,-0.398325431243126
0.425124459040781,-0.389188416348199
0.419264188359113,-0.380134830264732
0.413435766609578,-0.371164416423046
0.407639102963993,-0.362276918253464
0.401874106594174,-0.353472079186308
0.396140686671939,-0.3447496426519
0.390438752369104,-0.336109352080562
0.384768212857486,-0.327550950902616
0.379128977308902,-0.319074182548384
0.37352095489517,-0.310678790448189
0.367944054788105,-0.302364518032352
0.362398186159526,-0.294131108731196
0.356883258181249,-0.285978305975043
0.351399180025091,-0.277905853194215
0.345945860862869,-0.269913493819034
0.340523209866401,-0.262000971279822
0.335131136207502,-0.254168029006902
0.329769549057989,-0.246414410430595
0.324438357589681,-0.238739858981224
0.319137470974394,-0.231144118089111
0.313866798383944,-0.223626931184577
0.308626248990149,-0.216188041697946
0.303415731964826,-0.208827193059539
0.298235156479792,-0.201544128699678
0.293084431706863,-0.194338592048686
0.287963466817857,-0.187210326536884
0.28287217098459,-0.180159075594596
0.27781045337888,-0.173184582652142
0.272778223172543,-0.166286591139845
0.267775389537397,-0.159464844488027
0.262801861645258,-0.15271908612701
0.257857548667944,-0.146049059487117
0.25294235977727,-0.13945450799867
0.248056204145056,-0.13293517509199
0.243198990943116,-0.1264908041974
0.238370629343268,-0.120121138745222
0.23357102851733,-0.113825922165778
0.228800097637118,-0.107604897889391
0.224057745874449,-0.101457809346381
0.21934388240114,-0.0953843999670724
0.214658416389008,-0.0893844131817864
0.21000125700987,-0.083457592420845
0.205372313435543,-0.0776036811145705
0.200771494837844,-0.0718224226932851
0.19619871038859,-0.0661135605873109
0.191653869259597,-0.06047683822697
0.187136880622684,-0.0549119990425845
0.182647653649666,-0.0494187864644766
0.17818609751236,-0.0439969439229685
0.173752121382585,-0.0386462148483822
0.169345634432156,-0.0333663426710398
0.164966545832891,-0.0281570708212637
0.160614764756606,-0.0230181427293758
0.156290200375118,-0.0179493018256983
0.151992761860246,-0.0129502915405532
0.147722358383804,-0.00802085530426296
0.143478899117611,-0.00316073654714946
0.139262293233484,0.00163032130046517
0.135072449903238,0.0063525748082587
0.130909278298692,0.011006280545909
0.126772687591662,0.015591695083094
0.122662586953966,0.0201090749894915
0.118578885557419,0.0245586768347794
0.11452149257384,0.0289407571886355
0.110490317175045,0.0332555726207378
0.10648526853285,0.037503379700764
0.102506255819074,0.0416844349983921
0.098553188205533,0.0457989950832999
0.0946259748640438,0.0498473165251653
0.0907245249664233,0.0538296558936661
0.0868487476844888,0.0577462697584803
0.0829985521900571,0.0615974146892856
0.0791738476549451,0.0653833472557599
0.0753745432509698,0.0691043240275812
0.0716005481499483,0.0727606015744272
0.0678517715236974,0.0763524364659759
0.0641281225440342,0.0798800852719051
0.0604295103827755,0.0833438045618926
0.0567558442117383,0.0867438509056164
0.0531070332027397,0.0900804808727543
0.0494829865275965,0.0933539510329841
0.0458836133581257,0.0965645179559838
0.0423088228661443,0.0997124382114311
0.0387585242234693,0.102797968369004
0.0352326266019176,0.10582136499838
0.0317310391733062,0.108782884669238
0.0282536711094519,0.111682783951255
0.0248004315821719,0.114521319414108
0.0213712297632831,0.117298747627477
0.0179659748246023,0.120015325161038
0.0145845759379466,0.122671308584471
0.011226942275133,0.125266954467451
0.00789298300797837,0.127802519379658
0.00458260730829965,0.130278259890769
0.00129572434791389,0.132694432570462
-0.00196775670136196,0.135051293988415
-0.00520792666771099,0.137349100714306
-0.00842487637931623,0.139588109317812
-0.0116186966643607,0.141768576368612
-0.0147894783510275,0.143890758436384
-0.0179373122674995,0.145954912090805
-0.0210622892419599,0.147961293901552
-0.0241645001025917,0.149910160438305
-0.0272440356775779,0.151801768270741
-0.0303009867951016,0.153636373968537
-0.0333354442833458,0.155414234101372
-0.0363474989704936,0.157135605238924
-0.0393372416847279,0.15880074395087
-0.0423047632542318,0.160409906806887
-0.0452501545071885,0.161963350376655
-0.0481735062717808,0.163461331229851
-0.0510749093761918,0.164904105936153
-0.0539544546486046,0.166291931065238
-0.0568122329172022,0.167625063186785
-0.0596483350101677,0.168903758870471
-0.0624628517556841,0.170128274685975
-0.0652558739819344,0.171298867202973
-0.0680274925171017,0.172415792991145
-0.0707777981893691,0.173479308620167
-0.0735068818269194,0.174489670659718
-0.0762148342579358,0.175447135679476
-0.0789017463106013,0.176351960249118
-0.0815677088130991,0.177204400938322
-0.084212812593612,0.178004714316767
-0.0868371484803232,0.178753156954129
-0.0894408073014157,0.179449985420088
-0.0920238798850724,0.18009545628432
-0.0945864570594766,0.180689826116504
-0.0971286296528111,0.181233351486317
-0.0996504884932591,0.181726288963438
-0.102152124409003,0.182168895117543
-0.104633628228227,0.182561426518312
-0.107095090779114,0.182904139735422
-0.109536602889846,0.183197291338551
-0.111958255388607,0.183441137897376
-0.114360139103579,0.183635935981576
-0.116742344862946,0.183781942160828
-0.119104963494891,0.183879413004811
-0.121448085827597,0.183928605083201
-0.123771802689246,0.183929774965678
-0.126076204908023,0.183883179221919
-0.128361383312109,0.183789074421601
-0.130627428729688,0.183647717134403
-0.132874431988943,0.183459363930002
-0.135102483918057,0.183224271378077
-0.137311675345213,0.182942696048305
-0.139502097098595,0.182614894510364
-0.141673840006384,0.182241123333931
-0.143826994896765,0.181821639088686
-0.14596165259792,0.181356698344305
-0.148077903938032,0.180846557670467
-0.150175839745284,0.180291473636849
-0.15225555084786,0.17969170281313
-0.154317128073942,0.179047501768986
-0.156360662251713,0.178359127074097
-0.158386244209357,0.177626835298139
-0.160393964775057,0.176850883010791
-0.162383914776995,0.17603152678173
-0.164356185043354,0.175169023180635
-0.166310866402318,0.174263628777184
-0.16824804968207,0.173315600141053
-0.170167825710792,0.172325193841922
-0.172070285316668,0.171292666449467
-0.173955519327881,0.170218274533367
-0.175823618572614,0.1691022746633
-0.177674673879049,0.167944923408944
-0.179508776075371,0.166746477339975
-0.181326015989761,0.165507193026073
-0.183126484450403,0.164227327036915
-0.18491027228548,0.162907135942179
-0.186677470323176,0.161546876311543
-0.188428169391672,0.160146804714684
-0.190162460319152,0.158707177721281
-0.1918804339338,0.157228251901012
-0.193582181063798,0.155710283823553
-0.195267792537329,0.154153530058584
-0.196937359182576,0.152558247175782
-0.198590971827722,0.150924691744824
-0.200228721300951,0.14925312033539
-0.201850698430445,0.147543789517156
-0.203456994044388,0.1457969558598
-0.205047698970962,0.144012875933001
-0.206622904038351,0.142191806306436
-0.208182700074737,0.140334003549783
-0.209727177908303,0.13843972423272
-0.211256428367234,0.136509224924925
-0.21277054227971,0.134542762196075
-0.214269610473917,0.132540592615849
-0.215753723778036,0.130502972753925
-0.217222973020252,0.128430159179979
-0.218677449028745,0.126322408463691
-0.220117242631701,0.124179977174738
-0.221542444657302,0.122003121882797
-0.22295314593373,0.119792099157548
-0.22434943728917,0.117547165568667
-0.225731409551803,0.115268577685832
-0.227099153549814,0.112956592078722
-0.228452760111384,0.110611465317013
-0.229792320064698,0.108233453970385
-0.231117924237938,0.105822814608515
-0.232429663459287,0.10337980380108
-0.233727628556928,0.100904678117759
-0.235011910359045,0.09839769412823
-0.236282599693819,0.09585910840217
-0.237539787389436,0.0932891775092572
-0.238783564274076,0.0906881580191695
-0.240014021175924,0.0880563065015848
-0.241231248923163,0.0853938795261809
-0.242435338343975,0.0827011336626356
-0.243626380266543,0.079978325480627
-0.244804465519051,0.0772257115498327
-0.245969684929682,0.0744435484399308
-0.247122129326618,0.0716320927205989
-0.248261889538043,0.0687916009615152
-0.24938905639214,0.0659223297323572
-0.250503720717091,0.0630245356028031
-0.251605973341081,0.0600984751425305
-0.252695905092291,0.0571444049212175
-0.253773606798905,0.0541625815085416
-0.254839169289106,0.0511532614741811
-0.255892683391077,0.0481167013878136
-0.256934239933001,0.0450531578191171
-0.257963929743061,0.0419628873377693
-0.25898184364944,0.0388461465134483
-0.259988072480321,0.0357031919158317
-0.260982707063887,0.0325342801145976
-0.261965838228322,0.0293396676794237
-0.262937556801808,0.0261196111799879
-0.263897953612528,0.0228743671859681
-0.264847119488665,0.0196041922670422
-0.265785145258403,0.016309342992888
-0.266712121749924,0.0129900759331834
-0.267628139791412,0.00964664765760619
-0.268533290211049,0.00627931473583439
-0.269427663837018,0.00288833373754566
-0.270311351497503,-0.000526038767581921
-0.271184444020687,-0.00396354620987067
-0.272047032234752,-0.00742393201964253
-0.272899206967882,-0.0109069396272199
-0.27374105904826,-0.0144123124629246
-0.274572679304068,-0.0179397939570792
-0.27539415856349,-0.0214891275400053
-0.276205587654709,-0.0250600566420253
-0.277007057405908,-0.0286523246934614
-0.27779865864527,-0.0322656751246358
-0.278580482200977,-0.0358998513658703
-0.279352618901214,-0.0395545968474874
-0.280115159574163,-0.0432296549998089
-0.280868195048006,-0.0469247692531573
-0.281611816150928,-0.0506396830378544
-0.282346113711111,-0.0543741397842226
-0.283071178556738,-0.0581278829225838
-0.283787101515992,-0.0619006558832603
-0.284493973417057,-0.0656922020965741
-0.285191885088115,-0.0695022649928476
-0.285880927357349,-0.0733305880024026
-0.286561191052942,-0.0771769145555615
-0.287232767003078,-0.0810409880826462
-0.287895746035939,-0.084922552013979
-0.288550218979709,-0.0888213497798819
-0.289196276662571,-0.0927371248106774
-0.289834009912706,-0.0966696205366871
-0.2904635095583,-0.100618580388234
-0.291084866427534,-0.104583747795639
-0.291698171348592,-0.108564866189225
-0.292303515149656,-0.112561678999314
-0.29290098865891,-0.116573929656228
-0.293490682704537,-0.120601361590289
-0.29407268811472,-0.12464371823182
-0.294647095717642,-0.128700743011142
-0.295213996341485,-0.132772179358578
-0.295773480814434,-0.13685777070445
-0.29632563996467,-0.14095726047908
-0.296870564620378,-0.14507039211279
-0.29740834560974,-0.149196909035902
-0.297939073760938,-0.153336554678738
-0.298462839902157,-0.157489072471621
-0.298979734861579,-0.161654205844873
-0.299489849467387,-0.165831698228815
-0.299993274547765,-0.17002129305377
-0.300490100930895,-0.174222733750061
-0.30098041944496,-0.178435763748008
-0.301464320918143,-0.182660126477935
-0.301941896178628,-0.186895565370163
-0.302413236054597,-0.191141823855015
-0.302878431374234,-0.195398645362812
-0.303337572965721,-0.199665773323877
-0.303790751657242,-0.203942951168532
-0.30423805827698,-0.2082299223271
-0.304679583653117,-0.212526430229901
-0.305115418613837,-0.216832218307259
-0.305545653987322,-0.221147029989495
-0.305970380601756,-0.225470608706933
-0.306389689285322,-0.229802697889892
-0.306803670866203,-0.234143040968697
-0.307212416172582,-0.238491381373669
-0.307616016032642,-0.24284746253513
-0.308014561274565,-0.247211027883402
-0.308408142726536,-0.251581820848808
-0.308796851216737,-0.255959584861669
-0.30918077757335,-0.260344063352309
-0.30956001262456,-0.264734999751047
-0.309934647198549,-0.269132137488209
-0.3103047721235,-0.273535219994114
-0.310670478227596,-0.277943990699085
-0.311031856339021,-0.282358193033445
-0.311388997285957,-0.286777570427515
-0.311741991896587,-0.291201866311618
-0.312090930999095,-0.295630824116076
-0.312435905421663,-0.30006418727121
-0.312777005992474,-0.304501699207344
-0.313114323539712,-0.308943103354799
-0.31344794889156,-0.313388143143897
-0.3137779728762,-0.317836562004961
-0.314104486321816,-0.322288103368312
-0.31442758005659,-0.326742510664274
-0.314747344908706,-0.331199527323167
-0.315063871706347,-0.335658896775314
-0.315377251277695,-0.340120362451037
-0.315687574450934,-0.344583667780658
-0.315994932054248,-0.3490485561945
-0.316299414915818,-0.353514771122885
-0.316601113863827,-0.357982055996134
-0.31690011972646,-0.36245015424457
-0.317196523331899,-0.366918809298515
-0.317490415508327,-0.371387764588291
-0.317781887083927,-0.37585676354422
-0.318071028886882,-0.380325549596625
-0.318357931745376,-0.384793866175827
-0.31864268648759,-0.389261456712149
-0.318925383941709,-0.393728064635913
-0.319206114935915,-0.39819343337744
-0.319484970298391,-0.402657306367054
-0.319762040857321,-0.407119427035075
-0.320037417440887,-0.411579538811828
-0.320311190877272,-0.416037385127632
-0.32058345199466,-0.420492709412811
-0.320854291621233,-0.424945255097687
-0.321123800585175,-0.429394765612582
-0.321392069714669,-0.433840984387817
-0.321659189837897,-0.438283654853716
-0.321925251783043,-0.4427225204406
-0.322190346378289,-0.447157324578791
-0.322454564451819,-0.451587810698612
-0.322717996831816,-0.456013722230385
-0.322980734346463,-0.460434802604431
-0.323242867823943,-0.464850795251074
-0.323504488092438,-0.469261443600634
-0.323765685980133,-0.473666491083434
-0.324026552315209,-0.478065681129797
-0.32428717792585,-0.482458757170045
-0.32454765364024,-0.486845462634499
-0.324808070286561,-0.491225540953482
-0.325068518692995,-0.495598735557315
-0.325329089687727,-0.499964789876322
-0.325589874098939,-0.504323447340823
-0.325850962754814,-0.508674451381143
-0.326112446483536,-0.513017545427601
-0.326374416113287,-0.517352472910521
-0.32663696247225,-0.521678977260225
-0.326900176388608,-0.525996801907034
-0.327164148690545,-0.530305690281272
-0.327428970206244,-0.534605385813259
-0.327694731763887,-0.538895631933319
-0.327961524191657,-0.543176172071773
-0.328229438317738,-0.547446749658944
-0.328498564970313,-0.551707108125153
-0.328768994977565,-0.555956990900723
-0.329040819167676,-0.560196141415976
-0.32931412836883,-0.564424303101234
-0.329589013409209,-0.568641219386819
-0.329865565116998,-0.572846633703054
-0.330143874320378,-0.57704028948026
-0.330424031847533,-0.581221930148759
-0.330706128526646,-0.585391299138874
-0.3309902551859,-0.589548139880928
-0.331276502653479,-0.593692195805241
-0.331564961757564,-0.597823210342136
-0.331855723326339,-0.601940926921935
-0.332148878187987,-0.606045088974961
-0.332444517170692,-0.610135439931535
-0.332742731102636,-0.61421172322198
-0.333043610812002,-0.618273682276618
-0.333347247126973,-0.622321060525771
-0.333653730875733,-0.62635360139976
-0.333963152886464,-0.630371048328909
-0.334275603987349,-0.63437314474354
-0.334591175006572,-0.638359634073973
-0.334909956772315,-0.642330259750532
-0.335232040112762,-0.64628476520354
-0.335557515856095,-0.650222893863317
-0.335886474830498,-0.654144389160185
-0.336219007864154,-0.658048994524468
-0.336555205785245,-0.661936453386488
-0.336895159421955,-0.665806509176566
-0.337238959602467,-0.669658905325024
-0.337586697154963,-0.673493385262185
-0.337938462907628,-0.677309692418371
-0.338294347688643,-0.681107570223903
-0.338294347688643,-0.681107570223903
-0.338644171585048,-0.684850182801814
-0.33897770146702,-0.688501225053521
-0.339294948337448,-0.692061236576922
-0.339595923199222,-0.695530756969918
-0.33988063705523,-0.698910325830409
-0.340149100908362,-0.702200482756295
-0.340401325761507,-0.705401767345476
-0.340637322617554,-0.708514719195852
-0.340857102479394,-0.711539877905322
-0.341060676349914,-0.714477783071787
-0.341248055232005,-0.717328974293147
-0.341419250128555,-0.720093991167302
-0.341574272042454,-0.722773373292152
-0.341713131976591,-0.725367660265596
-0.341835840933856,-0.727877391685534
-0.341942409917137,-0.730303107149868
-0.342032849929324,-0.732645346256496
-0.342107171973307,-0.734904648603318
-0.342165387051974,-0.737081553788235
-0.342207506168214,-0.739176601409146
-0.342233540324918,-0.741190331063952
-0.342243500524974,-0.743123282350552
-0.342237397771272,-0.744975994866846
-0.342215243066701,-0.746749008210735
-0.34217704741415,-0.748442861980118
-0.342122821816509,-0.750058095772895
-0.342052577276666,-0.751595249186966
-0.341966324797511,-0.753054861820232
-0.341864075381934,-0.754437473270591
-0.341745840032823,-0.755743623135945
-0.341611629753068,-0.756973851014193
-0.341461455545558,-0.758128696503235
-0.341295328413183,-0.759208699200971
-0.341113259358831,-0.7602143987053
-0.340915259385392,-0.761146334614124
-0.340701339495756,-0.762005046525342
-0.340471510692811,-0.762791074036854
-0.340225783979447,-0.763504956746559
-0.339964170358553,-0.764147234252358
-0.339686680833019,-0.764718446152151
-0.339393326405733,-0.765219132043838
-0.339084118079585,-0.765649831525318
-0.338759066857464,-0.766011084194492
-0.33841818374226,-0.76630342964926
-0.338061479736862,-0.766527407487521
-0.337688965844158,-0.766683557307176
-0.337300653067039,-0.766772418706124
-0.336896552408394,-0.766794531282266
-0.336476674871112,-0.766750434633502
-0.336041031458081,-0.76664066835773
-0.335589633172192,-0.766465772052852
-0.335122491016334,-0.766226285316768
-0.334639615993396,-0.765922747747377
-0.334141019106267,-0.765555698942579
-0.333626711357837,-0.765125678500274
-0.333096703750995,-0.764633226018363
-0.33255100728863,-0.764078881094745
-0.331989632973631,-0.76346318332732
-0.331412591808888,-0.762786672313988
-0.33081989479729,-0.762049887652649
-0.330211552941726,-0.761253368941203
-0.329587577245085,-0.76039765577755
-0.328947978710257,-0.75948328775959
-0.328292768340132,-0.758510804485224
-0.327621957137598,-0.75748074555235
-0.326935556105544,-0.756393650558869
-0.326233576246861,-0.755250059102681
-0.325516028564437,-0.754050510781686
-0.324782924061161,-0.752795545193783
-0.324034273739923,-0.751485701936873
-0.323270088603612,-0.750121520608856
-0.322490379655117,-0.748703540807632
-0.321695157897328,-0.7472323021311
-0.320884434333133,-0.745708344177161
-0.320058219965423,-0.744132206543715
-0.319216525797087,-0.742504428828661
-0.318359362831013,-0.7408255506299
-0.317486742070091,-0.739096111545331
-0.31659867451721,-0.737316651172854
-0.31569517117526,-0.73548770911037
-0.31477624304713,-0.733609824955779
-0.313841901135708,-0.731683538306979
-0.312892156443886,-0.729709388761872
-0.31192701997455,-0.727687915918357
-0.310946502730592,-0.725619659374335
-0.3099506157149,-0.723505158727705
-0.308939369930364,-0.721344953576366
-0.307912776379872,-0.719139583518221
-0.306870846066315,-0.716889588151167
-0.30581358999258,-0.714595507073105
-0.304741019161559,-0.712257879881935
-0.303653144576139,-0.709877246175558
-0.302549977239211,-0.707454145551872
-0.301431528153662,-0.704989117608778
-0.300297808322384,-0.702482701944177
-0.299148828748265,-0.699935438155967
-0.297984600434194,-0.697347865842049
-0.29680513438306,-0.694720524600322
-0.295610441597754,-0.692053954028688
-0.294400533081163,-0.689348693725045
-0.293175419836178,-0.686605283287294
-0.291935112865688,-0.683824262313335
-0.290679623172582,-0.681006170401067
-0.289408961759749,-0.678151547148391
-0.288123139630078,-0.675260932153206
-0.286822167786459,-0.672334865013413
-0.285506057231782,-0.669373885326912
-0.284174818968934,-0.666378532691602
-0.282828464000807,-0.663349346705383
-0.281467003330288,-0.660286866966156
-0.280090447960267,-0.65719163307182
-0.278698808893634,-0.654064184620276
-0.277292097133278,-0.650905061209423
-0.275870323682088,-0.647714802437161
-0.274433499542953,-0.64449394790139
-0.272981635718763,-0.641243037200011
-0.271514743212407,-0.637962609930923
-0.270032833026773,-0.634653205692025
-0.268535916164752,-0.631315364081219
-0.267024003629233,-0.627949624696405
-0.265497106423105,-0.624556527135481
-0.263955235549258,-0.621136610996348
-0.262398402010579,-0.617690415876906
-0.26082661680996,-0.614218481375055
-0.259239890950289,-0.610721347088695
-0.257638235434455,-0.607199552615726
-0.256021661265348,-0.603653637554047
-0.254390179445856,-0.60008414150156
-0.25274380097887,-0.596491604056163
-0.251082536867279,-0.592876564815757
-0.249406398113971,-0.589239563378241
-0.247715395721836,-0.585581139341517
-0.246009540693764,-0.581901832303483
-0.244288844032644,-0.578202181862039
-0.242553316741364,-0.574482727615086
-0.240802969822814,-0.570744009160524
-0.239037814279884,-0.566986566096252
-0.237257861115463,-0.563210938020171
-0.235463121332439,-0.559417664530179
-0.233653605933703,-0.555607285224179
-0.231829325922144,-0.551780339700069
-0.22999029230065,-0.547937367555749
-0.228136516072112,-0.544078908389119
-0.226268008239418,-0.54020550179808
-0.224384779805458,-0.536317687380531
-0.22248684177312,-0.532416004734372
-0.220574205145295,-0.528500993457503
-0.218646880924872,-0.524573193147825
-0.216704880114739,-0.520633143403236
-0.214748213717786,-0.516681383821638
-0.212776892736903,-0.512718454000929
-0.210790928174978,-0.508744893539011
-0.208790331034902,-0.504761242033782
-0.206775112319562,-0.500768039083144
-0.204745283031849,-0.496765824284995
-0.202700854174652,-0.492755137237236
-0.20064183675086,-0.488736517537767
-0.198568241763362,-0.484710504784488
-0.196480080215048,-0.480677638575298
-0.194377363108807,-0.476638458508099
-0.192260101447528,-0.472593504180789
-0.1901283062341,-0.468543315191268
-0.187981988471413,-0.464488431137438
-0.185821159162356,-0.460429391617197
-0.183645829309818,-0.456366736228445
-0.181456009916689,-0.452301004569083
-0.179251711985858,-0.44823273623701
-0.177032946520214,-0.444162470830127
-0.174799724522646,-0.440090747946334
-0.172552056996044,-0.436018107183529
-0.170289954943297,-0.431945088139614
-0.168013429367294,-0.427872230412488
-0.165722491270925,-0.423800073600052
-0.163417151657078,-0.419729157300205
-0.161097421528644,-0.415660021110847
-0.15876331188851,-0.411593204629878
-0.156414833739568,-0.407529247455199
-0.154051998084705,-0.403468689184708
-0.151674815926812,-0.399412069416307
-0.149283298268777,-0.395359927747895
-0.14687745611349,-0.391312803777371
-0.14445730046384,-0.387271237102637
-0.142022842322716,-0.383235767321592
-0.139574092693008,-0.379206934032135
-0.137111062577604,-0.375185276832168
-0.134633762979395,-0.371171335319589
-0.132142204901269,-0.367165649092299
-0.129636399346116,-0.363168757748198
-0.127116357316825,-0.359181200885186
-0.124582089816285,-0.355203518101162
-0.122033607847386,-0.351236248994027
-0.119470922413016,-0.34727993316168
-0.116894044516066,-0.343335110202023
-0.114302985159424,-0.339402319712954
-0.11169775534598,-0.335482101292373
-0.109078366078622,-0.331574994538181
-0.106444828360241,-0.327681539048277
-0.103797153193725,-0.323802274420562
-0.101135351581964,-0.319937740252935
-0.0984594345278475,-0.316088476143297
-0.0957694130342639,-0.312255021689547
-0.093065298104103,-0.308437916489585
-0.0903471007402539,-0.304637700141312
-0.0876148319456061,-0.300854912242626
-0.0848685027230486,-0.297090092391429
-0.082108124075471,-0.293343780185621
-0.0793337070057623,-0.2896165152231
-0.076545262516812,-0.285908837101767
-0.0737428016115091,-0.282221285419523
-0.0709263352927432,-0.278554399774266
-0.0680958745634033,-0.274908719763898
-0.0652514304263789,-0.271284784986317
-0.0623930138845591,-0.267683135039425
-0.0595206359408334,-0.26410430952112
-0.0566343075980908,-0.260548848029303
-0.0537340398592208,-0.257017290161874
-0.0508198437271125,-0.253510175516733
-0.0478917302046554,-0.25002804369178
-0.0449497102947386,-0.246571434284914
-0.0419937950002515,-0.243140886894036
-0.0390239953240832,-0.239736941117046
-0.0360403222691233,-0.236360136551843
-0.0330427868382607,-0.233011012796328
-0.0300314000343849,-0.229690109448401
-0.0270061728603851,-0.226397966105961
-0.0239671163191507,-0.223135122366908
-0.0209142414135708,-0.219902117829143
-0.0178475591465349,-0.216699492090566
-0.0147670805209319,-0.213527784749076
-0.0116728165396516,-0.210387535402573
-0.00856477820558285,-0.207279283648958
-0.00544297652161523,-0.204203569086129
-0.00230742249063773,-0.201160931311988
0.000841872884460124,-0.198151909924435
0.00400489860078926,-0.195177044521368
0.00718164365546012,-0.192236874700689
0.0103720970455838,-0.189331940060297
0.0135762477682706,-0.186462780198092
0.0167940848206317,-0.183629934711974
0.0200255971997773,-0.180833943199843
0.0232707739028187,-0.178075345259599
0.0265296039268661,-0.175354680489142
0.0298020762690305,-0.172672488486372
0.0330881799264225,-0.170029308849189
0.036387903896153,-0.167425681175492
0.0397012371753325,-0.164862145063183
0.0430281687610719,-0.16233924011016
0.0463686876504818,-0.159857505914324
0.049722782840673,-0.157417482073575
0.0530904433287562,-0.155019708185812
0.0564716581118421,-0.152664723848937
0.0598664161870413,-0.150353068660847
0.0632747065514649,-0.148085282219445
0.0666965182022232,-0.145861904122629
0.0701318401364271,-0.143683473968299
0.0735806613511873,-0.141550531354356
0.0770429708436146,-0.139463615878699
0.0805187576108195,-0.137423267139229
0.0840080106499131,-0.135430024733845
0.0875107189580057,-0.133484428260448
0.0910268715322084,-0.131587017316937
0.0945564573696315,-0.129738331501212
0.0980994654673862,-0.127938910411173
0.101655884822583,-0.126189293644721
0.105225704432332,-0.124490020799755
0.108808913293745,-0.122841631474175
0.112405500403933,-0.121244665265881
0.116015454760005,-0.119699661772773
0.119638765359073,-0.118207160592751
0.123275421198247,-0.116767701323715
0.126925411274638,-0.115381823563565
0.130588724585357,-0.114050066910202
0.134265350127515,-0.112772970961524
0.137955276898222,-0.111551075315432
0.141658493894589,-0.110384919569826
0.145374990113727,-0.109275043322605
0.149104754552747,-0.108221986171671
0.152847776208758,-0.107226287714922
0.156604044078872,-0.106288487550259
0.1603735471602,-0.105409125275581
0.164156274449853,-0.104588740488789
0.16795221494494,-0.103827872787783
0.171761357642573,-0.103127061770463
0.175583691539862,-0.102486847034728
0.179419205633919,-0.101907768178478
0.183267888921854,-0.101390364799614
0.187129730400777,-0.100935176496035
0.1910047190678,-0.100542742865642
0.194892843920033,-0.100213603506334
0.198794093954587,-0.0999482980160118
0.202708458168572,-0.0997473659925747
0.206635925559099,-0.0996113470339228
0.21057648512328,-0.0995407807379561
0.214530125858224,-0.0995362067025747
0.218496836761043,-0.0995981645256784
0.222476606828847,-0.0997271938051673
0.226469425058746,-0.0999238341389413
0.230475280447852,-0.1001886251249
0.234494161993276,-0.100522106360944
0.238526058692127,-0.100924817444974
0.242570959541518,-0.101397297974888
0.246628853538557,-0.101940087548587
0.250699729680357,-0.102553725763971
0.254783576964028,-0.103238752218939
0.258880384386681,-0.103995706511393
0.262990140945425,-0.104825128239231
0.267112835637373,-0.105727557000355
0.271248457459635,-0.106703532392663
0.275396995409321,-0.107753594014055
0.279558438483543,-0.108878281462433
0.28373277567941,-0.110078134335695
0.287919995994034,-0.111353692231741
0.292120088424526,-0.112705494748472
0.296333041967995,-0.114134081483788
0.300558845621554,-0.115639992035588
0.304797488382312,-0.117223766001773
0.30904895924738,-0.118885942980242
0.313313247213869,-0.120627062568895
0.31759034127889,-0.122447664365633
0.321880230439554,-0.124348287968356
0.32618290369297,-0.126329472974962
0.330498350036251,-0.128391758983353
0.334826558466506,-0.130535685591428
0.339167517980846,-0.132761792397087
0.343521217576383,-0.13507061899823
0.347887646250226,-0.137462704992758
0.352266792999487,-0.139938589978569
0.356658646821276,-0.142498813553565
0.361063196712704,-0.145143915315645
0.365480431670881,-0.147874434862708
0.369910340692919,-0.150690911792656
0.374352912775928,-0.153593885703388
0.378808136917019,-0.156583896192803
0.383276002113302,-0.159661482858802
0.387756497361889,-0.162827185299286
0.392249611659889,-0.166081543112153
0.396755334004415,-0.169425095895303
0.401273653392575,-0.172858383246638
0.405804558821482,-0.176381944764056
0.410348039288246,-0.179996320045458
0.414904083789977,-0.183702048688743
0.419472681323787,-0.187499670291812
0.424053820886786,-0.191389724452565
0.428647491476084,-0.195372750768901
0.433253682088793,-0.19944928883872
0.437872381722023,-0.203619878259923
0.442503579372884,-0.20788505863041
0.447147264038489,-0.21224536954808
0.451803424715947,-0.216701350610833
0.456472050402369,-0.22125354141657
0.461153130094866,-0.225902481563189
0.465846652790548,-0.230648710648592
0.470552607486526,-0.235492768270679
0.475270983179912,-0.240435194027348
0.480001768867815,-0.245476527516501
0.484744953547346,-0.250617308336037
0.489500526215617,-0.255858076083856
0.494268475869737,-0.261199370357857
0.499048791506818,-0.266641730755942
0.503841462123971,-0.27218569687601
0.508646476718305,-0.277831808315961
0.513463824286932,-0.283580604673695
0.518293493826963,-0.289432625547112
0.523135474335507,-0.295388410534111
0.527989754809677,-0.301448499232594
0.532856324246581,-0.307613431240459
0.537735171643333,-0.313883746155607
0.542626285997041,-0.320259983575937
0.547529656304818,-0.326742683099351
0.552445271563772,-0.333332384323746
0.557373120771016,-0.340029626847025
0.56231319292366,-0.346834950267086
0.567265477018814,-0.35374889418183
0.57222996205359,-0.360771998189156
0.577206637025098,-0.367904801886965
0.582195490930449,-0.375147844873156
0.587196512766753,-0.38250166674563
0.592209691531122,-0.389966807102285
0.597235016220665,-0.397543805541024
0.602272475832494,-0.405233201659744
0.60732205936372,-0.413035535056347
0.612383755811453,-0.420951345328732
0.617457554172803,-0.4289811720748
0.622543443444882,-0.437125554892449
0.627641412624801,-0.445385033379581
0.632751450709669,-0.453760147134094
0.637873546696599,-0.46225143575389
0.643007689582699,-0.470859438836868
0.648153868365082,-0.479584695980928
0.653312072040858,-0.48842774678397
0.658482289607137,-0.497389130843894
0.663664510061031,-0.506469387758599
0.66885872239965,-0.515669057125987
0.674064915620104,-0.524988678543956
0.679283078719505,-0.534428791610408
0.684513200694964,-0.543989935923241
0.68975527054359,-0.553672651080355
0.695009277262495,-0.563477476679652
0.700275209848789,-0.57340495231903
