-0.0309318418537774,-0.571048250878523
-0.02991752243887,-0.563366820158027
-0.0289266331551475,-0.555737372679313
-0.0279589863088962,-0.54815972534847
-0.0270143942064025,-0.540633695071586
-0.0260926691539528,-0.533159098754749
-0.0251936234578335,-0.525735753304048
-0.024317069424331,-0.51836347562557
-0.0234628193597317,-0.511042082625406
-0.022630685570322,-0.503771391209642
-0.0218204803623883,-0.496551218284366
-0.021032016042217,-0.489381380755668
-0.0202651049160945,-0.482261695529636
-0.0195195592903071,-0.475191979512357
-0.0187951914711414,-0.468172049609921
-0.0180918137648836,-0.461201722728415
-0.0174092384778202,-0.454280815773928
-0.0167472779162376,-0.447409145652549
-0.0161057443864222,-0.440586529270364
-0.0154844501946603,-0.433812783533464
-0.0148832076472384,-0.427087725347936
-0.0143018290504428,-0.420411171619868
-0.01374012671056,-0.413782939255348
-0.0131979129338764,-0.407202845160466
-0.0126750000266783,-0.40067070624131
-0.0121712002952522,-0.394186339403967
-0.0116863260458844,-0.387749561554526
-0.0112201895848614,-0.381360189599075
-0.0107726032184695,-0.375018040443703
-0.0103433792529952,-0.368722930994498
-0.00993232999472474,-0.362474678157548
-0.00953926774994465,-0.356273098838942
-0.00916400482494131,-0.350118009944768
-0.00880635352600109,-0.344009228381114
-0.00846612615941039,-0.337946571054069
-0.00814313503145561,-0.33192985486972
-0.00783719244842316,-0.325958896734157
-0.00754811071659942,-0.320033513553467
-0.00727570214227079,-0.314153522233739
-0.00701977903172368,-0.308318739681061
-0.00678015369124447,-0.302528982801522
-0.00655663842711957,-0.29678406850121
-0.00634904554563536,-0.291083813686212
-0.00615718735307825,-0.285428035262618
-0.00598087615573465,-0.279816550136515
-0.00581992425989093,-0.274249175213993
-0.0056741439718335,-0.268725727401139
-0.00554334759784876,-0.263246023604042
-0.0054273474442231,-0.25780988072879
-0.00532595581724293,-0.252417115681471
-0.00523898502319463,-0.247067545368173
-0.00516624736836461,-0.241760986694986
-0.00510755515903926,-0.236497256567997
-0.00506272070150498,-0.231276171893294
-0.00503155630204817,-0.226097549576967
-0.00501387426695522,-0.220961206525102
-0.00500948690251252,-0.215866959643789
-0.00501820651500649,-0.210814625839117
-0.00503984541072352,-0.205804022017172
-0.00507421589594999,-0.200834965084043
-0.00512113027697231,-0.19590727194582
-0.00518040086007688,-0.191020759508589
-0.00525183995155009,-0.18617524467844
-0.00533525985767834,-0.181370544361461
-0.00543047288474803,-0.17660647546374
-0.00553729133904555,-0.171882854891365
-0.0056555275268573,-0.167199499550425
-0.00578499375446969,-0.162556226347008
-0.0059255023281691,-0.157952852187202
-0.00607686555424192,-0.153389193977096
-0.00623889573897457,-0.148865068622778
-0.00641140518865344,-0.144380293030336
-0.00659420620956493,-0.139934684105859
-0.00678711110799541,-0.135528058755435
-0.00698993219023131,-0.131160233885152
-0.00720248176255901,-0.126831026401098
-0.00742457213126492,-0.122540253209363
-0.00765601560263543,-0.118287731216033
-0.00789662448295692,-0.114073277327198
-0.00814621107851582,-0.109896708448946
-0.0084045876955985,-0.105757841487366
-0.00867156664049138,-0.101656493348544
-0.00894696021948083,-0.0975924809385704
-0.00923058073885327,-0.0935656211635328
-0.00952224050489508,-0.0895757309295197
-0.00982175182389268,-0.0856226271426194
-0.0101289270021324,-0.0817061267089199
-0.0104435783459008,-0.0778260465345099
-0.0107655181614841,-0.0739822035254776
-0.0110945587551687,-0.0701744145879113
-0.0114305124332412,-0.0664024966278993
-0.0117731915019878,-0.0626662665515299
-0.0121224082676949,-0.0589655412648915
-0.012477975036649,-0.0553001376740724
-0.0128397041151364,-0.0516698726851608
-0.0132074078094436,-0.0480745632042452
-0.013580898425857,-0.0445140261374137
-0.0139599882706628,-0.0409880783907548
-0.0143444896501476,-0.0374965368703567
-0.0147342148705978,-0.0340392184823079
-0.0151289762382997,-0.0306159401326965
-0.0155285860595397,-0.0272265187276109
-0.0159328566406042,-0.0238707711731394
-0.0163416002877796,-0.0205485143753704
-0.0167546293073524,-0.0172595652403922
-0.0171717560056089,-0.014003740674293
-0.0175927926888355,-0.0107808575831611
-0.0180175516633186,-0.00759073287308498
-0.0184458452353447,-0.00443318345015296
-0.0188774857112,-0.00130802622045326
-0.019312285397171,0.00178492190992582
-0.0197500565995442,0.00484584403489591
-0.0201906116246058,0.00787492324836875
-0.0206337627786423,0.0108723426442559
-0.0210793223679401,0.0138382853164691
-0.0215271026987856,0.0167729343589202
-0.0219769160774652,0.0196764728655206
-0.0224285748102653,0.0225490839301822
-0.0228818912034723,0.0253909506468166
-0.0233366775633725,0.0282022561093354
-0.0237927461962524,0.0309831834116505
-0.0242499094083983,0.0337339156476734
-0.0247079795060968,0.0364546359113158
-0.0251667687956341,0.0391455272964895
-0.0256260895832967,0.041806772897106
-0.0260857541753709,0.0444385558070771
-0.0265455748781432,0.0470410591203145
-0.0270053639978999,0.0496144659307299
-0.0274649338409275,0.0521589593322348
-0.0279240967135123,0.0546747224187411
-0.0283826649219408,0.0571619382841604
-0.0288404507724993,0.0596207900224043
-0.0292972665714742,0.0620514607273847
-0.029752924625152,0.0644541334930131
-0.030207237239819,0.0668289914132011
-0.0306600167217617,0.0691762175818607
-0.0311110753772664,0.0714959950929033
-0.0315602255126195,0.0737885070402408
-0.0320072794341074,0.0760539365177846
-0.0324520494480165,0.0782924666194466
-0.0328943478606333,0.0805042804391384
-0.0333339869782441,0.0826895610707718
-0.0337707791071352,0.0848484916082583
-0.0342045365535932,0.0869812551455097
-0.0346350716239044,0.0890880347764376
-0.0350621966243552,0.0911690135949539
-0.035485723861232,0.09322437469497
-0.0359054656408211,0.0952543011703978
-0.0363212342694091,0.0972589761151488
-0.0367328420532822,0.0992385826231348
-0.037140101298727,0.101193303788267
-0.0375428243120297,0.103123322704458
-0.0379408233994768,0.105028822465619
-0.0383339108673547,0.106909986165662
-0.0387218990219497,0.108766996898498
-0.0391046001695484,0.110600037758039
-0.039481826616437,0.112409291838197
-0.0398533906689019,0.114194942232884
-0.0402191046332296,0.11595717203601
-0.0405787808157065,0.117696164341489
-0.040932231522619,0.11941210224323
-0.0412792690602534,0.121105168835147
-0.0416197057348961,0.122775547211151
-0.0419533538528336,0.124423420465153
-0.0422800257203522,0.126048971691066
-0.0425995336437384,0.1276523839828
-0.0429116899292785,0.129233840434268
-0.043216306883259,0.130793524139382
-0.0435131968119661,0.132331618192052
-0.0438021720216865,0.133848305686191
-0.0440830448187063,0.13534376971571
-0.0443556275093121,0.136818193374521
-0.0446197323997901,0.138271759756536
-0.044875171796427,0.139704651955666
-0.0451217580055089,0.141117053065824
-0.0453593033333223,0.142509146180919
-0.0455876200861536,0.143881114394866
-0.0458065205702893,0.145233140801574
-0.0460158170920156,0.146565408494957
-0.0462153219576191,0.147878100568924
-0.046404847473386,0.149171400117389
-0.0465842059456029,0.150445490234263
-0.046753209680556,0.151700554013457
-0.0469116709845319,0.152936774548884
-0.0470594021638168,0.154154334934454
-0.0471962155246972,0.15535341826408
-0.0473219233734595,0.156534207631673
-0.04743633801639,0.157696886131145
-0.0475392717597752,0.158841636856407
-0.0476305369099015,0.159968642901372
-0.0477099457730553,0.161078087359951
-0.0477773106555229,0.162170153326056
-0.0478324438635908,0.163245023893597
-0.0478751577035454,0.164302882156488
-0.047905264481673,0.16534391120864
-0.0479225765042601,0.166368294143964
-0.047926906077593,0.167376214056372
-0.0479180655079582,0.168367854039776
-0.047895867101642,0.169343397188087
-0.0478601231649309,0.170303026595217
-0.0478106460041111,0.171246925355078
-0.0477472479254693,0.172175276561582
-0.0476697412352916,0.17308826330864
-0.0475779382398646,0.173986068690163
-0.0474716512454747,0.174868875800064
-0.0473506925584081,0.175736867732255
-0.0472148744849514,0.176590227580646
-0.0470640093313909,0.17742913843915
-0.046897909404013,0.178253783401678
-0.0467163870091041,0.179064345562142
-0.0465192544529506,0.179861008014454
-0.046306324041839,0.180643953852525
-0.0460774080820555,0.181413366170267
-0.0458323188798866,0.182169428061592
-0.0455708687416188,0.182912322620411
-0.0452928699735383,0.183642232940636
-0.0449981348819316,0.184359342116178
-0.0446864757730852,0.185063833240951
-0.0443577049532853,0.185755889408864
-0.0440116347288184,0.18643569371383
-0.0436480774059708,0.18710342924976
-0.0432668452910291,0.187759279110567
-0.0428677506902795,0.188403426390162
-0.0424506059100085,0.189036054182456
-0.0420152232565025,0.189657345581361
-0.0415614150360478,0.190267483680789
-0.0410889935549309,0.190866651574651
-0.0405977711194381,0.19145503235686
-0.040087560035856,0.192032809121327
-0.0395581726104707,0.192600164961963
-0.0390094211495689,0.193157282972681
-0.0384411179594367,0.193704346247392
-0.0378530753463608,0.194241537880007
-0.0372451056166273,0.194769040964439
-0.0366170210765228,0.195287038594598
-0.0359686340323336,0.195795713864398
-0.0352997567903462,0.196295249867748
-0.0346102016568469,0.196785829698562
-0.0338997809381221,0.197267636450751
-0.0331683069404583,0.197740853218226
-0.0324155919701418,0.198205663094899
-0.0316414483334589,0.198662249174682
-0.0308456883366963,0.199110794551486
-0.0300281242861401,0.199551482319224
-0.0291885684880768,0.199984495571806
-0.0283268332487929,0.200410017403145
-0.0274427308745746,0.200828230907152
-0.0265360736717085,0.201239319177739
-0.0256066739464808,0.201643465308817
-0.0246543440051781,0.202040852394299
-0.0236788961540866,0.202431663528096
-0.0226801426994928,0.20281608180412
-0.0216578959476832,0.203194290316281
-0.020611968204944,0.203566472158493
-0.0195421717775617,0.203932810424666
-0.0184483189718226,0.204293488208713
-0.0173302220940133,0.204648688604545
-0.01618769345042,0.204998594706073
-0.0150205453473292,0.20534338960721
-0.0138285900910272,0.205683256401867
-0.0126116399878006,0.206018378183956
-0.0113695073439355,0.206348938047388
-0.0101020044657185,0.206675119086076
-0.00880894365943598,0.20699710439393
-0.00749013723137436,0.207315077064863
-0.00614539748781992,0.207629220192786
-0.00477453673505919,0.20793971687161
-0.00337736727937844,0.208246750195249
-0.0019537014270642,0.208550503257612
-0.000503351484402732,0.208851159152613
0.00097387024231943,0.209148900974162
0.00247815144681608,0.209443911816171
0.00400967982280059,0.209736374772552
0.00556864306398673,0.210026472937217
0.00715522886408801,0.210314389404078
0.00876962491681811,0.210600307267045
0.0104120189158905,0.210884409620031
0.012082598555019,0.211166879556948
0.013781551527917,0.211447900171706
0.0155090655282983,0.211727654558218
0.0172653282498763,0.212006325810396
0.0190505273863647,0.212284097022151
0.0208648506314771,0.212561151287394
0.0227084856789272,0.212837671700038
0.0245816202224283,0.213113841353994
0.0264844419556944,0.213389843343174
0.0284171385724388,0.21366586076149
0.0303798977663753,0.213942076702853
0.0323729072312174,0.214218674261174
0.0343963546606787,0.214495836530367
0.0364504277484728,0.214773746604341
0.0385353141883134,0.21505258757701
0.0406512016739139,0.215332542542284
0.0427982778989882,0.215613794594075
0.0449767305572496,0.215896526826296
0.0471867473424119,0.216180922332857
0.0494285159481886,0.21646716420767
0.0517022240682935,0.216755435544647
0.0540080593964398,0.217045919437701
0.0563462096263415,0.217338798980741
0.058716862451712,0.217634257267681
0.061120205566265,0.217932477392431
0.063556426663714,0.218233642448904
0.0660257134377728,0.218537935531011
0.0685282535821547,0.218845539732664
0.0710642347905736,0.219156638147774
0.0736338447567428,0.219471413870254
0.0762372711743763,0.219790049994014
0.0788747017371872,0.220112729612967
0.0815463241388896,0.220439635821024
0.0842523260731968,0.220770951712097
0.0869928952338226,0.221106860380098
0.0897682193144803,0.221447544918938
0.0925784860088838,0.221793188422529
0.0954238830107465,0.222143973984783
0.0983045980137822,0.222500084699611
0.101220818711704,0.222861703660924
0.104172732798227,0.223229013962636
0.107160527967063,0.223602198698657
0.110184391911926,0.223981440962899
0.11324451232653,0.224366923849274
0.233967358025832,0.323126199446437
0.231793642537639,0.115690866611841
0.233538085962217,0.124131623528293
0.230349596723185,0.345351574638275
0.129095530725641,0.226394355900048
0.0303119774382727,0.340995811229983
0.0259286756928972,0.34485967096388
0.0242980542849607,0.111086399153759
0.030963258610348,0.342641412619863
0.145881114925315,0.228605267590893
0.149352444292167,0.2290714815189
0.0533130018512432,0.324942183379037
0.156410817102497,0.230029405716042
0.0559284312802036,0.350195954723628
0.266923078266481,0.122101150950242
0.264158729035235,0.344191587962737
0.279402307429474,0.134804981027698
0.292836553881816,0.349366640417535
0.178525162093875,0.233120331798155
0.182349827583154,0.233669076848639
0.298477516802019,0.124004082019529
0.0893682307483751,0.326561436569967
0.0928296921002524,0.329661721515667
0.101783309657868,0.12659430507941
0.320118092261378,0.13692922623376
0.297695963752941,0.119269857200156
0.115068880068,0.134614641179507
0.214410047127485,0.238437498535096
0.218603251929993,0.239083605314903
0.115983797655771,0.148177240676196
0.112566313892489,0.131712729532386
0.231434940799266,0.241093058666868
0.235796820888651,0.241787197768078
0.24020133903404,0.242493802684417
0.244648682929146,0.243213056509798
0.249139040267682,0.243945142338133
0.253672598743363,0.244690243263332
0.258249546049902,0.245448542379308
0.262870069881012,0.246220222779973
0.267534357930407,0.247005467559237
0.272242597891801,0.247804459811014
0.276994977458906,0.248617382629214
0.281791684325438,0.249444419107748
0.286632906185109,0.25028575234053
0.291518830731634,0.25114156542147
0.296449645658725,0.252012041444481
0.301425538660096,0.252897363503473
0.306446697429461,0.253797714692358
0.311513309660533,0.254713278105049
0.316625563047027,0.255644236835457
0.321783645282655,0.256590773977493
0.326987744061131,0.25755307262507
0.332238047076169,0.258531315872098
0.337534742021483,0.259525686812491
0.342878016590786,0.260536368540158
0.348268058477792,0.261563544149013
0.353705055376213,0.262607396732966
0.359189194979765,0.263668109385929
0.36472066498216,0.264745865201815
0.370299653077112,0.265840847274534
0.375926346958335,0.266953238697998
0.381600934319542,0.26808322256612
0.387323602854448,0.269230981972811
0.393094540256764,0.270396700011982
0.398913934220206,0.271580559777545
0.404781972438486,0.272782744363411
0.410698842605319,0.274003436863494
0.416664732414418,0.275242820371703
0.422679829559496,0.276501077981952
0.428744321734267,0.277778392788151
0.434858396632445,0.279074947884212
0.441022241947743,0.280390926364047
0.447236045373876,0.281726511321568
0.453499994604555,0.283081885850686
0.459814277333496,0.284457233045313
0.466179081254412,0.28585273599936
0.472594594061016,0.28726857780674
0.479061003447022,0.288704941561364
0.485578497106143,0.290162010357144
0.485578497106143,0.290162010357144
0.492096827485125,0.291625821243169
0.498565652058053,0.293082317480807
0.504985016059657,0.29453154148239
0.511354964724661,0.295973535660245
0.517675543287795,0.297408342426704
0.523946796983785,0.298836004194096
0.530168771047358,0.30025656337475
0.536341510713243,0.301670062380996
0.542465061216165,0.303076543625164
0.548539467790853,0.304476049519584
0.554564775672033,0.305868622476586
0.560541030094433,0.307254304908499
0.56646827629278,0.308633139227653
0.572346559501801,0.310005167846377
0.578175924956224,0.311370433177002
0.583956417890777,0.312728977631858
0.589688083540185,0.314080843623273
0.595370967139176,0.315426073563578
0.601005113922479,0.316764709865103
0.606590569124819,0.318096794940176
0.612127377980925,0.319422371201129
0.617615585725523,0.320741481060291
0.62305523759334,0.322054166929991
0.628446378819105,0.323360471222559
0.633789054637545,0.324660436350325
0.639083310283385,0.325954104725619
0.644329190991355,0.32724151876077
0.649526741996181,0.328522720868109
0.65467600853259,0.329797753459964
0.65977703583531,0.331066658948667
0.664829869139068,0.332329479746545
0.669834553678591,0.33358625826593
0.674791134688606,0.334837036919151
0.679699657403842,0.336081858118537
0.684560167059024,0.337320764276419
0.68937270888888,0.338553797805126
0.694137328128138,0.339781001116988
0.698854070011525,0.341002416624335
0.703522979773768,0.342218086739496
0.708144102649594,0.343428053874801
0.712717483873731,0.34463236044258
0.717243168680906,0.345831048855163
0.721721202305846,0.347024161524879
0.726151629983278,0.348211740864059
0.73053449694793,0.349393829285031
0.734869848434529,0.350570469200126
0.739157729677802,0.351741703021673
0.743398185912477,0.352907573162002
0.747591262373281,0.354068122033444
0.75173700429494,0.355223392048326
0.755835456912183,0.356373425618981
0.759886665459736,0.357518265157736
0.763890675172328,0.358657953076922
0.767847531284684,0.359792531788869
0.771757279031532,0.360922043705906
0.775619963647601,0.362046531240364
0.779435630367616,0.363166036804571
0.783204324426305,0.364280602810857
0.786926091058396,0.365390271671553
0.790600975498616,0.366495085798989
0.794229022981692,0.367595087605493
0.79781027874235,0.368690319503395
0.801344788015319,0.369780823905026
0.804832596035326,0.370866643222715
0.808273748037099,0.371947819868792
0.811668289255363,0.373024396255586
0.815016264924847,0.374096414795428
0.818317720280278,0.375163917900647
0.821572700556383,0.376226947983572
0.824781250987889,0.377285547456534
0.827943416809524,0.378339758731863
0.831059243256016,0.379389624221887
0.83412877556209,0.380435186338937
0.837152058962475,0.381476487495343
0.840129138691897,0.382513570103434
0.843060059985085,0.38354647657554
0.845944868076764,0.384575249323991
0.848783608201663,0.385599930761116
0.85157632559451,0.386620563299246
0.85432306549003,0.38763718935071
0.857023873122951,0.388649851327837
0.859678793728001,0.389658591642958
0.862287872539907,0.390663452708402
0.864851154793397,0.391664476936499
0.867368685723196,0.392661706739579
0.869840510564033,0.393655184529971
0.872266674550635,0.394644952720006
0.87464722291773,0.395631053722012
0.876982200900044,0.396613529948321
0.879271653732305,0.397592423811261
0.881515626649239,0.398567777723162
0.883714164885576,0.399539634096354
0.88586731367604,0.400508035343166
0.887975118255361,0.40147302387593
0.890037623858264,0.402434642106973
0.892054875719478,0.403392932448626
0.89402691907373,0.404347937313219
0.895953799155746,0.405299699113082
0.897835561200255,0.406248260260543
0.899672250441983,0.407193663167934
0.901463912115658,0.408135950247583
0.903210591456006,0.409075163911821
0.904912333697756,0.410011346572977
0.906569184075635,0.410944540643381
0.908181187824369,0.411874788535362
0.909748390178687,0.412802132661251
0.911270836373314,0.413726615433377
0.91274857164298,0.41464827926407
0.91418164122241,0.41556716656566
0.915570090346332,0.416483319750476
0.916913964249474,0.417396781230848
0.918213308166562,0.418307593419107
0.919468167332325,0.41921579872758
0.920678586981488,0.420121439568599
0.92184461234878,0.421024558354494
0.922966288668928,0.421925197497593
0.924043661176658,0.422823399410227
0.925076775106699,0.423719206504725
0.926065675693778,0.424612661193417
0.927010408172621,0.425503805888633
0.927911017777957,0.426392683002703
0.928767549744511,0.427279334947956
0.929580049307013,0.428163804136722
0.930348561700188,0.429046132981331
0.931073132158765,0.429926363894113
0.931753805917469,0.430804539287397
0.93239062821103,0.431680701573513
0.932983644274174,0.432554893164791
0.933532899341627,0.433427156473561
0.934038438648119,0.434297533912152
0.934500307428374,0.435166067892893
0.934918550917123,0.436032800828116
0.93529321434909,0.43689777513015
0.935624342959004,0.437761033211323
0.935911981981591,0.438622617483967
0.93615617665158,0.43948257036041
0.936356972203698,0.440340934252984
0.93651441387267,0.441197751574016
0.936628546893226,0.442053064735837
0.936699416500092,0.442906916150777
0.936727067927996,0.443759348231166
0.936711546411663,0.444610403389333
0.936652897185823,0.445460124037608
0.936551165485203,0.446308552588321
0.936406396544529,0.447155731453802
0.936218635598528,0.448001703046379
0.935987927881929,0.448846509778384
0.935714318629458,0.449690194062145
0.935397853075843,0.450532798309993
0.93503857645581,0.451374364934257
0.934636534004087,0.452214936347268
0.934191770955403,0.453054554961353
0.922410356105957,0.452342562459526
0.920130652427221,0.46327776489932
0.892251445208348,0.44455683374693
0.945722598495711,0.458256523517366
0.952621517269709,0.473676036208685
0.930628593271805,0.458074632958926
0.936035237958214,0.466551815595668
0.929101153242541,0.459742292592338
0.92827394038392,0.460575244570944
0.915608041280629,0.461806179501137
0.926492755152334,0.462239604913606
0.913413734485362,0.469594810055206
0.930902875088742,0.430001270419225
0.923504757040009,0.464732922576168
0.910035843357411,0.440273064961704
0.912406178804254,0.431299188471725
0.908645594474204,0.505463875153984
0.918932381587553,0.468053111454764
0.91768452179476,0.468882685231941
0.957794532079131,0.468224045062431
0.915063399736649,0.470541561541637
0.923867746451652,0.487948223743295
0.929799908885682,0.448331334937871
0.937606347975446,0.441062800863232
0.917907166723184,0.469003299098755
0.88451241788169,0.466958238161456
0.906200070682482,0.4755190742012
0.904577496218115,0.476349233851284
0.895817881292813,0.48113313250569
0.875103580791029,0.479594394750792
0.928229018630315,0.496892224143853
0.897673562809202,0.479673068161301
0.895844396742749,0.480505037727875
0.89397404806006,0.481337496514735
0.892062561995863,0.482170486934212
0.890109983784885,0.483004051398636
0.888116358661853,0.483838232320337
0.886081731861495,0.484673072111643
0.884006148618538,0.485508613184885
0.881889654167709,0.486344897952393
0.879732293743735,0.487181968826497
0.877534112581344,0.488019868219525
0.875295155915263,0.488858638543808
0.873015468980219,0.489698322211676
0.87069509701094,0.490538961635458
0.868334085242152,0.491380599227484
0.865932478908583,0.492223277400084
0.863490323244961,0.493067038565587
0.861007663486012,0.493911925136324
0.858484544866464,0.494757979524624
0.855921012621044,0.495605244142817
0.85331711198448,0.496453761403232
0.850672888191498,0.4973035737182
0.847988386476826,0.49815472350005
0.845263652075191,0.499007253161111
0.84249873022132,0.499861205113714
0.839693666149941,0.500716621770189
0.836848505095781,0.501573545542864
0.833963292293568,0.50243201884407
0.831038072978028,0.503292084086137
0.828072892383888,0.504153783681394
0.825067795745877,0.505017160042171
0.822022828298721,0.505882255580797
0.818938035277148,0.506749112709604
0.815813461915884,0.507617773840919
0.812649153449657,0.508488281387074
0.809445155113195,0.509360677760397
0.806201512141225,0.510235005373219
0.802918269768473,0.511111306637869
0.799595473229668,0.511989623966677
0.796233167759536,0.512869999771972
0.792831398592805,0.513752476466085
0.789390210964201,0.514637096461346
0.785909650108453,0.515523902170083
0.782389761260288,0.516412936004628
0.778830589654432,0.517304240377308
0.775232180525613,0.518197857700455
0.771594579108559,0.519093830386398
0.767917830637996,0.519992200847466
0.764201980348653,0.52089301149599
0.760447073475255,0.521796304744299
0.756653155252531,0.522702123004724
0.752820270915207,0.523610508689592
0.748948465698011,0.524521504211236
0.745037784835671,0.525435151981983
0.741088273562913,0.526351494414164
0.737099977114464,0.527270573920109
0.733072940725053,0.528192432912148
0.729007209629406,0.52911711380261
0.724902829062251,0.530044659003824
0.720759844258314,0.530975110928121
0.716578300452323,0.531908511987831
0.712358242879006,0.532844904595283
0.70809971677309,0.533784331162807
0.703802767369301,0.534726834102732
0.699467439902367,0.535672455827389
0.695093779607016,0.536621238749106
0.690681831717975,0.537573225280215
0.68623164146997,0.538528457833045
0.68174325409773,0.539486978819924
0.677216714835981,0.540448830653184
0.672652068919451,0.541414055745154
0.668049361582867,0.542382696508164
0.663408638060957,0.543354795354542
0.658729943588446,0.54433039469662
0.654013323400064,0.545309536946727
0.649258822730537,0.546292264517192
0.644466486814592,0.547278619820346
0.639636360886957,0.548268645268518
0.634768490182359,0.549262383274038
0.629862919935525,0.550259876249235
0.624919695381182,0.551261166606439
0.619938861754058,0.552266296757981
0.614920464288881,0.55327530911619
0.609864548220376,0.554288246093395
0.604771158783272,0.555305150101926
0.599640341212295,0.556326063554114
0.594472140742174,0.557351028862287
0.589266602607635,0.558380088438776
0.584023772043406,0.55941328469591
0.578743694284214,0.560450660046019
0.573426414564785,0.561492256901433
0.568071978119848,0.562538117674482
0.56268043018413,0.563588284777494
0.557251815992358,0.564642800622801
0.551786180779259,0.565701707622732
0.54628356977956,0.566765048189616
0.540744028227989,0.567832864735784
0.535167601359273,0.568905199673564
0.52955433440814,0.569982095415288
0.523904272609315,0.571063594373283
0.518217461197528,0.572149738959882
0.512493945407505,0.573240571587412
0.506733770473973,0.574336134668204
0.50093698163166,0.575436470614587
0.495103624115293,0.576541621838891
0.489233743159599,0.577651630753447
0.483327383999305,0.578766539770583
0.477384591869139,0.57988639130263
0.471405412003828,0.581011227761917
0.465389889638099,0.582141091560774
0.45933807000668,0.583276025111531
0.453249998344297,0.584416070826517
0.447125719885679,0.585561271118063
0.440965279865551,0.586711668398497
0.434768723518643,0.58786730508015
0.42853609607968,0.589028223575352
0.42226744278339,0.590194466296432
0.415962808864501,0.59136607565572
0.409622239557739,0.592543094065545
0.403245780097832,0.593725563938238
0.396833475719508,0.594913527686128
0.390385371657492,0.596107027721545
0.383901513146514,0.597306106456819
0.377381945421299,0.598510806304279
0.370826713716576,0.599721169676255
0.364235863267072,0.600937238985077
0.357609439307513,0.602159056643075
0.350947487072627,0.603386665062579
0.344250051797141,0.604620106655917
0.337517178715783,0.60585942383542
0.330748913063281,0.607104659013418
0.323945300074359,0.608355854602241
0.317106384983748,0.609613053014218
0.310232213026173,0.610876296661678
0.303322829436362,0.612145627956952
0.296378279449043,0.61342108931237
0.289398608298941,0.61470272314026
0.282383861220786,0.615990571852954
0.275334083449303,0.61728467786278
0.268249320219221,0.618585083582069
0.261129616765267,0.619891831423149
0.253975018322167,0.621204963798352
0.246785570124649,0.622524523120006
0.23956131740744,0.623850551800441
0.232302305405269,0.625183092251988
0.225008579352861,0.626522186886975
0.217680184484944,0.627867878117733
0.210317166036246,0.629220208356592
0.202919569241493,0.63057922001588
0.195487439335414,0.631944955507928
0.188020821552734,0.633317457245066
0.180519761128182,0.634696767639623
0.172984303296485,0.63608292910393
0.16541449329237,0.637475984050315
0.157810376350564,0.638875974891108
0.150171997705795,0.64028294403864
0.14249940259279,0.64169693390524
0.134792636246275,0.643117986903238
0.12705174390098,0.644546145444963
0.119276770791629,0.645981451942746
0.111467762152952,0.647423948808916
0.103624763219675,0.648873678455802
0.0957478192265251,0.650330683295735
0.08783697540823,0.651795005741045
0.0798922769995171,0.65326668820406
0.0719137692351132,0.654745773097111
0.0639014973497461,0.656232302832528
0.0558555065781426,0.65772631982264
0.0477758421550303,0.659227866479777
0.0396625493151361,0.660736985216268
0.0315156732931878,0.662253718444445
0.0233352593239121,0.663778108576635
0.0151213526420368,0.665310198025169
0.00687399848228856,0.666850029202378
-0.00140675792060466,0.668397644520589
-0.00972087133191625,0.669953086392135
-0.0180682965169183,0.671516397229342
-0.0264489882408842,0.673087619444543
-0.0348629012690861,0.674666795450066
-0.0433099903667973,0.676253967658242
-0.0517902102992898,0.677849178481399
-0.0603035158318372,0.679452470331868
-0.0688498617297114,0.681063885621978
-0.0774292027581858,0.68268346676406
-0.0860414936825326,0.684311256170443
-0.0946866892680251,0.685947296253456
-0.103364744279935,0.68759162942543
-0.112075613483537,0.689244298098694
-0.120819251644101,0.690905344685578
-0.129595613526903,0.692574811598411
-0.138404653897213,0.694252741249525
-0.147246327520305,0.695939176051247
-0.156120589161451,0.697634158415908
-0.165027393585925,0.699337730755838
-0.173966695558998,0.701049935483366
-0.182938449845945,0.702770815010823
-0.191942611212036,0.704500411750537
-0.200979134422547,0.706238768114839
-0.210047974242747,0.707985926516058
-0.219149085437912,0.709741929366525
-0.228282422773312,0.711506819078568
-0.237447941014222,0.713280638064518
-0.246645594925914,0.715063428736705
-0.25587533927366,0.716855233507458
-0.265137128822734,0.718656094789106
-0.274430918338407,0.72046605499398
-0.283756662585953,0.72228515653441
-0.293114316330645,0.724113441822725
-0.302503834337755,0.725950953271254
-0.311925171372556,0.727797733292328
-0.321378282200321,0.729653824298277
-0.330863121586322,0.731519268701429
-0.340379644295832,0.733394108914116
-0.349927805094124,0.735278387348665
-0.35950755874647,0.737172146417409
-0.369118860018144,0.739075428532675
