0.473037580695957,0.534932547626186
-0.550328700064341,-0.74107141977178
0.346699090427396,0.338191300816322
-0.594614201164849,-0.0107671269572454
-1.53592749275709,-0.359725554730813
0.809067509596915,0.106230979590382
0.971834929234108,0.215879551733693
