-0.257387986080862,0.101289113939883
-0.276537188750358,0.0933720140509092
-0.243724012508251,0.103729923125197
-0.277784785259617,0.139607576461105
-0.234775327830548,0.098985568642205
-0.200712774962128,0.0602042043124547
-0.218698774148625,0.0859892110063269
-0.210752726636742,0.0795400353606714
-0.194829589721199,0.0462932717667297
-0.150108123477767,0.0479720733573211
-0.187281342100247,0.0603894812143506
-0.171380538245724,0.0478220270780067
-0.168148077301819,0.0424571423843179
-0.159715946416293,0.0513393594841621
-0.149374097950797,0.029133267446857
-0.141972789144743,0.0229819512409478
-0.134631107146075,0.01686413057064
-0.114427160064958,0.0163168206253265
-0.136078684280111,0.0280674376071548
-0.142054209371615,-0.00500493863045244
-0.0911470315253702,0.00823197854712375
-0.119683118730207,0.00417665108987601
-0.0918231012957681,-0.0191349067298581
-0.0983127072722959,-0.0418302710844532
-0.0594859107787503,-0.00555019961806283
-0.0560479906733755,-0.0319724699866791
-0.0458233475436228,-0.0622113469000137
-0.0392267300248,-0.0479646362940924
-0.05895700015341,-0.0495407939250377
-0.0864466039607653,-0.0946820829796399
-0.0234164552201797,-0.0383901058217236
-0.0348531130378083,-0.0996842948615866
-0.0531038040247487,-0.0582116191640404
0.000577080172797766,-0.0930072598283966
0.00632959650438516,-0.0893212182449049
-0.00066545619810058,-0.105750646005145
0.0121645193835832,-0.109091616547427
0.0181844491070539,-0.114416957564146
0.0254169210017802,-0.122269601718105
0.0409321813959704,-0.129720945009895
0.0450651234175225,-0.0930609682535208
0.0379676964455944,-0.176897494501727
0.0645382771684241,-0.131328626815539
0.0486425478008389,-0.106007650327758
0.058785405138929,-0.150698223525999
0.0444503899770202,-0.176208645814736
0.0541192064024215,-0.156893632694038
0.0701750361667936,-0.187963360638864
0.0749447633722108,-0.16627542656934
0.0948187673343253,-0.158686134129105
0.091475991050409,-0.180394435487571
0.0787812144326816,-0.193840312738728
0.101947182325404,-0.190002379442908
0.10710377445143,-0.194751467626537
0.112207937493938,-0.199463859936194
0.123205824369813,-0.190399113956381
0.122259696100786,-0.208778236899757
0.132502141893105,-0.223804856091863
0.179912148189963,-0.209782538532289
0.129316173932316,-0.250186569578618
0.127117361929784,-0.241108400970808
0.151175387998949,-0.235832345935358
0.147807038640405,-0.237713267033569
0.165887770166995,-0.202911863102217
0.173563204234448,-0.23340408471974
0.161161362257781,-0.251690816966671
0.210399415251582,-0.269663841584926
0.177892828485658,-0.269656237067539
0.195322634107697,-0.277920717417291
0.199464833751731,-0.281920686514225
0.212899420154905,-0.243092010950158
0.208547276438054,-0.299679005751905
0.186160919382353,-0.315042405160404
0.243121015295309,-0.313701033740372
0.24988943729075,-0.335571972175499
0.234568863748349,-0.31618748542945
0.203027540532674,-0.309615110089074
0.241845822692818,-0.323375205871094
0.245413935922223,-0.326910341891832
0.241765867368035,-0.327898811893541
0.257360854443524,-0.317351586030784
0.29689954559126,-0.341774215708295
0.269047271528799,-0.309312113033781
0.265848824314139,-0.347293978682156
0.281376213915655,-0.357861887105632
0.27229380441833,-0.353771488139107
0.275448357459402,-0.356950438553299
0.30082995890639,-0.389203797311117
0.251526974403486,-0.374067132563119
0.27127239968994,-0.398713835443267
0.266527547929067,-0.336724982665302
0.314031167537202,-0.357954949443027
0.293435893966595,-0.375181840105544
0.267796819128138,-0.381990486643558
0.298337084527019,-0.387992561350504
0.304545750570635,-0.386528049155357
0.282671844463931,-0.390678975384953
0.309840447186749,-0.391956815881736
0.273146043878321,-0.387740215694695
0.347235141232383,-0.365297656190979
0.324700884828752,-0.407258084054675
0.320738271728121,-0.41395749187122
0.322189769024717,-0.409871551988639
0.355410156324321,-0.419153521649476
0.340138325157737,-0.423223905153538
0.342180022874845,-0.425337471077632
0.331850592597465,-0.436349936757435
0.346142479564042,-0.429438353595135
0.348063598422323,-0.431425510171624
0.351786516881735,-0.435272853917784
0.353588676369059,-0.437132881070536
0.363048327868773,-0.485602707154902
0.378054840422788,-0.472814859843618
0.344926936579094,-0.412918742643405
0.363582773314747,-0.44739697736952
0.365113658944888,-0.448957568904143
0.366606510939247,-0.450475063888054
0.350337887429034,-0.440242376776424
0.369478833793006,-0.4533804441699
0.373643948166708,-0.431364244287379
0.372201181420797,-0.456112478147384
0.35263583075332,-0.46609859152785
0.398907629638975,-0.47089939906929
0.388790247229524,-0.452481436351417
0.378360355889239,-0.462179972565403
0.365044273641851,-0.449726182237381
0.358696688005577,-0.457215313405832
0.383613675237305,-0.467150051100791
0.357871753540614,-0.456663824529231
0.362702414579515,-0.456476842985374
0.367278780326712,-0.482795336378818
0.399740795862249,-0.45147497884512
0.390858692456054,-0.473298781065019
0.420423512061767,-0.460042169956742
0.394163431430111,-0.475375780837104
0.416088817859534,-0.490223426901213
0.405186644354533,-0.490445595385159
0.393404607212573,-0.455361332247235
0.395711484647238,-0.475851578041476
0.405906809993975,-0.481293802998292
0.374015019910996,-0.481685955813386
0.396536781269056,-0.475727629171925
0.390421340178901,-0.477052061814536
0.416002857227239,-0.451460927358062
0.398916907597489,-0.500842773653188
0.397337814963927,-0.47286007100959
0.397275638199843,-0.472308635516261
0.405520512510949,-0.46484538450439
0.402613938426871,-0.448430279680043
0.410543229219205,-0.481145902680144
0.391421606092152,-0.455943193164176
0.390137733792636,-0.47304655854433
0.395056864106916,-0.464203947030817
0.40700744975945,-0.441904994417238
0.394274028557995,-0.46201368520974
0.41113930375099,-0.429972704601918
0.39907135662413,-0.445074880328862
0.41493765156821,-0.459627905669469
0.391840291311042,-0.455699832137354
0.390679915867431,-0.452837331322877
0.389414910858222,-0.449781322072306
0.388743622124259,-0.448180551762337
0.388046715828187,-0.446531164317966
0.386416650928524,-0.419073681645902
0.385804090998278,-0.441290499093852
0.377233730824938,-0.42967004278709
0.368669517576232,-0.423656615396386
0.380651459479554,-0.429485704874783
0.368700941657631,-0.440323875948278
0.381650349876211,-0.431776488169715
0.374641375239694,-0.415901890771926
0.38594761398359,-0.428451157437281
0.377199089128197,-0.422404019177812
0.392783086151671,-0.38233437090909
0.375988030634419,-0.404358355743637
0.256389771131079,-0.238080209924938
0.451104480030557,-0.465852609206705
0.445975147825853,-0.448255894055337
0.297257405890035,-0.502835528028075
0.45510343761847,-0.455260141526481
0.253283719053597,-0.490474645269786
0.350707788284314,-0.343301274126372
0.444125597329779,-0.449985888374531
0.468623318219462,-0.442995993367036
0.327518350314567,-0.359786857566855
0.335706918336715,-0.335910985996302
0.445269246595543,-0.236501262930043
0.468785046651912,-0.451121225611956
0.282266925634291,-0.435984991443443
0.223452763914762,-0.437050605701874
0.227883045415118,-0.202268271638786
0.407238818327612,-0.215832342360384
0.236777252485489,-0.235348612035484
0.324515751771822,-0.300306758787858
0.432813738810797,-0.378167233794487
0.434993386347042,-0.398852154565304
0.443963373811343,-0.149812000340671
0.470291820018297,-0.171549530574473
0.396352899076076,-0.168383456813112
0.308062311476064,-0.260285472760654
0.399682871974258,-0.367963479882782
0.213996504746819,-0.361505208841269
0.395099975151516,-0.134258420129625
0.275615851319241,-0.209672375181681
0.280130178561427,-0.189408429648901
0.272553188339158,-0.1647394968985
0.289481184371949,-0.204289929072352
0.269777857034798,-0.148290394016629
0.25867365140105,-0.132250240390436
0.25646726674299,-0.126231383456781
0.252023710173297,-0.114027336020697
0.249786898147856,-0.107841985501348
0.246865726731152,-0.0812092295289144
0.234617213979881,-0.0958092593527481
0.238367579267702,-0.0495321378346993
0.248531264077589,-0.0576205598533106
0.2460950738953,-0.0231176776957654
0.207249309392205,-0.00404275184408179
0.215161577548419,-0.0083379775159716
0.212789837580984,-0.00125249992045001
0.207980874186978,0.0728471869828099
0.236170249791043,0.103400767568686
0.176486088597299,0.1119070304493
0.151273451855498,0.114167014771601
0.175378133217745,0.139396314195703
0.168284923510857,0.204179719484409
0.170877341187714,0.200877718042791
0.178394883822236,0.174608202011555
0.143569217566485,0.235710009449564
0.112306792319647,0.27073093054479
0.15546927319065,0.273412674526977
0.12137750193059,0.344114589587683
0.0999936587597189,0.396319872655026
0.0707195858827182,0.386155906645702
0.0840894449281392,0.490976549209738
0.0717415311019837,0.499207001457141
0.0360759034423248,0.5329475993997
0.0696586946424788,0.577949440026328
0.0544991556195563,0.574143905155587
0.0374828111658055,0.652121678076332
0.0278844215714244,0.698056254798495
-0.0124430774328419,0.757138213798298
-0.0303226127910156,0.728721340970313
0.00111225031015992,0.875197569514596
