0.767747546932193,-0.369927292854625
0.760944115896151,-0.373511506740502
0.754180097809691,-0.377033173897464
0.74745545898656,-0.380492564911037
0.740770165740502,-0.38388995036675
0.734124184385263,-0.387225600850131
0.727517481234587,-0.390499786946708
0.72095002260222,-0.393712779242007
0.714421774801908,-0.396864848321558
0.707932704147396,-0.399956264770888
0.701482776952428,-0.402987299175524
0.695071959530751,-0.405958222120994
0.688700218196109,-0.408869304192827
0.682367519262247,-0.411720815976551
0.676073829042912,-0.414513028057692
0.669819113851847,-0.417246211021778
0.663603340002799,-0.419920635454339
0.657426473809513,-0.422536571940901
0.651288481585733,-0.425094291066992
0.645189329645206,-0.42759406341814
0.639128984301676,-0.430036159579873
0.633107411868888,-0.432420850137719
0.627124578660589,-0.434748405677205
0.621180450990523,-0.437019096783859
0.615274995172435,-0.43923319404321
0.60940817752007,-0.441390968040785
0.603579964347175,-0.443492689362111
0.597790321967493,-0.445538628592717
0.592039216694772,-0.44752905631813
0.586326614842755,-0.449464243123879
0.580652482725187,-0.45134445959549
0.575016786655815,-0.453169976318493
0.569419492948383,-0.454941063878414
0.563860567916637,-0.456657992860781
0.558339977874321,-0.458321033851123
0.552857689135182,-0.459930457434967
0.547413668012964,-0.461486534197841
0.542007880821413,-0.462989534725272
0.536640293874274,-0.464439729602789
0.531310873485291,-0.46583738941592
0.526019585968212,-0.467182784750192
0.52076639763678,-0.468476186191132
0.515551274804741,-0.46971786432427
0.510374183785839,-0.470908089735132
0.505235090893822,-0.472047133009247
0.500133962442433,-0.473135264732142
0.495070764745418,-0.474172755489345
0.490045464116522,-0.475159875866384
0.48505802686949,-0.476096896448786
0.480108419318068,-0.476984087822081
0.475196607776001,-0.477821720571794
0.470322558557034,-0.478610065283455
0.465486237974913,-0.479349392542591
0.460687612343382,-0.48003997293473
0.455926647976187,-0.480682077045399
0.451203311187073,-0.481275975460126
0.446517568289786,-0.48182193876444
0.44186938559807,-0.482320237543869
0.437258729425672,-0.482771142383938
0.432685566086335,-0.483174923870178
0.428149861893806,-0.483531852588115
0.423651583161829,-0.483842199123278
0.41919069620415,-0.484106234061194
0.414767167334515,-0.48432422798739
0.410380962866668,-0.484496451487396
0.406032049114354,-0.484623175146738
0.40172039239132,-0.484704669550944
0.397445959011309,-0.484741205285543
0.393208715288068,-0.484733052936062
0.389008627535342,-0.484680483088029
0.384845662066875,-0.484583766326971
0.380719785196414,-0.484443173238417
0.376630963237703,-0.484258974407895
0.372579162504488,-0.484031440420931
0.368564349310514,-0.483760841863054
0.364586489969526,-0.483447449319792
0.360645550795269,-0.483091533376673
0.356741498101489,-0.482693364619225
0.352874298201931,-0.482253213632974
0.34904391741034,-0.48177135100345
0.345250322040461,-0.481248047316179
0.34149347840604,-0.48068357315669
0.337773352820822,-0.480078199110511
0.334089911598552,-0.479432195763169
0.330443121052976,-0.478745833700192
0.326832947497838,-0.478019383507108
0.323259357246885,-0.477253115769445
0.31972231661386,-0.47644730107273
0.31622179191251,-0.475602210002492
0.312757749456579,-0.474718113144258
0.309330155559813,-0.473795281083556
0.305938976535958,-0.472833984405914
0.302584178698758,-0.471834493696859
0.299265728361958,-0.470797079541921
0.295983591839305,-0.469722012526625
0.292737735444543,-0.4686095632365
0.289528125491417,-0.467460002257075
0.286354728293673,-0.466273600173876
0.283217510165055,-0.465050627572432
0.28011643741931,-0.46379135503827
0.277051476370182,-0.462496053156918
0.274022593331417,-0.461164992513905
0.27102975461676,-0.459798443694757
0.268072926539956,-0.458396677285003
0.265152075414751,-0.45695996387017
0.262267167554889,-0.455488574035787
0.259418169274116,-0.453982778367381
0.256605046886177,-0.452442847450479
0.253827766704818,-0.450869051870611
0.251086295043784,-0.449261662213303
0.248380598216819,-0.447620949064083
0.245710642537669,-0.44594718300848
0.24307639432008,-0.444240634632021
0.240477819877797,-0.442501574520233
0.237914885524565,-0.440730273258645
0.235387557574128,-0.438927001432785
0.232895802340233,-0.43709202962818
0.230439586136625,-0.435225628430358
0.228018875277049,-0.433328068424846
0.22563363607525,-0.431399620197174
0.223283834844973,-0.429440554332868
0.220969437899965,-0.427451141417457
0.218690411553969,-0.425431652036467
0.216446722120731,-0.423382356775428
0.214238335913996,-0.421303526219866
0.212065219247511,-0.41919543095531
0.209927338435019,-0.417058341567288
0.207824659790266,-0.414892528641327
0.205757149626998,-0.412698262762955
0.20372477425896,-0.410475814517699
0.201727499999896,-0.408225454491089
0.199765293163553,-0.405947453268651
0.197838120063675,-0.403642081435913
0.195945947014008,-0.401309609578404
0.194088740328297,-0.398950308281651
0.192266466320287,-0.396564448131181
0.190479091303723,-0.394152299712523
0.188726581592351,-0.391714133611204
0.187008903499916,-0.389250220412753
0.185326023340164,-0.386760830702697
0.183677907426838,-0.384246235066563
0.182064522073686,-0.38170670408988
0.180485833594451,-0.379142508358176
0.178941808302879,-0.376553918456978
0.177432412512716,-0.373941204971815
0.175957612537707,-0.371304638488213
0.174517374691597,-0.368644489591701
0.17311166528813,-0.365961028867807
0.171740450641054,-0.363254526902058
0.170403697064112,-0.360525254279982
0.16910137087105,-0.357773481587108
0.167833438375613,-0.354999479408962
0.166599865891546,-0.352203518331073
0.165400619732596,-0.349385868938968
0.164235666212506,-0.346546801818176
0.163104971645022,-0.343686587554224
0.16200850234389,-0.34080549673264
0.160946224622855,-0.337903799938951
0.159918104795661,-0.334981767758686
0.158924109176055,-0.332039670777373
0.157964204077781,-0.329077779580539
0.157038355814585,-0.326096364753712
0.156146530700212,-0.32309569688242
0.155288695048407,-0.32007604655219
0.154464815172915,-0.317037684348551
0.153674857387482,-0.31398088085703
0.152918788005853,-0.310905906663155
0.152196573341774,-0.307813032352455
0.151508179708989,-0.304702528510456
0.150853573421243,-0.301574665722686
0.150232720792283,-0.298429714574674
0.149645588135852,-0.295267945651948
0.149092141765698,-0.292089629540034
0.148572347995563,-0.288895036824461
0.148086173139195,-0.285684438090757
0.147633583510338,-0.282458103924449
0.147214545422738,-0.279216304911065
0.146829025190139,-0.275959311636134
0.146476989126287,-0.272687394685182
0.146158403544928,-0.269400824643739
0.145873234759805,-0.26609987209733
0.145621449084666,-0.262784807631486
0.145403012833255,-0.259455901831732
0.145217892319316,-0.256113425283598
0.145066053856596,-0.25275764857261
0.14494746375884,-0.249388842284297
0.144862088339793,-0.246007277004186
0.1448098939132,-0.242613223317806
0.144790846792807,-0.239206951810683
0.144804913292358,-0.235788733068347
0.1448520597256,-0.232358837676324
0.144932252406276,-0.228917536220143
0.145045457648133,-0.225465099285332
0.145191641764916,-0.222001797457417
0.145370771070369,-0.218527901321928
0.145582811878239,-0.215043681464391
0.145827730502271,-0.211549408470335
0.146105493256209,-0.208045352925287
0.146416066453799,-0.204531785414776
0.146759416408786,-0.201008976524328
0.147135509434916,-0.197477196839473
0.147544311845933,-0.193936716945737
0.147985789955584,-0.190387807428649
0.148459910077612,-0.186830738873736
0.148966638525765,-0.183265781866527
0.149505941613785,-0.179693206992548
0.15007778565542,-0.176113284837328
0.150682136964414,-0.172526285986395
0.151318961854513,-0.168932481025276
0.151988226639461,-0.165332140539499
0.152689897633004,-0.161725535114593
0.153423941148888,-0.158112935336084
0.154190323500857,-0.154494611789501
0.154989011002657,-0.150870835060372
0.155819969968032,-0.147241875734224
0.156683166710729,-0.143608004396585
0.157578567544493,-0.139969491632983
0.158506138783068,-0.136326608028946
0.1594658467402,-0.132679624170001
0.160457657729634,-0.129028810641677
0.161481538065116,-0.125374438029501
0.162537454060391,-0.121716776919001
0.163625372029203,-0.118056097895705
0.164745258285299,-0.114392671545141
0.165897079142423,-0.110726768452836
0.167080800914321,-0.107058659204319
0.168296389914738,-0.103388614385117
0.16954381245742,-0.0997169045807571
0.17082303485611,-0.0960438003767686
0.172134023424556,-0.0923695723586784
0.173476744476501,-0.0886944911120149
0.174851164325692,-0.0850188272223054
0.176257249285873,-0.0813428512750781
0.17769496567079,-0.0776668338558605
0.179164279794188,-0.0739910455501808
0.180665157969812,-0.0703157569435664
0.182197566511408,-0.0666412386215454
0.18376147173272,-0.0629677611696454
0.185356839947494,-0.0592955951733945
0.186983637469476,-0.0556250112183202
0.18864183061241,-0.0519562798899507
0.190331385690042,-0.0482896717738133
0.192052269016117,-0.0446254574554363
0.19380444690438,-0.0409639075203472
0.195587885668577,-0.0373052925540741
0.197402551622452,-0.0336498831421445
0.199248411079751,-0.0299979498700866
0.20112543035422,-0.0263497633234277
0.203033575759603,-0.0227055940876961
0.204972813609646,-0.0190657127484194
0.206943110218094,-0.0154303898911254
0.208944431898692,-0.0117998961013419
0.210976744965186,-0.00817450196459699
0.21304001573132,-0.00455447806641801
0.21513421051084,-0.000940094992333246
0.217259295617492,0.00266837667212984
0.21941523736502,0.00627066634144312
0.22160200206717,0.00986650343007914
0.223819556037687,0.0134556173525096
0.226067865590316,0.0170377375232073
0.228346897038802,0.0206125933566438
0.230656616696892,0.0241799142672919
0.232996990878329,0.0277394296696231
0.23536798589686,0.0312908689781102
0.237769568066229,0.034833961607225
0.240201703700182,0.0383684369714398
0.242664359112464,0.0418940244852268
0.24515750061682,0.0454104535630583
0.247681094526996,0.0489174536194061
0.250235107156736,0.0524147540687428
0.252819504819786,0.0559020843255403
0.255434253829892,0.0593791738042711
0.258079320500798,0.062845751919407
0.26075467114625,0.0663015480854205
0.263460272079993,0.0697462917167836
0.266196089615773,0.0731797122279686
0.268962090067333,0.0766015390334474
0.271758239748421,0.0800115015476927
0.27458450497278,0.0834093291851762
0.277440852054157,0.0867947513603704
0.280327247306296,0.0901674974877471
0.283243657042944,0.093527296981779
0.286190047577844,0.0968738792569378
0.289166385224742,0.100206973727696
0.292172636297384,0.103526309808526
0.295208767109515,0.106831616913899
0.298274743974879,0.110122624458288
0.301370533207223,0.113399061856166
0.304496101120292,0.116660658522003
0.30765141402783,0.119907143870273
0.310836438243583,0.123138247315447
0.314051140081297,0.126353698271999
0.317295485854716,0.129553226154399
0.320569441877585,0.13273656037712
0.323872974463651,0.135903430354635
0.327206049926658,0.139053565501415
0.330568634580352,0.142186695231932
0.333960694738477,0.14530254896066
0.33738219671478,0.14840085610207
0.340833106823004,0.151481346070634
0.344313391376897,0.154543748280824
0.347823016690202,0.157587792147113
0.351361949076665,0.160613207083973
0.354930154850031,0.163619722505875
0.358527600324046,0.166607067827293
0.362154251812454,0.169574972462698
0.365810075629002,0.172523165826563
0.369495038087434,0.175451377333359
0.373209105501495,0.17835933639756
0.376952244184932,0.181246772433636
0.380724420451488,0.18411341485606
0.384525600614909,0.186958993079305
0.388355750988941,0.189783236517843
0.392214837887329,0.192585874586145
0.396102827623818,0.195366636698685
0.400019686512153,0.198125252269933
0.40396538086608,0.200861450714363
0.407939876999343,0.203574961446447
0.411943141225689,0.206265513880656
0.415975139858861,0.208932837431463
0.420035839212607,0.21157666151334
0.42412520560067,0.214196715540759
0.428243205336796,0.216792728928193
0.43238980473473,0.219364431090113
0.436564970108218,0.221911551440992
0.440768667771005,0.224433819395302
0.445000864036836,0.226930964367516
0.449261525219456,0.229402715772104
0.453550617632611,0.231848803023541
0.457868107590045,0.234268955536297
0.462213961405504,0.236662902724845
0.466588145392734,0.239030374003657
0.470990625865479,0.241371098787205
0.475421369137485,0.243684806489962
0.479880341522497,0.245971226526399
0.484367509334261,0.248230088310989
0.488882838886521,0.250461121258204
0.493426296493022,0.252664054782517
0.497997848467511,0.254838618298398
0.502597461123732,0.256984541220321
0.507225100775431,0.259101552962758
0.511880733736352,0.261189382940181
0.516564326320242,0.263247760567063
0.521275844840845,0.265276415257874
0.526015255611906,0.267275076427088
0.530782524947171,0.269243473489176
0.535577619160385,0.271181335858611
0.540400504565294,0.273088392949866
0.545251147475641,0.274964374177411
0.550129514205174,0.27680900895572
0.555035571067637,0.278622026699265
0.559969284376775,0.280403156822517
0.564930620446334,0.282152128739949
0.569919545590058,0.283868671866033
0.574936026121694,0.285552515615242
0.579980028354986,0.287203389402047
0.585051518603679,0.288821022640921
0.590150463181519,0.290405144746335
0.595276828402251,0.291955485132763
0.600430580579621,0.293471773214676
0.605611686027373,0.294953738406546
0.610820111059253,0.296401110122846
0.616055821989006,0.297813617778047
0.621318785130377,0.299190990786623
0.626608966797112,0.300532958563044
0.631926333302956,0.301839250521784
0.637270850961653,0.303109596077315
0.642642486086951,0.304343724644108
0.648041204992592,0.305541365636636
0.653466973992323,0.306702248469371
0.65891975939989,0.307826102556785
0.664399527529037,0.308912657313351
0.669906244693509,0.30996164215354
0.675439877207052,0.310972786491826
0.681000391383411,0.311945819742679
0.686587753536332,0.312880471320572
0.692201929979559,0.313776470639977
0.697842887026837,0.314633547115367
0.703510590991913,0.315451430161214
0.709205008188532,0.31622984919199
0.714926104930437,0.316968533622166
0.720673847531376,0.317667212866216
0.726448202305093,0.318325616338612
0.732249135565333,0.318943473453825
0.738076613625841,0.319520513626327
0.743930602800364,0.320056466270592
0.749811069402645,0.320551060801091
0.755717979746431,0.321004026632296
0.761651300145466,0.32141509317868
0.767610996913497,0.321783989854715
0.773597036364267,0.322110446074872
0.779609384811522,0.322394191253624
0.785648008569008,0.322634954805444
0.79171287395047,0.322832466144803
0.797803947269653,0.322986454686174
0.803921194840303,0.323096649844029
0.810064582976163,0.323162781032839
0.816234077990981,0.323184577667078
0.822429646198501,0.323161769161217
0.828651253912468,0.323094084929729
