0.982693066500962,-0.112548526739224
0.968038615896271,-0.113670589614171
0.953461243131448,-0.114781001550454
0.938960754703004,-0.11587980797239
0.924536957107447,-0.116967054304298
0.910189656841285,-0.118042785970496
0.895918660401029,-0.119107048395304
0.881723774283186,-0.120159887003039
0.867604804984266,-0.121201347218019
0.853561559000779,-0.122231474464564
0.839593842829232,-0.123250314166992
0.825701462966134,-0.124257911749621
0.811884225907996,-0.125254312636769
0.798141938151326,-0.126239562252756
0.784474406192633,-0.127213706021899
0.770881436528425,-0.128176789368518
0.757362835655213,-0.12912885771693
0.743918410069504,-0.130069956491454
0.730547966267808,-0.131000131116408
0.717251310746634,-0.131919427016111
0.704028250002491,-0.132827889614882
0.690878590531888,-0.133725564337038
0.677802138831333,-0.134612496606899
0.664798701397337,-0.135488731848783
0.651868084726407,-0.136354315487007
0.639010095315054,-0.137209292945892
0.626224539659785,-0.138053709649754
0.61351122425711,-0.138887611022914
0.600869955603537,-0.139711042489688
0.588300540195577,-0.140524049474396
0.575802784529738,-0.141326677401356
0.563376495102528,-0.142118971694886
0.551021478410457,-0.142900977779305
0.538737540950034,-0.143672741078931
0.526524489217768,-0.144434307018084
0.514382129710167,-0.14518572102108
0.502310268923742,-0.14592702851224
0.490308713355,-0.14665827491588
0.478377269500451,-0.147379505656321
0.466515743856604,-0.148090766157879
0.454723942919968,-0.148792101844874
0.443001673187052,-0.149483558141624
0.431348741154364,-0.150165180472448
0.419764953318414,-0.150837014261663
0.408250116175711,-0.151499104933589
0.396804036222764,-0.152151497912544
0.385426519956081,-0.152794238622847
0.374117373872173,-0.153427372488815
0.362876404467547,-0.154050944934767
0.351703418238713,-0.154665001385023
0.34059822168218,-0.155269587263899
0.329560621294456,-0.155864747995715
0.318590423572052,-0.156450529004789
0.307687435011475,-0.15702697571544
0.296851462109235,-0.157594133551986
0.28608231136184,-0.158152047938745
0.275379789265801,-0.158700764300037
0.264743702317625,-0.159240328060179
0.254173857013822,-0.159770784643489
0.2436700598509,-0.160292179474287
0.23323211732537,-0.160804557976891
0.222859835933739,-0.16130796557562
0.212553022172517,-0.161802447694791
0.202311482538213,-0.162288049758723
0.192135023527335,-0.162764817191735
0.182023451636394,-0.163232795418145
0.171976573361896,-0.163692029862271
0.161994195200353,-0.164142565948433
0.152076123648273,-0.164584449100948
0.142222165202164,-0.165017724744135
0.132432126358536,-0.165442438302313
0.122705813613897,-0.165858635199799
0.113043033464758,-0.166266360860913
0.103443592407626,-0.166665660709973
0.0939072969390105,-0.167056580171297
0.0844339535554211,-0.167439164669204
0.0750233687533664,-0.167813459628012
0.0656753490293554,-0.168179510472039
0.0563897008798969,-0.168537362625605
0.0471662308015002,-0.168887061513027
0.0380047452906744,-0.169228652558625
0.0289050508439282,-0.169562181186716
0.0198669539577704,-0.169887692821618
0.0108902611287107,-0.170205232887652
0.00197477885325761,-0.170514846809134
-0.00687968637207989,-0.170816580010384
-0.0156733280507927,-0.171110477915719
-0.0244063396863718,-0.171396585949459
-0.0330789147823082,-0.171674949535921
-0.041691246842093,-0.171945614099425
-0.050243529369217,-0.172208625064288
-0.0587359558671715,-0.172464027854829
-0.0671687198394471,-0.172711867895368
-0.0755420147895352,-0.172952190610221
-0.0838560342209266,-0.173185041423707
-0.0921109716371123,-0.173410465760146
-0.100307020541583,-0.173628509043855
-0.108444374437831,-0.173839216699153
-0.116523226829346,-0.174042634150358
-0.124543771219619,-0.174238806821789
-0.132506201112141,-0.174427780137764
-0.140410710010404,-0.174609599522603
-0.148257491417898,-0.174784310400622
-0.156046738838115,-0.174951958196141
-0.163778645774545,-0.175112588333478
-0.171453405730679,-0.175266246236952
-0.179071212210009,-0.17541297733088
-0.186632258716025,-0.175552827039583
-0.194136738752218,-0.175685840787377
-0.20158484582208,-0.175812063998582
-0.208976773429101,-0.175931542097515
-0.216312715076772,-0.176044320508496
-0.223592864268585,-0.176150444655843
-0.230817414508031,-0.176249959963874
-0.237986559298599,-0.176342911856908
-0.245100492143783,-0.176429345759263
-0.252159406547071,-0.176509307095257
-0.259163496011956,-0.17658284128921
-0.266112954041928,-0.176649993765439
-0.273007974140479,-0.176710809948264
-0.279848749811099,-0.176765335262002
-0.28663547455728,-0.176813615130972
-0.293368341882512,-0.176855694979492
-0.300047545290286,-0.176891620231881
-0.306673278284094,-0.176921436312458
-0.313245734367426,-0.17694518864554
-0.319765107043774,-0.176962922655447
-0.326231589816628,-0.176974683766496
-0.332645376189479,-0.176980517403007
-0.339006659665819,-0.176980468989297
-0.345315633749139,-0.176974583949685
-0.351572491942928,-0.17696290770849
-0.35777742775068,-0.17694548569003
-0.363930634675883,-0.176922363318624
-0.37003230622203,-0.176893586018589
-0.376082635892612,-0.176859199214245
-0.382081817191119,-0.17681924832991
-0.388030043621043,-0.176773778789902
-0.393927508685874,-0.17672283601854
-0.399774405889103,-0.176666465440142
-0.405570928734222,-0.176604712479027
-0.411317270724721,-0.176537622559514
-0.417013625364092,-0.176465241105919
-0.422660186155825,-0.176387613542563
-0.428257146603412,-0.176304785293764
-0.433804700210344,-0.176216801783839
-0.43930304048011,-0.176123708437108
-0.444752360916203,-0.176025550677889
-0.450152855022114,-0.175922373930501
-0.455504716301333,-0.175814223619261
-0.460808138257352,-0.175701145168489
-0.466063314393661,-0.175583184002503
-0.471270438213752,-0.17546038554562
-0.476429703221115,-0.175332795222161
-0.481541302919242,-0.175200458456443
-0.486605430811623,-0.175063420672784
-0.49162228040175,-0.174921727295503
-0.496592045193113,-0.17477542374892
-0.501514918689204,-0.174624555457351
-0.506391094393513,-0.174469167845115
-0.511220765809532,-0.174309306336532
-0.516004126440751,-0.174145016355919
-0.520741369790662,-0.173976343327595
-0.525432689362756,-0.173803332675878
-0.530078278660522,-0.173626029825087
-0.534678331187454,-0.17344448019954
-0.539233040447041,-0.173258729223556
-0.543742599942775,-0.173068822321454
-0.548207203178146,-0.172874804917551
-0.552627043656645,-0.172676722436166
-0.557002314881764,-0.172474620301617
-0.561333210356994,-0.172268543938224
-0.565619923585825,-0.172058538770304
-0.569862648071749,-0.171844650222176
-0.574061577318257,-0.171626923718159
-0.578216904828839,-0.17140540468257
-0.582328824106986,-0.171180138539729
-0.58639752865619,-0.170951170713953
-0.590423211979942,-0.170718546629562
-0.594406067581732,-0.170482311710874
-0.598346288965052,-0.170242511382206
-0.602244069633392,-0.169999191067879
-0.606099603090244,-0.169752396192209
-0.609913082839099,-0.169502172179516
-0.613684702383447,-0.169248564454118
-0.61741465522678,-0.168991618440334
-0.621103134872588,-0.168731379562482
-0.624750334824363,-0.168467893244879
-0.628356448585596,-0.168201204911846
-0.631921669659777,-0.167931359987701
-0.635446191550398,-0.167658403896761
-0.638930207760949,-0.167382382063345
-0.642373911794922,-0.167103339911772
-0.645777497155808,-0.16682132286636
-0.649141157347097,-0.166536376351428
-0.65246508587228,-0.166248545791294
-0.65574947623485,-0.165957876610276
-0.658994521938296,-0.165664414232694
-0.66220041648611,-0.165368204082865
-0.665367353381782,-0.165069291585108
-0.668495526128804,-0.164767722163741
-0.671585128230667,-0.164463541243084
-0.674636353190861,-0.164156794247453
-0.677649394512878,-0.163847526601169
-0.680624445700209,-0.163535783728549
-0.683561700256344,-0.163221611053911
-0.686461351684775,-0.162905054001575
-0.689323593488992,-0.162586157995858
-0.692148619172487,-0.162264968461079
-0.694936622238751,-0.161941530821557
-0.697687796191275,-0.16161589050161
-0.700402334533549,-0.161288092925557
-0.703080430769064,-0.160958183517715
-0.705722278401313,-0.160626207702404
-0.708328070933785,-0.160292210903941
-0.710898001869972,-0.159956238546647
-0.713432264713364,-0.159618336054837
-0.715931052967454,-0.159278548852832
-0.71839456013573,-0.15893692236495
-0.720822979721686,-0.158593502015509
-0.723216505228811,-0.158248333228828
-0.725575330160597,-0.157901461429225
-0.727899648020535,-0.157552932041018
-0.730189652312115,-0.157202790488526
-0.732445536538829,-0.156851082196068
-0.734667494204168,-0.156497852587962
-0.736855718811622,-0.156143147088526
-0.739010403864684,-0.155787011122079
-0.741131742866842,-0.15542949011294
-0.74321992932159,-0.155070629485426
-0.745275156732417,-0.154710474663856
-0.747297618602815,-0.15434907107255
-0.749287508436275,-0.153986464135824
-0.751245019736287,-0.153622699277998
-0.753170346006344,-0.15325782192339
-0.755063680749935,-0.152891877496319
-0.756925217470551,-0.152524911421102
-0.758755149671685,-0.15215696912206
-0.760553670856826,-0.151788096023509
-0.762320974529466,-0.151418337549768
-0.764057254193095,-0.151047739125157
-0.765762703351206,-0.150676346173992
-0.767437515507288,-0.150304204120594
-0.769081884164833,-0.14993135838928
-0.770696002827332,-0.149557854404368
-0.772280064998275,-0.149183737590178
-0.773834264181154,-0.148809053371027
-0.77535879387946,-0.148433847171235
-0.776853847596684,-0.148058164415119
-0.778319618836316,-0.147682050526998
-0.779756301101848,-0.14730555093119
-0.781164087896772,-0.146928711052015
-0.782543172724576,-0.14655157631379
-0.783893749088754,-0.146174192140833
-0.785216010492795,-0.145796603957464
-0.786510150440191,-0.145418857188001
-0.787776362434433,-0.145040997256762
-0.789014839979012,-0.144663069588066
-0.790225776577419,-0.144285119606231
-0.791409365733144,-0.143907192735576
-0.792565800949679,-0.143529334400418
-0.793695275730515,-0.143151590025078
-0.794797983579143,-0.142774005033872
-0.795874117999054,-0.14239662485112
-0.796923872493738,-0.14201949490114
-0.797947440566687,-0.14164266060825
-0.798945015721392,-0.141266167396769
-0.799916791461344,-0.140890060691015
-0.800862961290034,-0.140514385915307
-0.801783718710952,-0.140139188493964
-0.802679257227591,-0.139764513851303
-0.80354977034344,-0.139390407411643
-0.804395451561991,-0.139016914599303
-0.805216494386735,-0.138644080838601
-0.806013092321162,-0.138271951553855
-0.806785438868765,-0.137900572169385
-0.807533727533033,-0.137529988109508
-0.808258151817458,-0.137160244798543
-0.808958905225532,-0.136791387660808
-0.809636181260744,-0.136423462120622
-0.810290173426585,-0.136056513602304
-0.810921075226548,-0.135690587530171
-0.811529080164122,-0.135325729328543
-0.8121143817428,-0.134961984421737
-0.812677173466071,-0.134599398234073
-0.813217648837427,-0.134238016189868
-0.813736001360359,-0.133877883713441
-0.814232424538358,-0.133519046229111
-0.814707111874915,-0.133161549161196
-0.815160256873521,-0.132805437934014
-0.815592053037666,-0.132450757971884
-0.816002693870843,-0.132097554699125
-0.816392372876541,-0.131745873540054
-0.816761283558252,-0.131395759918991
-0.817109619419467,-0.131047259260254
-0.817437573963677,-0.13070041698816
-0.817745340694373,-0.13035527852703
-0.818033113115046,-0.130011889301181
-0.818301084729187,-0.129670294734931
-0.818549449040286,-0.129330540252599
-0.818778399551836,-0.128992671278504
-0.818988129767326,-0.128656733236964
-0.819178833190249,-0.128322771552298
-0.819350703324094,-0.127990831648823
-0.819503933672353,-0.127660958950859
-0.819638717738517,-0.127333198882724
-0.819755249026078,-0.127007596868735
-0.819853721038525,-0.126684198333213
-0.81993432727935,-0.126363048700475
-0.819997261252044,-0.12604419339484
-0.820042716460097,-0.125727677840626
-0.820070886407002,-0.125413547462151
-0.820081964596249,-0.125101847683735
-0.820076144531329,-0.124792623929695
-0.820053619715732,-0.12448592162435
-0.820014583652951,-0.124181786192019
-0.819959229846476,-0.123880263057019
-0.819887751799797,-0.12358139764367
-0.819800343016407,-0.12328523537629
-0.819697196999795,-0.122991821679197
-0.819578507253454,-0.12270120197671
-0.819444467280873,-0.122413421693147
-0.819295270585544,-0.122128526252827
-0.819131110670959,-0.121846561080068
-0.818952181040607,-0.121567571599189
-0.818758675197981,-0.121291603234507
-0.81855078664657,-0.121018701410342
-0.818328708889866,-0.120748911551013
-0.81809263543136,-0.120482279080836
-0.817842759774544,-0.120218849424132
-0.817579275422907,-0.119958668005218
-0.817302375879941,-0.119701780248413
-0.817012254649138,-0.119448231578035
-0.816709105233987,-0.119198067418403
-0.81639312113798,-0.118951333193836
-0.816064495864609,-0.11870807432865
-0.815723422917363,-0.118468336247167
-0.815370095799735,-0.118232164373702
-0.815004708015214,-0.117999604132576
-0.814627453067292,-0.117770700948106
-0.814238524459461,-0.117545500244612
-0.81383811569521,-0.117324047446411
-0.813426420278032,-0.117106387977821
-0.813003631711417,-0.116892567263163
-0.812569943498855,-0.116682630726753
-0.812125549143839,-0.11647662379291
-0.811670642149858,-0.116274591885953
-0.811205416020405,-0.1160765804302
-0.81073006425897,-0.11588263484997
-0.810244780369044,-0.115692800569581
-0.809749757854118,-0.115507123013352
-0.809245190217683,-0.115325647605601
-0.808731270963229,-0.115148419770646
-0.80820819359425,-0.114975484932807
-0.807676151614234,-0.114806888516401
-0.807135338526673,-0.114642675945747
-0.806585947835058,-0.114482892645163
-0.806028173042881,-0.114327584038968
-0.805462207653631,-0.11417679555148
-0.8048882451708,-0.114030572607018
-0.80430647909788,-0.113888960629901
-0.803717102938361,-0.113752005044446
-0.803120310195734,-0.113619751274972
-0.802516294373489,-0.113492244745798
-0.801905248975119,-0.113369530881242
-0.801287367504114,-0.113251655105622
-0.800662843463966,-0.113138662843258
-0.800031870358164,-0.113030599518466
-0.7993946416902,-0.112927510555567
-0.798751350963566,-0.112829441378879
-0.798102191681751,-0.112736437412719
-0.797447357348248,-0.112648544081406
-0.796787041466547,-0.112565806809259
-0.796121437540139,-0.112488271020596
-0.795450739072515,-0.112415982139737
-0.794775139567166,-0.112348985590998
-0.794094832527583,-0.112287326798699
-0.793410011457258,-0.112231051187158
-0.79272086985968,-0.112180204180693
-0.792027601238342,-0.112134831203623
-0.791330399096734,-0.112094977680267
-0.790629456938347,-0.112060689034943
-0.789924968266672,-0.112032010691969
-0.7892171265852,-0.112008988075664
-0.788506125397423,-0.111991666610347
-0.78779215820683,-0.111980091720335
-0.787075418516914,-0.111974308829947
-0.786356099831165,-0.111974363363502
-0.785634395653074,-0.111980300745318
-0.784910499486132,-0.111992166399714
-0.784184604833831,-0.112010005751008
-0.78345690519966,-0.112033864223519
-0.782727594087112,-0.112063787241564
-0.781996864999677,-0.112099820229463
-0.781264911440846,-0.112142008611534
-0.78053192691411,-0.112190397812095
-0.779798104922961,-0.112245033255465
-0.779063638970889,-0.112305960365962
-0.778328722561384,-0.112373224567905
-0.777593549197939,-0.112446871285613
-0.777593549197939,-0.112446871285613
-0.776836564928309,-0.112502478997752
-0.776036260458358,-0.112515816976176
-0.775192896278741,-0.112487216834985
-0.774306732880114,-0.112417010188276
-0.77337803075313,-0.112305528650147
-0.772407050388446,-0.112153103834698
-0.771394052276715,-0.111960067356025
-0.770339296908594,-0.111726750828228
-0.769243044774736,-0.111453485865404
-0.768105556365796,-0.111140604081652
-0.76692709217243,-0.110788437091071
-0.765707912685293,-0.110397316507758
-0.764448278395039,-0.109967573945812
-0.763148449792323,-0.109499541019331
-0.761808687367801,-0.108993549342413
-0.760429251612126,-0.108449930529157
-0.759010403015955,-0.107869016193661
-0.757552402069941,-0.107251137950022
-0.75605550926474,-0.106596627412341
-0.754519985091007,-0.105905816194714
-0.752946090039397,-0.10517903591124
-0.751334084600564,-0.104416618176018
-0.749684229265164,-0.103618894603145
-0.747996784523851,-0.10278619680672
-0.74627201086728,-0.101918856400841
-0.744510168786107,-0.101017204999607
-0.742711518770985,-0.100081574217115
-0.740876321312571,-0.0991122956674645
-0.739004836901518,-0.0981097009647531
-0.737097326028482,-0.0970741217230793
-0.735154049184118,-0.0960058895565413
-0.733175266859081,-0.0949053360792375
-0.731161239544025,-0.0937727929052661
-0.729112227729606,-0.0926085916487253
-0.727028491906478,-0.0914130639237135
-0.724910292565296,-0.090186541344329
-0.722757890196716,-0.0889293555246701
-0.720571545291391,-0.0876418380788349
-0.718351518339978,-0.0863243206209218
-0.71609806983313,-0.0849771347650291
-0.713811460261504,-0.0836006121252551
-0.711491950115753,-0.082195084315698
-0.709139799886532,-0.0807608829504561
-0.706755270064498,-0.0792983396436277
-0.704338621140303,-0.0778077860093112
-0.701890113604605,-0.0762895536616046
-0.699410007948056,-0.0747439742146064
-0.696898564661313,-0.0731713792824149
-0.694356044235029,-0.0715721004791283
-0.691782707159861,-0.0699464694188448
-0.689178813926462,-0.0682948177156628
-0.686544625025489,-0.0666174769836806
-0.683880400947595,-0.0649147788369964
-0.681186402183436,-0.0631870548897085
-0.678462889223666,-0.0614346367559152
-0.675710122558941,-0.0596578560497148
-0.672928362679916,-0.0578570443852056
-0.670117870077244,-0.0560325333764858
-0.667278905241581,-0.0541846546376536
-0.664411728663583,-0.0523137397828076
-0.661516600833904,-0.0504201204260458
-0.658593782243199,-0.0485041281814665
-0.655643533382122,-0.0465660946631681
-0.65266611474133,-0.0446063514852489
-0.649661786811476,-0.042625230261807
-0.646630810083215,-0.0406230626069409
-0.643573445047203,-0.0386001801347486
-0.640489952194095,-0.0365569144593287
-0.637380592014544,-0.0344935971947793
-0.634245624999207,-0.0324105599551987
-0.631085311638738,-0.0303081343546852
-0.627899912423792,-0.0281866520073371
-0.624689687845024,-0.0260464445272527
-0.621454898393089,-0.0238878435285301
-0.618195804558641,-0.0217111806252678
-0.614912666832337,-0.019516787431564
-0.61160574570483,-0.017304995561517
-0.608275301666775,-0.015076136629225
-0.604921595208827,-0.0128305422487864
-0.601544886821642,-0.0105685440342995
-0.598145436995874,-0.00829047359986242
-0.594723506222178,-0.00599666255957353
-0.59127935499121,-0.00368744252753112
-0.587813243793623,-0.00136314511783347
-0.584325433120073,0.000975898055421136
-0.580816183461215,0.00332935537813445
-0.577285755307703,0.00569689523620816
-0.573734409150193,0.008078186015544
-0.57016240547934,0.0104728961020437
-0.566570004785797,0.0128806938816089
-0.562957467560221,0.0153012477401414
-0.559325054293267,0.0177342260635429
-0.555673025475589,0.0201792972377152
-0.552001641597841,0.0226361296485598
-0.548311163150679,0.0251043916819786
-0.544601850624759,0.0275837517238733
-0.540873964510734,0.0300738781601456
-0.537127765299259,0.0325744393766972
-0.533363513480991,0.0350851037594298
-0.529581469546582,0.0376055396942452
-0.52578189398669,0.040135415567045
-0.521965047291967,0.042674399763731
-0.51813118995307,0.0452221606702049
-0.514280582460652,0.0477783666723685
-0.51041348530537,0.0503426861561234
-0.506530158977878,0.0529147875073713
-0.50263086396883,0.055494339112014
-0.498715860768883,0.0580810093559533
-0.49478540986869,0.0606744666250907
-0.490839771758907,0.0632743793053281
-0.486879206930188,0.0658804157825671
-0.482903975873188,0.0684922444427095
-0.478914339078563,0.071109533671657
-0.474910557036967,0.0737319518553113
-0.470892890239055,0.0763591673795741
-0.466861599175482,0.0789908486303472
-0.462816944336904,0.0816266639935322
-0.458759186213974,0.084266281855031
-0.454688585297347,0.0869093706007451
-0.45060540207768,0.0895555986165764
-0.446509897045626,0.0922046342884264
-0.44240233069184,0.0948561460021971
-0.438282963506978,0.09750980214379
-0.434152055981694,0.100165271099107
-0.430009868606644,0.10282222125405
-0.425856661872481,0.10548032099452
-0.421692696269862,0.108139238706419
-0.41751823228944,0.110798642775649
-0.413333530421872,0.113458201588112
-0.409138851157811,0.116117583529709
-0.404934454987913,0.118776456986342
-0.400720602402832,0.121434490343913
-0.396497553893224,0.124091351988323
-0.392265569949743,0.126746710305474
-0.388024911063045,0.129400233681269
-0.383775837723784,0.132051590501608
-0.379518610422615,0.134700449152393
-0.375253489650193,0.137346478019526
-0.370980735897173,0.139989345488909
-0.36670060965421,0.142628719946444
-0.362413371411958,0.145264269778032
-0.358119281661074,0.147895663369575
-0.35381860089221,0.150522569106974
-0.349511589596024,0.153144655376132
-0.345198508263169,0.15576159056295
-0.3408796173843,0.15837304305333
-0.336555177450072,0.160978681233173
-0.332225448951141,0.163578173488381
-0.32789069237816,0.166171188204857
-0.323551168221786,0.168757393768501
-0.319207136972672,0.171336458565216
-0.314858859121474,0.173908050980902
-0.310506595158847,0.176471839401463
-0.306150605575445,0.179027492212799
-0.301791150861924,0.181574677800812
-0.297428491508938,0.184113064551405
-0.293062888007143,0.186642320850478
-0.288694600847193,0.189162115083933
-0.284323890519743,0.191672115637673
-0.279951017515448,0.194171990897598
-0.275576242324963,0.196661409249611
-0.271199825438943,0.199140039079614
-0.266822027348043,0.201607548773507
-0.262443108542917,0.204063606717194
-0.258063329514221,0.206507881296574
-0.253682950752609,0.208940040897551
-0.249302232748737,0.211359753906026
-0.244921435993259,0.2137666887079
-0.240540820976831,0.216160513689076
-0.236160648190106,0.218540897235455
-0.231781178123741,0.220907507732938
-0.22740267126839,0.223260013567428
-0.223025388114707,0.225598083124827
-0.218649589153348,0.227921384791035
-0.214275534874968,0.230229586951955
-0.209903485770222,0.232522357993488
-0.205533702329764,0.234799366301536
-0.201166445044249,0.237060280262001
-0.196801974404333,0.239304768260785
-0.19244055090067,0.241532498683789
-0.188082435023915,0.243743139916915
-0.183727887264724,0.245936360346065
-0.17937716811375,0.24811182835714
-0.175030538061649,0.250269212336042
-0.170688257599076,0.252408180668673
-0.166350587216685,0.254528401740934
-0.162017787405133,0.256629543938728
-0.157690118655072,0.258711275647956
-0.15336784145716,0.260773265254519
-0.149051216302049,0.26281518114432
-0.144740503680395,0.26483669170326
-0.140435964082854,0.266837465317241
-0.13613785800008,0.268817170372165
-0.131846445922728,0.270775475253933
-0.127561988341453,0.272712048348446
-0.12328474574691,0.274626558041608
-0.119014978629753,0.276518672719319
-0.114752947480638,0.278388060767481
-0.110498912790219,0.280234390571997
-0.106253135049152,0.282057330518766
-0.102015874748091,0.283856548993693
-0.0977873923776915,0.285631714382677
-0.0935679484286079,0.287382495071621
-0.0893578033914956,0.289108559446426
-0.0851572177570091,0.290809575892995
-0.0809664520158037,0.292485212797229
-0.0767857666585339,0.294135138545029
-0.072615422175855,0.295759021522298
-0.0684556790584215,0.297356530114936
-0.0643067977968887,0.298927332708847
-0.0601690388819111,0.300471097689931
-0.0560426628041441,0.30198749344409
-0.0519279300542422,0.303476188357227
-0.0478251011228605,0.304936850815242
-0.0437344365006539,0.306369149204037
-0.0396561966782773,0.307772751909515
-0.0355906421463855,0.309147327317576
-0.0315380333956336,0.310492543814123
-0.0274986309166762,0.311808069785057
-0.0234726952001687,0.31309357361628
-0.0194604867367655,0.314348723693694
-0.0154622660171219,0.315573188403201
-0.0114782935318924,0.316766636130701
-0.00750882977173248,0.317928735262097
-0.00355413522729653,0.319059154183292
0.000385529610760244,0.320157561280185
0.00430990425178315,0.321223624938679
0.00821872820511702,0.322257013544676
0.0121117409801072,0.323257395484078
0.0159886820860986,0.324224439142785
0.0198492910324365,0.325157812906701
0.0236933073284658,0.326057185161726
0.0275204704835317,0.326922224293763
0.0313305200069791,0.327752598688712
0.0351231954081534,0.328547976732477
0.0388982361963994,0.329308026810958
0.0426553818810625,0.330032417310057
0.0463943719714874,0.330720816615676
0.0501149459770196,0.331372893113717
0.0538168434070038,0.331988315190081
0.0574998037707855,0.33256675123067
0.0611635665777094,0.333107869621386
0.0648078713371209,0.33361133874813
0.0684324575583648,0.334076826996805
0.0720370647507865,0.334504002753312
0.0756214324237307,0.334892534403552
0.079185300086543,0.335242090333428
0.082728407248568,0.335552338928841
0.0862504934191513,0.335822948575693
0.0897512981076374,0.336053587659885
0.0932305608233719,0.33624392456732
0.0966880210756995,0.336393627683898
0.100123418373966,0.336502365395523
0.103536492227515,0.336569806088095
0.106926982145693,0.336595618147516
0.110294627637845,0.336579469959687
0.113639168213315,0.336521029910512
0.11696034338145,0.336419966385891
0.120257892651593,0.336275947771725
0.12353155553309,0.336088642453918
0.126781071535286,0.33585771881837
0.130006180167527,0.335582845250983
0.133206620939157,0.335263690137659
0.136382133359521,0.334899921864299
0.139532456937964,0.334491208816806
0.142657331183832,0.334037219381081
0.14575649560647,0.333537621943026
0.148829689715223,0.332992084888543
0.151876653019435,0.332400276603532
0.154897125028452,0.331761865473897
0.157890845251619,0.331076519885538
0.160857553198282,0.330343908224357
0.163796988377784,0.329563698876257
0.166708890299472,0.328735560227138
0.16959299847269,0.327859160662903
0.172449052406783,0.326934168569454
0.175276791611098,0.325960252332691
0.178075955594977,0.324937080338516
0.180846283867768,0.323864320972833
0.183587515938814,0.322741642621541
0.186299391317461,0.321568713670543
0.188981649513055,0.320345202505741
0.191634030034939,0.319070777513036
0.194256272392459,0.31774510707833
0.196848116094961,0.316367859587525
0.199409300651789,0.314938703426522
0.201939565572289,0.313457306981223
0.204438650365805,0.311923338637531
0.206906294541683,0.310336466781346
0.209342237609267,0.30869635979857
0.211746219077903,0.307002686075105
0.214117978456936,0.305255113996853
0.216457255255712,0.303453311949715
0.218763788983574,0.301596948319594
0.221037319149868,0.29968569149239
0.22327758526394,0.297719209854006
0.225484326835134,0.295697171790344
0.227657283372795,0.293619245687304
0.229796194386269,0.291485099930789
0.231900799384901,0.289294402906701
0.233970837878035,0.287046823000941
0.236006049375017,0.284742028599411
0.238006173385192,0.282379688088013
0.239970949417905,0.279959469852648
0.241900116982502,0.277481042279217
0.243793415588326,0.274944073753624
0.245650584744723,0.27234823266177
0.247471363961039,0.269693187389555
0.249255492746619,0.266978606322883
0.251002710610807,0.264204157847654
0.252712757062948,0.261369510349771
0.254385371612388,0.258474332215135
0.256020293768472,0.255518291829647
0.257617263040545,0.25250105757921
0.259176018937952,0.249422297849726
0.260696300970038,0.246281681027095
0.262177848646148,0.243078875497221
0.263620401475627,0.239813549646003
0.265023698967821,0.236485371859345
0.266387480632074,0.233094010523148
0.267711485977732,0.229639134023313
0.268995454514139,0.226120410745742
0.270239125750641,0.222537509076338
0.271442239196583,0.218890097401001
0.27260453436131,0.215177844105634
0.273725750754167,0.211400417576138
0.274805627884498,0.207557486198415
0.27584390526165,0.203648718358367
0.276840322394968,0.199673782441894
0.277794618793795,0.1956323468349
0.278706533967478,0.191524079923286
0.279575807425361,0.187348650092953
0.280402178676791,0.183105725729803
0.28118538723111,0.178794975219739
0.281925172597666,0.174416066948661
0.282621274285803,0.169968669302471
0.283273431804865,0.165452450667072
0.283881384664198,0.160867079428364
0.284444872373148,0.15621222397225
0.284963634441059,0.151487552684631
0.285437410377276,0.146692733951409
0.285865939691145,0.141827436158485
0.28624896189201,0.136891327691762
0.286586216489217,0.131884076937142
0.286877442992111,0.126805352280525
0.287122380910036,0.121654822107813
0.287320769752338,0.116432154804909
0.287472349028362,0.111137018757714
0.287576858247454,0.10576908235213
0.287634036918957,0.100328013974058
0.287643624552218,0.0948134820094
0.287605360656581,0.0892251548440582
0.287518984741391,0.0835627008639337
0.287384236315994,0.0778257884549288
0.287200854889735,0.0720140860029446
0.286968579971958,0.0661272618938835
0.286687151072009,0.0601649845136466
0.286356307699233,0.0541269222481362
0.285975789362975,0.0480127434832533
0.285545335572579,0.0418221166049004
0.285064685837393,0.0355547099989785
0.284533579666759,0.02921019205139
0.283951756570023,0.022788231148036
0.283318956056532,0.0162884956748187
0.282634917635628,0.00971065401763938
0.281899380816658,0.00305437456240031
0.281112085108967,-0.00368067430499745
0.2802727700219,-0.0104948241986515
0.279381175064801,-0.0173884067326608
0.278437039747017,-0.024361753521123
0.277440103577891,-0.0314151961781369
0.27639010606677,-0.0385490663178003
0.275286786722998,-0.045763695554212
0.27412988505592,-0.0530594155014698
0.272919140574882,-0.0604365577736724
0.271654292789228,-0.0678954539849176
0.270335081208304,-0.0754364357493043
0.268961245341454,-0.0830598346809301
0.267532524698025,-0.0907659823938939
0.26604865878736,-0.0985552105022935
0.264509387118805,-0.106427850620228
0.262914449201705,-0.114384234361794
0.261263584545405,-0.122424693341092
0.259556532659251,-0.130549559172218
0.257793033052587,-0.138759163469272
0.255972825234758,-0.147053837846351
0.25409564871511,-0.155433913917555
0.252161243002987,-0.163899723296981
0.250169347607735,-0.172451597598727
0.248119702038699,-0.181089868436892
0.246012045805224,-0.189814867425575
0.243846118416654,-0.198626926178872
0.241621659382336,-0.207526376310884
0.239338408211614,-0.216513549435707
0.236996104413833,-0.22558877716744
0.234594487498338,-0.234752391120182
0.232133296974475,-0.244004722908031
0.229612272351588,-0.253346104145085
0.227031153139023,-0.262776866445442
