0.211558296504374,-0.870808472692898
0.138163791404607,-0.825089764212511
0.0691709292403631,-0.783918945455002
0.00444171049000123,-0.747060855063661
-0.0561618643681205,-0.714280331681779
-0.112777794855644,-0.685342213952645
-0.197977095822337,-0.652246528187509
-0.216277797289947,-0.66076759106705
-0.260079715311038,-0.619230681114639
-0.302125063532583,-0.603310572429403
-0.343666087269068,-0.607082463090621
-0.350361881332983,-0.583958642348981
-0.409027225709444,-0.570609194162054
-0.431898302135885,-0.595701313840517
-0.465647093637288,-0.559005784907023
-0.539683329214415,-0.540961359707845
-0.511836364948404,-0.553365543994596
-0.528918175204967,-0.561367360442563
-0.548699035815925,-0.551807180571094
-0.602282982025904,-0.571410611097653
-0.591696169785184,-0.523000351186425
-0.612360264712338,-0.570602249570248
-0.598860560912716,-0.553410922776155
-0.63885996110154,-0.557557050695918
-0.608244107959824,-0.542493576440293
-0.593039415173736,-0.522125431423235
-0.624963638312725,-0.548766684692778
-0.58421027866423,-0.557671399960468
-0.671417074972467,-0.576038179635505
-0.662900990923032,-0.573346888718943
-0.601711825428651,-0.483265062628488
-0.627342523506559,-0.500810872769079
-0.600506711312888,-0.503827663582359
-0.63931829190838,-0.480336504311185
-0.635748161863648,-0.447986250040432
-0.641478704495599,-0.437516981326291
-0.619823573326756,-0.45724177197088
-0.683962635458541,-0.38309054352162
-0.616652227161492,-0.300065646897575
-0.650387615446681,-0.308625487639772
