0.699819902092582,-0.745451523223822
0.69478511401174,-0.742572635677507
0.694087927773371,-0.740364129298609
0.691709369512437,-0.686036959184113
0.657356476108283,-0.692854834609059
0.698974933514678,-0.701948726973398
0.660906073402863,-0.694324131692914
0.647554513422527,-0.691646498604341
0.639515141874684,-0.667610726396075
0.649298365570853,-0.626654014023929
0.624062707852378,-0.647073125644976
0.616392801868122,-0.636948981536522
0.564111681285566,-0.633529018130521
0.601165425215584,-0.616987980851725
0.593607879852176,-0.607150314274553
0.57877197165415,-0.617323219239147
0.578604888313264,-0.587758623648584
0.571159367442633,-0.578203789598957
0.579824727116361,-0.559380963833789
0.556380088761205,-0.559374119024342
0.550059877935925,-0.554634247103977
0.541749578509131,-0.540915078479811
0.530064791660206,-0.532196477113531
0.515442369749831,-0.530253689336023
0.520082100353701,-0.513914361462154
0.521234536566924,-0.523974816532062
0.501560064343264,-0.50162872315697
0.488809263344539,-0.470711282986333
0.491710030364464,-0.479180370512899
0.484709246184233,-0.470720416536083
0.45840479017965,-0.432388065471499
0.470818096371319,-0.454065926092142
0.498822180444348,-0.470173075955562
0.47501121384302,-0.454558214865307
0.495792352400666,-0.425208237381055
0.475344470318167,-0.401947820051192
0.436732587146776,-0.413959068769439
0.419886983373818,-0.448790150636078
0.409406940683647,-0.368246510813077
0.430935971538671,-0.391188664496064
0.400312836447793,-0.389052222844384
0.436290499023451,-0.355464245941546
0.38649918075162,-0.356662252640433
0.373470298337385,-0.380521699803
0.39253145358243,-0.363142068181233
0.377678636869152,-0.347136373082797
0.371298690159262,-0.340127666606775
0.363722351702734,-0.35775724039835
0.358647310561296,-0.326355016143245
0.342004085927669,-0.354464496373819
0.338231824835372,-0.324441790957492
0.339940965505429,-0.306301871663007
0.31669501200643,-0.329187221208449
0.308749974564374,-0.315339745073536
0.327777341669244,-0.257041909432806
0.355832652870344,-0.239416671341564
0.309483165484302,-0.274468514075076
0.303499185612804,-0.268336480035623
0.257573099427642,-0.244097808885264
0.29506766776031,-0.287702553892457
0.326172666583096,-0.269969462979701
0.279920621650452,-0.244576968791078
0.280245516685296,-0.260582667633331
0.301878639219079,-0.213609102367391
0.262476196908482,-0.214052392876634
0.245812262243223,-0.208695895540177
0.251248665558445,-0.21657661075911
0.219398804644737,-0.225148438758709
0.234471031946028,-0.200663105799311
0.229765092094381,-0.201056694376911
0.229266290734041,-0.165302727146018
0.218011320896106,-0.185401268220346
0.212595225715835,-0.180456913998939
0.208922535154348,-0.165155443792481
0.201868524024467,-0.170780163011004
0.197045752892539,-0.169634922455292
0.191282224908241,-0.161383321960141
0.180057067536843,-0.156800818549827
0.180836029586649,-0.152263150843028
0.175665377479932,-0.14780580400859
0.161043032608678,-0.167469199781127
0.135527890993758,-0.127963590164443
0.158977484427898,-0.158525019418503
0.155331534637113,-0.130651891488602
0.0940154772510624,-0.148198260703179
0.1473769374135,-0.114125962247573
0.133651731410104,-0.113188711954006
0.135553924045726,-0.114559298657107
0.130696152580439,-0.110698944147447
0.12587295889305,-0.106902897116241
0.0694100646557501,-0.112920747482047
0.134240346723389,-0.0697065242949799
0.0990264533998198,-0.0649190116191703
0.106925214971195,-0.0923536837676595
0.126209422705883,-0.0592526619352848
0.102824366523874,-0.0987064613339956
0.0613181843426218,-0.104099662149532
0.0996309796921911,-0.0989990030703289
0.0795345833395415,-0.0723902380278393
0.0750892802698335,-0.0692748432322299
0.0733733197757083,-0.0913353324359291
0.0663010256042614,-0.0632219910610115
0.0535726722404877,-0.0688798614892408
0.0688949619787717,-0.0453940824581623
0.0570144898915387,-0.0723381947126719
0.0857041787422393,-0.0506001849613739
-0.0119624570727223,-0.0493987899060846
0.0415730329199887,-0.0397163759702701
0.0217443070293434,-0.030534329217091
0.0284352841100491,-0.0388399336383226
0.024397071386783,-0.0364111784969711
0.0164216529018104,-0.0317170256193203
0.0123482602978638,-0.0403166596505384
0.0047104823647994,-0.0250781148092463
0.0147580613311372,0.00194073368685646
0.00396757344140751,-0.0146502821153884
-0.010435660193378,-0.0169602182569917
-0.0113995064189043,-0.0393229388923109
-0.0178085102323928,-0.0132085447710378
-0.0178449006755863,-0.0126772090161905
0.00702540417462143,0.00664146814091229
0.00778782852484543,-0.0187688784487519
-0.0406218945047657,0.0109670722155282
-0.0356590531817021,-0.00469959166751496
-0.0409278879152184,0.0144206574004597
-0.0459720736664697,-0.00017474935086853
-0.0177464086799682,0.0149749524342415
-0.0671849805526175,-0.0074110600152597
-0.0609895885145387,0.00914824090916855
-0.0511489953285337,0.00128722848527649
-0.0914804392776876,0.0473199805523497
-0.0909224179742827,-0.00995681705687688
-0.111583671609645,0.0363486165844704
-0.0638106608573043,0.00369041246178525
-0.065557765725168,0.0203995856758428
-0.0813374623994026,0.00437312742175862
-0.0958182367146225,0.0245874362219602
-0.101653813648121,0.0184943548880477
-0.130096393722634,-0.000262727841034496
-0.116627436766833,0.0304370988743949
-0.148830049680848,-0.0105957502087851
-0.114830961264446,0.0314330185528579
-0.0842151826006986,0.0436805439678174
-0.15271871757182,0.0467239566681901
-0.114752593979547,0.0231153251495272
-0.123029150525854,0.0225326792807785
-0.146935101111874,0.00131992242685463
-0.159314729979024,0.00712512943962706
-0.13294760473823,0.0236661826685665
-0.135347496408002,0.0238616898941182
-0.12440582302285,0.0265049035116661
-0.150457706069957,0.0200402709990042
-0.121573023957192,0.0649667066528288
-0.14912608321927,0.0201046883064873
-0.152611825145564,0.0138142726214718
-0.128836557346103,-0.00709461803206534
-0.192757594224162,-0.0102919550285361
-0.138553528215113,0.0509314243287558
-0.177171167418084,0.040452145104591
-0.16456414785499,0.0154930233202432
-0.181472309113113,0.041020079510461
-0.169444447552039,0.022595312894351
-0.171308579501008,0.0222621635650051
-0.158496954635139,0.0155862939744824
-0.178453689276284,0.020659091845087
-0.191919836168768,0.02149009653183
-0.181839916217452,0.0197009413494205
-0.188478366257928,0.0135587875920461
-0.231286196854674,0.0115879876676731
-0.174058322845832,0.0113118298833477
-0.201867719275489,0.0356835576731765
-0.198815885217585,-0.0183467984588786
-0.194400205559555,0.0173829478718325
-0.211139344948188,0.0231430835036041
-0.199567509785847,0.0119635536847947
-0.200845624325324,0.0111780630537486
-0.202093269318882,0.0103728149899232
-0.209179333180108,0.0475667662059888
-0.191584326080907,-0.0270749052972192
-0.218669650833693,-0.0440926252953382
-0.207875758262631,0.00606438819364
-0.235581257759924,0.0377333886770899
-0.190337167948719,0.00557983953709687
-0.228878940577293,0.0162706959344288
-0.216045329619079,0.00258491077332249
-0.224401172448739,0.0280100771017794
-0.184613998781043,0.0280627126106355
-0.209035026190486,0.00620657784207885
-0.196983612214845,0.0354709615828561
-0.246472897848184,0.00583625471840154
-0.208027879900353,-0.019671828077283
-0.229982180155119,0.000797509527119223
-0.235227806112253,-0.0325898629939208
-0.223491033357681,-0.0149949260444264
-0.226176893088197,-0.0109565351185349
-0.208026085165914,0.0146441193657923
-0.226303989375378,-0.036041979388776
-0.225188598955582,-0.0197533852535357
-0.215000302455752,-0.00292443822587703
-0.239454648289083,0.00137350803574511
-0.237296705572215,-0.0457342187154161
-0.228441387661512,-0.0581025687158306
-0.227177362682763,-0.029609539820652
-0.24815957043098,0.00297080909676137
-0.227473341300164,-0.0346553951255094
-0.227474990214973,-0.0359247399911108
-0.22288835613838,-0.0555193014060073
-0.209644372656048,-0.0512064829486095
-0.227306904745519,-0.0397452090757999
-0.235993469193621,-0.0473304695725533
-0.208767576229952,-0.0123607643491846
-0.232010639701298,-0.0498739893292308
-0.22668044326289,-0.0448530616449488
-0.223412351883534,-0.0495860553370644
-0.243924877496189,-0.0559601360711324
-0.254506517066801,-0.0334799344798723
-0.217966397891742,-0.0204657093097542
-0.225254097742062,-0.0512237566236693
-0.222722092768137,-0.0639318261889345
-0.245074234980758,-0.0576151497523743
-0.224057006489922,-0.0550192025335222
-0.253580390240534,-0.0580962192051488
-0.266372870914517,-0.0918293916880415
-0.213383690706342,-0.0695727633473741
-0.242903757323695,-0.0882450908646451
-0.220899640914438,-0.0624983793768053
-0.220274917901238,-0.0637257022748237
-0.259634902910841,-0.0399591158122375
-0.218941383359521,-0.066160240287813
-0.21823264652613,-0.0673666454019535
-0.226862151727776,-0.0719692822985909
-0.220536216709736,-0.089055942166285
-0.199001340205659,-0.0831840755071195
-0.222965388362076,-0.0985826287610596
-0.195738932068217,-0.0710629070055232
-0.212491542631065,-0.0755708885049034
-0.20573076716489,-0.0154959175912893
-0.207195473075708,-0.0950806751449959
-0.223607431878125,-0.0986106823013007
-0.20860138365699,-0.0800343502660226
-0.222720316448825,-0.0606940146198614
-0.228241228168849,-0.0703015624401956
-0.230939297779848,-0.081256718576508
-0.210670552070816,-0.0687673023992622
-0.207157178846529,-0.0980651585233482
-0.179983856129232,-0.101766169094082
-0.187362422376947,-0.112832717253454
-0.219045902669234,-0.105088958897051
-0.151347727894034,-0.0934405245403202
-0.192929888439759,-0.0930540885493607
-0.232917911195725,-0.122569395903958
-0.187212807383163,-0.120446902029348
-0.172364733273489,-0.131679662912002
-0.185681397918056,-0.0973226630026367
-0.184151009926672,-0.0981194150724584
-0.182593812450589,-0.0988962345343667
-0.159026765922596,-0.117262289330843
-0.203491828472272,-0.0546761700947217
-0.171674763423298,-0.10721717017431
-0.179587319922416,-0.127628955614466
-0.169967952340969,-0.121518695380409
-0.163429494138906,-0.134902358630666
-0.178444390326738,-0.100135463264673
-0.178225381490877,-0.10936176663575
-0.165893404329679,-0.114415202595575
-0.141771031111969,-0.102526910738833
-0.157998966527491,-0.107451982937649
-0.156044108488527,-0.107881213231029
-0.154063038525878,-0.108284030909852
-0.152055793987109,-0.108660030973703
-0.141727100057545,-0.108576615110119
-0.147962930571461,-0.109329958254826
-0.136334303315778,-0.0839732556423624
-0.170733507884613,-0.135597535638098
-0.119158740317038,-0.103442271417921
-0.15004942378455,-0.0940847607533198
-0.153634140402175,-0.119521749001083
-0.130551963376717,-0.110855962697381
-0.120503084057768,-0.126211938049466
-0.125940837097532,-0.110932837620925
-0.123596721697464,-0.11092335365235
-0.139560535968156,-0.0982200026892162
-0.159335310471606,-0.126455095564
-0.129382796221052,-0.105938666513625
-0.105932563603278,-0.086359795016076
-0.116964292535063,-0.107375472027851
-0.103923474123867,-0.109643907520588
-0.108028911140235,-0.0916721374797926
-0.098750885981948,-0.108974869754878
-0.118574231620464,-0.138046509980571
-0.0852438349962245,-0.0752321305923753
-0.0454744163030854,-0.0743326138368094
-0.0585889552400436,-0.101052228389934
-0.0633899986996599,-0.113958965397241
-0.0656024427419494,-0.101778082549574
-0.0515680152759029,-0.129022581728772
-0.0542879021711564,-0.0896833043992394
-0.049556029918734,-0.118216877588981
-0.025301073826705,-0.109815358515481
-0.0253064481663952,-0.092040640644207
-0.035244694198582,-0.091256720617669
-0.0217401211666735,-0.0758945260367798
-0.00866577861274418,-0.0635039425196555
-0.00244128683498327,-0.0761905952784701
0.000972127255296582,-0.0744184282411627
0.00787105538330576,-0.0707239812502111
0.0510993185404163,-0.0881698604541907
0.0469410825747039,-0.0253518708981673
0.0400984862747031,-0.0515419165891582
0.0863070114193074,-0.0680214109391361
0.0605179394831245,-0.0563392677333919
0.0262056431447465,0.00108981840978068
0.0703531140991088,-0.0308040527172663
0.10090844724567,-0.00894138732060368
0.0795173439719386,0.00749270089602173
0.0860416910045137,-0.0190657372778908
0.0900218955273861,-0.015984126798608
0.076902167651675,-0.0318746734518553
0.111135542847605,-0.00409841026526587
0.100521849803056,0.02442656602359
0.14115251298903,-0.0160637372457337
0.127459614433418,0.00777006690972877
0.135498808246902,0.0176731499983443
0.146425813425613,-0.00544494837865388
0.127966287578978,0.0249120560894763
0.14363974262482,0.028227678693151
0.16344582721779,0.0208700356827192
0.138464029385724,-0.00963050076853492
0.156774814948009,0.0395017796713998
0.159326578382331,0.0426690757939337
0.126211267795218,0.10031095002669
0.176998533721917,0.0543035099579305
0.168880419451476,0.0500803458275999
0.189934408942972,0.0389796661541293
0.183399327325572,0.0940109151512046
0.174673393892325,0.0406271448783317
0.183291509707732,0.0743116125914142
0.187434833699123,0.0711103648285089
0.187645043849775,0.0669452712568799
0.148299122562249,0.0635975219804467
0.211234452909344,0.0634870646332718
0.192676150519901,0.0808324836735092
0.209284487679005,0.087481105480805
0.227109911310414,0.0848464493990647
0.21462938855299,0.0928434598369635
0.227343720678774,0.139500966354487
0.217905969754098,0.0962170309474941
0.25060444093408,0.100367070501364
0.231154303512663,0.0870810483902721
0.225111286272487,0.103954196028576
0.200471366252444,0.113803027661877
0.254164481705233,0.106227176426548
0.260480853969999,0.0709401493629289
0.265890484713932,0.0911926788919716
0.258233265407117,0.114683985734263
0.253850736769649,0.0887835284105442
0.230533930972879,0.127066681263084
0.25287828059562,0.108858159508018
0.22936947252193,0.140213635451159
0.240228368268602,0.12454515962542
0.237436418785347,0.131193738271772
0.263366980152074,0.193296707347548
0.241190236842036,0.12825100931999
0.205378644529434,0.129435570499555
0.252057067225,0.129552778622288
0.25409344151686,0.166241447266167
0.239525235884796,0.122800983941453
0.192565535768808,0.129092743060751
0.239808789734279,0.131187453244296
0.238003412249804,0.124976638482783
0.235281248596622,0.180504465658656
0.221789553706376,0.133267455993254
0.23478911548193,0.131831818893488
0.232335984004791,0.131437177422218
0.231434182248305,0.131239089322002
0.15781136737529,0.0175924250671767
0.10580750707482,0.23504881910228
0.150511414274215,0.212762065252386
0.126256265363721,0.237478089452029
0.332438625534353,0.0178539850322669
0.221483626371005,0.12798552903186
0.333199359421176,0.240404742759209
0.328549738485523,0.235250816541599
0.121800376565976,0.0507381899511951
0.223352326897772,0.155778181692661
0.314145871513655,0.00857515177741722
0.328850761675614,0.225439648244216
0.129403503101273,0.0290122051436336
0.203406672069836,0.114939908679265
0.304589022802903,0.0288952428123262
0.0901734935659739,-0.0355918343975932
0.300422609378373,0.0163812770578069
0.349751783422328,-0.0180134078429963
0.296521653449761,-0.00512524987878599
0.171799556362202,0.0597559646929022
0.186388651563006,0.110539257528063
0.279858189057355,0.041699486030866
0.301095174595552,0.205864864033019
0.0566457711859189,0.234499309523191
0.0393805490853568,0.189036094803287
0.043157758263778,0.207762819311233
0.180093770360965,0.128160096212707
0.278750469216563,-0.0162758764416853
0.247846237606575,0.187745199687424
0.153463040238138,0.123648734155678
0.149832294288688,0.0886011905040864
0.144735005950264,0.0853648665409587
0.135289726182965,0.0840592776065154
0.102239760536198,0.0978113499306373
0.142820498618306,0.0894051046724808
0.134847051018867,0.08482835623247
0.0898858480531372,0.0616753247633672
0.120170773864586,0.055062000692876
0.103182251358274,0.0577827100745958
0.085570801788059,0.0717539587798644
0.0255366167251015,0.0492587606786172
0.0680747663901086,0.0623274080193646
0.0728508099611362,-0.00316266404467998
0.0432774266240131,0.014985497742488
0.0399339517316912,0.0125054721483255
0.0365734896634953,0.0100036403105774
0.011579500551748,0.0116412815779636
-0.0146878469379956,-0.025094319806034
-0.033747270966486,-0.0444037850254857
-0.0593552834724077,-0.0415401446939401
-0.0534661351655602,-0.0722807332335449
-0.0240281073636902,-0.0617026643486837
-0.0404981899427718,-0.0485555198470929
-0.0824935118059615,-0.0929326824770872
-0.0797403313100598,-0.125297145929758
-0.0710978351982034,-0.0908242985828548
-0.0476388613216249,-0.111724198772779
-0.100787421994197,-0.0998866018583566
-0.102085804418505,-0.0853112382677013
-0.119202778553417,-0.0883132965535114
-0.13507688401462,-0.129685210604606
-0.161127657449887,-0.143182476040894
-0.154237725130159,-0.146782051463402
-0.170399277803148,-0.132302224445894
-0.209463124539225,-0.182635889102141
-0.20323908094294,-0.182009626529302
-0.168362959280496,-0.1712815982191
-0.205488534562846,-0.205737680528846
-0.216267665972895,-0.237519946288234
-0.231658018324768,-0.235919485819916
-0.227030636265621,-0.214941574955877
-0.261923011844514,-0.227370436453865
-0.230015675365194,-0.239453672594143
-0.289258951233641,-0.240629193801079
-0.309320772400604,-0.273153661145276
-0.289892162689399,-0.26463172311609
-0.298263169155295,-0.287453724663129
-0.305064353681821,-0.290562960673357
-0.327298878096428,-0.319063097375446
-0.334440590053123,-0.327052160849953
-0.337992235926585,-0.331058955908199
-0.341530680442098,-0.335073745974751
-0.323835502149422,-0.340789786229894
-0.352949586082807,-0.367707301599791
-0.376123938386151,-0.375631583158227
-0.407283977481195,-0.344951637998028
-0.421270988925653,-0.379401016232447
-0.437072613434238,-0.454371844335416
-0.466177500242692,-0.47206944287501
-0.498315535950735,-0.507507971035389
-0.535552226888554,-0.52076359902205
-0.497553050159535,-0.547257440012553
-0.468870206300527,-0.607504001770576
-0.541263990627821,-0.606538131026894
-0.53497334193273,-0.619423730384467
-0.534748930844892,-0.648784387371256
-0.536529697678422,-0.626448596578553
-0.561204407749412,-0.635830550627609
-0.561339456792927,-0.65971293767802
-0.557109322765435,-0.674382084449981
-0.559969077837945,-0.682798040955001
-0.565229470213436,-0.699588323328973
-0.565535590120211,-0.693160865624568
-0.59632267163396,-0.757170566925429
-0.582932063091298,-0.763237054834823
-0.580856982533619,-0.774243208157101
-0.55072074098849,-0.765825377790949
-0.57037491908623,-0.782674059563146
-0.582104109259112,-0.78650674304651
-0.555382405298204,-0.800658623865218
-0.597051971360051,-0.793725421713679
-0.613729174182587,-0.800588085758926
-0.583261302661503,-0.826924992668926
-0.583115588213629,-0.830924402254213
-0.570198434155764,-0.826297488008798
