0.286022022641412,-0.0510881451441467
0.512240131275382,0.287451823633833
-0.99053431305121,0.606953135122402
-0.322569440995239,0.60208908358281
0.345395431060731,0.597225032043217
0.0622213860752365,-0.382696516639412
0.745418969878308,-0.579322561469304
