-0.823327881095485,-0.798525386415809
-0.810327084086788,-0.798223852379389
-0.797403422352534,-0.797869672174834
-0.784556701413045,-0.797463209311215
-0.771786726788643,-0.7970048272976
-0.759093303999649,-0.79649488964306
-0.746476238566384,-0.795933759856663
-0.733935336009168,-0.79532180144748
-0.721470401848325,-0.794659377924579
-0.709081241604175,-0.79394685279703
-0.696767660797039,-0.793184589573903
-0.684529464947238,-0.792372951764266
-0.672366459575095,-0.791512302877191
-0.66027845020093,-0.790603006421746
-0.648265242345064,-0.789645425906999
-0.636326641527819,-0.788639924842022
-0.624462453269517,-0.787586866735883
-0.612672483090478,-0.786486615097652
-0.600956536511024,-0.785339533436399
-0.589314419051476,-0.784145985261192
-0.577745936232156,-0.782906334081102
-0.566250893573384,-0.781620943405197
-0.554829096595483,-0.780290176742548
-0.543480350818773,-0.778914397602223
-0.532204461763576,-0.777493969493293
-0.521001234950213,-0.776029255924826
-0.509870475899005,-0.774520620405892
-0.498811990130274,-0.772968426445561
-0.487825583164341,-0.771373037552902
-0.476911060521528,-0.769734817236985
-0.466068227722155,-0.768054129006879
-0.455296890286544,-0.766331336371653
-0.444596853735017,-0.764566802840377
-0.433967923587894,-0.762760891922121
-0.423409905365498,-0.760913967125953
-0.412922604588148,-0.759026391960944
-0.402505826776167,-0.757098529936163
-0.392159377449877,-0.755130744560679
-0.381883062129597,-0.753123399343562
-0.37167668633565,-0.751076857793881
-0.361540055588357,-0.748991483420706
-0.351472975408039,-0.746867639733106
-0.341475251315017,-0.744705690240151
-0.331546688829614,-0.74250599845091
-0.321687093472149,-0.740268927874452
-0.311896270762946,-0.737994842019849
-0.302174026222323,-0.735684104396167
-0.292520165370604,-0.733337078512477
-0.28293449372811,-0.730954127877849
-0.273416816815161,-0.728535616001352
-0.26396694015208,-0.726081906392056
-0.254584669259186,-0.723593362559029
-0.245269809656803,-0.721070348011342
-0.236022166865251,-0.718513226258064
-0.226841546404851,-0.715922360808264
-0.217727753795924,-0.713298115171011
-0.208680594558793,-0.710640852855377
-0.199699874213778,-0.707950937370429
-0.1907853982812,-0.705228732225237
-0.181936972281382,-0.702474600928871
-0.173154401734644,-0.699688906990401
-0.164437492161307,-0.696872013918895
-0.155786049081694,-0.694024285223423
-0.147199878016124,-0.691146084413054
-0.138678784484921,-0.688237774996859
-0.130222574008404,-0.685299720483906
-0.121831052106895,-0.682332284383266
-0.113504024300716,-0.679335830204007
-0.105241296110188,-0.676310721455199
-0.0970426730556315,-0.673257321645911
-0.0889079606573689,-0.670175994285213
-0.0808369644357208,-0.667067102882175
-0.0728294899110092,-0.663931010945865
-0.0648853426035549,-0.660768081985354
-0.0570043280336793,-0.657578679509711
-0.0491862517217038,-0.654363167028005
-0.0414309191879498,-0.651121908049306
-0.0337381359527384,-0.647855266082683
-0.0261077075363912,-0.644563604637205
-0.0185394394592291,-0.641247287221943
-0.0110331372415739,-0.637906677345966
-0.00358860640374661,-0.634542138518342
0.00379434753393129,-0.631154034248142
0.0111159190511387,-0.627742728044436
0.018376302627554,-0.624308583416291
0.0255756927428561,-0.62085196387278
0.0327142838767236,-0.617373232922969
0.0397922705088352,-0.613872754075929
0.0468098471188695,-0.61035089084073
0.0537672081865053,-0.60680800672644
0.0606645481914212,-0.60324446524213
0.0675020616132961,-0.599660629896869
0.0742799429318081,-0.596056864199726
0.0809983866266365,-0.592433531659772
0.0876575871774598,-0.588790995786074
0.0942577390639566,-0.585129620087702
0.100799036765805,-0.581449768073728
0.107281674762685,-0.577751803253219
0.113705847534275,-0.574036089135245
0.120071749560253,-0.570302989228875
0.126379575320297,-0.56655286704318
0.132629519294087,-0.562786086087228
0.138821775961302,-0.559003009870089
0.144956539801619,-0.555204001900833
0.151034005294718,-0.551389425688529
0.157054366920278,-0.547559644742247
0.163017819157976,-0.543715022571055
0.168924556487492,-0.539855922684023
0.174774773388505,-0.535982708590222
0.180568664340693,-0.53209574379872
0.186306423823734,-0.528195391818587
0.191988246317308,-0.524282016158891
0.197614326301093,-0.520355980328704
0.203184858254767,-0.516417647837094
0.20870003665801,-0.512467382193131
0.2141600559905,-0.508505546905884
0.219565110731917,-0.504532505484423
0.224915395361937,-0.500548621437816
0.230211104360241,-0.496554258275134
0.235452432206506,-0.492549779505447
0.240639573380412,-0.488535548637823
0.245772722361638,-0.484511929181332
0.250852073629861,-0.480479284645043
0.255877821664761,-0.476437978538026
0.260850160946016,-0.472388374369351
0.265769285953305,-0.468330835648087
0.270635391166307,-0.464265725883303
0.2754486710647,-0.460193408584069
0.280209320128163,-0.456114247259454
0.284917532836374,-0.452028605418529
0.289573503669013,-0.447936846570361
0.294177427105758,-0.443839334224021
0.298729497626288,-0.439736431888578
0.303229909710281,-0.435628503073103
0.307678857837416,-0.431515911286663
0.312076536487372,-0.427399020038328
0.316423140139827,-0.423278192837169
0.320718863274461,-0.419153793192255
0.324963900370951,-0.415026184612654
0.329158445908976,-0.410895730607437
0.333302694368216,-0.406762794685673
0.337396840228349,-0.402627740356432
0.341441077969053,-0.398490931128782
0.345435602070007,-0.394352730511794
0.349380607010891,-0.390213502014537
0.353276287271381,-0.38607360914608
0.357122837331158,-0.381933415415493
0.3609204516699,-0.377793284331845
0.364669324767286,-0.373653579404207
0.368369651102994,-0.369514664141646
0.372021625156702,-0.365376902053233
0.375625441408091,-0.361240656648037
0.379181294336837,-0.357106291435128
0.382689378422621,-0.352974169923575
0.38614988814512,-0.348844655622447
0.389563017984014,-0.344718112040815
0.392928962418981,-0.340594902687747
0.396247915929699,-0.336475391072314
0.399520072995848,-0.332359940703583
0.402745628097106,-0.328248915090626
0.405924775713152,-0.324142677742511
0.409057710323664,-0.320041592168308
0.412144626408321,-0.315946021877087
0.415185718446802,-0.311856330377916
0.418181180918786,-0.307772881179866
0.42113120830395,-0.303696037792005
0.424035995081975,-0.299626163723404
0.426895735732538,-0.295563622483132
0.429710624735318,-0.291508777580257
0.432480856569994,-0.287461992523851
0.435206625716245,-0.283423630822981
0.437888126653749,-0.279394055986719
0.440525553862185,-0.275373631524132
0.443119101821231,-0.271362720944291
0.445668965010567,-0.267361687756265
0.448175337909871,-0.263370895469123
0.450638414998821,-0.259390707591936
0.453058390757097,-0.255421487633772
0.455435459664377,-0.251463599103701
0.457769816200339,-0.247517405510792
0.460061654844663,-0.243583270364115
0.462311170077027,-0.23966155717274
0.464518556377109,-0.235752629445735
0.466684008224589,-0.231856850692171
0.468807720099145,-0.227974584421117
0.470889886480456,-0.224106194141642
0.4729307018482,-0.220252043362815
0.474930360682057,-0.216412495593707
0.476889057461704,-0.212587914343386
0.47880698666682,-0.208778663120923
0.480684342777085,-0.204985105435386
0.482521320272177,-0.201207604795845
0.484318113631774,-0.19744652471137
0.486074917335556,-0.19370222869103
0.4877919258632,-0.189975080243894
0.489469333694386,-0.186265442879032
0.491107335308792,-0.182573680105514
0.492706125186097,-0.178900155432409
0.49426589780598,-0.175245232368786
0.495786847648119,-0.171609274423715
0.497269169192193,-0.167992645106265
0.498713056917881,-0.164395707925506
0.500118705304861,-0.160818826390508
0.501486308832812,-0.157262364010339
0.502816061981412,-0.153726684294069
0.504108159230342,-0.150212150750768
0.505362795059278,-0.146719126889505
0.5065801639479,-0.14324797621935
0.507760460375886,-0.139799062249372
0.508903878822915,-0.136372748488641
0.510010613768667,-0.132969398446226
0.511080859692818,-0.129589375631196
0.512114811075049,-0.126233043552621
0.513112662395037,-0.122900765719571
0.514074608132463,-0.119592905641114
0.515000842767003,-0.116309826826321
0.515891560778337,-0.113051892784261
0.516746956646144,-0.109819467024004
0.517567224850102,-0.106612913054618
0.51835255986989,-0.103432594385173
0.519103156185186,-0.10027887452474
0.51981920827567,-0.097152116982386
0.520500910621019,-0.0940526852671824
0.521148457700914,-0.0909809428881978
0.521762043995031,-0.087937253354502
0.522341863983051,-0.0849219801751643
0.522888112144651,-0.0819354868592543
0.523400982959511,-0.0789781369158412
0.523880670907308,-0.0760502938539948
0.524327370467722,-0.0731523211827844
0.524741276120432,-0.0702845824112796
0.525122582345116,-0.0674474410485497
0.525471483621452,-0.0646412606036643
0.525788174429121,-0.0618664045856928
0.526072849247799,-0.0591232365037047
0.526325702557165,-0.0564121198667695
0.5265469288369,-0.0537334181839567
0.52673672256668,-0.0510874949643356
0.526895278226186,-0.0484747137169759
0.527022790295094,-0.0458954379509468
0.527119453253086,-0.0433500311753181
0.527185461579837,-0.040838856899159
0.527221009755029,-0.0383622786315392
0.527226292258339,-0.0359206598815279
0.527201503569445,-0.0335143641581948
0.527146838168028,-0.0311437549706093
0.527062490533764,-0.028809195827841
0.526948655146333,-0.026511050238959
0.526805526485414,-0.0242496817130332
0.526633299030686,-0.0220254537591328
0.526432167261826,-0.0198387298863274
0.526202325658514,-0.0176898736036864
0.525943968700429,-0.0155792484202793
0.525657290867248,-0.0135072178451756
0.525342486638651,-0.0114741453874448
0.524999750494317,-0.00948039455615619
0.524629276913924,-0.00752632886037952
0.52423126037715,-0.00561231180918399
0.523805895363675,-0.00373870691163929
0.523353376353177,-0.00190587767681474
0.522873897825335,-0.000114187613779911
0.522367654259827,0.00163599976839576
0.521834840136333,0.00334432096064283
0.52127564993453,0.00501041245389178
0.520690278134098,0.00663391073907313
0.520078919214715,0.00821445230711752
0.51944176765606,0.00975167364895527
0.518779017937811,0.0112452112555171
0.518090864539648,0.0126947016177335
0.517377501941249,0.0140997812265349
0.516639124622292,0.0154600865728519
0.515875927062457,0.0167752541476151
0.515088103741421,0.0180449204417548
0.514275849138864,0.0192687219462018
0.513439357734465,0.0204462951518864
0.512578824007902,0.0215772765497394
0.511694442438853,0.022661302630691
0.510786407506997,0.0236980098856719
0.509854913692014,0.0246870348056127
0.508900155473581,0.0256280138814437
0.507922327331378,0.0265205836040957
0.506921623745083,0.0273643804644991
0.505898239194375,0.0281590409535843
0.504852368158932,0.0289042015622821
0.503784205118433,0.0295994987815227
0.502693944552557,0.030244569102237
0.501581780940983,0.0308390490153552
0.500447908763389,0.0313825750118081
0.499292522499453,0.0318747835825259
0.498115816628855,0.0323153112184394
0.496917985631274,0.0327037944104791
0.495699223986387,0.0330398696495754
0.494459726173874,0.0333231734266589
0.493199686673413,0.0335533422326602
0.491919299964683,0.0337300125585097
0.490618760527362,0.033852820895138
0.489298262841131,0.0339214037334755
0.487958001385665,0.0339353975644529
0.486598170640646,0.0338944388790008
0.485218965085751,0.0337981641680494
0.483820579200659,0.0336462099225295
0.482403207465049,0.0334382126333716
0.480967044358599,0.0331738087915061
0.479512284360988,0.0328526348878637
0.478039121951895,0.0324743274133748
0.476547751610998,0.0320385228589698
0.475038367817976,0.0315448577155796
0.473511165052508,0.0309929684741344
0.471966337794273,0.0303824916255649
0.470404080522949,0.0297130636608015
0.468824587718214,0.0289843210707748
0.467228053859748,0.0281959003464154
0.46561467342723,0.0273474379786537
0.463984640900337,0.0264385704584202
0.462338150758749,0.0254689342766456
0.460675397482144,0.0244381659242603
0.4589965755502,0.0233459018921949
0.457301879442598,0.0221917786713799
0.455591503639015,0.0209754327527458
0.453865642619129,0.0196965006272231
0.452124490862621,0.0183546187857424
0.450368242849167,0.0169494237192342
0.448597093058448,0.015480551918629
0.446811235970141,0.0139476398748574
0.445010866063926,0.0123503240788499
0.44319617781948,0.0106882410215369
0.441367365716484,0.00896102719384916
0.439524624234614,0.00716831908671697
0.437668147853551,0.00530975319107113
0.435798131052973,0.00338496599784186
0.433914768312558,0.00139359399795989
0.432018254111985,-0.000664726317644318
0.430108782930933,-0.00279035845804015
0.42818654924908,-0.00498366593229725
0.426251747546106,-0.00724501224948489
0.424304572301688,-0.00957476091867276
0.422345217995506,-0.0119732754489301
0.420373879107238,-0.0144409193493266
0.418390750116564,-0.0169780561289316
0.41639602550316,-0.0195850492968146
0.414389899746707,-0.022262262362045
0.412372567326883,-0.0250100588336926
0.410344222723366,-0.0278288022208263
0.408305060415835,-0.0307188560325161
0.40625527488397,-0.0336805837778311
0.404195060607448,-0.0367143489658411
0.402124612065949,-0.0398205151056153
0.40004412373915,-0.0429994457062234
0.397953790106732,-0.0462515042767346
0.395853805648371,-0.0495770543262187
0.393744364843748,-0.0529764593637448
0.39162566217254,-0.0564500828983828
0.389497892114427,-0.0599982884392018
0.387361249149087,-0.0636214394952715
0.385215927756199,-0.0673198995756612
0.383062122415441,-0.0710940321894405
0.380900027606492,-0.0749442008456788
0.378729837809031,-0.0788707690534457
0.376551747502736,-0.0828741003218105
0.374365951167287,-0.0869545581598429
0.372172643282362,-0.091112506076612
0.369972018327639,-0.0953483075811877
0.367764270782797,-0.099662326182639
0.365549595127515,-0.104054925390036
0.363328185841472,-0.108526468712448
0.361100237404346,-0.113077319658943
0.358865944295816,-0.117707841738593
0.35662550099556,-0.122418398460466
0.354379101983258,-0.127209353333632
0.352126941738588,-0.132081069867159
0.349869214741228,-0.137033911570119
0.347606115470858,-0.142068241951579
0.345337838407156,-0.14718442452061
0.3430645780298,-0.152382822786282
0.34078652881847,-0.157663800257662
0.338503885252844,-0.163027720443822
0.336216841812601,-0.16847494685383
0.333925592977419,-0.174005842996757
0.331630333226977,-0.17962077238167
0.329331257040954,-0.185320098517641
0.327028558899028,-0.191104184913738
0.324722433280879,-0.196973395079031
0.322413074666184,-0.202928092522588
0.320100677534623,-0.208968640753481
0.317785436365874,-0.215095403280778
0.315467545639616,-0.221308743613549
0.313147199835527,-0.227609025260863
0.310824593433287,-0.23399661173179
0.308499920912573,-0.240471866535399
0.306173376753066,-0.24703515318076
0.303845155434442,-0.253686835176941
0.301515451436381,-0.260427276033013
0.299184459238562,-0.267256839258045
0.296852373320664,-0.274175888361107
0.294519388162364,-0.281184786851268
0.292185698243342,-0.288283898237597
0.289851498043276,-0.295473586029164
0.287516982041845,-0.302754213735039
0.285182344718729,-0.31012614486429
0.282847780553604,-0.317589742925988
