-0.777332659985275,-0.479303088912435
-0.76744237931362,-0.478421181830218
-0.757655524275414,-0.477557457627194
-0.747971614963838,-0.476711825787353
-0.738390171472073,-0.475884195794686
-0.728910713893299,-0.475074477133182
-0.719532762320697,-0.474282579286832
-0.710255836847448,-0.473508411739625
-0.701079457566733,-0.472751883975552
-0.692003144571731,-0.472012905478603
-0.683026417955625,-0.471291385732768
-0.674148797811594,-0.470587234222037
-0.665369804232819,-0.4699003604304
-0.656688957312482,-0.469230673841847
-0.648105777143762,-0.468578083940369
-0.63961978381984,-0.467942500209955
-0.631230497433898,-0.467323832134596
-0.622937438079116,-0.466721989198281
-0.614740125848674,-0.466136880885001
-0.606638080835753,-0.465568416678745
-0.598630823133535,-0.465016506063505
-0.590717872835199,-0.46448105852327
-0.582898750033926,-0.463961983542029
-0.575172974822898,-0.463459190603774
-0.567540067295294,-0.462972589192494
-0.559999547544296,-0.462502088792179
-0.552550935663084,-0.46204759888682
-0.545193751744839,-0.461609028960407
-0.537927515882742,-0.461186288496929
-0.530751748169973,-0.460779286980377
-0.523665968699713,-0.46038793389474
-0.516669697565143,-0.46001213872401
-0.509762454859444,-0.459651810952175
-0.502943760675796,-0.459306860063227
-0.496213135107379,-0.458977195541155
-0.489570098247375,-0.458662726869949
-0.483014170188965,-0.4583633635336
-0.476544871025329,-0.458079015016097
-0.470161720849647,-0.45780959080143
-0.4638642397551,-0.457555000373591
-0.45765194783487,-0.457315153216568
-0.451524365182137,-0.457089958814352
-0.445481011890081,-0.456879326650933
-0.439521408051884,-0.456683166210301
-0.433645073760726,-0.456501386976446
-0.427851529109787,-0.456333898433358
-0.422140294192249,-0.456180610065028
-0.416510889101292,-0.456041431355445
-0.410962833930096,-0.4559162717886
-0.405495648771844,-0.455805040848482
-0.400108853719714,-0.455707648019082
-0.394801968866888,-0.45562400278439
-0.389574514306548,-0.455554014628395
-0.384426010131872,-0.455497593035089
-0.379355976436043,-0.455454647488461
-0.37436393331224,-0.455425087472501
-0.369449400853645,-0.455408822471199
-0.364611899153438,-0.455405761968546
-0.3598509483048,-0.455415815448531
-0.355166068400911,-0.455438892395144
-0.350556779534953,-0.455474902292377
-0.346022601800106,-0.455523754624218
-0.341563055289551,-0.455585358874658
-0.337177660096468,-0.455659624527686
-0.332865936314038,-0.455746461067294
-0.328627404035443,-0.455845777977471
-0.324461583353861,-0.455957484742207
-0.320367994362475,-0.456081490845493
-0.316346157154466,-0.456217705771318
-0.312395591823012,-0.456366039003672
-0.308515818461297,-0.456526400026546
-0.304706357162499,-0.45669869832393
-0.3009667280198,-0.456882843379813
-0.297296451126381,-0.457078744678187
-0.293695046575422,-0.45728631170304
-0.290162034460104,-0.457505453938363
-0.286696934873608,-0.457736080868147
-0.283299267909114,-0.457978101976381
-0.279968553659803,-0.458231426747055
-0.276704312218856,-0.458495964664159
-0.273506063679453,-0.458771625211685
-0.270373328134776,-0.45905831787362
-0.267305625678004,-0.459355952133957
-0.26430247640232,-0.459664437476684
-0.261363400400902,-0.459983683385792
-0.258487917766933,-0.460313599345272
-0.255675548593592,-0.460654094839112
-0.252925812974061,-0.461005079351303
-0.25023823100152,-0.461366462365836
-0.24761232276915,-0.4617381533667
-0.245047608370132,-0.462120061837886
-0.242543607897645,-0.462512097263383
-0.240099841444872,-0.462914169127182
-0.237715829104993,-0.463326186913273
-0.235391090971188,-0.463748060105645
-0.233125147136638,-0.46417969818829
-0.230917517694524,-0.464621010645196
-0.228767722738027,-0.465071906960355
-0.226675282360326,-0.465532296617756
-0.224639716654604,-0.466002089101389
-0.222660545714041,-0.466481193895245
-0.220737289631817,-0.466969520483313
-0.218869468501112,-0.467466978349583
-0.217056602415109,-0.467973476978047
-0.215298211466988,-0.468488925852693
-0.213593815749928,-0.469013234457512
-0.211942935357112,-0.469546312276494
-0.210345090381719,-0.470088068793629
-0.20879980091693,-0.470638413492908
-0.207306587055927,-0.471197255858319
-0.205864968891889,-0.471764505373854
-0.204474466517998,-0.472340071523503
-0.203134600027434,-0.472923863791255
-0.201844889513378,-0.4735157916611
-0.20060485506901,-0.47411576461703
-0.199414016787512,-0.474723692143033
-0.198271894762064,-0.4753394837231
-0.197178009085847,-0.475963048841221
-0.196131879852041,-0.476594296981386
-0.195133027153827,-0.477233137627586
-0.194180971084386,-0.477879480263809
-0.193275231736899,-0.478533234374048
-0.192415329204545,-0.47919430944229
-0.191600783580507,-0.479862614952527
-0.190831114957965,-0.480538060388749
-0.190105843430099,-0.481220555234946
-0.18942448909009,-0.481910008975108
-0.188786572031119,-0.482606331093224
-0.188191612346366,-0.483309431073286
-0.187639130129013,-0.484019218399282
-0.18712864547224,-0.484735602555204
-0.186659678469227,-0.485458493025041
-0.186231749213156,-0.486187799292784
-0.185844377797207,-0.486923430842422
-0.18549708431456,-0.487665297157946
-0.185189388858397,-0.488413307723346
-0.184920811521898,-0.489167372022611
-0.184690872398245,-0.489927399539732
-0.184499091580616,-0.4906932997587
-0.184344989162194,-0.491464982163503
-0.18422808523616,-0.492242356238132
-0.184147899895692,-0.493025331466578
-0.184103953233974,-0.49381381733283
-0.184095765344184,-0.494607723320879
-0.184122856319505,-0.495406958914714
-0.184184746253116,-0.496211433598326
-0.184280955238198,-0.497021056855705
-0.184411003367932,-0.49783573817084
-0.184574410735499,-0.498655387027722
-0.184770697434079,-0.499479912910342
-0.184999383556854,-0.500309225302688
-0.185259989197003,-0.501143233688752
-0.185552034447708,-0.501981847552523
-0.185875039402149,-0.502824976377992
-0.186228524153507,-0.503672529649147
-0.186612008794963,-0.504524416849981
-0.187025013419697,-0.505380547464482
-0.18746705812089,-0.506240830976641
-0.187937662991723,-0.507105176870448
-0.188436348125377,-0.507973494629893
-0.188962633615032,-0.508845693738966
-0.189516039553868,-0.509721683681657
-0.190096086035068,-0.510601373941956
-0.19070229315181,-0.511484674003854
-0.191334180997277,-0.51237149335134
-0.191991269664648,-0.513261741468405
-0.192673079247105,-0.514155327839038
-0.193379129837828,-0.51505216194723
-0.194108941529998,-0.515952153276971
-0.194862034416796,-0.516855211312251
-0.195637928591402,-0.51776124553706
-0.196436144146997,-0.518670165435388
-0.197256201176761,-0.519581880491225
-0.198097619773876,-0.520496300188561
-0.198959920031522,-0.521413334011387
-0.19984262204288,-0.522332891443692
-0.200745245901131,-0.523254881969467
-0.201667311699455,-0.524179215072701
-0.202608339531032,-0.525105800237385
-0.203567849489045,-0.526034546947509
-0.204545361666673,-0.526965364687063
-0.205540396157097,-0.527898162940038
-0.206552473053497,-0.528832851190422
-0.207581112449056,-0.529769338922206
-0.208625834436952,-0.530707535619381
-0.209686159110368,-0.531647350765936
-0.210761606562483,-0.532588693845862
-0.211851696886478,-0.533531474343148
-0.212955950175534,-0.534475601741785
-0.214073886522833,-0.535420985525763
-0.215205026021553,-0.536367535179072
-0.216348888764877,-0.537315160185701
-0.217504994845985,-0.538263770029642
-0.218672864358058,-0.539213274194884
-0.219852017394275,-0.540163582165417
-0.221041974047819,-0.541114603425231
-0.222242254411869,-0.542066247458317
-0.223452378579607,-0.543018423748665
-0.224671866644213,-0.543971041780264
-0.225900238698868,-0.544924011037105
-0.227137014836753,-0.545877241003178
-0.228381715151048,-0.546830641162472
-0.229633859734933,-0.547784120998979
-0.230892968681591,-0.548737589996688
-0.2321585620842,-0.549690957639589
-0.233430160035943,-0.550644133411672
-0.23470728263,-0.551597026796928
-0.235989449959551,-0.552549547279346
-0.237276182117778,-0.553501604342917
-0.23856699919786,-0.55445310747163
-0.23986142129298,-0.555403966149476
-0.241158968496316,-0.556354089860446
-0.242459160901051,-0.557303388088528
-0.243761518600364,-0.558251770317713
-0.245065561687437,-0.559199146031991
-0.24637081025545,-0.560145424715352
-0.247676784397584,-0.561090515851787
-0.248983004207019,-0.562034328925285
-0.250288989776937,-0.562976773419837
-0.251594261200518,-0.563917758819433
-0.252898338570943,-0.564857194608062
-0.254200741981392,-0.565794990269715
-0.255500991525046,-0.566731055288381
-0.256798607295086,-0.567665299148052
-0.258093109384693,-0.568597631332717
-0.259384017887047,-0.569527961326366
-0.260670852895328,-0.57045619861299
-0.261953134502719,-0.571382252676577
-0.263230382802399,-0.572306033001119
-0.264502117887549,-0.573227449070606
-0.26576785985135,-0.574146410369028
-0.267027128786983,-0.575062826380374
-0.268279444787628,-0.575976606588635
-0.269524327946466,-0.576887660477801
-0.270761298356677,-0.577795897531862
-0.271989876111443,-0.578701227234808
-0.273209581303944,-0.579603559070629
-0.27441993402736,-0.580502802523316
-0.275620454374873,-0.581398867076858
-0.276810662439664,-0.582291662215245
-0.277990078314912,-0.583181097422468
-0.279158222093799,-0.584067082182517
-0.280314613869505,-0.584949525979382
-0.281458773735212,-0.585828338297052
-0.282590221784099,-0.586703428619519
-0.283708478109347,-0.587574706430771
-0.284813062804138,-0.5884420812148
-0.285903495961651,-0.589305462455595
-0.286979297675068,-0.590164759637146
-0.28803998803757,-0.591019882243444
-0.289085087142336,-0.591870739758478
-0.290114115082548,-0.592717241666239
-0.291126591951387,-0.593559297450716
-0.292122037842033,-0.594396816595901
-0.293099972847666,-0.595229708585782
-0.294059917061468,-0.59605788290435
-0.29500139057662,-0.596881249035596
-0.295923913486301,-0.597699716463509
-0.296827005883693,-0.598513194672079
-0.297710187861976,-0.599321593145296
-0.298572979514332,-0.600124821367151
-0.29941490093394,-0.600922788821633
-0.300235472213982,-0.601715404992733
-0.301034213447638,-0.602502579364441
-0.301810644728089,-0.603284221420746
-0.302564286148515,-0.60406024064564
-0.303294657802098,-0.604830546523112
-0.304001279782018,-0.605595048537151
-0.304683672181456,-0.606353656171749
-0.305341355093592,-0.607106278910896
-0.305973848611607,-0.60785282623858
-0.306580672828683,-0.608593207638794
-0.307161347837999,-0.609327332595525
-0.307715393732736,-0.610055110592766
-0.308242330606075,-0.610776451114505
-0.308741678551197,-0.611491263644733
-0.309212957661282,-0.612199457667441
-0.309655688029512,-0.612900942666617
-0.310069389749066,-0.613595628126252
-0.310453582913126,-0.614283423530337
-0.310807787614872,-0.614964238362861
-0.311131523947485,-0.615637982107815
-0.311424312004146,-0.616304564249188
-0.311685671878035,-0.616963894270971
-0.311915123662334,-0.617615881657153
-0.312112187450222,-0.618260435891726
-0.31227638333488,-0.618897466458678
-0.31240723140949,-0.619526882842
-0.312504251767232,-0.620148594525682
-0.312566964501287,-0.620762510993715
-0.312594889704834,-0.621368541730088
-0.312587547471056,-0.621966596218791
-0.312544457893133,-0.622556583943815
-0.312465141064245,-0.623138414389149
-0.312349117077573,-0.623711997038784
-0.312195906026299,-0.62427724137671
-0.312005028003602,-0.624834056886917
-0.311776003102663,-0.625382353053394
-0.311508351416663,-0.625922039360133
-0.311201593038783,-0.626453025291123
-0.310855248062203,-0.626975220330354
-0.310468836580105,-0.627488533961816
-0.310041878685668,-0.6279928756695
-0.309573894472074,-0.628488154937395
-0.309064404032503,-0.628974281249492
-0.308512927460137,-0.629451164089781
-0.307918984848154,-0.629918712942251
-0.307282096289738,-0.630376837290894
-0.306601781878067,-0.630825446619698
-0.305877561706324,-0.631264450412654
-0.305108955867687,-0.631693758153753
-0.304295484455339,-0.632113279326984
-0.30343666756246,-0.632522923416337
-0.302532025282231,-0.632922599905803
-0.301581077707832,-0.633312218279371
-0.300583344932444,-0.633691688021032
-0.299538347049248,-0.634060918614776
-0.298445604151424,-0.634419819544593
-0.297304636332154,-0.634768300294472
-0.296114963684617,-0.635106270348405
-0.294876106301996,-0.63543363919038
-0.293587584277469,-0.635750316304389
-0.292248917704219,-0.636056211174421
-0.290859626675425,-0.636351233284467
-0.289419231284268,-0.636635292118516
-0.28792725162393,-0.636908297160559
-0.286383207787591,-0.637170157894585
-0.284786619868431,-0.637420783804585
-0.283137007959632,-0.637660084374549
-0.281433892154373,-0.637887969088468
-0.279676792545837,-0.63810434743033
-0.277865229227202,-0.638309128884126
-0.275998722291651,-0.638502222933846
-0.274076791832364,-0.638683539063481
-0.272098957942521,-0.63885298675702
-0.270064740715304,-0.639010475498454
-0.267973660243892,-0.639155914771773
-0.265825236621467,-0.639289214060966
-0.263618989941209,-0.639410282850024
-0.2613544402963,-0.639519030622937
-0.259031107779919,-0.639615366863695
-0.256648512485248,-0.639699201056288
-0.254206174505467,-0.639770442684706
-0.251703613933757,-0.639829001232939
-0.249140350863299,-0.639874786184978
-0.246515905387273,-0.639907707024812
-0.24382979759886,-0.639927673236433
-0.241081547591241,-0.639934594303828
-0.238270675457596,-0.639928379710989
-0.235396701291106,-0.639908938941906
-0.232459145184953,-0.63987618148057
-0.229457527232315,-0.639830016810969
-0.226391367526376,-0.639770354417094
-0.223260186160314,-0.639697103782936
-0.220063503227311,-0.639610174392484
-0.216800838820547,-0.639509475729728
-0.213471713033204,-0.639394917278659
-0.210075645958461,-0.639266408523266
-0.2066121576895,-0.63912385894754
-0.203080768319501,-0.638967178035471
-0.199480997941645,-0.638796275271049
-0.195812366649113,-0.638611060138264
-0.192074394535085,-0.638411442121106
-0.188266601692742,-0.638197330703565
-0.184388508215265,-0.637968635369631
-0.180439634195835,-0.637725265603295
-0.176419499727632,-0.637467130888546
-0.172327624903837,-0.637194140709375
-0.16816352981763,-0.636906204549771
-0.163926734562193,-0.636603231893725
-0.159616759230706,-0.636285132225227
-0.155233123916349,-0.635951815028267
-0.150775348712304,-0.635603189786834
-0.146242953711751,-0.63523916598492
-0.141635459007872,-0.634859653106514
-0.136952384693845,-0.634464560635607
-0.132193250862853,-0.634053798056188
-0.127357577608076,-0.633627274852247
-0.122444885022695,-0.633184900507775
-0.11745469319989,-0.632726584506762
-0.112386522232843,-0.632252236333197
-0.107239892214733,-0.631761765471071
-0.102014323238742,-0.631255081404374
-0.0967093353980501,-0.630732093617097
-0.0913244487858382,-0.630192711593228
-0.0858591834952869,-0.629636844816759
-0.0803130596195772,-0.629064402771679
-0.0746855972518893,-0.628475294941978
-0.0689763164854045,-0.627869430811647
-0.063184737413303,-0.627246719864676
-0.057310380128766,-0.626607071585054
-0.0513527647249737,-0.625950395456772
-0.0453114112951073,-0.62527660096382
-0.0391858399323469,-0.624585597590188
-0.032975570729874,-0.623877294819866
-0.0266801237808685,-0.623151602136844
-0.0202990191785118,-0.622408429025112
-0.013831777015984,-0.621647684968661
-0.00727791738646638,-0.620869279451481
-0.000636960383139096,-0.620073121957561
