-0.616877935457744,0.875883665268966
-0.619296000140903,0.87364584674124
-0.62168171308094,0.871378262826204
-0.624035185308868,0.869081182810807
-0.6263565278557,0.866754875981998
-0.628645851752448,0.864399611626727
-0.630903268030126,0.86201565903194
-0.633128887719747,0.859603287484587
-0.635322821852323,0.857162766271618
-0.637485181458868,0.85469436467998
-0.639616077570395,0.852198351996623
-0.641715621217916,0.849674997508494
-0.643783923432446,0.847124570502544
-0.645821095244995,0.844547340265721
-0.647827247686579,0.841943576084973
-0.649802491788208,0.839313547247249
-0.651746938580898,0.836657523039498
-0.65366069909566,0.833975772748669
-0.655543884363507,0.831268565661711
-0.657396605415453,0.828536171065571
-0.659218973282511,0.8257788582472
-0.661011098995693,0.822996896493546
-0.662773093586013,0.820190555091557
-0.664505068084483,0.817360103328182
-0.666207133522117,0.814505810490371
-0.667879400929927,0.811627945865072
-0.669521981338927,0.808726778739232
-0.671134985780129,0.805802578399803
-0.672718525284547,0.802855614133731
-0.674272710883193,0.799886155227966
-0.67579765360708,0.796894470969457
-0.677293464487222,0.793880830645152
-0.678760254554632,0.790845503542001
-0.680198134840321,0.787788758946951
-0.681607216375305,0.784710866146952
-0.682987610190594,0.781612094428952
-0.684339427317203,0.7784927130799
-0.685662778786144,0.775352991386746
-0.686957775628431,0.772193198636437
-0.688224528875075,0.769013604115922
-0.689463149557092,0.765814477112151
-0.690673748705493,0.762596086912071
-0.69185643735129,0.759358702802632
-0.693011326525498,0.756102594070783
-0.69413852725913,0.752828030003472
-0.695238150583198,0.749535279887648
-0.696310307528714,0.74622461301026
-0.697355109126694,0.742896298658256
-0.698372666408148,0.739550606118585
-0.699363090404091,0.736187804678197
-0.700326492145535,0.732808163624039
-0.701262982663493,0.729411952243061
-0.702172672988978,0.725999439822211
-0.703055674153004,0.722570895648438
-0.703912097186582,0.719126589008691
-0.704742053120727,0.715666789189918
-0.705545652986451,0.712191765479069
-0.706323007814767,0.708701787163092
-0.707074228636688,0.705197123528936
-0.707799426483227,0.701678043863549
-0.708498712385398,0.698144817453881
-0.709172197374212,0.69459771358688
-0.709819992480684,0.691037001549494
-0.710442208735825,0.687462950628673
-0.71103895717065,0.683875830111366
-0.711610348816171,0.680275909284521
-0.7121564947034,0.676663457435086
-0.712677505863352,0.673038743850012
-0.713173493327039,0.669402037816246
-0.713644568125474,0.665753608620737
-0.714090841289669,0.662093725550433
-0.714512423850639,0.658422657892285
-0.714909426839396,0.65474067493324
-0.715281961286953,0.651048045960247
-0.715630138224322,0.647345040260255
-0.715954068682518,0.643631927120213
-0.716253863692553,0.63990897582707
-0.716529634285439,0.636176455667773
-0.71678149149219,0.632434635929273
-0.71700954634382,0.628683785898517
-0.71721390987134,0.624924174862455
-0.717394693105764,0.621156072108035
-0.717552007078105,0.617379746922206
-0.717685962819375,0.613595468591917
-0.717796671360589,0.609803506404117
-0.717884243732758,0.606004129645754
-0.717948790966896,0.602197607603777
-0.717990424094016,0.598384209565134
-0.718009254145131,0.594564204816776
-0.718005392151254,0.590737862645649
-0.717978949143397,0.586905452338704
-0.717930036152574,0.583067243182889
-0.717858764209798,0.579223504465152
-0.717765244346081,0.575374505472443
-0.717649587592438,0.571520515491709
-0.717511904979879,0.567661803809901
-0.71735230753942,0.563798639713966
-0.717170906302073,0.559931292490854
-0.71696781229885,0.556060031427512
-0.716743136560764,0.552185125810891
-0.71649699011883,0.548306844927938
-0.716229484004059,0.544425458065603
-0.715940729247465,0.540541234510834
-0.71563083688006,0.53665444355058
-0.715299917932858,0.53276535447179
-0.714948083436872,0.528874236561412
-0.714575444423114,0.524981359106395
-0.714182111922597,0.521086991393688
-0.713768196966336,0.51719140271024
-0.713333810585342,0.513294862343
-0.712879063810628,0.509397639578916
-0.712404067673208,0.505500003704937
-0.711908933204094,0.501602224008011
-0.7113937714343,0.497704569775088
-0.710858693394839,0.493807310293117
-0.710303810116723,0.489910714849045
-0.709729232630965,0.486015052729822
-0.709135071968579,0.482120593222397
-0.708521439160578,0.478227605613718
-0.707888445237973,0.474336359190734
-0.70723620123178,0.470447123240395
-0.70656481817301,0.466560167049647
-0.705874407092676,0.462675759905441
-0.705165079021791,0.458794171094725
-0.704436944991369,0.454915669904448
-0.703690116032422,0.451040525621559
-0.702924703175964,0.447169007533006
-0.702140817453007,0.443301384925738
-0.701338569894565,0.439437927086704
-0.700518071531649,0.435578903302853
-0.699679433395274,0.431724582861133
-0.698822766516453,0.427875235048493
-0.697948181926198,0.424031129151882
-0.697055790655522,0.420192534458249
-0.696145703735438,0.416359720254543
-0.695218032196959,0.412532955827711
-0.694272887071099,0.408712510464704
-0.69331037938887,0.404898653452469
-0.692330620181286,0.401091654077956
-0.691333720479358,0.397291781628113
-0.690319791314101,0.393499305389889
-0.689288943716527,0.389714494650232
-0.688241288717649,0.385937618696092
-0.68717693734848,0.382168946814418
-0.686096000640034,0.378408748292158
-0.684998589623322,0.37465729241626
-0.683884815329359,0.370914848473674
-0.682754788789157,0.367181685751348
-0.681608621033729,0.363458073536231
-0.680446423094089,0.359744281115272
-0.679268306001248,0.35604057777542
-0.67807438078622,0.352347232803623
-0.676864758480019,0.34866451548683
-0.675639550113657,0.34499269511199
-0.674398866718146,0.341332040966051
-0.673142819324501,0.337682822335963
-0.671871518963733,0.334045308508674
-0.670585076666857,0.330419768771133
-0.669283603464885,0.326806472410288
-0.66796721038883,0.323205688713089
-0.666636008469704,0.319617686966485
-0.665290108738522,0.316042736457423
-0.663929622226296,0.312481106472852
-0.662554659964039,0.308933066299722
-0.661165332982763,0.305398885224982
-0.659761752313483,0.301878832535579
-0.658344028987211,0.298373177518463
-0.656912274034959,0.294882189460582
-0.655466598487742,0.291406137648886
-0.654007113376571,0.287945291370322
-0.65253392973246,0.284499919911841
-0.651047158586422,0.28107029256039
-0.64954691096947,0.277656678602918
-0.648033297912617,0.274259347326374
-0.646506430446875,0.270878568017707
-0.644966419603258,0.267514609963865
-0.64341337641278,0.264167742451798
-0.641847411906452,0.260838234768454
-0.640268637115288,0.257526356200781
-0.6386771630703,0.254232376035729
-0.637073100802503,0.250956563560247
-0.635456561342908,0.247699188061282
-0.633827655722529,0.244460518825785
-0.632186494972378,0.241240825140702
-0.63053319012347,0.238040376292985
-0.628867852206816,0.23485944156958
-0.62719059225343,0.231698290257438
-0.625501521294324,0.228557191643505
-0.623800750360513,0.225436415014733
-0.622088390483008,0.222336229658068
-0.620364552692822,0.21925690486046
-0.618629348020969,0.216198709908858
-0.616882887498462,0.213161914090211
-0.615125282156314,0.210146786691466
-0.613356643025537,0.207153596999574
-0.611577081137144,0.204182614301482
-0.60978670752215,0.20123410788414
-0.607985633211566,0.198308347034496
-0.606173969236405,0.195405601039498
-0.604351826627681,0.192526139186097
-0.602519316416407,0.18967023076124
-0.600676549633595,0.186838145051876
-0.598823637310258,0.184030151344954
-0.596960690477411,0.181246518927423
-0.595087820166064,0.178487517086232
-0.593205137407232,0.175753415108329
-0.591312753231928,0.173044482280662
-0.589410778671164,0.170360987890182
-0.587499324755954,0.167703201223836
-0.58557850251731,0.165071391568574
-0.583648422986246,0.162465828211343
-0.581709197193774,0.159886780439093
-0.579760936170907,0.157334517538773
-0.577803750948659,0.154809308797332
-0.575837752558042,0.152311423501717
-0.57386305203007,0.149841130938878
-0.571879760395755,0.147398700395764
-0.56988798868611,0.144984401159323
-0.567887847932149,0.142598502516504
-0.565879449164884,0.140241273754256
-0.563862903415328,0.137912984159528
-0.561838321714495,0.135613903019268
-0.559805815093397,0.133344299620426
-0.557765494583047,0.131104443249949
-0.555717471214459,0.128894603194787
-0.553661856018645,0.126715048741888
-0.551598760026618,0.124566049178202
-0.549528294269391,0.122447873790676
-0.547450569777978,0.120360791866261
-0.545365697583391,0.118305072691903
-0.543273788716643,0.116280985554553
-0.541174954208747,0.114288799741159
-0.539069305090717,0.11232878453867
-0.536956952393564,0.110401209234034
-0.534838007148303,0.1085063431142
-0.532712580385946,0.106644455466118
-0.530580783137506,0.104815815576735
-0.528442726433997,0.103020692733001
-0.52629852130643,0.101259356221863
-0.52414827878582,0.0995320753302725
-0.521992109903179,0.0978391193451764
-0.519830125689519,0.0961807575535236
-0.517662437175855,0.0945572592422634
-0.515489155393199,0.0929688936983442
-0.513310391372564,0.0914159302087148
-0.511126256144963,0.0898986380603239
-0.50893686074141,0.0884172865401205
-0.506742316192916,0.0869721449350531
-0.504542733530495,0.0855634825320707
-0.50233822378516,0.0841915686181218
-0.500128897987925,0.0828566724801554
-0.497914867169801,0.08155906340512
-0.495696242361802,0.0802990106799646
-0.493473134594941,0.0790767835916378
-0.491245654900231,0.0778926514270884
-0.489013914308685,0.0767468834732652
-0.486778023851316,0.075639749017117
-0.484538094559137,0.0745715173455924
-0.482294237463161,0.0735424577456403
-0.480046563594401,0.0725528395042093
-0.47779518398387,0.0716029319082484
-0.47554020966258,0.0706930042447062
-0.473281751661546,0.0698233258005314
-0.471019921011779,0.0689941658626729
-0.468754828744293,0.0682057937180794
-0.466486585890101,0.0674584786536996
-0.464215303480216,0.0667524899564824
-0.46194109254565,0.0660880969133764
-0.459664064117418,0.0654655688113304
-0.457384329226531,0.0648851749372932
-0.455101998904003,0.0643471845782136
-0.452817184180846,0.0638518670210403
-0.450529996088075,0.063399491552722
-0.448240545656701,0.0629903274602076
-0.445948943917738,0.0626246440304457
-0.443655301902199,0.0623027105503852
-0.441359730641096,0.0620247963069748
-0.439062341165444,0.0617911705871631
-0.436763244506253,0.0616021026778991
-0.434462551694539,0.0614578618661315
-0.432160373761313,0.061358717438809
-0.429856821737589,0.0613049386828804
-0.427552006654379,0.0612967948852944
-0.425246039542697,0.0613345553329998
-0.422939031433556,0.0614184893129455
-0.420631093357968,0.0615488661120799
-0.418322336346947,0.0617259550173521
-0.416012871431506,0.0619500253157107
-0.413702809642657,0.0622213462941045
-0.411392262011414,0.0625401872394822
-0.409081339568789,0.0629068174387927
-0.406770153345796,0.0633215061789845
-0.404458814373447,0.0637845227470067
-0.402147433682756,0.0642961364298078
-0.399836122304736,0.0648566165143366
-0.397524991270398,0.0654662322875419
-0.395214151610758,0.0661252530363725
-0.392903714356827,0.0668339480477771
-0.390593790539618,0.0675925866087045
-0.388284491190145,0.0684014380061033
-0.38597592733942,0.0692607715269225
-0.383668210018457,0.0701708564581108
-0.381361450258268,0.0711319620866168
-0.379055759089866,0.0721443576993894
-0.376751247544265,0.0732083125833773
-0.374448026652478,0.0743240960255293
-0.372146207445516,0.075491977312794
-0.369845900954394,0.0767122257321205
-0.367547218210125,0.0779851105704572
-0.365250270243721,0.0793109011147531
-0.362955168086195,0.0806898666519568
-0.36066202276856,0.0821222764690171
-0.35837094532183,0.0836083998528828
-0.356082046777017,0.0851485060905027
-0.353795438165135,0.0867428644688255
-0.351511230517195,0.0883917442747999
-0.349229534864212,0.0900954147953747
-0.346950462237198,0.0918541453174987
-0.344674123667167,0.0936682051281206
-0.34240063018513,0.0955378635141893
-0.340130092822102,0.0974633897626534
-0.337862622609095,0.0994450531604617
-0.335598330577123,0.101483122994563
-0.333337327757197,0.103577868551906
-0.331079725180332,0.105729559119439
-0.32882563387754,0.107938463984112
-0.326575164879834,0.110204852432873
-0.324328429218227,0.11252899375267
-0.322085537923733,0.114911157230453
-0.319846602027363,0.11735161215317
-0.317611732560132,0.11985062780777
-0.315381040553051,0.122408473481202
-0.313154637037135,0.125025418460415
-0.310932633043396,0.127701732032357
-0.308715139602847,0.130437683483977
-0.306502267746501,0.133233542102223
-0.304294128505371,0.136089577174046
-0.30209083291047,0.139006057986392
-0.299892491992811,0.141983253826212
-0.297699216783407,0.145021433980454
-0.295511118313272,0.148120867736066
-0.293328307613417,0.151281824379998
-0.291150895714856,0.154504573199197
-0.288978993648602,0.157789383480614
-0.286812712445668,0.161136524511196
-0.284652163137067,0.164546265577893
-0.282497456753812,0.168018875967652
-0.280348704326916,0.171554624967424
-0.278206016887392,0.175153781864156
-0.276069505466253,0.178816615944798
-0.273939281094511,0.182543396496298
-0.271815454803181,0.186334392805605
-0.269698137623274,0.190189874159667
-0.267587440585804,0.194110109845435
-0.265483474721784,0.198095369149855
-0.263386351062227,0.202145921359877
-0.261296180638146,0.20626203576245
-0.259213074480554,0.210443981644523
-0.257137143620463,0.214692028293043
-0.255068499088887,0.219006444994961
-0.253007251916839,0.223387501037225
-0.250953513135332,0.227835465706783
-0.248907393775379,0.232350608290584
-0.246869004867992,0.236933198075577
-0.244838457444185,0.241583504348712
-0.242815862534971,0.246301796396935
-0.240801331171362,0.251088343507197
-0.238794974384372,0.255943414966447
-0.236796903205014,0.260867280061631
-0.234807228664301,0.265860208079701
-0.232826061793245,0.270922468307604
-0.23085351362286,0.276054330032289
-0.228889695184158,0.281256062540705
-0.226934717508154,0.2865279351198
-0.224988691625858,0.291870217056524
-0.223051728568286,0.297283177637825
-0.221123939366449,0.302767086150652
-0.219205435051361,0.308322211881954
-0.217296326654034,0.313948824118679
-0.215396725205482,0.319647192147776
-0.213506741736717,0.325417585256194
-0.211626487278753,0.331260272730882
-0.209756072862602,0.337175523858788
-0.207895609519278,0.343163607926861
-0.206045208279794,0.349224794222051
-0.204204980175162,0.355359352031305
-0.202375036236396,0.361567550641572
-0.200555487494508,0.367849659339802
-0.198746444980511,0.374205947412943
-0.196948019725419,0.380636684147944
-0.195160322760245,0.387142138831753
-0.193383465116,0.393722580751319
-0.1916175578237,0.400378279193591
-0.189862711914355,0.407109503445519
-0.188119038418981,0.413916522794049
-0.186386648368588,0.420799606526132
-0.184665652794191,0.427759023928716
-0.182956162726802,0.43479504428875
-0.181258289197435,0.441907936893183
-0.179572143237102,0.449097971028962
-0.179572143237102,0.449097971028962
-0.177910809934627,0.45628659781897
-0.176287152118106,0.46339527595654
-0.174700947427463,0.470424286084305
-0.173151973502618,0.477373908844898
-0.171640007983496,0.484244424880951
-0.170164828510017,0.491036114835096
-0.168726212722106,0.497749259349964
-0.167323938259684,0.504384139068189
-0.165957782762673,0.510941034632403
-0.164627523870997,0.517420226685237
-0.163332939224577,0.523821995869324
-0.162073806463336,0.530146622827296
-0.160849903227198,0.536394388201786
-0.159661007156083,0.542565572635424
-0.158506895889914,0.548660456770845
-0.157387347068615,0.554679321250679
-0.156302138332107,0.56062244671756
-0.155251047320312,0.566490113814119
-0.154233851673155,0.572282603182988
-0.153250329030556,0.5780001954668
-0.152300257032438,0.583643171308187
-0.151383413318724,0.589211811349781
-0.150499575529337,0.594706396234215
-0.149648521304198,0.600127206604119
-0.148830028283231,0.605474523102128
-0.148043874106357,0.610748626370872
-0.147289836413499,0.615949797052985
-0.14656769284458,0.621078315791098
-0.145877221039521,0.626134463227843
-0.145218198638247,0.631118520005853
-0.144590403280678,0.63603076676776
-0.143993612606738,0.640871484156196
-0.143427604256349,0.645640952813794
-0.142892155869433,0.650339453383184
-0.142387045085913,0.654967266507001
-0.141912049545711,0.659524672827876
-0.141466946888751,0.66401195298844
-0.141051514754953,0.668429387631327
-0.140665530784241,0.672777257399168
-0.140308772616538,0.677055842934597
-0.139981017891765,0.681265424880244
-0.139682044249845,0.685406283878742
-0.139411629330701,0.689478700572723
-0.139169550774255,0.69348295560482
-0.138955586220429,0.697419329617665
-0.138769513309147,0.701288103253889
-0.138611109680329,0.705089557156126
-0.1384801529739,0.708823971967007
-0.138376420829782,0.712491628329165
-0.138299690887896,0.716092806885231
-0.138249740788166,0.719627788277838
-0.138226348170513,0.723096853149618
-0.138229290674861,0.726500282143204
-0.138258345941131,0.729838355901227
-0.138313291609247,0.73311135506632
-0.13839390531913,0.736319560281115
-0.138499964710704,0.739463252188244
-0.13863124742389,0.742542711430339
-0.138787531098611,0.745558218650033
-0.13896859337479,0.748510054489957
-0.139174211892349,0.751398499592745
-0.13940416429121,0.754223834601027
-0.139658228211296,0.756986340157437
-0.13993618129253,0.759686296904606
-0.140237801174834,0.762323985485167
-0.14056286549813,0.764899686541752
-0.14091115190234,0.767413680716993
-0.141282438027389,0.769866248653523
-0.141676501513197,0.772257670993973
-0.142093119999687,0.774588228380976
-0.142532071126782,0.776858201457163
-0.142993132534404,0.779067870865168
-0.143476081862475,0.781217517247623
-0.143980696750919,0.783307421247158
-0.144506754839658,0.785337863506408
-0.145054033768613,0.787309124668003
-0.145622311177708,0.789221485374577
-0.146211364706865,0.79107522626876
-0.146820971996006,0.792870627993187
-0.147450910685055,0.794607971190488
-0.148100958413932,0.796287536503296
-0.148770892822562,0.797909604574243
-0.149460491550866,0.799474456045961
-0.150169532238767,0.800982371561084
-0.150897792526186,0.802433631762241
-0.151645050053048,0.803828517292067
-0.152411082459274,0.805167308793193
-0.153195667384787,0.806450286908251
-0.153998582469508,0.807677732279874
-0.154819605353361,0.808849925550694
-0.155658513676269,0.809967147363342
-0.156515085078153,0.811029678360452
-0.157389097198935,0.812037799184655
-0.15828032767854,0.812991790478583
-0.159188554156888,0.813891932884869
-0.160113554273903,0.814738507046146
-0.161055105669506,0.815531793605044
-0.162012985983621,0.816272073204197
-0.16298697285617,0.816959626486236
-0.163976843927075,0.817594734093794
-0.164982376836259,0.818177676669503
-0.166003349223643,0.818708734855995
-0.167039538729152,0.819188189295903
-0.168090722992707,0.819616320631858
-0.16915667965423,0.819993409506493
-0.170237186353645,0.82031973656244
-0.171332020730873,0.82059558244233
-0.172440960425837,0.820821227788798
-0.173563783078459,0.820996953244474
-0.174700266328663,0.82112303945199
-0.175850187816369,0.82119976705398
-0.177013325181502,0.821227416693074
-0.178189456063983,0.821206269011907
-0.179378358103735,0.821136604653108
-0.18057980894068,0.821018704259312
-0.181793586214742,0.820852848473149
-0.183019467565841,0.820639317937253
-0.184257230633901,0.820378393294255
-0.185506653058844,0.820070355186787
-0.186767512480592,0.819715484257482
-0.188039586539069,0.819314061148973
-0.189322652874197,0.81886636650389
-0.190616489125897,0.818372680964867
-0.191920872934093,0.817833285174535
-0.193235581938707,0.817248459775527
-0.194560393779661,0.816618485410475
-0.195895086096879,0.815943642722011
-0.197239436530281,0.815224212352768
-0.198593222719792,0.814460474945377
-0.199956222305332,0.813652711142471
-0.201328212926826,0.812801201586682
-0.202708972224195,0.811906226920642
-0.204098277837361,0.810968067786984
-0.205495907406248,0.809987004828339
-0.206901638570777,0.80896331868734
-0.208315248970872,0.807897290006619
-0.209736516246454,0.806789199428808
-0.211165218037446,0.805639327596539
-0.21260113198377,0.804447955152445
-0.21404403572535,0.803215362739158
-0.215493706902107,0.801941830999309
-0.216949923153964,0.800627640575532
-0.218412462120844,0.799273072110459
-0.219881101442668,0.797878406246721
-0.221355618759359,0.79644392362695
-0.222835791710841,0.79496990489378
-0.224321397937034,0.793456630689842
-0.225812215077863,0.791904381657768
-0.227308020773248,0.790313438440191
-0.228808592663113,0.788684081679742
-0.230313708387381,0.787016592019055
-0.231823145585973,0.785311250100761
-0.233336681898812,0.783568336567492
-0.23485409496582,0.781788132061881
-0.236375162426921,0.779970917226559
-0.237899661922036,0.77811697270416
-0.239427371091088,0.776226579137315
-0.240958067573999,0.774300017168656
-0.242491529010692,0.772337567440816
-0.24402753304109,0.770339510596426
-0.245565857305114,0.76830612727812
-0.247106279442688,0.766237698128529
-0.248648577093734,0.764134503790285
-0.250192527898173,0.761996824906021
-0.25173790949593,0.759824942118368
-0.253284499526925,0.75761913606996
-0.254832075631082,0.755379687403427
-0.256380415448323,0.753106876761404
-0.257929296618571,0.75080098478652
-0.259478496781748,0.74846229212141
-0.261027793577776,0.746091079408704
-0.262576964646578,0.743687627291036
-0.264125787628077,0.741252216411037
-0.265674040162195,0.73878512741134
-0.267221499888853,0.736286640934577
-0.268767944447976,0.733757037623379
-0.270313151479485,0.73119659812038
-0.271856898623303,0.728605603068211
-0.273398963519352,0.725984333109505
-0.274939123807555,0.723333068886894
-0.276477157127834,0.72065209104301
-0.278012841120111,0.717941680220484
-0.27954595342431,0.71520211706195
-0.281076271680352,0.712433682210041
-0.28260357352816,0.709636656307386
-0.284127636607657,0.70681131999662
-0.285648238558765,0.703957953920374
-0.287165157021406,0.70107683872128
-0.288678169635503,0.698168255041971
-0.290187054040978,0.695232483525079
-0.291691587877755,0.692269804813236
-0.293191548785754,0.689280499549074
-0.2946867144049,0.686264848375226
-0.296176862375113,0.683223131934322
-0.297661770336318,0.680155630868997
-0.299141215928435,0.677062625821882
-0.300614976791388,0.67394439743561
-0.3020828305651,0.670801226352811
-0.303544554889492,0.667633393216119
-0.304999927404487,0.664441178668166
-0.306448725750007,0.661224863351584
-0.307890727565976,0.657984727909005
-0.309325710492315,0.654721052983062
-0.310753452168946,0.651434119216386
-0.312173730235794,0.648124207251611
-0.313586322332779,0.644791597731367
-0.314991006099824,0.641436571298287
-0.316387559176852,0.638059408595004
-0.317775759203786,0.63466039026415
-0.319155383820547,0.631239796948356
-0.320526210667059,0.627797909290255
-0.321888017383243,0.62433500793248
-0.323240581609022,0.620851373517662
-0.324583680984319,0.617347286688434
-0.325917093149056,0.613823028087427
-0.327240595743155,0.610278878357274
-0.32855396640654,0.606715118140608
-0.329856982779132,0.603132028080061
-0.331149422500854,0.599529888818263
-0.332431063211628,0.595908980997849
-0.333701682551377,0.59226958526145
-0.334961058160024,0.588611982251698
-0.33620896767749,0.584936452611225
-0.337445188743699,0.581243276982664
-0.338669498998572,0.577532736008647
-0.339881676082033,0.573805110331806
-0.341081497634003,0.570060680594773
-0.342268741294405,0.566299727440181
-0.343443184703163,0.562522531510661
-0.344604605500197,0.558729373448846
-0.34575278132543,0.554920533897368
-0.346887489818786,0.55109629349886
-0.348008508620186,0.547256932895952
-0.349115615369554,0.543402732731279
-0.35020858770681,0.539533973647471
-0.351287203271879,0.535650936287162
-0.352351239704682,0.531753901292983
-0.353400474645141,0.527843149307566
-0.35443468573318,0.523918960973543
-0.355453650608721,0.519981616933548
-0.356457146911686,0.516031397830212
-0.357444952281998,0.512068584306167
-0.358416844359579,0.508093457004045
-0.359372600784352,0.504106296566479
-0.360311999196238,0.500107383636101
-0.361234817235161,0.496096998855543
-0.362140832541044,0.492075422867437
-0.363029822753807,0.488042936314416
-0.363901565513375,0.483999819839111
-0.364755838459669,0.479946354084156
-0.365592419232612,0.475882819692181
-0.366411085472127,0.471809497305819
-0.367211614818135,0.467726667567703
-0.36799378491056,0.463634611120465
-0.368757373389323,0.459533608606737
-0.369502157894348,0.45542394066915
-0.370227916065557,0.451305887950338
-0.370934425542871,0.447179731092932
-0.371621463966214,0.443045750739565
-0.372288808975509,0.438904227532869
-0.372936238210677,0.434755442115476
-0.373563529311641,0.430599675130019
-0.374170459918323,0.426437207219128
-0.374756807670647,0.422268319025437
-0.375322350208534,0.418093291191579
-0.375866865171907,0.413912404360184
-0.376390130200688,0.409725939173886
-0.3768919229348,0.405534176275316
-0.377372021014166,0.401337396307106
-0.377830202078707,0.39713587991189
-0.378266243768347,0.392929907732299
-0.378679923723007,0.388719760410965
-0.379071019582611,0.38450571859052
-0.37943930898708,0.380288062913597
-0.379784569576338,0.376067074022828
-0.380106578990306,0.371843032560845
-0.380405114868907,0.367616219170281
-0.380679954852063,0.363386914493766
-0.380930876579698,0.359155399173935
-0.381157657691733,0.354921953853418
-0.381360075828091,0.350686859174849
-0.381537908628695,0.346450395780859
-0.381690933733466,0.34221284431408
-0.381818928782328,0.337974485417145
-0.381921671415202,0.333735599732686
-0.381998939272012,0.329496467903335
-0.382050509992679,0.325257370571724
-0.382076161217127,0.321018588380486
-0.382075670585278,0.316780401972252
-0.382048815737053,0.312543091989655
-0.381995374312377,0.308306939075328
-0.38191512395117,0.304072223871901
-0.381807842293356,0.299839227022008
-0.381673306978857,0.295608229168281
-0.381511295647595,0.291379510953352
-0.381321585939494,0.287153353019853
-0.381103955494475,0.282930036010416
-0.38085818195246,0.278709840567674
-0.380584042953373,0.274493047334258
-0.380281316137136,0.270279936952801
-0.379949779143672,0.266070790065935
-0.379589209612902,0.261865887316293
-0.379199385184749,0.257665509346506
-0.378780083499136,0.253469936799207
-0.378331082195985,0.249279450317028
-0.377852158915219,0.245094330542601
-0.37734309129676,0.240914858118558
-0.37680365698053,0.236741313687531
-0.376233633606453,0.232573977892154
-0.37563279881445,0.228413131375057
-0.375000930244444,0.224259054778873
-0.374337805536357,0.220112028746235
-0.373643202330113,0.215972333919774
-0.372916898265632,0.211840250942123
-0.372158670982839,0.207716060455914
-0.371368298121655,0.203600043103779
-0.370545557322003,0.19949247952835
-0.369690226223805,0.19539365037226
-0.368802082466983,0.19130383627814
-0.367880903691461,0.187223317888623
-0.366926467537161,0.183152375846342
-0.365938551644004,0.179091290793928
-0.364916933651915,0.175040343374013
-0.363861391200814,0.17099981422923
-0.362771701930625,0.166969984002211
-0.36164764348127,0.162951133335588
-0.360488993492671,0.158943542871993
-0.359295529604751,0.154947493254059
-0.358067029457433,0.150963265124417
-0.356803270690639,0.146991139125701
-0.35550403094429,0.143031395900542
-0.354169087858311,0.139084316091572
-0.352798219072623,0.135150180341423
-0.351391202227149,0.131229269292728
-0.349947814961811,0.127321863588119
-0.348467834916531,0.123428243870229
-0.346951039731233,0.119548690781688
-0.345397207045838,0.11568348496513
-0.34380611450027,0.111832907063187
-0.34217753973445,0.107997237718491
-0.340511260388301,0.104176757573673
-0.338807054101745,0.100371747271368
-0.337064698514706,0.0965824874542054
-0.335283971267105,0.0928092587648189
-0.333464649998864,0.0890523418458402
-0.331606512349907,0.0853120173399018
-0.329709335960156,0.0815885658896356
-0.327772898469533,0.077882268137674
-0.325796977517961,0.0741934047266491
-0.323781350745363,0.0705222562991932
-0.321725795791659,0.0668691034979383
-0.319630090296774,0.0632342269655169
-0.31749401190063,0.0596179073445608
-0.315317338243149,0.0560204252777027
-0.313099846964253,0.0524420614075744
-0.310841315703866,0.0488830963768083
-0.308541522101908,0.0453438108280364
-0.306200243798304,0.0418244854038912
-0.303817258432975,0.0383254007470046
-0.301392343645845,0.0348468375000091
-0.298925277076834,0.0313890763055366
-0.296415836365867,0.0279523978062196
-0.293863799152864,0.02453708264469
-0.29126894307775,0.0211434114635802
-0.288631045780445,0.0177716649055223
-0.285949884900874,0.0144221236131487
-0.283225238078957,0.0110950682290912
-0.280456882954619,0.00779077939598245
-0.27764459716778,0.00450953775645431
-0.274788158358364,0.00125162395313926
-0.271887344166293,-0.00198268137133079
-0.268941932231489,-0.00519309757432335
-0.265951700193876,-0.0083793440132065
-0.262916425693375,-0.0115411400453478
-0.259835886369909,-0.0146782050281152
-0.2567098598634,-0.0177902583188763
-0.253538123813771,-0.0208770192749993
-0.250320455860944,-0.0239382072538515
-0.247056633644843,-0.0269735416128012
-0.243746434805388,-0.0299827417092157
-0.240389636982503,-0.0329655269004632
-0.236986017816111,-0.0359216165439112
-0.233535354946133,-0.0388507299969278
-0.230037426012492,-0.0417525866168805
-0.226492008655111,-0.0446269057611374
-0.222898880513912,-0.047473406787066
-0.219257819228817,-0.0502918090520344
-0.21556860243975,-0.05308183191341
-0.211831007786631,-0.0558431947285611
-0.208044812909385,-0.058575616854855
-0.204209795447933,-0.0612788176496599
-0.200325733042199,-0.0639525164703433
-0.196392403332103,-0.0665964326742733
-0.192409583957569,-0.0692102856188174
-0.18837705255852,-0.0717937946613436
-0.184294586774877,-0.0743466791592196
-0.180161964246563,-0.0768686584698133
-0.175978962613502,-0.0793594519504923
-0.171745359515614,-0.0818187789586247
