0.782894239276964,0.0262301068603896
0.78234694600799,0.019901044894793
0.781810120739207,0.0136498415575675
0.781283610117535,0.00747610236050411
0.780767260789895,0.00137943281539398
0.780260919403205,-0.0046405615659719
0.779764432604384,-0.0105842752718025
0.779277647040352,-0.0164521027903068
0.77880040935803,-0.0222444386096937
0.778332566204336,-0.0279616772181723
0.77787396422619,-0.0336042131039514
0.777424450070511,-0.03917244075524
0.776983870384219,-0.0446667546602472
0.776552071814233,-0.0500875493071818
0.776128901007473,-0.0554352191842528
0.775714204610858,-0.0607101587796693
0.775307829271309,-0.0659127625816401
0.774909621635744,-0.0710434250783742
0.774519428351082,-0.0761025407580806
0.774137096064244,-0.0810905041089682
0.773762471422149,-0.0860077096192461
0.773395401071716,-0.0908545517771231
0.773035731659865,-0.0956314250708083
0.772683309833516,-0.100338723988511
0.772337982239587,-0.104976843018439
0.771999595524999,-0.109546176648802
0.771667996336671,-0.11404711936781
0.771343031321522,-0.11848006566367
0.771024547126472,-0.122845410024592
0.770712390398441,-0.127143546938785
0.770406407784347,-0.131374870894458
0.770106445931111,-0.13553977637982
0.769812351485652,-0.13963865788308
0.769523971094889,-0.143671909892446
0.769241151405743,-0.147639926896128
0.768963739065131,-0.151543103382335
0.768691580719975,-0.155381833839275
0.768424523017194,-0.159156512755158
0.768162412603706,-0.162867534618192
0.767905096126431,-0.166515293916587
0.76765242023229,-0.170100185138552
0.767404231568201,-0.173622602772295
0.767160376781085,-0.177082941306025
0.766920702517859,-0.180481595227952
0.766685055425445,-0.183818959026284
0.766453282150761,-0.18709542718923
0.766225229340727,-0.190311394205
0.766000743642263,-0.193467254561802
0.765779671702288,-0.196563402747845
0.765561860167722,-0.199600233251338
0.765347155685483,-0.202578140560491
0.765135404902492,-0.205497519163511
0.764926454465668,-0.208358763548608
0.764720151021931,-0.211162268203992
0.7645163412182,-0.21390842761787
0.764314871701394,-0.216597636278453
0.764115589118434,-0.219230288673948
0.763918340116238,-0.221806779292566
0.763722971341726,-0.224327502622514
0.763529329441817,-0.226792853152001
0.763337261063432,-0.229203225369238
0.76314661285349,-0.231559013762433
0.762957231458909,-0.233860612819794
0.76276896352661,-0.23610841702953
0.762581655703513,-0.238302820879852
0.762395154636536,-0.240444218858967
0.762209306972599,-0.242533005455084
0.762023959358622,-0.244569575156413
0.761838958441524,-0.246554322451162
0.761654150868224,-0.248487641827541
0.761469383285643,-0.250369927773759
0.761284502340699,-0.252201574778023
0.761099354680313,-0.253982977328544
0.760913786951403,-0.25571452991353
0.76072764580089,-0.257396627021191
0.760540777875692,-0.259029663139735
0.760353029822729,-0.260614032757371
0.760164248288921,-0.262150130362308
0.759974279921187,-0.263638350442755
0.759782971366447,-0.265079087486921
0.759590169271621,-0.266472735983016
0.759395720283627,-0.267819690419247
0.759199471049385,-0.269120345283824
0.759001268215815,-0.270375095064956
0.758800958429836,-0.271584334250853
0.758598388338368,-0.272748457329722
0.75839340458833,-0.273867858789772
0.758185853826642,-0.274942933119214
0.757975582700223,-0.275974074806255
0.757762437855993,-0.276961678339105
0.757546265940871,-0.277906138205973
0.757326913601777,-0.278807848895067
0.75710422748563,-0.279667204894597
0.756878054239351,-0.280484600692772
0.756648240509857,-0.2812604307778
0.756414632944069,-0.281995089637891
0.756177078188907,-0.282688971761253
0.755935422891289,-0.283342471636095
0.755689513698136,-0.283955983750627
0.755439197256366,-0.284529902593057
0.7551843202129,-0.285064622651595
0.754924729214657,-0.285560538414449
0.754660270908556,-0.286018044369828
0.754390791941517,-0.286437535005941
0.754116138960459,-0.286819404810997
0.753836158612302,-0.287164048273206
0.753550697543965,-0.287471859880776
0.753259602402369,-0.287743234121915
0.752962719834432,-0.287978565484834
0.752659896487073,-0.288178248457741
0.752350979007213,-0.288342677528845
0.752035814041771,-0.288472247186354
0.751714248237666,-0.288567351918479
0.751386128241819,-0.288628386213427
0.751051300701147,-0.288655744559408
0.750709612262571,-0.288649821444631
0.750360909573011,-0.288611011357305
0.750005039279387,-0.288539708785639
0.749641848028616,-0.28843630821784
0.749271182467619,-0.28830120414212
0.748892889243316,-0.288134791046686
0.748506815002626,-0.287937463419748
0.748112806392467,-0.287709615749515
0.747710710059761,-0.287451642524194
0.747300372651427,-0.287163938231997
0.746881640814384,-0.286846897361131
0.746454361195551,-0.286500914399805
0.746018380441847,-0.286126383836228
0.745573545200194,-0.28572370015861
0.74511970211751,-0.285293257855159
0.744656697840714,-0.284835451414084
0.744184379016725,-0.284350675323594
0.743702592292465,-0.283839324071899
0.743211184314852,-0.283301792147207
0.742710001730805,-0.282738474037726
0.742198891187244,-0.282149764231667
0.741677699331088,-0.281536057217238
0.741146272809258,-0.280897747482648
0.740604458268672,-0.280235229516106
0.74005210235625,-0.27954889780582
0.739489051718912,-0.278839146840001
0.738915153003577,-0.278106371106856
0.738330252857165,-0.277350965094595
0.737734197926594,-0.276573323291427
0.737126834858785,-0.275773840185561
0.736508010300658,-0.274952910265206
0.73587757089913,-0.274110928018569
0.735235363301123,-0.273248287933862
0.734581234153556,-0.272365384499292
0.733915030103347,-0.271462612203069
0.733236597797417,-0.270540365533401
0.732545783882686,-0.269599038978498
0.731842435006072,-0.268639027026568
0.731126397814495,-0.267660724165821
0.730397518954875,-0.266664524884465
0.72965564507413,-0.265650823670709
0.728900622819182,-0.264620015012762
0.728132298836949,-0.263572493398834
0.72735051977435,-0.262508653317133
0.726555132278305,-0.261428889255868
0.725745982995735,-0.260333595703249
0.724922918573557,-0.259223167147483
0.724085785658692,-0.258097998076781
0.723234430898059,-0.25695848297935
0.722368700938578,-0.255805016343401
0.721488442427169,-0.254637992657142
0.720593502010749,-0.253457806408781
0.71968372633624,-0.252264852086528
0.718758962050561,-0.251059524178593
0.717819055800631,-0.249842217173183
0.71686385423337,-0.248613325558507
0.715893203995697,-0.247373243822776
0.714906951734532,-0.246122366454197
0.713904944096794,-0.24486108794098
0.712887027729402,-0.243589802771334
0.711853049279277,-0.242308905433467
0.710802855393338,-0.241018790415589
0.709736292718504,-0.239719852205908
0.708653207901695,-0.238412485292634
0.70755344758983,-0.237097084163975
0.706436858429828,-0.235774043308141
0.705303287068611,-0.23444375721334
0.704152580153095,-0.233106620367781
0.702984584330202,-0.231763027259674
0.701799146246852,-0.230413372377227
0.700596112549962,-0.229058050208649
0.699375329886453,-0.22769745524215
0.698136644903244,-0.226331981965937
0.696879904247256,-0.224962024868221
0.695604954565407,-0.22358797843721
0.694311642504616,-0.222210237161113
0.692999814711803,-0.220829195528139
0.691669317833889,-0.219445248026497
0.690319998517793,-0.218058789144396
0.688951703410432,-0.216670213370044
0.687564279158728,-0.215279915191652
0.686157572409601,-0.213888289097428
0.684731429809968,-0.21249572957558
0.683285698006751,-0.211102631114318
0.681820223646867,-0.209709388201851
0.680334853377238,-0.208316395326387
0.678829433844782,-0.206924046976137
0.677303811696419,-0.205532737639308
0.675757833579068,-0.204142861804109
0.67419134613965,-0.20275481395875
0.672604196025082,-0.201368988591439
0.670996229882286,-0.199985780190386
0.66936729435818,-0.1986055832438
0.667717236099684,-0.197228792239889
0.666045901753718,-0.195855801666862
0.6643531379672,-0.194487006012928
0.662638791387051,-0.193122799766297
0.66090270866019,-0.191763577415177
0.659144736433536,-0.190409733447778
0.657364721354009,-0.189061662352307
0.655562510068529,-0.187719758616975
0.653737949224015,-0.18638441672999
0.651890885467386,-0.18505603117956
0.650021165445563,-0.183734996453896
0.648128635805464,-0.182421707041206
0.646213143194008,-0.181116557429699
0.644274534258117,-0.179819942107584
0.642312655644708,-0.17853225556307
0.640327354000702,-0.177253892284366
0.638318475973018,-0.17598524675968
0.636285868208575,-0.174726713477222
0.634229377354294,-0.173478686925201
0.632148850057093,-0.172241561591826
0.630044132963892,-0.171015731965305
0.62791507272161,-0.169801592533848
0.625761515977168,-0.168599537785664
0.623583309377484,-0.167409962208961
0.621380299569478,-0.166233260291949
0.61915233320007,-0.165069826522837
0.61689925691618,-0.163920055389832
0.614620917364725,-0.162784341381146
0.612317161192627,-0.161663078984985
0.609987835046804,-0.16055666268956
0.607632785574176,-0.159465486983079
0.605251859421663,-0.158389946353752
0.602844903236185,-0.157330435289787
0.600411763664659,-0.156287348279393
0.597952287354007,-0.155261079810779
0.595466320951148,-0.154252024372154
0.592953711103001,-0.153260576451728
0.590414304456485,-0.152287130537709
0.58784794765852,-0.151332081118305
0.585254487356026,-0.150395822681727
0.582633770195923,-0.149478749716182
0.579985642825129,-0.148581256709881
0.577309951890564,-0.147703738151031
0.574606544039148,-0.146846588527842
0.5718752659178,-0.146010202328523
0.56911596417344,-0.145194974041283
0.566328485452987,-0.144401298154331
0.56351267640336,-0.143629569155875
0.56066838367148,-0.142880181534125
0.557795453904266,-0.14215352977729
0.554893733748636,-0.141450008373578
0.551963069851512,-0.140770011811198
0.549003308859812,-0.140113934578361
0.546014297420455,-0.139482171163274
0.542995882180362,-0.138875116054146
0.539947909786451,-0.138293163739186
0.536870226885643,-0.137736708706604
0.533762680124857,-0.137206145444609
0.530625116151012,-0.136701868441409
0.527457381611027,-0.136224272185212
0.524259323151823,-0.13577375116423
0.521030787420319,-0.135350699866669
0.517771621063433,-0.13495551278074
0.514481670728087,-0.13458858439465
0.511160783061199,-0.13425030919661
0.507808804709689,-0.133941081674828
0.504425582320476,-0.133661296317513
0.50101096254048,-0.133411347612874
0.49756479201662,-0.13319163004912
0.494086917395816,-0.133002538114459
0.490577185324988,-0.132844466297102
0.487035442451054,-0.132717809085256
0.483461535420935,-0.132622960967132
0.479855310881549,-0.132560316430937
0.476216615479817,-0.13253026996488
0.472545295862658,-0.132533216057172
0.468841198676991,-0.13256954919602
0.465104170569736,-0.132639663869634
0.461334058187812,-0.132743954566222
0.457530708178139,-0.132882815773994
0.453693967187637,-0.133056641981158
0.449823681863224,-0.133265827675924
0.445919698851821,-0.1335107673465
0.441981864800347,-0.133791855481096
0.438010026355721,-0.13410948656792
0.434004030164863,-0.134464055095182
0.429963722874693,-0.134855955551089
0.425888951132129,-0.135285582423852
0.421779561584092,-0.13575333020168
0.417635400877501,-0.13625959337278
0.413456315659275,-0.136804766425362
0.409242152576335,-0.137389243847636
0.404992758275598,-0.13801342012781
0.400707979403986,-0.138677689754093
0.396387662608417,-0.139382447214694
0.392031654535811,-0.140128086997821
0.387639801833088,-0.140915003591685
0.383211951147167,-0.141743591484494
0.378747949124967,-0.142614245164456
0.374247642413408,-0.143527359119781
0.369710877659409,-0.144483327838679
0.365137501509891,-0.145482545809356
0.360527360611772,-0.146525407520024
0.355880301611972,-0.14761230745889
0.351196171157411,-0.148743640114164
0.346474815895008,-0.149919799974055
0.341716082471682,-0.151141181526771
0.336919817534353,-0.152408179260521
0.332085867729941,-0.153721187663516
0.327214079705365,-0.155080601223962
0.322304300107544,-0.15648681443007
0.317356375583399,-0.157940221770049
0.312370152779848,-0.159441217732106
0.307345478343811,-0.160990196804452
0.302282198922208,-0.162587553475296
0.297180161161958,-0.164233682232845
0.29203921170998,-0.16592897756531
0.286859197213195,-0.167673833960899
0.281639964318521,-0.169468645907822
0.276381359672878,-0.171313807894286
0.271083229923186,-0.173209714408501
0.265745421716364,-0.175156759938677
0.260367781699331,-0.177155338973021
0.254950156519008,-0.179205845999743
0.249492392822314,-0.181308675507052
0.243994337256167,-0.183464221983158
0.238455836467488,-0.185672879916268
0.232876737103196,-0.187935043794591
0.227256885810212,-0.190251108106338
0.221596129235453,-0.192621467339716
0.21589431402584,-0.195046515982935
0.210151286828291,-0.197526648524204
0.204366894289728,-0.200062259451731
0.198540983057069,-0.202653743253726
0.192673399777234,-0.205301494418398
0.186763991097141,-0.208005907433955
0.180812603663712,-0.210767376788606
0.174819084123864,-0.213586296970561
0.168783279124519,-0.216463062468029
0.162705035312595,-0.219398067769217
0.156584199335011,-0.222391707362337
0.150420617838687,-0.225444375735595
0.144214137470544,-0.228556467377202
0.137964604877499,-0.231728376775366
0.131671866706474,-0.234960498418296
0.125335769604386,-0.238253226794201
0.118956160218157,-0.24160695639129
0.112532885194704,-0.245022081697773
0.106065791180949,-0.248498997201858
0.0995547248238093,-0.252038097391753
0.0929995327702059,-0.255639776755669
0.0864000616670575,-0.259304429781813
0.0797561581612842,-0.263032450958396
0.0730676688998049,-0.266824234773625
0.0663344405295397,-0.27068017571571
0.0595563196974075,-0.27460066827286
0.0527331530503284,-0.278586106933284
0.0458647872352213,-0.28263688618519
0.0389510688990065,-0.286753400516788
0.0319918446886026,-0.290936044416287
0.0249869612509298,-0.295185212371895
0.0179362652329071,-0.299501298871823
0.0108396032814546,-0.303884698404277
0.00369682204349109,-0.308335805457468
-0.00349223183406321,-0.312855014519605
-0.0107277117042895,-0.317442720078896
-0.0180097709202675,-0.32209931662355
-0.0253385628350786,-0.326825198641777
-0.0327142408018024,-0.331620760621785
-0.0401369581735201,-0.336486397051783
-0.0476068683033116,-0.341422502419981
-0.055124124544258,-0.346429471214587
-0.0626888802494392,-0.35150769792381
-0.0703012887719363,-0.356657577035859
-0.0779615034648292,-0.361879503038943
-0.0856696776811989,-0.367173870421272
-0.0934259647741254,-0.372541073671053
-0.10123051809669,-0.377981507276496
-0.109083491001972,-0.383495565725811
-0.116985036843053,-0.389083643507205
-0.124935308973013,-0.394746135108888
-0.132934460744932,-0.400483435019069
-0.140982645511892,-0.406295937725957
-0.149080016626972,-0.412184037717761
-0.157226727443253,-0.41814812948269
-0.165422931313815,-0.424188607508952
-0.17366878159174,-0.430305866284757
-0.181964431630107,-0.436500300298313
-0.190310034781997,-0.44277230403783
-0.198705744400491,-0.449122271991517
-0.207151713838668,-0.455550598647582
-0.21564809644961,-0.462057678494235
-0.21564809644961,-0.462057678494235
-0.224123405241342,-0.46855258551984
-0.23250624147653,-0.474944419267665
-0.240796890890219,-0.481233612558271
-0.248995639217453,-0.487420598212219
-0.257102772193274,-0.493505809050072
-0.265118575552728,-0.49948967789239
-0.273043335030857,-0.505372637559736
-0.280877336362706,-0.511155120872671
-0.288620865283319,-0.516837560651756
-0.296274207527739,-0.522420389717554
-0.303837648831009,-0.527904040890625
-0.311311474928174,-0.533288946991532
-0.318695971554278,-0.538575540840836
-0.325991424444365,-0.543764255259098
-0.333198119333477,-0.54885552306688
-0.340316341956659,-0.553849777084744
-0.347346378048955,-0.558747450133252
-0.354288513345409,-0.563548975032964
-0.361143033581064,-0.568254784604443
-0.367910224490964,-0.57286531166825
-0.374590371810153,-0.577380989044947
-0.381183761273674,-0.581802249555095
-0.387690678616572,-0.586129526019256
-0.394111409573891,-0.590363251257992
-0.400446239880674,-0.594503858091864
-0.406695455271964,-0.598551779341433
-0.412859341482806,-0.602507447827262
-0.418938184248243,-0.606371296369911
-0.42493226930332,-0.610143757789944
-0.43084188238308,-0.613825264907919
-0.436667309222566,-0.617416250544401
-0.442408835556824,-0.62091714751995
-0.448066747120896,-0.624328388655128
-0.453641329649826,-0.627650406770497
-0.459132868878657,-0.630883634686617
-0.464541650542435,-0.634028505224051
-0.469867960376203,-0.63708545120336
-0.475112084115003,-0.640054905445107
-0.480274307493881,-0.642937300769851
-0.48535491624788,-0.645733069998156
-0.490354196112044,-0.648442645950582
-0.495272432821416,-0.651066461447691
-0.500109912111041,-0.653604949310046
-0.504866919715962,-0.656058542358206
-0.509543741371223,-0.658427673412735
-0.514140662811867,-0.660712775294193
-0.518657969772939,-0.662914280823142
-0.523095947989483,-0.665032622820144
-0.527454883196541,-0.667068234105761
-0.531735061129159,-0.669021547500553
-0.535936767522379,-0.670892995825083
-0.540060288111246,-0.672683011899913
-0.544105908630803,-0.674392028545603
-0.548073914816094,-0.676020478582715
-0.551964592402163,-0.677568794831811
-0.555778227124054,-0.679037410113453
-0.55951510471681,-0.680426757248202
-0.563175510915475,-0.68173726905662
-0.566759731455094,-0.682969378359267
-0.570268052070709,-0.684123517976707
-0.573700758497365,-0.685200120729501
-0.577058136470106,-0.686199619438209
-0.580340471723974,-0.687122446923394
-0.583548049994015,-0.687969036005618
-0.586681157015272,-0.688739819505441
-0.589740078522788,-0.689435230243426
-0.592725100251607,-0.690055701040134
-0.595636507936774,-0.690601664716127
-0.598474587313332,-0.691073554091965
-0.601239624116325,-0.691471801988212
-0.603931904080796,-0.691796841225428
-0.606551712941789,-0.692049104624175
-0.609099336434349,-0.692229025005015
-0.611575060293519,-0.692337035188509
-0.613979170254342,-0.692373567995219
-0.616311952051864,-0.692339056245706
-0.618573691421126,-0.692233932760533
-0.620764674097174,-0.69205863036026
-0.62288518581505,-0.691813581865449
-0.624935512309799,-0.691499220096662
-0.626915939316465,-0.69111597787446
-0.628826752570091,-0.690664288019405
-0.630668237805721,-0.690144583352059
-0.632440680758399,-0.689557296692984
-0.634144367163169,-0.68890286086274
-0.635779582755075,-0.688181708681889
-0.637346613269159,-0.687394272970993
-0.638845744440467,-0.686540986550614
-0.640277262004042,-0.685622282241313
-0.641641451694927,-0.684638592863651
-0.642938599248166,-0.683590351238191
-0.644168990398804,-0.682477990185494
-0.645332910881884,-0.681301942526122
-0.64643064643245,-0.680062641080635
-0.647462482785546,-0.678760518669597
-0.648428705676215,-0.677396008113568
-0.649329600839501,-0.675969542233109
-0.650165454010448,-0.674481553848783
-0.6509365509241,-0.672932475781151
-0.6516431773155,-0.671322740850775
-0.652285618919694,-0.669652781878217
-0.652864161471723,-0.667923031684037
-0.653379090706632,-0.666133923088797
-0.653830692359465,-0.66428588891306
-0.654219252165265,-0.662379361977386
-0.654545055859077,-0.660414775102337
-0.654808389175944,-0.658392561108476
-0.65500953785091,-0.656313152816363
-0.655148787619019,-0.65417698304656
-0.655226424215315,-0.651984484619628
-0.65524273337484,-0.64973609035613
-0.65519800083264,-0.647432233076626
-0.655092512323758,-0.645073345601679
-0.654926553583237,-0.64265986075185
-0.654700410346122,-0.640192211347701
-0.654414368347456,-0.637670830209793
-0.654068713322284,-0.635096150158688
-0.653663731005648,-0.632468604014947
-0.653199707132593,-0.629788624599131
-0.652676927438162,-0.627056644731804
-0.6520956776574,-0.624273097233526
-0.65145624352535,-0.621438414924858
-0.650758910777055,-0.618553030626363
-0.650003965147561,-0.615617377158602
-0.649191692371909,-0.612631887342137
-0.648322378185145,-0.609596993997528
-0.647396308322312,-0.606513129945339
-0.646413768518454,-0.60338072800613
-0.645375044508615,-0.600200221000462
-0.644280422027837,-0.596972041748898
-0.643130186811166,-0.593696623072
-0.641924624593646,-0.590374397790328
-0.640664021110319,-0.587005798724444
-0.639348662096229,-0.58359125869491
-0.637978833286421,-0.580131210522288
-0.636554820415938,-0.576626087027139
-0.635076909219824,-0.573076321030024
-0.633545385433123,-0.569482345351506
-0.631960534790878,-0.565844592812146
-0.630322643028134,-0.562163496232505
-0.628631995879934,-0.558439488433145
-0.626888879081321,-0.554673002234628
-0.625093578367341,-0.550864470457515
-0.623246379473036,-0.547014325922368
-0.62134756813345,-0.543123001449749
-0.619397430083628,-0.539190929860218
-0.617396251058612,-0.535218543974338
-0.615344316793447,-0.531206276612671
-0.613241913023177,-0.527154560595777
-0.611089325482845,-0.523063828744219
-0.608886839907495,-0.518934513878557
-0.606634742032171,-0.514767048819355
-0.604333317591916,-0.510561866387172
-0.601982852321775,-0.506319399402571
-0.599583631956791,-0.502040080686114
-0.597135942232009,-0.497724343058361
-0.594640068882471,-0.493372619339876
-0.592096297643222,-0.488985342351218
-0.589504914249305,-0.48456294491295
-0.586866204435764,-0.480105859845634
-0.584180453937644,-0.47561451996983
-0.581447948489987,-0.471089358106101
-0.578668973827838,-0.466530807075008
-0.57584381568624,-0.461939299697114
-0.572972759800238,-0.457315268792978
-0.570056091904874,-0.452659147183163
-0.567094097735193,-0.447971367688231
-0.564087063026239,-0.443252363128743
-0.561035273513056,-0.43850256632526
-0.557939014930686,-0.433722410098345
-0.554798573014174,-0.428912327268559
-0.551614233498565,-0.424072750656463
-0.5483862821189,-0.41920411308262
-0.545115004610225,-0.41430684736759
-0.541800686707583,-0.409381386331935
-0.538443614146018,-0.404428162796218
-0.535044072660574,-0.399447609580998
-0.531602347986294,-0.394440159506839
-0.528118725858223,-0.389406245394302
-0.524593492011404,-0.384346300063947
-0.52102693218088,-0.379260756336338
-0.517419332101696,-0.374150047032035
-0.513770977508896,-0.3690146049716
-0.510082154137523,-0.363854862975595
-0.506353147722621,-0.358671253864581
-0.502584243999234,-0.35346421045912
-0.498775728702406,-0.348234165579773
-0.49492788756718,-0.342981552047102
-0.4910410063286,-0.337706802681669
-0.487115370721711,-0.332410350304035
-0.483151266481555,-0.327092627734761
-0.479148979343177,-0.321754067794411
-0.47510879504162,-0.316395103303544
-0.471030999311928,-0.311016167082723
-0.466915877889146,-0.305617691952509
-0.462763716508316,-0.300200110733463
-0.458574800904483,-0.294763856246148
-0.45434941681269,-0.289309361311126
-0.450087849967981,-0.283837058748956
-0.445790386105401,-0.278347381380202
-0.441457310959992,-0.272840762025424
-0.437088910266799,-0.267317633505185
-0.432685469760865,-0.261778428640046
-0.428247275177234,-0.256223580250568
-0.42377461225095,-0.250653521157313
-0.419267766717057,-0.245068684180844
-0.414727024310598,-0.23946950214172
-0.410152670766618,-0.233856407860505
-0.40554499182016,-0.228229834157758
-0.400904273206268,-0.222590213854043
-0.396230800659985,-0.216937979769921
-0.391524859916356,-0.211273564725953
-0.386786736710425,-0.2055974015427
-0.382016716777234,-0.199909923040726
-0.377215085851828,-0.19421156204059
-0.372382129669251,-0.188502751362855
-0.367518133964547,-0.182783923828082
-0.362623384472758,-0.177055512256833
-0.35769816692893,-0.17131794946967
-0.352742767068106,-0.165571668287154
-0.347757470625329,-0.159817101529846
-0.342742563335643,-0.154054682018308
-0.337698330934093,-0.148284842573102
-0.332625059155722,-0.14250801601479
-0.327523033735574,-0.136724635163933
-0.322392540408692,-0.130935132841092
-0.317233864910121,-0.12513994186683
-0.312047292974904,-0.119339495061707
-0.306833110338085,-0.113534225246286
-0.301591602734707,-0.107724565241127
-0.296323055899816,-0.101910947866794
-0.291027755568453,-0.0960938059438462
-0.285705987475664,-0.0902735722928461
-0.280358037356492,-0.0844506797343559
-0.27498419094598,-0.0786255610889363
-0.269584733979173,-0.0727986491771494
-0.264159952191115,-0.0669703768195566
-0.258710131316848,-0.0611411768367197
-0.253235557091418,-0.0553114820491998
-0.247736515249867,-0.0494817252775591
-0.24221329152724,-0.0436523393423588
-0.23666617165858,-0.0378237570641607
-0.231095441378931,-0.0319964112635262
-0.225501386423337,-0.0261707347610173
-0.219884292526841,-0.020347160377195
-0.214244445424489,-0.0145261209326213
-0.208582130851322,-0.00870804924785759
-0.202897634542386,-0.00289337814346582
-0.197191242232723,0.00291745955999292
-0.191463239657378,0.00872403104195663
-0.185713912551395,0.014525903481864
-0.179943546649817,0.0203226440591532
-0.174152427687687,0.0261138199532628
-0.168340841400051,0.031898998343631
-0.162509073521951,0.0376777464096966
-0.156657409788432,0.0434496313308974
-0.150786135934537,0.0492142202866726
-0.14489553769531,0.0549710804564598
-0.138985900805794,0.0607197790196981
-0.133057511001035,0.0664598831558253
-0.127110654016074,0.0721909600442803
-0.121145615585957,0.0779125768645011
-0.115162681445727,0.0836243007959264
-0.109162137330428,0.0893256990179944
-0.103144268975103,0.0950163387101438
-0.0971093621147965,0.100695787051813
-0.0910577024845521,0.10636361122244
-0.0849895758194139,0.112019378401463
-0.0789052678544251,0.117662655768321
-0.0728050643246301,0.123293010502452
-0.0666892509650722,0.128910009783295
-0.0605581135107957,0.134513220790288
-0.0544119376968439,0.14010221070287
-0.048251009258261,0.145676546700478
-0.0420756139300903,0.151235795962552
-0.0358860374473762,0.156779525668529
-0.0296825655451619,0.162307302997849
-0.0234654839584918,0.167818695129948
-0.017235078422409,0.173313269244267
-0.0109916346719581,0.178790592520243
-0.00473543844218208,0.184250232137315
0.00153322453187452,0.189691755274921
0.00781406851516872,0.195114729112499
0.0141068077726559,0.200518720829488
0.0204111565692929,0.205903297605327
0.0267268291700353,0.211268026619453
0.0330535398398401,0.216612475051306
0.0393910028436627,0.221936210080322
0.0457389324464601,0.227238798885942
0.0520970429131877,0.232519808647603
0.0584650485088024,0.237778806544745
0.0648426634982599,0.243015359756803
0.0712296021465168,0.248229035463219
0.0776255787185288,0.25341940084343
0.0840303074792529,0.258586023076874
0.0904435026936444,0.263728469342989
0.0968648786266604,0.268846306821216
0.103294149543256,0.27393910269099
0.109731029708389,0.279006424131752
0.116175233387014,0.284047838322938
0.122626474844088,0.289062912443989
0.129084468344567,0.294051213674342
0.135548928153407,0.299012309193436
0.142019568535565,0.303945766180708
0.148496103755996,0.308851151815598
0.154978248079657,0.313728033277544
0.161465715771505,0.318575977745984
0.167958221096495,0.323394552400357
0.174455478319583,0.3281833244201
0.180957201705726,0.332941860984654
0.18746310551988,0.337669729273455
0.193972904027001,0.342366496465942
0.200486311492045,0.347031729741554
0.207003042179969,0.351664996279729
0.213522810355729,0.356265863259906
0.22004533028428,0.360833897861522
0.22657031623058,0.365368667264017
0.233097482459585,0.369869738646828
0.239626543236249,0.374336679189394
0.246157212825531,0.378769056071154
0.252689205492385,0.383166436471546
0.259222235501769,0.387528387570009
0.265756017118638,0.391854476545979
0.272290264607949,0.396144270578898
0.278824692234658,0.400397336848201
0.28535901426372,0.404613242533329
0.291892944960093,0.408791554813719
0.298426198588732,0.412931840868809
0.304958489414594,0.417033667878039
0.311489531702635,0.421096603020846
0.318019039717811,0.42512021347667
0.324546727725078,0.429104066424947
0.331072309989392,0.433047729045118
0.33759550077571,0.436950768516619
0.344116014348989,0.440812752018891
0.350633564974183,0.44463324673137
0.357147866916249,0.448411819833496
0.363658634440144,0.452148038504706
0.370165581810824,0.45584146992444
0.376668423293244,0.459491681272135
0.383166873152362,0.46309823972723
0.389660645653133,0.466660712469164
0.396149455060514,0.470178666677374
0.40263301563946,0.4736516695313
0.409111041654928,0.477079288210379
0.415583247371874,0.480461089894051
0.422049347055255,0.483796641761753
0.428509054970026,0.487085510992924
0.434962085381144,0.490327264767002
0.441408152553565,0.493521470263425
0.447846970752246,0.496667694661633
0.454278254242141,0.499765505141063
0.460701717288208,0.502814468881154
0.467117074155403,0.505814153061345
0.473524039108682,0.508764124861073
0.479922326413001,0.511663951459777
0.486311650333317,0.514513200036896
0.492691725134585,0.517311437771867
0.499062265081762,0.520058231844131
0.505422984439804,0.522753149433123
0.511773597473668,0.525395757718284
0.518113818448309,0.527985623879051
0.524443361628683,0.530522315094864
0.530761941279747,0.533005398545159
0.537069271666458,0.535434441409377
0.54336506705377,0.537809010866954
0.549649041706642,0.54012867409733
0.555920909890027,0.542392998279943
0.562180385868884,0.544601550594232
0.568427183908168,0.546753898219634
0.574661018272835,0.548849608335589
0.580881603227842,0.550888248121533
0.587088653038144,0.552869384756907
0.593281881968698,0.554792585421149
0.599461004284461,0.556657417293696
0.605625734250387,0.558463447553987
0.611775786131435,0.560210243381461
0.617910874192559,0.561897371955556
0.624030712698716,0.563524400455711
0.630135015914862,0.565090896061363
0.636223498105954,0.566596425951952
0.642295873536947,0.568040557306915
0.648351856472798,0.569422857305691
0.654391161178462,0.570742893127719
0.660413501918898,0.572000231952437
0.666418592959059,0.573194440959282
0.672406148563903,0.574325087327695
0.678375882998386,0.575391738237112
0.684327510527464,0.576393960866973
0.690260745416093,0.577331322396716
0.69617530192923,0.57820339000578
0.70207089433183,0.579009730873602
0.70794723688885,0.579749912179621
0.713804043865246,0.580423501103275
0.719641029525975,0.581030064824004
0.725457908135991,0.581569170521244
0.731254393960253,0.582040385374436
0.737030201263715,0.582443276563016
0.742785044311335,0.582777411266425
