0.93088792033616,-0.359689117450881
0.916800090947394,-0.358239291626489
0.90282321607114,-0.356763937682222
0.888956971482442,-0.355263222965881
0.875201032956343,-0.353737314825269
0.861555076267889,-0.352186380608188
0.848018777192121,-0.35061058766244
0.834591811504086,-0.349010103335828
0.821273854978827,-0.347385094976155
0.808064583391387,-0.345735729931221
0.794963672516811,-0.34406217554883
0.781970798130143,-0.342364599176783
0.769085636006427,-0.340643168162884
0.756307861920707,-0.338898049854934
0.743637151648027,-0.337129411600735
0.731073180963431,-0.33533742074809
0.718615625641962,-0.333522244644802
0.706264161458666,-0.331684050638672
0.694018464188586,-0.329823006077502
0.681878209606766,-0.327939278309096
0.66984307348825,-0.326033034681255
0.657912731608082,-0.324104442541781
0.646086859741306,-0.322153669238477
0.634365133662966,-0.320180882119146
0.622747229148107,-0.318186248531588
0.611232821971771,-0.316169935823608
0.599821587909004,-0.314132111343006
0.588513202734849,-0.312072942437586
0.577307342224351,-0.309992596455149
0.566203682152552,-0.307891240743497
0.555201898294498,-0.305769042650434
0.544301666425232,-0.303626169523761
0.533502662319798,-0.301462788711281
0.522804561753241,-0.299279067560796
0.512207040500605,-0.297075173420108
0.501709774336932,-0.294851273637019
0.491312439037268,-0.292607535559332
0.481014710376657,-0.290344126534849
0.470816264130141,-0.288061213911373
0.460716776072767,-0.285758965036705
0.450715921979577,-0.283437547258647
0.440813377625615,-0.281097127925003
0.431008818785926,-0.278737874383574
0.421301921235554,-0.276359953982163
0.411692360749542,-0.273963534068572
0.402179813102935,-0.271548781990603
0.392763954070776,-0.269115865096059
0.38344445942811,-0.266664950732741
0.374221004949981,-0.264196206248453
0.365093266411432,-0.261709798990996
0.356060919587508,-0.259205896308172
0.347123640253253,-0.256684665547785
0.33828110418371,-0.254146274057635
0.329532987153925,-0.251590889185526
0.32087896493894,-0.24901867827926
0.3123187133138,-0.246429808686639
0.303851908053549,-0.243824447755465
0.295478224933231,-0.241202762833541
0.287197339727889,-0.238564921268668
0.279008928212569,-0.23591109040865
0.270912666162313,-0.233241437601288
0.262908229352167,-0.230556130194385
0.254995293557173,-0.227855335535743
0.247173534552376,-0.225139220973164
0.239442628112821,-0.22240795385445
0.23180225001355,-0.219661701527405
0.224252076029609,-0.216900631339829
0.21679178193604,-0.214124910639526
0.209421043507889,-0.211334706774297
0.202139536520199,-0.208530187091946
0.194946936748013,-0.205711518940273
0.187842919966378,-0.202878869667082
0.180827161950335,-0.200032406620175
0.17389933847493,-0.197172297147354
0.167059125315205,-0.194298708596421
0.160306198246206,-0.191411808315179
0.153640233042977,-0.18851176365143
0.14706090548056,-0.185598741952976
0.140567891334001,-0.182672910567619
0.134160866378343,-0.179734436843162
0.127839506388631,-0.176783488127407
0.121603487139908,-0.173820231768156
0.115452484407218,-0.170844835113212
0.109386173965606,-0.167857465510376
0.103404231590115,-0.164858290307452
0.0975063330557902,-0.161847476852241
0.0916921541376743,-0.158825192492546
0.0859613706108121,-0.155791604576168
0.0803136582502474,-0.152746880450911
0.0747486928310243,-0.149691187464577
0.0692661501281867,-0.146624692964967
0.0638657059167786,-0.143547564299884
0.0585470359718443,-0.140459968817131
0.0533098160684276,-0.137362073864509
0.0481537219815725,-0.134254046789821
0.0430784294863232,-0.131136054940869
0.0380836143577235,-0.128008265665456
0.0331689523708177,-0.124870846311383
0.0283341193006494,-0.121723964226454
0.023578790922263,-0.118567786758469
0.0189026430107024,-0.115402481255233
0.0143053513410116,-0.112228215064546
0.00978659168823466,-0.109045155534211
0.00534603982741548,-0.105853470012031
0.000983371533598273,-0.102653325845807
-0.00330173741817301,-0.0994448903833421
-0.00750961125285447,-0.0962283309724386
-0.0116405741954019,-0.0930038149608986
-0.0156949504707715,-0.0897715096965244
-0.0196730643039189,-0.0865315825271183
-0.0235752399198005,-0.0832842008004825
-0.0274018015433719,-0.0800295318644193
-0.0311530733995893,-0.0767677430667311
-0.0348293797134087,-0.0734990017552201
-0.038431044709786,-0.0702234752776885
-0.041958392613677,-0.0669413309819386
-0.0454117476500381,-0.0636527362157728
-0.0487914340438248,-0.0603578583269933
-0.0520977760199935,-0.0570568646634023
-0.0553310978035,-0.0537499225728022
-0.0584917236193001,-0.0504371994029953
-0.0615799776923502,-0.0471188625017838
-0.0645961842476059,-0.0437950792169699
-0.0675406675100234,-0.040466016896356
-0.0704137517045585,-0.0371318428877445
-0.0732157610561672,-0.0337927245389374
-0.0759470197898057,-0.0304488291977371
-0.0786078521304297,-0.0271003242119459
-0.0811985823029955,-0.0237473769293661
-0.0837195345324587,-0.0203901546978
-0.0861710330437755,-0.0170288248650497
-0.0885534020619019,-0.0136635547789176
-0.0908669658117937,-0.010294511787206
-0.0931120485184071,-0.00692186323771726
-0.0952889744066979,-0.00354577647825347
-0.0973980677016223,-0.000166418856617029
-0.099439652628136,0.00321604227938983
-0.101414053411195,0.00660143958196478
-0.103321594275756,0.00998960570330559
-0.105162599446774,0.01338037329561
-0.106937393149205,0.0167735750110757
-0.108646299608005,0.0201690435019004
-0.110289643048131,0.0235666114202818
-0.111867747694538,0.0269661114184177
-0.113380937772183,0.0303673761485058
-0.11482953750602,0.0337702382627436
-0.116213871121007,0.0371745304133292
-0.117534262842099,0.0405800852524601
-0.118791036894253,0.0439867354323341
-0.119984517502423,0.0473943136051488
-0.121115028891566,0.0508026524231021
-0.122182895286639,0.0542115845383915
-0.123188440912597,0.0576209426032149
-0.124131989994396,0.06103055926977
-0.125013866756991,0.0644402671902544
-0.12583439542534,0.067849899016866
-0.126593900224398,0.0712592874018024
-0.127292705379121,0.0746682649972613
-0.127931135114465,0.0780766644554406
-0.128509513655385,0.0814843184285378
-0.129028165226839,0.0848910595687507
-0.129487414053782,0.0882967205282771
-0.129887584361169,0.0917011339593146
-0.130229000373957,0.0951041325140611
-0.130511986317102,0.098505548844714
-0.13073686641556,0.101905215603471
-0.130903964894287,0.105302965442531
-0.131013605978238,0.10869863101409
-0.13106611389237,0.112092044970346
-0.131061812861639,0.115483039963498
-0.131001027111001,0.118871448645743
-0.130884080865411,0.122257103669278
-0.130711298349826,0.125639837686302
-0.130483003789202,0.129019483349012
-0.130199521408494,0.132395873309606
-0.129861175432659,0.135768840220281
-0.129468290086652,0.139138216733235
-0.12902118959543,0.142503835500667
-0.128520198183948,0.145865529174773
-0.127965640077163,0.149223130407752
-0.127357839500031,0.1525764718518
-0.126697120677507,0.155925386159117
-0.125983807834547,0.159269705981899
-0.125218225196108,0.162609263972345
-0.124400696987145,0.165943892782651
-0.123531547432615,0.169273425065016
-0.122611100757472,0.172597693471638
-0.121639681186675,0.175916530654714
-0.120617612945177,0.179229769266442
-0.119545220257936,0.182537241959019
-0.118422827349907,0.185838781384644
-0.117250758446046,0.189134220195514
-0.11602933777131,0.192423391043826
-0.114758889550654,0.195706126581779
-0.113439738009034,0.198982259461571
-0.112072207371406,0.202251622335398
-0.110656621862726,0.205514047855459
-0.10919330570795,0.208769368673952
-0.107682583132035,0.212017417443073
-0.106124778359935,0.215258026815022
-0.104520215616608,0.218491029441995
-0.102869219127009,0.22171625797619
-0.101172113116093,0.224933545069806
-0.0994292218088179,0.228142723375039
-0.0976408694301385,0.231343625544087
-0.095807380205011,0.234536084229149
-0.0939290783583916,0.237719932082421
-0.0920062881152359,0.240895001756102
-0.0900393337005002,0.24406112590239
-0.0880285393391403,0.247218137173482
-0.0859742292561123,0.250365868221575
-0.083876727676372,0.253504151698868
-0.0817363588248757,0.256632820257558
-0.079553446926579,0.259751706549843
-0.0773283162064381,0.26286064322792
-0.0750612908894089,0.265959462943989
-0.0727526952004476,0.269047998350245
-0.0704028533645097,0.272126082098887
-0.0680120896065516,0.275193546842112
-0.0655807281515292,0.278250225232119
-0.0631090932243983,0.281295949921105
-0.0605975090501151,0.284330553561267
-0.0580462998536355,0.287353868804804
-0.0554557898599153,0.290365728303914
-0.0528263032939109,0.293365964710793
-0.0501581643805777,0.296354410677639
-0.0474516973448723,0.299330898856651
-0.0447072264117502,0.302295261900026
-0.0419250758061676,0.305247332459962
-0.0391055697530804,0.308186943188656
-0.0362490324774447,0.311113926738306
-0.0333557882042162,0.314028115761111
-0.0304261611583513,0.316929342909267
-0.0274604755648055,0.319817440834972
-0.0244590556485352,0.322692242190425
-0.0214222256344961,0.325553579627822
-0.0183503097476444,0.328401285799362
-0.0152436322129358,0.331235193357242
-0.0121025172553266,0.33405513495366
-0.00892728909977251,0.336860943240814
-0.00571827197122969,0.339652450870901
-0.00247579009465393,0.342429490496119
0.000799832304998541,0.345191894768666
0.00410827100277203,0.34793949634074
0.00744920177371027,0.350672127864538
0.0108223003928576,0.353389621992258
0.0142272426352577,0.356091811376098
0.0176637042759549,0.358778528668255
0.0211313610899929,0.361449606520928
0.024629888852416,0.364104877586313
0.028158963338268,0.366744174516609
0.0317182603225934,0.369367329964014
0.0353074555804355,0.371974176580724
0.0389262248868389,0.374564547018938
0.0425742440168472,0.377138273930854
0.0462511887455048,0.379695189968669
0.0499567348478555,0.382235127784581
0.0536905580989434,0.384757920030788
0.0574523342738124,0.387263399359487
0.0612417391475068,0.389751398422876
0.0650584484950702,0.392221749873153
0.068902138091547,0.394674286362516
0.072772483711981,0.397108840543161
0.0766691611314165,0.399525245067288
0.0805918461248971,0.401923332587094
0.0845402144674671,0.404302935754776
0.0885139419341704,0.406663887222532
0.0925127043000513,0.40900601964256
0.0965361773401535,0.411329165667058
0.100584036829521,0.413633157948223
0.104655958543198,0.415917829138253
0.108751618256229,0.418183011889346
0.112870691743657,0.4204285388537
0.117012854780526,0.422654242683511
0.121177783141881,0.424859956030979
0.125365152602766,0.4270455115483
0.129574638938224,0.429210741887673
0.1338059179233,0.431355479701295
0.138058665333038,0.433479557641363
0.142332556942481,0.435582808360076
0.146627268526673,0.437665064509632
0.15094247586066,0.439726158742227
0.155277854719484,0.44176592371006
0.15963308087819,0.443784192065329
0.164007830111822,0.445780796460231
0.168401778195423,0.447755569546963
0.172814600904038,0.449708343977724
0.177245974012711,0.451638952404712
0.181695573296486,0.453547227480123
0.186163074530407,0.455433001856157
0.190648153489518,0.45729610818501
0.195150485948862,0.45913637911888
0.199669747683485,0.460953647309965
0.204205614468429,0.462747745410462
0.208757762078739,0.46451850607257
0.21332586628946,0.466265761948486
0.217909602875634,0.467989345690408
0.222508647612307,0.469689089950533
0.227122676274521,0.47136482738106
0.231751364637322,0.473016390634186
0.236394388475752,0.474643612362108
0.241051423564857,0.476246325217025
0.24572214567968,0.477824361851134
0.250406230595265,0.479377554916632
0.255103354086656,0.480905737065719
0.259813191928898,0.48240874095059
0.264535419897033,0.483886399223445
0.269269713766107,0.48533854453648
0.274015749311164,0.486765009541894
0.278773202307246,0.488165626891884
0.283541748529399,0.489540229238648
0.288321063752666,0.490888649234384
0.293110823752092,0.492210719531289
0.297910704302719,0.493506272781561
0.302720381179594,0.494775141637398
0.307539530157758,0.496017158750997
0.312367827012258,0.497232156774557
0.317204947518135,0.498419968360274
0.322050567450435,0.499580426160347
0.326904362584202,0.500713362826974
0.331766008694479,0.501818611012352
0.336635181556311,0.502896003368678
0.341511556944741,0.503945372548151
0.346394810634814,0.504966551202969
0.351284618401573,0.505959371985328
0.356180656020063,0.506923667547428
0.361082599265328,0.507859270541464
0.365990123912411,0.508766013619636
0.370902905736357,0.509643729434141
0.375820620512211,0.510492250637176
0.380742944015014,0.51131140988094
0.385669552019812,0.512101039817629
0.390600120301649,0.512860973099443
0.395534324635569,0.513591042378578
0.400471840796616,0.514291080307232
0.405412344559834,0.514960919537603
0.410355511700266,0.515600392721889
0.415301017992958,0.516209332512288
0.420248539212952,0.516787571560996
0.425197751135293,0.517334942520212
0.430148329535025,0.517851278042134
0.435099950187193,0.518336410778959
0.440052288866839,0.518790173382885
0.445005021349008,0.519212398506109
0.449957823408744,0.51960291880083
0.454910370821092,0.519961566919246
0.459862339361094,0.520288175513553
0.464813404803796,0.52058257723595
0.46976324292424,0.520844604738634
0.474711529497472,0.521074090673803
0.479657940298535,0.521270867693655
0.484602151102473,0.521434768450387
0.489543837684331,0.521565625596198
0.494482675819151,0.521663271783284
0.499418341281979,0.521727539663844
0.504350509847858,0.521758261890076
0.509278857291833,0.521755271114176
0.514203059388947,0.521718399988344
0.519122791914244,0.521647481164776
0.524037730642768,0.52154234729567
0.528947551349564,0.521402831033224
0.533851929809676,0.521228765029636
0.538750541798146,0.521019981937103
0.543643063090021,0.520776314407824
0.548529169460342,0.520497595093995
0.553408536684155,0.520183656647815
0.558280840536504,0.519834331721481
0.563145756792432,0.519449452967191
0.568002961226984,0.519028853037143
0.572852129615204,0.518572364583535
0.577692937732134,0.518079820258563
0.582525061352821,0.517551052714427
0.587348176252307,0.516985894603323
0.592161958205637,0.516384178577449
0.596966082987855,0.515745737289004
0.601760226374004,0.515070403390184
0.606544064139129,0.514358009533188
0.611317272058274,0.513608388370213
0.616079525906483,0.512821372553458
0.620830501458799,0.511996794735118
0.625569874490267,0.511134487567393
0.630297320775931,0.510234283702481
0.635012516090835,0.509296015792578
0.639715136210023,0.508319516489883
0.644404856908539,0.507304618446593
0.649081353961427,0.506251154314906
0.65374430314373,0.505158956747019
0.658393380230494,0.504027858395132
0.663028260996761,0.50285769191144
0.667648621217577,0.501648289948142
0.672254136667984,0.500399485157436
0.676844483123028,0.499111110191519
0.681419336357752,0.49778299770259
0.6859783721472,0.496414980342845
0.690521266266415,0.495006890764482
0.695047694490444,0.4935585616197
0.699557332594328,0.492069825560696
0.704049856353112,0.490540515239667
0.708524941541841,0.488970463308812
0.712982263935558,0.487359502420328
0.712982263935558,0.487359502420328
0.717384688002923,0.485727105259182
0.721695639000286,0.48409285316355
0.725915633884225,0.482456741765445
0.730045189611319,0.480818766696877
0.734084823138147,0.479178923589857
0.738035051421287,0.477537208076397
0.741896391417317,0.475893615788509
0.745669360082816,0.474248142358203
0.749354474374363,0.472600783417491
0.752952251248536,0.470951534598384
0.756463207661914,0.469300391532893
0.759887860571075,0.467647349853031
0.763226726932597,0.465992405190808
0.76648032370306,0.464335553178236
0.769649167839042,0.462676789447326
0.772733776297121,0.461016109630089
0.775734666033876,0.459353509358536
0.778652354005885,0.45768898426468
0.781487357169727,0.456022529980531
0.784240192481981,0.454354142138101
0.786911376899225,0.452683816369401
0.789501427378037,0.451011548306442
0.792010860874997,0.449337333581236
0.794440194346682,0.447661167825794
0.796789944749671,0.445983046672128
0.799060629040543,0.444302965752248
0.801252764175876,0.442620920698166
0.803366867112249,0.440936907141894
0.80540345480624,0.439250920715443
0.807363044214428,0.437562957050823
0.809246152293391,0.435873011780047
0.811053295999709,0.434181080535127
0.812784992289959,0.432487158948072
0.814441758120719,0.430791242650895
0.816024110448569,0.429093327275606
0.817532566230088,0.427393408454218
0.818967642421852,0.425691481818742
0.820329855980442,0.423987543001188
0.821619723862436,0.422281587633568
0.822837763024412,0.420573611347895
0.823984490422948,0.418863609776178
0.825060423014624,0.417151578550429
0.826066077756017,0.41543751330266
0.827001971603707,0.413721409664882
0.827868621514272,0.412003263269106
0.82866654444429,0.410283069747344
0.82939625735034,0.408560824731606
0.830058277189001,0.406836523853906
0.830653120916851,0.405110162746253
0.831181305490468,0.403381737040658
0.831643347866431,0.401651242369134
0.832039765001318,0.399918674363692
0.832371073851709,0.398184028656344
0.832637791374182,0.396447300879099
0.832840434525315,0.39470848666397
0.832979520261686,0.392967581642968
0.833055565539875,0.391224581448105
0.83306908731646,0.389479481711391
0.833020602548018,0.387732278064839
0.83291062819113,0.385982966140459
0.832739681202374,0.384231541570262
0.832508278538327,0.382477999986261
0.832216937155568,0.380722337020467
0.831866174010678,0.37896454830489
0.831456506060232,0.377204629471542
0.83098845026081,0.375442576152435
0.830462523568991,0.37367838397958
0.829879242941354,0.371912048584988
0.829239125334475,0.370143565600671
0.828542687704936,0.368372930658639
0.827790447009312,0.366600139390905
0.826982920204185,0.364825187429479
0.826120624246131,0.363048070406373
0.825204076091729,0.361268783953599
0.824233792697558,0.359487323703167
0.823210291020198,0.357703685287089
0.822134088016224,0.355917864337376
0.821005700642218,0.35412985648604
0.819825645854756,0.352339657365092
0.818594440610418,0.350547262606544
0.817312601865782,0.348752667842406
0.815980646577427,0.34695586870469
0.814599091701931,0.345156860825407
0.813168454195873,0.343355639836569
0.811689251015831,0.341552201370188
0.810161999118383,0.339746541058273
0.808587215460109,0.337938654532837
0.806965416997587,0.336128537425892
0.805297120687396,0.334316185369448
0.803582843486113,0.332501593995516
0.801823102350318,0.330684758936109
0.800018414236588,0.328865675823237
0.798169296101504,0.327044340288912
0.796276264901642,0.325220747965145
0.794339837593582,0.323394894483948
0.792360531133903,0.321566775477331
0.790338862479182,0.319736386577307
0.788275348585998,0.317903723415886
0.786170506410929,0.31606878162508
0.784024852910556,0.3142315568369
0.781838905041455,0.312392044683358
0.779613179760205,0.310550240796465
0.777348194023385,0.308706140808232
0.775044464787574,0.30685974035067
0.772702509009349,0.305011035055792
0.77032284364529,0.303160020555607
0.767905985651976,0.301306692482129
0.765452451985983,0.299451046467367
0.762962759603892,0.297593078143334
0.760437425462281,0.29573278314204
0.757876966517727,0.293870157095497
0.755281899726811,0.292005195635717
0.75265274204611,0.29013789439471
0.749990010432202,0.288268249004488
0.747294221841666,0.286396255097063
0.744565893231082,0.284521908304445
0.741805541557027,0.282645204258647
0.73901368377608,0.280766138591678
0.736190836844819,0.278884706935552
0.733337517719824,0.277000904922279
0.730454243357672,0.27511472818387
0.727541530714942,0.273226172352336
0.724599896748212,0.27133523305969
0.721629858414062,0.269441905937943
0.718631932669069,0.267546186619105
0.715606636469813,0.265648070735188
0.712554486772871,0.263747553918204
0.709476000534823,0.261844631800164
0.706371694712246,0.259939300013079
0.70324208626172,0.25803155418896
0.700087692139822,0.25612138995982
0.696909029303132,0.254208802957668
0.693706614708228,0.252293788814517
0.690480965311689,0.250376343162378
0.687232598070092,0.248456461633262
0.683962029940017,0.246534139859181
0.680669777878043,0.244609373472146
0.677356358840746,0.242682158104168
0.674022289784707,0.240752489387258
0.670668087666504,0.238820362953429
0.667294269442715,0.236885774434691
0.663901352069918,0.234948719463055
0.660489852504693,0.233009193670534
0.657060287703618,0.231067192689138
0.653613174623271,0.229122712150878
0.650149030220231,0.227175747687767
0.646668371451076,0.225226294931815
0.643171715272386,0.223274349515033
0.639659578640738,0.221319907069434
0.636132478512711,0.219362963227028
0.632590931844883,0.217403513619827
0.629035455593834,0.215441553879842
0.625466566716142,0.213477079639084
0.621884782168384,0.211510086529566
0.61829061890714,0.209540570183297
0.614684593888989,0.20756852623229
0.611067224070508,0.205593950308555
0.607439026408277,0.203616838044105
0.603800517858873,0.20163718507095
0.600152215378876,0.199654987021102
0.596494635924864,0.197670239526572
0.592828296453415,0.195682938219372
0.589153713921108,0.193693078731512
0.585471405284522,0.191700656695005
0.581781887500235,0.189705667741862
0.578085677524826,0.187708107504093
0.574383292314872,0.18570797161371
0.570675248826954,0.183705255702726
0.566962064017648,0.18169995540315
0.563244254843535,0.179692066346994
0.559522338261191,0.17768158416627
0.555796831227197,0.175668504492989
0.55206825069813,0.173652822959162
0.548337113630568,0.171634535196801
0.544603936981091,0.169613636837917
0.540869237706277,0.167590123514521
0.537133532762705,0.165563990858625
0.533397339106952,0.16353523450224
0.529661173695598,0.161503850077377
0.525925553485222,0.159469833216048
0.522190995432401,0.157433179550264
0.518458016493714,0.155393884712036
0.514727133625739,0.153351944333377
0.510998863785056,0.151307354046296
0.507273723928243,0.149260109482806
0.503552231011878,0.147210206274917
0.49983490199254,0.145157640054642
0.496122253826808,0.143102406453991
0.492414803471259,0.141044501104976
0.488713067882472,0.138983919639608
0.485017564017027,0.136920657689898
0.481328808831501,0.134854710887859
0.477647319282474,0.1327860748655
0.473973612326522,0.130714745254834
0.470308204920226,0.128640717687872
0.466651614020164,0.126563987796625
0.463004356582914,0.124484551213105
0.459366949565054,0.122402403569323
0.455739909923164,0.12031754049729
0.452123754613822,0.118229957629017
0.448519000593606,0.116139650596516
0.444926164819095,0.114046615031799
0.441345764246867,0.111950846566876
0.437778315833501,0.10985234083376
0.434224336535576,0.10775109346446
0.430684343309669,0.10564710009099
0.427158853112361,0.103540356345359
0.423648382900228,0.101430857859579
0.42015344962985,0.0993186002656626
0.416674570257805,0.09720357919562
0.413212261740672,0.0950857902814626
0.409767041035029,0.092965229155202
0.406339425097454,0.0908418914488494
0.402929930884527,0.0887157727944163
0.399539075352826,0.0865868688239138
0.39616737545893,0.0844551751693535
0.392815348159416,0.0823206874627466
0.389483510410863,0.0801834013361045
0.386172379169851,0.0780433124214385
0.382882471392957,0.07590041635076
0.37961430403676,0.0737547087560803
0.376368394057839,0.0716061852694108
0.373145258412771,0.0694548415227627
0.369945414058137,0.0673006731481475
0.366769377950513,0.0651436757775764
0.36361766704648,0.062983845043061
0.360490798302614,0.0608211765766123
0.357389288675496,0.0586556660102419
0.354313655121702,0.056487308975961
0.351264414597813,0.0543161011057811
0.348242084060406,0.0521420380317134
0.34524718046606,0.0499651153857693
0.342280220771353,0.0477853287999601
0.339341721932864,0.0456026739062973
0.336432200907172,0.0434171463367919
0.333552174650855,0.0412287417234557
0.330702160120492,0.0390374556982997
0.32788267427266,0.0368432838933354
0.32509423406394,0.034646221940574
0.322337356450908,0.032446265472027
0.319612558390144,0.0302434101197056
0.316920356838227,0.0280376515156214
0.314261268751734,0.0258289852917855
0.311635811087245,0.0236174070802093
0.309044500801337,0.0214029125129042
0.306487854850591,0.0191854972218815
0.303966390191582,0.0169651568391525
0.301480623780892,0.0147418869967287
0.299031072575097,0.0125156833266212
0.296618253530778,0.0102865414608415
0.294242683604511,0.00805445703140098
0.291904879752875,0.00581942567031096
0.28960535893245,0.00358144300958263
0.287344638099814,0.00134050468122758
0.285123234211545,-0.000903393682743059
0.282941664224221,-0.00315025645031777
0.280800445094422,-0.00540008798948541
0.278700093778726,-0.00765289266823438
0.276641127233711,-0.00990867485455361
0.274624062415956,-0.0121674389164315
0.27264941628204,-0.0144291892218569
0.27071770578854,-0.0166939301388184
0.268829447892036,-0.0189616660353046
0.266985159549106,-0.0212324012793042
0.265185357716329,-0.023506140238806
0.263430559350283,-0.0257828872817984
0.261721281407546,-0.0280626467762702
0.260058040844698,-0.03034542309021
0.258441354618316,-0.0326312205916066
0.256871739684979,-0.0349200436484484
0.255349713001267,-0.0372118966287243
0.253875791523756,-0.0395067839004227
0.252450492209027,-0.0418047098315326
0.251074332013657,-0.0441056787900423
0.249747827894225,-0.0464096951439408
0.248471496807309,-0.0487167632612164
0.247245855709489,-0.0510268875098581
0.246071421557341,-0.0533400722578543
0.244948711307446,-0.0556563218731938
0.243878241916382,-0.0579756407238652
0.242860530340727,-0.0602980331778572
0.241896093537059,-0.0626235036031583
0.240985448461958,-0.0649520563677574
0.240129112072001,-0.0672836958396429
0.239327601323768,-0.0696184263868037
0.238581433173837,-0.0719562523772282
0.237891124578785,-0.0742971781789054
0.237257192495193,-0.0766412081598236
0.236680153879638,-0.0789883466879717
0.236160525688699,-0.0813385981313382
0.235698824878955,-0.0836919668579119
0.235295568406984,-0.0860484572356813
0.234951273229364,-0.0884080736326352
0.234666456302674,-0.0907708204167621
0.234441634583493,-0.0931367019560509
0.2342773250284,-0.09550572261849
0.234174044593971,-0.0978778867720682
0.234132310236788,-0.100253198784774
0.234152638913426,-0.102631663024596
0.234235547580467,-0.105013283859524
0.234381553194487,-0.107398065657545
0.234591172712065,-0.109786012786648
0.234864923089781,-0.112177129614822
0.235203321284211,-0.114571420510056
0.235606884251936,-0.116968889840339
0.236076128949533,-0.119369541973658
0.236611572333582,-0.121773381278003
0.23721373136066,-0.124180412121362
0.237883122987346,-0.126590638871724
0.238620264170219,-0.129004065897078
0.239425671865857,-0.131420697565412
0.240299863030838,-0.133840538244714
0.241243354621742,-0.136263592302975
0.242256663595147,-0.138689864108181
0.243340306907631,-0.141119358028323
0.244494801515773,-0.143552078431388
0.245720664376152,-0.145988029685365
0.247018412445345,-0.148427216158243
0.248388562679932,-0.150869642218011
0.249831632036491,-0.153315312232656
0.2513481374716,-0.155764230570169
0.252938595941839,-0.158216401598537
0.254603524403785,-0.160671829685749
0.256343439814017,-0.163130519199794
0.258158859129114,-0.16559247450866
0.260050299305654,-0.168057699980337
0.262018277300216,-0.170526199982812
0.264063310069378,-0.172997978884074
0.26618591456972,-0.175473041052113
0.268386607757818,-0.177951390854916
0.270665906590252,-0.180433032660473
0.273024328023601,-0.182917970836772
0.275462389014443,-0.185406209751801
0.277980606519356,-0.18789775377355
0.280579497494919,-0.190392607270007
0.283259578897711,-0.19289077460916
0.28602136768431,-0.195392260158999
0.288865380811295,-0.197897068287511
0.291792135235244,-0.200405203362687
0.294802147912735,-0.202916669752513
0.297895935800348,-0.20543147182498
0.301074015854661,-0.207949613948075
0.304336905032252,-0.210471100489787
0.307685120289699,-0.212995935818105
0.311119178583583,-0.215524124301018
0.31463959687048,-0.218055670306514
0.318246892106969,-0.220590578202582
0.32194158124963,-0.223128852357211
0.32572418125504,-0.225670497138388
0.329595209079778,-0.228215516914104
0.333555181680423,-0.230763916052346
0.337604616013553,-0.233315698921103
0.341744029035746,-0.235870869888364
0.345973937703582,-0.238429433322117
0.350294858973638,-0.240991393590352
0.354707309802494,-0.243556755061056
0.359211807146728,-0.246125522102218
0.363808867962918,-0.248697699081828
0.368499009207643,-0.251273290367874
0.373282747837481,-0.253852300328344
0.378160600809011,-0.256434733331227
0.383133085078812,-0.259020593744511
0.388200717603462,-0.261609885936187
0.393364015339539,-0.264202614274241
0.398623495243623,-0.266798783126662
0.403979674272291,-0.269398396861441
0.409433069382122,-0.272001459846564
0.414984197529695,-0.27460797645002
0.420633575671588,-0.2772179510398
0.42638172076438,-0.27983138798389
0.432229149764649,-0.282448291650279
0.438176379628974,-0.285068666406957
0.444223927313934,-0.287692516621912
0.450372309776106,-0.290319846663132
0.45662204397207,-0.292950660898607
0.462973646858403,-0.295584963696325
0.469427635391686,-0.298222759424274
0.475984526528495,-0.300864052450443
0.48264483722541,-0.303508847142822
0.489409084439009,-0.306157147869397
0.496277785125871,-0.308808958998159
0.503251456242574,-0.311464284897096
0.510330614745697,-0.314123129934196
0.517515777591817,-0.316785498477449
0.524807461737515,-0.319451394894842
0.532206184139368,-0.322120823554365
0.539712461753955,-0.324793788824006
0.547326811537854,-0.327470295071753
0.555049750447645,-0.330150346665596
0.562881795439904,-0.332833947973523
0.570823463471212,-0.335521103363523
0.578875271498146,-0.338211817203585
0.587037736477286,-0.340906093861696
0.595311375365209,-0.343603937705846
0.603696705118494,-0.346305353104023
0.61219424269372,-0.349010344424217
0.620804505047465,-0.351718916034415
0.629528009136307,-0.354431072302606
0.638365271916826,-0.35714681759678
