0.648667265627483,0.0553619598731134
0.642492822250442,0.0556884513078643
0.636358211064528,0.0559815457009461
0.630263341069924,0.0562415279441969
0.624208121266813,0.0564686829294546
0.618192460655375,0.056663295548557
0.612216268235792,0.056825650693342
0.606279453008248,0.0569560332556477
0.600381923972924,0.0570547281273119
0.594523590130002,0.0571220202001726
0.588704360479663,0.0571581943660676
0.582924144022091,0.0571635355168349
0.577182849757467,0.0571383285443125
0.571480386685972,0.0570828583403382
0.56581666380779,0.0569974097967499
0.560191590123102,0.0568822678053856
0.55460507463209,0.0567377172580832
0.549057026334936,0.0565640430466807
0.543547354231822,0.0563615300630158
0.538075967322931,0.0561304631989267
0.532642774608443,0.0558711273462511
0.527247685088542,0.0555838073968271
0.521890607763409,0.0552687882424925
0.516571451633226,0.0549263547750852
0.511290125698175,0.0545567918864432
0.506046538958439,0.0541603844684044
0.500840600414199,0.0537374174128067
0.495672219065637,0.053288175611488
0.490541303912936,0.0528129439562864
0.485447763956277,0.0523120073390396
0.480391508195842,0.0517856506515856
0.475372445631814,0.0512341587857623
0.470390485264373,0.0506578166334077
0.465445536093704,0.0500569090863596
0.460537507119987,0.049431721036456
0.455666307343404,0.0487825373755349
0.450831845764138,0.048109642995434
0.446034031382371,0.0474133227879915
0.441272773198283,0.0466938616450451
0.436547980212059,0.0459515444584328
0.431859561423879,0.0451866561199925
0.427207425833925,0.0443994815215621
0.42259148244238,0.0435903055549796
0.418011640249426,0.0427594131120829
0.413467808255244,0.04190708908471
0.408959895460017,0.0410336183646986
0.404487810863926,0.0401392858438868
0.400051463467155,0.0392243764141124
0.395650762269884,0.0382891749672135
0.391285616272295,0.0373339663950278
0.386955934474572,0.0363590355893934
0.382661625876895,0.0353646674421481
0.378402599479447,0.03435114684513
0.37417876428241,0.0333187586901768
0.369990029285965,0.0322677878691265
0.365836303490295,0.0311985192738171
0.361717495895583,0.0301112377960864
0.357633515502009,0.0290062283277725
0.353584271309756,0.0278837757607131
0.349569672319005,0.0267441649867463
0.34558962752994,0.0255876808977099
0.341644045942742,0.0244146083854419
0.337732836557593,0.0232252323417802
0.333855908374674,0.0220198376585626
0.330013170394169,0.0207987092276273
0.326204531616259,0.019562131940812
0.322429901041125,0.0183103906899546
0.318689187668951,0.0170437703668932
0.314982300499918,0.0157625558634656
0.311309148534208,0.0144670320715097
0.307669640772003,0.0131574838828635
0.304063686213485,0.0118341961893649
0.300491193858837,0.0104974538828518
0.296952072708239,0.00914754185516213
0.293446231761875,0.00778474499813379
0.289973580019926,0.00640934820360474
0.286534026482574,0.00502163636341289
0.283127480150001,0.00362189436939616
0.27975385002239,0.00221040711339245
0.276413045099922,0.000787459487239704
0.273104974382779,-0.000646663617224142
0.269829546871144,-0.00209167730816121
0.266586671565198,-0.00354729669373356
0.263376257465123,-0.00501323688210325
0.260198213571102,-0.00648921298143236
0.257052448883316,-0.00797494009988299
0.253938872401947,-0.00947013334561722
0.250857393127178,-0.0109745078267971
0.24780792005919,-0.0124877786515848
0.244790362198166,-0.0140096609281422
0.241804628544287,-0.0155398697646316
0.238850628097736,-0.0170781202692149
0.235928269858694,-0.0186241275500543
0.233037462827344,-0.0201776067153119
0.230178116003868,-0.0217382728731497
0.227350138388447,-0.0233058411317297
0.224553438981263,-0.0248800265992142
0.221787926782499,-0.026460544383765
0.219053510792337,-0.0280471095935445
0.216350100010959,-0.0296394373367145
0.213677603438546,-0.0312372427214372
0.211035930075281,-0.0328402408558747
0.208424988921346,-0.034448146848189
0.205844688976922,-0.0360606758065423
0.203294939242192,-0.0376775428390965
0.200775648717338,-0.0392984630540139
0.198286726402542,-0.0409231515594564
0.195828081297985,-0.0425513234635861
0.19339962240385,-0.0441826938745651
0.19100125872032,-0.0458169779005556
0.188632899247574,-0.0474538906497195
0.186294452985797,-0.0490931472302189
0.18398582893517,-0.050734462750216
0.181706936095875,-0.0523775523178728
0.179457683468094,-0.0540221310413514
0.177237980052008,-0.0556679140288139
0.175047734847801,-0.0573146163884223
0.172886856855654,-0.0589619532283387
0.170755255075748,-0.0606096396567252
0.168652838508267,-0.0622573907817439
0.166579516153391,-0.0639049217115568
0.164535197011304,-0.0655519475543261
0.162519790082187,-0.0671981834182138
0.160533204366222,-0.068843344411382
0.158575348863591,-0.0704871456419928
0.156646132574477,-0.0721293022182082
0.15474546449906,-0.0737695292481903
0.152873253637524,-0.0754075418401013
0.151029408990049,-0.0770430551021031
0.14921383955682,-0.0786757841423579
0.147426454338016,-0.0803054440690277
0.14566716233382,-0.0819317499902747
0.143935872544415,-0.0835544170142608
0.142232493969982,-0.0851731602491483
0.140556935610704,-0.0867876948030991
0.138909106466762,-0.0883977357842752
0.137288915538338,-0.090002998300839
0.135696271825614,-0.0916031974609523
0.134131084328773,-0.0931980483727773
0.132593262047997,-0.094787266144476
0.131082713983466,-0.0963705658842106
0.129599349135365,-0.097947662700143
0.128143076503873,-0.0995182717004355
0.126713805089174,-0.10108210799325
0.12531144389145,-0.102638886686749
0.123935901910882,-0.104188322889094
0.122587088147653,-0.105730131708447
0.121264911601944,-0.10726402825297
0.119969281273938,-0.108789727630826
0.118700106163817,-0.110306944950177
0.117457295271762,-0.111815395319184
0.116240757597956,-0.11331479384601
0.11505040214258,-0.114804855638816
0.113886137905817,-0.116285295805766
0.112747873887849,-0.11775582945502
0.111635519088857,-0.119216171694741
0.110548982509025,-0.120666037633092
0.109488173148533,-0.122105142378233
0.108453000007564,-0.123533201038328
0.107443372086299,-0.124949928721538
0.106459198384921,-0.126355040536026
0.105500387903613,-0.127748251589953
0.104566849642555,-0.129129276991482
0.10365849260193,-0.130497831848774
0.102775225781919,-0.131853631269992
0.101916958182706,-0.133196390363297
0.101083598804472,-0.134525824236853
0.100275056647398,-0.13584164799882
0.0994912407116677,-0.137143576757362
0.0987320599974622,-0.13843132562064
0.0979974235049637,-0.139704609696815
0.0972872402343541,-0.140963144094051
0.0966014191858157,-0.14220664392051
0.0959398693595303,-0.143434824284353
0.0953024997556799,-0.144647400293742
0.0946892193744467,-0.14584408705684
0.0940999372160125,-0.147024599681808
0.0935345622805595,-0.14818865327681
0.0929930035682697,-0.149335962950006
0.0924751700793249,-0.150466243809559
0.0919809708139074,-0.151579210963631
0.0915103147721991,-0.152674579520384
0.091063110954382,-0.15375206458798
0.0906392683606382,-0.154811381274581
0.0902386959911496,-0.155852244688349
0.0898613028460983,-0.156874369937447
0.0895069979256663,-0.157877472130037
0.0891756902300356,-0.15886126637428
0.0888672887593883,-0.159825467778338
0.0885817025139063,-0.160769791450374
0.0883188404937716,-0.16169395249855
0.0880786116991664,-0.162597666031028
0.0878609251302726,-0.163480647155969
0.0876656897872722,-0.164342610981537
0.0874928146703473,-0.165183272615892
0.0873422087796798,-0.166002347167198
0.0872137811154518,-0.166799549743616
0.0871074406778453,-0.167574595453309
0.0870230964670424,-0.168327199404437
0.086960657483225,-0.169057076705164
0.0869200327265751,-0.169763942463652
0.0869011311972748,-0.170447511788062
0.0869038618955062,-0.171107499786557
0.0869281338214511,-0.171743621567299
0.0869738559752917,-0.172355592238449
0.08704093735721,-0.172943126908171
0.0871292869673879,-0.173505940684625
0.0872388138060075,-0.174043748675975
0.0873694268732508,-0.174556265990382
0.0875210351692999,-0.175043207736008
0.0876935476943367,-0.175504289021015
0.0878868734485433,-0.175939224953566
0.0881009214321016,-0.176347730641822
0.0883356006451938,-0.176729521193946
0.0885908200880018,-0.177084311718099
0.0888664887607077,-0.177411817322444
0.0891625156634934,-0.177711753115143
0.089478809796541,-0.177983834204358
0.0898152801600325,-0.17822777569825
0.0901718357541499,-0.178443292704983
0.0905483855790752,-0.178630100332718
0.0909448386349905,-0.178787913689617
0.0913611039220778,-0.178916447883842
0.0917970904405191,-0.179015418023555
0.0922527071904964,-0.179084539216919
0.0927278631721918,-0.179123526572096
0.0932224673857871,-0.179132095197247
0.0937364288314646,-0.179109960200534
0.0942696565094061,-0.179056836690121
0.0948220594197938,-0.178972439774168
0.0953935465628096,-0.178856484560838
0.0959840269386355,-0.178708686158293
0.0965934095474536,-0.178528759674695
0.0972216033894459,-0.178316420218207
0.0978685174647944,-0.178071382896989
0.0985340607736811,-0.177793362819205
0.099218142316288,-0.177482075093016
0.0999206710927972,-0.177137234826584
0.100641556103391,-0.176758557128072
0.10138070634825,-0.176345757105642
0.102138030827559,-0.175898549867455
0.102913438541497,-0.175416650521674
0.103706838490248,-0.174899774176461
0.104518139673993,-0.174347635939978
0.105347251092914,-0.173759950920386
0.106194081747194,-0.173136434225849
0.107058540637015,-0.172476800964528
0.107940536762558,-0.171780766244585
0.108839979124005,-0.171048045174183
0.109756776721539,-0.170278352861483
0.110690838555341,-0.169471404414647
0.111642073625594,-0.168626914941838
0.112610390932479,-0.167744599551217
0.113595699476179,-0.166824173350947
0.114597908256876,-0.16586535144919
0.115616926274751,-0.164867848954108
0.116652662529986,-0.163831380973863
0.117705026022765,-0.162755662616616
0.118773925753268,-0.161640408990531
0.119859270721677,-0.160485335203769
0.120960969928176,-0.159290156364492
0.122078932372945,-0.158054587580862
0.123213067056167,-0.156778343961042
0.124363282978023,-0.155461140613194
0.125529489138697,-0.154102692645479
0.126711594538369,-0.152702715166059
0.127909508177222,-0.151260923283097
0.129123139055437,-0.149777032104755
0.130352396173198,-0.148250756739195
0.131597188530685,-0.146681812294579
0.132857425128082,-0.145069913879069
0.134133014965569,-0.143414776600827
0.135423867043329,-0.141716115568015
0.136729890361544,-0.139973645888795
0.138050993920396,-0.13818708267133
0.139387086720067,-0.136356141023781
0.140738077760739,-0.134480536054311
0.142103876042594,-0.132559982871081
0.143484390565814,-0.130594196582254
0.144879530330582,-0.128582892295991
0.146289204337078,-0.126525785120456
0.147713321585485,-0.124422590163809
0.149151791075985,-0.122273022534213
0.150604521808761,-0.120076797339831
0.152071422783994,-0.117833629688823
0.153552403001865,-0.115543234689353
0.155047371462558,-0.113205327449582
0.156556237166255,-0.110819623077672
0.158078909113136,-0.108385836681786
0.159615296303385,-0.105903683370085
0.161165307737183,-0.103372878250732
0.162728852414712,-0.100793136431888
0.164305839336154,-0.0981641730217163
0.165896177501692,-0.0954857031283782
0.167499775911507,-0.0927574418600362
0.169116543565782,-0.0899791043248521
0.170746389464698,-0.0871504056309882
0.172389222608437,-0.0842710608866062
0.174044951997182,-0.0813407851998686
0.175713486631114,-0.0783592936789372
0.177394735510415,-0.0753263014319743
0.179088607635268,-0.0722415235671417
0.180795012005855,-0.0691046751926018
0.182513857622357,-0.0659154714165164
0.184245053484956,-0.0626736273470477
0.185988508593835,-0.0593788580923578
0.187744131949176,-0.0560308787606088
0.18951183255116,-0.0526294044599625
0.19129151939997,-0.0491741502985815
0.193083101495787,-0.0456648313846273
0.194886487838794,-0.0421011628262625
0.196701587429173,-0.0384828597316488
0.198528309267105,-0.0348096372089485
0.200366562352773,-0.0310812103663236
0.202216255686359,-0.0272972943119361
0.204077298268045,-0.0234576041539482
0.205949599098012,-0.019561855000522
0.207833067176443,-0.0156097619598193
0.20972761150352,-0.0116010401400026
0.211633141079424,-0.00753540464923358
0.213549564904339,-0.00341257059567467
0.215476791978445,0.000767746912512274
0.217414731301925,0.00500583276716508
0.219363291874961,0.00930197186012183
0.221322382697735,0.0136564490832201
0.223291912770429,0.0180695493282983
0.225271791093225,0.0225415574871938
0.227261926666304,0.0270727584517451
0.22926222848985,0.0316634371137896
0.231272605564044,0.0363138783651655
0.233292966889068,0.0410243670977107
0.235323221465103,0.0457951882032631
0.237363278292333,0.0506266265736605
0.239413046370939,0.0555189671007412
0.241472434701103,0.0604724946763426
0.243541352283007,0.0654874941923031
0.245619708116833,0.0705642505404602
0.247707411202763,0.0757030486126521
0.24980437054098,0.0809041733007166
0.251910495131665,0.0861679094964918
0.254025693974999,0.0914945420918153
0.256149876071166,0.0968843559785253
0.258282950420348,0.10233763604846
0.260424826022725,0.107854667193456
0.262575411878481,0.113435734305353
0.264734616987797,0.119081122275988
0.266902350350856,0.124791115997199
0.269078520967839,0.130566000360823
0.271263037838928,0.1364060602587
0.273455809964305,0.142311580582667
0.275656746344153,0.148282846224561
0.277865755978653,0.15432014207622
0.280082747867988,0.160423753029484
0.282307631012339,0.166593963976189
0.284540314411889,0.172831059808172
0.286780707066819,0.179135325417274
0.289028717977312,0.185507045695331
0.291284256143549,0.191946505534181
0.293547230565713,0.198453989825661
0.295817550243985,0.205029783461611
0.298095124178548,0.211674171333868
0.300379861369583,0.21838743833427
0.302671670817273,0.225169869354654
0.3049704615218,0.232021749286859
0.307276142483345,0.238943363022723
0.309588622702091,0.245934995454083
0.31190781117822,0.252996931472778
0.314233616911913,0.260129455970645
0.316565948903353,0.267332853839522
0.318904716152722,0.274607409971248
0.321249827660202,0.281953409257659
0.323601192425974,0.289371136590595
0.325958719450221,0.296860876861893
0.328322317733126,0.304422914963391
0.330691896274868,0.312057535786926
0.333067364075632,0.319765024224337
0.335448630135599,0.327545665167462
0.33783560345495,0.335399743508139
0.340228193033869,0.343327544138204
0.342626307872536,0.351329351949498
0.345029856971134,0.359405451833856
0.347438749329846,0.367556128683118
0.349852893948852,0.375781667389121
0.352272199828335,0.384082352843704
0.354696575968478,0.392458469938703
0.357125931369461,0.400910303565957
0.359560175031467,0.409438138617304
0.361999215954679,0.418042259984582
0.364442963139278,0.426722952559629
0.366891325585445,0.435480501234282
0.369344212293364,0.44431519090038
0.371801532263216,0.453227306449761
0.374263194495184,0.462217132774261
0.376729107989448,0.47128495476572
0.379199181746192,0.480431057315975
0.381673324765597,0.489655725316865
0.384151446047845,0.498959243660226
0.386633454593118,0.508341897237898
0.389119259401599,0.517803970941718
0.391608769473469,0.527345749663523
