0.595489033794028,-0.347282989208608
-0.483408879559704,-0.652581494262719
-0.394011122088259,-0.505774169921478
-0.401981797131576,0.290149389177982
-0.409952472174894,1.08607294827744
0.973925089989966,0.222928654396409
-0.200201502789602,-0.916208187705342
