-0.268551890407043,-0.567655774461288
0.134743550699407,0.979658072833926
-0.216524521992959,-0.0124082797625542
-0.316490664977594,0.451624369056595
-0.416456807962229,0.915657017875745
-0.495739968695332,0.305803390341818
0.758636246578093,0.266114432638258
