-0.0661396043483757,0.591965699388961
-0.0649287847971836,0.592321248465366
-0.063712856211836,0.592656540938381
-0.0624918264089993,0.592971640851972
-0.0612657032053399,0.593266612250103
-0.0600344944175243,0.593541519176738
-0.058798207862219,0.593796425675842
-0.0575568513560902,0.594031395791379
-0.0563104327158046,0.594246493567314
-0.0550589597580284,0.594441783047611
-0.0538024402994282,0.594617328276235
-0.0525408821566704,0.59477319329715
-0.0512742931464214,0.594909442154321
-0.0500026810853476,0.595026138891712
-0.0487260537901155,0.595123347553288
-0.0474444190773916,0.595201132183013
-0.0461577847638421,0.595259556824852
-0.0448661586661337,0.595298685522769
-0.0435695486009327,0.595318582320729
-0.0422679623849054,0.595319311262696
-0.0409614078347186,0.595300936392635
-0.0396498927670384,0.595263521754511
-0.0383334249985313,0.595207131392286
-0.0370120123458638,0.595131829349928
-0.0356856626257024,0.595037679671399
-0.0343543836547134,0.594924746400664
-0.0330181832495632,0.594793093581688
-0.0316770692269184,0.594642785258435
-0.0303310494034453,0.59447388547487
-0.0289801315958104,0.594286458274957
-0.0276243236206802,0.594080567702661
-0.0262636332947209,0.593856277801946
-0.0248980684345992,0.593613652616777
-0.0235276368569813,0.593352756191118
-0.0221523463785338,0.593073652568934
-0.0207722048159231,0.592776405794189
-0.0193872199858156,0.592461079910848
-0.0179973997048778,0.592127738962875
-0.016602751789776,0.591776446994234
-0.0152032840571767,0.591407268048891
-0.0137990043237464,0.59102026617081
-0.0123899204061515,0.590615505403955
-0.0109760401210584,0.590193049792291
-0.00955737128513348,0.589752963379782
-0.0081339217150433,0.589295310210392
-0.00670569922745423,0.588820154328087
-0.00527271163903269,0.588327559776831
-0.00383496676644515,0.587817590600588
-0.00239247242635801,0.587290310843322
-0.000945236435437726,0.586745784548999
0.000506733389649284,0.586184075761583
0.00196342923223658,0.585605248525037
0.00342484327565772,0.585009366883328
0.00489096770324627,0.584396494880419
0.00636179469833582,0.583766696560274
0.00783731644425992,0.583120035966858
0.00931752512435213,0.582456577144137
0.010802412921946,0.581776384136073
0.0122919720203752,0.581079520986633
0.0137861946029732,0.580366051739779
0.0152850728530735,0.579636040439477
0.0167885989540098,0.578889551129692
0.0182967650891157,0.578126647854387
0.0198095634417246,0.577347394657527
0.0213269861951702,0.576551855583077
0.0228490255327859,0.575740094675002
0.0243756736379055,0.574912175977264
0.0259069226938624,0.574068163533831
0.0274427648839903,0.573208121388665
0.0289831923916226,0.572332113585731
0.0305281974000929,0.571440204168993
0.0320777720927349,0.570532457182417
0.0336319086528821,0.569608936669967
0.035190599263868,0.568669706675607
0.0367538361090263,0.567714831243301
0.0383216113716904,0.566744374417015
0.039893917235194,0.565758400240713
0.0414707458828706,0.564756972758359
0.0430520894980538,0.563740156013917
0.0446379402640771,0.562708014051352
0.0462282903642741,0.56166061091463
0.0478231319819785,0.560598010647713
0.0494224573005237,0.559520277294567
0.0510262585032433,0.558427474899157
0.0526345277734708,0.557319667505446
0.05424725729454,0.556196919157399
0.0558644392497842,0.555059293898981
0.0574860658225372,0.553906855774156
0.0591121291961323,0.552739668826889
0.0607426215539033,0.551557797101144
0.0623775350791837,0.550361304640886
0.0640168619553071,0.549150255490079
0.0656605943656069,0.547924713692687
0.0673087244934168,0.546684743292676
0.0689612445220704,0.545430408334009
0.0706181466349012,0.544161772860652
0.0722794230152428,0.542878900916568
0.0739450658464287,0.541581856545723
0.0756150673117926,0.54027070379208
0.0772894195946679,0.538945506699604
0.0789681148783883,0.53760632931226
0.0806511453462873,0.536253235674012
0.0823385031816984,0.534886289828825
0.0840301805679554,0.533505555820663
0.0857261696883916,0.532111097693491
0.0874264627263407,0.530702979491273
0.0891310518651363,0.529281265257973
0.0908399292881119,0.527846019037557
0.0925530871786011,0.526397304873989
0.0942705177199374,0.524935186811232
0.0959922130954544,0.523459728893252
0.0977181654884857,0.521970995164014
0.0994483670823649,0.520469049667481
0.101182810060426,0.518953956447618
0.102921486606001,0.51742577954839
0.104664388902425,0.515884583013761
0.106411509133031,0.514330430887696
0.108162839481153,0.512763387214159
0.109918372130124,0.511183516037114
0.111678099263278,0.509590881400527
0.113442013063949,0.507985547348361
0.115210105715469,0.506367577924582
0.116982369401173,0.504737037173153
0.118758796304394,0.503093989138039
0.120539378608465,0.501438497863205
0.122324108496721,0.499770627392616
0.124112978152495,0.498090441770234
0.12590597975912,0.496398005040026
0.127703105499929,0.494693381245956
0.129504347558258,0.492976634431988
0.131309698117438,0.491247828642086
0.133119149360804,0.489507027920216
0.134932693471689,0.487754296310341
0.136750322633427,0.485989697856426
0.138572029029351,0.484213296602436
0.140397804842795,0.482425156592335
0.142227642257093,0.480625341870088
0.144061533455577,0.478813916479659
0.145899470621582,0.476990944465013
0.147741445938442,0.475156489870113
0.149587451589489,0.473310616738926
0.151437479758057,0.471453389115414
0.15329152262748,0.469584871043543
0.155149572381091,0.467705126567278
0.157011621202225,0.465814219730582
0.158877661274214,0.46391221457742
0.160747684780392,0.461999175151756
0.162621683904093,0.460075165497556
0.16449965082865,0.458140249658784
0.166381577737397,0.456194491679403
0.168267456813667,0.45423795560338
0.170157280240794,0.452270705474677
0.172051040202112,0.45029280533726
0.173948728880954,0.448304319235093
0.175850338460653,0.446305311212141
0.177755861124544,0.444295845312368
0.179665289055959,0.442275985579738
0.181578614438233,0.440245796058217
0.183495829454699,0.438205340791768
0.18541692628869,0.436154683824356
0.18734189712354,0.434093889199946
0.189270734142583,0.432023020962503
0.191203429529152,0.429942143155989
0.193139975466581,0.427851319824371
0.195080364138203,0.425750615011612
0.197024587727352,0.423640092761678
0.198972638417361,0.421519817118532
0.200924508391565,0.41938985212614
0.202880189833296,0.417250261828465
0.204839674925888,0.415101110269472
0.206802955852675,0.412942461493125
0.20877002479699,0.41077437954339
0.210740873942167,0.40859692846423
0.212715495471539,0.406410172299611
0.214693881568441,0.404214175093496
0.216676024416205,0.40200900088985
0.218661916198165,0.399794713732638
0.220651549097654,0.397571377665824
0.222644915298007,0.395339056733373
0.224642006982557,0.393097814979248
0.226642816334637,0.390847716447416
0.228647335537581,0.388588825181839
0.230655556774723,0.386321205226483
0.232667472229395,0.384044920625312
0.234683074084933,0.381760035422291
0.236702354524668,0.379466613661383
0.238725305731936,0.377164719386555
0.240751919890068,0.374854416641769
0.2427821891824,0.372535769470991
0.244816105792264,0.370208841918185
0.246853661902994,0.367873698027316
0.248894849697924,0.365530401842348
0.250939661360386,0.363179017407245
0.252988089073716,0.360819608765973
0.255040125021246,0.358452239962495
0.25709576138631,0.356076975040776
0.259154990352241,0.353693878044781
0.261217804102373,0.351303013018474
0.26328419482004,0.348904444005819
0.265354154688575,0.346498235050782
0.267427675891312,0.344084450197326
0.269504750611584,0.341663153489416
0.271585371032725,0.339234408971017
0.273669529338068,0.336798280686093
0.275757217710947,0.334354832678609
0.277848428334696,0.331904128992528
0.279943153392647,0.329446233671816
0.282041385068136,0.326981210760438
0.284143115544495,0.324509124302356
0.286248337005057,0.322030038341537
0.288357041633157,0.319544016921945
0.290469221612128,0.317051124087543
0.292584869125304,0.314551423882298
0.294703976356017,0.312044980350172
0.296826535487602,0.30953185753513
0.298952538703392,0.307012119481138
0.301081978186722,0.30448583023216
0.303214846120923,0.301953053832159
0.30535113468933,0.299413854325101
0.307490836075277,0.29686829575495
0.309633942462097,0.294316442165671
0.311780446033124,0.291758357601228
0.31393033897169,0.289194106105585
0.316083613461131,0.286623751722707
0.318240261684778,0.284047358496559
0.320400275825967,0.281464990471105
0.32256364806803,0.27887671169031
0.324730370594301,0.276282586198138
0.326900435588113,0.273682678038553
0.329073835232801,0.27107705125552
0.331250561711698,0.268465769893004
0.333430607208136,0.265848897994969
0.335613963905451,0.263226499605379
0.337800623986975,0.2605986387682
0.339990579636042,0.257965379527395
0.342183823035985,0.255326785926929
0.344380346370139,0.252682922010767
0.346580141821836,0.250033851822872
0.348783201574411,0.247379639407211
0.350989517811196,0.244720348807746
0.353199082715526,0.242056044068443
0.355411888470733,0.239386789233266
0.357627927260153,0.236712648346179
0.359847191267117,0.234033685451147
0.36206967267496,0.231349964592136
0.364295363667015,0.228661549813108
0.366524256426616,0.225968505158028
0.368756343137096,0.223270894670862
0.370991615981789,0.220568782395573
0.373230067144028,0.217862232376126
0.375471688807148,0.215151308656486
0.377716473154481,0.212436075280617
0.379964412369362,0.209716596292484
0.382215498635123,0.20699293573605
0.384469724135098,0.204265157655281
0.386727081052621,0.201533326094141
0.388987561571026,0.198797505096594
0.391251157873646,0.196057758706606
0.393517862143814,0.19331415096814
0.395787666564865,0.190566745925161
0.398060563320131,0.187815607621634
0.400336544592946,0.185060800101523
0.402615602566645,0.182302387408792
0.404897729424559,0.179540433587406
0.407182917350024,0.17677500268133
0.409471158526372,0.174006158734528
0.411762445136937,0.171233965790964
0.414056769365053,0.168458487894603
0.416354123394054,0.16567978908941
0.418654499407272,0.162897933419349
0.420957889588041,0.160112984928385
0.423264286119695,0.157325007660481
0.425573681185568,0.154534065659603
0.427886066968993,0.151740222969715
0.430201435653304,0.148943543634781
0.432519779421834,0.146144091698767
0.434841090457916,0.143341931205636
0.437165360944885,0.140537126199353
0.439492583066074,0.137729740723883
0.441822749004816,0.134919838823189
0.444155850944445,0.132107484541237
0.446491881068295,0.129292741921991
0.448830831559699,0.126475675009416
0.451172694601991,0.123656347847476
0.453517462378504,0.120834824480135
0.455865127072572,0.118011168951358
0.458215680867529,0.11518544530511
0.460569115946707,0.112357717585354
0.462925424493441,0.109528049836057
0.465284598691064,0.106696506101181
0.46764663072291,0.103863150424691
0.470011512772312,0.101028046850553
0.472379237022604,0.0981912594227303
0.474749795657119,0.0953528521851874
0.477123180859192,0.0925128891818891
0.479499384812155,0.0896714344567997
0.481878399699341,0.086828552053884
0.484260217704086,0.0839843060171061
0.486644831009722,0.0811387603904309
0.489032231799583,0.0782919792178225
0.491422412257002,0.0754440265432457
0.493815364565313,0.0725949664106648
0.496211080907849,0.0697448628640445
0.498609553467945,0.0668937799473491
0.501010774428933,0.0640417817045433
0.503414735974147,0.0611889321795914
0.505821430286921,0.0583352954164581
0.508230849550589,0.0554809354591076
0.510642985948483,0.0526259163515048
0.513057831663938,0.0497703021376138
0.515475378880287,0.0469141568613995
0.517895619780864,0.044057544566826
0.520318546549001,0.0412005292978581
0.522744151368034,0.03834317509846
0.525172426421295,0.0354855460125966
0.527603363892117,0.032627706084232
0.530036955963835,0.029769719357331
0.532473194819782,0.0269116498758579
0.534912072643292,0.0240535616837774
0.537353581617698,0.0211955188250538
0.539797713926333,0.0183375853436517
0.542244461752532,0.0154798252835355
0.544693817279627,0.0126223026886699
0.547145772690953,0.00976508160301914
0.549600320169843,0.00690822607054799
0.552057451899631,0.00405180013522068
0.554517160063649,0.00119586784100196
0.556979436845233,-0.00165950676814391
0.559444274427714,-0.00451425964825218
0.561911664994427,-0.00736832675535863
0.564381600728706,-0.0102216440454984
0.566854073813884,-0.0130741474747074
0.569329076433294,-0.0159257729990208
0.57180660077027,-0.0187764565744744
0.574286639008146,-0.0216261341571034
0.576769183330255,-0.0244747417029436
0.57925422591993,-0.0273222151680301
0.581741758960506,-0.0301684905083988
0.584231774635316,-0.0330135036800849
0.586724265127694,-0.0358571906391242
0.589219222620972,-0.038699487341552
0.591716639298486,-0.0415403297434039
0.594216507343567,-0.0443796538007151
0.59671881893955,-0.0472173954695216
0.599223566269768,-0.0500534907058585
0.601730741517555,-0.0528878754657616
0.604240336866245,-0.055720485705266
0.60675234449917,-0.0585512573804077
0.609266756599665,-0.0613801264472218
0.611783565351064,-0.064207028861744
0.614302762936699,-0.0670319005800097
0.616824341539904,-0.0698546775580546
0.619348293344013,-0.0726752957519139
0.62187461053236,-0.0754936911176233
0.624403285288277,-0.0783097996112182
0.626934309795099,-0.0811235571887343
0.629467676236159,-0.0839348998062068
0.632003376794791,-0.0867437634196715
0.634541403654328,-0.0895500839851636
0.637081748998104,-0.0923537974587189
0.639624405009452,-0.0951548397963726
0.642169363871706,-0.0979531469541605
0.6447166177682,-0.100748654888118
0.647266158882267,-0.10354129955428
0.64981797939724,-0.106331016908683
0.652372071496453,-0.109117742907363
0.654928427363241,-0.111901413506353
0.657487039180935,-0.114681964661691
0.660047899132871,-0.117459332329411
0.662610999402381,-0.12023345246555
0.665176332172799,-0.123004261026142
0.667743889627458,-0.125771693967223
0.670313663949693,-0.128535687244828
0.672885647322837,-0.131296176814994
0.675459831930223,-0.134053098633755
0.678036209955184,-0.136806388657147
0.680614773581055,-0.139555982841206
0.683195514991169,-0.142301817141967
0.68577842636886,-0.145043827515466
0.688363499897461,-0.147781949917737
0.690950727760306,-0.150516120304818
0.693540102140727,-0.153246274632742
0.69613161522206,-0.155972348857546
0.698725259187637,-0.158694278935265
0.701321026220792,-0.161412000821934
0.703918908504858,-0.16412545047359
0.70651889822317,-0.166834563846267
0.70912098755906,-0.169539276896001
0.711725168695863,-0.172239525578828
0.714331433816911,-0.174935245850783
0.716939775105539,-0.177626373667901
0.719550184745079,-0.180312844986219
0.722162654918866,-0.182994595761771
0.724777177810234,-0.185671561950593
0.727393745602514,-0.188343679508721
0.730012350479042,-0.19101088439219
0.732632984623151,-0.193673112557036
0.735255640218174,-0.196330299959294
0.737880309447445,-0.198982382554999
0.740506984494298,-0.201629296300187
