0.329635202322164,-0.280680138735235
0.326779058550472,-0.273231557249002
0.323932341853953,-0.265827699329771
0.321095009257099,-0.258468525185774
0.318267017784402,-0.251153995025246
0.315448324460354,-0.243884069056419
0.312638886309445,-0.236658707487528
0.309838660356169,-0.229477870526806
0.307047603625016,-0.222341518382486
0.304265673140478,-0.215249611262803
0.301492825927047,-0.208202109375988
0.403416349906651,-0.0849307365956355
0.20021051635801,-0.288234045235303
0.386093640528754,-0.0683261491844957
0.290491410274226,-0.180455358322098
0.287763334783705,-0.173629285723134
0.28504408471124,-0.166847379606442
0.282333617081325,-0.160109600180253
0.27963188891845,-0.153415907652802
0.371123889817455,-0.0286677460593591
0.274254479091788,-0.140160624127048
0.271578711476985,-0.133598953545212
0.268911511427189,-0.127081210695048
0.266252835966891,-0.120607355784789
0.263602642120584,-0.114177349022669
0.26096088691276,-0.107791150616922
0.258327527367909,-0.10144872077578
0.255702520510524,-0.0951500197074782
0.162490353356722,-0.18421028129255
0.250477392956118,-0.0826836447223274
0.247877186308081,-0.0765158912219453
0.365013887937383,0.0214332996789066
0.242701272392794,-0.0643110532467358
0.240125479174529,-0.0582738891883755
0.338763955576198,0.048857683288609
0.234998005339212,-0.046329871971311
0.232446238771144,-0.040422939229074
0.229902395135459,-0.0345593373420119
0.227366431456648,-0.0287390265183582
0.224838304759203,-0.0229619669663464
0.219805390406377,-0.0115374425101827
0.21730051679998,-0.00588989802249772
0.214803308272916,-0.000285445639388912
0.212313721849676,0.00527595443091033
0.209831714554752,0.0107943419801665
0.207357243412636,0.016269756800146
0.20489026544782,0.0217022386826154
0.199978617148052,0.0324385628020894
0.197533860862085,0.037742484622627
0.195096425851383,0.0430036326727204
0.19266626914044,0.048222046744136
0.190243347753746,0.0533977666286402
0.187827618715793,0.0585308321179995
0.185419039051074,0.0636212830039804
0.28473077144381,0.177514818066275
0.282319114177743,0.189644209964759
0.17823576654123,0.0786373459593174
0.17585535461436,0.0835577363494493
0.287393206445438,0.182048307036214
0.0593468907231924,-0.00474762964344985
0.168755553905864,0.0980645728196347
0.16640262210871,0.102815539382181
0.0487768705598442,0.0104447073295578
0.161717003319868,0.1121907428666
0.159384230377164,0.116815059372006
0.157058091101593,0.12139723877523
0.154738542517647,0.12593732086804
0.152425541649817,0.130435345442203
0.150119045522596,0.134891352289484
0.147819011160476,0.13930538120165
0.2444492174784,0.236281212221069
0.0427289613651981,0.0513276106967597
0.140957248909631,0.152295998245124
0.138682631852827,0.156542513334495
0.136414261683583,0.160747249447584
0.134152095426388,0.164910246376157
0.131896090105735,0.16903154391198
0.129646202746116,0.173111181846819
0.127402390372023,0.177149199972443
0.125164610007946,0.181145638080616
0.122932818678378,0.185100535963105
0.120706973407811,0.189013933411677
0.118487031220735,0.192885870218098
0.223506363379064,0.291726847221516
0.114064684195028,0.200505521071554
0.111862193405379,0.204253314702122
0.109665433797189,0.207959806857604
0.10747436239495,0.211625037329769
0.219123637158723,0.319471483162678
0.100934847668852,0.222373556564015
0.0966028243302202,0.229333657152639
0.0944449796780097,0.232752153151989
0.0922925224031917,0.236129666010385
0.0901454095302577,0.239466235519595
0.0880035980836995,0.242761901471384
0.0858670450880089,0.246016703657519
0.0837357075676774,0.249230681869768
0.0816095425471968,0.252403875899895
0.0794885070510588,0.255536325539668
0.077372558103755,0.258628070580853
0.0752616527297771,0.261679150815217
0.165281495352272,0.358615462753634
0.0710548007997661,0.267659476030547
0.0647812753169865,0.276325972596542
0.0626997288972899,0.279133899617073
0.0606229252223611,0.281901440373148
0.159770711278472,0.397118512989258
0.0544205409110984,0.289962142972301
0.0523622784601577,0.292568536588216
0.0503085438764433,0.295134742898508
0.04621448640866,0.300146752769285
0.0441740775735745,0.302592635913304
0.0401062848234743,0.307364357577435
0.0360555721300796,0.311976285021466
0.0340365133658762,0.31422242539036
-0.080943001770707,0.20958245115631
0.0300107761249154,0.318595258380739
0.144776578235277,0.419511805268213
0.11855755991893,0.426030557807946
0.0220076194785458,0.326864247541315
0.0200166458422283,0.328832419279227
0.0180295124650041,0.330761040379777
0.016046176371365,0.332650150634735
0.0120907241328085,0.336309997774933
0.0101185220368745,0.338080814243708
0.00814994532249236,0.339812279033955
0.00618495101415367,0.34150443193744
0.00422349613635017,0.34315731274593
0.00226553771357355,0.344770961251192
0.000311032770315495,0.346345417244991
-0.00164006166893234,0.347880720519095
-0.00358778857967824,0.34937691086527
-0.00553219093743047,0.350834028075283
0.0857536691376461,0.450115187938558
-0.00941119389598725,0.353631202253885
-0.115891061392909,0.258188350673243
-0.0171311960995428,0.358758423814864
-0.0190535299005722,0.359943143241199
-0.0228892982313578,0.362196357479543
-0.0248028187121306,0.363264931875085
-0.0324288121662824,0.367153273107602
-0.034328503290127,0.368029068287151
-0.036225557469111,0.368866426998801
-0.0381200176787425,0.369665389034319
-0.0419013280919816,0.371148282244021
-0.0437882642466057,0.37183229300174
-0.0494347122085965,0.37365505938756
-0.173127141953666,0.275345932801611
-0.055060521903439,0.375134762569473
-0.0569314060725034,0.37555194639082
-0.0606668536698575,0.376272476925175
-0.064394160116234,0.376841489926857
-0.0662548678465765,0.377069276832361
-0.0681136692156994,0.377259303729995
-0.0699706071991112,0.377411610411527
-0.0718257247723202,0.377526236668723
-0.0736790649108345,0.37760322229335
-0.0773805847858129,0.377644430811959
-0.0792288504732935,0.377608733289474
-0.0829206082257789,0.377424933639761
-0.0847641862418004,0.377276911096065
-0.0884469554309426,0.376868819529825
-0.0902862325550799,0.376608830090815
-0.0921241619996057,0.376311597936899
-0.0939607867400283,0.375977162859846
-0.0957961497518561,0.37560556465142
-0.0994632624917602,0.374751038007517
-0.103125844023385,0.373748336339324
-0.104955543024863,0.373191519350534
-0.106784238150796,0.372597777980972
-0.117737734148414,0.368262146106278
-0.214499052910893,0.254251083599405
-0.121382816699637,0.366523344328608
-0.128665920454506,0.362607264048897
-0.13048547596961,0.361537126780031
-0.132304629266285,0.360430622215121
-0.0271063041377317,0.461244902034263
-0.139578079778865,0.355641726830386
-0.143213509087799,0.35303010994769
-0.146848532837251,0.350274138050284
-0.148666000065942,0.348842118450482
-0.150483494831287,0.347374129472301
-0.152301060108795,0.345870210907508
-0.0616819721594441,0.460035604652904
-0.155936574102332,0.342754744185155
-0.157754608769378,0.341143275611127
-0.159572885850619,0.339496036617553
-0.272630228183812,0.236856439236012
-0.163210339157724,0.336094406538834
-0.277583229369185,0.225538971850818
-0.170490045664649,0.328863652184573
-0.0765925254148159,0.440863800004575
-0.177778444055639,0.321065027795426
-0.179602224076584,0.319026940443437
-0.181426762217825,0.3169535601731
-0.185078284763227,0.312701080044447
-0.186905355118404,0.310522059769665
-0.194223366517485,0.301455039075378
-0.197888811861165,0.29671152205587
-0.201559008706359,0.29182842503363
-0.205234300857135,0.286806066342788
-0.208915032117558,0.281644764317476
-0.212601546291696,0.276344837291826
-0.214447079410178,0.27364298888329
-0.216294187183614,0.270906603599969
-0.321400601624502,0.169155246871567
-0.225554850017886,0.256708016773415
-0.227412308206717,0.253765245868479
-0.231132894010422,0.247776968853115
-0.232996107576313,0.244731542326219
-0.234861325552241,0.241651976842203
-0.236728590913713,0.238538312192833
-0.242343101066482,0.228993121170263
-0.246097132647037,0.222459894177499
-0.257415928331243,0.202048836581611
-0.259311114408902,0.198529085705778
-0.261208906553713,0.194975752957555
-0.3857728384298,0.066064049140541
-0.278413399837764,0.161491139607473
-0.284201328614395,0.149730858135467
-0.286136910403449,0.145744582096925
-0.29196307401826,0.133587764422408
-0.295863794722924,0.125318625924654
-0.299778205834831,0.116918184111592
-0.301740652732271,0.112668823941236
-0.303706651158047,0.108386757317354
-0.313591420354752,0.0864872201068527
-0.405758533712638,-0.0368375520970389
-0.317571692874574,0.0774998527597862
-0.321567546724004,0.0683829329351365
-0.443216609064383,-0.0684463388923429
-0.33365203429061,0.0402580419370066
-0.339750926246876,0.0257621171480302
-0.341792569057607,0.0208661883427535
-0.34383862290684,0.0159383489192787
-0.447725160560943,-0.130333337975945
-0.362458695241388,-0.0298416180694434
-0.366648634784897,-0.0403626050948111
-0.499196968326032,-0.193164892236961
-0.385752200259668,-0.0892583900514635
-0.392214151734799,-0.106117767380448
-0.39872508526624,-0.123255745251659
-0.420796854509499,-0.182380658703838
-0.427533451976878,-0.200713490560223
-0.432055095623454,-0.213087039521786
-0.434325219973764,-0.219319192944461
-0.529483655280609,-0.320169963307155
-0.448078908910953,-0.257344911785722
-0.452715148191865,-0.270260262418114
-0.455043150528705,-0.276762779487355
-0.462067204030861,-0.296449220206064
-0.476299388043284,-0.336623523183929
-0.571433943031355,-0.468157347138815
-0.498125261663055,-0.398872415836427
-0.505532553584847,-0.420147732726001
-0.510508417826569,-0.434476372734891
