0.0248243865983548,-0.191962791946922
0.0318375995090308,-0.195441467654339
0.0387560626881005,-0.198888789046487
0.045580279320108,-0.20230485001872
0.0523107525895974,-0.20568974446639
0.0589479856811129,-0.209043566284849
0.0654924817791984,-0.21236640936945
0.0719447440683982,-0.215658367615547
0.0783052757332562,-0.218919534918491
0.0845745799583165,-0.222150005173636
0.0907531599281233,-0.225349872276334
0.0968415188272206,-0.228519230121938
0.102840159840153,-0.231658172605801
0.108749586151463,-0.234766793623275
0.114570300945696,-0.237845187069714
0.120302807407397,-0.240893446840469
0.125947608721108,-0.243911666830895
0.131505208071374,-0.246899940936342
0.136976108642739,-0.249858363052165
0.142360813619748,-0.252787027073716
0.147659826186944,-0.255686026896348
0.152873649528871,-0.258555456415413
0.158002786830074,-0.261395409526264
0.163047741275096,-0.264205980124254
0.168009016048482,-0.266987262104736
0.172887114334775,-0.269739349363062
0.17768253931852,-0.272462335794586
0.182395794184262,-0.275156315294659
0.187027382116543,-0.277821381758635
0.191577806299908,-0.280457629081866
0.196047569918901,-0.283065151159705
0.200437176158067,-0.285644041887505
0.204747128201949,-0.288194395160619
0.208977929235091,-0.290716304874399
0.213130082442038,-0.293209864924198
0.217204091007333,-0.295675169205369
0.221200458115521,-0.298112311613264
0.225119686951146,-0.300521386043237
0.228962280698752,-0.302902486390639
0.236419575668081,-0.307581140419146
0.240035283258894,-0.309878881890955
0.243576368499864,-0.312149024861605
0.250436684670451,-0.316606890880839
0.253756921969157,-0.318794801720129
0.257004549656196,-0.320955489639671
0.260180070916112,-0.323089048534817
0.263283988933451,-0.325195572300921
0.266316806892755,-0.327275154833334
0.269279027978569,-0.329327890027411
0.274993692267903,-0.333353193981964
0.277747141840511,-0.335325950533146
0.280432007277805,-0.337272235327402
0.28304879176433,-0.339192142260085
0.285597998484629,-0.341085765226546
0.288080130623246,-0.34295319812214
0.290495691364726,-0.344794534842219
0.292845183893613,-0.346609869282135
0.29512911139445,-0.348399295337242
0.297347977051782,-0.350162906902892
0.301592535574106,-0.353613062147231
0.303619234808187,-0.355299793616627
0.305582884936939,-0.356961086177976
0.307483989144906,-0.358597033726632
0.309323050616633,-0.360207730157948
0.311100572536662,-0.361793269367276
0.31281705808954,-0.363353745249969
0.314473010459808,-0.364889251701379
0.316068932832013,-0.36639988261686
0.317605328390697,-0.367885731891765
0.319082700320405,-0.369346893421445
0.320501551805681,-0.370783461101254
0.321862386031069,-0.372195528826544
0.323165706181112,-0.373583190492669
0.324412015440357,-0.37494653999498
0.325601816993345,-0.376285671228831
0.326735614024621,-0.377600678089575
0.32781390971873,-0.378891654472564
0.328837207260216,-0.38015869427315
0.329806009833622,-0.381401891386687
0.330720820623492,-0.382621339708528
0.331582142814372,-0.383817133134024
0.332390479590804,-0.38498936555853
0.333146334137333,-0.386138130877397
0.333850209638503,-0.387263522985978
0.334502609278859,-0.388365635779627
0.335104036242943,-0.389444563153695
0.335654993715301,-0.390500399003536
0.336155984880476,-0.391533237224502
0.336607512923012,-0.392543171711946
0.337364192378346,-0.394494705067679
0.337670350160231,-0.395436491726674
0.337929057557654,-0.396355750233558
0.338140817755159,-0.397252574483683
0.338306133937289,-0.398127058372403
0.33842550928859,-0.39897929579507
0.338499446993605,-0.399809380647037
0.338528450236878,-0.400617406823657
0.338513022202953,-0.401403468220282
0.338453666076375,-0.402167658732265
0.338350885041687,-0.40291007225496
0.338205182283434,-0.403630802683717
0.338017060986159,-0.404329943913892
0.337787024334407,-0.405007589840835
0.337515575512722,-0.405663834359901
0.337203217705648,-0.406298771366441
0.336850454097728,-0.406912494755808
0.336457787873508,-0.407505098423355
0.33602572221753,-0.408076676264436
0.335554760314341,-0.408627322174402
0.335045405348482,-0.409157130048606
0.334498160504498,-0.409666193782401
0.333913528966934,-0.41015460727114
0.333292013920334,-0.410622464410176
0.332634118549241,-0.411069859094861
0.3319403460382,-0.411496885220548
0.331211199571755,-0.411903636682589
0.33044718233445,-0.412290207376339
0.329648797510829,-0.412656691197148
0.328816548285435,-0.41300318204037
0.327950937842814,-0.413329773801359
0.32705246936751,-0.413636560375466
0.326121646044065,-0.413923635658043
0.325158971057025,-0.414191093544445
0.324164947590933,-0.414439027930024
0.323140078830334,-0.414667532710132
0.322084867959772,-0.414876701780122
0.32099981816379,-0.415066629035347
0.319885432626934,-0.41523740837116
0.318742214533746,-0.415389133682913
0.316371293416553,-0.415635797815652
0.315144596761636,-0.415730924427343
0.311305600626134,-0.415904609187934
0.309974643805863,-0.415925585401147
0.308618879905614,-0.415928258753122
0.30723881210993,-0.415912723139213
0.305834943603356,-0.41587907245477
0.304407777570436,-0.415827400595149
0.302957817195714,-0.415757801455701
0.301485565663733,-0.415670368931779
0.299991526159039,-0.415565196918735
0.296940095969686,-0.415302010006696
0.295383711654114,-0.415144182898405
0.292212120503903,-0.414776530854046
0.290597920038352,-0.414566893708683
0.288965453891895,-0.414340174341668
0.285647737294441,-0.413835864524092
0.283963493212533,-0.413558461864238
0.282262996187896,-0.413264352564142
0.280546749405073,-0.412953630519157
0.27881525604861,-0.412626389624638
0.275308542352939,-0.411922726868402
0.273534328382818,-0.411546492797392
0.271746880577233,-0.411154115458257
0.269946702120727,-0.410745688746351
0.268134296197845,-0.410321306557025
0.266310165993131,-0.409881062785632
0.264474814691129,-0.409425051327527
0.262628745476383,-0.40895336607806
0.260772461533437,-0.408466100932585
0.258906466046835,-0.407963349786454
0.257031262201121,-0.407445206535021
0.253255242170535,-0.406363119297658
0.25135543235475,-0.405799363102433
0.247534729044919,-0.404626895035661
0.245614841919961,-0.404018370954819
0.243689268727699,-0.403395112036144
0.241758512652679,-0.402757212174987
0.239823076879443,-0.402104765266703
0.237883464592536,-0.401437865206644
0.235940178976503,-0.400756605890162
0.233993723215887,-0.40006108121261
0.232044600495232,-0.399351385069341
0.230093313999083,-0.398627611355708
0.228140366911983,-0.397889853967063
0.226186262418476,-0.39713820679876
0.224231503703108,-0.39637276374615
0.222276593950421,-0.395593618704587
0.216415990313892,-0.393174910599705
0.214465508257373,-0.392341896555855
0.212517391086257,-0.391495649999816
0.208630264138407,-0.389763834932581
0.206692260730761,-0.388878454212089
0.204758634946694,-0.387980216560819
0.20282988997075,-0.387069215874123
0.198989055181405,-0.385209300975864
0.197077971737093,-0.384260574555007
0.191388095420127,-0.381340446149755
0.185773847002543,-0.378311365832893
0.183921585257749,-0.377277899036338
0.182079739351063,-0.376232702053238
0.180248812467029,-0.375175868778944
0.176621728505092,-0.373027668938188
0.174826577796277,-0.371936490162431
0.17304435884829,-0.370834050676893
0.171275574845676,-0.369720444376925
0.169520728972977,-0.36859576515788
0.166054864355505,-0.366313563543972
0.164344851979819,-0.365156228939814
0.162650790472226,-0.363988196997991
0.16097318301727,-0.362809561613854
0.159312532799494,-0.361620416682757
0.157669343003443,-0.360420856100053
0.156044116813661,-0.359210973761094
0.154437357414692,-0.357990863561233
0.151281251727368,-0.355520335160216
0.148205051417826,-0.353010022059825
0.146698173741082,-0.351740180985745
0.142308468837493,-0.347873046412205
0.139496137519409,-0.34524788619062
0.136779813484516,-0.342585945920948
0.134163522209167,-0.33988797676601
0.131651289169715,-0.33715472988863
0.128086854532366,-0.33299035701165
0.126955099703913,-0.331585407617826
0.124779194230267,-0.328750834550047
0.122723448897929,-0.325883988411112
0.120791889183252,-0.322985620363843
0.118988540562587,-0.320056481571062
0.11813620337387,-0.318580607883487
0.117317428512288,-0.317097323195592
0.115067509735796,-0.312603942083516
0.114388016028197,-0.31109195234787
0.113744600570454,-0.309573021088667
0.112035855541801,-0.30497551712325
0.111541784928923,-0.303429758723351
0.11108630848862,-0.30187752827666
0.110669929405438,-0.300318919678528
0.110293150863921,-0.29875402682431
0.109956476048612,-0.297182943609358
0.109660408144056,-0.295605763929025
0.109405450334797,-0.294022581678663
0.109192105805378,-0.292433490753625
0.109020877740345,-0.290838585049264
0.10889226932424,-0.289237958460932
0.108806783741609,-0.287631704883983
0.108764924176995,-0.286019918213769
0.108767193814942,-0.284402692345643
0.109043809789591,-0.279519318507318
0.109227628083224,-0.277881274801071
0.109458091502139,-0.276238261373675
0.109735703230879,-0.274590372120483
0.11006096645399,-0.272937700936849
0.110434384356014,-0.271280341718124
0.110856460121496,-0.269618388359661
0.111327696934981,-0.267951934756814
0.111848597981011,-0.266281074804935
0.112419666444132,-0.264605902399376
0.114438908181478,-0.259555449414152
0.115215678158401,-0.257863966147404
0.118854623309641,-0.251060542264783
0.119899841831058,-0.249350783066984
0.122156379846031,-0.245921238066284
0.123368705708674,-0.244201640054088
0.12463774038748,-0.242478950227798
0.12734794893176,-0.239024670714349
0.128790129166321,-0.237293268817894
0.131851157483007,-0.233822410222291
0.135151097493404,-0.230341437858778
0.138693974673866,-0.226851102890178
0.140557772664232,-0.225102659167353
0.142483814500745,-0.223352156479314
0.146524642450394,-0.219845349789006
0.153065292834581,-0.214572044898262
0.155375364623411,-0.21281116022135
0.162702189555817,-0.207520471585557
0.165278345003739,-0.205754543489784
0.167922279327794,-0.203987589277677
0.17341549734248,-0.200450978085875
0.176265787402199,-0.198681508896885
0.185237420005391,-0.193369573701791
0.191574175606322,-0.189826282835153
0.198200161355373,-0.18628226773588
0.201622873496803,-0.184510223337387
0.205119402728896,-0.182738279566794
0.208690252236196,-0.180966530319453
0.212335925203245,-0.179195069490718
0.223726916708338,-0.173883356469668
0.227676915359831,-0.17211398826888
0.235809433994773,-0.168577619448762
0.239992960347311,-0.166810806620138
0.244255335635951,-0.165045033372941
0.248597063045239,-0.163280393602524
0.253018645759718,-0.161516981204239
0.257520586963933,-0.159754890073439
0.262103389842427,-0.157994214105478
0.266767557579745,-0.156235047195707
0.27151359336043,-0.154477483239479
0.276342000369027,-0.152721616132147
0.28125328179008,-0.150967539769065
0.29132648060773,-0.147465134857057
0.296489404373415,-0.145716994098837
0.312489511312439,-0.140485945359548
0.317995002787917,-0.138747033276085
0.33503488928538,-0.133545924049529
0.346836022188318,-0.130092479371882
0.352870460764808,-0.128370227161134
0.365209598090553,-0.124935132472553
0.371515303208895,-0.123222477785425
0.377912436876942,-0.121513210063543
0.384401502279239,-0.119807423202258
0.390983002600328,-0.118105211096925
0.397657441024756,-0.116406667642895
0.404425320737065,-0.114711886735522
0.4112871449218,-0.113020962270158
0.418243416763505,-0.111333988142156
0.432441316156,-0.107972266479648
0.439683950075878,-0.106297706735848
0.447023044390903,-0.104627472910821
0.461992626944567,-0.101300358598497
0.469624121552295,-0.0996436659019049
0.493111456913589,-0.094702172394643
0.501139863161871,-0.0930648490709028
0.542799246166645,-0.0849562665831788
0.551438115412081,-0.0833508141792986
0.560180489636281,-0.0817510022291296
0.604966443485125,-0.0738232684132765
0.613720681207411,-0.0722384068006346
0.630808698614009,-0.0690619922109072
0.655401087556021,-0.0642804985743033
0.663324382739134,-0.0626821300039912
0.671111872682028,-0.0610814768278565
0.67876432457984,-0.0594785294898393
0.693667183020762,-0.0562657141039158
0.700919123954145,-0.0546558269438893
0.715027865222437,-0.0514290459094053
0.73521463355573,-0.0465712142306994
0.741686266828936,-0.0449471894130285
0.748030534008421,-0.0433207748728728
0.754248202289324,-0.0416919610541722
0.760340038866779,-0.0400607384008663
0.777868230329829,-0.0351525218727152
0.788938598032126,-0.0318681581531512
0.794291555486764,-0.0302222818149496
0.799524051603907,-0.0285739297497212
0.809630728606263,-0.0252697602139436
0.814506443881746,-0.0236139236312738
0.819264766600282,-0.0219555730973366
0.828432303147056,-0.0186312919514185
0.841322343668517,-0.0136257766965295
0.845392422143229,-0.0119521417777225
0.849350478426947,-0.0102759260152264
0.853197279714808,-0.0085971198529811
0.856933593201947,-0.00691571373492633
0.860560186083502,-0.00523169810500188
0.867487278810403,-0.00185580008530312
0.870789313046021,-0.000163898583408362
0.8739846954566,0.00153065065459689
0.877074193237275,0.00322785718477288
0.885715050751243,0.00833551608892738
0.888388681963667,0.0100434473483884
0.893430565620986,0.0134674346407862
0.914138719220592,0.0324961937222326
0.915453484031311,0.0342428655977781
0.918852999710128,0.039499952592544
0.92067303315292,0.0430189989564312
0.922748961705204,0.0483192421745313
0.92432806162842,0.0554270920080962
0.924515664669687,0.0572114144014302
0.924621933325412,0.0589986998808617
0.92464763479073,0.0607889580024509
0.924460404930695,0.0643784303963434
0.923960112650671,0.0679799080315894
0.918951070552492,0.0825073999557422
0.917999213299935,0.0843371720268613
0.916977529588879,0.0861700505249811
0.915886786614462,0.0880060450061619
0.914727751571819,0.0898451650264637
0.9108485659859,0.0953813738826982
0.906382370810859,0.10094605660919
0.904766772754453,0.102807322973026
0.903089020190913,0.104671791324465
0.901349880315374,0.106539471219566
0.899550120322972,0.108410372214391
0.891760223087464,0.115926378312127
0.885318881495453,0.121597672679474
0.883061779593057,0.123494686490252
0.878387196901491,0.127298644980665
0.875971250502595,0.129205608772419
0.873503890328472,0.13111590833662
0.86841799743509,0.134946553006599
0.837098628306205,0.156257705971189
0.83399203076821,0.158215709735953
0.830845527382033,0.160177192614066
0.82765988534281,0.162142164161588
0.814541274558173,0.170037128166972
0.811171447180761,0.172019686402443
0.807767084321119,0.174005790643685
0.800857820935693,0.17798867536772
0.797354454800183,0.179985474962635
0.793819621962988,0.18198585878756
0.775700309081526,0.192041875824465
0.771992787132091,0.194063965706723
0.764500221421166,0.198119108394598
0.74922648421492,0.206273513033467
0.74145758784178,0.210372927881426
0.73360885637008,0.214487253013042
0.729656470460112,0.216550030825372
0.725686427360913,0.218616564876798
0.713678026879295,0.224838800026247
0.685183633891219,0.239490600874532
0.681069996589477,0.241599084255979
0.676947908440141,0.243711438549242
0.672818136638344,0.245827673310384
0.656237556809296,0.254331608154933
0.652080874672249,0.256467388596368
0.643759036148368,0.260750772448014
0.618780964628236,0.273696195789509
0.606322842306392,0.280222970865176
0.602179829268644,0.282406635657454
0.59804294209089,0.284594352926694
0.593912947968267,0.286786132228956
0.589790614095911,0.2889819831203
0.581571995882543,0.293385937894475
0.577477245931805,0.295594060889427
0.573393225011878,0.297806293697702
0.569320700317899,0.300022645875359
0.561213208388331,0.304467746563066
0.545169935826569,0.313407800837726
0.529396528735241,0.322414835301261
0.521626368643715,0.32694366122506
0.506349823174391,0.336052312699133
0.495147383593702,0.342928726993748
0.466511438016841,0.361456194142985
0.463072288874741,0.363791768423819
0.44639806034047,0.375535778376131
0.430663353320744,0.387390895214203
0.421713393582976,0.394557793537342
0.418816487586883,0.396955788351466
0.410395752079997,0.404176992697912
0.407681391721955,0.406593165968286
0.399826705812493,0.413869135028929
0.390055355269186,0.423634832118247
0.379037728227993,0.435946321574625
0.369439119661521,0.448374890454397
0.367698119311692,0.45087475887782
0.36601848287167,0.453379367814541
0.354882555520886,0.473588044514224
0.350116398730793,0.486375018709333
0.349376412517373,0.488946998218534
0.348115822796222,0.494105618355597
0.346144353328092,0.509699455752405
0.346087832671236,0.512315733967575
0.346111088607458,0.514936982041487
0.347017222185843,0.525471864045761
0.347450869014496,0.528118104754286
0.348572069158623,0.533425677312708
0.34926115686437,0.536087028274725
0.35003692591942,0.538753435100025
0.351851576857979,0.544101454564718
0.356554811512741,0.554858584320163
0.364510772388019,0.568420330188293
0.366386558855347,0.571148152745698
0.368359000208752,0.573881155395169
0.372596916354333,0.579362739194554
0.379697882096678,0.587624204485636
0.393568215406939,0.601498189286803
0.39665449538617,0.604288803648983
0.417422112873261,0.621144014344744
0.425220183809068,0.626805132787893
0.429286833862605,0.629643744051344
0.442166448707388,0.638191900681925
0.481631322321382,0.661225701058412
0.535321061091512,0.687558640440001
0.548641631563007,0.693471450270698
0.584225258503005,0.708351484624973
0.656749487301341,0.735491592498013
0.674390526345312,0.741585454971186
0.760888823337683,0.769293262856572
0.771233636733956,0.772400930283841
0.781728041480707,0.77551443717133
0.803168693806193,0.781759007551214
0.825216917875232,0.788027050444706
0.871160631488329,0.800633859566442
0.907258940635586,0.810151150341548
0.932117189869104,0.816525765596238
0.944786429011875,0.819722028313149
0.970608972325125,0.826132511706405
0.983763810885876,0.829346751494871
