-0.987530011200216,-0.784295079488546
-0.982965404029256,-0.784141893541709
-0.978401120629797,-0.783946401382455
-0.973837170485763,-0.783708865264951
-0.969273563081076,-0.783429547443363
-0.964710307899661,-0.783108710171859
-0.960147414425441,-0.782746615704603
-0.95558489214234,-0.782343526295763
-0.951022750534281,-0.781899704199505
-0.946460999085188,-0.781415411669995
-0.941899647278984,-0.780890910961401
-0.937338704599593,-0.780326464327888
-0.932778180530939,-0.779722334023623
-0.928218084556945,-0.779078782302773
-0.923658426161535,-0.778396071419503
-0.919099214828631,-0.777674463627981
-0.914540460042159,-0.776914221182373
-0.909982171286041,-0.776115606336845
-0.905424358044201,-0.775278881345564
-0.900867029800563,-0.774404308462696
-0.89631019603905,-0.773492149942408
-0.887198049898093,-0.771556125006238
-0.882642756486497,-0.770532783098688
-0.878087995492721,-0.769472904570384
-0.873533776400687,-0.768376751675492
-0.86898010869432,-0.767244586668178
-0.864427001857543,-0.766076671802609
-0.85987446537428,-0.764873269332953
-0.855322508728454,-0.763634641513374
-0.850771141403989,-0.762361050598039
-0.846220372884809,-0.761052758841115
-0.841670212654837,-0.759710028496769
-0.837120670197996,-0.758333121819167
-0.832571754998211,-0.756922301062475
-0.828023476539404,-0.75547782848086
-0.8234758443055,-0.753999966328488
-0.818928867780422,-0.752488976859526
-0.814382556448093,-0.75094512232814
-0.809836919792438,-0.749368664988497
-0.805291967297379,-0.747759867094763
-0.80074770844684,-0.746118990901105
-0.796204152724745,-0.744446298661689
-0.791661309615018,-0.742742052630681
-0.787119188601582,-0.741006515062248
-0.78257779916836,-0.739239948210557
-0.778037150799276,-0.737442614329774
-0.773497252978254,-0.735614775674065
-0.768958115189217,-0.733756694497598
-0.76441974691609,-0.731868633054538
-0.759882157642795,-0.729950853599051
-0.755345356853255,-0.728003618385305
-0.750809354031396,-0.726027189667466
-0.746274158661139,-0.7240218296997
-0.741739780226409,-0.721987800736174
-0.73720622821113,-0.719925365031053
-0.732673512099224,-0.717834784838506
-0.728141641374616,-0.715716322412698
-0.723610625521229,-0.713570240007795
-0.719080474022987,-0.711396799877965
-0.710022802027631,-0.706968895460186
-0.705495300498364,-0.704714955680571
-0.700968701259935,-0.702434707192693
-0.69644301379627,-0.700128412250721
-0.687394412128921,-0.695438732021154
-0.682871516893084,-0.693055871241893
-0.678349571367705,-0.690648013025203
-0.673828585036706,-0.68821541962525
-0.66930856738401,-0.6857583532962
-0.664789527893542,-0.683277076292219
-0.660271476049226,-0.680771850867475
-0.655754421334984,-0.678242939276133
-0.65123837323474,-0.675690603772361
-0.646723341232418,-0.673115106610324
-0.642209334811942,-0.670516710044189
-0.637696363457235,-0.667895676328123
-0.63318443665222,-0.665252267716292
-0.628673563880822,-0.662586746462862
-0.624163754626963,-0.659899374822001
-0.619655018374567,-0.657190415047874
-0.615147364607559,-0.654460129394647
-0.610640802809861,-0.651708780116488
-0.60163099305809,-0.646143939702039
-0.597127764071865,-0.643330973074081
-0.592625664990644,-0.640497991837856
-0.588124705298352,-0.637645258247532
-0.583624894478912,-0.634773034557273
-0.579126242016247,-0.631881583021247
-0.574628757394282,-0.62897116589362
-0.570132450096939,-0.626042045428559
-0.565637329608142,-0.62309448388023
-0.561143405411815,-0.6201287435028
-0.552159183832265,-0.6141437752773
-0.547668905416889,-0.611125071937565
-0.538692060754553,-0.605036538074952
-0.53420551347544,-0.601967232060409
-0.529720228876262,-0.59888158299593
-0.520753485653404,-0.592662304733828
-0.516272045997572,-0.58952920004454
-0.511791906957369,-0.586380801321981
-0.507313078016719,-0.583217370820317
-0.502835568659545,-0.580039170793717
-0.498359388369771,-0.576846463496346
-0.49388454663132,-0.57363951118237
-0.489411052928116,-0.570418576105957
-0.480468147563144,-0.563935806682482
-0.475998754869224,-0.560674496843754
-0.471530748146244,-0.557400253259253
-0.467064136878129,-0.554113338183147
-0.462598930548803,-0.550814013869602
-0.458135138642188,-0.547502542572785
-0.44921183603279,-0.540844208045997
-0.444752344297854,-0.537497869324361
-0.440294304921324,-0.534140432636118
-0.435837727387123,-0.530772160235434
-0.426928995781407,-0.524004157313411
-0.422476860677738,-0.520604951300406
-0.418026225352093,-0.517195958591626
-0.40912949197057,-0.510349662103409
-0.40468341288254,-0.506912882832304
-0.400238871508228,-0.503467365882091
-0.395795877331558,-0.500013373506936
-0.391354439836454,-0.496551167961006
-0.386914568506839,-0.493081011498467
-0.382476272826637,-0.489603166373484
-0.373604446350166,-0.482625459152858
-0.369170934521744,-0.479126121565547
-0.364739036278429,-0.475620144332459
-0.360308761104145,-0.472107789707761
-0.355880118482816,-0.468589319945619
-0.351453117898364,-0.4650649973002
-0.347027768834714,-0.461535084025669
-0.342604080775788,-0.457999842376195
-0.338182063205512,-0.454459534605942
-0.333761725607807,-0.450914422969079
-0.329343077466599,-0.44736476971977
-0.320510887489363,-0.440252887400483
-0.316097364621183,-0.436691182838838
-0.311685569145193,-0.433125985681414
-0.307275510545317,-0.429557558182377
-0.302867198305478,-0.425986162595894
-0.2984606419096,-0.422412061176132
-0.294055850841606,-0.418835516177256
-0.28965283458542,-0.415256789853433
-0.285251602624966,-0.41167614445883
-0.280852164444167,-0.408093842247614
-0.276454529526947,-0.40451014547395
-0.272058707357229,-0.400925316392005
-0.267664707418936,-0.397339617255946
-0.263272539195994,-0.393753310319939
-0.258882212172324,-0.39016665783815
-0.25449373583185,-0.386579922064747
-0.250107119658497,-0.382993365253895
-0.245722373136188,-0.379407249659761
-0.241339505748846,-0.375821837536511
-0.236958526980395,-0.372237391138312
-0.232579446314758,-0.368654172719331
-0.228202273235859,-0.365072444533733
-0.223827017227622,-0.361492468835686
-0.210712846466116,-0.350765679208511
-0.206345353579761,-0.34719533600233
-0.197616270761814,-0.340064103119282
-0.193254699798068,-0.336503737950748
-0.188895121776372,-0.332947223303096
-0.184537546180651,-0.329394821430493
-0.175828440202823,-0.322303405027098
-0.171476928788564,-0.318764915004639
-0.167127457735973,-0.315231586773895
-0.162780036528974,-0.311703682589032
-0.158434674651491,-0.308181464704216
-0.154091381587446,-0.304665195373613
-0.149750166820763,-0.301155136851391
-0.145411039835367,-0.297651551391716
-0.14107401011518,-0.294154701248754
-0.136739087144126,-0.290664848676672
-0.132406280406128,-0.287182255929636
-0.128075599385112,-0.283707185261813
-0.119420652429713,-0.27678065918047
-0.115096405463179,-0.273329728275283
-0.110774322149319,-0.269887368465975
-0.106454411972057,-0.266453842006713
-0.102136684415317,-0.263029411151661
-0.0935078150990964,-0.256208885270858
-0.0848877900720458,-0.249427888856899
-0.0762766852055537,-0.242688519943116
-0.071974501542326,-0.239335101434205
-0.0633769191755253,-0.232662107583182
-0.0504976502833147,-0.222741158536134
-0.0462091598304028,-0.219458835664981
-0.0419229847729429,-0.216189279956369
-0.0376391345948581,-0.212932753664466
-0.0333576187800725,-0.209689519043439
-0.0290784468125093,-0.206459838347452
-0.0248016281760924,-0.203243973830674
-0.020527172354745,-0.20004218774727
-0.016255088832391,-0.196854742351407
-0.0119853870929537,-0.193681899897251
-0.00771807662035712,-0.190523922638969
-0.00345316689852423,-0.187381072830728
0.00506941235715494,-0.181141804581031
0.00932706292315419,-0.17804591064791
0.0178350385118542,-0.171902914435951
0.0220853445667079,-0.168856336665447
0.0263331834833325,-0.165826722124149
0.0305785457778045,-0.162814333066222
0.0348214219662002,-0.159819431745835
0.0390618025645963,-0.156842280417152
0.0432996780890689,-0.153883141334341
0.0475350390556947,-0.150942276751567
0.0517678759805499,-0.148019948922999
0.0559981793797113,-0.145116420102801
0.0602259397692547,-0.14223195254514
0.0728938680409438,-0.133695539989047
0.0813262646353826,-0.128104712590724
0.0855385678048251,-0.125340119945783
0.089748261577185,-0.122596424342545
0.0939553364685385,-0.119873888035176
0.0981597829949624,-0.117172773277843
0.106560753017326,-0.111835857429949
0.110757257545419,-0.109200580847722
0.114951095772888,-0.106587774832195
0.123330735390258,-0.101430623517913
0.127516517812313,-0.0988868027274903
0.135879960463544,-0.093869982150913
0.140057601724872,-0.0913975068730914
0.148404676699339,-0.0865257376092152
0.152574091444629,-0.0841269681314934
0.173379558394711,-0.0725147624517064
0.177532264041989,-0.0702704854366788
0.185829211722416,-0.0658621935608849
0.189973434787719,-0.0636987032084516
0.198253331948884,-0.0594543449453446
0.202388987076899,-0.057374001543004
0.206521767257972,-0.0553218982990271
0.210651663008178,-0.0532982974675806
0.218902763280298,-0.0493376520589442
0.227142212021868,-0.0454941633504267
0.231257543358889,-0.0436170083941286
0.235369933361502,-0.0417699293753597
0.239479372545784,-0.0399531885482863
0.24358585142781,-0.038167048167075
0.247689360523658,-0.0364117704858922
0.251789890349404,-0.0346876177589044
0.259981974254894,-0.0313337361841797
0.264073509366792,-0.0297045318447756
0.268162027272893,-0.0281075014762325
0.276329973532012,-0.0250110116683948
0.288559026779128,-0.0206141380922564
0.292629242288055,-0.0192156588863744
0.296696374203721,-0.0178511894305186
0.300760413042202,-0.0165209919788554
0.304821349319574,-0.0152253287855512
0.308879173551914,-0.0139644621047727
0.312933876255298,-0.0127386541906862
0.316985447945803,-0.0115481672974583
0.329121282100805,-0.0081912552845902
0.333160234900556,-0.00714467501646104
0.337196009267811,-0.0061347270400227
0.341228595718644,-0.00516167360944174
0.345257984769133,-0.00422577697888455
0.349284166935354,-0.00332729940251767
0.353307132733383,-0.00246650313450752
0.357326872679298,-0.00164365042902063
0.361343377289173,-0.000859003540223387
0.365356637079086,-0.000112824722282349
0.369366642565114,0.000594623770636111
0.381377038360645,0.00248196475759088
0.385373931791893,0.00303186940875409
0.39734476380892,0.0044402847704479
0.401328393442612,0.00482844951319235
0.405308683417106,0.00517552364341591
0.413259206452804,0.00574535104963459
0.417229420546162,0.00596757981729675
0.429119759321187,0.00638037932849687
0.437029637411095,0.00644138413447693
0.440979443676245,0.00640684131452154
0.444925815442961,0.00632858534038061
0.44886874322732,0.00620635395788762
0.460676767847016,0.00557318481863171
0.468531390476428,0.00492638702431564
0.472453455204247,0.00453479585421452
0.476372009562244,0.00409739349659612
0.480287044066495,0.00361391769729388
0.484198549233077,0.00308410620214138
0.488106515578065,0.00250769675697211
0.492010933617536,0.00188442710761967
0.499809086844234,0.000496258179699225
0.507592933041783,-0.00108249861495172
0.511479467294817,-0.00194400309771731
0.515362396338793,-0.00285394130966491
0.519241710689787,-0.00381257550496105
0.523117400863876,-0.00482016793777212
0.526989457377136,-0.00587698086226469
0.534722631485474,-0.00813931720295999
0.538583730112706,-0.00934536512749568
0.542441157143414,-0.0106016825603787
0.550144958479567,-0.0132661749678527
0.553991313817164,-0.0146748744507765
0.561672886411782,-0.0176464912458302
0.565508084700956,-0.0192099330662931
0.569339545006142,-0.0208254801742686
0.573167257843415,-0.0224933948239232
0.576991213728854,-0.0242139392694233
0.580811403178533,-0.0259873757649356
0.592249278073781,-0.0316276600932089
0.596054306941189,-0.033615287330434
0.60365291362595,-0.0377534140215836
0.611236189017815,-0.0421104520294425
0.622582189962769,-0.049061057207974
0.633893268722146,-0.0565160142865927
0.637655823564612,-0.0591143020322617
0.641414460228541,-0.0617696778946064
0.64516916923001,-0.064482404127793
0.656409635420423,-0.07296730759407
0.660148538932817,-0.0759120578522894
0.663883467363134,-0.0789154697521833
0.67134136104184,-0.08509932749366
0.675064307322382,-0.0882802978435758
0.682498151346227,-0.0948216327725947
0.689915867427595,-0.101603908368306
0.693618653780042,-0.105086054551588
0.697317379695098,-0.108629222664043
0.704702612277348,-0.115899673693135
0.708389099976693,-0.119627481118106
0.708389099976693,-0.119627481118106
0.715602239174899,-0.127116369427357
0.719092652029055,-0.130839108296096
0.722506203939103,-0.134547223432437
0.725843327569431,-0.138240599680027
0.72910445558443,-0.141919121882511
0.735400455426006,-0.149231143526744
0.741397664778956,-0.156482367114303
0.744285304683172,-0.160084891745943
0.747099544958404,-0.163671871394352
0.749840818269042,-0.167243190903175
0.757631163057298,-0.177862037028586
0.760084895153466,-0.181369564415522
0.762467823606994,-0.184860855881101
0.764780381082271,-0.188335796268969
0.769196113755638,-0.195236163186151
0.773335554488691,-0.202069743916235
0.775302747038578,-0.205461201570229
0.777202164596557,-0.208835617208385
0.78079940539436,-0.215532861811769
0.784130738197226,-0.22216055647555
0.787199624320279,-0.228717779948896
0.788636731537853,-0.231969677098269
0.790009525078646,-0.23520361098097
0.791318437607047,-0.238419466440645
0.792563901787449,-0.24161712832094
0.793746350284242,-0.2447964814655
0.794866215761816,-0.24795741071797
0.797854640723133,-0.257328503559303
0.799541941115079,-0.263481668126584
0.800295394429545,-0.266529635743079
0.801624070617415,-0.272567765860007
0.8022001588196,-0.275557698047731
0.802717990646473,-0.278528054779823
0.803177998762425,-0.281478720899928
0.803580615831846,-0.284409581251692
0.803926274519126,-0.287320520678762
0.804215407488656,-0.290211424024782
0.804448447404828,-0.293082176133398
0.804625826932032,-0.295932661848256
0.804747978734657,-0.298762766013002
0.804692961987195,-0.309877064043776
0.804545465132792,-0.312603533112645
0.804345336540155,-0.315308929693277
0.803788914797741,-0.320656044764408
0.803433486976746,-0.323297532942199
0.80302715807508,-0.325917488006335
0.802063527687296,-0.331092338168223
0.800901484949514,-0.336179673999237
0.800247140610351,-0.338690236149782
0.799544491176861,-0.341178574248544
0.79715103895433,-0.348509092670603
0.795321810848168,-0.353282873493241
0.794338416800916,-0.355635448997876
0.793309746310071,-0.35796499435625
0.792236232040024,-0.360271394412008
0.783502350140842,-0.375758453195318
0.782085661555239,-0.377875545201396
0.779129867649364,-0.382037068927785
0.772740727501877,-0.390066250859574
0.767544643025795,-0.395827377552388
0.765737926340906,-0.397697470424479
0.760099768009119,-0.40315528877525
0.758149154687452,-0.404923357615826
0.756163648867569,-0.406665632557637
0.745727875548558,-0.414986068312821
0.743542100691572,-0.416571161578604
0.741324461987103,-0.418129654851142
0.739075392099542,-0.419661432974081
0.734484689432704,-0.422644383145745
0.724945147135108,-0.428284634814294
0.717490749496785,-0.432226253550115
0.709792411005787,-0.435917071867656
0.707174108197572,-0.437091073817566
0.696451484792384,-0.441502656668069
0.693710639219958,-0.442533870361639
0.690946583087862,-0.443536180934878
0.688159749060486,-0.444509473231432
0.682519477977458,-0.446368542369068
0.679666906250588,-0.447254088897441
0.673899053748085,-0.448936630091526
0.665096992338291,-0.451237334880685
0.656124975686621,-0.453267547514979
0.65309855473836,-0.453883638295676
0.650054980531897,-0.454469213767082
0.646994685731624,-0.455024158772842
0.643918103001931,-0.455548358156603
0.640825665007208,-0.45604169676201
0.634594953880237,-0.456935331012344
0.621962305679131,-0.458347203293176
0.615567291235247,-0.458863598822005
0.579632286391452,-0.459398424426259
0.576313602618177,-0.459250364630182
0.572988149532076,-0.459069025772311
0.552917504652001,-0.457275683571562
0.546192749308411,-0.456406449922229
0.529338114243345,-0.453630829855492
0.525963320538699,-0.452971492715298
0.512465678894357,-0.44998292851989
0.502356172096994,-0.447369504579049
0.495629526310275,-0.445448351371134
0.458984227222404,-0.432280246467321
0.445879595635775,-0.426380619603068
0.432936637623691,-0.419876670185019
0.423352174976964,-0.414597687925913
0.417027478350879,-0.410885677076639
0.410758776036494,-0.40701843996016
0.398403199603323,-0.398814601922254
0.389309245877899,-0.392247402639333
0.371616119416496,-0.378034134554205
0.368736451033896,-0.375524059593012
0.360224703792709,-0.3677494796732
0.354660580531335,-0.362361645632918
0.351912929363645,-0.359605948915592
0.346488611276213,-0.3539704203048
0.338536084730794,-0.345205062102944
0.333362081842225,-0.339152102953795
0.330814682833625,-0.336062461805784
0.323336087523252,-0.326539510191753
0.3184910187231,-0.319978034077191
0.316111980738224,-0.316633098039285
0.29608341092068,-0.284582006135601
0.29198966580574,-0.276978622317685
0.28803325590794,-0.269198362837956
0.282363716220214,-0.257194316516264
0.278765787618937,-0.248967837409602
0.277022650668633,-0.244787117919549
0.273650194790644,-0.236290143284224
0.270432380705422,-0.227611686732915
0.26737266972809,-0.218750827014786
0.256784083200175,-0.181464931457388
0.25565330280204,-0.176595018055818
0.254566807489175,-0.171678237142645
0.25352502992597,-0.166714473561516
0.252528402776816,-0.161703612156077
0.249002051608524,-0.141186885164124
0.243877799814203,-0.092224115731869
0.242913006385542,-0.0692014146367279
0.242803072300106,-0.0633231006571079
0.242746509252144,-0.0573955008824451
0.242743749906046,-0.0514185001563855
0.242901372977003,-0.0393158352246583
0.243881300774473,-0.014512627064852
0.24426728194436,-0.00818659530109359
0.245211471999491,0.00461654998947142
0.245770546213517,0.0110938938289865
0.246388183437704,0.0176219053397961
0.251348059202079,0.0578604442576723
0.261426512701973,0.114398659535432
0.262974514805451,0.121700504878171
0.271705463216819,0.1589996873134
0.289215225266269,0.221444836986388
0.296942807342648,0.245749720205905
0.320767385510741,0.312962704607737
0.334486699393164,0.347892086016508
0.357402330805087,0.401960497783258
0.36993695464263,0.429754893157478
0.383205026485958,0.458060227154348
0.397218228273616,0.486879608995435
0.402056899068732,0.496600839859721
0.411988241944154,0.516216147902305
0.422261137629098,0.536062685405934
0.443845432688055,0.576453133799661
0.460955973638513,0.607359799233279
0.472808690740983,0.628258269790682
0.491264954385747,0.660049319156361
0.504025636560854,0.681540257910663
0.510544227565158,0.692375144510032
0.517155562066484,0.703269796132685
