-0.749506969414971,-0.0539813006204388
-0.74997681255023,-0.0607229538295812
-0.750422804381725,-0.0673632490887995
-0.750844981976775,-0.0739026178256492
-0.751243382402701,-0.0803414914676861
-0.751618042726821,-0.0866803014424656
-0.751969000016457,-0.0929194791775434
-0.752296291338927,-0.099059456100475
-0.752599953761552,-0.105100663638816
-0.752880024351651,-0.111043533220122
-0.753136540176544,-0.116888496271949
-0.753369538303552,-0.122635984221852
-0.753579055799995,-0.128286428497387
-0.753765129733191,-0.133840260526109
-0.753927797170462,-0.139297911735574
-0.754067095179126,-0.144659813553338
-0.754183060826504,-0.149926397406956
-0.754275731179915,-0.155098094723984
-0.75434514330668,-0.160175336931977
-0.754391334274119,-0.165158555458491
-0.754414341149551,-0.170048181731081
-0.754414201000296,-0.174844647177304
-0.754390950893674,-0.179548383224714
-0.754344627897005,-0.184159821300868
-0.754275269077608,-0.188679392833321
-0.754182911502805,-0.193107529249628
-0.754067592239914,-0.197444661977345
-0.753929348356255,-0.201691222444028
-0.75376821691915,-0.205847642077232
-0.753584234995916,-0.209914352304513
-0.753377439653874,-0.213891784553426
-0.753147867960344,-0.217780370251528
-0.752895556982646,-0.221580540826373
-0.752620543788101,-0.225292727705517
-0.752322865444026,-0.228917362316517
-0.752002559017743,-0.232454876086926
-0.751659661576572,-0.235905700444302
-0.751294210187832,-0.239270266816199
-0.750906241918843,-0.242549006630173
-0.750495793836925,-0.24574235131378
-0.750062903009399,-0.248850732294576
-0.749607606503583,-0.251874581000115
-0.749129941386797,-0.254814328857954
-0.748629944726363,-0.257670407295648
-0.748107653589599,-0.260443247740753
-0.747563105043826,-0.263133281620824
-0.746996336156362,-0.265740940363417
-0.746407383994529,-0.268266655396087
-0.745796285625646,-0.270710858146391
-0.745163078117033,-0.273073980041883
-0.744507798536009,-0.27535645251012
-0.743830483949896,-0.277558706978656
-0.743131171426012,-0.279681174875048
-0.742409898031677,-0.281724287626851
-0.741666700834212,-0.28368847666162
-0.740901616900936,-0.285574173406912
-0.740114683299169,-0.287381809290282
-0.739305937096231,-0.289111815739285
-0.738475415359442,-0.290764624181477
-0.737623155156122,-0.292340666044413
-0.736749193553591,-0.29384037275565
-0.735853567619168,-0.295264175742742
-0.734936314420173,-0.296612506433246
-0.733997471023927,-0.297885796254717
-0.733037074497749,-0.29908447663471
-0.732055161908959,-0.300208979000782
-0.731051770324877,-0.301259734780487
-0.730026936812823,-0.302237175401381
-0.728980698440117,-0.303141732291021
-0.727913092274078,-0.303973836876961
-0.726824155382027,-0.304733920586757
-0.725713924831283,-0.305422414847964
-0.724582437689167,-0.306039751088139
-0.723429731022997,-0.306586360734837
-0.722255841900095,-0.307062675215613
-0.721060807387779,-0.307469125958024
-0.719844664553371,-0.307806144389624
-0.718607450464189,-0.308074161937969
-0.717349202187554,-0.308273610030615
-0.716069956790785,-0.308404920095117
-0.714769751341203,-0.308468523559031
-0.713448622906127,-0.308464851849913
-0.712106608552876,-0.308394336395318
-0.710743745348772,-0.308257408622802
-0.709360070361134,-0.308054499959921
-0.707955620657282,-0.307786041834229
-0.706530433304535,-0.307452465673282
-0.705084545370214,-0.307054202904637
-0.703617993921638,-0.306591684955849
-0.702130816026128,-0.306065343254473
-0.700623048751003,-0.305475609228065
-0.699094729163582,-0.30482291430418
-0.697545894331187,-0.304107689910374
-0.695976581321137,-0.303330367474203
-0.694386827200752,-0.302491378423223
-0.69277666903735,-0.301591154184988
-0.691146143898254,-0.300630126187055
-0.689495288850782,-0.299608725856978
-0.687824140962254,-0.298527384622315
-0.686132737299991,-0.297386533910619
-0.684421114931311,-0.296186605149448
-0.682689310923536,-0.294928029766355
-0.680937362343984,-0.293611239188898
-0.679165306259976,-0.292236664844631
-0.677373179738831,-0.290804738161111
-0.67556101984787,-0.289315890565892
-0.673728863654412,-0.287770553486531
-0.671876748225778,-0.286169158350583
-0.670004710629287,-0.284512136585603
-0.668112787932258,-0.282799919619147
-0.666201017202013,-0.281032938878771
-0.66426943550587,-0.27921162579203
-0.66231807991115,-0.277336411786481
-0.660346987485173,-0.275407728289677
-0.658356195295258,-0.273426006729176
-0.656345740408725,-0.271391678532533
-0.654315659892895,-0.269305175127303
-0.652265990815086,-0.267166927941041
-0.65019677024262,-0.264977368401304
-0.648108035242815,-0.262736927935647
-0.645999822882992,-0.260446037971626
-0.643872170230471,-0.258105129936796
-0.641725114352572,-0.255714635258713
-0.639558692316613,-0.253274985364932
-0.637372941189916,-0.250786611683009
-0.6351678980398,-0.2482499456405
-0.632943599933585,-0.24566541866496
-0.630700083938591,-0.243033462183945
-0.628437387122138,-0.24035450762501
-0.626155546551546,-0.237628986415711
-0.623854599294134,-0.234857329983604
-0.621534582417223,-0.232039969756244
-0.619195532988132,-0.229177337161186
-0.616837488074181,-0.226269863625987
-0.61446048474269,-0.223317980578202
-0.61206456006098,-0.220322119445386
-0.609649751096369,-0.217282711655095
-0.607216094916178,-0.214200188634885
-0.604763628587727,-0.211074981812311
-0.602292389178335,-0.207907522614929
-0.599802413755323,-0.204698242470295
-0.59729373938601,-0.201447572805964
-0.594766403137716,-0.198155945049491
-0.592220442077761,-0.194823790628432
-0.589655893273465,-0.191451540970344
-0.587072793792149,-0.18803962750278
-0.58447118070113,-0.184588481653298
-0.581851091067731,-0.181098534849452
-0.57921256195927,-0.177570218518799
-0.576555630443067,-0.174003964088893
-0.573880333586443,-0.17040020298729
-0.571186708456716,-0.166759366641547
-0.568474792121208,-0.163081886479218
-0.565744621647238,-0.159368193927859
-0.562996234102126,-0.155618720415026
-0.560229666553191,-0.151833897368274
-0.557444956067753,-0.14801415621516
-0.554642139713134,-0.144159928383237
-0.551821254556651,-0.140271645300063
-0.548982337665626,-0.136349738393192
-0.546125426107378,-0.132394639090181
-0.543250556949227,-0.128406778818585
-0.540357767258493,-0.124386589005959
-0.537447094102496,-0.120334501079859
-0.534518574548555,-0.116250946467841
-0.531572245663991,-0.11213635659746
-0.528608144516123,-0.107991162896271
-0.525626308172272,-0.103815796791831
-0.522626773699757,-0.0996106897116955
-0.519609578165898,-0.0953762730834194
-0.516574758638014,-0.0911129783345582
-0.513522352183427,-0.0868212368926679
-0.510452395869455,-0.082501480185304
-0.50736492676342,-0.0781541396400221
-0.504259981932639,-0.0737796466843776
-0.501137598444434,-0.0693784327459263
-0.497997813366124,-0.0649509292522237
-0.49484066376503,-0.0604975676308255
-0.49166618670847,-0.0560187793092871
-0.488474419263765,-0.0515149957151643
-0.485265398498235,-0.0469866482760125
-0.4820391614792,-0.0424341684193875
-0.47879574527398,-0.0378579875728446
-0.475535186949893,-0.0332585371639397
-0.472257523574262,-0.0286362486202282
-0.468962792214404,-0.0239915533692659
-0.465651029937641,-0.019324882838608
-0.462322273811291,-0.0146366684558104
-0.458976560902676,-0.00992734164842873
-0.455613928279114,-0.00519733384401841
-0.452234413007926,-0.000447076470135033
-0.448838052156431,0.00432299904566574
-0.44542488279195,0.00911246127582829
-0.441994941981802,0.013920878792797
-0.438548266793308,0.0187478201690165
-0.435084894293786,0.023592853976931
-0.431604861550557,0.0284555487889849
-0.428108205630942,0.0333354731776227
-0.424594963602259,0.0382321957152887
-0.421065172531828,0.0431452849744276
-0.41751886948697,0.0480743095274834
-0.413956091535005,0.0530188379469008
-0.410376875743252,0.057978438805124
-0.40678125917903,0.0629526806745976
-0.403169278909661,0.0679411321277658
-0.399540972002464,0.0729433617370732
-0.395896375524759,0.0779589380749641
-0.392235526543865,0.0829874297138832
-0.388558462127103,0.0880284052262743
-0.384865219341793,0.0930814331845825
-0.381155835255253,0.0981460821612517
-0.377430346934805,0.103221920728727
-0.373688791447768,0.108308517459451
-0.369931205861462,0.113405440925871
-0.366157627243207,0.118512259700429
-0.362368092660323,0.12362854235557
-0.358562639180129,0.128753857463739
-0.354741303869946,0.13388777359738
-0.350904123797094,0.139029859328937
-0.347051136028891,0.144179683230855
-0.343182377632659,0.149336813875579
-0.339297885675717,0.154500819835552
-0.335397697225385,0.159671269683219
-0.331481849348983,0.164847731991025
-0.32755037911383,0.170029775331414
-0.323603323587247,0.17521696827683
-0.319640719836554,0.180408879399718
-0.31566260492907,0.185605077272522
-0.311669015932115,0.190805130467686
-0.307659989913009,0.196008607557656
-0.303635563939073,0.201215077114874
-0.299595775077625,0.206424107711787
-0.295540660395986,0.211635267920837
-0.291470256961476,0.216848126314471
-0.287384601841415,0.222062251465131
-0.283283732103121,0.227277211945263
-0.279167684813917,0.23249257632731
-0.27503649704112,0.237707913183718
-0.270890205852052,0.24292279108693
-0.266728848314031,0.248136778609392
-0.262552461494379,0.253349444323547
-0.258361082460414,0.258560356801839
-0.254154748279457,0.263769084616714
-0.249933496018827,0.268975196340616
-0.245697362745845,0.274178260545989
-0.24144638552783,0.279377845805277
-0.237180601432102,0.284573520690925
-0.232900047525981,0.289764853775378
-0.228604760876788,0.294951413631079
-0.224294778551841,0.300132768830473
-0.219970137618461,0.305308487946005
-0.215630875143967,0.310478139550119
-0.21127702819568,0.315641292215259
-0.20690863384092,0.32079751451387
-0.202525729147005,0.325946375018396
-0.198128351181257,0.331087442301282
-0.193716537010995,0.336220284934972
-0.189290323703539,0.34134447149191
-0.184849748326208,0.346459570544541
-0.180394847946324,0.351565150665309
-0.175925659631204,0.356660780426659
-0.171442220448171,0.361746028401035
-0.166944567464542,0.366820463160881
-0.162432737747639,0.371883653278642
-0.157906768364781,0.376935167326763
-0.153366696383288,0.381974573877687
-0.14881255887048,0.387001441503859
-0.144244392893676,0.392015338777724
-0.139662235520198,0.397015834271725
-0.135066123817363,0.402002496558308
-0.130456094852494,0.406974894209917
-0.125832185692908,0.411932595798996
-0.121194433405927,0.416875169897989
-0.116542875058869,0.421802185079341
-0.111877547719056,0.426713209915497
-0.107198488453807,0.4316078129789
-0.102505734330441,0.436485562841996
-0.0977993224162789,0.441346028077228
-0.0930792897786404,0.446188777257041
-0.088345673484845,0.45101337895388
-0.0835985106022131,0.455819401740188
-0.0788378381980642,0.460606414188411
-0.0740636933397185,0.465373984870992
-0.0692761130944955,0.470121682360376
-0.0644751345297155,0.474849075229008
-0.059660794712698,0.479555732049331
-0.0548331307107633,0.484241221393791
-0.0499921795912308,0.488905111834832
-0.0451379784214209,0.493546971944897
-0.040270564268653,0.498166370296433
-0.0353899742002474,0.502762875461882
-0.0304962452835236,0.507336056013689
-0.0255894145858019,0.511885480524299
-0.0206695191744016,0.516410717566156
-0.0157365961166433,0.520911335711705
-0.0107906824798463,0.52538690353339
-0.00583181533133094,0.529836989603655
-0.0008600317384167,0.534261162494944
0.00412463123157623,0.538658990779703
0.00912213651132823,0.543030043030376
0.0141324470335191,0.547373887819406
0.0191555257308294,0.551690093719239
0.0241913355359386,0.555978229302319
0.0292398393815275,0.56023786314109
0.0343010002002757,0.564468563807997
0.0393747809248638,0.568669899875484
0.0444611444879713,0.572841439915995
0.049560053822279,0.576982752501975
0.0546714718604663,0.581093406205868
0.059795361535214,0.585172969600119
0.0649316857792017,0.589221011257172
0.0700804075251099,0.593237099749471
0.0752414897056183,0.597220803649462
0.0804148952534075,0.601171691529588
0.0856005871011571,0.605089331962293
0.0907985281815478,0.608973293520023
0.0960086814272591,0.612823144775221
0.101231009770972,0.616638454300332
0.106465476145365,0.6204187906678
0.11171204348312,0.62416372245007
0.116970674716916,0.627872818219587
0.122241332779434,0.631545646548794
0.127523980603353,0.635181776010136
0.132818581121354,0.638780775176057
0.138125097266116,0.642342212619002
0.143443491970321,0.645865656911416
0.148773728166648,0.649350676625742
0.154115768787777,0.652796840334425
0.159469576766388,0.656203716609909
0.164835115035161,0.65957087402464
0.170212346526777,0.66289788115106
0.175601234173916,0.666184306561616
0.181001740909257,0.66942971882875
0.186413829665482,0.672633686524908
0.191837463375269,0.675795778222534
0.197272604971299,0.678915562494072
0.202719217386253,0.681992607911967
0.20817726355281,0.685026483048663
0.21364670640365,0.688016756476604
0.219127508871454,0.690962996768236
0.224619633888901,0.693864772496001
0.230123044388673,0.696721652232346
0.235637703303448,0.699533204549714
0.241163573565907,0.702298998020549
0.24670061810873,0.705018601217296
0.252248799864598,0.7076915827124
0.25780808176619,0.710317511078305
0.263378426746186,0.712895954887454
0.268959797737267,0.715426482712294
0.274552157672113,0.717908663125267
0.280155469483403,0.720342064698819
0.285769696103819,0.722726256005394
0.291394800466039,0.725060805617436
0.297030745502745,0.72734528210739
0.302677494146616,0.729579254047699
0.308335009330332,0.73176229001081
0.314003253986574,0.733893958569165
0.319682191048021,0.735973828295209
0.325371783447354,0.738001467761387
0.331071994117254,0.739976445540144
0.336782785990398,0.741898330203922
0.34250412199947,0.743766690325168
0.348235965077147,0.745581094476326
0.353978278156111,0.747341111229838
0.359731024169041,0.749046309158152
0.365494166048618,0.750696256833709
0.371267666727521,0.752290522828956
0.377051489138431,0.753828675716336
0.382845596214028,0.755310284068294
0.388649950886992,0.756734916457274
0.394464516090003,0.758102141455721
0.400289254755741,0.759411527636079
0.406124129816887,0.760662643570792
0.41196910420612,0.761855057832305
0.417824140856121,0.762988338993062
0.42368920269957,0.764062055625508
0.429564252669146,0.765075776302087
0.43544925369753,0.766029069595244
0.441344168717403,0.766921504077423
0.447248960661443,0.767752648321067
0.453163592462332,0.768522070898623
0.459088027052749,0.769229340382534
0.465022227365375,0.769874025345244
0.470966156332889,0.770455694359198
0.476919776887972,0.77097391599684
0.482883051963304,0.771428258830616
0.488855944491565,0.771818291432968
0.494838417405435,0.772143582376342
0.500830433637594,0.772403700233182
0.506831956120723,0.772598213575933
0.5128429477875,0.772726690977038
0.518863371570608,0.772788701008942
0.524893190402725,0.77278381224409
0.530932367216532,0.772711593254926
0.536980864944709,0.772571612613895
0.543038646519936,0.77236343889344
0.549105674874893,0.772086640666007
0.55518191294226,0.771740786504039
0.561267323654718,0.771325444979982
0.567361869944946,0.770840184666279
