0.215938420311611,-0.0291216905880205
-0.765332406055915,-0.966391208502901
-0.920506303730026,0.42859527897775
0.0380787149129016,0.745710779224574
0.996663733555829,1.0628262794714
0.0134818427885131,-0.488969390652839
-0.329375919903794,-0.49028424513739
