-0.388165235091073,0.532082217971308
-0.378203156533096,0.523150890878599
-0.368356549627541,0.514290262517458
-0.358624843864922,0.505500014477121
-0.34900746873575,0.496779828346824
-0.339503853730538,0.488129385715803
-0.330113428339799,0.479548368173294
-0.320835622054046,0.471036457308533
-0.311669864363792,0.462593334710756
-0.302615584759549,0.4542186819692
-0.29367221273183,0.4459121806731
-0.284839177771147,0.437673512411692
-0.276115909368015,0.429502358774212
-0.267501837012944,0.421398401349897
-0.258996390196448,0.413361321727982
-0.25059899840904,0.405390801497704
-0.242309091141233,0.397486522248299
-0.234126097883538,0.389648165569002
-0.226049448126469,0.38187541304905
-0.218078571360539,0.374167946277678
-0.21021289707626,0.366525446844123
-0.202451854764145,0.358947596337622
-0.194794873914707,0.351434076347409
-0.187241384018458,0.343984568462721
-0.179790814565912,0.336598754272794
-0.17244259504758,0.329276315366864
-0.165196154953976,0.322016933334167
-0.158050923775613,0.314820289763939
-0.151006331003002,0.307686066245417
-0.144061806126658,0.300613944367836
-0.137216778637091,0.293603605720432
-0.130470678024817,0.286654731892441
-0.123822933780346,0.279767004473101
-0.117272975394192,0.272940105051645
-0.110820232356867,0.266173715217311
-0.104464134158885,0.259467516559335
-0.0982041102907575,0.252821190666952
-0.0920395902429977,0.246234419129399
-0.0859700035061183,0.239706883535911
-0.079994779570632,0.233238265475726
-0.0741133479270516,0.226828246538078
-0.0683251380658897,0.220476508312205
-0.062629579477659,0.214182732387341
-0.0570261016528725,0.207946600352723
-0.0515141340820426,0.201767793797587
-0.0460931062556822,0.19564599431117
-0.040762447664304,0.189580883482706
-0.0355215877984207,0.183572142901433
-0.0303699561485452,0.177619454156586
-0.02530698220519,0.171722498837402
-0.0203320954588679,0.165880958533116
-0.0154447254000916,0.160094514832964
-0.0106443015193739,0.154362849326183
-0.00593025330722749,0.148685643602008
-0.00130201025416507,0.143062579249676
0.00324099814930055,0.137493337858422
0.00769934241265673,0.131977601017483
0.0120735930453907,0.126515050316095
0.0163643205569897,0.121105367343494
0.0205720954569411,0.115748233688916
0.0246974882547321,0.110443330941596
0.02874106945985,0.105190340690772
0.032703409581782,0.0999889445256785
0.0365850791300155,0.0948388240355521
0.0403866486140377,0.0897396608096289
0.0441086885433359,0.0846911364371448
0.0477517694273973,0.079692932507336
0.0513164617757091,0.0747447306094383
0.0548033360977589,0.0698462123326882
0.0582129629030337,0.0649970592663214
0.0615459127010208,0.060196952999574
0.0648027560012075,0.0554455751216821
0.0679840633130811,0.0507426072218817
0.0710904051461289,0.046087730889409
0.0741223520098382,0.0414806277134999
0.0770804744136961,0.0369209792833905
0.07996534286719,0.0324084671883169
0.0827775278798071,0.0279427730175151
0.0855175999610347,0.0235235783602212
0.0881861296203602,0.0191505648056712
0.0907836873672707,0.0148234139431011
0.0933108437112535,0.0105418073617471
0.095768169161796,0.00630542665084516
0.0981562342283853,0.00211395339963134
0.100475609420509,-0.00203293080265833
0.102726865247654,-0.00613554436678765
0.104910572219307,-0.0101942057035207
0.107027300844957,-0.0142092332236215
0.10907762163409,-0.0181809453378538
0.111062105096193,-0.0221096604569818
0.112981321740754,-0.0259956969917692
0.11483584207726,-0.02983937335298
0.116626236615199,-0.0336410079513783
0.118353075864057,-0.0374009191977278
0.120016930333322,-0.0411194255027927
0.121618370532481,-0.0447968452773368
0.123157966971022,-0.0484334969321241
0.124636290158431,-0.0520296988779185
0.126053910604196,-0.055585769525484
0.127411398817805,-0.0591020272855845
0.128709325308744,-0.062578790568984
0.129948260586501,-0.0660163777864463
0.131128775160563,-0.0694151073487356
0.132251439540417,-0.0727752976666157
0.133316824235551,-0.0760972671508504
0.134325499755451,-0.079381334212204
0.135278036609606,-0.0826278172614402
0.136175005307502,-0.0858370347093229
0.137016976358627,-0.0890093049666162
0.137804520272468,-0.092144946444084
0.138538207558512,-0.0952442775524903
0.139218608726247,-0.0983076167025989
0.139846294285159,-0.101335282305174
0.140421834744737,-0.104327592770979
0.140945800614467,-0.107284866510779
0.141418762403836,-0.110207421935336
0.141841290622332,-0.113095577455416
0.142213955779443,-0.115949651481782
0.142537328384655,-0.118769962425198
0.142811978947455,-0.121556828696428
0.143038477977332,-0.124310568706235
0.143217395983771,-0.127031500865385
0.143349303476262,-0.12971994358464
0.14343477096429,-0.132376215274765
0.143474368957343,-0.135000634346524
0.143468667964908,-0.137593519210681
0.143418238496473,-0.140155188277999
0.143323651061525,-0.142685959959242
0.143185476169551,-0.145186152665175
0.143004284330039,-0.147656084806562
0.142780646052475,-0.150096074794166
0.142515131846347,-0.152506441038751
0.142208312221142,-0.154887501951082
0.141860757686348,-0.157239575941921
0.141473038751451,-0.159562981422034
0.14104572592594,-0.161858036802184
0.140579389719301,-0.164125060493135
0.140074600641022,-0.166364370905651
0.139531929200589,-0.168576286450496
0.138951945907491,-0.170761125538434
0.138335221271214,-0.172919206580229
0.137682325801245,-0.175050847986645
0.136993830007073,-0.177156368168445
0.136270304398184,-0.179236085536394
0.135512319484065,-0.181290318501256
0.134720445774204,-0.183319385473794
0.133895253778088,-0.185323604864773
0.133037314005205,-0.187303295084956
0.132147196965041,-0.189258774545108
0.131225473167084,-0.191190361655992
0.130272713120821,-0.193098374828372
0.129289487335739,-0.194983132473013
0.128276366321327,-0.196844953000678
0.12723392058707,-0.198684154822131
0.126162720642456,-0.200501056348136
0.125063336996973,-0.202295975989457
0.123936340160108,-0.204069232156858
0.122782300641347,-0.205821143261103
0.121601788950179,-0.207552027712956
0.120395375596091,-0.209262203923181
0.119163631088569,-0.210951990302542
0.117907125937102,-0.212621705261802
0.116626430651176,-0.214271667211727
0.115322115740278,-0.215902194563078
0.113994751713897,-0.217513605726622
0.112644909081519,-0.21910621911312
0.111273158352631,-0.220680353133339
0.109880070036721,-0.22223632619804
0.108466214643277,-0.22377445671799
0.107032162681784,-0.22529506310395
0.105578484661731,-0.226798463766686
0.104105751092605,-0.228284977116961
0.102614532483893,-0.229754921565539
0.101105399345083,-0.231208615523184
0.0995789221856606,-0.23264637740066
0.0980356715151146,-0.234068525608731
0.0964762178429319,-0.235475378558161
0.0949011316785998,-0.236867254659714
0.0933109835316053,-0.238244472324154
0.0917063439114358,-0.239607349962245
0.0900877833275788,-0.24095620598475
0.0884558722895212,-0.242291358802434
0.0868111813067505,-0.243613126826061
0.085154280888754,-0.244921828466394
0.0834857415450189,-0.246217782134198
0.0818061337850324,-0.247501306240236
0.0801160281182819,-0.248772719195273
0.0784159950542546,-0.250032339410072
0.0767066051024378,-0.251280485295397
0.0749884287723188,-0.252517475262013
0.0732620365733848,-0.253743627720683
0.071527999015123,-0.254959261082171
0.0697868866070209,-0.256164693757241
0.0680392698585657,-0.257360244156657
0.0662857192792445,-0.258546230691183
0.0645268053785448,-0.259722971771583
0.0627630986659537,-0.260890785808621
0.0609951696509586,-0.262049991213061
0.0592235888430467,-0.263200906395666
0.0574489267517052,-0.264343849767202
0.0556717538864216,-0.265479139738431
0.0538926407566829,-0.266607094720117
0.0521121578719766,-0.267728033123025
0.0503308757417899,-0.268842273357919
0.04854936487561,-0.269950133835562
0.0467681957829242,-0.271051932966718
0.0449879389732199,-0.272147989162152
0.0432091649559841,-0.273238620832627
0.0414324442407044,-0.274324146388908
0.0396583473368678,-0.275404884241757
0.0378874447539617,-0.27648115280194
0.0361203070014734,-0.27755327048022
0.0343575045888901,-0.278621555687361
0.0325996080256991,-0.279686326834127
0.0308471878213877,-0.280747902331282
0.0291008144854431,-0.281806600589589
0.0273610585273527,-0.282862740019814
0.0256284904566036,-0.283916639032719
0.0239036807826833,-0.284968616039069
0.0221872000150789,-0.286018989449628
0.0204796186632776,-0.287068077675159
0.0187815072367669,-0.288116199126427
0.0170934362450339,-0.289163672214195
0.0154159761975659,-0.290210815349228
0.0137496976038502,-0.291257946942289
0.0120951709733741,-0.292305385404143
0.0104529668156249,-0.293353449145553
0.0088236556400897,-0.294402456577283
0.00720780795625599,-0.295452726110097
0.00560599427361087,-0.296504576154759
0.00401878510164173,-0.297558325122034
0.00244675094983579,-0.298614291422684
0.00089046232768035,-0.299672793467475
-0.000649510255337431,-0.300734149667169
-0.00217259628973009,-0.301798678432532
-0.00367822526601051,-0.302866698174326
-0.00516582667469129,-0.303938527303316
-0.0066348300062853,-0.305014484230266
-0.00808466475130512,-0.306094887365939
-0.00951476040026363,-0.3071800551211
-0.0109245464436734,-0.308270305906512
-0.0123134523720473,-0.30936595813294
-0.013680907675898,-0.310467330211147
-0.0150263418457382,-0.311574740551898
-0.0163491843720807,-0.312688507565956
-0.0176488647454382,-0.313808949664086
-0.0189248124563232,-0.314936385257051
-0.0201764569952489,-0.316071132755614
-0.0214032278527276,-0.317213510570541
-0.0226045545192722,-0.318363837112595
-0.0237798664853954,-0.319522430792541
-0.02492859324161,-0.320689610021141
-0.0260501642784287,-0.32186569320916
-0.0271440090863642,-0.323050998767362
-0.0282095571559291,-0.32424584510651
-0.0292462379776364,-0.32545055063737
-0.0302534810419986,-0.326665433770704
-0.0312307158395285,-0.327890812917277
-0.0321773718607388,-0.329127006487852
-0.0330928785961424,-0.330374332893194
-0.0339766655362518,-0.331633110544066
-0.0348281621715799,-0.332903657851233
-0.0356467979926392,-0.334186293225459
-0.0364320024899428,-0.335481335077506
-0.037183205154003,-0.33678910181814
-0.0378998354753328,-0.338109911858124
-0.0385813229444448,-0.339444083608222
-0.0392270970518519,-0.340791935479199
-0.0398365872880666,-0.342153785881817
-0.0404092231436018,-0.343529953226842
-0.0409444341089701,-0.344920755925037
-0.0414416496746844,-0.346326512387165
-0.0419002993312572,-0.347747541023991
-0.0423198125692014,-0.349184160246279
-0.0426996188790297,-0.350636688464793
-0.0430391477512548,-0.352105444090297
-0.0433378286763894,-0.353590745533554
-0.0435950911449463,-0.355092911205329
-0.0438103646474382,-0.356612259516385
-0.0439830786743778,-0.358149108877487
-0.0441126627162778,-0.359703777699398
-0.044198546263651,-0.361276584392883
-0.0442401588070101,-0.362867847368705
-0.0442369298368679,-0.364477885037628
-0.0441882888437369,-0.366107015810416
-0.04409366531813,-0.367755558097834
-0.04395248875056,-0.369423830310645
-0.0437641886315395,-0.371112150859613
-0.0435281944515813,-0.372820838155502
-0.043243935701198,-0.374550210609076
-0.0429108418709025,-0.376300586631098
-0.0425283424512074,-0.378072284632334
-0.0420958669326255,-0.379865623023546
-0.0416128448056694,-0.381680920215499
-0.0410787055608521,-0.383518494618957
-0.040492878688686,-0.385378664644684
-0.0398547936796841,-0.387261748703443
-0.0391638800243589,-0.389168065205998
-0.0384195672132234,-0.391097932563114
-0.03762128473679,-0.393051669185555
-0.0367684620855716,-0.395029593484084
-0.035860528750081,-0.397032023869465
-0.0348969142208308,-0.399059278752462
-0.0338770479883338,-0.40111167654384
-0.0328003595431027,-0.403189535654362
-0.0316662783756502,-0.405293174494792
-0.0304742339764891,-0.407422911475894
-0.0292236558361321,-0.409579065008432
-0.0279139734450919,-0.41176195350317
-0.0265446162938812,-0.413971895370872
-0.0251150138730128,-0.416209209022302
-0.0236245956729994,-0.418474212868224
-0.0220727911843537,-0.420767225319401
-0.0204590298975885,-0.423088564786598
-0.0187827413032164,-0.425438549680578
-0.0170433548917502,-0.427817498412107
-0.0152403001537027,-0.430225729391947
-0.0133730065795866,-0.432663561030862
-0.0114409036599145,-0.435131311739616
-0.00944342088519921,-0.437629299928975
-0.00737998774595355,-0.4401578440097
-0.00525003373269007,-0.442717262392556
-0.00305298833592169,-0.445307873488308
-0.000788281046160903,-0.447929995707719
0.00154465864607929,-0.450583947461553
0.00394640125028645,-0.453270047160575
0.00641751727594757,-0.455988613215547
0.00895857723255019,-0.458739964037234
0.0115701516295813,-0.4615244180364
0.0142528109765284,-0.464342293623809
0.0170071257828786,-0.467193909210224
0.0198336665581194,-0.470079583206411
0.0227330038117378,-0.472999634023132
0.0257057080532213,-0.475954380071152
0.028752349792057,-0.478944139761234
0.0318734995377323,-0.481969231504143
0.0350697277997343,-0.485029973710642
0.0383416050875505,-0.488126684791496
0.0416897019106679,-0.491259683157468
0.0451145887785742,-0.494429287219322
0.0486168362007562,-0.497635815387823
0.0521970146867015,-0.500879586073734
0.0558556947458972,-0.504160917687818
0.0595934468878306,-0.507480128640842
0.0634108416219889,-0.510837537343567
0.0673084494578597,-0.514233462206758
0.0712868409049299,-0.517668221641179
0.075346586472687,-0.521142134057594
0.079488256670618,-0.524655517866767
0.0837124220082106,-0.528208691479461
0.0880196529949517,-0.531801973306442
0.0924105201403287,-0.535435681758472
0.0968855939538288,-0.539110135246315
0.10144544494494,-0.542825652180737
0.106090643623148,-0.546582550972499
0.110821760497941,-0.550381150032368
0.115639366078807,-0.554221767771105
0.120544030875232,-0.558104722599476
0.125536325396704,-0.562030332928244
0.13061682015271,-0.565998917168174
0.135786085652737,-0.570010793730029
0.141044692406273,-0.574066281024573
0.146393210922805,-0.57816569746257
0.15183221171182,-0.582309361454784
0.157362265282806,-0.586497591411979
0.162983942145249,-0.590730705744918
0.168697812808638,-0.595009022864367
0.174504447782458,-0.599332861181089
0.180404417576198,-0.603702539105847
0.186398292699345,-0.608118375049407
0.192486643661386,-0.61258068742253
0.198670040971808,-0.617089794635983
0.204949055140099,-0.621646015100528
0.211324256675746,-0.62624966722693
0.217796216088236,-0.630901069425951
0.224365503887056,-0.635600540108358
0.231032690581694,-0.640348397684912
0.237798346681638,-0.64514496056638
0.244663042696373,-0.649990547163523
0.251627349135388,-0.654885475887107
0.25869183650817,-0.659830065147894
0.265857075324206,-0.66482463335665
0.273123636092983,-0.669869498924138
0.280492089323989,-0.674964980261122
0.28796300552671,-0.680111395778365
0.295536955210635,-0.685309063886633
0.30321450888525,-0.690558302996688
0.310996237060043,-0.695859431519295
0.318882710244501,-0.701212767865218
0.326874498948112,-0.706618630445221
0.334972173680361,-0.712077337670067
0.343176304950738,-0.717589207950521
0.351487463268728,-0.723154559697346
0.359906219143821,-0.728773711321307
0.368433143085501,-0.734446981233167
0.377068805603258,-0.74017468784369
0.385813777206577,-0.745957149563641
0.394668628404947,-0.751794684803783
0.403633929707855,-0.75768761197488
0.412710251624788,-0.763636249487696
