-0.903269268222553,-0.817231419218126
-0.898738871894681,-0.806895802205295
-0.894210717731395,-0.796640943210798
-0.889684857755682,-0.786466513484964
-0.885161343990526,-0.776372184278123
-0.880640228458912,-0.766357626840604
-0.876121563183825,-0.756422512422737
-0.871605400188251,-0.746566512274852
-0.867091791495174,-0.736789297647278
-0.86258078912758,-0.727090539790344
-0.858072445108452,-0.717469909954381
-0.853566811460776,-0.707927079389717
-0.849063940207539,-0.698461719346682
-0.844563883371723,-0.689073501075606
-0.840066692976314,-0.679762095826818
-0.835572421044298,-0.670527174850648
-0.831081119598659,-0.661368409397426
-0.826592840662383,-0.65228547071748
-0.822107636258453,-0.64327803006114
-0.817625558409856,-0.634345758678737
-0.813146659139576,-0.625488327820599
-0.808670990470599,-0.616705408737056
-0.804198604425908,-0.607996672678437
-0.79972955302849,-0.599361790895073
-0.795263888301329,-0.590800434637292
-0.790801662267411,-0.582312275155425
-0.786342926949719,-0.573896983699799
-0.78188773437124,-0.565554231520747
-0.777436136554959,-0.557283689868596
-0.772988185523859,-0.549085029993676
-0.768543933300927,-0.540957923146317
-0.764103431909147,-0.532902040576848
-0.759666733371504,-0.5249170535356
-0.755233889710984,-0.517002633272901
-0.750804952950571,-0.50915845103908
-0.74637997511325,-0.501384178084468
-0.741959008222006,-0.493679485659395
-0.737542104299825,-0.486044045014189
-0.733129315369691,-0.478477527399179
-0.728720693454589,-0.470979604064697
-0.724316290577505,-0.463549946261071
-0.719916158761423,-0.45618822523863
-0.715520350029328,-0.448894112247705
-0.711128916404205,-0.441667278538624
-0.70674190990904,-0.434507395361718
-0.702359382566817,-0.427414133967316
-0.697981386400521,-0.420387165605747
-0.693607973433138,-0.413426161527341
-0.689239195687652,-0.406530792982427
-0.684875105187048,-0.399700731221336
-0.680515753954311,-0.392935647494396
-0.676161194012427,-0.386235213051936
-0.67181147738438,-0.379599099144288
-0.667466656093155,-0.37302697702178
-0.663126782161738,-0.366518517934741
-0.658791907613112,-0.360073393133502
-0.654462084470265,-0.353691273868392
-0.650137364756179,-0.347371831389739
-0.645817800493841,-0.341114736947875
-0.641503443706235,-0.334919661793127
-0.637194346416346,-0.328786277175827
-0.63289056064716,-0.322714254346304
-0.628592138421661,-0.316703264554886
-0.624299131762834,-0.310752979051903
-0.620011592693664,-0.304863069087686
-0.615729573237137,-0.299033205912563
-0.611453125416237,-0.293263060776865
-0.60718230125395,-0.287552304930919
-0.602917152773259,-0.281900609625058
-0.598657731997151,-0.276307646109609
-0.594404090948611,-0.270773085634902
-0.590156281650622,-0.265296599451267
-0.585914356126171,-0.259877858809033
-0.581678366398243,-0.25451653495853
-0.577448364489821,-0.249212299150087
-0.573224402423892,-0.243964822634035
-0.56900653222344,-0.238773776660702
-0.56479480591145,-0.233638832480417
-0.560589275510908,-0.228559661343512
-0.556389993044798,-0.223535934500314
-0.552197010536105,-0.218567323201154
-0.548010380007815,-0.213653498696362
-0.543830153482912,-0.208794132236265
-0.539656382984381,-0.203988895071195
-0.535489120535208,-0.199237458451481
-0.531328418158377,-0.194539493627452
-0.527174327876873,-0.189894671849438
-0.523026901713681,-0.185302664367768
-0.518886191691788,-0.180763142432773
-0.514752249834176,-0.17627577729478
-0.510625128163831,-0.171840240204121
-0.506504878703739,-0.167456202411124
-0.502391553476884,-0.163123335166119
-0.498285204506252,-0.158841309719436
-0.494185883814826,-0.154609797321403
-0.490093643425593,-0.150428469222352
-0.486008535361538,-0.14629699667261
-0.481930611645645,-0.142215050922509
-0.477859924300899,-0.138182303222376
-0.473796525350285,-0.134198424822542
-0.469740466816789,-0.130263086973337
-0.465691800723395,-0.12637596092509
-0.461650579093088,-0.122536717928129
-0.457616853948854,-0.118745029232786
-0.453590677313677,-0.115000566089389
-0.449572101210542,-0.111302999748269
-0.445561177662435,-0.107652001459753
-0.44155795869234,-0.104047242474173
-0.437562496323242,-0.100488394041858
-0.433574842578127,-0.0969751274131363
-0.429595049479979,-0.0935071138383384
-0.425623169051783,-0.0900840245677939
-0.421659253316525,-0.0867055308518321
-0.417703354297189,-0.0833713039407827
-0.41375552401676,-0.0800810150849749
-0.409815814498224,-0.0768343355347385
-0.405884277764565,-0.0736309365404031
-0.401960965838768,-0.0704704893522981
-0.398045930743819,-0.067352665220753
-0.394139224502702,-0.0642771353960974
-0.390240899138402,-0.0612435711286609
-0.386351006673905,-0.058251643668773
-0.382469599132195,-0.055301024266763
-0.378596728536257,-0.0523913841729608
-0.374732446909077,-0.0495223946376957
-0.370876806273639,-0.0466937269112974
-0.367029858652929,-0.0439050522440953
-0.36319165606993,-0.0411560418864189
-0.359362250547629,-0.0384463670885979
-0.355541694109011,-0.0357756991009618
-0.35173003877706,-0.03314370917384
-0.347927336574761,-0.0305500685575621
-0.344133639525099,-0.0279944485024577
-0.34034899965106,-0.0254765202588564
-0.336573468975628,-0.0229959550770875
-0.332807099521789,-0.0205524242074806
-0.329049943312527,-0.0181455989003655
-0.325302052370827,-0.0157751504060715
-0.321563478719674,-0.0134407499749281
-0.317834274382054,-0.0111420688572648
-0.314114491380952,-0.00887877830341142
-0.310404181739351,-0.00665054956369728
-0.306703397480238,-0.00445705388845197
-0.303012190626598,-0.00229796252800492
-0.299330613201414,-0.000172946732685919
-0.295658717227674,0.00191832224717581
-0.29199655472836,0.00397617316125053
-0.288344177726459,0.00600093475920877
-0.284701638244955,0.00799293579072097
-0.281068988306834,0.0099525050054576
-0.277446279935079,0.0118799711530891
-0.273833565152677,0.0137756629832861
-0.270230895982613,0.0156399092457187
-0.266638324447871,0.0174730386900577
-0.263055902571436,0.0192753800659735
-0.259483682376294,0.0210472621231365
-0.255921715885429,0.0227890136112172
-0.252370055121827,0.0245009632798859
-0.248828752108471,0.0261834398788134
-0.245297858868348,0.0278367721576699
-0.241777427424443,0.0294612888661259
-0.23826750979974,0.031057318753852
-0.234768158017224,0.0326251905705185
-0.231279424099881,0.034165233065796
-0.227801360070695,0.0356777749893549
-0.224334017952651,0.0371631450908656
-0.220877449768735,0.0386216721199986
-0.217431707541931,0.0400536848264245
-0.213996843295225,0.0414595119598136
-0.210572909051601,0.0428394822698364
-0.207159956834044,0.0441939245061634
-0.203758038665539,0.0455231674184651
-0.200367206569072,0.0468275397564118
-0.196987512567628,0.0481073702696742
-0.193619008684191,0.0493629877079226
-0.190261746941746,0.0505947208208275
-0.186915779363278,0.0518028983580593
-0.183581157971773,0.0529878490692886
-0.180257934790216,0.0541499017041858
-0.17694616184159,0.0552893850124214
-0.173645891148882,0.0564066277436658
-0.170357174735077,0.0575019586475895
-0.167080064623159,0.0585757064738629
-0.163814612836113,0.0596281999721566
-0.160560871396924,0.0606597678921409
-0.157318892328578,0.0616707389834865
-0.15408872765406,0.0626614419958636
-0.150870429396353,0.0636322056789428
-0.147664049578445,0.0645833587823945
-0.144469640223318,0.0655152300558892
-0.141287253353959,0.0664281482490975
-0.138116940993352,0.0673224421116896
-0.134958755164483,0.0681984403933362
-0.131812747890336,0.0690564718437076
-0.128678971193897,0.0698968652124743
-0.12555747709815,0.0707199492493068
-0.12244831762608,0.0715260527038756
-0.119351544800673,0.0723155043258512
-0.116267210644913,0.0730886328649039
-0.113195367181785,0.0738457670707042
-0.110136066434275,0.0745872356929227
-0.107089360425368,0.0753133674812297
-0.104055301178047,0.0760244911852958
-0.101033940715299,0.0767209355547914
-0.0980253310601089,0.077403029339387
-0.0950295242354607,0.078071101288753
-0.0920465722643401,0.0787254801525599
-0.0890765271697317,0.0793664946804782
-0.0861194409746209,0.0799944736221782
-0.0831753657019924,0.0806097457273307
-0.0802443533748314,0.0812126397456058
-0.0773264560161226,0.0818034844266742
-0.0744217256488514,0.0823826085202062
-0.0715302142960025,0.0829503407758724
-0.0686519739805611,0.0835070099433433
-0.065787056725512,0.0840529447722892
-0.0629355145538405,0.0845884740123806
-0.0600973994885312,0.0851139264132881
-0.0572727635525694,0.085629630724682
-0.05446165876894,0.0861359156962329
-0.0516641371606281,0.0866331100776111
-0.0488802507506185,0.0871215426184873
-0.0461100515618964,0.0876015420685317
-0.0433535916174466,0.088073437177415
-0.0406109229402543,0.0885375566948075
-0.0378820975533044,0.0889942293703797
-0.035167167479582,0.0894437839538022
-0.0324661847420719,0.0898865491947452
-0.0297792013637593,0.0903228538428794
-0.027106269367629,0.0907530266478752
-0.0244474407766662,0.091177396359403
-0.0218027676138558,0.0915962917271333
-0.0191723019021829,0.0920100415007366
-0.0165560956646323,0.0924189744298833
-0.0139542009241892,0.092823419264244
-0.0113666697038386,0.093223704753489
-0.00879355402656533,0.0936201596472888
-0.00623490591535447,0.0940131126953139
-0.00369077739319108,0.0944028926472348
-0.00116122048306007,0.0947898282527219
0.00135371279205343,0.0951742482614457
0.00385397040916459,0.0955564814230766
0.00633950034528821,0.0959368564872852
0.00881025057743955,0.0963157022037419
0.0112661690826333,0.096693347322117
0.0137072038378848,0.0970701205920812
0.0161333028202087,0.0974463507633049
0.0185444140066203,0.0978223665854585
0.0209404853741343,0.0981984968082125
0.023321464899766,0.0985750701812374
0.0256873005605302,0.0989524154542036
0.028037940333442,0.0993308613767816
0.0303733321955163,0.0997107366986419
0.0326934241237683,0.100092370169455
0.0349981640952127,0.100476090538891
0.0372875000868648,0.100862226556621
0.0395613800757394,0.101251106972315
0.0418197520388516,0.101643060535643
0.0440625639532162,0.102038415996277
0.0462897637958485,0.102437502103886
0.0485012995437633,0.102840647608141
0.0506971191739757,0.103248181258712
0.0528771706635006,0.103660431805271
0.0550414019893532,0.104077727997487
0.0571897611285482,0.10450039858503
0.0593221960581008,0.104928772317572
0.0614386547550259,0.105363177944783
0.0635390851963387,0.105803944216333
0.0656234353590539,0.106251399881892
0.0676916532201867,0.106705873691132
0.069743686756752,0.107167694393722
0.071779483945765,0.107637190739334
0.0737989927642404,0.108114691477636
0.0758021611891934,0.108600525358301
0.0777889371976389,0.109095021130999
0.079759268766592,0.109598507545399
0.0817131038730676,0.110111313351173
0.0836503904940809,0.110633767297991
0.0855710766066465,0.111166198135523
0.0874751101877799,0.111708934613439
0.0893624392144956,0.112262305481411
0.091233011663809,0.112826639489109
0.0930867755127349,0.113402265386203
0.0949236787382883,0.113989511922364
0.0967436693174842,0.114588707847261
0.0985466952273378,0.115200181910567
0.100332704444864,0.11582426286195
0.102101644947077,0.116461279451082
0.103853464710993,0.117111560427633
0.105588111713627,0.117775434541273
0.107305533931993,0.118453230541673
0.109005679343107,0.119145277178504
0.110688495923983,0.119851903201435
0.112353931651637,0.120573437360138
0.114001934503083,0.121310208404282
0.115632452455337,0.122062545083539
0.117245433485414,0.122830776147578
0.118840825570328,0.123615230346071
0.120418576687094,0.124416236428687
0.121978634812728,0.125234123145097
0.123520947924244,0.126069219244972
0.125045463998658,0.126921853477981
0.126552131012985,0.127792354593797
0.128040896944239,0.128681051342088
0.129511709769436,0.129588272472525
0.13096451746559,0.13051434673478
0.132399268009716,0.131459602878522
0.133815909378831,0.132424369653421
0.135214389549947,0.133408975809149
0.136594656500081,0.134413750095376
0.137956658206248,0.135439021261771
0.139300342645462,0.136485118058007
0.140625657794739,0.137552369233752
0.141932551631093,0.138641103538678
0.14322097213154,0.139751649722455
0.144490867273094,0.140884336534754
0.145742185032771,0.142039492725245
0.146974873387586,0.143217447043598
0.148188880314552,0.144418528239484
0.149384153790687,0.145643065062573
0.150560641793004,0.146891386262536
0.151718292298518,0.148163820589044
0.152857053284245,0.149460696791766
0.153976872727199,0.150782343620374
0.155077698604396,0.152129089824537
0.156159478892851,0.153501264153926
0.157222161569578,0.154899195358212
0.158265694611592,0.156323212187065
0.159290025995909,0.157773643390155
0.160295103699544,0.159250817717154
0.16128087569951,0.160755063917731
0.162247289972825,0.162286710741557
0.163194294496502,0.163846086938302
0.164121837247556,0.165433521257638
0.165029866203003,0.167049342449233
0.165918329339858,0.16869387926276
0.166787174635135,0.170367460447887
0.167636350065849,0.172070414754287
0.168465803609016,0.173803070931628
0.169275483241651,0.175565757729583
0.170065336940768,0.17735880389782
0.170835312683382,0.179182538186011
0.171585358446509,0.181037289343826
0.172315422207163,0.182923386120935
0.17302545194236,0.18484115726701
0.173715395629115,0.18679093153172
0.174385201244442,0.188773037664735
0.175034816765356,0.190787804415728
0.175664190168873,0.192835560534367
0.176273269432008,0.194916634770323
0.176862002531774,0.197031355873267
0.177430337445189,0.199180052592869
0.177978222149266,0.2013630536788
0.17850560462102,0.20358068788073
0.179012432837467,0.20583328394833
0.179498654775621,0.20812117063127
0.179964218412498,0.210444676679221
0.180409071725112,0.212804130841852
0.180833162690479,0.215199861868835
0.181236439285613,0.21763219850984
0.18161884948753,0.220101469514537
0.181980341273244,0.222608003632597
0.182320862619771,0.22515212961369
0.182640361504125,0.227734176207488
0.182938785903322,0.230354472163659
0.183216083794376,0.233013346231875
0.183472203154303,0.235711127161807
0.183707091960117,0.238448143703124
0.183920698188833,0.241224724605497
0.184112969817468,0.244041198618597
0.184283854823034,0.246897894492094
0.184433301182548,0.249795140975658
0.184561256873025,0.25273326681896
0.184667669871479,0.255712600771671
0.184752488154925,0.258733471583461
0.184815659700379,0.261796208004
0.184857132484855,0.264901138782959
0.184876854485369,0.268048592670008
0.184874773678935,0.271238898414818
0.184850838042569,0.274472384767059
0.184804995553285,0.277749380476402
0.184737194188099,0.281070214292517
0.184647381924025,0.284435214965074
0.184535506738079,0.287844711243745
0.184401516607275,0.291299031878199
0.184245359508629,0.294798505618108
0.184066983419155,0.29834346121314
0.183866336315868,0.301934227412968
0.183643366175784,0.305571132967261
0.183398020975918,0.30925450662569
0.183130248693283,0.312984677137925
0.182839997304897,0.316761973253638
0.182527214787773,0.320586723722497
0.182191849118926,0.324459257294174
0.181833848275372,0.32837990271834
0.181453160234125,0.332348988744663
0.1810497329722,0.336366844122816
0.180623514466613,0.340433797602469
0.180174452694379,0.344550177933292
0.179702495632512,0.348716313864955
