-0.303546289732904,-0.447660234322854
-0.304040449216145,-0.439092547897212
-0.30451415907661,-0.430610437183267
-0.304967488553309,-0.422213529745338
-0.305400506885255,-0.413901453147742
-0.305813283311456,-0.405673834954799
-0.306205887070923,-0.397530302730824
-0.306578387402668,-0.389470484040137
-0.3069308535457,-0.381494006447056
-0.307263354739029,-0.373600497515898
-0.307575960221667,-0.365789584810981
-0.307868739232624,-0.358060895896624
-0.308141761010911,-0.350414058337145
-0.308395094795537,-0.342848699696861
-0.308628809825513,-0.33536444754009
-0.30884297533985,-0.327960929431151
-0.309037660577558,-0.320637772934362
-0.309212934777648,-0.31339460561404
-0.30936886717913,-0.306231055034503
-0.309505527021015,-0.29914674876007
-0.309622983542313,-0.292141314355058
-0.309721305982035,-0.285214379383785
-0.309800563579191,-0.278365571410571
-0.309860825572791,-0.271594517999731
-0.309902161201847,-0.264900846715585
-0.309924639705368,-0.25828418512245
-0.309928330322365,-0.251744160784644
-0.309913302291849,-0.245280401266486
-0.30987962485283,-0.238892534132294
-0.309827367244318,-0.232580186946384
-0.309756598705324,-0.226342987273076
-0.309667388474859,-0.220180562676688
-0.309559805791932,-0.214092540721537
-0.309433919895556,-0.208078548971941
-0.309289800024738,-0.202138214992218
-0.309127515418492,-0.196271166346687
-0.308947135315826,-0.190477030599665
-0.308748728955752,-0.18475543531547
-0.308532365577279,-0.179106008058421
-0.308298114419419,-0.173528376392835
-0.308046044721181,-0.16802216788303
-0.307776225721577,-0.162587010093324
-0.307488726659617,-0.157222530588036
-0.307183616774311,-0.151928356931483
-0.306860965304669,-0.146704116687984
-0.306520841489703,-0.141549437421855
-0.306163314568422,-0.136463946697416
-0.305788453779838,-0.131447272078984
-0.305396328362961,-0.126499041130877
-0.3049870075568,-0.121618881417414
-0.304560560600367,-0.116806420502912
-0.304117056732672,-0.112061285951688
-0.303656565192726,-0.107383105328063
-0.303179155219539,-0.102771506196352
-0.302684896052121,-0.0982261161208746
-0.302173856929483,-0.0937465626659482
-0.301646107090636,-0.0893324733958912
-0.30110171577459,-0.0849834758750213
-0.300540752220356,-0.0806991976676565
-0.299963285666943,-0.0764792663381149
-0.299369385353363,-0.0723233094507144
-0.298759120518625,-0.0682309545697731
-0.298132560401741,-0.064201829259609
-0.297489774241721,-0.0602355610845399
-0.296830831277576,-0.056331777608884
-0.296155800748315,-0.0524901063969592
-0.295464751892949,-0.0487101750130835
-0.29475775395049,-0.0449916110215749
-0.294034876159946,-0.0413340419867514
-0.29329618776033,-0.037737095472931
-0.29254175799065,-0.0342003990444317
-0.291771656089918,-0.0307235802655714
-0.290985951297145,-0.0273062667006682
-0.29018471285134,-0.0239480859140401
-0.289368009991515,-0.020648665470005
-0.288535911956679,-0.0174076329328809
-0.287688487985843,-0.014224615866986
-0.286825807318018,-0.011099241836638
-0.285947939192214,-0.00803113840615507
-0.285054952847442,-0.00501993313985516
-0.284146917522711,-0.00206525360205627
-0.283223902457034,0.000833272642923634
-0.282285976889419,0.00367601803076654
-0.281333210058878,0.00646335499715447
-0.28036567120442,0.00919565597776938
-0.279383429565058,0.0118732934082933
-0.2783865543798,0.0144966397244083
-0.277375114887657,0.0170660673617963
-0.276349180327641,0.0195819487561394
-0.275308819938761,0.0220446563431195
-0.274254102960028,0.0244545625584187
-0.273185098630452,0.0268120398377189
-0.272101876189044,0.0291174606167022
-0.271004504874815,0.0313711973310506
-0.269893053926774,0.033573622416446
-0.268767592583933,0.0357251083085706
-0.267628190085301,0.0378260274431062
-0.26647491566989,0.039876752255735
-0.265307838576709,0.0418776551821388
-0.26412702804477,0.0438291086579998
-0.262932553313082,0.045731485119
-0.261724483620656,0.0475851570008212
-0.260502888206504,0.0493904967391456
-0.259267836309634,0.0511478767696551
-0.258019397169058,0.0528576695280318
-0.256757640023786,0.0545202474499577
-0.255482634112828,0.0561359829711147
-0.254194448675196,0.0577052485271849
-0.2528931529499,0.0592284165538502
-0.251578816175949,0.0607058594867928
-0.250251507592355,0.0621379497616946
-0.248911296438128,0.0635250598142375
-0.247558251952278,0.0648675620801037
-0.246192443373816,0.0661658289949751
-0.244813939941753,0.0674202329945337
-0.243422810895099,0.0686311465144616
-0.242019125472864,0.0697989419904406
-0.240602952914059,0.070923991858153
-0.239174362457694,0.0720066685532806
-0.237733423342781,0.0730473445115054
-0.236280204808328,0.0740463921685095
-0.234814776093348,0.0750041839599748
-0.23333720643685,0.0759210923215835
-0.231847565077844,0.0767974896890174
-0.230345921255342,0.0776337484979586
-0.228832344208354,0.0784302411840892
-0.227306903175889,0.079187340183091
-0.22576966739696,0.0799054179306461
-0.224220706110576,0.0805848468624366
-0.222660088555747,0.0812259994141444
-0.221087883971485,0.0818292480214515
-0.219504161596799,0.08239496512004
-0.2179089906707,0.0829235231455918
-0.216302440432199,0.083415294533789
-0.214684580120306,0.0838706517203135
-0.213055478974032,0.0842899671408473
-0.211415206232386,0.0846736132310726
-0.209763831134381,0.0850219624266713
-0.208101422919025,0.0853353871633253
-0.206428050825329,0.0856142598767167
-0.204743784092305,0.0858589530025276
-0.203048691958962,0.0860698389764398
-0.201342843664311,0.0862472902341355
-0.199626308447363,0.0863916792112965
-0.197899155547127,0.0865033783436051
-0.196161454202615,0.086582760066743
-0.194413273652837,0.0866301968163924
-0.192654683136803,0.0866460610282352
-0.190885751893524,0.0866307251379536
-0.18910654916201,0.0865845615812294
-0.187317144181272,0.0865079427937446
-0.18551760619032,0.0864012412111813
-0.183708004428165,0.0862648292692215
-0.181888408133817,0.0860990794035472
-0.180058886546287,0.0859043640498404
-0.178219508904586,0.0856810556437831
-0.176370344447722,0.0854295266210574
-0.174511462414709,0.0851501494173452
-0.172642932044554,0.0848432964683284
-0.17076482257627,0.0845093402096892
-0.168877203248866,0.0841486530771095
-0.166980143301354,0.0837616075062714
-0.165073711972743,0.0833485759328569
-0.163157978502044,0.0829099307925479
-0.161233012128268,0.0824460445210265
-0.159298882090425,0.0819572895539746
-0.157355657627525,0.0814440383270743
-0.155403407978579,0.0809066632760077
-0.153442202382598,0.0803455368364566
-0.151472110078592,0.0797610314441031
-0.149493200305571,0.0791535195346292
-0.147505542302546,0.078523373543717
-0.145509205308527,0.0778709659070484
-0.143504258562526,0.0771966690603054
-0.141490771303551,0.07650085543917
-0.139468812770615,0.0757838974793243
-0.137438452202726,0.0750461676164503
-0.135399758838897,0.0742880382862299
-0.133352801918137,0.0735098819243451
-0.131297650679457,0.072712070966478
-0.129234374361867,0.0718949778483107
-0.127163042204377,0.071058975005525
-0.125083723445999,0.070204434873803
-0.122996487325743,0.0693317298888266
-0.120901403082618,0.0684412324862781
-0.118798539955637,0.0675333151018392
-0.116687967183808,0.066608350171192
-0.114569754006144,0.0656667101300185
-0.112443969661653,0.0647087674140009
-0.110310683389347,0.0637348944588209
-0.108169964428236,0.0627454637001607
-0.10602188201733,0.0617408475737022
-0.103866505395641,0.0607214185151275
-0.101703903802178,0.0596875489601186
-0.0995341464759517,0.0586396113443574
-0.0973573026559732,0.0575779781035261
-0.0951734415812527,0.0565030216733065
-0.0929826324908006,0.0554151144893807
-0.0907849446236274,0.0543146289874307
-0.0885804472187436,0.0532019376031386
-0.0863692095151598,0.0520774127721862
-0.0841513007518862,0.0509414269302557
-0.0819267901679336,0.049794352513029
-0.0796957470023122,0.0486365619561881
-0.0774582404940328,0.0474684276954151
-0.0752143398821055,0.046290322166392
-0.0729641144055411,0.0451026178048007
-0.0707076333033498,0.0439056870463232
-0.0684449658145425,0.0426999023266417
-0.0661761811781292,0.041485636081438
-0.0639013486331207,0.0402632607463942
-0.0616205374185273,0.0390331487571922
-0.0593338167733597,0.0377956725495143
-0.0570412559366281,0.0365512045590421
-0.0547429241473433,0.035300117221458
-0.0524388906445155,0.0340427829724437
-0.0501292246671554,0.0327795742476814
-0.0478139954542732,0.031510863482853
-0.0454932722448798,0.0302370231136406
-0.0431671242779852,0.028958425575726
-0.0408356207926003,0.0276754433047915
-0.0384988310277353,0.0263884487365189
-0.0361568242224008,0.0250978143065903
-0.0338096696156073,0.0238039124506876
-0.0314574364463652,0.022507115604493
-0.029100193953685,0.0212077962036883
-0.0267380113765774,0.0199063266839556
-0.0243709579540525,0.0186030794809769
-0.0219991029251211,0.0172984270304343
-0.0196225155287934,0.0159927417680096
-0.0172412650040802,0.0146863961293851
-0.0148554205899918,0.0133797625502424
-0.0124650515255387,0.0120732134662639
-0.0100702270497313,0.0107671213131314
-0.00767101640158026,0.00946185852652699
-0.00526748882009589,0.00815779754213256
-0.00285971354428882,0.00685531079563028
-0.000447759813169371,0.005554770722702
0.00196830313425174,0.00425654975902985
0.00438840605896432,0.00296102034029574
0.00681247972195759,0.00166855490218179
0.00924045488422141,0.000379525880369873
0.0116722623067449,-0.00090569428945788
0.014107832750518,-0.00218673317161957
0.0165470969765299,-0.00346321833043309
0.0189899857457702,-0.00473477733021654
0.0214364298192285,-0.00600103773528776
0.0238863599578943,-0.00726162710996493
0.026339706922757,-0.00851617301856591
0.0287964014748063,-0.00976430302540877
0.0312563743750315,-0.0110056446948114
0.0337195563844224,-0.0122398255910919
0.0361858782639682,-0.0134664732785683
0.0386552707746588,-0.0146852153215584
0.0411276646774833,-0.0158956792843804
0.0436029907334315,-0.0170974927313521
0.0460811797034927,-0.0182902832267916
0.0485621623486567,-0.019473678335017
0.0510458694299128,-0.0206473056203461
0.0535322317082507,-0.021810792647097
0.0560211799446597,-0.0229637669795877
0.0585126449001295,-0.0241058561821361
0.0610065573356494,-0.0252366878190602
0.0635028480122092,-0.0263558894546782
0.0660014476907982,-0.0274630886533078
0.0685022871324061,-0.0285579129792672
0.0710052970980222,-0.0296399899968744
0.0735104083486362,-0.0307089472704472
0.0760175516452375,-0.0317644123643038
0.0785266577488157,-0.0328060128427621
0.0810376574203603,-0.03383337627014
0.0835504814208609,-0.0348461302107557
0.0860650605113067,-0.035843902228927
0.0885813254526877,-0.036826319888972
0.0910992070059929,-0.0377930107552087
0.0936186359322123,-0.038743602391955
0.096139542992335,-0.039677722363529
0.0986618589473509,-0.0405949982342487
0.101185514558249,-0.041495057568432
0.10371044058602,-0.0423775279303969
0.106236567791652,-0.0432420368844615
0.108763826936135,-0.0440882119949437
0.111292148780458,-0.0449156808261615
0.113821464085612,-0.0457240709424329
0.116351703612586,-0.0465130099080759
0.118882798122368,-0.0472821252874086
0.12141467837595,-0.0480310446447488
0.123947275134319,-0.0487593955444146
0.126480519158466,-0.0494668055507239
0.129014341209381,-0.0501529022279949
0.131548672048052,-0.0508173131405453
0.134083442435469,-0.0514596658526934
0.136618583132623,-0.0520795879287569
0.139154024900501,-0.0526767069330541
0.141689698500094,-0.0532506504299027
0.144225534692392,-0.0538010459836209
0.146761464238384,-0.0543275211585266
0.149297417899059,-0.0548297035189379
0.151833326435407,-0.0553072206291726
0.154369120608417,-0.0557597000535488
0.156904731179079,-0.0561867693563845
0.159440088908383,-0.0565880561019977
0.161975124557318,-0.0569631878547064
0.164509768886873,-0.0573117921788285
0.167043952658038,-0.0576334966386821
0.169577606631803,-0.0579279287985852
0.172110661569156,-0.0581947162228557
0.174643048231089,-0.0584334864758117
0.177174697378589,-0.0586438671217711
0.179705539772647,-0.0588254857250519
0.182235506174252,-0.0589779698499722
0.184764527344394,-0.0591009470608498
0.187292534044062,-0.0591940449220029
0.189819457034245,-0.0592568909977494
0.192345227075934,-0.0592891128524073
0.194869774930117,-0.0592903380502945
0.197393031357785,-0.0592601941557291
0.199914927119926,-0.0591983087330292
0.202435392977531,-0.0591043093465125
0.204954359691588,-0.0589778235604973
0.207471758023088,-0.0588184789393014
0.20998751873302,-0.0586259030472428
0.212501572582373,-0.0583997234486396
0.215013850332136,-0.0581395677078097
0.217524282743301,-0.0578450633890711
0.220032800576855,-0.0575158380567419
0.222539334593788,-0.05715151927514
0.22504381555509,-0.0567517346085833
0.227546174221751,-0.05631611162139
0.23004634135476,-0.055844277877878
0.232544247715106,-0.0553358609423652
0.235039824063779,-0.0547904883791697
0.237533001161769,-0.0542077877526096
0.240023709770065,-0.0535873866270026
0.242511880649656,-0.052928912566667
0.244997444561533,-0.0522319931359205
0.247480332266684,-0.0514962558990813
0.249960474526099,-0.0507213284204673
0.252437802100768,-0.0499068382643966
0.25491224575168,-0.0490524129951871
0.257383736239824,-0.0481576801771568
0.259852204326191,-0.0472222673746237
0.262317580771769,-0.0462458021519059
0.264779796337549,-0.0452279120733212
0.267238781784519,-0.0441682247031877
0.26969446787367,-0.0430663676058233
0.272146785365991,-0.0419219683455462
0.27459566502247,-0.0407346544866742
0.277041037604099,-0.0395040535935254
0.279482833871866,-0.0382297932304177
0.28192098458676,-0.0369115009616692
0.284355420509773,-0.0355488043515978
0.286786072401891,-0.0341413309645216
0.289212871024107,-0.0326887083647585
0.291635747137408,-0.0311905641166265
0.294054631502785,-0.0296465257844436
0.296469454881227,-0.0280562209325278
0.298880148033723,-0.0264192771251971
0.301286641721263,-0.0247353219267695
0.303688866704836,-0.023003982901563
0.306086753745433,-0.0212248876138956
0.308480233604042,-0.0193976636280852
0.310869237041654,-0.0175219385084499
0.313253694819257,-0.0155973398193076
0.31563353769784,-0.0136234951249764
0.318008696438395,-0.0116000319897743
0.32037910180191,-0.00952657797801917
0.322744684549374,-0.00740276065402905
0.325105375441778,-0.00522820758212202
0.32746110524011,-0.0030025463266159
0.32981180470536,-0.00072540445182892
0.332157404598519,0.00160359047792119
0.334497835680574,0.00398481089831619
0.336833028712516,0.0064186292450383
0.339162914455335,0.00890541795376935
0.341487423670019,0.0114455494601915
0.343806487117559,0.0140393961999866
0.346120035558943,0.0166873306088369
0.348427999755162,0.019389725122424
0.350730310467204,0.0221469521764304
0.353026898456061,0.0249593842065377
0.35531769448272,0.0278273936484281
0.357602629308171,0.0307513529377836
0.359881633693404,0.0337316345102862
0.362154638399409,0.0367686108016178
0.364421574187175,0.0398626542474606
0.366682371817691,0.0430141372834964
0.368936962051948,0.0462234323454075
0.371185275650933,0.0494909118688755
0.373427243375638,0.0528169482895828
0.375662795987052,0.0562019140432111
0.377891864246164,0.0596461815654426
0.380114378913963,0.0631501232919591
0.382330270751439,0.066714111658443
0.384539470519582,0.0703385191005759
0.386741908979381,0.07402371805404
0.388937516891826,0.0777700809545172
0.391126225017906,0.0815779802376898
0.393307964118611,0.0854477883392393
0.39548266495493,0.0893798776948482
0.39548266495493,0.0893798776948482
0.39764649978534,0.0933320361441246
0.399795655708022,0.0972618178969871
0.401930085743523,0.101169244944583
0.404049742912388,0.105054339278059
0.406154580235164,0.108917122888563
0.408244550732396,0.112757617767242
0.410319607424632,0.116575845905242
0.412379703332417,0.120371829293713
0.414424791476296,0.124145589923799
0.416454824876817,0.12789714978665
0.418469756554525,0.131626530873411
0.420469539529967,0.13533375517523
0.422454126823689,0.139018844683255
0.424423471456236,0.142681821388632
0.426377526448155,0.146322707282509
0.428316244819992,0.149941524356033
0.430239579592293,0.153538294600351
0.432147483785604,0.15711304000661
0.434039910420472,0.160665782565958
0.435916812517442,0.164196544269542
0.437778143097061,0.167705347108509
0.439623855179874,0.171192213074006
0.441453901786428,0.17465716415718
0.443268235937269,0.178100222349179
0.445066810652944,0.18152140964115
0.446849578953997,0.18492074802424
0.448616493860976,0.188298259489595
0.450367508394426,0.191653966028365
0.452102575574894,0.194987889631695
0.453821648422925,0.198300052290733
0.455524679959066,0.201590475996625
0.457211623203864,0.204859182740521
0.458882431177863,0.208106194513565
0.46053705690161,0.211331533306906
0.462175453395652,0.214535221111691
0.463797573680534,0.217717279919068
0.465403370776802,0.220877731720182
0.466992797705004,0.224016598506182
0.468565807485684,0.227133902268214
0.470122353139389,0.230229664997427
0.471662387686665,0.233303908684967
0.473185864148058,0.23635665532198
0.474692735544114,0.239387926899616
0.47618295489538,0.24239774540902
0.477656475222401,0.24538613284134
0.479113249545724,0.248353111187723
0.480553230885894,0.251298702439317
0.481976372263459,0.254222928587268
0.483382626698963,0.257125811622724
0.484771947212954,0.260007373536831
0.486144286825977,0.262867636320738
0.487499598558578,0.265706621965592
0.488837835431304,0.268524352462538
0.4901589504647,0.271320849802726
0.491462896679313,0.274096135977302
0.492749627095688,0.276850232977413
0.494019094734373,0.279583162794206
0.495271252615913,0.282294947418829
0.496506053760854,0.284985608842428
0.497723451189742,0.287655169056152
0.498923397923124,0.290303650051147
0.500105846981546,0.29293107381856
0.501270751385553,0.295537462349539
0.502418064155692,0.298122837635231
0.503547738312509,0.300687221666783
0.504659726876549,0.303230636435342
0.50575398286836,0.305753103932055
0.506830459308488,0.308254646148071
0.507889109217478,0.310735285074535
0.508929885615876,0.313195042702595
0.509952741524229,0.315633941023398
0.510957629963082,0.318052002028092
0.511944503952983,0.320449247707824
0.512913316514477,0.322825700053741
0.51386402066811,0.325181381056989
0.514796569434428,0.327516312708717
0.515710915833977,0.329830517000072
0.516607012887304,0.3321240159222
0.517484813614955,0.334396831466249
0.518344271037475,0.336648985623367
0.519185338175412,0.338880500384699
0.52000796804931,0.341091397741395
0.520812113679716,0.3432816996846
0.521597728087177,0.345451428205462
0.522364764292238,0.347600605295128
0.523113175315446,0.349729252944745
0.523842914177346,0.351837393145461
0.524553933898485,0.353925047888423
0.525246187499408,0.355992239164778
0.525919628000663,0.358038988965673
0.526574208422795,0.360065319282256
0.52720988178635,0.362071252105673
0.527826601111874,0.364056809427072
0.528424319419914,0.3660220132376
0.529002989731015,0.367966885528404
0.529562565065724,0.369891448290632
0.530102998444587,0.37179572351543
0.53062424288815,0.373679733193946
0.531126251416959,0.375543499317327
0.53160897705156,0.377387043876721
0.532072372812499,0.379210388863274
0.532516391720323,0.381013556268133
0.532940986795577,0.382796568082447
0.533346111058809,0.384559446297361
0.533731717530562,0.386302212904024
0.534097759231385,0.388024889893583
0.534444189181823,0.389727499257184
0.534770960402422,0.391410062985975
0.535078025913728,0.393072603071103
0.535365338736288,0.394715141503716
0.535632851890647,0.39633770027496
0.535880518397352,0.397940301375982
0.536108291276948,0.399522966797931
0.536316123549983,0.401085718531953
0.536503968237001,0.402628578569195
0.53667177835855,0.404151568900805
0.536819506935175,0.40565471151793
0.536947106987422,0.407138028411716
0.537054531535838,0.408601541573312
0.537141733600968,0.410045272993864
0.537208666203359,0.41146924466452
0.537255282363557,0.412873478576426
0.537281535102108,0.41425799672073
0.537287377439558,0.41562282108858
0.537272762396453,0.416967973671122
0.53723764299334,0.418293476459504
0.537181972250764,0.419599351444873
0.537105703189272,0.420885620618375
0.53700878882941,0.422152305971159
0.536891182191722,0.423399429494372
0.536752836296758,0.42462701317916
0.536593704165061,0.42583507901667
0.536413738817179,0.427023648998051
0.536212893273656,0.42819274511445
0.53599112055504,0.429342389357012
0.535748373681877,0.430472603716887
0.535484605674713,0.43158341018522
0.535199769554093,0.432674830753159
0.534893818340564,0.433746887411852
0.534566705054672,0.434799602152445
0.534218382716964,0.435832996966086
0.533848804347985,0.436847093843922
0.533457922968281,0.4378419147771
0.533045691598398,0.438817481756767
0.532612063258884,0.439773816774071
0.532156990970283,0.440710941820159
0.531680427753142,0.441628878886177
0.531182326628007,0.442527649963274
0.530662640615424,0.443407277042596
0.530121322735939,0.444267782115291
0.529558326010099,0.445109187172505
0.52897360345845,0.445931514205387
0.528367108101537,0.446734785205082
0.527738792959906,0.447519022162739
0.527088611054105,0.448284247069505
0.526416515404678,0.449030481916527
0.525722459032173,0.449757748694951
0.525006394957135,0.450466069395926
0.52426827620011,0.451155466010598
0.523508055781645,0.451825960530115
0.522725686722285,0.452477574945623
0.521921122042577,0.453110331248271
0.521094314763067,0.453724251429205
0.520245217904301,0.454319357479572
0.519373784486825,0.45489567139052
0.518479967531185,0.455453215153196
0.517563720057928,0.455992010758747
0.516624995087599,0.45651208019832
0.515663745640744,0.457013445463063
0.514679924737911,0.457496128544123
0.513673485399644,0.457960151432646
0.51264438064649,0.458405536119781
0.511592563498995,0.458832304596674
0.510517986977705,0.459240478854472
0.509420604103166,0.459630080884323
0.508300367895925,0.460001132677374
0.507157231376528,0.460353656224772
0.50599114756552,0.460687673517665
0.504802069483448,0.461003206547199
0.503589950150858,0.461300277304522
0.502354742588296,0.46157890778078
0.501096399816308,0.461839119967122
0.49981487485544,0.462080935854695
0.498510120726239,0.462304377434645
0.49718209044925,0.462509466698119
0.49583073704502,0.462696225636266
0.494456013534095,0.462864676240232
0.49305787293702,0.463014840501164
0.491636268274343,0.46314674041021
0.490191152566609,0.463260397958517
0.488722478834363,0.463355835137232
0.487230200098154,0.463433073937502
0.485714269378526,0.463492136350475
0.484174639696025,0.463533044367297
0.482611264071198,0.463555819979115
0.481024095524591,0.463560485177079
0.47941308707675,0.463547061952333
0.477778191748221,0.463515572296026
0.47611936255955,0.463466038199304
0.474436552531284,0.463398481653316
0.472729714683968,0.463312924649207
0.470998802038149,0.463209389178126
0.469243767614372,0.463087897231219
0.467464564433184,0.462948470799634
0.465661145515131,0.462791131874518
0.463833463880759,0.462615902447018
0.461981472550615,0.462422804508281
0.460105124545243,0.462211860049455
0.458204372885192,0.461983091061687
0.456279170591005,0.461736519536123
0.454329470683231,0.461472167463912
0.452355226182414,0.4611900568362
0.450356390109101,0.460890209644135
0.448332915483838,0.460572647878863
0.446284755327171,0.460237393531532
0.444211862659647,0.45988446859329
0.442114190501811,0.459513895055283
0.43999169187421,0.459125694908659
0.437844319797389,0.458719890144564
0.435672027291895,0.458296502754146
0.433474767378273,0.457855554728553
0.431252493077071,0.457397068058931
0.429005157408834,0.456921064736427
0.426732713394109,0.45642756675219
0.42443511405344,0.455916596097365
0.422112312407375,0.455388174763101
0.41976426147646,0.454842324740544
0.417390914281241,0.454279068020842
0.414992223842263,0.453698426595142
0.412568143180073,0.453100422454591
0.410118625315218,0.452485077590336
0.407643623268243,0.451852413993524
0.405143090059694,0.451202453655304
0.402616978710117,0.450535218566821
0.400065242240059,0.449850730719223
0.397487833670066,0.449149012103658
0.394884706020684,0.448430084711272
0.392255812312458,0.447693970533212
0.389601105565936,0.446940691560627
0.386920538801663,0.446170269784663
0.384214065040185,0.445382727196467
0.381481637302049,0.444578085787187
0.3787232086078,0.44375636754797
0.375938731977985,0.442917594469962
0.37312816043315,0.442061788544312
0.370291446993841,0.441188971762166
0.367428544680603,0.440299166114671
0.364539406513984,0.439392393592975
0.361623985514529,0.438468676188226
0.358682234702785,0.437528035891569
0.355714107099297,0.436570494694153
0.352719555724612,0.435596074587125
0.349698533599275,0.434604797561631
0.346650993743834,0.433596685608819
0.343576889178833,0.432571760719837
0.34047617292482,0.431530044885831
0.33734879800234,0.430471560097949
0.33419471743194,0.429396328347337
0.331013884234164,0.428304371625144
0.327806251429561,0.427195711922516
0.324571772038675,0.4260703712306
0.321310399082053,0.424928371540544
0.318022085580241,0.423769734843495
0.314706784553785,0.4225944831306
0.311364449023232,0.421402638393006
0.307995032009127,0.420194222621861
0.304598486532016,0.418969257808311
0.301174765612446,0.417727765943504
0.297723822270963,0.416469769018588
0.294245609528112,0.415195289024708
0.290740080404441,0.413904347953014
0.287207187920494,0.412596967794651
0.283646885096819,0.411273170540767
0.280059124953961,0.409932978182509
0.276443860512466,0.408576412711024
0.272801044792882,0.40720349611746
0.269130630815753,0.405814250392964
0.265432571601625,0.404408697528682
0.261706820171046,0.402986859515763
0.25795332954456,0.401548758345354
0.254172052742715,0.4000944160086
0.250362942786057,0.398623854496651
0.24652595269513,0.397137095800653
0.242661035490482,0.395634161911753
0.238768144192659,0.394115074821098
0.234847231822207,0.392579856519836
0.230898251399671,0.391028528999113
0.226921155945599,0.389461114250078
0.222915898480535,0.387877634263877
0.218882432025027,0.386278111031657
0.214820709599621,0.384662566544567
0.210730684224862,0.383031022793751
0.206612308921296,0.381383501770359
0.202465536709471,0.379720025465538
0.198290320609931,0.378040615870433
0.194086613643223,0.376345294976194
0.189854368829893,0.374634084773966
0.185593539190488,0.372907007254897
0.181304077745553,0.371164084410135
0.176985937515634,0.369405338230826
0.172639071521278,0.367630790708118
0.168263432783031,0.365840463833158
0.163858974321439,0.364034379597093
0.159425649157048,0.36221255999107
0.154963410310403,0.360375027006237
0.150472210802052,0.358521802633741
0.145952003652541,0.356652908864728
0.141402741882414,0.354768367690347
0.13682437851222,0.352868201101744
0.132216866562503,0.350952431090066
0.12758015905381,0.349021079646462
0.122914209006687,0.347074168762077
0.118218969441679,0.345111720428059
0.113494393379335,0.343133756635556
0.108740433840198,0.341140299375715
0.103957043844816,0.339131370639682
0.0991441764137345,0.337106992418605
0.0943017845674997,0.335067186703632
0.0894298213266576,0.333011975485909
0.0845282397117545,0.330941380756583
0.0795969927433363,0.328855424506803
0.0746360334419495,0.326754128727714
0.0696453148281398,0.324637515410465
0.0646247899224537,0.322505606546202
0.0595744117454369,0.320358424126073
0.054494133317636,0.318195990141225
0.0493839076595966,0.316018326582804
0.0442436877918654,0.313825455441959
0.039073426734988,0.311617398709837
0.0338730775095108,0.309394178377584
0.0286425931359798,0.307155816436348
0.0233819266349414,0.304902334877276
0.0180910310269412,0.302633755691516
0.0127698593325259,0.300350100870214
0.00741836457224114,0.298051392404518
0.00203649976663345,0.295737652285574
-0.00337578206375147,0.293408902504531
-0.00881852789836703,0.291065165052535
-0.0142917847166676,0.288706461920734
-0.0197955994981066,0.286332815100274
-0.0253300192221384,0.283944246582304
-0.0308950908682162,0.281540778357969
-0.0364908614157947,0.279122432418418
-0.0421173778443271,0.276689230754798
-0.0477746871332677,0.274241195358255
-0.05346283626207,0.271778348219938
-0.0591818722101883,0.269300711330992
-0.0649318419570761,0.266808306682566
-0.0707127924821876,0.264301156265806
-0.0765247707649764,0.261779282071861
-0.0823678237848966,0.259242706091876
-0.0882419985214019,0.256691450317
-0.0941473419539464,0.254125536738379
-0.100083901061984,0.25154498734716
-0.106051722824968,0.248949824134492
-0.112050854222353,0.24634006909152
-0.118081342233592,0.243715744209393
-0.12414323383814,0.241076871479257
-0.13023657601545,0.23842347289226
-0.136361415744977,0.235755570439549
-0.142517800006174,0.233073186112271
-0.148705775778494,0.230376341901573
-0.154925390041392,0.227665059798603
-0.161176689774322,0.224939361794507
-0.167459721956738,0.222199269880433
-0.173774533568093,0.219444806047529
-0.180121171587842,0.21667599228694
-0.186499682995438,0.213892850589816
-0.192910114770335,0.211095402947302
-0.199352513891987,0.208283671350546
-0.205826927339848,0.205457677790695
-0.212333402093371,0.202617444258896
-0.218871985132011,0.199762992746297
-0.225442723435222,0.196894345244045
-0.232045663982457,0.194011523743286
-0.23868085375317,0.191114550235169
-0.245348339726816,0.18820344671084
-0.252048168882847,0.185278235161447
-0.258780388200719,0.182338937578137
-0.265545044659884,0.179385575952057
-0.272342185239797,0.176418172274353
-0.279171856919911,0.173436748536175
-0.286034106679681,0.170441326728667
-0.29292898149856,0.167431928842979
-0.299856528356003,0.164408576870257
-0.306816794231462,0.161371292801648
-0.313809826104392,0.158320098628299
-0.320835670954247,0.155255016341358
-0.327894375760481,0.152176067931972
-0.334985987502547,0.149083275391288
-0.3421105531599,0.145976660710453
-0.349268119711993,0.142856245880615
-0.356458734138281,0.139722052892921
-0.363682443418216,0.136574103738517
-0.370939294531254,0.133412420408551
-0.378229334456847,0.130237024894171
-0.38555261017445,0.127047939186523
-0.392909168663516,0.123845185276755
-0.4002990569035,0.120628785156014
