0.436803059499522,-0.923654843808637
0.426718699349074,-0.916867569413126
0.416691761221059,-0.91009237149256
0.40672210641329,-0.903329375830995
0.396809596223582,-0.896578708212487
0.386954091949748,-0.889840494421089
0.377155454889602,-0.883114860240858
0.367413546340958,-0.876401931455847
0.357728227601629,-0.869701833850112
0.34809935996943,-0.863014693207709
0.338526804742173,-0.856340635312691
0.329010423217673,-0.849679785949115
0.319550076693744,-0.843032270901035
0.310145626468199,-0.836398215952506
0.300796933838852,-0.829777746887583
0.291503860103517,-0.823170989490322
0.282266266560007,-0.816578069544777
0.273084014506137,-0.809999112835003
0.26395696523972,-0.803434245145055
0.254884980058569,-0.796883592258989
0.245867920260499,-0.790347279960859
0.236905647143324,-0.783825434034721
0.227998022004856,-0.777318180264629
0.21914490614291,-0.770825644434639
0.2103461608553,-0.764347952328805
0.20160164743984,-0.757885229731183
0.192911227194342,-0.751437602425828
0.184274761416621,-0.745005196196794
0.175692111404491,-0.738588136828136
0.167163138455766,-0.732186550103911
0.158687703868258,-0.725800561808172
0.150265668939783,-0.719430297724974
0.141896894968153,-0.713075883638374
0.133581243251183,-0.706737445332426
0.125318575086685,-0.700415108591184
0.117108751772475,-0.694108999198704
0.108951634606366,-0.687819242939041
0.100847084886171,-0.68154596559625
0.0927949639097037,-0.675289292954386
0.0847951329747789,-0.669049350797504
0.0768474533792098,-0.662826264909659
0.0689517864208103,-0.656620161074906
0.0611079933973939,-0.6504311650773
0.0533159356067746,-0.644259402700896
0.0455754743467662,-0.638104999729749
0.0378864709151823,-0.631968081947915
0.0302487866098366,-0.625848775139447
0.022662282728543,-0.619747205088402
0.0151268205691153,-0.613663497578834
0.00764226142936714,-0.607597778394799
0.000208466607112337,-0.60155017332035
-0.00717470259983544,-0.595520808139544
-0.0145073848936622,-0.589509808636436
-0.0217897189765545,-0.58351730059508
-0.0290218435506984,-0.577543409799531
-0.0362038973182802,-0.571588262033845
-0.043336018981486,-0.565651983082076
-0.0504183472425021,-0.55973469872828
-0.057451020803515,-0.553836534756512
-0.0644341783667105,-0.547957616950825
-0.0713679586342752,-0.542098071095277
-0.0782525003083952,-0.536258022973922
-0.0850879420912567,-0.530437598370814
-0.0918744226850461,-0.524636923070008
-0.0986120807919495,-0.51885612285556
-0.105301055114153,-0.513095323511526
-0.111941484353843,-0.507354650821959
-0.118533507213206,-0.501634230570914
-0.125077262394428,-0.495934188542448
-0.131572888599695,-0.490254650520615
-0.138020524531194,-0.484595742289469
-0.14442030889111,-0.478957589633067
-0.15077238038163,-0.473340318335462
-0.157076877704941,-0.467744054180711
-0.163333939563228,-0.462168922952867
-0.169543704658678,-0.456615050435987
-0.175706311693476,-0.451082562414125
-0.18182189936981,-0.445571584671336
-0.187890606389865,-0.440082242991675
-0.193912571455828,-0.434614663159197
-0.199887933269885,-0.429168970957957
-0.205816830534221,-0.423745292172011
-0.211699401951025,-0.418343752585413
-0.21753578622248,-0.412964477982218
-0.223326122050775,-0.407607594146482
-0.229070548138095,-0.402273226862259
-0.234769203186626,-0.396961501913604
-0.240422225898555,-0.391672545084573
-0.246029754976067,-0.386406482159221
-0.25159192912135,-0.381163438921602
-0.257108887036589,-0.375943541155771
-0.26258076742397,-0.370746914645784
-0.26800770898568,-0.365573685175696
-0.273389850423906,-0.360423978529561
-0.278727330440832,-0.355297920491435
-0.284020287738646,-0.350195636845372
-0.289268861019534,-0.345117253375428
-0.294473188985682,-0.340062895865658
-0.299633410339276,-0.335032690100117
-0.304749663782502,-0.33002676186286
-0.309822088017547,-0.325045236937941
-0.314850821746597,-0.320088241109417
-0.319836003671839,-0.315155900161341
-0.324777772495457,-0.310248339877769
-0.32967626691964,-0.305365686042756
-0.334531625646572,-0.300508064440357
-0.339343987378441,-0.295675600854627
-0.344113490817432,-0.290868421069621
-0.348840274665731,-0.286086650869394
-0.353524477625526,-0.281330416038001
-0.358166238399001,-0.276599842359498
-0.362765695688344,-0.271895055617938
-0.367322988195741,-0.267216181597378
-0.371838254623377,-0.262563346081872
-0.37631163367344,-0.257936674855475
-0.380743264048114,-0.253336293702243
-0.385133284449588,-0.24876232840623
-0.389481833580046,-0.244214904751491
-0.393789050141675,-0.239694148522082
-0.398055072836662,-0.235200185502057
-0.402280040367192,-0.230733141475471
-0.406464091435452,-0.22629314222638
-0.410607364743628,-0.221880313538839
-0.414709998993906,-0.217494781196902
-0.418772132888472,-0.213136670984624
-0.422793905129514,-0.208806108686061
-0.426775454419216,-0.204503220085268
-0.430716919459766,-0.200228130966299
-0.434618438953349,-0.195980967113211
-0.438480151602152,-0.191761854310056
-0.44230219610836,-0.187570918340892
-0.446084711174161,-0.183408284989772
-0.449827835501741,-0.179274080040752
-0.453531707793285,-0.175168429277887
-0.45719646675098,-0.171091458485232
-0.460822251077012,-0.167043293446842
-0.464409199473567,-0.163024059946771
-0.467957450642832,-0.159033883769076
-0.471467143286993,-0.155072890697811
-0.474938416108236,-0.15114120651703
-0.478371407808748,-0.14723895701079
-0.481766257090714,-0.143366267963145
-0.485123102656321,-0.13952326515815
-0.488442083207754,-0.135710074379859
-0.491723337447202,-0.13192682141233
-0.494967004076849,-0.128173632039615
-0.498173221798881,-0.124450632045771
-0.501342129315486,-0.120757947214851
-0.504473865328849,-0.117095703330913
-0.507568568541156,-0.113464026178009
-0.510626377654595,-0.109863041540196
-0.51364743137135,-0.106292875201528
-0.516631868393609,-0.10275365294606
-0.519579827423557,-0.0992455005578486
-0.52249144716338,-0.095768543820947
-0.525366866315266,-0.092322908519411
-0.5282062235814,-0.0889087204372955
-0.531009657663969,-0.0855261053586557
-0.533777307265158,-0.0821751890675463
-0.536509311087154,-0.0788560973480226
-0.539205807832143,-0.0755689559841396
-0.541866936202312,-0.0723138907599523
-0.544492834899846,-0.0690910274595156
-0.547083642626932,-0.0659004918668846
-0.549639498085757,-0.0627424097661146
-0.552160539978505,-0.0596169069412602
-0.554646907007365,-0.0565241091763767
-0.557098737874521,-0.0534641422555191
-0.55951617128216,-0.0504371319627424
-0.561899345932469,-0.0474432040821016
-0.564248400527633,-0.0444824843976517
-0.566563473769839,-0.0415550986934478
-0.568844704361274,-0.038661172753545
-0.571092231004122,-0.0358008323619983
-0.573306192400571,-0.0329742033028625
-0.575486727252807,-0.0301814113601929
-0.577633974263016,-0.0274225823180444
-0.579748072133384,-0.0246978419604722
-0.581829159566098,-0.022007316071531
-0.583877375263343,-0.0193511304352761
-0.585892857927307,-0.0167294108357625
-0.587875746260175,-0.0141422830570452
-0.589826178964133,-0.0115898728831792
-0.591744294741368,-0.00907230609821943
-0.593630232294066,-0.00658970848622126
-0.595484130324413,-0.00414220583123935
-0.597306127534595,-0.00172992391732892
-0.5990963626268,0.000647011471455086
-0.600854974303212,0.00298847455105751
-0.602582101266018,0.00529433953742343
-0.604277882217405,0.00756448064649781
-0.605942455859558,0.00979877209422558
-0.607575960894664,0.0119970880965517
-0.60917853602491,0.0141593028694212
-0.610750319952481,0.0162852906287791
-0.612291451379563,0.0183749255905702
-0.613802069008344,0.0204280819707395
-0.615282311541008,0.0224446339852321
-0.616732317679743,0.0244244558499929
-0.618152226126734,0.0263674217809669
-0.619542175584168,0.0282734059940989
-0.620902304754231,0.0301422827053342
-0.62223275233911,0.0319739261306174
-0.62353365704099,0.0337682104858937
-0.624805157562058,0.035525009987108
-0.6260473926045,0.0372441988502053
-0.627260500870502,0.0389256512911306
-0.628444621062251,0.0405692415258288
-0.629599891881932,0.0421748437702448
-0.630726452031732,0.0437423322403238
-0.631824440213838,0.0452715811520105
-0.632893995130435,0.0467624647212501
-0.63393525548371,0.0482148571639874
-0.634948359975849,0.0496286326961676
-0.635933447309038,0.0510036655337353
-0.644182574564374,0.0313458478658715
-0.619953744989027,0.0678295770362625
-0.638721993376769,0.0548950500382147
-0.609348706294781,0.0496916314295998
-0.626192962514391,0.0328296307606095
-0.653836708107834,0.0236272097274996
-0.642056229174411,0.0595335340869433
-0.65101686409262,0.0683907264648462
-0.638245557262814,0.0583796786662166
-0.644273891379662,0.0625954732136308
-0.644959944308695,0.0635360346628314
-0.654458854127375,0.0609606050567368
-0.676713081698207,0.0534156355668058
-0.64686054150825,0.0661157032545772
-0.647442015719541,0.0668945015863571
-0.640873832426113,0.0741304909869896
-0.626783626300794,0.064843310438761
-0.676810235649445,0.0742446936709147
-0.649511320346868,0.0696008846779983
-0.614342752894424,0.0691502703736521
-0.650393959160437,0.0707070291057617
-0.665068707354275,0.0556121312717807
-0.628203865407048,0.0470933271680195
-0.687649902839548,0.0596680353739866
-0.685755795733827,0.0732816575873103
-0.652166083542698,0.0727437649373054
-0.630911294302334,0.0823920717142309
-0.626782099959046,0.0684569820387054
-0.614300248336581,0.0652325789233564
-0.653146051236807,0.0736154087531047
-0.665500596340861,0.0826306667903953
-0.653493175928059,0.073795881795315
-0.653631508942386,0.0738218408558053
-0.653746540672095,0.0738047805638123
-0.653838409819373,0.0737445751352809
-0.653907255086406,0.0736410987861561
-0.65395321517538,0.0734942257323829
-0.653976428788481,0.0733038301899063
-0.653977034627896,0.0730697863746712
-0.65395517139581,0.0727919685026226
-0.653910977794411,0.0724702507897055
-0.653844592525884,0.0721045074518648
-0.653756154292416,0.0716946127050455
-0.653645801796193,0.0712404407651926
-0.6535136737394,0.070741865848251
-0.653359908824225,0.0701987621701658
-0.653184645752853,0.0696110039468819
-0.652988023227471,0.0689784653943441
-0.652770179950266,0.0683010207284977
-0.652531254623422,0.0675785441652874
-0.652271385949127,0.0668109099206583
-0.651990712629567,0.0659979922105554
-0.651689373366927,0.0651396652509235
-0.651367506863395,0.0642358032577077
-0.651025251821156,0.063286280446853
-0.650662746942397,0.0622909710343043
-0.650280130929304,0.0612497492360065
-0.649877542484063,0.0601624892679047
-0.649455120308861,0.0590290653459438
-0.649013003105883,0.0578493516860689
-0.648551329577316,0.0566232225042248
-0.648070238425347,0.0553505520163565
-0.64756986835216,0.054031214438409
-0.647050358059944,0.0526650839863274
-0.646511846250883,0.0512520348760564
-0.645954471627164,0.0497919413235412
-0.645378372890974,0.0482846775447265
-0.644783688744498,0.0467301177555577
-0.644170557889923,0.0451281361719793
-0.643539119029435,0.0434786070099367
-0.642889510865221,0.0417814044853745
-0.642221872099466,0.0400364028142379
-0.641536341434356,0.0382434762124718
-0.640833057572079,0.0364024988960212
-0.640112159214821,0.0345133450808309
-0.639373785064766,0.0325758889828462
-0.638618073824103,0.0305900048180117
-0.637845164195016,0.0285555668022727
-0.637055194879693,0.0264724491515739
-0.636248304580319,0.0243405260818605
-0.635424631999081,0.0221596718090772
-0.634584315838165,0.0199297605491693
-0.633727494799757,0.0176506665180815
-0.632854307586043,0.0153222639317589
-0.631964892899211,0.0129444270061464
-0.631059389441445,0.0105170299571891
-0.630137935914932,0.00803994700083174
-0.629200671021859,0.00551305235301952
-0.628247733464411,0.00293622022969724
-0.627279261944776,0.000309324846810038
-0.626295395165138,-0.0023677595796973
-0.625296271827685,-0.00509515883387965
-0.624282030634602,-0.00787299869979215
-0.623252810288077,-0.0107014049614897
-0.622208749490294,-0.0135805034030275
-0.621149986943441,-0.0165104198084604
-0.620076661349703,-0.0194912799618437
-0.618988911411268,-0.0225232096472321
-0.61788687583032,-0.025606334648681
-0.616770693309046,-0.0287407807502449
-0.615640502549634,-0.0319266737359795
-0.614496442254267,-0.0351641393899392
-0.613338651125134,-0.0384533034961795
-0.612167267864421,-0.0417942918387551
-0.610982431174312,-0.0451872302017212
-0.609784279756996,-0.0486322443691327
-0.608572952314657,-0.052129460125045
-0.607348587549483,-0.0556790032535126
-0.606111324163659,-0.059280999538591
-0.604861300859372,-0.0629355747643348
-0.603598656338808,-0.0666428547147995
-0.602323529304153,-0.0704029651740397
-0.601036058457594,-0.0742160319261107
-0.599736382501316,-0.0780821807550673
-0.598424640137506,-0.0820015374449649
-0.597100970068351,-0.0859742277798581
-0.595765510996035,-0.0900003775438022
-0.594418401622747,-0.0940801125208522
-0.593059780650671,-0.0982135584950631
-0.591689786781995,-0.10240084125049
-0.590308558718903,-0.106642086571188
-0.588916235163584,-0.110937420241211
-0.587512954818222,-0.115286968044616
-0.586098856385004,-0.119690855765457
-0.584674078566117,-0.124149209187789
-0.583238760063746,-0.128662154095667
-0.581793039580078,-0.133229816273146
-0.5803370558173,-0.137852321504281
-0.578870947477596,-0.142529795573128
-0.577394853263154,-0.14726236426374
-0.57590891187616,-0.152050153360174
-0.574413262018799,-0.156893288646484
-0.57290804239326,-0.161791895906726
-0.571393391701726,-0.166746100924954
-0.569869448646386,-0.171756029485223
-0.568336351929424,-0.176821807371589
-0.566794240253027,-0.181943560368106
-0.565243252319382,-0.18712141425883
-0.563683526830675,-0.192355494827815
-0.562115202489092,-0.197645927859116
-0.560538417996819,-0.20299283913679
-0.558953312056042,-0.208396354444889
-0.557360023368948,-0.213856599567471
-0.555758690637723,-0.219373700288589
-0.554149452564553,-0.224947782392299
-0.552532447851625,-0.230578971662655
-0.550907815201124,-0.236267393883713
-0.549275693315237,-0.242013174839528
-0.54763622089615,-0.247816440314155
-0.545989536646049,-0.253677316091649
-0.544335779267122,-0.259595927956064
-0.542675087461553,-0.265572401691456
-0.541007599931529,-0.271606863081881
-0.539333455379236,-0.277699437911392
-0.537652792506861,-0.283850251964045
-0.53596575001659,-0.290059431023895
-0.534272466610608,-0.296327100874998
-0.532573080991103,-0.302653387301407
-0.530867731860261,-0.309038416087179
-0.529156557920268,-0.315482313016367
-0.527439697873309,-0.321985203873028
-0.525717290421572,-0.328547214441216
-0.523989474267242,-0.335168470504986
-0.522256388112506,-0.341849097848393
-0.52051817065955,-0.348589222255493
-0.51877496061056,-0.35538896951034
-0.517026896667722,-0.36224846539699
-0.515274117533224,-0.369167835699496
-0.51351676190925,-0.376147206201916
-0.511754968497987,-0.383186702688302
-0.509988876001622,-0.390286450942712
-0.508218623122341,-0.397446576749198
-0.506444348562329,-0.404667205891817
-0.504666191023774,-0.411948464154624
-0.502884289208861,-0.419290477321673
-0.501098781819777,-0.42669337117702
-0.499309807558707,-0.43415727150472
-0.497517505127839,-0.441682304088827
-0.495722013229358,-0.449268594713397
-0.49392347056545,-0.456916269162484
-0.492122015838303,-0.464625453220145
-0.490317787750101,-0.472396272670433
-0.488510925003032,-0.480228853297404
-0.486701566299281,-0.488123320885113
-0.484889850341035,-0.496079801217615
-0.484889850341035,-0.496079801217615
-0.483070674331289,-0.504029245706989
-0.481238966235086,-0.511902658946976
-0.479394910897691,-0.519700246494127
-0.477538693164367,-0.52742221390499
-0.475670497880377,-0.535068766736115
-0.473790509890984,-0.542640110544052
-0.47189891404145,-0.550136450885349
-0.46999589517704,-0.557557993316555
-0.468081638143017,-0.564904943394221
-0.466156327784642,-0.572177506674896
-0.464220148947181,-0.579375888715129
-0.462273286475895,-0.586500295071469
-0.460315925216048,-0.593550931300466
-0.458348250012904,-0.600528002958669
-0.456370445711724,-0.607431715602627
-0.454382697157773,-0.61426227478889
-0.452385189196313,-0.621019886074007
-0.450378106672608,-0.627704755014528
-0.448361634431921,-0.634317087167001
-0.446335957319515,-0.640857088087977
-0.444301260180652,-0.647324963334004
-0.442257727860597,-0.653720918461632
-0.440205545204612,-0.66004515902741
-0.438144897057961,-0.666297890587888
-0.436075968265906,-0.672479318699616
-0.433998943673711,-0.678589648919141
-0.431914008126639,-0.684629086803013
-0.429821346469953,-0.690597837907783
-0.427721143548916,-0.69649610779
-0.425613584208791,-0.702324102006212
-0.423498853294841,-0.708082026112969
-0.421377135652331,-0.71377008566682
-0.419248616126522,-0.719388486224316
-0.417113479562677,-0.724937433342004
-0.414971910806061,-0.730417132576435
-0.412824094701936,-0.735827789484158
-0.410670216095565,-0.741169609621722
-0.408510459832211,-0.746442798545677
-0.406345010757138,-0.751647561812572
-0.404174053715609,-0.756784104978955
-0.401997773552886,-0.761852633601378
-0.399816355114234,-0.766853353236388
-0.397629983244914,-0.771786469440536
-0.395438842790191,-0.776652187770371
-0.393243118595327,-0.781450713782441
-0.391042995505585,-0.786182253033297
-0.388838658366229,-0.790847011079488
-0.386630292022522,-0.795445193477563
-0.384418081319727,-0.799977005784071
-0.382202211103107,-0.804442653555562
-0.379982866217925,-0.808842342348586
-0.377760231509444,-0.813176277719691
-0.375534491822928,-0.817444665225427
-0.373305832003639,-0.821647710422343
-0.371074436896841,-0.825785618866988
-0.368840491347797,-0.829858596115913
-0.36660418020177,-0.833866847725666
-0.364365688304023,-0.837810579252796
-0.36212520049982,-0.841689996253853
-0.359882901634423,-0.845505304285388
-0.357638976553095,-0.849256708903947
-0.3553936101011,-0.852944415666082
-0.353146987123701,-0.856568630128341
-0.350899292466161,-0.860129557847274
-0.348650710973743,-0.86362740437943
-0.346401427491711,-0.867062375281359
-0.344151626865326,-0.870434676109609
-0.341901493939853,-0.873744512420731
-0.339651213560555,-0.876992089771273
-0.337400970572695,-0.880177613717785
-0.335150949821535,-0.883301289816816
-0.33290133615234,-0.886363323624917
-0.330652314410372,-0.889363920698635
-0.328404069440894,-0.89230328659452
-0.32615678608917,-0.895181626869122
-0.323910649200463,-0.897999147078991
-0.321665843620035,-0.900756052780674
-0.31942255419315,-0.903452549530722
-0.317180965765071,-0.906088842885685
-0.314941263181062,-0.908665138402111
-0.312703631286384,-0.911181641636549
-0.310468254926302,-0.91363855814555
-0.308235318946079,-0.916036093485662
-0.306005008190977,-0.918374453213436
-0.303777507506261,-0.920653842885419
-0.301553001737192,-0.922874468058162
-0.299331675729034,-0.925036534288214
-0.297113714327051,-0.927140247132125
-0.294899302376506,-0.929185812146443
-0.29268862472266,-0.931173434887718
-0.290481866210779,-0.933103320912499
-0.288279211686124,-0.934975675777336
-0.28608084599396,-0.936790705038779
-0.283886953979548,-0.938548614253375
-0.281697720488153,-0.940249608977676
-0.279513330365037,-0.941893894768229
-0.277333968455463,-0.943481677181585
-0.275159819604696,-0.945013161774293
-0.272991068657997,-0.946488554102902
-0.27082790046063,-0.947908059723962
-0.268670499857858,-0.949271884194022
-0.266519051694944,-0.95058023306963
-0.264373740817152,-0.951833311907337
-0.262234752069744,-0.953031326263693
-0.260102270297984,-0.954174481695246
-0.257976480347135,-0.955262983758545
-0.255857567062459,-0.956297038010141
-0.253745715289221,-0.957276850006582
-0.251641109872683,-0.958202625304417
-0.249543935658108,-0.959074569460197
-0.247454377490759,-0.95989288803047
-0.245372620215901,-0.960657786571786
-0.243298848678795,-0.961369470640695
-0.241233247724705,-0.962028145793744
-0.239176002198893,-0.962634017587484
-0.237127296946624,-0.963187291578465
-0.235087316813161,-0.963688173323236
-0.233056246643765,-0.964136868378345
-0.231034271283702,-0.964533582300343
-0.229021575578233,-0.964878520645778
-0.227018344372622,-0.965171888971201
-0.225024762512132,-0.965413892833159
-0.223041014842025,-0.965604737788203
-0.221067286207567,-0.965744629392883
-0.219103761454018,-0.965833773203747
-0.217150625426644,-0.965872374777344
-0.215208062970705,-0.965860639670225
-0.213276258931467,-0.965798773438938
-0.211355398154192,-0.965686981640034
-0.209445665484143,-0.96552546983006
-0.207547245766582,-0.965314443565567
-0.205660323846775,-0.965054108403103
-0.203785084569983,-0.96474466989922
-0.201921712781469,-0.964386333610464
-0.200070393326497,-0.963979305093386
-0.198231311050331,-0.963523789904537
-0.196404650798232,-0.963019993600464
-0.194590597415464,-0.962468121737716
-0.192789335747291,-0.961868379872844
-0.191001050638975,-0.961220973562397
-0.18922592693578,-0.960526108362924
-0.187464149482969,-0.959783989830974
-0.185715903125804,-0.958994823523097
-0.18398137270955,-0.958158814995843
-0.182260743079468,-0.95727616980576
-0.180554199080823,-0.956347093509397
-0.178861925558878,-0.955371791663305
-0.177184107358895,-0.954350469824032
-0.175520929326138,-0.953283333548129
-0.173872576305869,-0.952170588392144
-0.172239233143353,-0.951012439912626
-0.170621084683851,-0.949809093666125
-0.169018315772628,-0.948560755209191
-0.167431111254947,-0.947267630098373
-0.16585965597607,-0.945929923890219
-0.16430413478126,-0.94454784214128
-0.162764732515782,-0.943121590408105
-0.161241634024897,-0.941651374247243
-0.15973502415387,-0.940137399215243
-0.158245087747962,-0.938579870868655
-0.156772009652438,-0.936978994764029
-0.155315974712561,-0.935334976457912
-0.153877167773593,-0.933648021506856
-0.152455773680798,-0.931918335467409
-0.151051977279439,-0.930146123896121
-0.149665963414779,-0.928331592349541
-0.148297916932081,-0.926474946384217
-0.146948022676609,-0.924576391556701
-0.145616465493625,-0.922636133423541
-0.144303430228393,-0.920654377541286
-0.143009101726175,-0.918631329466485
-0.141733664832235,-0.916567194755689
-0.140477304391837,-0.914462178965447
-0.139240205250242,-0.912316487652307
-0.138022552252715,-0.910130326372819
-0.136824530244518,-0.907903900683533
-0.135646324070915,-0.905637416140998
-0.134488118577169,-0.903331078301762
-0.133350098608542,-0.900985092722377
-0.132232449010299,-0.89859966495939
-0.131135354627701,-0.896175000569352
-0.130059000306013,-0.893711305108811
-0.129003570890497,-0.891208784134317
-0.127969251226417,-0.88866764320242
-0.126956226159035,-0.886088087869669
-0.125964680533616,-0.883470323692612
-0.124994799195421,-0.8808145562278
-0.124046766989714,-0.878120991031781
-0.123120768761759,-0.875389833661106
-0.122216989356818,-0.872621289672323
-0.121335613620154,-0.869815564621982
-0.120476826397032,-0.866972864066632
-0.119640812532713,-0.864093393562823
-0.118827756872461,-0.861177358667104
-0.118037844261538,-0.858224964936024
-0.11727125954521,-0.855236417926132
-0.116528187568737,-0.852211923193979
-0.115808813177384,-0.849151686296112
-0.115113321216414,-0.846055912789083
-0.114441896531089,-0.842924808229439
-0.113794723966673,-0.839758578173731
-0.11317198836843,-0.836557428178508
-0.112573874581621,-0.833321563800318
-0.112000567451511,-0.830051190595712
-0.111452251823362,-0.826746514121239
-0.110929112542438,-0.823407739933448
-0.110431334454002,-0.820035073588889
-0.109959102403316,-0.81662872064411
-0.109512601235644,-0.813188886655662
-0.10909201579625,-0.809715777180093
-0.108697530930396,-0.806209597773953
-0.108329331483345,-0.802670553993792
-0.107987602300361,-0.799098851396157
-0.107672528226707,-0.795494695537601
-0.107384294107645,-0.79185829197467
-0.107123084788439,-0.788189846263915
-0.106889085114353,-0.784489563961885
-0.106682479930648,-0.78075765062513
-0.106503454082589,-0.776994311810198
-0.106352192415439,-0.773199753073639
-0.10622887977446,-0.769374179972003
-0.106133701004916,-0.765517798061839
-0.10606684095207,-0.761630812899696
-0.106028484461185,-0.757713430042123
-0.106018816377524,-0.75376585504567
-0.106038021546351,-0.749788293466887
-0.106086284812928,-0.745780950862322
-0.106163791022519,-0.741744032788525
-0.106270725020386,-0.737677744802046
-0.106407271651794,-0.733582292459433
-0.106573615762004,-0.729457881317236
-0.106769942196281,-0.725304716932004
-0.106996435799887,-0.721123004860287
-0.107253281418085,-0.716912950658634
-0.107540663896139,-0.712674759883595
-0.107858768079312,-0.708408638091719
-0.108207778812866,-0.704114790839554
-0.108587880942066,-0.699793423683651
-0.108999259312174,-0.695444742180559
-0.109442098768453,-0.691068951886828
-0.109916584156166,-0.686666258359005
-0.110422900320577,-0.682236867153642
-0.110961232106949,-0.677780983827287
-0.111531764360545,-0.67329881393649
-0.112134681926627,-0.668790563037799
-0.11277016965046,-0.664256436687765
-0.113438412377306,-0.659696640442937
-0.114139594952428,-0.655111379859863
-0.11487390222109,-0.650500860495094
-0.115641519028554,-0.645865287905179
-0.116442630220084,-0.641204867646667
-0.117277420640944,-0.636519805276107
-0.118146075136395,-0.631810306350049
-0.119048778551701,-0.627076576425043
-0.119985715732126,-0.622318821057637
-0.120957071522933,-0.61753724580438
-0.121963030769384,-0.612732056221823
-0.123003778316742,-0.607903457866515
-0.124079499010272,-0.603051656295004
-0.125190377695236,-0.598176857063841
-0.126336599216897,-0.593279265729575
-0.127518348420518,-0.588359087848754
-0.128735810151363,-0.583416528977929
-0.129989169254694,-0.578451794673649
-0.131278610575775,-0.573465090492463
-0.132604318959869,-0.56845662199092
-0.133966479252239,-0.563426594725569
-0.135365276298148,-0.558375214252962
-0.136800894942859,-0.553302686129645
-0.138273520031636,-0.548209215912169
-0.139783336409741,-0.543095009157084
-0.141330528922438,-0.537960271420938
-0.14291528241499,-0.532805208260281
-0.14453778173266,-0.527630025231662
-0.146198211720711,-0.522434927891631
-0.147896757224406,-0.517220121796737
-0.149633603089009,-0.511985812503529
-0.151408934159782,-0.506732205568557
-0.153222935281989,-0.50145950654837
-0.155075791300893,-0.496167920999518
-0.156967687061756,-0.490857654478549
-0.158898807409843,-0.485528912542013
-0.160869337190416,-0.48018190074646
-0.162879461248738,-0.474816824648438
-0.164929364430073,-0.469433889804498
-0.167019231579683,-0.464033301771188
-0.169149247542833,-0.458615266105058
-0.171319597164784,-0.453179988362657
-0.1735304652908,-0.447727674100535
-0.175782036766144,-0.442258528875241
-0.17807449643608,-0.436772758243324
-0.18040802914587,-0.431270567761334
-0.182782819740778,-0.425752162985819
-0.185199053066066,-0.420217749473331
-0.187656913966999,-0.414667532780416
-0.190156587288838,-0.409101718463626
-0.192698257876848,-0.40352051207951
-0.19528211057629,-0.397924119184616
-0.19790833023243,-0.392312745335494
-0.200577101690529,-0.386686596088694
-0.20328860979585,-0.381045877000764
-0.206043039393657,-0.375390793628255
-0.208840575329214,-0.369721551527715
-0.211681402447782,-0.364038356255695
-0.214565705594626,-0.358341413368742
-0.217493669615008,-0.352630928423407
-0.220465479354192,-0.346907106976239
-0.22348131965744,-0.341170154583788
-0.226541375370017,-0.335420276802602
-0.229645831337184,-0.329657679189231
-0.232794872404205,-0.323882567300224
-0.235988683416343,-0.318095146692132
-0.239227449218862,-0.312295622921502
-0.242511354657025,-0.306484201544885
-0.245840584576094,-0.300661088118829
-0.249215323821332,-0.294826488199885
-0.252635757238004,-0.288980607344601
-0.256102069671372,-0.283123651109528
-0.259614445966699,-0.277255825051213
-0.263173070969248,-0.271377334726207
-0.266778129524283,-0.265488385691059
-0.270429806477066,-0.259589183502318
-0.274128286672861,-0.253679933716534
-0.277873754956931,-0.247760841890256
-0.281666396174539,-0.241832113580033
-0.285506395170948,-0.235893954342415
-0.289393936791422,-0.22994656973395
-0.293329205881223,-0.22399016531119
-0.297312387285614,-0.218024946630682
-0.30134366584986,-0.212051119248976
-0.305423226419222,-0.206068888722622
-0.309551253838964,-0.200078460608169
-0.313727932954349,-0.194080040462165
-0.31795344861064,-0.188073833841162
-0.322227985653101,-0.182060046301707
-0.326551728926995,-0.17603888340035
-0.330924863277584,-0.170010550693641
-0.335347573550132,-0.16397525373813
-0.339820044589902,-0.157933198090364
-0.344342461242156,-0.151884589306894
-0.34891500835216,-0.145829632944269
-0.353537870765174,-0.139768534559039
-0.358211233326463,-0.133701499707752
-0.36293528088129,-0.127628733946958
-0.367710198274918,-0.121550442833207
-0.372536170352609,-0.115466831923047
-0.377413381959627,-0.109378106773029
-0.382342017941236,-0.103284472939701
-0.387322263142698,-0.0971861359796131
-0.392354302409277,-0.0910833014493145
-0.397438320586235,-0.0849761749053542
-0.402574502518836,-0.0788649619042821
-0.407763033052342,-0.072749868002647
-0.413004097032018,-0.0666310987569989
-0.418297879303126,-0.0605088597238865
-0.42364456471093,-0.0543833564598597
-0.429044338100691,-0.0482547945214673
-0.434497384317675,-0.0421233794652592
-0.440003888207143,-0.0359893168477843
-0.445564034614358,-0.0298528122255924
-0.451178008384585,-0.0237140711552324
-0.456845994363086,-0.0175732991932541
-0.462568177395125,-0.0114307018962064
-0.468344742325963,-0.00528648482063912
-0.474175874000866,0.000859146476898887
-0.480061757265094,0.00700598643985767
-0.486002576963913,0.0131538295116885
-0.491998517942585,0.0193024701358415
-0.498049765046373,0.0254517027557678
-0.50415650312054,0.0316013218149175
-0.510318917010349,0.0377511217567419
-0.516537191561064,0.0439008970246908
-0.522811511617948,0.0500504420622158
-0.529142062026263,0.0561995513127667
-0.535529027631274,0.0623480192197948
-0.541972593278242,0.0684956402267501
-0.548472943812432,0.074642208777084
-0.555030264079105,0.0807875193142464
-0.561644738923527,0.0869313662816886
-0.568316553190959,0.0930735441228607
-0.575045891726665,0.0992138472812139
-0.581832939375907,0.105352070200198
-0.58867788098395,0.111488007323265
-0.595580901396056,0.117621453093864
-0.602542185457488,0.123752201955447
-0.60956191801351,0.129880048351463
-0.616640283909384,0.136004786725364
-0.623777467990374,0.142126211520601
-0.630973655101743,0.148244117180624
-0.638229030088754,0.154358298148883
-0.64554377779667,0.160468548868829
-0.652918083070754,0.166574663783913
-0.66035213075627,0.172676437337586
-0.66784610569848,0.178773663973298
-0.675400192742648,0.1848661381345
-0.683014576734037,0.190953654264642
-0.69068944251791,0.197036006807175
-0.698424974939529,0.20311299020555
-0.70622135884416,0.209184398903218
