0.758121590363563,-0.831374317279223
0.758625251419523,-0.829343464755823
0.759072780748588,-0.827283053831845
0.759464446787876,-0.825193219599346
0.759800517974506,-0.823074097150387
0.760081262745596,-0.820925821577026
0.760306949538266,-0.818748527971321
0.760477846789634,-0.816542351425331
0.760594222936818,-0.814307427031116
0.760656346416938,-0.812043889880732
0.760664485667111,-0.80975187506624
0.760618909124457,-0.807431517679697
0.760519885226095,-0.805082952813164
0.760367682409143,-0.802706315558697
0.760162569110719,-0.800301741008356
0.759904813767942,-0.7978693642542
0.759594684817932,-0.795409320388288
0.759232450697806,-0.792921744502677
0.758818379844684,-0.790406771689427
0.758352740695683,-0.787864537040596
0.757835801687924,-0.785295175648243
0.757267831258524,-0.782698822604427
0.756649097844602,-0.780075613001207
0.755979869883277,-0.77742568193064
0.755260415811668,-0.774749164484786
0.754491004066893,-0.772046195755704
0.75367190308607,-0.769316910835452
0.752803381306319,-0.766561444816089
0.751885707164758,-0.763779932789673
0.750919149098506,-0.760972509848264
0.749903975544682,-0.758139311083919
0.748840454940403,-0.755280471588697
0.74772885572279,-0.752396126454659
0.74656944632896,-0.749486410773861
0.745362495196033,-0.746551459638363
0.744108270761126,-0.743591408140223
0.742807041461359,-0.7406063913715
0.741459075733851,-0.737596544424253
0.740064642015719,-0.73456200239054
0.738624008744083,-0.73150290036242
0.737137444356062,-0.728419373431952
0.735605217288773,-0.725311556691194
0.734027595979336,-0.722179585232205
0.73240484886487,-0.719023594147045
0.730737244382492,-0.71584371852777
0.729025050969323,-0.712640093466442
0.727268537062479,-0.709412854055116
0.725467971099081,-0.706162135385853
0.723623621516246,-0.702888072550712
0.721735756751095,-0.69959080064175
0.719804645240744,-0.696270454751027
0.717830555422312,-0.692927169970602
0.71581375573292,-0.689561081392532
0.713754514609685,-0.686172324108877
0.711653100489725,-0.682761033211695
0.70950978181016,-0.679327343793045
0.707324827008108,-0.675871390944986
0.705098504520688,-0.672393309759577
0.702831082785019,-0.668893235328875
0.700522830238218,-0.66537130274494
0.698174015317406,-0.661827647099831
0.695784906459701,-0.658262403485606
0.69335577210222,-0.654675706994324
0.690886880682084,-0.651067692718043
0.68837850063641,-0.647438495748822
0.685830900402318,-0.64378825117872
0.683244348416925,-0.640117094099796
0.680619113117351,-0.636425159604108
0.677955462940715,-0.632712582783715
0.675253666324134,-0.628979498730676
0.672513991704728,-0.625226042537048
0.669736707519616,-0.621452349294892
0.666922082205916,-0.617658554096266
0.664070384200746,-0.613844792033228
0.661181881941226,-0.610011198197837
0.658256843864474,-0.606157907682151
0.655295538407609,-0.60228505557823
0.652298234007749,-0.598392776978133
0.649265199102013,-0.594481206973916
0.64619670212752,-0.590550480657641
0.643093011521389,-0.586600733121364
0.639954395720738,-0.582632099457146
0.636781123162686,-0.578644714757044
0.633573462284351,-0.574638714113117
0.630331681522852,-0.570614232617424
0.627056049315309,-0.566571405362024
0.623746834098839,-0.562510367438974
0.620404304310561,-0.558431253940335
0.617028728387594,-0.554334199958165
0.613620374767057,-0.550219340584522
0.610179511886067,-0.546086810911464
0.606706408181745,-0.541936746031052
0.603201332091209,-0.537769281035343
0.599664552051577,-0.533584551016396
0.596096336499968,-0.52938269106627
0.5924969538735,-0.525163836277023
0.588866672609293,-0.520928121740714
0.585205761144465,-0.516675682549402
0.581514487916135,-0.512406653795146
0.577793121361421,-0.508121170570003
0.574041929917442,-0.503819367966034
0.570261182021317,-0.499501381075296
0.566451146110164,-0.495167344989849
0.562612090621103,-0.49081739480175
0.558744283991251,-0.486451665603059
0.554847994657728,-0.482070292485834
0.550923491057651,-0.477673410542134
0.546971041628141,-0.473261154864018
0.542990914806315,-0.468833660543544
0.538983379029293,-0.464391062672772
0.534948702734192,-0.459933496343759
0.530887154358131,-0.455461096648564
0.52679900233823,-0.450973998679246
0.522684515111608,-0.446472337527864
0.518543961115381,-0.441956248286477
0.514377608786669,-0.437425866047143
0.510185726562592,-0.432881325901921
0.505968582880268,-0.428322762942869
0.501726446176814,-0.423750312262046
0.49745958488935,-0.419164108951511
0.493168267454996,-0.414564288103323
0.488852762310868,-0.40995098480954
0.484513337894087,-0.405324334162221
0.48015026264177,-0.400684471253424
0.475763804991037,-0.39603153117521
0.471354233379005,-0.391365649019635
0.466921816242795,-0.386686959878758
0.462466822019523,-0.381995598844639
0.45798951914631,-0.377291701009336
0.453490176060274,-0.372575401464908
0.448969061198533,-0.367846835303413
0.444426442998206,-0.36310613761691
0.439862589896412,-0.358353443497458
0.43527777033027,-0.353588888037116
0.430672252736897,-0.348812606327942
0.426046305553413,-0.344024733461994
0.421400197216937,-0.339225404531332
0.416734196164588,-0.334414754628015
0.412048570833483,-0.3295929188441
0.407343589660741,-0.324760032271647
0.402619521083482,-0.319916230002714
0.397876633538824,-0.31506164712936
0.393115195463885,-0.310196418743644
0.388335475295784,-0.305320679937623
0.383537741471641,-0.300434565803359
0.378722262428573,-0.295538211432907
0.3738893066037,-0.290631751918328
0.369039142434139,-0.285715322351681
0.36417203835701,-0.280789057825023
0.359288262809432,-0.275853093430413
0.354388084228522,-0.270907564259911
0.3494717710514,-0.265952605405574
0.344539591715185,-0.260988351959462
0.339591814656994,-0.256014939013633
0.334628708313948,-0.251032501660146
0.329650541123163,-0.246041174991059
0.32465758152176,-0.241041094098432
0.319650097946857,-0.236032394074323
0.314628358835572,-0.23101521001079
0.309592632625024,-0.225989676999892
0.304543187752332,-0.220955930133689
0.299480292654614,-0.215914104504238
0.29440421576899,-0.210864335203599
0.289315225532577,-0.205806757323829
0.284213590382495,-0.200741505956989
0.279099578755863,-0.195668716195136
0.273973459089798,-0.190588523130328
0.268835499821419,-0.185501061854626
0.263685969387846,-0.180406467460087
0.258525136226197,-0.17530487503877
0.25335326877359,-0.170196419682734
0.248170635467145,-0.165081236484038
0.24297750474398,-0.15995946053474
0.237774145041213,-0.154831226926898
0.232560824795964,-0.149696670752573
0.22733781244535,-0.144555927103821
0.222105376426491,-0.139409131072702
0.216863785176506,-0.134256417751276
0.211613307132513,-0.129097922231599
0.20635421073163,-0.123933779605731
0.201086764410977,-0.118764124965731
0.195811236607672,-0.113589093403658
0.190527895758833,-0.10840882001157
0.18523701030158,-0.103223439881525
0.179938848673031,-0.0980330881055826
0.174633679310305,-0.0928378997758015
0.16932177065052,-0.0876380099842401
0.164003391130796,-0.0824335538229572
0.15867880918825,-0.0772246663840115
0.153348293260002,-0.0720114827594617
0.14801211178317,-0.0667941380413664
0.142670533194872,-0.0615727673217842
0.137323825932229,-0.0563475056927741
0.131972258432357,-0.0511184882463946
0.126616099132377,-0.0458858500747043
0.121255616469406,-0.0406497262697619
0.115891078880563,-0.0354102519236263
0.110522754802967,-0.0301675621283561
0.105150912673737,-0.0249217919760097
0.0997758209299908,-0.0196730765586461
0.0943977480088479,-0.014421550968324
0.0890169623474265,-0.00916735029710178
0.0836337323828456,-0.00391060963703854
0.0782483265522235,0.00134853591980741
0.0728610132926794,0.00660995128137706
0.0674720610413312,0.0118735013556121
0.0620817382352985,0.0171390510504534
0.0566903133116991,0.0224064652738427
0.0512980547076524,0.027675608933721
0.0459052308602766,0.0329463469380298
0.0405121102066907,0.0382185441947102
0.0351189611840131,0.0434920656117039
0.0297260522293628,0.0487667760969518
0.024333651779858,0.0540425405583956
0.018942028272618,0.0593192239039761
0.0135514501447608,0.0645966910416352
0.00816218583340575,0.0698748068793137
0.00277450377567093,0.0751534363249534
-0.00261132759132446,0.0804324442864952
-0.00799503983046218,0.0857116956718807
-0.0133763645046232,0.0909910553890509
-0.0187550331766892,0.0962703883459476
-0.024130777409541,0.101549559450512
-0.0295033287660605,0.106828433610685
-0.0348724188091285,0.112106875734408
-0.0402377791016269,0.117384750729622
-0.0455991412064364,0.122661923504269
-0.0509562366864387,0.127938258966291
-0.0563087971045149,0.133213622023628
-0.0616565540235467,0.138487877584221
-0.0669992390064149,0.143760890556013
-0.0723365836160013,0.149032525846944
-0.0776683194151868,0.154302648364955
-0.0829941779668531,0.159571123017989
-0.0883138908338812,0.164837814713986
-0.0936271895791528,0.170102588360888
-0.0989338057655487,0.175365308866635
-0.104233470955951,0.18062584113917
-0.10952591671324,0.185884050086433
-0.114810874600298,0.191139800616366
-0.120088076180005,0.196392957636911
-0.125357253015244,0.201643386056008
-0.130618136668896,0.206890950781598
-0.135870458703841,0.212135516721624
-0.141113950682961,0.217376948784026
-0.146348344169138,0.222615111876746
-0.151573370725253,0.227849870907725
-0.156788761914187,0.233081090784905
-0.161994249298821,0.238308636416226
-0.167189564442037,0.24353237270963
-0.172374438906716,0.248752164573059
-0.177548604255739,0.253967876914453
-0.182711792051989,0.259179374641754
-0.187863733858345,0.264386522662904
-0.19300416123769,0.269589185885843
-0.198132805752904,0.274787229218513
-0.203249398966869,0.279980517568855
-0.208353672442467,0.285168915844811
-0.213445357742578,0.290352288954321
-0.218524186430085,0.295530501805328
-0.223589890067867,0.300703419305772
-0.228642200218808,0.305870906363595
-0.233680848445787,0.311032827886738
-0.238705566311686,0.316189048783143
-0.243716085379387,0.32133943396075
-0.248712137211771,0.326483848327502
-0.25369345337172,0.331622156791338
-0.258659765422113,0.336754224260202
-0.263610804925834,0.341879915642033
-0.268546303445763,0.346999095844774
-0.273465992544781,0.352111629776365
-0.27836960378577,0.357217382344749
-0.283256868731611,0.362316218457865
-0.288127518945186,0.367408003023657
-0.292981285989376,0.372492600950063
-0.297817901427061,0.377569877145028
-0.302637096821124,0.382639696516491
-0.307438603734446,0.387701923972393
-0.312222153729908,0.392756424420677
-0.316987478370392,0.397803062769283
-0.321734309218778,0.402841703926153
-0.326462377837948,0.407872212799228
-0.331171415790783,0.41289445429645
-0.335861154640166,0.417908293325759
-0.340531325948976,0.422913594795097
-0.345181661280095,0.427910223612406
-0.349811892196405,0.432898044685626
-0.354421750260788,0.437876922922699
-0.359010967036123,0.442846723231567
-0.363579274085293,0.44780731052017
-0.368126402971179,0.45275854969645
-0.372652085256662,0.457700305668348
-0.377156052504624,0.462632443343806
-0.381638036277946,0.467554827630765
-0.386097768139508,0.472467323437166
-0.390534979652194,0.47736979567095
-0.394949402378883,0.482262109240059
-0.399340767882458,0.487144129052435
-0.403708807725799,0.492015720016018
-0.408053253471787,0.496876747038749
-0.412373836683305,0.501727075028571
-0.416670288923234,0.506566568893424
-0.420942341754454,0.511395093541249
-0.425189726739847,0.516212513879989
-0.429412175442295,0.521018694817584
-0.433609419424678,0.525813501261976
-0.437781190249879,0.530596798121105
-0.441927219480778,0.535368450302914
-0.446047238680256,0.540128322715344
-0.450140979411196,0.544876280266335
-0.454208173236478,0.54961218786383
-0.458248551718984,0.554335910415769
-0.462261846421595,0.559047312830094
-0.466247788907192,0.563746260014746
-0.470206110738656,0.568432616877667
-0.47413654347887,0.573106248326797
-0.478038818690714,0.577767019270079
-0.481912667937069,0.582414794615453
-0.485757822780818,0.587049439270861
-0.48957401478484,0.591670818144243
-0.493360975512019,0.596278796143542
-0.497118436525234,0.600873238176699
-0.500846129387367,0.605454009151655
-0.5045437856613,0.610020973976351
-0.508211136909914,0.614573997558729
-0.511847914696089,0.619112944806729
-0.515453850582709,0.623637680628294
-0.519028676132653,0.628148069931364
-0.522572122908803,0.632643977623882
-0.526083922474041,0.637125268613787
-0.529563806391248,0.641591807809022
-0.533011506223304,0.646043460117528
-0.536426753533092,0.650480090447246
-0.539809279883493,0.654901563706118
-0.543158816837388,0.659307744802084
-0.546475095957658,0.663698498643086
-0.549757848807185,0.668073690137066
-0.55300680694885,0.672433184191964
-0.556221701945535,0.676776845715723
-0.559402265360119,0.681104539616283
-0.562548228755486,0.685416130801585
-0.565659323694517,0.689711484179572
-0.568735281740091,0.693990464658183
-0.571775834455093,0.698252937145361
-0.574780713402401,0.702498766549047
-0.577749650144897,0.706727817777183
-0.580682376245464,0.710939955737709
-0.583578623266982,0.715135045338567
-0.586438122772332,0.719312951487698
-0.589260606324396,0.723473539093043
-0.592045805486056,0.727616673062545
-0.594793451820192,0.731742218304143
-0.597503276889686,0.73585003972578
-0.600175012257419,0.739940002235397
-0.602808389486272,0.744011970740934
-0.605403140139128,0.748065810150334
-0.607958995778866,0.752101385371538
-0.610475687968369,0.756118561312487
-0.612952948270517,0.760117202881122
-0.615390508248193,0.764097174985385
-0.617788099464277,0.768058342533216
-0.620145453481651,0.772000570432558
-0.622462301863196,0.775923723591352
-0.624738376171794,0.779827666917538
-0.626973407970324,0.783712265319059
-0.62916712882167,0.787577383703855
-0.631319270288713,0.791422886979868
-0.633429563934333,0.795248640055039
-0.635497741321412,0.799054507837309
-0.637523534012831,0.802840355234621
-0.639506673571472,0.806606047154914
-0.641446891560216,0.810351448506131
-0.643343919541944,0.814076424196213
-0.645197489079537,0.8177808391331
-0.647007331735878,0.821464558224735
-0.648773179073847,0.825127446379059
-0.650494762656325,0.828769368504013
-0.652171814046194,0.832390189507538
-0.653804064806336,0.835989774297575
-0.655391246499631,0.839567987782067
-0.65693309068896,0.843124694868953
-0.658429328937206,0.846659760466177
-0.65987969280725,0.850173049481678
-0.661283913861972,0.853664426823398
-0.662641723664254,0.857133757399279
-0.663952853776978,0.860580906117262
-0.665217035763024,0.864005737885287
-0.666434001185275,0.867408117611298
-0.66760348160661,0.870787910203234
-0.668725208589913,0.874144980569037
-0.669798913698064,0.877479193616648
-0.670824328493944,0.88079041425401
-0.671801184540435,0.884078507389062
-0.672729213400417,0.887343337929746
-0.673608146636773,0.890584770784004
-0.674437715812384,0.893802670859778
-0.675217652490131,0.896996903065007
-0.675947688232895,0.900167332307634
-0.676627554603557,0.9033138234956
-0.677256983165,0.906436241536846
