-0.113985616745419,-0.668899578416221
-0.106985869019043,-0.668690936163288
-0.100068489465121,-0.668472432497507
-0.0932331054863217,-0.668244097070596
-0.0864793444853171,-0.668005959534272
-0.079806833864777,-0.667758049540253
-0.0732152010273721,-0.667500396740255
-0.0667040733757726,-0.667233030785995
-0.0602730783126491,-0.66695598132919
-0.0539218432406719,-0.666669278021558
-0.0476499955625115,-0.666372950514814
-0.0414571626808382,-0.666067028460677
-0.0353429719983225,-0.665751541510864
-0.0293070509176348,-0.66542651931709
-0.0233490268414455,-0.665091991531074
-0.0174685271724251,-0.664747987804532
-0.011665179313244,-0.664394537789181
-0.00593861066657249,-0.664031671136739
-0.00028844863508113,-0.663659417498922
0.0052856793785597,-0.663277806527448
0.0107841459716796,-0.662886867874033
0.0162073237416081,-0.662486631190394
0.0215555852856749,-0.662077126128248
0.0268293032012094,-0.661658382339313
0.0320288500855413,-0.661230429475306
0.0371545985360002,-0.660793297187943
0.0422069211499156,-0.660347015128941
0.0471861905246171,-0.659891612950018
0.0520927792574344,-0.659427120302891
0.0569270599456969,-0.658953566839276
0.0616894051867342,-0.65847098221089
0.0663801875778761,-0.65797939606945
0.0709997797164519,-0.657478838066675
0.0755485541997913,-0.65696933785428
0.080026883625224,-0.656450925083982
0.0844351405900793,-0.655923629407499
0.0887736976916871,-0.655387480476548
0.0930429275273767,-0.654842507942846
0.0972432026944779,-0.654288741458108
0.10137489579032,-0.653726210674054
0.105438379412233,-0.653154945242399
0.109434026157546,-0.652574974814861
0.113362208623589,-0.651986329043157
0.117223299407692,-0.651389037579003
0.121017671107183,-0.650783130074117
0.124745696319393,-0.650168636180215
0.128407747641651,-0.649545585549016
0.132004197671287,-0.648914007832235
0.13553541900563,-0.64827393268159
0.13900178424201,-0.647625389748797
0.142403665977756,-0.646968408685575
0.145741436810199,-0.646303019143639
0.149015469336667,-0.645629250774707
0.152226136154491,-0.644947133230496
0.155373809860999,-0.644256696162722
0.158458863053521,-0.643557969223104
0.161481668329388,-0.642850982063357
0.164442598285928,-0.6421357643352
0.167342025520471,-0.641412345690348
0.170180322630347,-0.640680755780519
0.172957862212885,-0.63994102425743
0.175675016865415,-0.639193180772798
0.178332159185267,-0.63843725497834
0.180929661769769,-0.637673276525772
0.183467897216252,-0.636901275066813
0.185947238122045,-0.636121280253179
0.188368057084478,-0.635333321736587
0.190730726700881,-0.634537429168754
0.193035619568582,-0.633733632201397
0.195283108284912,-0.632921960486233
0.197473565447199,-0.632102443674978
0.199607363652775,-0.631275111419351
0.201684875498968,-0.630439993371068
0.203706473583107,-0.629597119181847
0.205672530502523,-0.628746518503403
0.207583418854545,-0.627888220987454
0.209439511236503,-0.627022256285718
0.211241180245725,-0.626148654049911
0.212988798479543,-0.625267443931749
0.214682738535284,-0.624378655582951
0.21632337301028,-0.623482318655234
0.217911074501859,-0.622578462800313
0.219446215607351,-0.621667117669907
0.220929168924086,-0.620748312915731
0.222360307049393,-0.619822078189505
0.223740002580602,-0.618888443142943
0.225068628115042,-0.617947437427764
0.226346556250043,-0.616999090695684
0.227574159582934,-0.61604343259842
0.228751810711046,-0.61508049278769
0.229879882231707,-0.614110300915209
0.230958746742248,-0.613132886632696
0.231988776839998,-0.612148279591868
0.232970345122286,-0.611156509444441
0.233903824186441,-0.610157605842133
0.234789586629795,-0.609151598436659
0.235628005049676,-0.608138516879738
0.236419452043413,-0.607118390823087
0.237164300208337,-0.606091249918422
0.237862922141777,-0.60505712381746
0.238515690441062,-0.604016042171919
0.239122977703522,-0.602968034633516
0.239685156526487,-0.601913130853967
0.240202599507286,-0.600851360484989
0.240675679243249,-0.5997827531783
0.241104768331706,-0.598707338585616
0.241490239369985,-0.597625146358655
0.241832464955417,-0.596536206149134
0.242131817685331,-0.595440547608769
0.242388670157057,-0.594338200389278
0.242603394967924,-0.593229194142377
0.242776364715262,-0.592113558519784
0.242907951996401,-0.590991323173215
0.242998529408669,-0.589862517754389
0.243048469549397,-0.58872717191502
0.243058145015915,-0.587585315306828
0.243027928405551,-0.586436977581528
0.242958192315636,-0.585282188390838
0.242849309343498,-0.584120977386475
0.242701652086468,-0.582953374220155
0.242515593141875,-0.581779408543596
0.242291505107049,-0.580599110008515
0.242029760579319,-0.579412508266628
0.241730732156015,-0.578219632969653
0.241394792434466,-0.577020513769308
0.241022314012002,-0.575815180317307
0.240613669485953,-0.57460366226537
0.240169231453648,-0.573385989265213
0.239689372512417,-0.572162190968552
0.239174465259589,-0.570932297027105
0.238624882292495,-0.56969633709259
0.238040996208462,-0.568454340816721
0.237423179604822,-0.567206337851218
0.236771805078903,-0.565952357847797
0.236087245228036,-0.564692430458175
0.235369872649549,-0.563426585334069
0.234620059940773,-0.562154852127195
0.233838179699037,-0.560877260489272
0.23302460452167,-0.559593840072016
0.232179707006002,-0.558304620527143
0.231303859749363,-0.557009631506372
0.230397435349083,-0.555708902661418
0.22946080640249,-0.554402463644
0.228494345506915,-0.553090344105834
0.227498425259687,-0.551772573698637
0.226473418258135,-0.550449182074126
0.22541969709959,-0.549120198884017
0.22433763438138,-0.547785653780029
0.223227602700836,-0.546445576413878
0.222089974655287,-0.545099996437282
0.220925122842062,-0.543748943501956
0.219733419858491,-0.542392447259619
0.218515238301905,-0.541030537361986
0.217270950769631,-0.539663243460776
0.216000929859,-0.538290595207706
0.214705548167342,-0.536912622254491
0.213385178291985,-0.535529354252849
0.21204019283026,-0.534140820854498
0.210670964379497,-0.532747051711154
0.209277865537024,-0.531348076474535
0.207861268900171,-0.529943924796356
0.206421547066269,-0.528534626328336
0.204959072632645,-0.527120210722191
0.203474218196631,-0.525700707629639
0.201967356355556,-0.524276146702396
0.200438859706749,-0.522846557592179
0.198889100847539,-0.521411969950705
0.197318452375257,-0.519972413429692
0.195727286887232,-0.518527917680857
0.194115976980794,-0.517078512355916
0.192484895253271,-0.515624227106586
0.190834414301995,-0.514165091584584
0.189164906724293,-0.512701135441628
0.187476745117497,-0.511232388329435
0.185770302078935,-0.509758879899721
0.184045950205937,-0.508280639804203
0.182304062095832,-0.506797697694599
0.180545010345951,-0.505310083222626
0.178769167553623,-0.503817826039999
0.176976906316177,-0.502320955798438
0.175168599230943,-0.500819502149658
0.17334461889525,-0.499313494745377
0.171505337906429,-0.497802963237311
0.169651128861808,-0.496287937277177
0.167782364358717,-0.494768446516694
0.165899416994487,-0.493244520607577
0.164002659366445,-0.491716189201544
0.162092464071923,-0.490183481950311
0.160169203708249,-0.488646428505596
0.158233250872754,-0.487105058519116
0.156284978162766,-0.485559401642587
0.154324758175616,-0.484009487527727
0.152352963508632,-0.482455345826253
0.150369966759145,-0.480897006189881
0.148376140524484,-0.479334498270329
0.146371857401979,-0.477767851719314
0.144357489988959,-0.476197096188553
0.142333410882753,-0.474622261329763
0.140299992680693,-0.47304337679466
0.138257607980106,-0.471460472234962
0.136206629378322,-0.469873577302386
0.134147429472672,-0.468282721648648
0.132080380860484,-0.466687934925467
0.130005856139089,-0.465089246784559
0.127924227905816,-0.46348668687764
0.125835868757994,-0.461880284856428
0.123741151292953,-0.460270070372641
0.121640448108022,-0.458656073077993
0.119534131800532,-0.457038322624205
0.117422574967812,-0.45541684866299
0.115306150207191,-0.453791680846069
0.113185230115999,-0.452162848825155
0.111060187291566,-0.450530382251968
0.10893139433122,-0.448894310778224
0.106799223832292,-0.44725466405564
0.104664048392112,-0.445611471735933
0.102526240608008,-0.44396476347082
0.100386173077311,-0.442314568912018
0.0982442183973497,-0.440660917711244
0.096100749165454,-0.439003839520215
0.0939561379789536,-0.437343363990649
0.0918107574351777,-0.435679520774261
0.0896649801314564,-0.434012339522769
0.0875191786651188,-0.432341849887891
0.0853737256334947,-0.430668081521343
0.0832289936339137,-0.428991064074842
0.0810853552637054,-0.427310827200105
0.0789431831201992,-0.425627400548849
0.076802849800725,-0.423940813772792
0.074664727902612,-0.42225109652365
0.0725291900231901,-0.42055827845314
0.0703966087597886,-0.418862389212979
0.0682673567097373,-0.417163458454884
0.0661418064703657,-0.415461515830573
0.0640203306390034,-0.413756590991762
0.06190330181298,-0.412048713590168
0.059791092589625,-0.410337913277509
0.057684075566268,-0.408624219705501
0.0555826233402387,-0.406907662525862
0.0534871085088664,-0.405188271390307
0.0513979036694811,-0.403466075950555
0.049315381419412,-0.401741105858323
0.047239914355989,-0.400013390765326
0.0451718750765413,-0.398282960323284
0.0431116361783989,-0.396549844183911
0.041059570258891,-0.394814071998926
0.0390160499153475,-0.393075673420046
0.0369814477450977,-0.391334678098987
0.0349561363454714,-0.389591115687466
0.032940488313798,-0.387845015837201
0.0309348762474073,-0.386096408199909
0.0289396727436286,-0.384345322427306
0.0269552503997918,-0.382591788171109
0.0249819818132262,-0.380835835083036
0.0230202395812616,-0.379077492814804
0.0210703963012274,-0.377316791018129
0.0191328245704533,-0.375553759344729
0.0172078969862688,-0.37378842744632
0.0152959861460036,-0.37202082497462
0.0133974646469871,-0.370250981581346
0.0115127050865491,-0.368478926918214
0.00964208006201891,-0.366704690636942
0.00778596217072637,-0.364928302389247
0.00594472401000092,-0.363149791826845
0.00411873817717219,-0.361369188601454
0.00230837726956969,-0.359586522364791
0.000514013884523143,-0.357801822768572
-0.0012639793806381,-0.356015119464515
-0.00302522992858414,-0.354226442104337
-0.00476936516198572,-0.352435820339755
-0.00649601248351301,-0.350643283822485
-0.00820479929583662,-0.348848862204245
-0.00989535300162681,-0.347052585136752
-0.0115673010035541,-0.345254482271723
-0.0132202707042889,-0.343454583260875
-0.0148538895065016,-0.341652917755924
-0.0164677848128626,-0.339849515408589
-0.0180615840260424,-0.338044405870585
-0.0196349145487114,-0.33623761879363
-0.0211874037835399,-0.334429183829441
-0.0227186791331985,-0.332619130629735
-0.0242283680003575,-0.330807488846229
-0.0257160977876872,-0.32899428813064
-0.0271814958978584,-0.327179558134684
-0.0286241897335411,-0.32536332851008
-0.030043806697406,-0.323545628908544
-0.0314399741921234,-0.321726488981793
-0.0328123196203638,-0.319905938381543
-0.0341604703847975,-0.318084006759513
-0.035484053888095,-0.316260723767419
-0.0367826975329267,-0.314436119056978
-0.0380560287219631,-0.312610222279906
-0.0393036748578744,-0.310783063087922
-0.0405252633433313,-0.308954671132742
-0.041720421581004,-0.307125076066084
-0.042888776973563,-0.305294307539663
-0.0440299569236787,-0.303462395205197
-0.0451435888340216,-0.301629368714404
-0.046229300107262,-0.299795257718999
-0.0472867181460705,-0.297960091870701
-0.0483154703531173,-0.296123900821226
-0.0493151841310729,-0.294286714222291
-0.0502854868826078,-0.292448561725614
-0.0512260060103923,-0.29060947298291
-0.0521363689170969,-0.288769477645898
-0.053016203005392,-0.286928605366294
-0.053865135677948,-0.285086885795816
-0.0546827943374354,-0.28324434858618
-0.0554688063865245,-0.281401023389103
-0.0562227992278857,-0.279556939856302
-0.0569444002641896,-0.277712127639495
-0.0576332368981065,-0.275866616390397
-0.0582889365323068,-0.274020435760728
-0.058911126569461,-0.272173615402202
-0.0594994344122394,-0.270326184966538
-0.0600534874633125,-0.268478174105453
-0.0605729131253508,-0.266629612470663
-0.0610573388010245,-0.264780529713885
-0.0615063918930042,-0.262930955486837
-0.0619196998039603,-0.261080919441235
-0.0622968899365632,-0.259230451228796
-0.0626375896934833,-0.257379580501238
-0.062941426477391,-0.255528336910278
-0.0632080276909568,-0.253676750107632
-0.063437020736851,-0.251824849745017
-0.0636280330177441,-0.249972665474151
-0.0637806919363065,-0.248120226946751
-0.0638946248952086,-0.246267563814533
-0.0639694592971209,-0.244414705729215
-0.0640048225447137,-0.242561682342513
-0.0640003420406575,-0.240708523306145
-0.0639556451876228,-0.238855258271828
-0.0638703593882798,-0.237001916891278
-0.0637441120452991,-0.235148528816212
-0.063576530561351,-0.233295123698349
-0.0633672423391061,-0.231441731189404
-0.0631158747812346,-0.229588380941095
-0.062822055290407,-0.227735102605138
-0.0624854112692938,-0.225881925833251
-0.0621055701205653,-0.224028880277151
-0.0616821592468921,-0.222175995588555
-0.0612148060509444,-0.220323301419179
-0.0607031379353927,-0.218470827420741
-0.0601467823029075,-0.216618603244958
-0.0595453665561591,-0.214766658543546
-0.058898518097818,-0.212915022968224
-0.0582058643305546,-0.211063726170707
-0.0574670326570393,-0.209212797802713
-0.0566816504799426,-0.207362267515959
-0.0558493452019348,-0.205512164962162
-0.0549697442256863,-0.203662519793038
-0.0540424749538677,-0.201813361660306
-0.0530671647891493,-0.199964720215681
-0.0520434411342014,-0.198116625110881
-0.0509709313916947,-0.196269105997623
-0.0498492629642994,-0.194422192527625
-0.048678063254686,-0.192575914352602
-0.0474569596655249,-0.190730301124272
-0.0461855795994866,-0.188885382494352
-0.0448635504592414,-0.187041188114559
-0.0434904996474598,-0.18519774763661
-0.0420660545668121,-0.183355090712222
-0.0405898426199689,-0.181513246993112
-0.0390614912096004,-0.179672246130997
-0.0374806277383773,-0.177832117777594
-0.0358468796089697,-0.17599289158462
-0.0341598742240483,-0.174154597203792
-0.0324192389862834,-0.172317264286828
-0.0306246012983454,-0.170480922485443
-0.0287755885629047,-0.168645601451356
-0.0268718281826318,-0.166811330836283
-0.0249129475601971,-0.16497814029194
-0.022898574098271,-0.163146059470046
-0.0208283351995239,-0.161315118022318
-0.0187018582666263,-0.159485345600471
-0.0165187707022484,-0.157656771856224
-0.0142786999090609,-0.155829426441293
-0.0119812732897341,-0.154003339007395
-0.00962611824693841,-0.152178539206247
-0.00721286218334418,-0.150355056689567
-0.00474113250162203,-0.14853292110907
-0.00221055660444214,-0.146712162116476
0.000379238105524831,-0.144892809363499
0.00302862422560871,-0.143074892501858
0.00573797435313885,-0.141258441183269
0.00850766108544504,-0.139443485059449
0.0113380570198566,-0.137630053782116
0.0142295347537035,-0.135818177002986
0.0171824668843149,-0.134007884373777
0.0201972260090207,-0.132199205546205
0.0232741847251502,-0.130392170171987
0.0264137156300332,-0.128586807902841
0.0296161913209992,-0.126783148390483
0.0328819843953779,-0.12498122128663
0.0362114674504985,-0.123181056243001
0.0396050130836911,-0.12138268291131
0.0430629938922849,-0.119586130943276
0.0465857824736098,-0.117791429990616
0.0501737514249949,-0.115998609705046
0.0538272733437704,-0.114207699738283
0.0538272733437704,-0.114207699738283
0.0574949898627789,-0.112407634214902
0.0611254252103028,-0.11058751890146
0.0647187758768305,-0.108747640912652
0.0682752383528503,-0.106888287363175
0.0717950091288505,-0.105009745367723
0.0752782846953194,-0.103112302040991
0.0787252615427455,-0.101196244497675
0.082136136161617,-0.0992618598524706
0.0855111050424223,-0.0973094352200724
0.0888503646756496,-0.0953392577151758
0.0921541115517873,-0.0933516144524762
0.0954225421613238,-0.0913467925466689
0.0986558529947474,-0.0893250791124491
0.101854240542546,-0.087286761264512
0.105017901295209,-0.085232126117553
0.108147031743224,-0.0831614607862674
0.111241828377079,-0.0810750523853504
0.114302487687263,-0.0789731880294973
0.117329206164264,-0.0768561548334034
0.120322180298571,-0.074724239911764
0.123281606580671,-0.0725777303792744
0.126207681501053,-0.0704169133506296
0.129100601550206,-0.0682420759405253
0.131960563218617,-0.0660535052636565
0.134787762996776,-0.0638514884347186
0.13758239737517,-0.0616363125684068
0.140344662844287,-0.0594082647794164
0.143074755894617,-0.0571676321824428
0.145772873016647,-0.0549147018921811
0.148439210700866,-0.0526497610233266
0.151073965437762,-0.0503730966905747
0.153677333717823,-0.0480849960086206
0.156249512031538,-0.0457857460921596
0.158790696869395,-0.0434756340558869
0.161301084721883,-0.0411549470144978
0.163780872079489,-0.0388239720826877
0.166230255432702,-0.0364829963751519
0.168649431272011,-0.0341323070065854
0.171038596087903,-0.0317721910916838
0.173397946370867,-0.0294029357451421
0.175727678611392,-0.0270248280816558
0.178027989299966,-0.0246381552159201
0.180299074927076,-0.0222432042626302
0.182541131983212,-0.0198402623364816
0.184754356958862,-0.0174296165521693
0.186938946344513,-0.0150115540243887
0.189095096630655,-0.0125863618678352
0.191223004307776,-0.0101543271972038
0.193322865866364,-0.00771573712719009
0.195394877796907,-0.00527087877248913
0.197439236589894,-0.00282003924779627
0.199456138735813,-0.000363505667806817
0.201445780725152,0.00209843485278399
0.2034083590484,0.00456549519928086
0.205344070196045,0.00703738825698853
0.207253110658576,0.00951382691121171
0.20913567692648,0.0119945240472551
0.210991965490246,0.0144791925504234
0.212822172840363,0.0169675453060215
0.214626495467318,0.0194592951993539
0.2164051298616,0.0219541551157254
0.218158272513698,0.0244518379404408
0.219886119914099,0.0269520565588047
0.221588868553292,0.0294545238561219
0.223266714921766,0.0319589527176971
0.224919855510008,0.034465056028835
0.226548486808508,0.0369725466748404
0.228152805307752,0.0394811375410179
0.229733007498231,0.0419905415126723
0.231289289870431,0.0445004714751084
0.232821848914842,0.0470106403136307
0.234330881121951,0.0495207609135442
0.235816582982248,0.0520305461601533
0.23727915098622,0.054539708938763
0.238718781624355,0.0570479621346779
0.240135671387143,0.0595550186332027
0.24153001676507,0.0620605913196422
0.242902014248627,0.064564393079301
0.2442518603283,0.067066136797484
0.245579751494579,0.0695655353594958
0.246885884237952,0.0720623016506411
0.248170455048906,0.0745561485562247
0.249433660417931,0.0770467889615513
0.250675696835515,0.0795339357519256
0.251896760792145,0.0820173018126523
0.253097048778311,0.0844966000290362
0.254276757284501,0.086971543286382
0.255436082801202,0.0894418444699943
0.256575221818904,0.091907216465178
0.257694370828095,0.0943673721572376
0.258793726319262,0.0968220244314781
0.259873484782895,0.099270886173204
0.260933842709482,0.10171367026772
0.26197499658951,0.104150089600331
0.262997142913469,0.106579857056342
0.264000478171846,0.109002685521057
0.264985198855131,0.111418287879781
0.265951501453811,0.113826377017819
0.266899582458374,0.116226665820476
0.267829638359309,0.118618867173055
0.268741865647105,0.121002693960863
0.269636460812249,0.123377859069204
0.270513620345231,0.125744075383381
0.271373540736537,0.128101055788701
0.272216418476658,0.130448513170468
0.27304245005608,0.132786160413987
0.273851831965293,0.135113710404561
0.274644760694784,0.137430876027497
0.275421432735042,0.139737370168098
0.276182044576555,0.14203290571167
0.276926792709812,0.144317195543518
0.277655873625302,0.146589952548945
0.278369483813511,0.148850889613256
0.279067819764929,0.151099719621757
0.279751077970044,0.153336155459752
0.280419454919344,0.155559910012546
0.281073147103318,0.157770696165444
0.281712351012454,0.159968226803749
0.28233726313724,0.162152214812768
0.282948079968165,0.164322373077804
0.283544997995717,0.166478414484163
0.284128213710384,0.168620051917149
0.284697923602655,0.170746998262066
0.285254324163017,0.172858966404221
0.28579761188196,0.174955669228916
0.286327983249972,0.177036819621458
0.28684563475754,0.17910213046715
0.287350762895154,0.181151314651298
0.287843564153301,0.183184085059206
0.288324235022471,0.185200154576178
0.28879297199315,0.187199236087521
0.289249971555829,0.189181042478538
0.289695430200994,0.191145286634533
0.290129544419134,0.193091681440813
0.290552510700738,0.195019939782681
0.290964525536294,0.196929774545442
0.291365785416291,0.198820898614402
0.291756486831215,0.200693024874864
0.292136826271557,0.202545866212133
0.292507000227804,0.204379135511514
0.292867205190445,0.206192545658313
0.293217637649968,0.207985809537832
0.29355849409686,0.209758640035379
0.293889971021612,0.211510750036256
0.29421226491471,0.213241852425768
0.294525572266644,0.214951660089222
0.294830089567901,0.21663988591192
0.29512601330897,0.218306242779168
0.29541353998034,0.219950443576271
0.295692866072498,0.221572201188534
0.295964188075933,0.22317122850126
0.296227702481133,0.224747238399755
0.296483605778587,0.226299943769323
0.296732094458783,0.22782905749527
0.296973365012209,0.2293342924629
0.297207613929353,0.230815361557517
0.297435037700705,0.232271977664427
0.297655832816751,0.233703853668934
0.297870195767982,0.235110702456342
0.298078323044884,0.236492236911957
0.298280411137946,0.237848169921084
0.298476656537657,0.239178214369026
0.298667255734505,0.240482083141089
0.298852405218979,0.241759489122578
0.299032301481565,0.243010145198796
0.299207141012754,0.24423376425505
0.299377120303033,0.245430059176643
0.29954243584289,0.246598742848881
0.299703284122815,0.247739528157067
0.299859861633294,0.248852127986507
0.300012364864818,0.249936255222506
0.300160990307873,0.250991622750368
0.300305934452948,0.252017943455398
0.300447393790532,0.2530149302229
0.300585564811113,0.25398229593818
0.300720644005179,0.254919753486542
0.300852827863218,0.255827015753291
0.30098231287572,0.256703795623731
0.301109295533171,0.257549805983167
0.301233972326062,0.258364759716905
0.301356539744879,0.259148369710248
0.301477194280111,0.259900348848502
0.301596132422247,0.26062041001697
0.301713550661775,0.261308266100959
0.301829645489183,0.261963629985772
0.301944613394959,0.262586214556714
0.302058650869593,0.263175732699091
0.302171954403571,0.263731897298206
0.302284720487384,0.264254421239365
0.302397145611518,0.264743017407872
0.302509426266462,0.265197398689031
0.302621758942705,0.265617277968149
0.302734340130734,0.266002368130529
0.302847366321039,0.266352382061475
0.302961034004108,0.266667032646294
0.303075539670428,0.266946032770289
0.303191079810489,0.267189095318765
0.303307850914778,0.267395933177028
0.303426049473783,0.26756625923038
0.303545871977995,0.267699786364129
0.303667514917899,0.267796227463577
0.303791174783986,0.267855295414031
0.303917048066742,0.267876703100794
0.304045331256658,0.267860163409171
0.30417622084422,0.267805389224467
0.304309913319917,0.267712093431987
0.304446605174238,0.267579988917035
0.304586492897671,0.267408788564917
0.304729772980703,0.267198205260936
0.304876641913825,0.266947951890398
0.305027296187523,0.266657741338608
0.305181932292286,0.266327286490869
0.305340746718603,0.265956300232487
0.305503935956962,0.265544495448767
0.305671696497851,0.265091585025013
0.305844224831759,0.26459728184653
0.306021717449173,0.264061298798622
0.306204370840582,0.263483348766595
0.306392381496476,0.262863144635753
0.30658594590734,0.262200399291401
0.306785260563665,0.261494825618843
0.306990521955939,0.260746136503385
0.307201926574649,0.259954044830331
0.307419670910285,0.259118263484985
0.307643951453334,0.258238505352653
0.307874964694285,0.257314483318639
0.308112907123626,0.256345910268248
0.308357975231845,0.255332499086784
0.308610365509432,0.254273962659553
0.308870274446873,0.253170013871859
0.309137898534659,0.252020365609006
0.309413434263275,0.2508247307563
0.309697078123212,0.249582822199046
0.309989026604958,0.248294352822547
0.310289476199,0.246959035512109
0.310598623395828,0.245576583153036
0.310916664685929,0.244146708630633
0.311243796559792,0.242669124830205
0.311580215507905,0.241143544637057
0.311926118020756,0.239569680936493
0.312281700588835,0.237947246613818
0.312647159702628,0.236275954554336
0.313022691852625,0.234555517643353
0.313408493529314,0.232785648766174
0.313804761223183,0.230966060808102
0.31421169142472,0.229096466654442
0.314629480624414,0.2271765791905
0.315058325312753,0.22520611130158
0.315498421980226,0.223184775872987
0.315949967117321,0.221112285790025
0.316413157214526,0.218988353937999
0.316888188762329,0.216812693202215
0.317375258251219,0.214585016467976
0.317874562171684,0.212305036620587
0.318386297014213,0.209972466545353
0.318910659269293,0.207587019127579
0.319447845427414,0.20514840725257
0.319998051979063,0.20265634380563
0.320561475414729,0.200110541672064
0.3211383122249,0.197510713737176
0.321728758900064,0.194856572886272
0.32233301193071,0.192147832004656
0.322951267807327,0.189384203977633
0.323583723020401,0.186565401690508
0.324230574060423,0.183691138028585
0.32489201741788,0.180761125877169
0.32556824958326,0.177775078121564
0.326259467047052,0.174732707647076
0.326965866299744,0.17163372733901
0.327687643831824,0.168477850082669
0.328424996133782,0.165264788763358
0.329178119696104,0.161994256266384
0.32994721100928,0.158665965477049
0.330732466563798,0.155279629280659
0.331534082850146,0.151834960562518
0.332352256358812,0.148331672207932
0.333187183580285,0.144769477102204
0.334039061005053,0.141148088130641
0.334908085123604,0.137467218178545
0.335794452426428,0.133726580131223
0.336698359404011,0.129925886873979
0.337620002546843,0.126064851292117
0.338559578345412,0.122143186270943
0.339517283290205,0.11816060469576
0.340493313871713,0.114116819451874
0.341487866580422,0.11001154342459
0.342501137906821,0.105844489499212
0.343533324341398,0.101615370561045
0.344584622374642,0.0973238994953929
0.345655228497042,0.0929697891875617
0.346745339199084,0.0885527525228554
0.347855150971259,0.084072502386579
0.348984860304054,0.0795287516640368
0.350134663687957,0.0749212132405341
0.351304757613456,0.0702496000013752
0.352495338571041,0.0655136248318651
0.353706603051199,0.0607130006173081
0.35493874754442,0.0558474402430096
0.35619196854119,0.0509166565942736
0.357466462531998,0.0459203625564053
0.358762426007334,0.0408582710147092
0.360080055457684,0.0357300948544901
0.361419547373538,0.0305355469610527
0.362781098245383,0.0252743402197018
0.364164904563709,0.019946187515742
0.365571162819003,0.0145508017344782
0.367000069501754,0.00908789576121463
0.368451821102449,0.00355718248125683
0.369926614111579,-0.00204162522009127
0.37142464501963,-0.00770881445752442
0.372946110317091,-0.0134446723457382
0.37449120649445,-0.0192494859994276
0.376060130042196,-0.0251235425332883
0.377653077450818,-0.0310671290620151
0.379270245210802,-0.0370805327003038
0.380911829812639,-0.0431640405628492
0.382578027746815,-0.0493179397643471
0.38426903550382,-0.055542517419492
0.385985049574142,-0.0618380606429801
0.387726266448268,-0.0682048565495059
0.389492882616688,-0.0746431922537652
0.39128509456989,-0.0811533548704529
0.393103098798362,-0.0877356315142647
0.394947091792592,-0.0943903092998953
0.396817270043069,-0.101117675342041
0.398713830040281,-0.107918016755396
0.400636968274716,-0.114791620654656
0.402586881236863,-0.121738774154516
0.40456376541721,-0.128759764369671
0.406567817306246,-0.135854878414818
0.408599233394458,-0.14302440340465
0.410658210172335,-0.150268626453864
0.412744944130366,-0.157587834677155
0.414859631759038,-0.164982315189217
0.417002469548841,-0.172452355104747
0.419173653990262,-0.179998241538439
0.421373381573789,-0.187620261604989
0.423601848789912,-0.195318702419092
0.425859252129118,-0.203093851095444
0.428145788081895,-0.210945994748738
0.430461653138733,-0.218875420493672
0.432807043790119,-0.22688241544494
0.435182156526542,-0.234967266717238
0.437587187838489,-0.24313026142526
0.44002233421645,-0.251371686683702
0.442487792150913,-0.259691829607259
0.444983758132366,-0.268090977310627
0.447510428651297,-0.276569416908501
0.450068000198195,-0.285127435515576
0.452656669263548,-0.293765320246547
0.455276632337844,-0.30248335821611
0.457928085911572,-0.311281836538959
0.46061122647522,-0.320161042329791
0.463326250519277,-0.329121262703301
0.46607335453423,-0.338162784774183
0.468852735010568,-0.347285895657133
0.471664588438779,-0.356490882466847
0.474509111309352,-0.365778032318019
0.477386500112775,-0.375147632325346
0.480296951339537,-0.384599969603521
0.483240661480125,-0.394135331267241
0.486217827025028,-0.4037540044312
0.489228644464734,-0.413456276210095
0.492273310289732,-0.423242433718619
0.495352020990511,-0.43311276407147
0.498464973057557,-0.443067554383341
0.50161236298136,-0.453107091768928
0.504794387252408,-0.463231663342927
0.50801124236119,-0.473441556220032
0.511263124798193,-0.483737057514939
0.514550231053906,-0.494118454342344
0.517872757618818,-0.504586033816941
0.521230900983416,-0.515140083053426
0.524624857638189,-0.525780889166494
0.528054824073626,-0.53650873927084
0.531520996780214,-0.54732392048116
0.535023572248442,-0.558226719912149
0.538562746968798,-0.569217424678501
0.542138717431772,-0.580296321894914
0.54575168012785,-0.591463698676081
0.549401831547521,-0.602719842136698
0.553089368181274,-0.61406503939146
0.556814486519597,-0.625499577555064
0.560577383052979,-0.637023743742202
0.564378254271907,-0.648637825067573
0.56821729666687,-0.660342108645869
0.572094706728356,-0.672136881591787
0.576010680946854,-0.684022431020022
0.579965415812852,-0.695999044045269
0.583959107816839,-0.708067007782224
0.587991953449302,-0.720226609345582
0.592064149200729,-0.732478135850037
0.596175891561611,-0.744821874410286
0.600327377022433,-0.757258112141024
0.604518802073686,-0.769787136156946
0.608750363205858,-0.782409233572746
0.613022256909435,-0.795124691503122
0.617334679674908,-0.807933797062767
0.621687827992764,-0.820836837366377
