-0.326259978008675,0.202848642204934
-0.321236430786644,0.174657229285285
-0.315840235158218,0.147376608321601
-0.310081287630738,0.120998052821275
-0.30396948471155,0.0955128362916994
-0.297514722907997,0.0709122322402684
-0.290726898727422,0.0471875141743748
-0.28361590867717,0.0243299556014117
-0.276191649264585,0.00233083002877218
-0.268464016997009,-0.0188185890361506
-0.260442908381788,-0.0391270280859634
-0.252138219926265,-0.0586032136132733
-0.243559848137783,-0.077255872110687
-0.234717689523686,-0.0950937300708114
-0.225621640591319,-0.112125513986253
-0.216281597848025,-0.12835995034962
-0.206707457801147,-0.143805765653518
-0.19690911695803,-0.158471686390554
-0.186896471826018,-0.172366439053335
-0.176679418912454,-0.185498750134467
-0.166267854724682,-0.197877346126559
-0.155671675770045,-0.209510953522217
-0.144900778555889,-0.220408298814046
-0.133965059589555,-0.230578108494656
-0.122874415378389,-0.240029109056651
-0.111638742429734,-0.24877002699264
-0.100267937250934,-0.256809588795229
-0.0887718963493328,-0.264156520957024
-0.0771605162322738,-0.270819549970634
-0.065443693407101,-0.276807402328663
-0.0536313243811583,-0.282128804523721
-0.0417333056617894,-0.286792483048413
-0.0297595337563382,-0.290807164395345
-0.0177199051721485,-0.294181575057126
-0.00562431641656402,-0.296924441526362
0.00651733600307136,-0.29904449029566
0.0186951555794139,-0.300550447857627
0.0308992458051198,-0.301451040704869
0.0431197101728451,-0.301754995329993
0.0553466521752463,-0.301471038225607
0.0675701753049793,-0.300607895884316
0.0797803830547005,-0.299174294798729
0.091967378917066,-0.297178961461452
0.104121266384732,-0.294630622365092
0.116232148950355,-0.291538004002255
0.12829013010659,-0.287909832865548
0.140285313346095,-0.283754835447579
0.152207802161525,-0.279081738240954
0.164047700045536,-0.273899267738281
0.175795110490786,-0.268216150432165
0.187440136989929,-0.262041112815214
0.198972883035622,-0.255382881380035
0.210383452120521,-0.248250182619234
0.221661947737283,-0.240651743025419
0.232798473378564,-0.232596289091196
0.24378313253702,-0.224092547309172
0.254606028705306,-0.215149244171954
0.26525726537608,-0.20577510617215
0.275726946041998,-0.195978859802365
0.286005174195715,-0.185769231555206
0.296082053329888,-0.175154947923281
0.305947686937173,-0.164144735399197
0.315592178510226,-0.152747320475559
0.325005631541704,-0.140971429644976
0.334178149524262,-0.128825789400054
0.343099835950557,-0.1163191262334
0.351760794313246,-0.10346016663762
0.360151128104983,-0.0902576371053221
0.368260940818426,-0.0767202641291125
0.376080335946231,-0.0628567742015982
0.383599416981053,-0.0486758938153862
0.39080828741555,-0.0341863494630831
0.397697050742377,-0.0193968676372961
0.40425581045419,-0.00431617483063178
0.410474670043646,0.0110470024643028
0.4163437330034,0.026683937754901
0.42185310282611,0.0425859045485557
0.426992883004431,0.0587441763526601
0.43175317703102,0.0751500266746074
0.436124088398532,0.0917947290217907
0.440095720599623,0.108669556901603
0.443658177126951,0.125765783821438
0.446801561473171,0.143074683288688
0.44951597713094,0.160587528810747
0.451791527592913,0.178295593895007
0.453618316351747,0.196190152048862
0.454986446900098,0.214262476779705
0.455886022730622,0.232503841594929
0.456307147335975,0.250905520001927
0.456239924208814,0.269458785508093
0.455674456841795,0.288154911620819
0.454600848727574,0.306985171847498
0.453009203358807,0.325940839695525
0.450889624228151,0.345013188672291
0.448232214828261,0.36419349228519
0.445027078651794,0.383473024041615
0.441264319191405,0.40284305744896
0.436934039939752,0.422294866014617
0.432026344389491,0.441819723245979
0.426531336033277,0.46140890265044
0.422018702369511,0.476137749099173
0.415972766833552,0.495027671764079
0.410316929737531,0.512404722985588
0.405046183431324,0.528302849887283
0.400155520264812,0.542755999592745
0.395639932587871,0.555798119225556
0.391494412750381,0.567463155909297
0.387713953102219,0.577785056767551
0.384293545993265,0.5867977689239
0.381228183773397,0.594535239501924
0.378512858792492,0.601031415625206
0.37614256340043,0.606320244417328
0.374112289947089,0.610435673001871
0.372417030782348,0.613411648502418
0.371051778256084,0.615282118042549
0.370011524718176,0.616081028745847
0.369291262518502,0.615842327735894
0.368885984006942,0.614599962136271
0.368790681533373,0.61238787907056
0.369000347447673,0.609240025662342
0.369509974099722,0.605190349035201
0.370314553839397,0.600272796312717
0.371409079016577,0.594521314618472
0.37278854198114,0.587969851076048
0.374447935082965,0.580652352809026
0.376382250671931,0.57260276694099
0.378586481097914,0.563855040595519
0.381055618710795,0.554443120896197
0.383784655860451,0.544400954966604
0.386768584896761,0.533762489930324
0.390002398169603,0.522561672910936
0.393481088028856,0.510832451032024
0.397199646824397,0.498608771417169
0.401153066906106,0.485924581189952
0.405336340623861,0.472813827473956
0.40974446032754,0.459310457392763
0.414372418367021,0.445448418069953
0.419215207092183,0.43126165662911
0.424267818852905,0.416784120193814
0.429525245999065,0.402049755887647
0.43498248088054,0.387092510834192
0.440634515847211,0.37194633215703
0.446476343248954,0.356645166979742
0.452502955435649,0.341222962425911
0.458709344757174,0.325713665619118
0.465090503563406,0.310151223682946
0.471641424204226,0.294569583740975
0.47835709902951,0.279002692916788
0.485232520389138,0.263484498333967
0.492262680632988,0.248048947116092
0.499442572110938,0.232729986386747
0.506767187172866,0.217561563269512
0.514231518168652,0.20257762488797
0.521830557448173,0.187812118365703
0.529559297361308,0.173298990826291
0.537412730257935,0.159072189393318
0.545385848487933,0.145165661190364
0.55347364440118,0.131613353341012
0.561671110347554,0.118449212968842
0.569973238676934,0.105707187197438
0.578375021739199,0.0934212231503809
0.586871451884226,0.0816252679512521
0.595457521461894,0.0703532687236338
0.604128222822082,0.0596391725911075
0.612878548314667,0.0495169266772552
0.621703490289529,0.0400204781056585
0.630598041096546,0.0311837739998994
0.639557193085595,0.0230407614835594
0.648575938606557,0.0156253876802206
0.657649270009308,0.00897159971346453
0.666772179643727,0.00311334470687306
0.675939659859693,-0.00191543021597203
0.685146703007085,-0.00608077793148891
0.694388301435779,-0.00934875131609592
0.703659447495656,-0.0116854032462113
0.712955133536593,-0.013056786598253
0.722270351908469,-0.0134289542486395
0.731600094961162,-0.012767959073789
0.74093935504455,-0.0110398539501196
0.750283124508513,-0.00821069175404967
0.759626395702927,-0.00424652536199729
0.768964160977673,0.000886592349619231
0.778291412682628,0.00722260850438176
0.78760314316767,0.0147954702258719
0.796894344782678,0.0236391246376716
0.806160009877531,0.0337875188633626
0.815395130802106,0.0452746000265267
0.824594699906282,0.0581343152507456
0.833753709539938,0.0724006116596011
0.842867152052953,0.088107436376675
0.851930019795203,0.105288736525549
0.860937305116568,0.123978459229805
0.869884000366927,0.144210551613025
0.878765097896157,0.16601896079879
0.887575590054137,0.189437633910683
0.896310469190745,0.214500518072285
0.904964727655861,0.241241560407177
0.913533357799361,0.269694708038943
0.922011351971125,0.299893908091162
0.930393702521031,0.331873107687418
