-0.914152687334088,0.156288593935017
-0.909545538508521,0.161927455790371
-0.904923819775918,0.167486507803032
-0.900287644962678,0.172966118546883
-0.895637127895204,0.178366656595808
-0.890972382399896,0.18368849052369
-0.886293522303155,0.188931988904413
-0.881600661431381,0.19409752031186
-0.876893913610977,0.199185453319915
-0.872173392668342,0.20419615650246
-0.867439212429878,0.209129998433381
-0.862691486721985,0.213987347686559
-0.857930329371064,0.218768572835879
-0.853155854203517,0.223474042455225
-0.848368175045745,0.228104125118478
-0.843567405724147,0.232659189399524
-0.838753660065126,0.237139603872246
-0.833927051895081,0.241545737110526
-0.829087695040415,0.245877957688249
-0.824235703327527,0.250136634179297
-0.81937119058282,0.254322135157555
-0.814494270632693,0.258434829196907
-0.809605057303547,0.262475084871234
-0.804703664421784,0.266443270754421
-0.799790205813805,0.270339755420352
-0.79486479530601,0.27416490744291
-0.7899275467248,0.277919095395977
-0.784978573896577,0.281602687853439
-0.78001799064774,0.285216053389178
-0.775045910804692,0.288759560577077
-0.770062448193833,0.292233577991021
-0.765067716641563,0.295638474204893
-0.760061829974285,0.298974617792576
-0.755044902018399,0.302242377327953
-0.750017046600304,0.305442121384909
-0.744978377546404,0.308574218537326
-0.739929008683098,0.311639037359088
-0.734869053836787,0.314636946424079
-0.729798626833873,0.317568314306182
-0.724717841500756,0.320433509579281
-0.719626811663837,0.323232900817258
-0.714525651149518,0.325966856593998
-0.709414473784198,0.328635745483384
-0.704293393394279,0.3312399360593
-0.699162523806162,0.333779796895628
-0.694021978846248,0.336255696566253
-0.688871872340938,0.338668003645058
-0.683712318116632,0.341017086705926
-0.678543429999732,0.343303314322742
-0.673365321816638,0.345527055069387
-0.668178107393752,0.347688677519746
-0.662981900557474,0.349788550247703
-0.657776815134205,0.35182704182714
-0.652562964950346,0.353804520831942
-0.647340463832298,0.355721355835991
-0.642109425606462,0.357577915413172
-0.63686996409924,0.359374568137367
-0.631622193137031,0.361111682582461
-0.626366226546236,0.362789627322336
-0.621102178153258,0.364408770930876
-0.615830161784496,0.365969481981965
-0.610550291266351,0.367472129049487
-0.605262680425225,0.368917080707323
-0.599967443087518,0.370304705529359
-0.594664693079631,0.371635372089478
-0.589354544227966,0.372909448961562
-0.584037110358923,0.374127304719496
-0.578712505298902,0.375289307937162
-0.573380842874306,0.376395827188446
-0.568042236911534,0.377447231047229
-0.562696801236988,0.378443888087396
-0.557344649677069,0.379386166882829
-0.551985896058178,0.380274436007414
-0.546620654206715,0.381109064035031
-0.541249037949081,0.381890419539567
-0.535871161111678,0.382618871094903
-0.530487137520906,0.383294787274923
-0.525097081003166,0.383918536653511
-0.51970110538486,0.384490487804551
-0.514299324492387,0.385011009301925
-0.508891852152149,0.385480469719517
-0.503478802190548,0.385899237631211
-0.498060288433983,0.386267681610891
-0.492636424708855,0.386586170232439
-0.487207324841567,0.386855072069739
-0.481773102658518,0.387074755696675
-0.476333871986109,0.387245589687129
-0.470889746650742,0.387367942614987
-0.465440840478817,0.38744218305413
-0.459987267296735,0.387468679578444
-0.454529140930898,0.38744780076181
-0.449066575207705,0.387379915178112
-0.443599683953559,0.387265391401235
-0.43812858099486,0.387104598005061
-0.432653380158008,0.386897903563474
-0.427174195269404,0.386645676650358
-0.421691140155451,0.386348285839595
-0.416204328642549,0.38600609970507
-0.410713874557097,0.385619486820665
-0.405219891725499,0.385188815760265
-0.399722493974153,0.384714455097753
-0.394221795129462,0.384196773407012
-0.388717909017826,0.383636139261926
-0.383210949465646,0.383032921236378
-0.377701030299323,0.382387487904252
-0.372188265345258,0.381700207839432
-0.366672768429852,0.3809714496158
-0.361154653379506,0.38020158180724
-0.35563403402062,0.379390972987635
-0.350111024179596,0.37853999173087
-0.344585737682835,0.377649006610828
-0.339058288356737,0.376718386201391
-0.333528790027703,0.375748499076445
-0.327997356522135,0.374739713809871
-0.322464101666433,0.373692398975554
-0.316929139286998,0.372606923147377
-0.311392583210231,0.371483654899223
-0.305854547262533,0.370322962804977
-0.300315145270305,0.36912521543852
-0.294774491059947,0.367890781373738
-0.289232698457862,0.366620029184513
-0.283689881290449,0.36531332744473
-0.27814615338411,0.36397104472827
-0.272601628565245,0.362593549609019
-0.267056420660255,0.361181210660858
-0.261510643495542,0.359734396457673
-0.255964410897506,0.358253475573346
-0.250417836692549,0.35673881658176
-0.24487103470707,0.3551907880568
-0.239324118767472,0.353609758572349
-0.233777202700154,0.35199609670229
-0.228230400331518,0.350350171020507
-0.222683825487965,0.348672350100883
-0.217137591995896,0.346963002517301
-0.211591813681711,0.345222496843646
-0.206046604371812,0.3434512016538
-0.200502077892599,0.341649485521647
-0.194958348070473,0.339817717021072
-0.189415528731836,0.337956264725956
-0.183873733703088,0.336065497210183
-0.17833307681063,0.334145783047638
-0.172793671880863,0.332197490812203
-0.167255632740189,0.330220989077762
-0.161719073215007,0.328216646418199
-0.156184107131718,0.326184831407396
-0.150650848316725,0.324125912619238
-0.145119410596427,0.322040258627608
-0.139589907797226,0.319928238006389
-0.134062453745522,0.317790219329466
-0.128537162267716,0.31562657117072
-0.12301414719021,0.313437662104037
-0.117493522339404,0.311223860703298
-0.111975401541699,0.308985535542389
-0.106459898623497,0.306723055195191
-0.100947127411197,0.30443678823559
-0.0954372017312012,0.302127103237467
-0.0899302354099104,0.299794368774708
-0.0844263422737252,0.297438953421195
-0.0789256361490465,0.295061225750811
-0.0734282308622755,0.29266155433744
-0.067934240239813,0.290240307754966
-0.0624437781080601,0.287797854577273
-0.0569569582934173,0.285334563378242
-0.0514738946222857,0.282850802731759
-0.0459947009210665,0.280346941211706
-0.0405194910161604,0.277823347391968
-0.0350483787339682,0.275280389846427
-0.0295814779008909,0.272718437148967
-0.0241189023433296,0.270137857873471
-0.0186607658876851,0.267539020593823
-0.0132071823603581,0.264922293883907
-0.00775826558774986,0.262288046317606
-0.00231412939626119,0.259636646468803
0.00312511238770702,0.256968462911382
0.00855934593775401,0.254283864219226
0.0139884574274787,0.251583218966219
0.0194123330304801,0.248866895726245
0.0248308589203572,0.246135263073186
0.0302439212707095,0.243388689580926
0.0356514062551358,0.240627543823349
0.0410532000472351,0.237852194374339
0.0464491888206066,0.235063009807778
0.0518392587488495,0.23226035869755
0.0572232960055627,0.229444609617539
0.0626011867643452,0.226616131141629
0.0679728171987963,0.223775291843701
0.073338073482515,0.220922460297641
0.0786968417891004,0.218058005077332
0.0840490082921516,0.215182294756656
0.0893944591652675,0.212295697909499
0.0947330805820474,0.209398583109742
0.10006475871609,0.206491318931269
0.105389379740995,0.203574273947965
0.110706829830361,0.200647816733712
0.116016995157788,0.197712315862394
0.121319761896873,0.194768139907895
0.126615016221217,0.191815657444097
0.131902644304419,0.188855237044885
0.137182532320077,0.185887247284141
0.142454566441791,0.18291205673575
0.147718632843159,0.179930033973595
0.152974617697782,0.176941547571559
0.158222407179257,0.173946966103526
0.163461887461184,0.17094665814338
0.168692944717162,0.167940992265003
0.173915465120791,0.164930337042279
0.179129334845668,0.161915061049092
0.184334440065394,0.158895532859325
0.189530666953567,0.155872121046862
0.194717901683787,0.152845194185585
0.199896030429652,0.14981512084938
0.205064939364762,0.146782269612129
0.210224514662715,0.143747009047715
0.215374642497111,0.140709707730022
0.220515209041549,0.137670734232934
0.225646100469628,0.134630457130334
0.230767202954947,0.131589244996105
0.235878402671105,0.128547466404132
0.240979585791702,0.125505489928297
0.246070638490335,0.122463684142483
0.251151446940605,0.119422417620576
0.25622189731611,0.116382058936457
0.26128187579045,0.11334297666401
0.266331268537224,0.11030553937712
0.27136996173003,0.107270115649669
0.276397841542467,0.10423707405554
0.281414794148136,0.101206783168618
0.286420705720634,0.0981796115627857
0.291415462433562,0.0951559278119267
0.296398950460518,0.0921361004899244
0.3013710559751,0.0891204981706624
0.306331665150909,0.086109489428024
0.311280664161543,0.0831034428358929
0.316217939180602,0.0801027269681523
0.321143376381684,0.0771077103986861
0.326056861938388,0.0741187617013772
0.330958282024315,0.0711362494501097
0.335847522813062,0.0681605422187666
0.340724470478228,0.0651920085812317
0.345589011193414,0.0622310171113883
0.350441031132217,0.05927793638312
0.355280416468238,0.05633313497031
0.360107053375075,0.0533969814468422
0.364920828026327,0.0504698443865998
0.369721626595593,0.0475520923634664
0.374509335256472,0.0446440939513253
0.379283840182564,0.0417462177240602
0.384045027547468,0.0388588322555545
0.388792783524782,0.0359823061196917
0.393526994288105,0.0331170078903551
0.398247546011038,0.0302633061414285
0.402954324867178,0.0274215694467951
0.407647217030125,0.0245921663803385
0.412326108673479,0.0217754655159421
0.416990885970837,0.0189718354274897
0.421641435095799,0.0161816446888643
0.426277642221965,0.0134052618739497
0.430899393522933,0.0106430555566292
0.435506575172302,0.00789539431078652
0.440099073343672,0.00516264671030488
0.444676774210642,0.00244518132906793
0.44923956394681,-0.000256633259040989
0.453787328725776,-0.00294242848013825
0.458319954721138,-0.00561183576034049
0.462837328106497,-0.00826448652576409
0.46733933505545,-0.0109000122025258
0.471825861741598,-0.0135180442167419
0.476296794338538,-0.016118213994529
0.480752019019871,-0.0187001529620037
0.485191421959195,-0.0212634925452825
0.48961488933011,-0.0238078641704817
0.494022307306214,-0.0263328992637181
0.498413562061106,-0.0288382292511081
0.502788539768386,-0.0313234855587682
0.507147126601653,-0.0337882996128149
0.511489208734506,-0.036232302839365
0.515814672340543,-0.0386551266645345
0.520123403593365,-0.0410564025144405
0.524415288666569,-0.043435761815199
0.528690213733756,-0.0457928359929269
0.532948064968523,-0.0481272564737404
0.537188728544471,-0.0504386546837563
0.541412090635198,-0.052726662049091
0.545618037414304,-0.0549909099958611
0.549806455055387,-0.0572310299501829
0.553977229732047,-0.0594466533381732
0.558130247617882,-0.0616374115859483
0.562265394886492,-0.0638029361196249
0.566382557711476,-0.0659428583653194
0.570481622266433,-0.0680568097491484
0.574562474724962,-0.0701444216972282
0.578625001260662,-0.0722053256356757
0.582669088047132,-0.074239152990607
0.586694621257971,-0.076245535188139
0.590701487066778,-0.078224103654388
0.594689571647154,-0.0801744898154706
0.598658761172695,-0.0820963250975032
0.602608941817002,-0.0839892409266025
0.606539999753673,-0.0858528687288849
0.610451821156309,-0.087686839930467
0.614344292198507,-0.0894907859574652
0.618217299053867,-0.0912643382359961
0.622070727895988,-0.0930071281921762
0.625904464898469,-0.0947187872521221
0.629718396234909,-0.0963989468419501
0.633512408078907,-0.098047238387777
0.637286386604063,-0.0996632933157192
0.641040217983974,-0.101246743051893
0.644773788392242,-0.102797219022415
0.648486984002464,-0.104314352653403
0.652179690988239,-0.105797775370971
0.655851795523167,-0.107247118601238
0.659503183780847,-0.108662013770318
0.663133741934878,-0.11004209230433
0.666743356158858,-0.111386985629389
0.670331912626388,-0.112696325171613
0.673899297511065,-0.113969742357116
0.67744539698649,-0.115206868612017
0.680970097226261,-0.116407335362431
0.684473284403978,-0.117570774034476
0.687954844693238,-0.118696816054266
0.691414664267643,-0.11978509284792
0.69485262930079,-0.120835235841554
0.698268625966278,-0.121846876461283
0.701662540437707,-0.122819646133226
0.705034258888676,-0.123753176283497
0.708383667492784,-0.124647098338214
0.71171065242363,-0.125501043723494
0.715015099854813,-0.126314643865452
0.718296895959932,-0.127087530190205
0.721555926912586,-0.127819334123871
0.724792078886375,-0.128509687092564
0.728005238054896,-0.129158220522402
0.731195290591751,-0.129764565839502
0.734362122670537,-0.130328354469979
0.737505620464853,-0.130849217839951
0.740625670148299,-0.131326787375534
0.743722157894474,-0.131760694502844
0.746794969876977,-0.132150570647998
0.749843992269407,-0.132496047237113
0.752869111245363,-0.132796755696304
0.755870212978443,-0.133052327451689
0.758847183642249,-0.133262393929384
0.761799909410377,-0.133426586555505
0.764728276456427,-0.13354453675617
0.767632170954,-0.133615875957494
0.770511479076692,-0.133640235585594
0.773366086998104,-0.133617247066587
0.776195880891835,-0.133546541826589
0.779000746931484,-0.133427751291717
0.781780571290649,-0.133260506888087
0.78453524014293,-0.133044440041815
0.787264639661926,-0.132779182179019
0.789968656021237,-0.132464364725814
0.79264717539446,-0.132099619108318
0.795300083955196,-0.131684576752646
0.797927267877043,-0.131218869084916
0.8005286133336,-0.130702127531244
0.803104006498467,-0.130133983517745
0.805653333545242,-0.129514068470538
0.808176480647525,-0.128842013815738
0.810673333978915,-0.128117450979462
0.813143779713011,-0.127340011387827
0.815587704023411,-0.126509326466948
0.818004993083715,-0.125625027642943
0.820395533067523,-0.124686746341928
0.822759210148432,-0.123694113990019
0.825095910500043,-0.122646762013333
0.827405520295953,-0.121544321837987
0.829687925709764,-0.120386424890097
0.831943012915073,-0.119172702595779
0.834170668085479,-0.117902786381151
0.836370777394582,-0.116576307672328
0.83854322701598,-0.115192897895427
0.840687903123273,-0.113752188476565
0.84280469189006,-0.112253810841858
0.84489347948994,-0.110697396417423
0.846954152096512,-0.109082576629376
0.848986595883376,-0.107408982903834
0.850990697024129,-0.105676246666913
0.852966341692371,-0.103883999344729
0.854913416061702,-0.1020318723634
0.85683180630572,-0.100119497149042
0.858721398598025,-0.0981465051277713
0.860582079112215,-0.0961125277257044
0.86241373402189,-0.0940171963689577
0.864216249500649,-0.0918601424836481
0.86598951172209,-0.0896409974958917
0.867733406859814,-0.0873593928318054
0.869447821087418,-0.0850149599175054
0.871132640578502,-0.0826073301791085
0.872787751506666,-0.080136135042731
0.874413040045507,-0.0776010059344897
0.876008392368626,-0.0750015742805007
0.877573694649622,-0.0723374715068809
0.879108833062092,-0.0696083290397466
0.880613693779638,-0.0668137783052144
0.882088162975857,-0.0639534507294008
0.883532126824348,-0.0610269777384224
0.884945471498712,-0.0580339907583955
