0.499548463604398,0.512220670113265
0.746594491747784,0.0719943449656035
-0.611441053434405,-0.969449671515101
-0.691101155239073,-0.828896079480558
-0.770761257043742,-0.688342487446014
-0.483561088622188,0.487270713287571
-0.282656306008961,0.0973520915047359
