-0.935080405866285,0.152679892115802
-0.924564705963921,0.152778088745004
-0.914099508567876,0.152845133982544
-0.903684751805698,0.152881188311803
-0.893320373804934,0.15288641221616
-0.88300631269313,0.152860966178995
-0.872742506597834,0.152805010683688
-0.862528893646594,0.152718706213619
-0.852365411966955,0.152602213252168
-0.842251999686466,0.152455692282715
-0.832188594932673,0.15227930378864
-0.822175135833124,0.152073208253322
-0.812211560515365,0.151837566160142
-0.802297807106945,0.15157253799248
-0.792433813735409,0.151278284233715
-0.782619518528304,0.150954965367227
-0.772854859613179,0.150602741876397
-0.763139775117581,0.150221774244604
-0.753474203169055,0.149812222955228
-0.74385808189515,0.149374248491649
-0.734291349423413,0.148908011337247
-0.72477394388139,0.148413671975402
-0.715305803396629,0.147891390889494
-0.705886866096677,0.147341328562902
-0.696517070109082,0.146763645479007
-0.687196353561389,0.146158502121189
-0.677924654581147,0.145526058972827
-0.668701911295901,0.144866476517302
-0.659528061833201,0.144179915237993
-0.650403044320592,0.143466535618281
-0.641326796885622,0.142726498141544
-0.632299257655838,0.141959963291164
-0.623320364758787,0.14116709155052
-0.614390056322016,0.140348043402991
-0.605508270473072,0.139502979331959
-0.596674945339502,0.138632059820802
-0.587890019048854,0.137735445352901
-0.579153429728675,0.136813296411636
-0.570465115506511,0.135865773480387
-0.56182501450991,0.134893037042532
-0.553233064866419,0.133895247581454
-0.544689204703586,0.13287256558053
-0.536193372148956,0.131825151523142
-0.527745505330077,0.130753165892669
-0.519345542374497,0.129656769172491
-0.510993421409763,0.128536121845989
-0.502689080563421,0.127391384396541
-0.494432457963019,0.126222717307528
-0.486223491736104,0.12503028106233
-0.478062120010223,0.123814236144326
-0.469948280912923,0.122574743036897
-0.461881912571752,0.121311962223423
-0.453862953114255,0.120026054187283
-0.445891340667982,0.118717179411858
-0.437967013360477,0.117385498380527
-0.43008990931929,0.11603117157667
-0.422259966671966,0.114654359483667
-0.414477123546054,0.113255222584898
-0.406741318069099,0.111833921363744
-0.399052488368649,0.110390616303583
-0.391410572572252,0.108925467887796
-0.383815508807455,0.107438636599763
-0.376267235201804,0.105930282922864
-0.368765689882846,0.104400567340478
-0.36131081097813,0.102849650335986
-0.353902536615201,0.101277692392768
-0.346540804921607,0.0996848539942022
-0.339225554024896,0.0980712956236702
-0.331956722052614,0.0964371777645514
-0.324734247132308,0.0947826609002258
-0.317558067391525,0.0931079055140733
-0.310428120957814,0.0914130720894736
-0.30334434595872,0.089698321109807
-0.296306680521791,0.0879638130584532
-0.289315062774573,0.0862097084187922
-0.282369430844615,0.0844361676742038
-0.275469722859463,0.082643351308068
-0.268615876946665,0.0808314198037648
-0.261807831233767,0.079000533644674
-0.255045523848316,0.0771508533141755
-0.248328892917861,0.0752825392956494
-0.241657876569947,0.0733957520724755
-0.235032412932122,0.0714906521280337
-0.228452440131932,0.0695673999457039
-0.221917896296927,0.0676261560088662
-0.215428719554651,0.0656670808009003
-0.208984848032653,0.0636903348051862
-0.202586219858479,0.0616960785051039
-0.196232773159677,0.0596844723840333
-0.189924446063794,0.0576556769253542
-0.183661176698377,0.0556098526124467
-0.177442903190972,0.0535471599286905
-0.171269563669128,0.0514677593574658
-0.165141096260391,0.0493718113821523
-0.159057439092308,0.04725947648613
-0.153018530292427,0.0451309151527787
-0.147024307988294,0.0429862878654786
-0.141074710307457,0.0408257551076094
-0.135169675377463,0.0386494773625511
-0.129309141325859,0.0364576151136836
-0.123493046280192,0.0342503288443868
-0.117721328368009,0.0320277790380407
-0.111993925716857,0.0297901261780251
-0.106310776454284,0.02753753074772
-0.100671818707836,0.0252701532305054
-0.0950769906050615,0.0229881541097611
-0.0895262302735062,0.020691693868867
-0.0840194758407178,0.0183809329912031
-0.0785566654342434,0.0160560319601493
-0.0731377371816303,0.0137171512590855
-0.0677626292104252,0.0113644513713917
-0.0624312796481756,0.00899809278044773
-0.0571436266224285,0.00661823596963357
-0.051899608260731,0.0042250414223291
-0.0466991626906302,0.00181866962191428
-0.0415422280396731,-0.000600718948231049
-0.0364287424354071,-0.00303296380472685
-0.0313586440053792,-0.00547790446419326
-0.0263318708771364,-0.00793538044325037
-0.021348361178226,-0.0104052312585183
-0.016408053036195,-0.0128872964266169
-0.0115108845785906,-0.0153814154641665
-0.00665679393295976,-0.0178874278877872
-0.00184571922684965,-0.0204051732140989
0.00292240141219235,-0.0229344909597217
0.00764762985661943,-0.0254752206412757
0.0123300279788843,-0.0280272017753811
0.0169696576514401,-0.0305902738786579
0.0215665807467394,-0.0331642764677261
0.0261208591372351,-0.0357490490592059
0.0306325546953803,-0.0383444311697173
0.0351017292936278,-0.0409502623158804
0.0395284448044303,-0.0435663820143152
0.0439127631002409,-0.046192629781642
0.0482547460535124,-0.0488288451344806
0.0525544555366977,-0.0514748675894513
0.0568119534222497,-0.0541305366631741
0.0610273015826212,-0.056795691872269
0.0652005618902652,-0.0594701727333562
0.0693317962176345,-0.0621538187630557
0.073421066437182,-0.0648464694779876
0.0774684344213605,-0.0675479643947719
0.0814739620426231,-0.0702581430300289
0.0854377111734225,-0.0729768449003785
0.0893597436862116,-0.0757039095224408
0.0932401214534432,-0.0784391764128359
0.0970789063475704,-0.0811824850881839
0.100876160241046,-0.0839336750651048
0.104631945006323,-0.0866925858602187
0.108346322515854,-0.0894590569901458
0.112019354642092,-0.092232927971506
0.115651103257489,-0.0950140383209196
0.1192416302345,-0.0978022275550064
0.122790997445576,-0.100597335190387
0.126299266763171,-0.10339920074368
0.129766500059737,-0.106207663731508
0.133192759207728,-0.109022563670489
0.136578106079596,-0.111843740077243
0.139922602547793,-0.114671032468392
0.143226310484774,-0.117504280360554
0.146489291762991,-0.120343323270351
0.149711608254896,-0.123188000714401
0.152893321832943,-0.126038152209326
0.156034494369584,-0.128893617271745
0.159135187737273,-0.131754235418278
0.162195463808462,-0.134619846165545
0.165215384455604,-0.137490289030167
0.168195011551152,-0.140365403528763
0.171134406967559,-0.143245029177954
0.174033632577277,-0.14612900549436
0.17689275025276,-0.1490171719946
0.179711821866461,-0.151909368195295
0.182490909290833,-0.154805433613065
0.185230074398327,-0.157705207764531
0.187929379061398,-0.160608530166311
0.190588885152497,-0.163515240335026
0.193208654544079,-0.166425177787297
0.195788749108596,-0.169338182039742
0.1983292307185,-0.172254092608984
0.200830161246244,-0.17517274901164
0.203291602564283,-0.178093990764332
0.205713616545067,-0.18101765738368
0.208096265061051,-0.183943588386304
0.210439609984687,-0.186871623288823
0.212743713188428,-0.189801601607858
0.215008636544726,-0.192733362860029
0.217234441926036,-0.195666746561956
0.219421191204809,-0.198601592230259
0.221568946253498,-0.201537739381558
0.223677768944557,-0.204475027532474
0.225747721150439,-0.207413296199626
0.227778864743595,-0.210352384899634
0.229771261596479,-0.213292133149118
0.231724973581545,-0.2162323804647
0.233640062571244,-0.219172966362997
0.23551659043803,-0.222113730360632
0.237354619054355,-0.225054511974223
0.239154210292673,-0.227995150720391
0.240915426025436,-0.230935486115757
0.242638328125097,-0.233875357676939
0.24432297846411,-0.236814604920558
0.245969438914926,-0.239753067363234
0.247577771349999,-0.242690584521588
0.249148037641782,-0.245626995912239
0.250680299662728,-0.248562141051807
0.252174619285289,-0.251495859456913
0.253631058381918,-0.254427990644177
0.255049678825069,-0.257358374130218
0.256430542487194,-0.260286849431657
0.257773711240746,-0.263213256065113
0.259079246958177,-0.266137433547208
0.260347211511942,-0.26905922139456
0.261577666774492,-0.271978459123791
0.262770674618281,-0.274894986251519
0.263926296915761,-0.277808642294366
0.265044595539386,-0.280719266768951
0.266125632361607,-0.283626699191895
0.267169469254879,-0.286530779079816
0.268176168091654,-0.289431345949337
0.269145790744384,-0.292328239317076
0.270078399085523,-0.295221298699653
0.270974054987524,-0.29811036361369
0.27183282032284,-0.300995273575805
0.272654756963922,-0.303875868102619
0.273439926783225,-0.306751986710752
0.274188391653201,-0.309623468916824
0.274900213446303,-0.312490154237455
0.275575454034984,-0.315351882189265
0.276214175291697,-0.318208492288875
0.276816439088894,-0.321059824052904
0.277382307299029,-0.323905716997973
0.277911841794554,-0.326746010640701
0.278405104447923,-0.329580544497708
0.278862157131587,-0.332409158085615
0.279283061718001,-0.335231690921042
0.279667880079617,-0.338047982520609
0.280016674088887,-0.340857872400936
0.280329505618266,-0.343661200078643
0.280606436540204,-0.34645780507035
0.280847528727157,-0.349247526892677
0.281052844051575,-0.352030205062244
0.281222444385913,-0.354805679095672
0.281356391602623,-0.357573788509579
0.281454747574158,-0.360334372820588
0.281517574172971,-0.363087271545317
0.281544933271515,-0.365832324200386
0.281536886742242,-0.368569370302416
0.281493496457605,-0.371298249368027
0.281414824290058,-0.374018800913839
0.281300932112054,-0.376730864456472
0.281151881796044,-0.379434279512546
0.280967735214483,-0.38212888559868
0.280748554239823,-0.384814522231496
0.280494400744516,-0.387491028927614
0.280205336601016,-0.390158245203652
0.279881423681775,-0.392816010576232
0.279522723859247,-0.395464164561974
0.279129299005885,-0.398102546677497
0.27870121099414,-0.400730996439421
0.278238521696467,-0.403349353364368
0.277741292985317,-0.405957456968956
0.277209586733145,-0.408555146769806
0.276643464812402,-0.411142262283538
0.276042989095542,-0.413718643026772
0.275408221455017,-0.416284128516128
0.274739223763281,-0.418838558268226
0.274036057892786,-0.421381771799686
0.273298785715985,-0.423913608627129
0.272527469105331,-0.426433908267174
0.271722169933277,-0.428942510236442
0.270882950072276,-0.431439254051553
0.27000987139478,-0.433923979229126
0.269102995773243,-0.436396525285781
0.268162385080118,-0.43885673173814
0.267188101187857,-0.441304438102821
0.266180205968913,-0.443739483896445
0.265138761295739,-0.446161708635633
0.264063829040788,-0.448570951837003
0.262955471076513,-0.450967053017177
0.261813749275366,-0.453349851692774
0.260638725509801,-0.455719187380414
0.259430461652271,-0.458074899596718
0.258189019575228,-0.460416827858305
0.256914461151125,-0.462744811681796
0.255606848252416,-0.465058690583811
0.254266242751552,-0.467358304080969
0.252892706520987,-0.469643491689891
0.251486301433174,-0.471914092927197
0.250047089360566,-0.474169947309507
0.248575132175615,-0.476410894353441
0.247070491750775,-0.478636773575619
0.245533229958498,-0.480847424492662
0.243963408671237,-0.483042686621188
0.242361089761445,-0.485222399477819
0.240726335101575,-0.487386402579175
0.23905920656408,-0.489534535441875
0.237359766021413,-0.491666637582539
0.235628075346026,-0.493782548517789
0.233864196410373,-0.495882107764243
0.232068191086906,-0.497965154838522
0.230240121248078,-0.500031529257245
0.228380048766343,-0.502081070537034
0.226488035514152,-0.504113618194508
0.224564143363959,-0.506129011746287
0.222608434188217,-0.508127090708991
0.220620969859379,-0.510107694599241
0.218601812249897,-0.512070662933656
0.216551023232225,-0.514015835228856
0.214468664678815,-0.515943051001462
0.21235479846212,-0.517852149768094
0.210209486454593,-0.519742971045371
0.208032790528687,-0.521615354349914
0.205824772556855,-0.523469139198343
0.203585494411549,-0.525304165107278
0.201315017965223,-0.527120271593339
0.19901340509033,-0.528917298173146
0.196680717659322,-0.530695084363319
0.194317017544652,-0.532453469680478
0.191922366618773,-0.534192293641244
0.189496826754138,-0.535911395762236
0.1870404598232,-0.537610615560075
0.184553327698412,-0.53928979255138
0.182035492252227,-0.540948766252772
0.179487015357096,-0.54258737618087
0.176907958885475,-0.544205461852296
0.174298384709814,-0.545802862783668
0.171658354702568,-0.547379418491607
0.168987930736189,-0.548934968492733
0.166287174683129,-0.550469352303666
0.163556148415843,-0.551982409441027
0.160794913806782,-0.553473979421434
0.1580035327284,-0.554943901761509
0.155182067053149,-0.556392015977872
0.152330578653482,-0.557818161587142
0.149449129401853,-0.559222178105939
0.146537781170714,-0.560603905050885
0.143596595832517,-0.561963181938597
0.140625635259717,-0.563299848285698
0.137624961324765,-0.564613743608807
0.134594635900115,-0.565904707424543
0.131534720858219,-0.567172579249528
0.128445278071531,-0.568417198600381
0.125326369412503,-0.569638404993722
0.122178056753588,-0.570836037946171
0.119000401967239,-0.572009936974349
0.115793466925909,-0.573159941594875
0.112557313502051,-0.574285891324369
0.109292003568117,-0.575387625679452
0.105997598996561,-0.576464984176744
0.102674161659836,-0.577517806332865
0.0993217534303935,-0.578545931664434
0.0959404361806873,-0.579549199688072
0.0925302717831704,-0.5805274499204
0.0890913221102952,-0.581480521878036
0.0856236490345151,-0.582408255077602
0.0821273144282825,-0.583310489035716
0.0786023801640506,-0.584187063269
0.075048908114272,-0.585037817294074
0.0714669601514,-0.585862590627557
0.0678565981478871,-0.586661222786069
0.0642178839761864,-0.587433553286231
0.0605508795087505,-0.588179421644663
0.0568556466180327,-0.588898667377984
0.0531322471764855,-0.589591130002815
0.0493807430565621,-0.590256649035776
0.0456011961307151,-0.590895063993488
0.0417936682713977,-0.591506214392569
0.0379582213510623,-0.59208993974964
0.0340949172421623,-0.592646079581322
0.0302038178171502,-0.593174473404234
0.0262849849484792,-0.593674960734996
0.0223384805086018,-0.594147381090229
0.0183643663699714,-0.594591573986553
0.0143627044050403,-0.595007378940587
0.0103335564862618,-0.595394635468952
0.00627698448608851,-0.595753183088267
0.00219305027697363,-0.596082861315153
-0.00191818426863034,-0.596383509666231
-0.00605665727827015,-0.596654967658119
-0.0102223068794933,-0.596897074807438
-0.0144150711998465,-0.597109670630809
-0.0186348883668772,-0.597292594644851
-0.0228816965081322,-0.597445686366184
-0.0271554337511591,-0.597568785311429
-0.0314560382235045,-0.597661730997205
-0.0357834480527159,-0.597724362940133
-0.0401376013663401,-0.597756520656832
-0.0445184362919245,-0.597758043663923
-0.048925890957016,-0.597728771478026
-0.053359903489162,-0.59766854361576
-0.0578204120159092,-0.597577199593747
-0.0623073546648052,-0.597454578928606
-0.0668206695633967,-0.597300521136956
-0.0713602948392311,-0.597114865735419
-0.0759261686198553,-0.596897452240615
-0.0805182290328166,-0.596648120169162
-0.085136414205662,-0.596366709037682
-0.0897806622659388,-0.596053058362795
-0.0944509113411938,-0.59570700766112
-0.0991470995589745,-0.595328396449278
