-0.610977097410062,0.407126556118246
-0.573518436021029,0.420299232014516
-0.453405681101298,0.427157433886569
-0.385075633440205,0.385331540088589
-0.310622776450161,0.373074704278722
-0.236837469922798,0.367633629004129
-0.172147464286768,0.356930295853147
-0.108397012204868,0.352381115804124
-0.04782880296932,0.357318399639249
0.0112348692509701,0.32951864660466
0.0717507780449713,0.362247092627447
0.103534365206393,0.34383027205848
0.164228742657339,0.343829405756844
0.160467208449841,0.335145379870171
0.222734866771262,0.355424959629753
0.269045809247259,0.337589181424806
0.276260658307901,0.357584551277294
0.28419430364929,0.347560630692498
0.312001519016497,0.345003514275855
0.298346234895507,0.347504672523258
0.324400826650286,0.338885078517896
0.319084117249829,0.338476075169467
0.325981340222179,0.329746089609527
0.287851793887967,0.312386651210282
0.261487403519552,0.259678315781737
0.255094345312031,0.225215324886633
0.207125236003301,0.291706611502621
0.162778997113391,0.229798910107571
0.124591500472348,0.181555309817564
0.0818679333952233,0.149071394392197
-0.00277485877772159,0.0982269868151587
-0.0430311356549819,0.0546355924025076
-0.108308083994529,0.00376248337219777
-0.197396713070401,-0.0565288944026276
-0.302617512464359,-0.140750099549728
-0.379159388019833,-0.209262577864188
-0.496318253024827,-0.319655299870187
-0.598599833123489,-0.408269363282369
-0.71107847596518,-0.483254768140352
-0.837647875175914,-0.590839034735755
