0.478615407578849,0.313636646217374
0.479069107605714,0.306654000067746
0.479481624774377,0.299734252186633
0.47985329185194,0.292877131454528
0.480184441605504,0.286082366751928
0.480475406802173,0.279349686959325
0.480726520209046,0.272678820957215
0.480938114593227,0.266069497626092
0.582874653989959,0.35820711530257
0.575687269263534,0.372887232207824
0.481339111280632,0.246608072463591
0.481395957245061,0.240242208621362
0.481414948022306,0.233936531852592
0.584967166638887,0.335729321046852
0.481340695083653,0.221504655057411
0.36357273977267,0.117741687970612
0.481119014601487,0.209310273122004
0.480953720949343,0.203301464927952
0.480752568712625,0.197351217090326
0.480515890658437,0.191459258489623
0.48024401955388,0.185625318006335
0.479937288166057,0.179849124520959
0.479596029262068,0.174130406913987
0.375831068464898,0.058403611865164
0.478811259974002,0.162864314857237
0.478368415124129,0.157316398168448
0.477892373826498,0.151824872880042
0.477383468848211,0.146389467872514
0.47684203295637,0.141009912026359
0.582958620637227,0.238541313474947
0.357853844857087,0.0292964235984951
0.474357635595503,0.120044757865352
0.47365853664242,0.114940381033476
0.472928903378393,0.10989022664594
0.472169068570525,0.104894023583238
0.470560125391674,0.0950623869543153
0.576398696110334,0.198210389970345
0.468834369242679,0.0854433021906631
0.467928518222133,0.08071278895955
0.466994462260357,0.0760346003362382
0.466032534124452,0.0714084652012222
0.465043066581521,0.0668341124349967
0.371201593866252,-0.0437208461763902
0.461912755181588,0.053419037154008
0.46081645768157,0.0490491026678894
0.459694284610034,0.044729594953034
0.457373642820819,0.0362407753590905
0.456175839637342,0.0320709212409915
0.454953491950756,0.0279504094161338
0.453706932528162,0.0238789687650118
0.452436494136662,0.0198563281681201
0.449825311515349,0.0119563626590058
0.448485232819741,0.00807849550777221
0.447122606223634,0.00424834393274712
0.44573776449413,0.000465636814424866
0.444331040398331,-0.00326989696669976
0.442902766703339,-0.00695852853013242
0.439982901584181,-0.0141961694819434
0.43849197569422,-0.0177457211093326
0.436980831273473,-0.0212494549970517
0.435449801089041,-0.024707642264606
0.433899217908028,-0.0281205540315012
0.432329414497534,-0.0314884614172425
0.430740723624661,-0.0348116355413355
0.429133478056511,-0.0380903475232856
0.427508010560187,-0.0413248684825984
0.425864653902789,-0.0445154695387791
0.424203740851421,-0.0476624218113335
0.307253023883073,-0.150072699854265
0.420830576635177,-0.0538264644835846
0.419118991004505,-0.0568440971222923
0.529525024048669,0.0389684157272968
0.415647476533573,-0.0627519406023993
0.413888213227515,-0.0656426936828096
0.412113722897199,-0.0684916958161317
0.410324338309727,-0.071299218121871
0.4085203922322,-0.074065531719533
0.40670221743172,-0.0767909077286232
0.404870146675389,-0.0794756172686471
0.403024512730309,-0.08211993145911
0.305929410676382,-0.185978953673667
0.399293886342308,-0.0872884582693751
0.376781062189375,-0.0711991015137651
0.393604542022235,-0.0947450613507027
0.507787631317375,0.0202496012315523
0.395873405564743,-0.134961916847837
0.385181434948673,-0.0593674530093827
0.38585837030268,-0.104145703161438
0.503883338021055,-0.0394295075718734
0.379940103891984,-0.110799551978905
0.361428744246961,-0.099632697045746
0.267432415614939,-0.232895539285168
0.364093726639526,-0.148403084011543
0.36341294799074,-0.160653962164739
0.36633847425066,-0.0852759253348724
0.375667934017706,-0.150796152810331
0.396253444231068,-0.102118409490261
0.349281441856092,-0.139237643140561
0.356552098945878,-0.153882777270709
0.31848690991474,-0.154513654638196
0.375805270004518,-0.14887734474765
0.359321970737106,-0.136999047063116
0.44402987525428,-0.0350172691395579
0.342105399707564,-0.137305604325218
0.330355830271616,-0.152699103656323
0.330462863758858,-0.148653644154201
0.330858462942687,-0.137481762661152
0.333616151928397,-0.169833392855604
0.31985703289161,-0.170546864165774
0.319782294272818,-0.159102303113104
0.314322424223532,-0.195634072170289
0.315553441710283,-0.161458626746958
0.275674852475214,-0.172977123457104
0.309219084012223,-0.1647802943116
0.307111341486809,-0.165831849874866
0.305006008593534,-0.166856023824832
0.3029034180995,-0.167853087281006
0.300803902771809,-0.168823311362892
0.409173090563353,-0.0588035435903496
0.294527135457812,-0.171575658557878
0.29244324846651,-0.172441236337668
0.288290024256566,-0.174096211686472
0.286221352572126,-0.174886151494498
0.284158418190845,-0.175651420884279
0.179718770372702,-0.276755087195591
0.278007366536963,-0.177801917739214
0.273941452680364,-0.179117200742218
0.156622799983383,-0.283372580481485
0.263917834814099,-0.182006888069879
0.150080765868417,-0.289794791110544
0.259971842486824,-0.183009048438618
0.256066103261477,-0.183926625348665
0.25412916047978,-0.184354372805443
0.252203279274869,-0.184761787756065
0.244617025565137,-0.186193544887096
0.242751443750689,-0.186503364099517
0.145273466412404,-0.298949395984758
0.237234378452144,-0.187321671480059
0.342703117143627,-0.0705339294442144
0.23184382147993,-0.187978946985136
0.224868732044916,-0.188617472540324
0.223165092394449,-0.188736439645185
0.219808301713172,-0.188927474550721
0.218155816216565,-0.189000084590408
0.214904328746926,-0.189100845441144
0.213305992308096,-0.189129538491205
0.208624605380792,-0.189132121574226
0.311571554852081,-0.0926697744020613
0.199803081316674,-0.188785956193525
0.198406871598721,-0.188685882046023
0.197032704771917,-0.188574422336046
0.195680913603361,-0.188451848183098
0.194351830860157,-0.188318430706685
0.191763121718211,-0.188020150261485
0.189269239482893,-0.187681749956489
0.093417983303827,-0.300243281660934
0.186872846291017,-0.187305398747742
0.185712040004125,-0.187103669353225
0.184576604279399,-0.186893265591286
0.182383175584853,-0.186447519443167
0.180295222344194,-0.185970329259427
0.179291630936826,-0.185720620452963
0.177366882383525,-0.185200331008374
0.173856439801508,-0.184083856138707
0.0608910005747765,-0.29937414400004
0.170131567093486,-0.182568324947405
0.168266312566628,-0.181608053246636
0.166689291177597,-0.180618513750058
0.275529183450797,-0.0896237886030952
0.165802510000616,-0.179946175792517
0.0595333030124611,-0.298131718240019
0.163777472954963,-0.177547490751938
0.259023592524597,-0.0812860088253144
0.16340493586307,-0.175828765606873
0.163442146211086,-0.17548800726268
0.163783202595761,-0.17447658575084
0.163974472394533,-0.174143966818824
0.16447538510051,-0.173487138029723
0.164785693541918,-0.173163470411647
0.168106149878452,-0.17101170806651
0.170935070555249,-0.169895489585433
0.171751482606367,-0.169632027978611
0.172612232944456,-0.169375345816179
0.174468079549955,-0.168883404302507
0.177592705788032,-0.168203115852561
0.178726473957086,-0.167992803866083
0.181134346032348,-0.167598482855419
0.18240911547276,-0.167415016070243
0.189504607386698,-0.166645464126141
0.191070364081574,-0.166523007970214
0.19435119792023,-0.166311718847299
0.196066940598213,-0.166223428119321
0.107567319621386,-0.25816808382025
0.201519464872007,-0.166031224703372
0.207436921614706,-0.165953717949014
0.20951427843517,-0.165954635735608
0.213828295538058,-0.165998228082896
0.216065621354685,-0.166041444882602
0.218356935704236,-0.166099303592357
0.230634982294425,-0.166617714974547
0.265891976505737,-0.16958582869639
0.276033275946237,-0.170748802936035
0.283098470838383,-0.171625344328272
0.294159411416357,-0.173097416655447
0.297971228874691,-0.17363112797288
0.431644284720753,-0.0660178092945265
0.330760757786185,-0.178714229471852
0.409112185611181,-0.193652415462619
0.414598164316921,-0.19481651604909
0.420155435444881,-0.196009356759894
0.53502953022021,-0.0887684922066977
0.449022824266548,-0.202414151361595
0.467220063720709,-0.206619261262956
0.499038979561735,-0.214254996689601
0.403694317920733,-0.321091321015471
0.635369116812406,-0.109305018842761
0.546784728007154,-0.226319121124239
0.561125903695832,-0.230071849732794
0.613824289944273,-0.244322373634961
0.621675070441194,-0.246503488645785
0.662159751303496,-0.257971658525042
0.696044396072682,-0.267837575388943
0.825440406340625,-0.307469852578342
0.835341627414707,-0.310617272468722
0.865584189382292,-0.320322526800684
