0.620128134100677,-0.632770523503347
0.134367182498604,-0.85662172458315
0.674594807348623,-0.489437896244549
0.412181133507278,0.458894178036702
0.149767459665933,1.40722625231795
0.449900449345433,0.540503035485826
-0.904631428144437,-0.311820992620325
