0.91105736124598,-0.934174478266469
0.911301523477596,-0.928034644806441
0.911512895853069,-0.921931730396313
0.911691590203853,-0.915865588272716
0.911837718361399,-0.909836071672279
0.91195139215716,-0.903843033831633
0.912032723422588,-0.897886327987405
0.912081823989136,-0.891965807376228
0.912098805688256,-0.886081325234729
0.912083780351401,-0.88023273479954
0.912036859810021,-0.874419889307289
0.911958155895571,-0.868642641994607
0.911847780439502,-0.862900846098123
0.911705845273268,-0.857194354854467
0.911532462228318,-0.851523021500269
0.911327743136108,-0.845886699272158
0.911091799828089,-0.840285241406765
0.910824744135712,-0.834718501140718
0.910526687890431,-0.829186331710649
0.910197742923698,-0.823688586353185
0.909838021066966,-0.818225118304958
0.909447634151686,-0.812795780802597
0.909026694009311,-0.807400427082732
0.908575312471293,-0.802038910381992
0.908093601369085,-0.796711083937008
0.907581672534139,-0.791416800984408
0.907039637797908,-0.786155914760824
0.906467608991843,-0.780928278502883
0.905865697947398,-0.775733745447218
0.905234016496024,-0.770572168830456
0.904572676469174,-0.765443401889227
0.9038817896983,-0.760347297860163
0.903161468014855,-0.755283709979891
0.902411823250291,-0.750252491485043
0.90163296723606,-0.745253495612247
0.900825011803615,-0.740286575598134
0.899988068784408,-0.735351584679334
0.899122250009892,-0.730448376092475
0.898227667311518,-0.725576803074188
0.897304432520739,-0.720736718861102
0.896352657469008,-0.715927976689848
0.895372453987777,-0.711150429797055
0.894363933908497,-0.706403931419353
0.893327209062622,-0.701688334793371
0.892262391281605,-0.69700349315574
0.891169592396897,-0.692349259743089
0.89004892423995,-0.687725487792047
0.888900498642217,-0.683132030539245
0.887724427435151,-0.678568741221312
0.886520822450204,-0.674035473074879
0.885289795518827,-0.669532079336573
0.884031458472474,-0.665058413243027
0.882745923142597,-0.660614328030869
0.881433301360648,-0.656199676936729
0.88009370495808,-0.651814313197237
0.878727245766344,-0.647458090049022
0.877334035616894,-0.643130860728715
0.875914186341182,-0.638832478472945
0.874467809770659,-0.634562796518341
0.872995017736779,-0.630321668101535
0.871495922070993,-0.626108946459154
0.869970634604755,-0.62192448482783
0.868419267169516,-0.617768136444191
0.866841931596729,-0.613639754544868
0.865238739717846,-0.609539192366491
0.86360980336432,-0.605466303145688
0.861955234367602,-0.60142094011909
0.860275144559145,-0.597402956523327
0.858569645770403,-0.593412205595028
0.856838849832826,-0.589448540570824
0.855082868577868,-0.585511814687342
0.853301813836979,-0.581601881181215
0.851495797441615,-0.577718593289071
0.849664931223226,-0.573861804247541
0.847809327013264,-0.570031367293253
0.845929096643183,-0.566227135662837
0.844024351944434,-0.562448962592924
0.84209520474847,-0.558696701320143
0.840141766886743,-0.554970205081124
0.838164150190705,-0.551269327112497
0.83616246649181,-0.547593920650891
0.834136827621509,-0.543943838932936
0.832087345411255,-0.540318935195261
0.830014131692499,-0.536719062674498
0.827917298296695,-0.533144074607275
0.825796957055295,-0.529593824230222
0.823653219799751,-0.526068164779969
0.821486198361515,-0.522566949493145
0.81929600457204,-0.519090031606381
0.817082750262779,-0.515637264356306
0.814846547265183,-0.51220850097955
0.812587507410704,-0.508803594712742
0.810305742530796,-0.505422398792513
0.808001364456911,-0.502064766455492
0.805674485020501,-0.498730550938309
0.803325216053018,-0.495419605477594
0.800953669385914,-0.492131783309976
0.798559956850643,-0.488866937672085
0.796144190278656,-0.485624921800551
0.793706481501406,-0.482405588932003
0.791246942350346,-0.479208792303073
0.788765684656926,-0.476034385150388
0.786262820252601,-0.472882220710579
0.783738460968821,-0.469752152220275
0.781192718637041,-0.466644032916108
0.778625705088711,-0.463557716034705
0.776037532155285,-0.460493054812697
0.773428311668214,-0.457449902486714
0.770798155458952,-0.454428112293385
0.768147175358949,-0.451427537469341
0.76547548319966,-0.44844803125121
0.762783190812535,-0.445489446875623
0.760070410029029,-0.44255163757921
0.757337252680592,-0.4396344565986
0.754583830598677,-0.436737757170422
0.751810255614737,-0.433861392531307
0.749016639560223,-0.431005215917885
0.74620309426659,-0.428169080566785
0.743369731565287,-0.425352839714637
0.740516663287768,-0.42255634659807
0.737644001265487,-0.419779454453715
0.734751857329894,-0.417022016518201
0.731840343312441,-0.414283886028158
0.728909571044582,-0.411564916220216
0.72595965235777,-0.408864960331004
0.722990699083455,-0.406183871597153
0.720002823053091,-0.403521503255291
0.716996136098129,-0.400877708542049
0.713970750050024,-0.398252340694057
0.710926776740225,-0.395645252947943
0.707864328000187,-0.393056298540339
0.704783515661361,-0.390485330707873
0.701684451555199,-0.387932202687176
0.698567247513155,-0.385396767714877
0.69543201536668,-0.382878879027606
0.692278866947227,-0.380378389861993
0.689107914086248,-0.377895153454667
0.685919268615196,-0.375429023042259
0.682713042365522,-0.372979851861397
0.67948934716868,-0.370547493148712
0.676248294856121,-0.368131800140834
0.672989997259298,-0.365732626074391
0.669714566209664,-0.363349824186015
0.66642211353867,-0.360983247712334
0.663112751077769,-0.35863274988998
0.659786590658414,-0.35629818395558
0.656443744112056,-0.353979403145765
0.653084323270149,-0.351676260697165
0.649708439964144,-0.349388609846409
0.646316206025494,-0.347116303830128
0.642907733285651,-0.344859195884951
0.639483133576067,-0.342617139247507
0.636042518728196,-0.340389987154427
0.632586000573489,-0.33817759284234
0.629113690943398,-0.335979809547876
0.625625701669376,-0.333796490507665
0.622122144582876,-0.331627488958337
0.61860313151535,-0.329472658136521
0.615068774298249,-0.327331851278846
0.611519184763027,-0.325204921621944
0.607954474741136,-0.323091722402443
0.604374756064028,-0.320992106856973
0.600780140563156,-0.318905928222164
0.597170740069971,-0.316833039734646
0.593546666415927,-0.314773294631049
0.589908031432475,-0.312726546148001
0.586254946951069,-0.310692647522134
0.582587524803159,-0.308671451990077
0.5789058768202,-0.306662812788459
0.575210114833642,-0.30466658315391
0.571500350674939,-0.302682616323061
0.567776696175542,-0.30071076553254
0.564039263166905,-0.298750884018978
0.560288163480479,-0.296802825019004
0.556523508947717,-0.294866441769248
0.552745411400072,-0.29294158750634
0.548953982668995,-0.291028115466909
0.545149334585939,-0.289125878887586
0.541331578982356,-0.287234731005
0.537500827689698,-0.28535452505578
0.533657192539419,-0.283485114276557
0.52980078536297,-0.281626351903961
0.525931717991805,-0.27977809117462
0.522050102257374,-0.277940185325165
0.51815604999113,-0.276112487592226
0.514249673024527,-0.274294851212433
0.510331083189015,-0.272487129422414
0.506400392316048,-0.2706891754588
0.502457712237078,-0.26890084255822
0.498503154783558,-0.267121983957305
0.494536831786939,-0.265352452892684
0.490558855078674,-0.263592102600987
0.486569336490215,-0.261840786318843
0.482568387853015,-0.260098357282883
0.478556120998526,-0.258364668729736
0.474532647758201,-0.256639573896031
0.470498079963491,-0.254922926018399
0.46645252944585,-0.25321457833347
0.462396108036729,-0.251514384077872
0.458328927567581,-0.249822196488237
0.454251099869858,-0.248137868801193
0.450162736775013,-0.24646125425337
0.446063950114498,-0.244792206081399
0.441954851719764,-0.243130577521908
0.437835553422266,-0.241476221811528
0.433706167053455,-0.239828992186888
0.429566804444783,-0.238188741884618
0.425417577427703,-0.236555324141348
0.421258597833668,-0.234928592193708
0.417089977494128,-0.233308399278327
0.412911828240538,-0.231694598631836
0.408724261904348,-0.230087043490863
0.404527390317013,-0.228485587092038
0.400321325309983,-0.226890082671992
0.396106178714711,-0.225300383467355
0.391882062362651,-0.223716342714755
0.387649088085253,-0.222137813650822
0.38340736771397,-0.220564649512187
0.379157013080256,-0.21899670353548
0.374898136015561,-0.217433828957329
0.370630848351339,-0.215875879014364
0.366355261919042,-0.214322706943216
0.362071488550122,-0.212774165980514
0.357779640076031,-0.211230109362888
0.353479828328223,-0.209690390326968
0.349172165138148,-0.208154862109383
0.344856762337261,-0.206623377946763
0.340533731757012,-0.205095791075738
0.336203185228855,-0.203571954732938
0.331865234584241,-0.202051722154992
0.327519991654623,-0.20053494657853
0.323167568271454,-0.199021481240183
0.318808076266186,-0.197511179376578
0.31444162747027,-0.196003894224348
0.310068333715161,-0.19449947902012
0.305688306832309,-0.192997787000525
0.301301658653167,-0.191498671402193
0.296908501009188,-0.190001985461753
0.292508945731824,-0.188507582415836
0.288103104652528,-0.18701531550107
0.283691089602751,-0.185525037954086
0.279273012413946,-0.184036603011514
0.274848984917565,-0.182549863909982
0.270419118945061,-0.181064673886122
0.265983526327887,-0.179580886176562
0.261542318897493,-0.178098354017933
0.257095608485334,-0.176616930646864
0.252643506922861,-0.175136469299984
0.248186126041527,-0.173656823213925
0.243723577672783,-0.172177845625314
0.239255973648083,-0.170699389770784
0.234783425798878,-0.169221308886961
0.230306045956621,-0.167743456210478
0.225823945952765,-0.166265684977963
0.221337237618762,-0.164787848426046
0.216846032786063,-0.163309799791358
0.212350443286122,-0.161831392310527
0.207850580950391,-0.160352479220183
0.203346557610322,-0.158872913756957
0.198838485097367,-0.157392549157477
0.19432647524298,-0.155911238658374
0.189810639878611,-0.154428835496278
0.185291090835715,-0.152945192907818
0.180767939945742,-0.151460164129623
0.176241299040146,-0.149973602398325
0.171711279950378,-0.148485360950552
0.167177994507892,-0.146995293022934
0.162641554544138,-0.145503251852101
0.158102071890571,-0.144009090674683
0.153559658378642,-0.142512662727309
0.149014425839803,-0.14101382124661
0.144466486105507,-0.139512419469214
0.139915951007207,-0.138008310631753
0.135362932376354,-0.136501347970854
0.130807542044401,-0.134991384723149
0.1262498918428,-0.133478274125267
0.121690093603004,-0.131961869413838
0.117128259156465,-0.130442023825491
0.112564500334636,-0.128918590596856
0.107998928968968,-0.127391422964564
0.103431656890914,-0.125860374165243
0.0988627959319266,-0.124325297435523
0.0942924579234583,-0.122786046012035
0.089720754696961,-0.121242473131408
0.0851477980838875,-0.119694432030272
0.0805736999156896,-0.118141775945256
0.0759985720238203,-0.11658435811299
0.0714225262397314,-0.115022031770104
0.0668456743948758,-0.113454650153228
0.0622681283207053,-0.111882066498992
0.0576899998486727,-0.110304134044025
0.05311140081023,-0.108720706024957
0.04853244303683,-0.107131635678417
0.0439532383599246,-0.105536776241036
0.0393738986109665,-0.103935980949444
0.0347945356214077,-0.102329103040269
0.0302152612227012,-0.100715995750142
0.0256361872462986,-0.0990965123156928
0.0210574255236528,-0.0974705059735508
0.0164790878862159,-0.0958378299603457
0.0119012861654404,-0.0941983375127075
0.00732413219277847,-0.0925518818672657
0.00274773779968279,-0.0908983162606503
-0.00182778518239464,-0.0892374939294908
-0.00640232492200114,-0.0875692681104172
-0.0109757695876846,-0.0858934920400591
-0.0155480073479925,-0.0842100189550463
-0.0201189263714727,-0.0825187020920085
-0.0246884148266723,-0.0808193946875755
-0.0292563608821397,-0.0791119499783771
-0.0338226527064219,-0.0773962212010429
-0.038387178468067,-0.0756720615922028
-0.0429498263356222,-0.0739393243884865
-0.0475104844776356,-0.0721978628265237
-0.0520690410626544,-0.0704475301429443
-0.0566253842592267,-0.0686881795743778
-0.0611794022358996,-0.0669196643574543
-0.0657309831612213,-0.0651418377288032
-0.0702800152037389,-0.0633545529250545
-0.0748263865320005,-0.0615576631828378
-0.0793699853145534,-0.0597510217387829
-0.0839106997199455,-0.0579344818295196
-0.0884484179167242,-0.0561078966916777
-0.0929830280734374,-0.0542711195618867
-0.0975144183586325,-0.0524240036767767
-0.102042476940857,-0.0505664022729771
-0.106567091988659,-0.0486981685871179
-0.111088151670586,-0.0468191558558288
-0.115605544155186,-0.0449292173157395
-0.120119157611006,-0.0430282062034798
-0.124628880206593,-0.0411159757556794
-0.129134600110496,-0.0391923792089681
-0.133636205491262,-0.0372572697999757
-0.138133584517439,-0.0353105007653318
-0.142626625357574,-0.0333519253416663
-0.147115216180216,-0.0313813967656088
-0.151599245153911,-0.0293987682737892
-0.156078600447207,-0.0274038931028372
-0.160553170228652,-0.0253966244893826
-0.165022842666794,-0.023376815670055
-0.16948750593018,-0.0213443198814843
-0.173947048187358,-0.0192989903603001
-0.178401357606875,-0.0172406803431324
-0.18285032235728,-0.0151692430666108
-0.187293830607119,-0.013084531767365
-0.191731770524941,-0.0109863996820248
-0.196164030279293,-0.00887470004721999
-0.200590498038722,-0.00674928609958025
-0.205011061971777,-0.00461001107573545
-0.209425610247005,-0.00245672821231519
-0.213834031032953,-0.000289290745949401
-0.21823621249817,0.00189244808673241
-0.222632042811203,0.0040886350491002
-0.227021410140599,0.00629941690452447
-0.231404202654906,0.00852494041637531
-0.235780308522672,0.0107653523480231
-0.240149615912445,0.0130207994628379
-0.244512012992772,0.0152914285241902
-0.2488673879322,0.0175773862954499
-0.253215628899278,0.0198788195399877
-0.257556624062552,0.0221958750211734
-0.261890261590572,0.0245286995023776
-0.266216429651883,0.0268774397469704
-0.270535016415035,0.0292422425183221
-0.274845910048574,0.0316232545798027
-0.279148998721048,0.0340206226947829
-0.283444170601006,0.0364344936266325
-0.287731313856993,0.0388650141387221
-0.292010316657559,0.0413123309944217
-0.296281067171251,0.0437765909571017
-0.300543453566616,0.0462579407901323
-0.304797364012202,0.0487565272568837
-0.309042686676556,0.0512724971207262
-0.313279309728227,0.0538059971450301
-0.317507121335762,0.0563571740931654
-0.321726009667709,0.0589261747285028
-0.325935862892614,0.061513145814412
-0.330136569179027,0.0641182341142638
-0.334328016695494,0.066741586391428
-0.338510093610564,0.0693833494092751
-0.342682688092782,0.0720436699311752
-0.346845688310699,0.0747226947204988
-0.35099898243286,0.0774205705406157
-0.355142458627815,0.0801374441548967
-0.359276005064109,0.0828734623267116
-0.363399509910292,0.0856287718194309
-0.36751286133491,0.0884035193964246
-0.371615947506512,0.0911978518210633
-0.375708656593644,0.0940119158567169
-0.379790876764855,0.096845858266756
-0.383862496188692,0.0996998258145504
-0.387923403033703,0.102573965263471
-0.391973485468435,0.105468423376887
-0.396012631661437,0.10838334691817
-0.400040729781255,0.111318882650689
-0.404057667996438,0.114275177337815
-0.408063334475532,0.117252377742918
-0.412057617387087,0.120250630629369
-0.416040404899648,0.123270082760537
-0.420011585181765,0.126310880899792
