0.89373583780604,0.837557369072788
0.880950049542625,0.834306357040091
0.868228743169249,0.831074036160829
0.855571896208288,0.827860282042698
0.842979486182118,0.824664970293395
0.830451490613113,0.821487976520615
0.81798788702365,0.818329176332055
0.805588652936105,0.81518844533541
0.793253765872852,0.812065659138376
0.780983203356268,0.80896069334865
0.768776942908727,0.805873423573926
0.756634962052606,0.802803725421902
0.74455723831028,0.799751474500274
0.732543749204125,0.796716546416736
0.720594472256517,0.793698816778985
0.708709384989829,0.790698161194717
0.69688846492644,0.787714455271628
0.685131689588724,0.784747574617415
0.673439036499056,0.781797394839772
0.661810483179812,0.778863791546396
0.650246007153369,0.775946640344982
0.638745585942101,0.773045816843228
0.627309197068383,0.770161196648829
0.615936818054592,0.76729265536948
0.604628426423103,0.764440068612878
0.593383999696292,0.761603311986718
0.582203515396535,0.758782261098697
0.571086951046206,0.755976791556511
0.560034284167682,0.753186778967855
0.549045492283337,0.750412098940426
0.538120552915549,0.747652627081919
0.527259443586691,0.74490823900003
0.516462141819141,0.742178810302456
0.505728625135273,0.739464216596893
0.495058871057462,0.736764333491035
0.484452857108085,0.73407903659258
0.473910560809518,0.731408201509224
0.463431959684135,0.728751703848661
0.453017031254313,0.726109419218589
0.442665753042426,0.723481223226702
0.432378102570851,0.720866991480698
0.422154057361963,0.718266599588272
0.411993594938137,0.71567992315712
0.40189669282175,0.713106837794937
0.391863328535177,0.710547219109421
0.381893479600793,0.708000942708267
0.371987123540974,0.70546788419917
0.362144237878095,0.702947919189827
0.352364800134533,0.700440923287935
0.342648787832663,0.697946772101187
0.332996178494859,0.695465341237282
0.323406949643499,0.692996506303914
0.313881078800957,0.69054014290878
0.304418543489609,0.688096126659576
0.295019321231831,0.685664333163997
0.285683389549998,0.683244638029739
0.276410725966486,0.680836916864499
0.26720130800367,0.678441045275973
0.258055113183927,0.676056898871856
0.24897211902963,0.673684353259844
0.239952303063158,0.671323284047634
0.230995642806883,0.668973566842921
0.222102115783183,0.666635077253401
0.213271699514433,0.66430769088677
0.204504371523009,0.661991283350725
0.195800109331285,0.659685730252961
0.187158890461639,0.657390907201173
0.178580692436444,0.655106689803059
0.170065492778077,0.652832953666314
0.161613269008914,0.650569574398634
0.15322399865133,0.648316427607715
0.1448976592277,0.646073388901253
0.1366342282604,0.643840333886944
0.128433683271806,0.641617138172483
0.120296001784294,0.639403677365568
0.112221161320238,0.637199827073893
0.104209139402015,0.635005462905155
0.0962599135520002,0.632820460467049
0.0883734612925688,0.630644695367273
0.0805497601460966,0.62847804321352
0.0727887876349593,0.626320379613489
0.0650905212815325,0.624171580174874
0.0574549386081916,0.622031520505371
0.0498820171373121,0.619900076212678
0.04237173439127,0.617777122904488
0.0349240678924407,0.615662536188499
0.0275389951631996,0.613556191672406
0.0202164937259224,0.611457964963905
0.0129565411029849,0.609367731670693
0.00575911481676236,0.607285367400466
-0.00137580761036959,0.605210747760918
-0.00844824865603525,0.603143748359746
-0.015458230797859,0.601084244804647
-0.0224057765134654,0.599032112703315
-0.0292909082804788,0.596987227663448
-0.0361136485765237,0.594949465292741
-0.0428740198792242,0.59291870119889
-0.049572044666205,0.59089481098959
-0.0562077454150906,0.588877670272539
-0.0627811446035051,0.586867154655431
-0.0692922647090732,0.584863139745964
-0.0757411282094192,0.582865501151832
-0.0821277575821675,0.580874114480732
-0.0884521753049426,0.578888855340359
-0.0947144038553689,0.576909599338411
-0.100914465711071,0.574936222082581
-0.107052383349672,0.572968599180568
-0.113128179248799,0.571006606240066
-0.119141875886074,0.569050118868772
-0.125093495739122,0.567099012674381
-0.130983061285568,0.565153163264589
-0.136810595003036,0.563212446247093
-0.14257611936915,0.561276737229589
-0.148279656861536,0.559345911819771
-0.153921229957816,0.557419845625337
-0.159500861135617,0.555498414253982
-0.165018572872561,0.553581493313403
-0.170474387646274,0.551668958411295
-0.175868327934381,0.549760685155354
-0.181200416214504,0.547856549153276
-0.186470674964269,0.545956426012757
-0.191679126661301,0.544060191341493
-0.196825793783223,0.54216772074718
-0.20191069880766,0.540278889837514
-0.206933864212237,0.538393574220191
-0.211895312474578,0.536511649502907
-0.216795066072307,0.534632991293358
-0.221633147483049,0.53275747519924
-0.226409579184428,0.530884976828248
-0.231124383654068,0.529015371788079
-0.235777583369594,0.527148535686429
-0.240369200808631,0.525284344130994
-0.244899258448803,0.523422672729469
-0.249367778767733,0.521563397089551
-0.253774784243048,0.519706392818935
-0.25812029735237,0.517851535525318
-0.262404340573325,0.515998700816395
-0.266626936383537,0.514147764299863
-0.27078810726063,0.512298601583417
-0.274887875682229,0.510451088274753
-0.278926264125958,0.508605099981568
-0.282903295069442,0.506760512311557
-0.286818990990305,0.504917200872417
-0.290673374366171,0.503075041271842
-0.294466467674664,0.50123390911753
-0.29819829339341,0.499393680017176
-0.301868874000033,0.497554229578476
-0.305478231972157,0.495715433409126
-0.309026389787406,0.493877167116823
-0.312513369923405,0.492039306309261
-0.315939194857778,0.490201726594137
-0.31930388706815,0.488364303579147
-0.322607469032146,0.486526912871987
-0.325849963227388,0.484689430080352
-0.329031392131503,0.48285173081194
-0.332151778222114,0.481013690674445
-0.335211143976846,0.479175185275564
-0.338209511873323,0.477336090222993
-0.34114690438917,0.475496281124427
-0.344023344002011,0.473655633587563
-0.34683885318947,0.471814023220097
-0.349593454429172,0.469971325629724
-0.352287170198741,0.468127416424141
-0.354920022975802,0.466282171211043
-0.35749203523798,0.464435465598126
-0.360003229462898,0.462587175193087
-0.36245362812818,0.460737175603622
-0.364843253711452,0.458885342437425
-0.367172128690338,0.457031551302194
-0.369440275542463,0.455175677805624
-0.371647716745449,0.453317597555412
-0.373794474776923,0.451457186159252
-0.375880572114508,0.449594319224842
-0.377906031235829,0.447728872359876
-0.379870874618511,0.445860721172052
-0.381775124740177,0.443989741269065
-0.383618804078452,0.442115808258611
-0.385401935110961,0.440238797748385
-0.387124540315328,0.438358585346085
-0.388786642169177,0.436475046659405
-0.390388263150133,0.434588057296043
-0.39192942573582,0.432697492863693
-0.393410152403863,0.430803228970052
-0.394830465631885,0.428905141222815
-0.396190387897513,0.427003105229679
-0.397489941678369,0.42509699659834
-0.398729149452078,0.423186690936494
-0.399908033696265,0.421272063851836
-0.401026616888554,0.419352990952062
-0.40208492150657,0.417429347844869
-0.403082970027936,0.415501010137953
-0.404020784930278,0.413567853439009
-0.40489838869122,0.411629753355733
-0.405715803788386,0.409686585495822
-0.406473052699401,0.407738225466971
-0.407170157901888,0.405784548876876
-0.407807141873474,0.403825431333233
-0.408384027091781,0.401860748443739
-0.408900836034434,0.399890375816089
-0.409357591179058,0.397914189057979
-0.409754315003277,0.395932063777105
-0.410091029984715,0.393943875581163
-0.410367758600998,0.391949500077849
-0.410584523329748,0.389948812874858
-0.410741346648592,0.387941689579888
-0.410838251035153,0.385928005800634
-0.410875258967055,0.383907637144792
-0.410852392921924,0.381880459220057
-0.410769675377383,0.379846347634127
-0.410627128811056,0.377805177994695
-0.410424775700569,0.37575682590946
-0.410162638523546,0.373701166986116
-0.409840739757611,0.37163807683236
-0.409459101880388,0.369567431055888
-0.409017747369502,0.367489105264395
-0.408516698702578,0.365402975065578
-0.407955978357239,0.363308916067132
-0.407335608811111,0.361206803876753
-0.406655612541817,0.359096514102138
-0.405916012026982,0.356977922350982
-0.405116829744231,0.354850904230982
-0.404258088171187,0.352715335349833
-0.403339809785476,0.350571091315231
-0.402362017064721,0.348418047734873
-0.401324732486548,0.346256080216453
-0.40022797852858,0.344085064367669
-0.399071777668442,0.341904875796215
-0.397856152383758,0.339715390109789
-0.396581125152153,0.337516482916086
-0.395246718451251,0.335308029822802
-0.393852954758677,0.333089906437633
-0.392399856552055,0.330861988368275
-0.390887446309009,0.328624151222423
-0.389315746507164,0.326376270607775
-0.387684779624145,0.324118222132025
-0.385994568137575,0.32184988140287
-0.384245134525079,0.319571124028005
-0.382436501264281,0.317281825615128
-0.380568690832807,0.314981861771933
-0.37864172570828,0.312671108106116
-0.376655628368324,0.310349440225375
-0.374610421290565,0.308016733737404
-0.372506126952627,0.305672864249899
-0.370342767832133,0.303317707370556
-0.368120366406709,0.300951138707073
-0.365838945153979,0.298573033867143
-0.363498526551567,0.296183268458464
-0.361099133077097,0.293781718088731
-0.358640787208195,0.291368258365641
-0.356123511422484,0.288942764896888
-0.353547328197589,0.28650511329017
-0.350912260011135,0.284055179153182
-0.348218329340745,0.281592838093621
-0.345465558664044,0.279117965719181
-0.342653970458657,0.276630437637559
-0.339783587202208,0.274130129456451
-0.336854431372321,0.271616916783554
-0.333866525446621,0.269090675226562
-0.330819891902733,0.266551280393172
-0.32771455321828,0.26399860789108
-0.324550531870887,0.261432533327982
-0.321327850338179,0.258852932311574
-0.318046531097779,0.256259680449551
-0.314706596627313,0.25365265334961
-0.311308069404405,0.251031726619447
-0.307850971906679,0.248396775866757
-0.304335326611759,0.245747676699237
-0.30076115599727,0.243084304724582
-0.297128482540837,0.24040653555049
-0.293437328720084,0.237714244784654
-0.289687717012635,0.235007308034772
-0.285879669896114,0.232285600908539
-0.282013209848147,0.229548999013652
-0.278088359346357,0.226797377957806
-0.274105140868369,0.224030613348698
-0.270063576891807,0.221248580794022
-0.265963689894296,0.218451155901476
-0.26180550235346,0.215638214278755
-0.257589036746924,0.212809631533555
-0.253314315552312,0.209965283273573
-0.248981361247248,0.207105045106503
-0.244590196309357,0.204228792640042
-0.240140843216263,0.201336401481887
-0.235633324445591,0.198427747239732
-0.231067662474965,0.195502705521275
-0.226443879782009,0.19256115193421
-0.221761998844349,0.189602962086234
-0.217022042139607,0.186628011585042
-0.21222403214541,0.183636176038332
-0.20736799133938,0.180627331053798
-0.202453942199143,0.177601352239137
-0.197481907202323,0.174558115202045
-0.192451908826545,0.171497495550217
-0.187363969549432,0.16841936889135
-0.182218111848609,0.16532361083314
-0.177014358201701,0.162210096983282
-0.171752731086333,0.159078702949472
-0.166433252980127,0.155929304339407
-0.16105594636071,0.152761776760782
-0.155620833705705,0.149575995821294
-0.150127937492737,0.146371837128637
-0.144577280199429,0.14314917629051
-0.138968884303408,0.139907888914606
-0.133302772282296,0.136647850608623
-0.127578966613718,0.133368936980256
-0.1217974897753,0.1300710236372
-0.115958364244665,0.126753986187154
-0.110061612499437,0.12341770023781
-0.104107257017241,0.120062041396868
-0.0980953202757021,0.116686885272021
-0.092025824752444,0.113292107470966
-0.0858987929250909,0.109877583601399
-0.0797142472712679,0.106443189271015
-0.0734722102685987,0.102988800087512
-0.0671727043947083,0.0995142916585846
-0.0608157521272205,0.0960195395919286
-0.0544013759437604,0.0925044194952407
-0.047929598321952,0.0889688069762161
-0.0414004417394199,0.0854125776425514
-0.0348139286737883,0.0818356071019422
-0.0281700816026819,0.0782377709620847
-0.0214689230037247,0.0746189448306745
-0.0147104753545417,0.070979004315408
-0.00789476113275675,0.0673178250239808
-0.00102180281599482,0.0636352825640892
0.00590837711812034,0.0599312525434288
0.0128957561919636,0.0562056105696959
0.0199403119279113,0.0524582322505861
0.0270420218483383,0.0486889931937958
0.0342008634756207,0.0448977690070205
0.0414168143321337,0.0410844352979566
0.0486898519402532,0.0372488676742997
0.0560199538223545,0.033390941743746
0.0634070975008136,0.0295105331139913
0.0708512604980056,0.0256075173927318
0.0783524203363065,0.0216817701876631
0.0859105545380915,0.0177331671064816
0.0935256406257366,0.0137615837568828
0.101197656121617,0.00976689574656311
0.108926578548109,0.00574897868321801
0.116712385427587,0.00170770817454399
0.124555054282427,-0.00235704017176346
0.132454562635005,-0.00644539074800798
0.140410888007697,-0.010557467946494
0.148424007922877,-0.0146933961595252
0.156493899902922,-0.0188532997794059
0.164620541470207,-0.0230373031984398
0.172803910147108,-0.0272455308089313
0.181043983456,-0.0314781070031842
0.189340738919259,-0.0357351561735028
0.19769415405926,-0.0400168027121907
0.20610420639838,-0.0443231710115524
0.214570873458993,-0.0486543854638916
0.223094132763476,-0.0530105704615127
0.231673961834203,-0.0573918503967192
0.24031033819355,-0.0617983496618157
0.249003239363894,-0.0662301926491058
0.257752642867609,-0.0706875037508939
0.266558526227071,-0.0751704073594836
0.275420866964656,-0.0796790278671795
0.284339642602739,-0.0842134896662851
0.293314830663697,-0.0887739171491049
0.302346408669903,-0.0933604347079424
0.311434354143735,-0.0979731667351023
0.320578644607567,-0.102612237622888
0.329779257583776,-0.107277771763604
0.339036170594736,-0.111969893549554
0.348349361162824,-0.116688727373042
0.357718806810414,-0.121434397626373
0.367144485059884,-0.12620702870185
0.376626373433607,-0.131006744991777
0.38616444945396,-0.135833670888458
0.395758690643319,-0.140687930784198
0.405409074524058,-0.1455696490713
0.415115578618554,-0.150478950142069
0.424878180449182,-0.155415958388808
0.434696857538317,-0.160380798203822
0.444571587408336,-0.165373593979414
0.454502347581613,-0.170394470107889
0.464489115580525,-0.175443550981551
0.474531868927447,-0.180520960992703
0.484630585144755,-0.18562682453365
0.494785241754823,-0.190761265996696
0.504995816280029,-0.195924409774145
0.515262286242746,-0.2011163802583
0.525584629165352,-0.206337301841466
0.535962822570221,-0.211587298915947
0.546396843979729,-0.216866495874048
0.556886670916252,-0.222175017108071
0.567432280902165,-0.227512987010321
0.578033651459844,-0.232880529973102
0.588690760111664,-0.238277770388719
0.599403584380001,-0.243704832649474
0.610172101787231,-0.249161841147673
0.620996289855729,-0.254648920275618
0.631876126107871,-0.260166194425616
0.642811588066032,-0.265713787989968
0.653802653252588,-0.27129182536098
0.664849299189914,-0.276900430930955
0.675951503400387,-0.282539729092197
