-0.989639553361461,-0.0774255299266635
0.690294714948953,-0.562357192949706
0.216795572497049,-0.547181214505801
0.135242874477498,-0.735381695632597
0.0536901764579472,-0.923582176759394
-0.431326639551168,-0.688891523618863
0.362024241598503,-0.175732280425883
