0.901595460853464,0.00514478836602583
-0.592184752561944,0.224125857045641
-0.991308933466082,0.108748668375545
0.0915136708413407,0.292828609151333
1.17433627514876,0.476908549927122
-0.835985402912425,-0.999206342673832
0.0463824730562623,-0.838290009666509
