-0.789088163370735,0.589353185413474
-0.781330157780061,0.585796838091246
-0.773583957013684,0.582222082135948
-0.765849612820107,0.578629158067694
-0.758127176947831,0.575018306406597
-0.750416701145359,0.57138976767277
-0.742718237161193,0.567743782386327
-0.735031836743835,0.56408059106738
-0.727357551641788,0.560400434236043
-0.719695433603553,0.556703552412428
-0.712045534377633,0.55299018611665
-0.704407905712529,0.549260575868821
-0.696782599356745,0.545514962189055
-0.689169667058782,0.541753585597465
-0.681569160567143,0.537976686614163
-0.673981131630329,0.534184505759263
-0.666405631996843,0.530377283552879
-0.658842713415187,0.526555260515124
-0.651292427633864,0.52271867716611
-0.643754826401375,0.51886777402595
-0.636229961466222,0.515002791614759
-0.628717884576908,0.51112397045265
-0.621218647481936,0.507231551059734
-0.613732301929806,0.503325773956127
-0.606258899669022,0.49940687966194
-0.598798492448085,0.495475108697288
-0.591351132015498,0.491530701582283
-0.583916870119763,0.487573898837038
-0.576495758509383,0.483604940981667
-0.569087848932859,0.479624068536283
-0.561693193138692,0.475631522020998
-0.554311842875387,0.471627541955927
-0.546943849891445,0.467612368861183
-0.539589265935368,0.463586243256878
-0.532248142755658,0.459549405663126
-0.524920532100817,0.45550209660004
-0.517606485719348,0.451444556587733
-0.510306055359754,0.447377026146319
-0.503019292770534,0.44329974579591
-0.495746249700194,0.43921295605662
-0.488486977897233,0.435116897448563
-0.481241529110155,0.43101181049185
-0.474009955087462,0.426897935706596
-0.466792307577656,0.422775513612913
-0.459588638329239,0.418644784730916
-0.452398999090714,0.414505989580716
-0.445223441610582,0.410359368682427
-0.438062017637345,0.406205162556163
-0.430914778919507,0.402043611722037
-0.423781777205569,0.397874956700161
-0.416663064244033,0.393699438010649
-0.409558691783401,0.389517296173615
-0.402468711572177,0.38532877170917
-0.395393175358861,0.38113410513743
-0.388332134891956,0.376933536978506
-0.381285641919964,0.372727307752512
-0.374253748191388,0.368515657979561
-0.367236505454729,0.364298828179767
-0.36023396545849,0.360077058873242
-0.353246179951173,0.3558505905801
-0.346273200681281,0.351619663820454
-0.339315079397314,0.347384519114417
-0.332371867847777,0.343145396982102
-0.32544361778117,0.338902537943623
-0.318530380945996,0.334656182519093
-0.311632209090757,0.330406571228625
-0.304749153963955,0.326153944592331
-0.297881267314093,0.321898543130326
-0.291028600889672,0.317640607362723
-0.284191206439196,0.313380377809634
-0.277369135711166,0.309118094991173
-0.270562440454083,0.304853999427454
-0.263771172416452,0.300588331638588
-0.256995383346773,0.29632133214469
-0.250235124993548,0.292053241465873
-0.243490449105281,0.28778430012225
-0.236761407430473,0.283514748633934
-0.230048051717626,0.279244827521038
-0.223350433715243,0.274974777303675
-0.216668605171826,0.270704838501959
-0.210002617835876,0.266435251636003
-0.203352523455897,0.262166257225921
-0.19671837378039,0.257898095791824
-0.190100220557858,0.253631007853827
-0.183498115536802,0.249365233932042
-0.176912110465726,0.245101014546584
-0.17034225709313,0.240838590217564
-0.163788607167518,0.236578201465097
-0.157251212437391,0.232320088809295
-0.150730124651252,0.228064492770272
-0.144225395557602,0.223811653868141
-0.137737076904945,0.219561812623014
-0.131265220441782,0.215315209555006
-0.124809877916615,0.211072085184229
-0.118371101077947,0.206832680030797
-0.11194894167428,0.202597234614823
-0.105543451454116,0.19836598945642
-0.0991546821659567,0.194139185075701
-0.0927826855583049,0.189917061992779
-0.0864275133796627,0.185699860727768
-0.0800892173785324,0.181487821800781
-0.0737678493034158,0.177281185731931
-0.0674634609028154,0.173080193041331
-0.0611761039252333,0.168885084249094
-0.0549058301191717,0.164696099875334
-0.0486526912331329,0.160513480440164
-0.0424167390156189,0.156337466463697
-0.0361980252151319,0.152168298466045
-0.0299966015801742,0.148006216967324
-0.023812519859248,0.143851462487645
-0.0176458318008554,0.139704275547121
-0.0114965891534985,0.135564896665867
-0.00536484366567974,0.131433566363994
0.000749352914098778,0.127310525161618
0.00684594883733503,0.123196013578849
0.0129248923555268,0.119090272135802
0.0189861317201716,0.114993541352591
0.0250296151827674,0.110906061749327
0.0310552909948122,0.106828073846125
0.0370631074078037,0.102759818163097
0.0430530126732395,0.0987015352203571
0.0490249550426178,0.094653465538018
0.0549788827674361,0.090615849636193
0.0609147440991923,0.0865889280349953
0.0668324872893842,0.0825729412545382
0.0727320605895097,0.0785681298149348
0.0786134122510665,0.0745747342362982
0.0844764905255525,0.0705929950387417
0.0903212436644655,0.0666231527423786
0.0961476199193032,0.0626654478673221
0.101955567541563,0.0587201209336851
0.107745034782744,0.054787412461581
0.113515969894343,0.050867562971123
0.119268321127858,0.0469608129824243
0.125002036734787,0.043067403015598
0.130717064966627,0.0391875735907574
0.136413354074877,0.0353215652280157
0.142090852311034,0.0314696184474861
0.147749507926596,0.0276319737692817
0.153389269173062,0.0238088717135157
0.159010084301927,0.0200005528003014
0.164611901564692,0.016207257549752
0.170194669212852,0.0124292264819806
0.175758335497907,0.00866670011710041
0.181302848671354,0.0049199189752247
0.18682815698469,0.00118912357646664
0.192334208689414,-0.00252544555906069
0.197820952037024,-0.00622354791124395
0.203288335279016,-0.00990494295996994
0.20873630666689,-0.0135693901851255
0.214164814452142,-0.0172166490665975
0.219573806886271,-0.0208464790842728
0.224963232220775,-0.0244586397180379
0.23033303870715,-0.0280528904477799
0.235683174596896,-0.0316289907533855
0.24101358814151,-0.0351867001147415
0.246324227592489,-0.0387257780117347
0.251615041201332,-0.0422459839242519
0.256885977219536,-0.0457470773321799
0.262136983898599,-0.0492288177154056
0.267368009490019,-0.0526909645538157
0.272579002245294,-0.0561332773272969
0.277769910415921,-0.0595555155157363
0.282940682253399,-0.0629574385990205
0.288091266009225,-0.0663388060570363
0.293221609934897,-0.0696993773696705
0.298331662281912,-0.07303891201681
0.303421371301769,-0.0763571694783416
0.308490685245966,-0.079653909234152
0.313539552366,-0.0829288907641281
0.318567920913369,-0.0861818735481566
0.32357573913957,-0.0894126170661244
0.328562955296103,-0.0926208807979182
0.333529517634464,-0.095806424223425
0.338475374406151,-0.0989690068225314
0.343400473862662,-0.102108388075124
0.348304764255495,-0.10522432746109
0.353188193836148,-0.108316584460317
0.358050710856118,-0.11138491855269
0.362892263566904,-0.114429089218097
0.367712800220003,-0.117448855936424
0.372512269066912,-0.120443978187559
0.377290618359131,-0.123414215451388
0.382047796348156,-0.126359327207797
0.386783751285485,-0.129279072936675
0.391498431422617,-0.132173212117907
0.396191785011049,-0.13504150423138
0.400863760302278,-0.137883708756981
0.405514305547803,-0.140699585174597
0.410143368999122,-0.143488892964115
0.414750898907731,-0.146251391605422
0.41933684352513,-0.148986840578404
0.423901151102816,-0.151694999362948
0.428443769892286,-0.154375627438941
0.432964648145039,-0.15702848428627
0.437463734112572,-0.159653329384821
0.441940976046384,-0.162249922214482
0.446396322197971,-0.164818022255138
0.450829720818832,-0.167357388986678
0.455241120160464,-0.169867781888988
0.459630468474366,-0.172348960441954
0.463997714012035,-0.174800684125463
0.468342805024969,-0.177222712419403
0.472665689764666,-0.17961480480366
0.476966316482623,-0.18197672075812
0.481244633430339,-0.184308219762671
0.485500588859311,-0.1866090612972
0.489734131021037,-0.188879004841592
0.493945208167015,-0.191117809875736
0.498133768548743,-0.193325235879518
0.502299760417718,-0.195501042332824
0.506443132025438,-0.197644988715541
0.510563831623402,-0.199756834507557
0.514661807463106,-0.201836339188758
0.518737007796049,-0.20388326223903
0.522789380873729,-0.205897363138261
0.526818874947643,-0.207878401366338
0.530825438269289,-0.209826136403147
0.534809019090165,-0.211740327728575
0.538769565661768,-0.213620734822509
0.542707026235598,-0.215467117164835
0.546621349063151,-0.217279234235441
0.550512482395924,-0.219056845514213
0.554380374485417,-0.220799710481038
0.558224973583127,-0.222507588615803
0.562046227940552,-0.224180239398395
0.565844085809188,-0.2258174223087
0.569618495440536,-0.227418896826605
0.573369405086091,-0.228984422431998
0.577096762997352,-0.230513758604764
0.580800517425817,-0.232006664824791
0.584480616622983,-0.233462900571966
0.588137008840348,-0.234882225326175
0.591769642329411,-0.236264398567305
0.595378465341669,-0.237609179775243
0.598963426128619,-0.238916328429875
0.60252447294176,-0.240185604011089
0.606061554032589,-0.241416765998772
0.609574617652605,-0.242609573872809
0.613063612053304,-0.243763787113089
0.616528485486185,-0.244879165199497
0.619969186202746,-0.245955467611921
0.623385662454484,-0.246992453830247
0.626777862492898,-0.247989883334362
0.630145734569485,-0.248947515604153
0.633489226935742,-0.249865110119507
0.636808287843168,-0.25074242636031
0.640102865543261,-0.25157922380645
0.643372908287517,-0.252375261937813
0.646618364327436,-0.253130300234286
0.649839181914515,-0.253844098175755
0.653035309300252,-0.254516415242108
0.656206694736144,-0.255147010913232
0.659353286473689,-0.255735644669013
0.662475032764386,-0.256282075989337
0.665571881859731,-0.256786064354093
0.668643782011224,-0.257247369243166
0.671690681470361,-0.257665750136443
0.67471252848864,-0.258040966513812
0.67770927131756,-0.258372777855159
0.680680858208617,-0.25866094364037
0.68362723741331,-0.258905223349333
0.686548357183137,-0.259105376461934
0.689444165769596,-0.259261162458061
0.692314611424183,-0.2593723408176
0.695159642398398,-0.259438671020437
0.697979206943738,-0.25945991254646
0.7007732533117,-0.259435824875556
0.703541729753783,-0.259366167487611
0.706284584521485,-0.259250699862511
0.709001765866302,-0.259089181480145
0.711693222039733,-0.258881371820398
0.714358901293276,-0.258627030363158
0.716998751878429,-0.258325916588311
0.719612722046689,-0.257977789975744
0.722200760049554,-0.257582410005344
0.724762814138522,-0.257139536156997
0.727298832565091,-0.256648927910591
0.729808763580758,-0.256110344746013
0.732292555437023,-0.255523546143148
0.734750156385381,-0.254888291581884
0.737181514677331,-0.254204340542108
0.739586578564371,-0.253471452503706
0.741965296297999,-0.252689386946566
0.744317616129712,-0.251857903350574
0.746643486311009,-0.250976761195616
0.748942855093387,-0.25004571996158
0.751215670728343,-0.249064539128353
0.753461881467377,-0.248032978175821
0.755681435561984,-0.246950796583872
0.757874281263665,-0.245817753832391
0.760040366823915,-0.244633609401265
0.762179640494233,-0.243398122770383
0.764292050526118,-0.24211105341963
0.766377545171065,-0.240772160828892
0.768436072680575,-0.239381204478058
0.770467581306143,-0.237937943847014
0.772472019299268,-0.236442138415646
0.774449334911448,-0.234893547663841
0.776399476394181,-0.233291931071486
0.778322391998965,-0.231637048118469
0.780218029977296,-0.229928658284675
0.782086338580674,-0.228166521049992
0.783927266060596,-0.226350395894306
0.785740760668559,-0.224480042297504
0.787526770656062,-0.222555219739473
0.789285244274602,-0.2205756877001
0.791016129775677,-0.218541205659272
0.792719375410785,-0.216451533096875
0.794394929431424,-0.214306429492796
0.796042740089092,-0.212105654326922
0.797662755635286,-0.20984896707914
0.799254924321504,-0.207536127229337
0.800819194399244,-0.205166894257398
0.802355514120004,-0.202741027643213
0.803863831735281,-0.200258286866666
0.805344095496574,-0.197718431407645
0.806796253655381,-0.195121220746036
0.808220254463198,-0.192466414361727
0.809616046171524,-0.189753771734604
0.810983577031857,-0.186983052344554
0.812322795295694,-0.184154015671464
0.813633649214534,-0.181266421195221
0.814916087039874,-0.178320028395711
0.816170057023211,-0.175314596752821
0.817395507416045,-0.172249885746439
0.818592386469871,-0.16912565485645
0.81976064243619,-0.165941663562742
0.820900223566497,-0.162697671345201
0.822011078112292,-0.159393437683714
0.823093154325071,-0.156028722058169
0.824146400456333,-0.152603283948452
0.825170764757575,-0.149116882834449
0.826166195480295,-0.145569278196047
0.827132640875992,-0.141960229513134
0.828070049196162,-0.138289496265596
0.828978368692304,-0.13455683793332
0.829857547615916,-0.130762013996193
0.830707534218495,-0.126904783934101
0.831528276751538,-0.122984907226931
0.832319723466545,-0.11900214335457
0.833081822615013,-0.114956251796906
0.833814522448438,-0.110846992033824
0.834517771218321,-0.106674123545211
0.835191517176157,-0.102437405810955
0.835835708573446,-0.098136598310942
0.836450293661684,-0.093771460525059
0.83703522069237,-0.0893417519331925
0.837590437917001,-0.0848472320152298
0.838115893587075,-0.0802876602510571
0.83861153595409,-0.0756627961205618
0.839077313269545,-0.0709723991036303
0.839513173784935,-0.0662162286801497
0.83991906575176,-0.0613940443300064
0.840294937421518,-0.0565056055330876
0.840640737045706,-0.0515506717692799
0.840956412875821,-0.0465290025184703
0.841241913163362,-0.0414403572605452
0.841497186159827,-0.0362844954753919
0.841722180116713,-0.0310611766428968
0.841916843285518,-0.0257701602429471
0.84208112391774,-0.0204112057554291
0.842214970264876,-0.0149840726602301
0.842318330578426,-0.00948852043723653
0.842391153109885,-0.00392430856633551
0.842433386110753,0.00170880347258651
0.842444977832527,0.00741105619964236
0.842425876526704,0.0131826901349456
0.842376030444784,0.019023945798609
0.842295387838262,0.0249350637107463
0.842183896958638,0.0309162843914701
0.842041506057409,0.0369678483608941
0.841868163386073,0.043089996139131
0.841663817196127,0.0492829682462946
0.84142841573907,0.0555470052024975
0.841161907266399,0.0618823475278535
0.840864240029613,0.0682892357424751
0.840535362280207,0.0747679103664762
0.840175222269682,0.0813186119199693
0.839783768249535,0.0879415809230684
0.839360948471263,0.0946370578958858
0.838906711186363,0.101405283358536
0.838421004646335,0.10824649783113
0.837903777102676,0.115160941833783
0.837354976806883,0.122148855886608
0.836774552010455,0.129210480509717
0.836162450964889,0.136346056223224
0.835518621921682,0.143555823547243
0.834843013132334,0.150840023001885
0.834135572848341,0.158198895107266
0.833396249321202,0.165632680383497
0.832624990802414,0.173141619350692
0.831821745543475,0.180725952528963
0.830986461795883,0.188385920438426
0.830119087811136,0.196121763599191
0.829219571840731,0.203933722531374
0.828287862136166,0.211822037755086
0.82732390694894,0.219786949790442
0.826327654530549,0.227828699157553
0.825299053132493,0.235947526376535
0.825299053132493,0.235947526376535
0.82424310016434,0.244043247694601
0.823164972102944,0.252015860514949
0.822064885800729,0.259865877091666
0.820943058110121,0.267593809678837
0.819799705883542,0.275200170530548
0.818635045973417,0.282685471900885
0.81744929523217,0.290050226043934
0.816242670512226,0.297294945213781
0.815015388666007,0.304420141664512
0.813767666545939,0.311426327650212
0.812499721004446,0.318314015424968
0.811211768893951,0.325083717242866
0.809904027066879,0.331735945357992
0.808576712375654,0.338271212024431
0.8072300416727,0.344690029496269
0.805864231810442,0.350992910027593
0.804479499641303,0.357180365872488
0.803076062017707,0.363252909285041
0.801654135792078,0.369211052519336
0.800213937816842,0.375055307829461
0.798755684944422,0.380786187469501
0.797279594027241,0.386404203693542
0.795785881917724,0.39190986875567
0.794274765468296,0.39730369490997
0.79274646153138,0.40258619441053
0.791201186959401,0.407757879511434
0.789639158604782,0.412819262466769
0.788060593319948,0.417770855530621
0.786465707957323,0.422613170957075
0.78485471936933,0.427346721000218
0.783227844408395,0.431972017914135
0.781585299926942,0.436489573952912
0.779927302777393,0.440899901370636
0.778254069812174,0.445203512421392
0.776565817883709,0.449400919359266
0.774862763844422,0.453492634438345
0.773145124546736,0.457479169912713
0.771413116843077,0.461361038036457
0.769666957585867,0.465138751063664
0.767906863627533,0.468812821248418
0.766133051820496,0.472383760844806
0.764345739017182,0.475852082106913
0.762545142070015,0.479218297288827
0.760731477831418,0.482482918644632
0.758904963153817,0.485646458428414
0.757065814889634,0.48870942889426
0.755214249891295,0.491672342296255
0.753350485011223,0.494535710888486
0.751474737101843,0.497300046925038
0.749587223015578,0.499965862659997
0.747688159604853,0.502533670347449
0.745777763722091,0.505003982241481
0.743856252219718,0.507377310596177
0.741923841950157,0.509654167665625
0.739980749765832,0.511835065703909
0.738027192519167,0.513920516965116
0.736063387062587,0.515911033703332
0.734089550248515,0.517807128172643
0.732105898929377,0.519609312627134
0.730112649957595,0.521318099320892
0.728110020185594,0.522934000508002
0.726098226465798,0.524457528442551
0.724077485650631,0.525889195378624
0.722048014592518,0.527229513570307
0.720010030143883,0.528478995271687
0.717963749157149,0.529638152736849
0.715909388484741,0.530707498219879
0.713847164979083,0.531687543974863
0.711777295492598,0.532578802255887
0.709699996877712,0.533381785317037
0.707615485986848,0.534097005412399
0.705523979672431,0.534724974796059
0.703425694786885,0.535266205722103
0.701320848182632,0.535721210444616
0.699209656712099,0.536090501217684
0.697092337227709,0.536374590295395
0.694969106581885,0.536573989931833
0.692840181627053,0.536689212381084
0.690705779215637,0.536720769897234
0.688566116200059,0.53666917473437
0.686421409432746,0.536534939146577
0.684271875766119,0.536318575387941
0.682117732052605,0.536020595712549
0.679959195144627,0.535641512374485
0.677796481894609,0.535181837627837
0.675629809154975,0.534642083726689
0.673459393778149,0.534022762925128
0.671285452616556,0.53332438747724
0.66910820252262,0.53254746963711
0.666927860348764,0.531692521658826
0.664744642947413,0.530760055796471
0.662558767170992,0.529750584304134
0.660370449871923,0.528664619435899
0.658179907902631,0.527502673445852
0.655987358115541,0.526265258588079
0.653793017363077,0.524952887116667
0.651597102497662,0.523566071285701
0.649399830371721,0.522105323349267
0.647201417837677,0.520571155561452
0.645002081747956,0.51896408017634
0.642802038954981,0.517284609448018
0.640601506311176,0.515533255630572
0.638400700668966,0.513710530978088
0.636199838880774,0.511816947744652
0.633999137799025,0.509853018184349
0.631798814276143,0.507819254551266
0.629599085164551,0.505716169099488
0.627400167316675,0.503544274083102
0.625202277584938,0.501304081756194
0.623005632821764,0.498996104372849
0.620810449879577,0.496620854187153
0.618616945610803,0.494178843453192
0.616425336867864,0.491670584425053
0.614235840503184,0.48909658935682
0.612048673369189,0.486457370502581
0.609864052318302,0.483753440116421
0.607682194202947,0.480985310452425
0.605503315875548,0.478153493764681
0.60332763418853,0.475258502307273
0.601155365994316,0.472300848334288
0.598986728145331,0.469281044099812
0.596821937493999,0.46619960185793
0.594661210892744,0.463057033862729
0.59250476519399,0.459853852368294
0.590352817250162,0.456590569628712
0.588205583913682,0.453267697898068
0.586063282036976,0.449885749430448
0.583926128472468,0.446445236479938
0.581794340072582,0.442946671300625
0.579668133689742,0.439390566146594
0.577547726176371,0.43577743327193
0.575433334384895,0.432107784930721
0.573325175167737,0.428382133377052
0.571223465377321,0.424600990865008
0.569128421866072,0.420764869648676
0.567040261486414,0.416874281982142
0.56495920109077,0.412929740119492
0.562885457531565,0.408931756314811
0.560819247661224,0.404880842822186
0.558760788332169,0.400777511895702
0.556710296396826,0.396622275789445
0.554667988707618,0.392415646757502
0.55263408211697,0.388158137053958
0.550608793477306,0.383850258932899
0.548592339641049,0.379492524648412
0.546584937460625,0.375085446454581
0.544586803788456,0.370629536605493
0.542598155476968,0.366125307355235
0.540619209378584,0.361573270957891
0.538650182345728,0.356973939667548
0.536691291230825,0.352327825738291
0.534742752886299,0.347635441424208
0.532804784164574,0.342897298979383
0.530877601918073,0.338113910657903
0.528961422999222,0.333285788713853
0.527056464260444,0.328413445401319
0.525162942554163,0.323497392974388
0.523281074732804,0.318538143687145
0.52141107764879,0.313536209793676
0.519553168154546,0.308492103548068
0.517707563102497,0.303406337204406
0.515874479345065,0.298279423016775
0.514054133734675,0.293111873239263
0.512246743123751,0.287904200125955
0.510452524364718,0.282656915930936
0.50867169431,0.277370532908293
0.50690446981202,0.272045563312112
0.505151067723203,0.266682519396478
0.503411704895973,0.261281913415479
0.501686598182753,0.255844257623198
0.499975964435969,0.250370064273723
0.498280020508045,0.24485984562114
0.496598983251404,0.239314113919534
0.49493306951847,0.233733381422991
0.493282496161668,0.228118160385597
0.491647480033422,0.222468963061438
0.490028237986156,0.216786301704601
0.488424986872293,0.21107068856917
0.486837943544259,0.205322635909232
0.485267324854478,0.199542655978874
0.483713347655373,0.19373126103218
0.482176228799368,0.187888963323237
0.480656185138888,0.18201627510613
0.479153433526357,0.176113708634947
0.477668190814199,0.170181776163772
0.476200673854838,0.164220989946691
0.474751099500698,0.15823186223779
0.473319684604204,0.152214905291157
0.47190664601778,0.146170631360875
0.470512200593848,0.140099552701031
0.469136565184835,0.134002181565712
0.467779956643163,0.127879030209003
0.466442591821258,0.12173061088499
0.465124687571542,0.115557435847759
0.463826460746441,0.109360017351396
0.462548128198378,0.103138867649987
0.461289906779778,0.0968944989976171
0.460052013343065,0.0906274236483732
0.458834664740662,0.0843381538563411
0.457638077824994,0.0780272018756065
0.456462469448485,0.0716950799602555
0.455308056463559,0.0653423003643741
0.454175055722641,0.0589693753420478
0.453063684078154,0.0525768171473632
0.451974158382522,0.0461651380344055
0.450906695488171,0.0397348502572613
0.449861512247523,0.0332864660700161
0.448838825513003,0.0268204977267562
0.447838852137035,0.020337457481567
0.446861808972043,0.0138378575885351
0.445907912870452,0.00732221030174574
0.444977380684685,0.000791027875285594
0.444070429267166,-0.00575517743676018
0.443187275470321,-0.0123158933803049
0.442328136146572,-0.0188906077012633
0.441493228148344,-0.0254788081455489
0.440682768328061,-0.0320799824590761
0.439896973538148,-0.0386936183877588
0.439136060631028,-0.0453192036775112
0.438400246459125,-0.0519562260742471
0.437689747874864,-0.058604173323881
0.437004781730669,-0.0652625331723264
0.436345564878963,-0.0719307933654981
0.435712314172172,-0.0786084416493093
0.435105246462718,-0.0852949657696749
0.434524578603027,-0.0919898534725082
0.433970527445523,-0.098692592503724
0.433443309842628,-0.105402670609236
0.432943142646769,-0.112119575534958
0.432470242710368,-0.118842795026804
0.43202482688585,-0.125571816830689
0.43160711202564,-0.132306128692526
0.43121731498216,-0.13904521835823
0.430855652607836,-0.145788573573714
0.430522341755091,-0.152535682084893
0.430217599276349,-0.159286031637681
0.429941642024035,-0.166039109977991
0.429694686850573,-0.172794404851739
0.429476950608387,-0.179551404004837
0.429288650149902,-0.1863095951832
0.42913000232754,-0.193068466132742
0.429001223993726,-0.199827504599378
0.428902532000885,-0.20658619832902
0.428834143201441,-0.213344035067584
0.428796274447817,-0.220100502560983
0.428789142592438,-0.226855088555131
0.428812964487729,-0.233607280795943
0.428867956986112,-0.240356567029332
0.428954336940012,-0.247102435001213
0.429072321201854,-0.253844372457499
0.429222126624061,-0.260581867144105
0.429403970059058,-0.267314406806945
0.429618068359269,-0.274041479191932
0.429864638377117,-0.280762572044982
0.430143896965027,-0.287477173112007
0.430456060975424,-0.294184770138922
0.430801347260731,-0.300884850871642
0.431179972673372,-0.307576903056079
0.431592154065772,-0.314260414438149
0.432038108290354,-0.320934872763765
0.432518052199543,-0.327599765778841
0.433032202645763,-0.334254581229292
0.433580776481438,-0.340898806861031
0.434163990558992,-0.347531930419973
0.43478206173085,-0.354153439652031
0.435435206849435,-0.36076282230312
0.436123642767171,-0.367359566119153
0.436847586336483,-0.373943158846045
0.437607254409795,-0.380513088229711
0.438402863839531,-0.387068842016062
0.439234631478115,-0.393609907951015
0.440102774177971,-0.400135773780483
0.441007508791523,-0.406645927250381
0.441949052171196,-0.41313985610662
0.442927621169413,-0.419617048095118
0.443943432638599,-0.426076990961786
0.444996703431178,-0.432519172452541
0.446087650399574,-0.438943080313294
0.447216490396211,-0.445348202289961
0.448383440273513,-0.451734026128455
0.449588716883904,-0.458100039574691
0.450832537079809,-0.464445730374583
0.452115117713652,-0.470770586274044
0.453436675637856,-0.477074095018989
0.454797427704846,-0.483355744355333
0.456197590767046,-0.489615022028987
0.457637381676881,-0.495851415785868
0.459117017286773,-0.502064413371889
0.460636714449148,-0.508253502532964
0.462196690016429,-0.514418171015007
0.463797160841041,-0.520557906563933
0.465438343775408,-0.526672196925655
0.467120455671953,-0.532760529846087
0.468843713383102,-0.538822393071143
0.470608333761278,-0.544857274346739
0.472414533658905,-0.550864661418786
0.474262529928408,-0.5568440420332
0.476152539422209,-0.562794903935895
0.478084778992735,-0.568716734872785
0.480059465492409,-0.574609022589783
0.482076815773654,-0.580471254832805
0.484137046688895,-0.586302919347763
0.486240375090557,-0.592103503880572
0.488387017831063,-0.597872496177147
0.490577191762837,-0.6036093839834
0.492811113738304,-0.609313655045247
0.495089000609888,-0.614984797108601
0.497411069230012,-0.620622297919376
0.499777536451101,-0.626225645223487
0.50218861912558,-0.631794326766847
0.504644534105871,-0.637327830295371
0.5071454982444,-0.642825643554972
0.509691728393591,-0.648287254291565
0.512283441405867,-0.653712150251063
0.514920854133652,-0.659099819179382
0.517604183429372,-0.664449748822434
0.52033364614545,-0.669761426926134
0.523109459134309,-0.675034341236396
0.525931839248375,-0.680267979499134
0.528801003340071,-0.685461829460263
0.531717168261822,-0.690615378865695
0.534680550866051,-0.695728115461345
0.537691368005184,-0.700799526993129
0.540749836531643,-0.705829101206958
0.543856173297853,-0.710816325848747
0.547010595156238,-0.715760688664411
0.550213318959222,-0.720661677399864
0.55346456155923,-0.725518779801019
0.556764539808686,-0.730331483613791
0.560113470560012,-0.735099276584094
0.563511570665635,-0.739821646457842
0.566959056977978,-0.744498080980948
0.570456146349465,-0.749128067899327
0.57400305563252,-0.753711094958894
0.577600001679567,-0.758246649905561
0.58124720134303,-0.762734220485243
0.584944871475335,-0.767173294443855
0.588693228928904,-0.77156335952731
0.592492490556161,-0.775903903481522
0.596342873209532,-0.780194414052406
0.60024459374144,-0.784434378985875
0.604197869004308,-0.788623286027843
0.608202915850563,-0.792760622924226
0.612259951132626,-0.796845877420935
0.616369191702924,-0.800878537263887
0.620530854413878,-0.804858090198994
0.624745156117915,-0.808784023972171
0.629012313667458,-0.812655826329332
0.633332543914931,-0.816472985016391
0.637706063712758,-0.820234987779262
0.642133089913364,-0.823941322363859
0.646613839369171,-0.827591476516096
0.651148528932606,-0.831184937981887
0.655737375456091,-0.834721194507147
0.660380595792052,-0.838199733837789
0.665078406792911,-0.841620043719727
0.669831025311093,-0.844981611898876
0.674638668199023,-0.848283926121149
0.679501552309124,-0.851526474132461
0.68441989449382,-0.854708743678726
0.689393911605536,-0.857830222505857
0.694423820496696,-0.860890398359769
0.699509838019724,-0.863888758986376
0.704652181027044,-0.866824792131592
0.70985106637108,-0.869697985541331
0.715106710904256,-0.872507826961507
0.720419331478997,-0.875253804138034
0.725789144947726,-0.877935404816826
0.731216368162868,-0.880552116743798
0.736701217976847,-0.883103427664862
0.742243911242087,-0.885588825325935
0.747844664811011,-0.888007797472928
0.753503695536045,-0.890359831851757
0.759221220269612,-0.892644416208336
0.764997455864137,-0.894861038288578
0.770832619172043,-0.897009185838398
0.776726927045756,-0.89908834660371
0.782680596337697,-0.901098008330427
0.788693843900293,-0.903037658764464
0.794766886585967,-0.904906785651736
0.800899941247143,-0.906704876738155
0.807093224736245,-0.908431419769636
0.813346953905699,-0.910085902492094
0.819661345607926,-0.911667812651441
0.826036616695353,-0.913176637993593
0.832472984020401,-0.914611866264464
0.838970664435498,-0.915972985209967
0.845529874793065,-0.917259482576016
0.852150831945528,-0.918470846108525
0.858833752745309,-0.91960656355341
0.865578854044835,-0.920666122656582
0.872386352696528,-0.921649011163958
0.879256465552813,-0.922554716821451
0.886189409466113,-0.923382727374974
0.893185401288854,-0.924132530570442
0.900244657873459,-0.924803614153769
0.907367396072353,-0.925395465870869
0.914553832737958,-0.925907573467656
0.9218041847227,-0.926339424690045
