-0.79578592614019,-0.0803055098066336
-0.117276195315058,0.233139917479701
0.10723832513815,0.236876077519394
-0.193447961668614,0.731247529548406
-0.494134248475378,1.22561898157742
0.518342544350948,0.445578856027106
-0.162166621167441,-0.537034684039017
