-0.703008472133007,0.937152803658639
0.802651681101231,-0.762296559148806
0.197423828506732,0.868634883412722
-0.243010274264168,0.654971135454884
-0.683444377035068,0.441307387497047
-0.583726941940266,-0.0813999060836454
0.980044828374574,0.278538625745832
