0.619116700111244,0.913982309418909
0.609870057951778,0.903634302424901
0.60070403083657,0.893318852200443
0.591618313827094,0.883035960141821
0.582612601984823,0.872785627645319
0.57368659037123,0.862567856107219
0.564839974047789,0.852382646923805
0.556072448075972,0.842230001491361
0.547383707517254,0.83210992120617
0.538773447433107,0.822022407464517
0.530241362885005,0.811967461662684
0.521787148934421,0.801945085196956
0.513410500642829,0.791955279463616
0.505111113071701,0.781998045858948
0.49688868128251,0.772073385779235
0.488742900336731,0.76218130062076
0.480673465295836,0.752321791779809
0.4726800712213,0.742494860652663
0.464762413174594,0.732700508635608
0.456920186217192,0.722938737124925
0.449153085410568,0.7132095475169
0.441460805816195,0.703512941207816
0.433843042495546,0.693848919593956
0.426299490510095,0.684217484071604
0.418829844921314,0.674618636037043
0.411433800790677,0.665052376886558
0.404111053179657,0.655518708016431
0.396861297149729,0.646017630822947
0.389684227762363,0.63654914670239
0.382579540079036,0.627113257051042
0.375546929161218,0.617709963265187
0.368586090070384,0.608339266741109
0.361696717868008,0.599001168875092
0.354878507615561,0.58969567106342
0.348131154374518,0.580422774702375
0.341454353206352,0.571182481188241
0.334847799172537,0.561974791917303
0.328311187334544,0.552799708285844
0.321844212753849,0.543657231690147
0.315446570491923,0.534547363526496
0.309117955610241,0.525470105191175
0.302858063170275,0.516425458080467
0.296666588233499,0.507413423590656
0.290543225861386,0.498434003118026
0.28448767111541,0.48948719805886
0.278499619057043,0.480573009809442
0.272578764747759,0.471691439766055
0.266724803249032,0.462842489324983
0.260937429622334,0.45402615988251
0.25521633892914,0.445242452834919
0.249561226230921,0.436491369578495
0.243971786589151,0.42777291150952
0.238447715065305,0.419087080024278
0.232988706720854,0.410433876519053
0.227594456617273,0.401813302390128
0.222264659816034,0.393225359033788
0.216999011378611,0.384670047846316
0.211797206366478,0.376147370223995
0.206658939841106,0.367657327563109
0.201583906863971,0.359199921259941
0.196571802496544,0.350775152710776
0.1916223218003,0.342383023311897
0.186735159836711,0.334023534459587
0.181910011667251,0.325696687550131
0.177146572353393,0.317402483979811
0.172444536956611,0.309140925144912
0.167803600538377,0.300912012441717
0.163223458160166,0.292715747266509
0.158703804883449,0.284552131015573
0.154244335769702,0.276421165085192
0.149844745880396,0.26832285087165
0.145504730277005,0.26025718977123
0.141223984021003,0.252224183180215
0.137002202173862,0.24422383249489
0.132839079797056,0.236256139111538
0.128734311952059,0.228321104426443
0.124687593700343,0.220418729835889
0.120698620103382,0.212549016736158
0.116767086222649,0.204711966523535
0.112892687119618,0.196907580594303
0.109075117855761,0.189135860344746
0.105314073492552,0.181396807171148
0.101609249091465,0.173690422469792
0.0979603397139721,0.166016707636961
0.0943670404215471,0.15837566406894
0.0908290462756632,0.150767293162012
0.0873460523377937,0.143191596312461
0.0839177536694118,0.13564857491657
0.0805438453319912,0.128138230370623
0.0772240223870047,0.120660564070904
0.0739579798959256,0.113215577413695
0.0707454129202275,0.105803271795282
0.0675860165213836,0.098423648611947
0.064479485760867,0.0910767092599741
0.0614255157001511,0.083762455135647
0.0584238014007092,0.0764808876352492
0.0554740379240146,0.0692320081550644
0.0525759203315405,0.0620158180913764
0.0497291436847603,0.0548323188404684
0.0469334030451471,0.0476815117986243
0.0441883934741745,0.0405633983621278
0.0414938100333155,0.0334779799272623
0.0388493477840435,0.0264252578903118
0.0362547017878317,0.0194052336475594
0.0337095671061536,0.0124179085952891
0.0312136388004822,0.00546328412978472
0.028766611932291,-0.00145863835267063
0.0263681815630532,-0.00834785745579317
0.024018042754242,-0.0152043717832988
0.021715890567331,-0.0220281799389044
0.019461420063793,-0.0288192805263263
0.0172543263051017,-0.0355776721492806
0.0150943043527302,-0.042303353411484
0.0129810492681519,-0.0489963229166526
0.0109142561128399,-0.0556565792685029
0.00889361994826761,-0.0622841210707513
0.00691883583590831,-0.0688789469271141
0.00498959883723527,-0.0754410554413076
0.00310560401372179,-0.0819704452170482
0.00126654642684113,-0.0884671148580524
-0.000527878861933444,-0.0949310629680364
-0.00227797679112853,-0.101362288150717
-0.00398405229927098,-0.10776078900981
-0.00564641032488749,-0.114126564149032
-0.00726535580650466,-0.120459612172099
-0.00884119368264932,-0.126759931682728
-0.0103742288918482,-0.133027521284635
-0.0118647663726279,-0.139262379581537
-0.0133131110635153,-0.145464505177149
-0.0147195679030369,-0.151633896675189
-0.0160844418297195,-0.157770552679372
-0.0174080377820899,-0.163874471793416
-0.0186906606986748,-0.169945652621035
-0.0199326155180008,-0.175984093765948
-0.0211342071785948,-0.181989793831869
-0.0222957406189833,-0.187962751422516
-0.0234175207776932,-0.193902965141604
-0.024499852593251,-0.199810433592851
-0.0255430410041837,-0.205685155379972
-0.0265473909490178,-0.211527129106684
-0.02751320736628,-0.217336353376704
-0.0284407951944971,-0.223112826793747
-0.0293304593721959,-0.22885654796153
-0.030182504837903,-0.23456751548377
-0.0309972365301451,-0.240245727964182
-0.031774959387449,-0.245891184006483
-0.0325159783483413,-0.25150388221439
-0.0332205983513488,-0.257083821191619
-0.0338891243349982,-0.262630999541886
-0.0345218612378162,-0.268145415868908
-0.0351191139983295,-0.273627068776401
-0.0356811875550649,-0.279075956868081
-0.036208386846549,-0.284492078747664
-0.0367010168113086,-0.289875433018868
-0.0371593823878703,-0.295226018285408
-0.037583788514761,-0.300543833151001
-0.0379745401305073,-0.305828876219364
-0.0383319421736359,-0.311081146094212
-0.0386562995826735,-0.316300641379261
-0.0389479172961469,-0.321487360678229
-0.0392071002525827,-0.326641302594832
-0.0394341533905078,-0.331762465732786
-0.0396293816484487,-0.336850848695807
-0.0397930899649323,-0.341906450087612
-0.0399255832784852,-0.346929268511917
-0.0400271665276341,-0.351919302572439
-0.0400981446509058,-0.356876550872893
-0.0401388225868269,-0.361801012016997
-0.0401495052739242,-0.366692684608467
-0.0401304976507245,-0.371551567251018
-0.0400821046557544,-0.376377658548368
-0.0400046312275405,-0.381170957104233
-0.0398983823046098,-0.385931461522328
-0.0397636628254888,-0.390659170406371
-0.0396007777287042,-0.395354082360078
-0.0394100319527829,-0.400016195987166
-0.0391917304362515,-0.40464550989135
-0.0389461781176367,-0.409242022676346
-0.0386736799354652,-0.413805732945872
-0.0383745408282637,-0.418336639303644
-0.038049065734559,-0.422834740353378
-0.0376975595928779,-0.427300034698791
-0.0373203273417468,-0.431732520943598
-0.0369176739196928,-0.436132197691516
-0.0364899042652423,-0.440499063546262
-0.0360373233169221,-0.444833117111552
-0.035560236013259,-0.449134356991102
-0.0350589472927797,-0.453402781788628
-0.0345337620940109,-0.457638390107848
-0.0339849853554792,-0.461841180552477
-0.0334129220157115,-0.466011151726232
-0.0328178770132344,-0.470148302232829
-0.0322001552865746,-0.474252630675985
-0.0315600617742589,-0.478324135659415
-0.0308979014148139,-0.482362815786837
-0.0302139791467664,-0.486368669661966
-0.0295085999086432,-0.490341695888519
-0.0287820686389709,-0.494281893070213
-0.0280346902762761,-0.498189259810763
-0.0272667697590857,-0.502063794713887
-0.0264786120259264,-0.5059054963833
-0.0256705220153248,-0.509714363422718
-0.0248428046658077,-0.513490394435859
-0.0239957649159019,-0.517233588026439
-0.0231297077041339,-0.520943942798173
-0.0222449379690306,-0.524621457354779
-0.0213417606491186,-0.528266130299972
-0.0204204806829247,-0.53187796023747
-0.0194814030089755,-0.535456945770988
-0.0185248325657978,-0.539003085504243
-0.0175510742919184,-0.54251637804095
-0.0165604331258638,-0.545996821984828
-0.0155532140061609,-0.549444415939591
-0.0145297218713363,-0.552859158508957
-0.0134902616599169,-0.556241048296641
-0.0124351383104291,-0.55959008390636
-0.0113646567613999,-0.562906263941831
-0.0102791219513559,-0.566189587006769
-0.00917883881882379,-0.569440051704891
-0.0080641123023303,-0.572657656639914
-0.00693524734040218,-0.575842400415554
-0.00579254887156613,-0.578994281635527
-0.00463632183434887,-0.58211329890355
-0.00346687116727705,-0.585199450823338
-0.00228450180887751,-0.588252735998609
-0.00108951869767683,-0.591273153033079
0.000117773227798136,-0.594260700530463
0.00133706902902084,-0.597215377094479
0.00256806376746439,-0.600137181328843
0.00381045250460223,-0.603026111837272
0.00506393030190751,-0.60588216722348
0.00632819222085364,-0.608705346091186
0.00760293332291379,-0.611495647044105
0.00888784866956135,-0.614253068685953
0.0101826333222695,-0.616977609620448
0.0114869823425116,-0.619669268451305
0.0128005907917609,-0.62232804378224
0.0141231537314908,-0.624953934216971
0.0154543662231743,-0.627546938359214
0.0167939233282851,-0.630107054812684
0.0181415201082961,-0.632634282181099
0.0194968516246808,-0.635128619068174
0.0208596129389123,-0.637590064077626
0.0222294991124642,-0.640018615813171
0.0236062052068095,-0.642414272878526
0.0249894262834216,-0.644777033877408
0.0263788574037737,-0.647106897413532
0.0277741936293393,-0.649403862090614
0.0291751300215914,-0.651667926512372
0.0305813616420035,-0.653899089282522
0.0319925835520488,-0.656097349004779
0.0334084908132006,-0.65826270428286
0.0348287784869321,-0.660395153720483
0.0362531416347168,-0.662494695921362
0.0376812753180277,-0.664561329489215
0.0391128745983384,-0.666595053027758
0.0405476345371219,-0.668595865140706
0.0419852501958517,-0.670563764431778
0.0434254166360009,-0.672498749504688
0.0448678289190429,-0.674400818963154
0.0463121821064509,-0.676269971410891
0.0477581712596984,-0.678106205451616
0.0492054914402584,-0.679909519689045
0.0506538377096044,-0.681679912726896
0.0521029051292096,-0.683417383168883
0.0535523887605473,-0.685121929618724
0.0550019836650907,-0.686793550680135
0.0564513849043133,-0.688432244956832
0.0579002875396881,-0.690038011052531
0.0593483866326886,-0.69161084757095
0.0607953772447879,-0.693150753115804
0.0622409544374596,-0.694657726290809
0.0636848132721766,-0.696131765699683
0.0651266488104125,-0.697572869946141
0.0665661561136404,-0.6989810376339
0.0680030302433337,-0.700356267366676
0.0694369662609655,-0.701698557748186
0.0708676592280093,-0.703007907382146
0.0722948042059383,-0.704284314872272
0.0737180962562258,-0.70552777882228
0.075137230440345,-0.706738297835888
0.0765519018197694,-0.707915870516811
0.077961805455972,-0.709060495468766
0.0793666364104263,-0.710172171295469
0.0807660897446054,-0.711250896600636
0.0821598605199828,-0.712296669987984
0.0835476437980316,-0.71330949006123
0.0849291346402253,-0.714289355424089
0.0863040281080369,-0.715236264680278
0.0876720192629399,-0.716150216433514
0.0890328031664075,-0.717031209287512
0.0903860748799131,-0.71787924184599
0.0917315294649298,-0.718694312712663
0.0930688619829311,-0.719476420491247
0.09439776749539,-0.72022556378546
0.0957179410637801,-0.720941741199018
0.0970290777495744,-0.721624951335636
0.0983308726142464,-0.722275192799032
0.0996230207192692,-0.722892464192922
0.100905217126116,-0.723476764121021
0.102177156896261,-0.724028091187047
0.103438535091176,-0.724546443994716
0.104689046772336,-0.725031821147744
0.105928387001212,-0.725484221249848
0.107156250839279,-0.725903642904743
0.108372333348011,-0.726290084716147
0.109576329588879,-0.726643545287775
0.110767934623358,-0.726964023223344
0.111946843512921,-0.727251517126571
0.11311275131904,-0.727506025601172
0.11426535310319,-0.727727547250862
0.115404343926844,-0.727916080679359
0.116529418851474,-0.728071624490379
0.117640272938555,-0.728194177287638
0.118736601249559,-0.728283737674853
0.11981809884596,-0.72834030425574
0.120884460789231,-0.728363875634015
0.121935382140845,-0.728354450413395
0.122970557962276,-0.728312027197596
0.123989683314997,-0.728236604590334
0.124992453260481,-0.728128181195327
0.125978562860201,-0.727986755616289
0.126947707175632,-0.727812326456938
0.127899581268245,-0.72760489232099
0.128833880199514,-0.727364451812161
0.129750299030914,-0.727091003534168
0.130648532823916,-0.726784546090727
0.131528276639994,-0.726445078085554
0.132389225540621,-0.726072598122366
0.133231074587272,-0.725667104804879
0.134053518841418,-0.72522859673681
0.134856253364534,-0.724757072521875
0.135638973218093,-0.72425253076379
0.136401373463567,-0.723714970066271
0.13714314916243,-0.723144389033036
0.137863995376156,-0.7225407862678
0.138563607166218,-0.72190416037428
0.139241679594089,-0.721234509956191
0.139897907721242,-0.720531833617252
0.14053198660915,-0.719796129961177
0.141143611319288,-0.719027397591683
0.141732476913128,-0.718225635112487
0.142298278452143,-0.717390841127305
0.142840710997807,-0.716523014239853
0.143359469611593,-0.715622153053848
0.143854249354974,-0.714688256173006
0.144324745289424,-0.713721322201043
0.144770652476415,-0.712721349741676
0.145191665977422,-0.711688337398622
0.145587480853918,-0.710622283775595
0.145957792167375,-0.709523187476314
0.146302294979267,-0.708391047104494
0.146620684351067,-0.707225861263852
0.146912655344249,-0.706027628558104
0.147177903020286,-0.704796347590966
0.147416122440651,-0.703532016966155
0.147627008666818,-0.702234635287387
0.147810256760259,-0.700904201158379
0.147965561782448,-0.699540713182846
0.148092618794859,-0.698144169964506
0.148191122858964,-0.696714570107074
0.148260769036237,-0.695251912214267
0.148301252388152,-0.693756194889802
0.14831226797618,-0.692227416737394
0.148293510861797,-0.690665576360761
0.148244676106474,-0.689070672363617
0.148165458771686,-0.687442703349681
0.148055553918905,-0.685781667922668
0.147914656609606,-0.684087564686295
0.14774246190526,-0.682360392244277
0.147538664867342,-0.680600149200332
0.147302960557324,-0.678806834158175
0.147035044036681,-0.676980445721523
0.146734610366885,-0.675120982494093
0.146401354609409,-0.673228443079601
0.146034971825728,-0.671302826081763
0.145635157077313,-0.669344130104295
0.145201605425639,-0.667352353750914
0.144734011932179,-0.665327495625337
0.144232071658406,-0.663269554331279
0.143695479665793,-0.661178528472457
0.143123931015813,-0.659054416652587
0.142517120769941,-0.656897217475387
0.141874743989648,-0.654706929544571
0.141196495736409,-0.652483551463857
0.140482071071697,-0.650227081836961
0.139731165056985,-0.647937519267599
0.138943472753746,-0.645614862359487
0.138118689223454,-0.643259109716342
0.137256509527581,-0.640870259941881
0.136356628727602,-0.63844831163982
0.135418741884989,-0.635993263413874
0.134442544061216,-0.633505113867761
0.133427730317756,-0.630983861605197
0.132373995716082,-0.628429505229898
0.131281035317668,-0.62584204334558
0.130148544183986,-0.623221474555961
0.128976217376511,-0.620567797464756
0.127763749956715,-0.617881010675681
0.126510836986072,-0.615161112792453
0.126510836986072,-0.615161112792453
0.125252872478111,-0.612430637726112
0.124025379931412,-0.609712065541235
0.12282824863503,-0.607005314071849
0.121661367878016,-0.604310301151981
0.120524626949424,-0.601626944615658
0.119417915138306,-0.598955162296906
0.118341121733715,-0.596294872029751
0.117294136024704,-0.593645991648221
0.116276847300326,-0.591008438986343
0.115289144849633,-0.588382131878141
0.114330917961677,-0.585766988157644
0.113402055925513,-0.583162925658878
0.112502448030192,-0.580569862215869
0.111631983564768,-0.577987715662644
0.110790551818292,-0.57541640383323
0.109978042079819,-0.572855844561653
0.1091943436384,-0.57030595568194
0.108439345783088,-0.567766655028118
0.107712937802937,-0.565237860434212
0.107015008986998,-0.562719489734251
0.106345448624325,-0.560211460762259
0.10570414600397,-0.557713691352265
0.105090990414987,-0.555226099338294
0.104505871146428,-0.552748602554374
0.103948677487345,-0.55028111883453
0.103419298726791,-0.54782356601279
0.10291762415382,-0.545375861923179
0.102443543057484,-0.542937924399726
0.101996944726835,-0.540509671276455
0.101577718450927,-0.538091020387394
0.101185753518812,-0.53568188956657
0.100820939219544,-0.533282196648009
0.100483164842173,-0.530891859465738
0.100172319675755,-0.528510795853782
0.0998882930093405,-0.52613892364617
0.0996309741319832,-0.523776160676927
0.0994002523327357,-0.521422424780081
0.0991960169006506,-0.519077633789657
0.0990181571247809,-0.516741705539682
0.0988665622941793,-0.514414557864184
0.0987411216978984,-0.512096108597188
0.0986417246249911,-0.509786275572721
0.0985682603645102,-0.50748497662481
0.0985206182055083,-0.505192129587481
0.0984986874370384,-0.502907652294762
0.0985023573481529,-0.500631462580678
0.0985315172279049,-0.498363478279256
0.098586056365347,-0.496103617224524
0.098665864049532,-0.493851797250506
0.0987708295695126,-0.491607936191231
0.0989008422143416,-0.489371951880724
0.0990557912730718,-0.487143762153013
0.099235566034756,-0.484923284842124
0.0994400557884467,-0.482710437782083
0.099669149823197,-0.480505138806917
0.0999227374280593,-0.478307305750654
0.100200707892087,-0.476116856447318
0.100502950504332,-0.473933708730937
0.100829354553847,-0.471757780435539
0.101179809329686,-0.469588989395148
0.101554204120901,-0.467427253443792
0.101952428216544,-0.465272490415497
0.102374370905669,-0.463124618144291
0.102819921477329,-0.460983554464199
0.103288969220575,-0.458849217209249
0.103781403424461,-0.456721524213466
0.10429711337804,-0.454600393310878
0.104835988370364,-0.452485742335511
0.105397917690486,-0.450377489121391
0.105982790627459,-0.448275551502546
0.106590496470335,-0.446179847313002
0.107220924508168,-0.444090294386786
0.10787396403001,-0.442006810557923
0.108549504324913,-0.439929313660442
0.109247434681932,-0.437857721528367
0.109967644390117,-0.435791951995727
0.110710022738523,-0.433731922896548
0.111474459016202,-0.431677552064855
0.112260842512206,-0.429628757334676
0.113069062515589,-0.427585456540038
0.113899008315403,-0.425547567514967
0.114750569200701,-0.42351500809349
0.115623634460535,-0.421487696109632
0.116518093383959,-0.419465549397422
0.117433835260025,-0.417448485790886
0.118370749377786,-0.415436423124049
0.119328725026295,-0.413429279230939
0.120307651494604,-0.411426971945582
0.121307418071767,-0.409429419102006
0.122327914046835,-0.407436538534236
0.123369028708863,-0.405448248076299
0.124430651346901,-0.403464465562222
0.125512671250005,-0.401485108826031
0.126614977707225,-0.399510095701753
0.127737460007614,-0.397539344023415
0.128880007440227,-0.395572771625043
0.130042509294115,-0.393610296340664
0.13122485485833,-0.391651836004305
0.132426933421927,-0.389697308449991
0.133648634273957,-0.38774663151175
0.134889846703474,-0.385799723023609
0.136150459999529,-0.383856500819593
0.137430363451177,-0.38191688273373
0.138729446347469,-0.379980786600046
0.140047597977458,-0.378048130252568
0.141384707630198,-0.376118831525322
0.142740664594741,-0.374192808252335
0.144115358160139,-0.372269978267634
0.145508677615445,-0.370350259405245
0.146920512249713,-0.368433569499194
0.148350751351995,-0.366519826383509
0.149799284211343,-0.364608947892217
0.151266000116811,-0.362700851859342
0.152750788357451,-0.360795456118913
0.154253538222316,-0.358892678504956
0.155774139000458,-0.356992436851497
0.157312479980932,-0.355094648992564
0.158868450452788,-0.353199232762182
0.16044193970508,-0.351306105994378
0.162032837026861,-0.349415186523179
0.163641031707184,-0.347526392182612
0.165266413035101,-0.345639640806703
0.166908870299665,-0.343754850229479
0.168568292789929,-0.341871938284966
0.170244569794945,-0.339990822807191
0.171937590603767,-0.338111421630181
0.173647244505446,-0.336233652587962
0.175373420789037,-0.33435743351456
0.177116008743591,-0.332482682244004
0.178874897658162,-0.330609316610318
0.180649976821801,-0.328737254447529
0.182441135523562,-0.326866413589665
0.184248263052499,-0.324996711870752
0.186071248697662,-0.323128067124817
0.187909981748105,-0.321260397185885
0.189764351492882,-0.319393619887984
0.191634247221044,-0.317527653065141
0.193519558221644,-0.315662414551381
0.195420173783736,-0.313797822180732
0.197335983196372,-0.311933793787221
0.199266875748604,-0.310070247204873
0.201212740729486,-0.308207100267715
0.20317346742807,-0.306344270809774
0.205148945133409,-0.304481676665077
0.207139063134555,-0.30261923566765
0.209143710720562,-0.30075686565152
0.211162777180483,-0.298894484450714
0.213196151803369,-0.297032009899257
0.215243723878274,-0.295169359831177
0.217305382694251,-0.293306452080501
0.219381017540352,-0.291443204481254
0.22147051770563,-0.289579534867464
0.223573772479138,-0.287715361073157
0.225690671149928,-0.285850600932359
0.227821103007054,-0.283985172279098
0.229964957339567,-0.2821189929474
0.232122123436522,-0.280251980771292
0.23429249058697,-0.278384053584799
0.236475948079964,-0.27651512922195
0.238672385204558,-0.274645125516769
0.240881691249803,-0.272773960303285
0.243103755504753,-0.270901551415524
0.245338467258461,-0.269027816687511
0.247585715799978,-0.267152673953275
0.249845390418359,-0.265276041046841
0.252117380402655,-0.263397835802236
0.25440157504192,-0.261517976053487
0.256697863625205,-0.25963637963462
0.259006135441565,-0.257752964379662
0.261326279780051,-0.255867648122639
0.263658185929717,-0.253980348697579
0.266001743179615,-0.252090983938507
0.268356840818798,-0.250199471679451
0.270723368136319,-0.248305729754436
0.27310121442123,-0.24640967599749
0.275490268962585,-0.24451122824264
0.277890421049435,-0.242610304323911
0.280301559970834,-0.24070682207533
0.282723575015835,-0.238800699330925
0.28515635547349,-0.236891853924721
0.287599790632852,-0.234980203690746
0.290053769782974,-0.233065666463025
0.292518182212909,-0.231148160075586
0.294992917211708,-0.229227602362455
0.297477864068426,-0.227303911157658
0.299972912072115,-0.225377004295223
0.302477950511827,-0.223446799609176
0.304992868676616,-0.221513214933543
0.307517555855533,-0.219576168102352
0.310051901337633,-0.217635576949628
0.312595794411967,-0.215691359309398
0.315149124367589,-0.21374343301569
0.317711780493551,-0.211791715902529
0.320283652078905,-0.209836125803942
0.322864628412706,-0.207876580553957
0.325454598784004,-0.205912997986598
0.328053452481854,-0.203945295935894
0.330661078795308,-0.20197339223587
0.333277367013419,-0.199997204720553
0.335902206425239,-0.198016651223971
0.338535486319821,-0.196031649580149
0.341177095986218,-0.194042117623114
0.343826924713483,-0.192047973186892
0.346484861790668,-0.190049134105511
0.349150796506827,-0.188045518212997
0.351824618151012,-0.186037043343377
0.354506216012275,-0.184023627330676
0.35719547937967,-0.182005188008923
0.35989229754225,-0.179981643212143
0.362596559789066,-0.177952910774362
0.365308155409172,-0.175918908529609
0.368026973691621,-0.173879554311908
0.370752903925465,-0.171834765955288
0.373485835399757,-0.169784461293774
0.37622565740355,-0.167728558161392
0.378972259225896,-0.165666974392171
0.381725530155849,-0.163599627820136
0.384485359482461,-0.161526436279314
0.387251636494785,-0.159447317603731
0.390024250481873,-0.157362189627414
0.392803090732779,-0.15527097018439
0.395588046536555,-0.153173577108685
0.398379007182254,-0.151069928234327
0.401175861958929,-0.148959941395341
0.403978500155632,-0.146843534425754
0.406786811061416,-0.144720625159593
0.409600683965334,-0.142591131430884
0.412420008156439,-0.140454971073654
0.415244672923783,-0.13831206192193
0.41807456755642,-0.136162321809738
0.420909581343401,-0.134005668571105
0.42374960357378,-0.131842020040057
0.42659452353661,-0.129671294050622
0.429444230520943,-0.127493408436825
0.432298613815832,-0.125308281032693
0.43515756271033,-0.123115829672254
0.438020966493489,-0.120915972189532
0.440888714454363,-0.118708626418556
0.443760695882004,-0.116493710193352
0.446636800065464,-0.114271141347946
0.449516916293797,-0.112040837716365
0.452400933856056,-0.109802717132635
0.455288742041292,-0.107556697430784
0.458180230138559,-0.105302696444838
0.46107528743691,-0.103040632008823
0.463973803225397,-0.100770421956766
0.466875666793074,-0.0984919841226932
0.469780767428992,-0.0962052363406321
0.472688994422205,-0.0939100964446087
0.475600237061765,-0.0916064822686499
0.478514384636725,-0.0892943116467821
0.481431326436139,-0.0869735024130321
0.484350951749058,-0.0846439724014263
0.487273149864535,-0.0823056394459915
0.490197810071624,-0.0799584213807541
0.493124821659376,-0.077602236039741
0.496054073916846,-0.0752370012569785
0.498985456133084,-0.0728626348664934
0.501918857597145,-0.0704790547023123
0.504854167598081,-0.0680861785984619
0.507791275424945,-0.0656839243889685
0.510730070366789,-0.063272209907859
0.513670441712667,-0.0608509529891599
0.51661227875163,-0.0584200714668979
0.519555470772732,-0.0559794831750994
0.522499907065026,-0.0535291059477914
0.525445476917564,-0.051068857619
0.528392069619399,-0.0485986560227523
0.531339574459584,-0.0461184189930745
0.534287880727172,-0.0436280643639936
0.537236877711215,-0.0411275099695359
0.540186454700765,-0.0386166736437281
0.543136500984877,-0.0360954732205969
0.546086905852603,-0.0335638265341689
0.549037558592994,-0.0310216514184706
0.551988348495105,-0.0284688657075287
0.554939164847988,-0.0259053872353697
0.557889896940695,-0.0233311338360204
0.56084043406228,-0.0207460233435073
0.563790665501795,-0.018149973591857
0.566740480548293,-0.0155429024150961
0.569689768490826,-0.0129247276472514
0.572638418618448,-0.0102953671223492
0.575586320220211,-0.00765473867441639
0.578533362585169,-0.00500276013747933
0.581479435002372,-0.00233934934556491
0.584424426760876,0.000335575867300528
0.587368227149731,0.00302209766709012
0.590310725457991,0.0057202982197775
0.59325181097471,0.00843025969133583
0.596191372988939,0.0111520642477387
0.59912930078973,0.0138857940549593
0.602065483666139,0.0166315312789713
0.604999810907215,0.0193893580857477
0.607932171802014,0.0221593566412623
0.610862455639586,0.024941609111488
0.613790551708986,0.0277361976623988
0.616716349299265,0.0305432044599675
0.619639737699478,0.033362711670168
0.622560606198675,0.0361948014589731
0.62547884408591,0.0390395559923568
0.628394340650237,0.0418970574362921
0.631306985180707,0.0447673879567526
0.634216666966373,0.0476506297197115
0.637123275296289,0.0505468648911423
0.640026699459506,0.0534561756370183
0.642926828745078,0.0563786441233131
0.645823552442057,0.0593143525159998
0.648716759839497,0.0622633829810521
0.651606340226449,0.065225817684443
0.654492182891968,0.0682017387921463
0.657374177125104,0.071191228470135
0.660252212214912,0.0741943688843829
0.663126177450443,0.077211242200863
0.665995962120752,0.080241930585549
0.66886145551489,0.083286516204414
0.67172254692191,0.0863450812234317
0.674579125630865,0.0894177078085751
0.677431080930808,0.092504478125818
0.680278302110791,0.0956054743411335
0.683120678459868,0.0987207786204952
0.685958099267091,0.101850473129876
0.688790453821512,0.10499464003525
0.691617631412185,0.10815336150259
0.694439521328163,0.11132671969787
0.697256012858497,0.114514796787063
0.700066995292241,0.117717674936142
0.702872357918448,0.120935436311081
0.70567199002617,0.124168163077854
0.70846578090446,0.127415937402433
0.711253619842372,0.130678841450792
0.714035396128956,0.133956957388904
0.716810999053267,0.137250367382743
0.719580317904357,0.140559153598282
0.722343241971279,0.143883398201494
0.725099660543086,0.147223183358354
0.72784946290883,0.150578591234834
0.730592538357565,0.153949703996907
0.733328776178342,0.157336603810548
0.736058065660215,0.160739372841729
0.738780296092236,0.164158093256423
0.741495356763459,0.167592847220606
0.744203136962935,0.171043716900248
0.746903525979718,0.174510784461325
0.749596413102861,0.177994132069809
0.752281687621416,0.181493841891674
0.754959238824436,0.185009996092893
0.757628956000973,0.18854267683944
0.760290728440082,0.192091966297288
0.762944445430813,0.195657946632409
0.765589996262221,0.199240700010779
0.768227270223357,0.20284030859837
0.770856156603275,0.206456854561155
0.773476544691027,0.210090420065108
0.776088323775666,0.213741087276203
0.778691383146245,0.217408938360412
0.781285612091817,0.221094055483709
0.783870899901434,0.224796520812068
0.786447135864149,0.228516416511462
0.789014209269014,0.232253824747863
0.791572009405084,0.236008827687247
0.79412042556141,0.239781507495585
0.796659347027045,0.243571946338852
0.799188663091042,0.24738022638302
0.801708263042453,0.251206429794064
0.804218036170333,0.255050638737956
0.806717871763732,0.25891293538067
0.809207659111704,0.26279340188818
0.811687287503301,0.266692120426458
0.814156646227578,0.270609173161478
0.816615624573585,0.274544642259214
0.819064111830377,0.278498609885639
0.821501997287005,0.282471158206726
0.823929170232522,0.286462369388448
0.826345519955982,0.29047232559678
0.828750935746437,0.294501108997694
0.831145306892939,0.298548801757164
0.833528522684542,0.302615486041163
0.835900472410299,0.306701244015665
0.838261045359261,0.310806157846642
0.840610130820482,0.314930309700069
0.842947618083015,0.319073781741919
0.845273396435912,0.323236656138165
0.847587355168226,0.32741901505478
0.84988938356901,0.331620940657739
0.852179370927317,0.335842515113013
0.854457206532199,0.340083820586578
0.856722779672708,0.344344939244405
0.858975979637899,0.34862595325247
0.861216695716824,0.352926944776743
0.863444817198535,0.357247995983201
0.865660233372085,0.361589189037814
0.867862833526527,0.365950606106558
0.870052506950913,0.370332329355405
0.872229142934297,0.374734440950329
0.874392630765731,0.379157023057303
0.876542859734268,0.383600157842301
0.878679719128961,0.388063927471296
0.880803098238862,0.392548414110261
