-0.0265222110897751,0.686163000728288
-0.0128824353188233,0.669769171747823
0.000635520123718687,0.653673983260385
0.0140310401701404,0.637874624422087
0.0273035097527314,0.622368284389036
0.0404523138037814,0.607152152317343
0.0534768372555799,0.592223417363118
0.0663764650404166,0.577579268682471
0.0791505820905811,0.563216895431511
0.091798573338363,0.549133486766348
0.104319823716052,0.535326231843093
0.116713718155938,0.521792319817855
0.128979641590309,0.508528939846745
0.141116978951457,0.495533281085871
0.15312511517167,0.482802532691344
0.165003435183239,0.470333883819274
0.176751323918452,0.45812452362577
0.188368166309599,0.446171641266943
0.199853347288971,0.434472425898902
0.211206251788856,0.423024066677758
0.222426264741544,0.41182375275962
0.233512771079325,0.400868673300597
0.244465155734488,0.390156017456801
0.255282803639323,0.379682974384341
0.26596509972612,0.369446733239326
0.276511428927169,0.359444483177866
0.286921176174758,0.349673413356072
0.297193726401178,0.340130712930054
0.307328464538717,0.330813571055921
0.317324775519667,0.321719176889782
0.327182044276316,0.312844719587749
0.336899655740954,0.304187388305931
0.34647699484587,0.295744372200437
0.355913446523355,0.287512860427378
0.365208395705697,0.279490042142863
0.374361227325187,0.271673106503003
0.383371326314114,0.264059242663907
0.392238077604768,0.256645639781685
0.400960866129438,0.249429487012447
0.409539076820414,0.242407973512303
0.417972094609985,0.235578288437363
0.426259304430441,0.228937620943737
0.434400091214072,0.222483160187534
0.442393839893168,0.216212095324864
0.450239935400018,0.210121615511838
0.457937762666911,0.204208909904565
0.465486706626137,0.198471167659155
0.472886152209986,0.192905577931718
0.480135484350748,0.187509329878364
0.487234087980711,0.182279612655203
0.494181348032167,0.177213615418344
0.500976649437403,0.172308527323898
0.507619377128711,0.167561537527974
0.514108916038379,0.162969835186682
0.520444651098697,0.158530609456133
0.526625967241955,0.154241049492435
0.532652249400442,0.1500983444517
0.538522882506448,0.146099683490036
0.544237251492263,0.142242255763554
0.549794741290176,0.138523250428363
0.555194736832477,0.134939856640574
0.560436623051455,0.131489263556296
0.565519784879401,0.128168660331639
0.570443607248603,0.124975236122714
0.575207475091352,0.121906180085629
0.579810773339936,0.118958681376495
0.584252886926646,0.116129929151422
0.588533200783771,0.11341711256652
0.5926510998436,0.110817420777898
0.596605969038424,0.108328042941666
0.600397193300533,0.105946168213935
0.604024157562214,0.103668985750813
0.607486246755759,0.101493684708412
0.610782845813457,0.0994174542428405
0.613913339667597,0.0974374835102089
0.61687711325047,0.0955509616666269
0.619673551494364,0.0937550778682045
0.622302039331569,0.0920470212710515
0.624761961694375,0.0904239810312778
0.627052703515072,0.0888831463049932
0.629173649725949,0.0874217062483078
0.631124185259296,0.0860368500173313
0.632903695047402,0.0847257667681735
0.634511564022557,0.0834856456569446
0.635947177117051,0.0823136758397542
0.637209919263173,0.0812070464727123
0.638299175393213,0.0801629467119288
0.63921433043946,0.0791785657135134
0.639954769334204,0.0782510926335762
0.640519877009735,0.077377716628227
0.640909038398343,0.0765556268535757
0.641121638432316,0.0757820124657322
0.641157062043945,0.0750540626208063
0.641014694165519,0.0743689664749079
0.640693919729328,0.0737239131841469
0.640194123667661,0.0731160919046333
0.639514690912808,0.0725426917924768
0.638655006397059,0.0720009020037874
0.637614455052703,0.0714879116946749
0.63639242181203,0.0710009100212493
0.63498829160733,0.0705370861396203
0.633401449370891,0.070093629205898
0.631631280035004,0.0696677283761921
0.629677168531959,0.0692565728066125
0.627538499794044,0.0688573516532692
0.625214658753551,0.068467254072272
0.622705030342767,0.0680834692197308
0.620008999493983,0.0677031862517554
0.617125951139488,0.0673235943244559
0.614055270211573,0.0669418825939419
0.610796341642526,0.0665552402163235
0.607348550364637,0.0661608563477105
0.603711281310196,0.0657559201442128
0.599883919411493,0.0653376207619403
0.595865849600817,0.0649031473570028
0.591656456810457,0.0644496890855102
0.587255125972704,0.0639744351035725
0.582661242019847,0.0634745745672994
0.577874189884175,0.062947296632801
0.572893354497979,0.062389790456187
0.567718120793547,0.0617992451935673
0.56234787370317,0.0611728500010519
0.556781998159137,0.0605077940347506
0.551019879093737,0.0598012664507732
0.545060901439261,0.0590504564052298
0.538904450127997,0.05825255305423
0.532549910092236,0.057404745553884
0.525996666264268,0.0565042230603014
0.519244103576381,0.0555481747295922
0.512291606960865,0.0545337897178664
0.50513856135001,0.0534582571812336
0.497784351676106,0.052318766275804
0.490228362871442,0.0511125061576872
0.482469979868308,0.0498366659829933
0.474508587598993,0.048488434907832
0.466343570995787,0.0470650020883134
0.45797431499098,0.0455635566805472
0.449400204516861,0.0439812878406433
0.44062062450572,0.0423153847247116
0.431634959889847,0.040563036488862
0.42244259560153,0.0387214322892045
0.413042916573061,0.0367877612818487
0.403435307736728,0.0347592126229048
0.39361915402482,0.0326329754684824
0.383593840369629,0.0304062389746916
0.373358751703442,0.0280761922976422
0.36291327295855,0.025640024593444
0.352256789067243,0.023094925018207
0.34138868496181,0.020438082728041
0.330308345574541,0.017666686879056
0.319015155837724,0.0147779266273617
0.307508500683651,0.0117689911290682
0.29578776504461,0.00863706954028518
0.283852333852891,0.00537935101712263
0.271701592040784,0.00199302471569041
0.259334924540579,-0.00152472020790159
0.246751716284564,-0.00517669459754348
0.23395135220503,-0.0089657092971254
0.220933217234267,-0.0128945751505375
0.207696696304563,-0.0169661030016698
0.194241174348208,-0.0211831036944126
0.180566036297492,-0.0255483880726557
0.166670667084706,-0.0300647669802896
0.152554451642137,-0.0347350512612041
0.138216774902077,-0.0395620517592896
0.123657021796813,-0.044548579318436
0.108874577258637,-0.0496974447825334
0.0938688262198383,-0.0550114589954721
0.0786391536127055,-0.060493432801142
0.0631849443695287,-0.0661461770434335
0.0475055834225974,-0.0719725025662365
0.0316004557042014,-0.0779752202134411
0.0154689461466302,-0.0841571408289376
-0.000889560317826554,-0.0905210752566159
-0.0174756787568792,-0.0970698343403663
-0.0342900242382382,-0.103806228924079
-0.0513332118296139,-0.110733069851644
-0.0686058565987167,-0.117853167966951
-0.0861085736132569,-0.125169334113891
-0.103841977940945,-0.132684379136353
-0.121806684649491,-0.140401113878228
-0.140003308806606,-0.148322349183406
-0.15843246548,-0.156450895895777
-0.177094769737384,-0.164789564859231
-0.195990836646467,-0.173341166917658
-0.21512128127496,-0.182108512914949
-0.234486718690574,-0.191094413694993
-0.254087763961019,-0.20030168010168
-0.273925032154005,-0.209733122978901
-0.293999138337242,-0.219391553170546
-0.314310697578442,-0.229279781520505
-0.334860324945314,-0.239400618872668
-0.35564863550557,-0.249756876070925
-0.376676244326918,-0.260351363959167
-0.39794376647707,-0.271186893381283
-0.419451817023736,-0.282266275181163
-0.441201011034626,-0.293592320202698
-0.463191963577451,-0.305167839289778
-0.485425289719921,-0.316995643286292
-0.507901604529747,-0.329078543036132
