0.106549719078201,0.718733967356685
0.104772615648179,0.710315909304812
0.102982886056896,0.701926929462961
0.101180596960985,0.693567044153195
0.0993658150170807,0.685236269697576
0.0975386068818167,0.676934622418164
0.0956990392118274,0.668662118637022
0.0938471786637469,0.660418774676212
0.0919830918942095,0.652204606857795
0.0901068455598492,0.644019631503833
0.0882185063173002,0.635863864936387
0.0863181408231967,0.627737323477519
0.0844058157341727,0.619640023449292
0.0824815977068625,0.611571981173767
0.0805455533979001,0.603533212973005
0.0785977494639198,0.595523735169068
0.0766382525615557,0.587543564084018
0.0746671293474419,0.579592716039918
0.0726844464782126,0.571671207358827
0.0706902706105019,0.563779054362808
0.0686846684009441,0.555916273373924
0.0666677065061731,0.548082880714235
0.0646394515828232,0.540278892705803
0.0625999702875286,0.532504325670691
0.0605493292769233,0.524759195930959
0.0584875952076416,0.51704351980867
0.0564148347363175,0.509357313625884
0.0543311145195852,0.501700593704665
0.0522365012140789,0.494073376367073
0.0501310614764328,0.486475677935171
0.0480148619632809,0.47890751473102
0.0458879693312574,0.471368903076682
0.0437504502369965,0.463859859294218
0.0416023713371323,0.456380399705691
0.039443799288299,0.448930540633161
0.0372748007471306,0.441510298398691
0.0350954423702615,0.434119689324343
0.0329057908143257,0.426758729732178
0.0307059127359573,0.419427435944258
0.0284958747917905,0.412125824282644
0.0262757436384595,0.404853911069399
0.0240455859325984,0.397611712626584
0.0218054683308413,0.39039924527626
0.0195554574898224,0.38321652534049
0.0172956200661759,0.376063569141336
0.0150260227165359,0.368940393000858
0.0127467320975366,0.361847013241119
0.010457814865812,0.354783446184181
0.0081593376779964,0.347749708152104
0.00585136719072391,0.340745815466952
0.00353397006062862,0.333771784450785
0.00120721294434474,0.326827631425665
-0.00112883750149359,0.319913372713654
-0.00347411462025222,0.313029024636814
-0.00582855175529703,0.306174603517207
-0.00819208224999385,0.299350125676894
-0.0105646394477085,0.292555607437936
-0.0129461566918069,0.285791065122397
-0.0153365673256548,0.279056515052336
-0.0177358046926182,0.272351973549817
-0.0201438021360628,0.265677456936901
-0.0225604929993546,0.259032981535649
-0.0249858106258593,0.252418563668123
-0.0274196883589429,0.245834219656385
-0.0298620595419711,0.239279965822498
-0.0323128575183098,0.232755818488521
-0.0347720156313249,0.226261793976518
-0.0372394672243823,0.21979790860855
-0.0397151456408477,0.213364178706678
-0.042198984224087,0.206960620592964
-0.0446909163174662,0.200587250589471
-0.0471908752643509,0.194244085018259
-0.0496987944081072,0.187931140201391
-0.0522146070921007,0.181648432460928
-0.0547382466596975,0.175395978118932
-0.0572696464542633,0.169173793497465
-0.0598087398191639,0.162981894918588
-0.0623554600977653,0.156820298704364
-0.0649097406334333,0.150689021176852
-0.0674715147695338,0.144588078658117
-0.0700407158494325,0.138517487470219
-0.0726172772164954,0.13247726393522
-0.0752011322140882,0.126467424375182
-0.077792214185577,0.120487985112166
-0.0803904564743274,0.114538962468235
-0.0829957924237053,0.108620372765449
-0.0856081553770766,0.102732232325871
-0.0882274786778072,0.096874557471562
-0.090853695669263,0.0910473645245844
-0.0934867396948096,0.0852506698069996
-0.0961265440978131,0.0794844896408694
-0.0987730422216392,0.0737488403482553
-0.101426167409654,0.0680437382512193
-0.104085853005223,0.062369199671823
-0.106752032351712,0.0567252409321281
-0.109424638792487,0.0511118783541963
-0.112103605670914,0.0455291282600894
-0.114788866330359,0.0399770069718692
-0.117480354114188,0.0344555308115972
-0.120178002365766,0.0289647161013353
-0.122881744428459,0.0235045791631452
-0.125591513645634,0.0180751363190885
-0.128307243360655,0.0126764038912271
-0.131028866916889,0.00730839820162257
-0.133756317657702,0.00197113557233683
-0.13648952892646,-0.00333536767456855
-0.139228434066528,-0.00861109521703193
-0.141972966421272,-0.0138560307329915
-0.144723059334059,-0.0190701579003853
-0.147478646148253,-0.0242534603971519
-0.150239660207222,-0.0294059219012296
-0.15300603485433,-0.0345275260905565
-0.155777703432943,-0.0396182566430709
-0.158554599286428,-0.0446780972367111
-0.16133665575815,-0.0497070315494155
-0.164123806191475,-0.0547050432591222
-0.166915983929769,-0.0596721160437696
-0.169713122316398,-0.0646082335812959
-0.172515154694728,-0.0695133795496393
-0.175322014408124,-0.0743875376267384
-0.178133634799952,-0.0792306914905311
-0.180949949213579,-0.0840428248189557
-0.183770890992369,-0.0888239212899508
-0.18659639347969,-0.0935739645814545
-0.189426390018906,-0.098292938371405
-0.192260813953384,-0.102980826337741
-0.195099598626489,-0.1076376121584
-0.197942677381588,-0.11226327951132
-0.200789983562045,-0.116857812074441
-0.203641450511228,-0.1214211935257
-0.206497011572502,-0.125953407543035
-0.209356600089232,-0.130454437804386
-0.212220149404785,-0.134924267987689
-0.215087592862526,-0.139362881770884
-0.217958863805821,-0.143770262831908
-0.220833895578037,-0.1481463948487
-0.223712621522538,-0.152491261499198
-0.226594974982692,-0.156804846461341
-0.229480889301863,-0.161087133413067
-0.232370297823417,-0.165338106032313
-0.235263133890721,-0.169557747997019
-0.23815933084714,-0.173746042985122
-0.241058822036041,-0.177902974674561
-0.243961540800788,-0.182028526743275
-0.246867420484747,-0.1861226828692
-0.249776394431286,-0.190185426730277
-0.252688395983769,-0.194216742004442
-0.255603358485562,-0.198216612369634
-0.258521215280032,-0.202185021503792
-0.261441899710543,-0.206121953084854
-0.264365345120462,-0.210027390790758
-0.267291484853155,-0.213901318299442
-0.270220252251988,-0.217743719288845
-0.273151580660326,-0.221554577436904
-0.276085403421535,-0.225333876421559
-0.279021653878982,-0.229081599920747
-0.281960265376031,-0.232797731612407
-0.28490117125605,-0.236482255174476
-0.287844304862403,-0.240135154284894
-0.290789599538456,-0.243756412621599
-0.293736988627576,-0.247346013862528
-0.296686405473128,-0.250903941685621
-0.299637783418478,-0.254430179768814
-0.302591055806993,-0.257924711790048
-0.305546155982036,-0.261387521427259
-0.308503017286976,-0.264818592358386
-0.311461573065177,-0.268217908261368
-0.314421756660006,-0.271585452814143
-0.317383501414827,-0.274921209694649
-0.320346740673008,-0.278225162580824
-0.323311407777914,-0.281497295150606
-0.32627743607291,-0.284737591081935
-0.329244758901363,-0.287946034052747
-0.332213309606638,-0.291122607740982
-0.335183021532102,-0.294267295824577
-0.33815382802112,-0.297380081981472
-0.341125662417058,-0.300460949889604
-0.344098458063281,-0.303509883226911
-0.347072148303157,-0.306526865671332
-0.35004666648005,-0.309511880900805
-0.353021945937326,-0.312464912593268
-0.355997920018352,-0.31538594442666
-0.358974522066492,-0.318274960078919
-0.361951685425114,-0.321131943227983
-0.364929343437583,-0.32395687755179
-0.367907429447264,-0.326749746728279
-0.370885876797524,-0.329510534435388
-0.373864618831728,-0.332239224351056
-0.376843588893242,-0.33493580015322
-0.379822720325433,-0.337600245519818
-0.382801946471665,-0.34023254412879
-0.385781200675305,-0.342832679658073
-0.388760416279719,-0.345400635785606
-0.391739526628272,-0.347936396189327
-0.39471846506433,-0.350439944547174
-0.39769716493126,-0.352911264537085
-0.400675559572427,-0.355350339836999
-0.403653582331196,-0.357757154124854
-0.406631166550935,-0.360131691078589
-0.409608245575008,-0.362473934376141
-0.412584752746781,-0.364783867695448
-0.415560621409621,-0.36706147471445
-0.418535784906892,-0.369306739111085
-0.421510176581962,-0.37151964456329
-0.424483729778196,-0.373700174749004
-0.427456377838959,-0.375848313346165
-0.430428054107618,-0.377964044032712
-0.433398691927538,-0.380047350486582
-0.436368224642086,-0.382098216385715
-0.439336585594626,-0.384116625408048
-0.442303708128526,-0.386102561231519
-0.44526952558715,-0.388056007534068
-0.448233971313865,-0.389976947993631
-0.451196978652037,-0.391865366288148
-0.45415848094503,-0.393721246095557
-0.457118411536212,-0.395544571093796
-0.460076703768948,-0.397335324960803
-0.463033290986605,-0.399093491374516
-0.465988106532546,-0.400819054012874
-0.46894108375014,-0.402511996553816
-0.47189215598275,-0.404172302675279
-0.474841256573745,-0.405799956055201
-0.477788318866488,-0.407394940371521
-0.480733276204346,-0.408957239302178
-0.483676061930685,-0.410486836525109
-0.486616609388871,-0.411983715718253
-0.48955485192227,-0.413447860559548
-0.492490722874246,-0.414879254726932
-0.495424155588167,-0.416277881898344
-0.498355083407399,-0.417643725751721
-0.501283439675306,-0.418976769965003
-0.504209157735255,-0.420276998216127
-0.507132170930612,-0.421544394183032
-0.510052412604742,-0.422778941543656
-0.512969816101012,-0.423980623975937
-0.515884314762786,-0.425149425157813
-0.518795841933432,-0.426285328767224
-0.521704330956315,-0.427388318482106
-0.524609715174801,-0.428458377980399
-0.527511927932255,-0.42949549094004
-0.530410902572044,-0.430499641038968
-0.533306572437533,-0.431470811955122
-0.536198870872088,-0.432408987366439
-0.539087731219075,-0.433314150950857
-0.541973086821861,-0.434186286386316
-0.544854871023809,-0.435025377350753
-0.547733017168288,-0.435831407522106
-0.550607458598662,-0.436604360578315
-0.553478128658297,-0.437344220197316
-0.55634496069056,-0.438050970057049
-0.559207888038815,-0.438724593835451
-0.562066844046429,-0.439365075210461
-0.564921762056768,-0.439972397860018
-0.567772575413198,-0.440546545462059
-0.570619217459083,-0.441087501694523
-0.573461621537792,-0.441595250235348
-0.576299720992688,-0.442069774762472
-0.579133449167138,-0.442511058953834
-0.581962739404508,-0.442919086487371
-0.584787525048164,-0.443293841041023
-0.587607739441471,-0.443635306292727
-0.590423315927795,-0.443943465920422
-0.593234187850503,-0.444218303602046
-0.59604028855296,-0.444459803015537
-0.598841551378531,-0.444667947838834
-0.601637909670584,-0.444842721749874
-0.604429296772483,-0.444984108426597
-0.607215646027595,-0.44509209154694
-0.609996890779284,-0.445166654788841
-0.612772964370918,-0.445207781830239
-0.615543800145862,-0.445215456349073
-0.618309331447482,-0.44518966202328
-0.621069491619144,-0.445130382530799
-0.623824214004213,-0.445037601549568
-0.626573431946056,-0.444911302757525
-0.629317078788038,-0.444751469832608
-0.632055087873525,-0.444558086452757
-0.634787392545883,-0.444331136295908
-0.637513926148477,-0.444070603040001
-0.640234622024675,-0.443776470362974
-0.642949413517841,-0.443448721942765
-0.645658233971341,-0.443087341457311
-0.648361016728542,-0.442692312584553
-0.651057695132809,-0.442263619002427
-0.653748202527507,-0.441801244388872
-0.656432472256004,-0.441305172421826
-0.659110437661664,-0.440775386779228
-0.661782032087854,-0.440211871139016
-0.664447188877939,-0.439614609179128
-0.667105841375285,-0.438983584577503
-0.669757922923258,-0.438318781012078
-0.672403366865224,-0.437620182160792
-0.675042106544549,-0.436887771701584
-0.677674075304598,-0.436121533312391
-0.680299206488738,-0.435321450671152
-0.682917433440334,-0.434487507455805
-0.685528689502752,-0.433619687344288
-0.688132908019359,-0.43271797401454
-0.690730022333519,-0.431782351144499
-0.693319965788599,-0.430812802412103
-0.695902671727964,-0.42980931149529
-0.698478073494981,-0.428771862071999
-0.701046104433015,-0.427700437820168
-0.703606697885432,-0.426595022417736
-0.706159787195598,-0.42545559954264
-0.708705305706879,-0.424282152872819
-0.711243186762641,-0.423074666086211
-0.713773363706249,-0.421833122860755
-0.716295769881069,-0.420557506874388
-0.718810338630468,-0.419247801805049
-0.721317003297811,-0.417903991330676
-0.723815697226464,-0.416526059129208
-0.726306353759792,-0.415113988878583
-0.728788906241162,-0.413667764256738
-0.73126328801394,-0.412187368941614
-0.73372943242149,-0.410672786611146
-0.73618727280718,-0.409124000943275
-0.738636742514375,-0.407540995615937
-0.741077774886442,-0.405923754307072
-0.743510303266744,-0.404272260694618
-0.745934260998649,-0.402586498456513
-0.748349581425523,-0.400866451270695
-0.750756197890731,-0.399112102815103
-0.753154043737639,-0.397323436767674
-0.755543052309613,-0.395500436806348
-0.757923156950019,-0.393643086609062
-0.760294291002223,-0.391751369853754
-0.76265638780959,-0.389825270218364
-0.765009380715486,-0.387864771380829
-0.767353203063278,-0.385869857019087
-0.769687788196331,-0.383840510811077
-0.772013069458011,-0.381776716434737
-0.774328980191683,-0.379678457568005
-0.776635453740715,-0.37754571788882
-0.77893242344847,-0.37537848107512
-0.781219822658316,-0.373176730804842
-0.783497584713619,-0.370940450755927
-0.785765642957743,-0.368669624606311
-0.788023930734055,-0.366364236033933
-0.790272381385921,-0.364024268716731
-0.792510928256707,-0.361649706332643
-0.794739504689778,-0.359240532559609
-0.7969580440285,-0.356796731075565
-0.79916647961624,-0.354318285558451
-0.801364744796362,-0.351805179686205
-0.803552772912234,-0.349257397136764
-0.80573049730722,-0.346674921588068
-0.807897851324686,-0.344057736718054
-0.810054768307999,-0.341405826204661
-0.812201181600525,-0.338719173725826
-0.814337024545628,-0.335997762959489
-0.816462230486675,-0.333241577583588
-0.818576732767032,-0.33045060127606
-0.820680464730066,-0.327624817714845
-0.82277335971914,-0.32476421057788
-0.824855351077622,-0.321868763543103
-0.826926372148877,-0.318938460288454
-0.828986356276271,-0.315973284491869
-0.831035236803169,-0.312973219831289
-0.833072947072939,-0.30993824998465
-0.835099420428946,-0.306868358629891
-0.837114590214555,-0.30376352944495
-0.839118389773132,-0.300623746107766
-0.841110752448043,-0.297448992296276
-0.843091611582655,-0.29423925168842
-0.845060900520332,-0.290994507962136
-0.847018552604441,-0.287714744795361
-0.848964501178348,-0.284399945866034
-0.850898679585418,-0.281050094852093
-0.852821021169017,-0.277665175431477
-0.854731459272511,-0.274245171282123
-0.856629927239267,-0.270790066081971
-0.858516358412649,-0.267299843508958
-0.860390686136024,-0.263774487241023
-0.862252843752758,-0.260213980956103
-0.864102764606216,-0.256618308332138
-0.865940382039764,-0.252987453047065
-0.867765629396768,-0.249321398778823
-0.869578440020594,-0.24562012920535
-0.871378747254608,-0.241883628004584
-0.873166484442176,-0.238111878854464
-0.874941584926663,-0.234304865432928
-0.876703982051436,-0.230462571417913
-0.878453609159859,-0.226584980487359
-0.8801903995953,-0.222672076319204
-0.881914286701124,-0.218723842591386
-0.883625203820696,-0.214740262981843
-0.885323084297383,-0.210721321168513
-0.887007861474551,-0.206667000829336
-0.888679468695565,-0.202577285642248
-0.890337839303791,-0.198452159285189
-0.891982906642595,-0.194291605436096
-0.893614604055343,-0.190095607772908
-0.8952328648854,-0.185864149973563
-0.896837622476133,-0.181597215716
-0.898428810170908,-0.177294788678156
-0.90000636131309,-0.172956852537971
-0.901570209246045,-0.168583390973381
-0.903120287313139,-0.164174387662326
-0.904656528857737,-0.159729826282744
-0.904656528857737,-0.159729826282744
-0.906164463756309,-0.155289603117411
-0.907629732793163,-0.150893446172925
-0.909052435673425,-0.146541086712958
-0.910432672102223,-0.142232256001181
-0.911770541784682,-0.137966685301267
-0.913066144425929,-0.133744105876888
-0.91431957973109,-0.129564248991714
-0.915530947405293,-0.125426845909418
-0.916700347153663,-0.121331627893671
-0.917827878681327,-0.117278326208146
-0.918913641693412,-0.113266672116514
-0.919957735895044,-0.109296396882447
-0.92096026099135,-0.105367231769617
-0.921921316687456,-0.101478908041695
-0.922841002688489,-0.0976311569623529
-0.923719418699575,-0.0938237097952631
-0.924556664425841,-0.090056297804097
-0.925352839572413,-0.0863286522525264
-0.926108043844417,-0.0826405044042231
-0.926822376946981,-0.0789915855228589
-0.927495938585231,-0.0753816268721055
-0.928128828464294,-0.0718103597156348
-0.928721146289295,-0.0682775153171184
-0.929272991765361,-0.0647828249402283
-0.92978446459762,-0.061326019848636
-0.930255664491197,-0.0579068313060134
-0.930686691151218,-0.0545249905760323
-0.931077644282812,-0.0511802289223646
-0.931428623591103,-0.0478722776086818
-0.931739728781219,-0.0446008678986558
-0.932011059558286,-0.0413657310559584
-0.93224271562743,-0.0381665983442614
-0.932434796693778,-0.0350032010272364
-0.932587402462457,-0.0318752703685554
-0.932700632638593,-0.0287825376318901
-0.932774586927313,-0.0257247340809122
-0.932809365033743,-0.0227015909792935
-0.93280506666301,-0.0197128395907058
-0.932761791520239,-0.0167582111788209
-0.932679639310559,-0.0138374370073105
-0.932558709739094,-0.0109502483398465
-0.932399102510973,-0.00809637644010048
-0.93220091733132,-0.0052755525717444
-0.931964253905264,-0.00248750799844993
-0.931689211937929,0.000268026016111145
-0.931375891134444,0.00299131820826702
-0.931024391199933,0.00568263731434595
-0.930634811839525,0.00834225207067615
-0.930207252758345,0.0109704312135858
-0.92974181366152,0.0135674434794032
-0.929238594254176,0.0161335576044566
-0.928697694241441,0.0186690423250741
-0.92811921332844,0.0211741663775841
-0.927503251220299,0.0236491984983146
-0.926849907622146,0.026094407423594
-0.926159282239108,0.0285100618897505
-0.925431474776309,0.0308964306331124
-0.924666584938878,0.0332537823900077
-0.92386471243194,0.0355823858967648
-0.923025956960623,0.0378825098897119
-0.922150418230052,0.0401544231051772
-0.921238195945354,0.0423983942794889
-0.920289389811655,0.0446146921489753
-0.919304099534084,0.0468035854499646
-0.918282424817764,0.048965342918785
-0.917224465367824,0.0511002332917647
-0.916130320889389,0.0532085253052321
-0.915000091087587,0.0552904876955152
-0.913833875667544,0.0573463891989423
-0.912631774334385,0.0593764985518417
-0.911393886793239,0.0613810844905416
-0.910120312749231,0.0633604157513701
-0.908811151907488,0.0653147610706556
-0.907466503973136,0.0672443891847263
-0.906086468651302,0.0691495688299103
-0.904671145647112,0.071030568742536
-0.903220634665694,0.0728876576589314
-0.901735035412172,0.074721104315425
-0.900214447591675,0.0765311774483448
-0.898658970909328,0.0783181457940191
-0.897068705070258,0.0800822780887762
-0.895443749779592,0.0818238430689442
-0.893784204742455,0.0835431094708515
-0.892090169663975,0.0852403460308262
-0.890361744249279,0.0869158214851964
-0.888599028203492,0.0885698045702906
-0.88680212123174,0.0902025640224368
-0.884971123039152,0.0918143685779634
-0.883106133330853,0.0934054869731986
-0.881207251811969,0.0949761879444705
-0.879274578187628,0.0965267402281074
-0.877308212162955,0.0980574125604376
-0.875308253443077,0.0995684736777892
-0.873274801733122,0.10106019231649
-0.871207956738214,0.10253283721287
-0.869107818163481,0.103986677103255
-0.86697448571405,0.105421980723975
-0.864808059095046,0.106839016811357
-0.862608638011597,0.10823805410173
-0.860376322168828,0.109619361331422
-0.858111211271867,0.110983207236762
-0.85581340502584,0.112329860554076
-0.853483003135873,0.113659590019695
-0.851120105307093,0.114972664369946
-0.848724811244627,0.116269352341156
-0.8462972206536,0.117549922669655
-0.843837433239141,0.118814644091771
-0.841345548706374,0.120063785343832
-0.838821666760426,0.121297615162166
-0.836265887106425,0.122516402283101
-0.833678309449496,0.123720415442965
-0.831059033494766,0.124909923378087
-0.828408158947362,0.126085194824796
-0.82572578551241,0.127246498519418
-0.823012012895037,0.128394103198283
-0.820266940800369,0.129528277597718
-0.817490668933532,0.130649290454053
-0.814683296999654,0.131757410503614
-0.81184492470386,0.132852906482731
-0.808975651751278,0.133936047127732
-0.806075577847034,0.135007101174944
-0.803144802696253,0.136066337360696
-0.800183426004063,0.137114024421317
-0.797191547475591,0.138150431093134
-0.794169266815963,0.139175826112476
-0.791116683730305,0.14019047821567
-0.788033897923744,0.141194656139046
-0.784921009101406,0.142188628618931
-0.781778116968418,0.143172664391654
-0.778605321229907,0.144147032193543
-0.775402721590998,0.145112000760925
-0.772170417756819,0.14606783883013
-0.768908509432497,0.147014815137486
-0.765617096323156,0.14795319841932
-0.762296278133924,0.148883257411961
-0.758946154569929,0.149805260851737
-0.755566825336295,0.150719477474977
-0.752158390138149,0.151626176018009
-0.748720948680619,0.15252562521716
-0.745254600668831,0.153418093808759
-0.741759445807911,0.154303850529135
-0.738235583802985,0.155183164114615
-0.73468311435918,0.156056303301528
-0.731102137181623,0.156923536826202
-0.727492751975441,0.157785133424965
-0.723855058445759,0.158641361834146
-0.720189156297704,0.159492490790072
-0.716495145236403,0.160338789029073
-0.712773124966983,0.161180525287475
-0.709023195194569,0.162017968301608
-0.705245455624289,0.162851386807799
-0.701440005961268,0.163681049542377
-0.697606945910634,0.164507225241671
-0.693746375177513,0.165330182642007
-0.689858393467031,0.166150190479715
-0.685943100484315,0.166967517491123
-0.682000595934492,0.167782432412558
-0.678030979522687,0.16859520398035
-0.674034350954028,0.169406100930826
-0.670010809933641,0.170215392000315
-0.665960456166653,0.171023345925145
-0.661883389358189,0.171830231441643
-0.657779709213377,0.172636317286139
-0.653649515437344,0.173441872194961
-0.649492907735215,0.174247164904436
-0.645309985812117,0.175052464150893
-0.641100849373176,0.175858038670661
-0.63686559812352,0.176664157200067
-0.632604331768274,0.177471088475439
-0.628317150012566,0.178279101233107
-0.624004152561521,0.179088464209397
-0.619665439120267,0.179899446140639
-0.615301109393929,0.180712315763161
-0.610911263087635,0.18152734181329
-0.60649599990651,0.182344793027355
-0.602055419555682,0.183164938141685
-0.597589621740277,0.183988045892607
-0.593098706165421,0.18481438501645
-0.588582772536241,0.185644224249541
-0.584041920557863,0.18647783232821
-0.579476249935414,0.187315477988784
-0.574885860374021,0.188157429967592
-0.570270851578809,0.189003957000961
-0.565631323254906,0.189855327825221
-0.560967375107438,0.190711811176699
-0.556279106841532,0.191573675791723
-0.551566618162313,0.192441190406623
-0.546830008774909,0.193314623757725
-0.542069378384447,0.194194244581358
-0.537284826696051,0.195080321613851
-0.53247645341485,0.195973123591531
-0.52764435824597,0.196872919250727
-0.522788640894536,0.197779977327768
-0.517909401065676,0.19869456655898
-0.513006738464517,0.199616955680693
-0.508080752796184,0.200547413429235
-0.503131543765805,0.201486208540934
-0.498159211078505,0.202433609752118
-0.493163854439411,0.203389885799116
-0.48814557355365,0.204355305418255
-0.483104468126349,0.205330137345865
-0.478040637862633,0.206314650318272
-0.472954182467629,0.207309113071806
-0.467845201646465,0.208313794342794
-0.462713795104266,0.209328962867565
-0.457560062546159,0.210354887382447
-0.45238410367727,0.211391836623768
-0.447186018202726,0.212440079327857
-0.441965905827653,0.213499884231042
-0.436723866257179,0.21457152006965
-0.431459999196429,0.215655255580011
-0.42617440435053,0.216751359498452
-0.420867181424609,0.217860100561302
-0.415538430123791,0.218981747504888
-0.410188250153204,0.22011656906554
-0.404816741217975,0.221264833979585
-0.399424003023229,0.222426810983351
-0.394010135274093,0.223602768813167
-0.388575237675693,0.224792976205362
-0.383119409933157,0.225997701896262
-0.37764275175161,0.227217214622197
-0.37214536283618,0.228451783119494
-0.366627342891993,0.229701676124483
-0.361088791624174,0.23096716237349
-0.355529808737852,0.232248510602845
-0.349950493938152,0.233545989548875
-0.3443509469302,0.234859867947909
-0.338731267419124,0.236190414536275
-0.333091555110049,0.237537898050302
-0.327431909708104,0.238902587226317
-0.321752430918412,0.240284750800648
-0.316053218446103,0.241684657509625
-0.310334371996301,0.243102576089574
-0.304595991274134,0.244538775276825
-0.298838175984727,0.245993523807706
-0.293061025833208,0.247467090418544
-0.287264640524703,0.248959743845669
-0.281449119764339,0.250471752825407
-0.275614563257241,0.252003386094089
-0.269761070708538,0.253554912388041
-0.263888741823354,0.255126600443591
-0.257997676306817,0.25671871899707
-0.252087973864053,0.258331536784803
-0.246159734200188,0.25996532254312
-0.24021305702035,0.261620345008349
-0.234248042029664,0.263296872916818
-0.228264788933258,0.264995175004856
-0.222263397436257,0.26671552000879
-0.216243967243788,0.268458176664949
-0.210206598060979,0.27022341370966
-0.204151389592954,0.272011499879253
-0.198078441544841,0.273822703910056
-0.191987853621767,0.275657294538396
-0.185879725528857,0.277515540500602
-0.179754156971239,0.279397710533002
-0.173611247654039,0.281304073371924
-0.167451097282382,0.283234897753697
-0.161273805561398,0.285190452414649
-0.15507947219621,0.287171006091108
-0.148868196891946,0.289176827519402
-0.142640079353733,0.29120818543586
-0.136395219286696,0.293265348576809
-0.130133716395963,0.295348585678578
-0.123855670386661,0.297458165477496
-0.117561180963914,0.299594356709889
-0.111250347832851,0.301757428112088
-0.104923270698597,0.303947648420419
-0.0985800492662797,0.306165286371211
-0.0922207832410245,0.308410610700793
-0.0858455723279588,0.310683890145492
-0.0794545162322084,0.312985393441637
-0.0730477146589004,0.315315389325556
-0.0666252673131609,0.317674146533577
-0.0601872739001169,0.320061933802029
-0.0537338341248942,0.322479019867239
-0.0472650476926203,0.324925673465536
-0.0407810143084207,0.327402163333248
-0.0342818336774226,0.329908758206703
-0.0277676055047521,0.332445726822231
-0.0212384294955362,0.335013337916157
-0.0146944053549009,0.337611860224812
-0.00813563278797313,0.340241562484523
-0.00156221149987909,0.342902713431619
0.00502575880425432,0.345595581802427
0.0116281784193011,0.348320436333276
0.0182449476401343,0.351077545760494
0.0248759667616277,0.35386717882041
0.0315211360786543,0.356689604249351
0.0381803558860883,0.359545090783647
0.0448535264788024,0.362433907159624
0.0515405481516707,0.365356322113611
0.0582413211995663,0.368312604381937
0.0649557459173631,0.37130302270093
0.071683722599934,0.374327845806917
0.078425151542153,0.377387342436228
0.0851799330388932,0.38048178132519
0.0919479673850285,0.383611431210132
0.0987291548754318,0.386776560827382
0.105523395804977,0.389977438913267
0.112330590468538,0.393214334204117
0.119150639160987,0.39648751543626
0.125983442177199,0.399797251346023
0.132828899812046,0.403143810669736
0.139686912360403,0.406527462143725
0.146557380117142,0.40994847450432
0.153440203377137,0.413407116487849
0.160335282435263,0.41690365683064
0.167242517586391,0.42043836426902
0.174161809125396,0.42401150753932
0.181093057347151,0.427623355377865
0.188036162546529,0.431274176520986
0.194991025018405,0.434964239705009
0.201957545057651,0.438693813666264
0.208935622959141,0.442463167141078
0.215925159017749,0.44627256886578
0.222926053528347,0.450122287576698
0.229938206785811,0.45401259201016
0.236961519085012,0.457943750902494
0.243995890720824,0.461916032990029
0.251041221988122,0.465929707009093
0.258097413181778,0.469985041696014
0.265164364596665,0.47408230578712
0.272241976527658,0.47822176801874
0.27933014926963,0.482403697127202
0.286428783117454,0.486628361848833
0.293537778366004,0.490896030919963
0.300657035310154,0.495206973076919
0.307786454244776,0.499561457056029
0.314925935464744,0.503959751593623
0.322075379264932,0.508402125426028
0.329234685940213,0.512888847289572
0.336403755785461,0.517420185920583
0.343582489095549,0.521996410055391
0.35077078616535,0.526617788430322
0.357968547289739,0.531284589781706
0.365175672763588,0.53599708284587
0.372392062881772,0.540755536359143
0.379617617939163,0.545560219057852
0.386852238230635,0.550411399678327
0.394095824051061,0.555309346956895
0.401348275695316,0.560254329629885
0.408609493458272,0.565246616433625
0.415879377634803,0.570286476104443
0.423157828519783,0.575374177378666
0.430444746408084,0.580509988992625
0.437740031594581,0.585694179682646
0.445043584374147,0.590927018185058
0.452355305041654,0.596208773236189
0.459675093891979,0.601539713572368
0.467002851219992,0.606920107929922
0.474338477320568,0.612350225045181
0.48168187248858,0.617830333654471
0.489032937018902,0.623360702494121
0.496391571206408,0.628941600300461
0.50375767534597,0.634573295809816
0.511131149732462,0.640256057758517
0.518511894660758,0.645990154882891
0.525899810425731,0.651775855919267
0.533294797322255,0.657613429603972
0.540696755645203,0.663503144673335
0.548105585689449,0.669445269863684
0.555521187749865,0.675440073911348
0.562943462121327,0.681487825552654
0.570372309098706,0.687588793523931
0.577807628976877,0.693743246561507
0.585249322050713,0.69995145340171
0.592697288615088,0.706213682780869
0.600151428964874,0.712530203435311
0.607611643394946,0.718901284101366
0.615077832200177,0.72532719351536
0.62254989567544,0.731808200413623
0.630027734115609,0.738344573532482
0.637511247815558,0.744936581608267
0.645000337070159,0.751584493377304
0.652494902174287,0.758288577575922
0.659994843422814,0.76504910294045
0.667500061110615,0.771866338207217
0.675010455532563,0.778740552112548
0.682525926983531,0.785672013392775
0.690046375758393,0.792660990784223
0.697571702152022,0.799707753023222
0.705101806459291,0.8068125688461
0.712636588975075,0.813975706989186
0.720175949994247,0.821197436188806
0.72771978981168,0.82847802518129
0.735268008722247,0.835817742702965
0.742820507020822,0.843216857490162
0.750377185002279,0.850675638279205
0.757937942961492,0.858194353806426
0.765502681193332,0.865773272808151
0.773071299992675,0.873412664020709
0.780643699654393,0.881112796180428
0.788219780473361,0.888873938023637
0.79579944274445,0.896696358286663
0.803382586762536,0.904580325705835
0.810969112822491,0.912526109017481
0.818558921219189,0.920533976957929
0.826151912247504,0.928604198263508
0.833747986202308,0.936737041670546
