-0.650196476966424,0.421531051338234
-0.602660097192474,-0.930367277828019
0.541381643548761,0.686717031698389
-0.0359295142688352,0.241393386325622
-0.613240672086432,-0.203930259047146
-0.813640389819117,0.770190265106469
-0.430879194337243,-0.519707391591655
