0.759454730829279,-0.954062375814783
0.762436116316177,-0.871648528179313
0.759136157529725,-0.794786787547525
0.749981378850549,-0.723300104693356
0.735398304659272,-0.657011430390743
0.715813459336521,-0.595743715413622
0.691653367262919,-0.539319910535931
0.663344552819092,-0.487562966531605
0.631313540385665,-0.440295834174583
0.595986854343262,-0.397341464238799
0.557791019072508,-0.358522807498192
0.517152558954029,-0.323662814726698
0.474497998368449,-0.292584436698254
0.430253861696393,-0.265110624186797
0.384846673318486,-0.241064327966262
0.338702957615353,-0.220268498810588
0.292249238967619,-0.202546087493711
0.245912041755908,-0.187720044789567
0.200117890360846,-0.175613321472093
0.155293309163057,-0.166048868315227
0.111864822543166,-0.158849636092904
0.0702589548817989,-0.153838575579062
0.0309022305595797,-0.150838637547638
-0.00577882604286653,-0.149672772772568
-0.0393576905449148,-0.150163932027788
-0.0694078385659404,-0.152135066087237
-0.0955027457253182,-0.155409125724849
-0.117215887642423,-0.159809061714563
-0.134120739936631,-0.165157824830315
-0.145790778227317,-0.171278365846042
-0.151799478133855,-0.17799363553568
-0.151720315275621,-0.185126584673166
-0.14512676527199,-0.192500164032438
-0.131592303742337,-0.199937324387431
-0.110690406306037,-0.207261016512083
-0.081994548582466,-0.21429419118033
-0.045078206190998,-0.220859799166109
0.000485145248991577,-0.226780791243357
0.0551220301181275,-0.23188011818601
0.119258972797035,-0.235980730768006
0.185457293035992,-0.238671050128099
0.260287436409127,-0.238863492203346
0.328594860412611,-0.234827138241698
0.390512494041094,-0.226878508447199
0.446173266289225,-0.215334123023889
0.495710106151654,-0.200510502175814
0.539255942623031,-0.182724166107013
0.576943704698007,-0.162291635021531
0.60890632137123,-0.139529429123409
0.635276721637352,-0.114754068616691
0.656187834491021,-0.0882820737054183
0.671772588926888,-0.0604299645936338
0.682163913939602,-0.0315142614853801
0.687494738523814,-0.00185148458469969
0.687897991674173,0.0282418459043649
0.68350660238533,0.0584492097777712
0.674453499651934,0.0884540868314767
0.660871612468634,0.117939956861439
0.642893869830082,0.146590299663615
0.620653200730927,0.174088595033963
0.594282534165818,0.20011832276844
0.563914799129406,0.224362962663003
0.52968292461634,0.24650599451361
0.491719839621271,0.266230898116219
0.450158473138848,0.283221153266787
0.405131754163721,0.297160239761271
0.35677261169054,0.307731637395629
0.305213974713955,0.314618825965819
0.250588772228616,0.317505285267798
0.193029933229173,0.316074495097522
0.132670386710276,0.310009935250951
0.0696430616665737,0.298995085524041
0.00408088709271712,0.28271342571275
-0.0638832080166441,0.260848435613035
-0.13411629466686,0.233083595020853
-0.206485443863281,0.199102383732163
-0.280857726611257,0.158588281542922
-0.357100213916138,0.111224768249086
-0.435079976783274,0.0566953236466149
-0.514664086218016,-0.00531657246853565
