-0.5400851944648,0.658616577742443
-0.543951189726221,0.661204042140094
-0.547670216492605,0.663655110263882
-0.551243799456437,0.665970493029217
-0.554673463310201,0.668150901351508
-0.557960732746382,0.670197046146165
-0.561107132457463,0.672109638328597
-0.56411418713593,0.673889388814214
-0.566983421474267,0.675537008518423
-0.569716360164957,0.677053208356636
-0.572314527900486,0.67843869924426
-0.574779449373338,0.679694192096706
-0.577112649275997,0.680820397829383
-0.579315652300948,0.681818027357699
-0.581389983140675,0.682687791597065
-0.583337166487662,0.683430401462889
-0.585158727034394,0.68404656787058
-0.586856189473356,0.684537001735549
-0.588431078497032,0.684902413973204
-0.589884918797905,0.685143515498955
-0.591219235068461,0.68526101722821
-0.592435552001184,0.68525563007638
-0.593535394288558,0.685128064958873
-0.594520286623069,0.684879032791099
-0.595391753697199,0.684509244488467
-0.596151320203434,0.684019410966386
-0.596800510834257,0.683410243140266
-0.597340850282154,0.682682451925515
-0.597773863239609,0.681836748237544
-0.598101074399106,0.680873842991761
-0.59832400845313,0.679794447103576
-0.598444190094164,0.678599271488398
-0.598463144014694,0.677289027061636
-0.598382394907204,0.6758644247387
-0.598203467464178,0.674326175434999
-0.5979278863781,0.672674990065942
-0.597557176341456,0.670911579546938
-0.597092862046728,0.669036654793396
-0.596536468186403,0.667050926720727
-0.595889519452964,0.66495510624434
-0.595153540538895,0.662749904279642
-0.594330056136682,0.660436031742045
-0.593420590938808,0.658014199546957
-0.592426669637757,0.655485118609786
-0.591349816926015,0.652849499845944
-0.590191557496066,0.650108054170839
-0.588953416040393,0.64726149249988
-0.587636917251482,0.644310525748476
-0.586243585821817,0.641255864832038
-0.584774946443882,0.638098220665973
-0.583232523810162,0.634838304165692
-0.581617842613141,0.631476826246603
-0.579932427545303,0.628014497824117
-0.578177803299133,0.624452029813641
-0.576355494567115,0.620790133130587
-0.574467026041734,0.617029518690362
-0.572513922415475,0.613170897408376
-0.57049770838082,0.609214980200038
-0.568419908630256,0.605162477980758
-0.566282047856265,0.601014101665945
-0.564085650751334,0.596770562171009
-0.561832242007945,0.592432570411358
-0.559523346318584,0.588000837302401
-0.557160488375735,0.583476073759549
-0.554745192871882,0.57885899069821
-0.55227898449951,0.574150299033794
-0.549763387951103,0.569350709681709
-0.547199927919145,0.564460933557366
-0.544590129096122,0.559481681576173
-0.541935516174516,0.55441366465354
-0.539237613846814,0.549257593704877
-0.536497946805498,0.544014179645591
-0.533718039743054,0.538684133391093
-0.530899417351966,0.533268165856792
-0.528043604324719,0.527766987958098
-0.525152125353796,0.522181310610419
-0.522226505131682,0.516511844729164
-0.519268268350862,0.510759301229744
-0.51627893970382,0.504924391027566
-0.51326004388304,0.499007825038042
-0.510213105581006,0.493010314176579
-0.507139649490205,0.486932569358588
-0.504041200303118,0.480775301499477
-0.500919282712232,0.474539221514656
-0.49777542141003,0.468225040319534
-0.494611141088996,0.46183346882952
-0.491427966441616,0.455365217960024
-0.488227422160374,0.448820998626454
-0.485011032937753,0.442201521744221
-0.481780323466239,0.435507498228734
-0.478536818438316,0.428739638995401
-0.475282042546467,0.421898654959632
-0.472017520483179,0.414985257036836
-0.468744776940934,0.408000156142423
-0.465465336612218,0.400944063191802
-0.462180724189515,0.393817689100382
-0.458892464365309,0.386621744783572
-0.455602081832085,0.379356941156782
-0.452311101282326,0.372023989135422
-0.449021047408518,0.364623599634899
-0.445733444903145,0.357156483570624
-0.442449818458691,0.349623351858006
-0.439171692767641,0.342024915412454
-0.435900592522478,0.334361885149377
-0.432638042415689,0.326634971984186
-0.429385567139756,0.318844886832288
-0.426144691387164,0.310992340609093
-0.422916939850398,0.303078044230011
-0.419703837221942,0.295102708610451
-0.416506908194281,0.287067044665822
-0.413327677459898,0.278971763311533
-0.410167669711279,0.270817575462995
-0.407028409640907,0.262605192035615
-0.403911421941268,0.254335323944803
-0.400818231304845,0.246008682105969
-0.397750362424123,0.237625977434522
-0.394709339991586,0.22918792084587
-0.391696688699719,0.220695223255425
-0.388713933241006,0.212148595578593
-0.385762598307931,0.203548748730786
-0.382844208592979,0.194896393627412
-0.379960288788635,0.186192241183881
-0.377112363587382,0.177437002315602
-0.374301957681706,0.168631387937983
-0.37153059576409,0.159776108966435
-0.368799802527019,0.150871876316367
-0.366111102662977,0.141919400903187
-0.36346602086445,0.132919393642306
-0.36086608182392,0.123872565449133
-0.358312810233873,0.114779627239076
-0.355807730786792,0.105641289927545
-0.353352368175163,0.0964582644299495
-0.35094824709147,0.0872312616616987
-0.348596892228197,0.0779609925382019
-0.346299828277829,0.0686481679748684
-0.344058579932849,0.0592934988871073
-0.341874671885743,0.049897696190328
-0.339749628828995,0.0404614707999398
-0.337684975455089,0.0309855336313519
-0.335682236456509,0.0214705955999737
-0.333742936525741,0.0119173676212144
-0.331868600355268,0.00232656061048328
-0.330060752637574,-0.00730111451681031
-0.328320918065145,-0.0169649468452572
-0.326650621330465,-0.0266642254594479
-0.325051387126017,-0.0363982394439733
-0.323524740144287,-0.0461662778834241
-0.322072205077759,-0.055967629862391
-0.320695306618917,-0.0658015844654646
-0.319395569460245,-0.0756674307772358
-0.318174518294229,-0.0855644578822954
-0.317033677813352,-0.0954919548652337
-0.315974572710099,-0.105449210810642
-0.314998727676954,-0.11543551480311
-0.314107667406401,-0.12545015592723
-0.313302916590926,-0.135492423267591
-0.312585999923012,-0.145561605908785
-0.311958442095144,-0.155656992935402
-0.311421767799807,-0.165777873432033
-0.310977501729484,-0.175923536483269
-0.31062716857666,-0.186093271173701
-0.310372293033819,-0.196286366587918
-0.310214399793447,-0.206502111810512
-0.310155013548026,-0.216739795926074
-0.310195658990043,-0.226998708019194
-0.31033786081198,-0.237278137174463
-0.310583143706323,-0.247577372476471
-0.310933032365556,-0.257895703009811
-0.311389051482163,-0.268232417859071
-0.311952725748629,-0.278586806108843
-0.312625579857438,-0.288958156843717
-0.313409138501075,-0.299345759148285
-0.314304926372023,-0.309748902107137
-0.315314468162768,-0.320166874804864
-0.316439288565793,-0.330598966326056
-0.317680912273584,-0.341044465755304
-0.319040863978624,-0.351502662177199
-0.320520668373398,-0.361972844676332
-0.32212185015039,-0.372454302337293
-0.323845934002085,-0.382946324244673
-0.325694444620967,-0.393448199483062
-0.327668906699521,-0.403959217137053
-0.329770844930231,-0.414478666291234
-0.332001784005581,-0.425005836030197
-0.334363248618056,-0.435540015438533
-0.33685676346014,-0.446080493600832
-0.339483853224317,-0.456626559601685
-0.342246042603073,-0.467177502525683
-0.345144856288891,-0.477732611457416
-0.348181818974255,-0.488291175481475
-0.351358455351651,-0.498852483682452
-0.354676290113563,-0.509415825144936
-0.358136847952474,-0.519980488953518
-0.36174165356087,-0.530545764192789
-0.365492231631235,-0.54111093994734
-0.369390106856053,-0.551675305301762
-0.373436803927808,-0.562238149340645
-0.377633847538985,-0.572798761148579
-0.381982762382069,-0.583356429810156
-0.386485073149544,-0.593910444409967
-0.388794228471329,-0.599185859275644
-0.393392136411399,-0.609558534146703
-0.397871956177064,-0.619579084429443
-0.402234335252992,-0.629250336360543
-0.406479921123855,-0.638575116176678
-0.410609361274321,-0.647556250114526
-0.414623303189062,-0.656196564410764
-0.418522394352746,-0.664498885302069
-0.422307282250044,-0.672466039025118
-0.425978614365626,-0.680100851816589
-0.429537038184161,-0.687406149913158
-0.43298320119032,-0.694384759551502
-0.436317750868772,-0.701039506968299
-0.439541334704188,-0.707373218400224
-0.442654600181237,-0.713388720083957
-0.445658194784589,-0.719088838256173
-0.448552765998914,-0.724476399153549
-0.451338961308883,-0.729554229012763
-0.454017428199164,-0.734325154070492
-0.456588814154428,-0.738792000563413
-0.459053766659346,-0.742957594728202
-0.461412933198586,-0.746824762801537
-0.463666961256818,-0.750396331020096
-0.465816498318713,-0.753675125620554
-0.467862191868941,-0.756663972839589
-0.469804689392172,-0.759365698913878
-0.471644638373074,-0.761783130080099
-0.473382686296319,-0.763919092574928
-0.475019480646577,-0.765776412635042
-0.476555668908516,-0.767357916497118
-0.477991898566808,-0.768666430397834
-0.479328817106121,-0.769704780573866
-0.480567072011127,-0.770475793261891
-0.481707310766495,-0.770982294698587
-0.482750180856894,-0.771227111120631
-0.483696329766995,-0.7712130687647
-0.484546404981467,-0.77094299386747
-0.485301053984982,-0.770419712665619
-0.485960924262207,-0.769646051395824
-0.486526663297815,-0.768624836294761
-0.486998918576473,-0.767358893599109
-0.487378337582853,-0.765851049545543
-0.487665567801624,-0.764104130370742
-0.487861256717456,-0.762120962311382
-0.487966051815019,-0.75990437160414
-0.487980600578984,-0.757457184485693
-0.487905550494019,-0.754782227192718
-0.487741549044795,-0.751882325961893
-0.487489243715981,-0.748760307029894
-0.487149281992249,-0.745418996633399
-0.486722311358267,-0.741861221009084
-0.486208979298705,-0.738089806393627
-0.485609933298234,-0.734107579023704
-0.484925820841523,-0.729917365135993
-0.484157289413243,-0.725521990967171
-0.483304986498063,-0.720924282753914
-0.482369559580653,-0.716127066732901
-0.481351656145683,-0.711133169140807
-0.480251923677823,-0.70594541621431
-0.479071009661744,-0.700566634190087
-0.477809561582114,-0.694999649304816
-0.476468226923603,-0.689247287795172
-0.475047653170883,-0.683312375897834
-0.473548487808622,-0.677197739849478
-0.471971378321491,-0.670906205886781
-0.470316972194159,-0.66444060024642
-0.468585916911296,-0.657803749165073
-0.466778859957573,-0.650998478879417
-0.464896448817659,-0.644027615626128
-0.462939330976225,-0.636893985641883
-0.460908153917939,-0.62960041516336
-0.458803565127473,-0.622149730427236
-0.456626212089495,-0.614544757670188
-0.454376742288677,-0.606788323128892
-0.452055803209687,-0.598883253040026
-0.449664042337195,-0.590832373640268
-0.447202107155873,-0.582638511166293
-0.444670645150389,-0.574304491854779
-0.442070303805414,-0.565833141942403
-0.439401730605617,-0.557227287665843
-0.436665573035669,-0.548489755261774
-0.433862478580238,-0.539623370966875
-0.430993094723996,-0.530630961017822
-0.428058068951612,-0.521515351651293
-0.425058048747757,-0.512279369103964
-0.421993681597099,-0.502925839612512
-0.418865614984309,-0.493457589413615
-0.415674496394057,-0.48387744474395
-0.412420973311013,-0.474188231840193
-0.409105693219846,-0.464392776939022
-0.405729303605227,-0.454493906277114
-0.402292451951826,-0.444494446091146
-0.398795785744312,-0.434397222617794
-0.395239952467355,-0.424205062093736
-0.391625599605626,-0.41392079075565
-0.387953374643794,-0.403547234840211
-0.384223925066529,-0.393087220584098
-0.380437898358501,-0.382543574223986
-0.37659594200438,-0.371919121996554
-0.372698703488837,-0.361216690138478
-0.36874683029654,-0.350439104886436
-0.364740969912159,-0.339589192477104
-0.360681769820366,-0.328669779147159
-0.356569877505829,-0.317683691133279
-0.352405940453219,-0.30663375467214
-0.348190606147205,-0.29552279600042
-0.343924522072458,-0.284353641354796
-0.339608335713647,-0.273129116971944
-0.335242694555443,-0.261852049088543
-0.330828246082514,-0.250525263941268
-0.326365637779532,-0.239151587766796
-0.321855517131166,-0.227733846801806
-0.317298531622085,-0.216274867282974
-0.312695328736961,-0.204777475446977
-0.308046555960462,-0.193244497530492
-0.408044501031111,-0.29161644497336
-0.178737187350098,-0.27477020869152
-0.195158897507116,-0.269494941773674
-0.179925805646123,-0.0294769097573729
-0.284141805670804,-0.135144735024446
-0.377703644734333,-0.234930738930998
-0.392880761824453,-0.0165912359928507
-0.269293555819394,-0.100038723702296
-0.35844215722504,-0.203959328719853
-0.365718495324011,0.0216859439725302
-0.25408762320388,-0.0648413628265956
-0.366638975041726,-0.145177855011061
-0.359499024407037,-0.148239526210535
-0.129561739052964,0.0780779411930731
-0.351803029359975,-0.128939400729399
-0.227997033800255,-0.0061833530488592
-0.328726727701119,-0.109501654830486
-0.313748765852208,-0.0791792309186196
-0.117600158641076,0.12872621471115
-0.0996319278215166,0.144569584915527
-0.201042378096994,0.0521631581533254
-0.0899602218537593,0.172894291337253
-0.0706299875846763,-0.0351803307857007
-0.184488502054048,0.0868745812511642
-0.277989654568278,0.210030947632044
-0.078633635598913,0.216911569146732
-0.0625448965072823,0.223797207396885
-0.0538034665790592,0.246559981593686
-0.271946145026015,0.252592051588275
-0.15060489713934,0.155274233472721
-0.144864610126525,0.16650856649251
-0.139099472731773,0.177688046019122
-0.133310132439755,0.188809845815878
-0.12749723673514,0.199871139646102
-0.121661433102598,0.210869101273118
-0.115803369026799,0.221800904460247
-0.109923691992413,0.232663722970812
-0.10402304948411,0.243454730568138
-0.0981020889865604,0.254171101015546
-0.0921614579844334,0.26481000807636
-0.0862018039623991,0.275368625513903
-0.0802237744051275,0.285844127091497
-0.0742280167972884,0.296233686572465
-0.0682151786235519,0.306534477720131
-0.0621859073685879,0.316743674297817
-0.0561408505170663,0.326858450068847
-0.0500806555536569,0.336875978796542
-0.0440059699630298,0.346793434244227
-0.0379174412298549,0.356607990175224
-0.031815716838802,0.366316820352856
-0.0257014442745412,0.375917098540446
-0.0195752710217422,0.385405998501317
-0.0134378445650752,0.394780693998792
-0.00728981238920991,0.404038358796194
-0.00113182197881632,0.413176166656845
0.00503547918143561,0.422191291344069
0.011211443606876,0.431080906621189
0.0173954238128349,0.439842186251528
0.0235867723146424,0.448472303998408
0.0297848416276286,0.456968433625152
0.0359889842671235,0.465327748895084
0.0421985527484571,0.473547423571526
0.0484128995869598,0.481624631417802
0.0546313772979613,0.489556546197234
0.0608533383967919,0.497340341673145
0.0670781353987817,0.504973191608859
0.0733051208192606,0.512452269767697
0.0795336471735587,0.519774749912983
0.0857630669770063,0.526937805808041
0.0919927327449332,0.533938611216192
0.0982219969926696,0.540774339900761
0.104450212235546,0.547442165625069
0.110676730988891,0.553939262152439
0.116900905768037,0.560262803246196
0.123122089088312,0.566409962669661
0.129339633465047,0.572377914186158
0.135552891413572,0.578163831559009
0.141761215449216,0.583764888551538
0.147963958087311,0.589178258927067
0.154160471843187,0.594401116448919
0.160350109232172,0.599430634880418
0.166532222769598,0.604263987984887
0.172706164970794,0.608898349525647
0.17887128835109,0.613330893266022
0.185026945425818,0.617558792969336
