-0.611338499388232,0.31553243608825
-0.512868336128765,0.27787519618882
-0.420607026823382,0.242716299652806
-0.334409744159141,0.209974007457971
-0.254131660823104,0.179566580582075
-0.179627949502329,0.151412280002878
-0.110753782883875,0.125429366698141
-0.0473643336548008,0.101536101645626
0.0106852254978329,0.0796507458230922
0.0635397218869676,0.059691560208301
0.111343982825544,0.041576805779013
0.154242835626503,0.025224743512989
0.192381107602784,0.0105536343879899
0.225903626067329,-0.00251826061822383
0.254955218333079,-0.0140726805278912
0.279680711712974,-0.0241913643632516
0.300224933519955,-0.0329560511465443
0.316732711066962,-0.0404484799000084
0.329348871666936,-0.0467503896458833
0.338218242632819,-0.0519435194064082
0.34348565127755,-0.0561096082038223
0.34529592491407,-0.0593303950603649
0.343793890855321,-0.0616876189982753
0.339124376414242,-0.0632630190397927
0.33268922880951,-0.0926432749665171
0.32086221563686,-0.0643953035226056
0.294524992962449,-0.0555169027404832
0.268460197733072,-0.0529609302970538
0.283709374726193,-0.0500892869717772
0.222441203245259,-0.0571690180073022
0.220952717051608,-0.0104722073514507
0.208912934194951,-0.0809866851796885
0.183525803442404,-0.0227826940545527
0.150079819822304,-0.0539992900459875
0.0987733120791129,-0.0442891748916364
0.0664025397957428,-0.0576132040761047
0.0658315206916246,-0.0467358095930227
0.0222690293413689,-0.0490009629537531
-0.0227635091552234,-0.0208317970161524
-0.0350321206496421,-0.0522523902290968
-0.0681777262067048,-0.0418974901260935
-0.108816587692183,-0.0464928474921208
-0.145390939474011,-0.0444764819337221
-0.171531962181877,-0.0368800436692491
-0.231967789402641,-0.0363293802270129
-0.212959035421704,-0.0125073301519785
-0.22879434471043,0.00388199726625845
-0.241743674949541,0.0228153399011895
-0.230753719105748,0.027450992377956
-0.260082915792448,0.067540175152013
-0.262755977526335,0.0740538483852324
-0.295553820383925,0.11179929750645
-0.249178812976668,0.208064727594628
-0.282403003068721,0.195819700047594
-0.274650441018233,0.210329355361599
-0.274398596482197,0.242649758707994
-0.273732437301988,0.275772912015559
-0.272926592855991,0.309505341367017
-0.272255692522587,0.343653572845085
-0.271994365680159,0.378024132532484
-0.27241724170709,0.412423546511934
-0.273798949981762,0.446658340866154
-0.276414119882557,0.480535041677864
-0.280537380787859,0.513860175029784
-0.28644336207605,0.546440267004634
-0.294406693125512,0.578081843685132
-0.304702003314629,0.608591431154
-0.317603922021782,0.637775555493956
-0.333387078625354,0.665440742787721
-0.352326102503728,0.691393519118014
-0.374695623035287,0.715440410567555
-0.400770269598412,0.737387943219063
-0.430824671571487,0.757042643155258
-0.465133458332894,0.774211036458861
-0.503971259261016,0.788699649212591
-0.547612703734236,0.800315007499167
-0.596332421130935,0.808863637401309
-0.650405040829497,0.814152065001737
-0.710105192208303,0.815986816383171
-0.775707504645738,0.81417441762833
