-0.976926310473055,0.665013628223603
-0.96315235656237,0.66542021353826
-0.949500073817293,0.665769436383476
-0.935968947761347,0.666061566457324
-0.922558463918055,0.666296873457876
-0.909268107810939,0.666475627083203
-0.896097364963522,0.666598097031377
-0.883045720899325,0.666664553000471
-0.870112661141873,0.666675264688556
-0.857297671214686,0.666630501793705
-0.844600236641287,0.666530534013989
-0.832019842945199,0.66637563104748
-0.819555975649945,0.66616606259225
-0.807208120279047,0.665902098346372
-0.794975762356026,0.665584008007916
-0.782858387404406,0.665212061274955
-0.770855480947709,0.664786527845562
-0.758966528509458,0.664307677417808
-0.747191015613174,0.663775779689764
-0.735528427782381,0.663191104359503
-0.723978250540601,0.662553921125097
-0.712539969411355,0.661864499684618
-0.701213069918168,0.661123109736138
-0.689997037584561,0.660330020977728
-0.678891357934056,0.659485503107461
-0.667895516490176,0.658589825823409
-0.657008998776444,0.657643258823643
-0.646231290316382,0.656646071806236
-0.635561876633512,0.655598534469259
-0.625000243251357,0.654500916510784
-0.614545875693439,0.653353487628884
-0.60419825948328,0.65215651752163
-0.593956880144404,0.650910275887095
-0.583821223200333,0.64961503242335
-0.573790774174588,0.648271056828467
-0.563865018590693,0.646878618800517
-0.55404344197217,0.645437988037575
-0.544325529842541,0.64394943423771
-0.534710767725329,0.642413227098995
-0.525198641144056,0.640829636319502
-0.515788635622245,0.639198931597303
-0.506480236683419,0.637521382630471
-0.497272929851098,0.635797259117075
-0.488166200648807,0.63402683075519
-0.479159534600067,0.632210367242886
-0.470252417228401,0.630348138278236
-0.461444334057331,0.628440413559312
-0.45273477061038,0.626487462784185
-0.444123212411071,0.624489555650928
-0.435609144982925,0.622446961857612
-0.427192053849465,0.62035995110231
-0.418871424534213,0.618228793083093
-0.410646742560693,0.616053757498034
-0.402517493452426,0.613835114045204
-0.394483162732935,0.611573132422675
-0.386543235925742,0.609268082328519
-0.378697198554371,0.606920233460809
-0.370944536142342,0.604529855517616
-0.363284734213179,0.602097218197012
-0.355717278290404,0.599622591197069
-0.34824165389754,0.597106244215859
-0.340857346558109,0.594548446951454
-0.333563841795633,0.591949469101926
-0.326360625133635,0.589309580365346
-0.319247182095637,0.586629050439788
-0.312222998205163,0.583908149023322
-0.305287558985733,0.581147145814021
-0.298440349960871,0.578346310509957
-0.291680856654099,0.575505912809202
-0.28500856458894,0.572626222409827
-0.278422959288915,0.569707509009904
-0.271923526277548,0.566750042307506
-0.265509751078361,0.563754092000705
-0.259181119214877,0.560719927787572
-0.252937116210617,0.557647819366179
-0.246777227589104,0.554538036434599
-0.240700938873861,0.551390848690903
-0.23470773558841,0.548206525833164
-0.228797103256273,0.544985337559452
-0.222968527400974,0.54172755356784
-0.217221493546034,0.538433443556401
-0.211555487214976,0.535103277223206
-0.205969993931322,0.531737324266327
-0.200464499218595,0.528335854383835
-0.195038488600317,0.524899137273804
-0.189691447600011,0.521427442634305
-0.184422861741199,0.517921040163409
-0.179232216547403,0.514380199559189
-0.174118997542147,0.510805190519717
-0.169082690248951,0.507196282743065
-0.16412278019134,0.503553745927304
-0.159238752892835,0.499877849770507
-0.154430093876959,0.496168863970746
-0.149696288667234,0.492427058226092
-0.145036822787182,0.488652702234617
-0.140451181760327,0.484846065694394
-0.13593885111019,0.481007418303494
-0.131499316360294,0.47713702975999
-0.127132063034162,0.473235169761953
-0.122836576655315,0.469302108007455
-0.118612342747277,0.465338114194568
-0.11445884683357,0.461343458021365
-0.110375574437715,0.457318409185917
-0.106362011083237,0.453263237386295
-0.102417642293656,0.449178212320573
-0.098541953592496,0.445063603686822
-0.0947344305032788,0.440919681183113
-0.0909945585495271,0.43674671450752
-0.0873218232547633,0.432544973358113
-0.0837157101425098,0.428314727432965
-0.0801757047362889,0.424056246430148
-0.0767012925596233,0.419769800047734
-0.0732919591360353,0.415455657983794
-0.0699471899890474,0.411114089936401
-0.066666470642182,0.406745365603626
-0.0634492866189615,0.402349754683542
-0.0602951234429084,0.397927526874221
-0.0572034666375452,0.393478951873733
-0.0541738017263944,0.389004299380153
-0.0512056142329781,0.38450383909155
-0.0482983896808191,0.379977840705998
-0.0454516135934398,0.375426573921568
-0.0426647714943624,0.370850308436332
-0.0399373489071096,0.366249313948363
-0.0372688313552038,0.361623860155732
-0.0346587043621674,0.35697421675651
-0.0321064534515227,0.352300653448771
-0.0296115641467924,0.347603439930586
-0.0271735219714988,0.342882845900026
-0.0247918124491643,0.338139141055165
-0.0224659211033115,0.333372595094073
-0.0201953334574627,0.328583477714823
-0.0179795350351405,0.323772058615487
-0.0158180113598672,0.318938607494137
-0.0137102479551652,0.314083394048844
-0.0116557303445572,0.309206687977681
-0.0096539440515654,0.304308758978719
-0.00770437459971228,0.299389876750031
-0.00580650751252031,0.294450310989689
-0.00395982831351208,0.289490331395763
-0.00216382252620976,0.284510207666328
-0.000417975674136033,0.279510209499453
0.00127822671918678,0.274490606593212
0.00292529913023629,0.269451668645676
0.0045237560354899,0.264393665354918
0.00607411191142524,0.259316866419008
0.00757688123451987,0.25422154153602
0.00903257848125137,0.249107960404025
0.0104417181280972,0.243976392721095
0.011804814651535,0.238827108185301
0.0131223825280424,0.233660376494717
0.0143949362340968,0.228476467347414
0.0156229902461759,0.223275650441463
0.016807059040757,0.218058195474937
0.017947657094318,0.212824372145908
0.0190452988833363,0.207574450152448
0.0201004988842893,0.202308699192628
0.0211137715736547,0.197027388964521
0.0220856314279102,0.191730789166199
0.0230165929235332,0.186419169495733
0.0239071705370012,0.181092799651195
0.0247578787447919,0.175751949330658
0.0255692320233828,0.170396888232194
0.0263417448492513,0.165027886053873
0.0270759316988753,0.15964521249377
0.027772307048732,0.154249137249954
0.0284313853752992,0.148839930020498
0.0290536811550543,0.143417860503475
0.029639708864475,0.137983198396956
0.0301899829800387,0.132536213399013
0.030705017978223,0.127077175207718
0.0311853283355056,0.121606353521142
0.0316314285283639,0.116124018037359
0.0320438330332756,0.11063043845444
0.032423056326718,0.105125884470457
0.0327696128851689,0.0996106257834809
0.0330840171851058,0.0940849320915851
0.0333667837030062,0.088549073092841
0.0336184269153477,0.0830033184853205
0.0338394612986078,0.0774479379670956
0.0340304013292641,0.0718832012362384
0.0341917614837942,0.0663093779908207
0.0343240562386756,0.0607267379289143
0.0344278000703859,0.0551355507485914
0.0345035074554026,0.0495360861479241
0.0345516928702033,0.0439286138249841
0.0345728707912655,0.0383134034778433
0.0345675556950668,0.0326907248045738
0.0345362620580847,0.0270608475032475
0.0344795043567968,0.0214240412719365
0.0343977970676808,0.0157805758087124
0.034291654667214,0.0101307208116475
0.0341615916318741,0.00447474597881367
0.0340081224381387,-0.00118707899171713
0.0338317615624852,-0.00685448440187314
0.0336330234813912,-0.0125272005535823
0.0334124226713344,-0.0182049577487724
0.0331704736087922,-0.0238874862893717
0.0329076907702423,-0.0295745164773084
0.0326245886321621,-0.0352657786145104
0.0323216816710292,-0.0409610030029055
0.0319994843633212,-0.0466599199444222
0.0316585111855157,-0.0523622597409882
0.0312992766140901,-0.0580677526945317
0.0309222951255221,-0.0637761291069805
0.0305280811962892,-0.0694871192802632
0.030117149302869,-0.0752004535163073
0.0296900139217389,-0.0809158621170412
0.0292471895293767,-0.0866330753843925
0.0287891906022598,-0.0923518236202898
0.0283165316168658,-0.0980718371266607
0.0278297270496722,-0.103792846205434
0.0273292913771566,-0.109514581158536
0.0268157390757965,-0.115236772287897
0.0262895846220697,-0.120959149895443
0.0257513424924534,-0.126681444283104
0.0252015271634254,-0.132403385752807
0.0246406531114632,-0.138124704606479
0.0240692348130443,-0.14384513114605
0.0234877867446462,-0.149564395673447
0.0228968233827467,-0.155282228490599
0.0222968592038232,-0.160998359899432
0.0216884086843532,-0.166712520201876
0.0210719863008143,-0.172424439699858
0.0204481065296841,-0.178133848695307
0.0198172838474401,-0.18384047749015
0.01918003273056,-0.189544056386316
0.0185368676555211,-0.195244315685732
0.0178883030988012,-0.200940985690327
0.0172348535368778,-0.206633796702028
0.0165770334462283,-0.212322479022764
0.0159153573033304,-0.218006762954463
0.0152503395846617,-0.223686378799053
0.0145824947666996,-0.229361056858461
0.0139123373259218,-0.235030527434616
0.0132403817388057,-0.240694520829447
0.012567142481829,-0.24635276734488
0.0118931340314692,-0.252004997282844
0.011218870864204,-0.257650940945267
0.0105448674565106,-0.263290328634078
0.00987163828486689,-0.268922890651203
0.0091996978257503,-0.274548357298572
0.00852956055563837,-0.280166458878112
0.00786174095100871,-0.285776925691751
0.0071967534883389,-0.291379488041417
0.00653511264410633,-0.296973876229039
0.00587733289478878,-0.302559820556544
0.00522392871686368,-0.308137051325861
0.00457541458680855,-0.313705298838917
0.00393230498110105,-0.319264293397641
0.00329511437621872,-0.32481376530396
0.00266435724863899,-0.330353444859803
0.00204054807483959,-0.335883062367098
0.00142420133129795,-0.341402348127773
0.000815831494491714,-0.346911032443755
0.000215953040898373,-0.352408845616973
-0.000374919553004456,-0.357895517949355
-0.000956271810739314,-0.363370779742828
-0.00152758925582851,-0.368834361299322
-0.00208835741179461,-0.374285992920764
-0.00263806180216001,-0.379725404909081
-0.00317618795044712,-0.385152327566203
-0.00370222138017842,-0.390566491194057
-0.00421564761487639,-0.395967626094572
-0.00471595217806337,-0.401355462569674
-0.00520262059326193,-0.406729730921293
-0.00567513838399442,-0.412090161451356
-0.00613299107378331,-0.417436484461791
-0.00657566418615106,-0.422768430254527
-0.00700264324462012,-0.428085729131491
-0.00741341377271284,-0.433388111394611
-0.00780746129395183,-0.438675307345817
-0.0081842713318594,-0.443947047287035
-0.00854332940995803,-0.449203061520193
-0.00888412105177018,-0.45444308034722
-0.0092061317808183,-0.459666834070044
-0.00950884712062478,-0.464874052990593
-0.00979175259471213,-0.470064467410794
-0.0100543337266028,-0.475237807632577
-0.0102960760398191,-0.480393803957868
-0.0105164650578836,-0.485532186688596
-0.0107149863043188,-0.490652686126689
-0.010891125302647,-0.495755032574075
-0.0110443675763907,-0.500838956332683
-0.0111741986490724,-0.505904187704439
-0.0112801040442144,-0.510950456991273
-0.0113615692853393,-0.515977494495112
-0.0114180798959695,-0.520985030517884
-0.0114491213996274,-0.525972795361517
-0.0114541793198354,-0.53094051932794
-0.0114327391801161,-0.53588793271908
-0.0113842865039918,-0.540814765836866
-0.011308306814985,-0.545720748983225
-0.0112042856366182,-0.550605612460086
-0.0110717084924137,-0.555469086569376
-0.0109100609058941,-0.560310901613024
-0.0107188284005817,-0.565130787892957
-0.0104974964999991,-0.569928475711104
-0.0102455507276686,-0.574703695369393
-0.00996247660711268,-0.579456177169752
-0.00964775966185388,-0.584185651414109
-0.00930088541541452,-0.588891848404392
-0.00892133939131709,-0.593574498442528
-0.00850860711308406,-0.598233331830447
-0.00806217410423786,-0.602868078870075
-0.0075815258883009,-0.607478469863342
-0.00706614798879567,-0.612064235112175
-0.00651552592924457,-0.616625104918502
-0.00592914523317011,-0.621160809584251
-0.00530649142409466,-0.62567107941135
-0.00464705002554069,-0.630155644701728
-0.00395030656103066,-0.634614235757312
-0.003215746554087,-0.639046582880031
-0.00244285552823215,-0.643452416371812
-0.00163111900698858,-0.647831466534583
-0.00078002251387866,-0.652183463670273
0.000110948427575051,-0.65650813808081
0.00104230829385021,-0.660805220068121
0.00201457156142432,-0.665074439934135
0.00302825270677497,-0.66931552798078
0.00408386620637967,-0.673528214509983
0.00518192653671604,-0.677712229823673
0.00632294817426156,-0.681867304223778
0.0075074455954939,-0.685993168012226
0.00873593327689046,-0.690089551490945
0.0100089256949289,-0.694156184961863
0.0113269373260868,-0.698192798726907
0.0126904826468416,-0.702199123088007
0.014100076133671,-0.706174888347091
0.0155562322630525,-0.710119824806085
0.0170594655114635,-0.714033662766918
0.0186102903553819,-0.717916132531519
0.0202092212712849,-0.721766964401815
0.0218567727356503,-0.725585888679735
0.0235534592249555,-0.729372635667205
0.0252997952156782,-0.733126935666155
0.0270962951842958,-0.736848518978513
0.0289434736072859,-0.740537115906206
0.0308418449611262,-0.744192456751163
0.0327919237222941,-0.747814271815312
0.0347942243672672,-0.75140229140058
0.0368492613725231,-0.754956245808896
0.0389575492145393,-0.758475865342187
0.0411196023697934,-0.761960880302383
0.0433359353147628,-0.76541102099141
0.0456070625259253,-0.768826017711197
0.0479334984797583,-0.772205600763672
0.0503157576527395,-0.775549500450763
0.0527543545213462,-0.778857447074398
0.0552498035620562,-0.782129170936505
0.0578026192513469,-0.785364402339013
0.060413316065696,-0.788562871583848
0.0630824084815809,-0.79172430897294
0.0658104109754793,-0.794848444808216
0.0685978380238687,-0.797935009391604
0.0714452041032267,-0.800983733025033
0.0743530236900306,-0.803994346010429
0.0773218112607584,-0.806966578649723
0.0803520812918873,-0.809900161244841
0.083444348259895,-0.812794824097711
0.086599126641259,-0.815650297510262
0.0898169309124569,-0.818466311784422
0.0930982755499662,-0.821242597222118
0.0964436750302646,-0.823978884125279
0.0998536438298294,-0.826674902795833
0.103328696425139,-0.829330383535707
0.106869347292669,-0.831945056646831
0.110476110908899,-0.834518652431131
0.114149501750306,-0.837050901190536
0.117890034293367,-0.839541533226975
0.12169822301456,-0.841990278842374
0.125574582390362,-0.844396868338662
0.129519626897251,-0.846761032017767
0.133533871011705,-0.849082500181618
0.137617829210201,-0.851361003132142
0.141772015969217,-0.853596271171267
0.14599694576523,-0.855788034600921
0.150293133074718,-0.857936023723033
0.154661092374158,-0.86003996883953
0.159101338140028,-0.86209960025234
0.163614384848805,-0.864114648263392
0.168200746976968,-0.866084843174614
0.172860939000993,-0.868009915287933
0.177595475397358,-0.869889594905277
0.182404870642541,-0.871723612328576
0.187289639213019,-0.873511697859756
0.19225029558527,-0.875253581800746
0.197287354235771,-0.876948994453473
0.202401329641,-0.878597666119867
0.207592736277435,-0.880199327101854
0.212862088621552,-0.881753707701364
0.21820990114983,-0.883260538220323
0.223636688338746,-0.88471954896066
0.229142964664779,-0.886130470224303
0.234729244604404,-0.887493032313181
0.2403960426341,-0.88880696552922
0.246143873230344,-0.89007200017435
0.251973250869614,-0.891287866550498
0.257884690028388,-0.892454294959593
0.263878705183143,-0.893571015703561
0.263878705183143,-0.893571015703561
0.26988813528262,-0.894636784079273
0.275845596696391,-0.895650691306434
0.281751270032183,-0.896612971571227
0.28760533589772,-0.897523859059838
0.293407974900727,-0.898383587958451
0.299159367648931,-0.899192392453248
0.304859694750056,-0.899950506730415
0.310509136811828,-0.900658164976135
0.316107874441971,-0.901315601376594
0.321656088248212,-0.901923050117974
0.327153958838276,-0.902480745386459
0.332601666819888,-0.902988921368235
0.337999392800773,-0.903447812249485
0.343347317388657,-0.903857652216393
0.348645621191265,-0.904218675455143
0.353894484816322,-0.90453111615192
0.359094088871554,-0.904795208492908
0.364244613964686,-0.905011186664289
0.369346240703443,-0.90517928485225
0.374399149695551,-0.905299737242973
0.379403521548735,-0.905372778022643
0.38435953687072,-0.905398641377444
0.389267376269232,-0.90537756149356
0.394127220351996,-0.905309772557176
0.398939249726737,-0.905195508754475
0.403703645001181,-0.90503500427164
0.408420586783052,-0.904828493294858
0.413090255680077,-0.904576210010311
0.417712832299981,-0.904278388604184
0.422288497250489,-0.903935263262661
0.426817431139326,-0.903547068171925
0.431299814574218,-0.903114037518161
0.435735828162889,-0.902636405487554
0.440125652513066,-0.902114406266287
0.444469468232473,-0.901548274040544
0.448767455928837,-0.900938242996509
0.453019796209882,-0.900284547320368
0.457226669683333,-0.899587421198302
0.461388256956916,-0.898847098816497
0.465504738638357,-0.898063814361137
0.46957629533538,-0.897237802018406
0.473603107655711,-0.896369295974488
0.477585356207075,-0.895458530415567
0.481523221597198,-0.894505739527827
0.485416884433805,-0.893511157497453
0.489266525324621,-0.892475018510628
0.493072324877372,-0.891397556753536
0.496834463699782,-0.890279006412363
0.500553122399578,-0.889119601673291
0.504228481584485,-0.887919576722504
0.507860721862227,-0.886679165746188
0.511450023840531,-0.885398602930525
0.514996568127121,-0.884078122461701
0.518500535329723,-0.882717958525899
0.521962106056062,-0.881318345309303
0.525381460913864,-0.879879516998097
0.528758780510854,-0.878401707778467
0.532094245454756,-0.876885151836594
0.535388036353298,-0.875330083358665
0.538640333814203,-0.873736736530862
0.541851318445198,-0.872105345539371
0.545021170854007,-0.870436144570374
0.548150071648356,-0.868729367810056
0.55123820143597,-0.866985249444602
0.554285740824575,-0.865204023660195
0.557292870421895,-0.863385924643019
0.560259770835657,-0.861531186579259
0.563186622673585,-0.859640043655098
0.566073606543405,-0.857712730056722
0.568920903052843,-0.855749479970313
0.571728692809622,-0.853750527582055
0.57449715642147,-0.851716107078134
0.577226474496111,-0.849646452644734
0.57991682764127,-0.847541798468037
0.582568396464673,-0.845402378734228
0.585181361574046,-0.843228427629493
0.587755903577112,-0.841020179340014
0.590292203081599,-0.838777868051975
0.592790440695231,-0.836501727951561
0.595250797025733,-0.834191993224956
0.597673452680831,-0.831848898058344
0.60005858826825,-0.829472676637909
0.602406384395716,-0.827063563149835
0.604717021670953,-0.824621791780306
0.606990680701688,-0.822147596715507
0.609227542095645,-0.819641212141621
0.61142778646055,-0.817102872244832
0.613591594404128,-0.814532811211326
0.615719146534105,-0.811931263227285
0.617810623458205,-0.809298462478894
0.619866205784154,-0.806634643152336
0.621886074119678,-0.803940039433797
0.623870409072502,-0.801214885509461
0.62581939125035,-0.79845941556551
0.62773320126095,-0.795673863788129
0.629612019712025,-0.792858464363503
0.631456027211301,-0.790013451477816
0.633265404366503,-0.787139059317251
0.635040331785357,-0.784235522067993
0.636780990075589,-0.781303073916227
0.638487559844922,-0.778341949048135
0.640160221701084,-0.775352381649901
0.641799156251798,-0.772334605907711
0.643404544104792,-0.769288856007749
0.644976565867788,-0.766215366136198
0.646515402148514,-0.763114370479242
0.648021233554694,-0.759986103223066
0.649494240694054,-0.756830798553853
0.650934604174319,-0.753648690657789
0.652342504603215,-0.750440013721056
0.653718122588466,-0.747205001929839
0.655061638737798,-0.743943889470322
0.656373233658936,-0.740656910528689
0.657653087959607,-0.737344299291125
0.658901382247534,-0.734006289943813
0.660118297130444,-0.730643116672937
0.661304013216061,-0.727255013664683
0.662458711112112,-0.723842215105232
0.66358257142632,-0.72040495518077
0.664675774766413,-0.716943468077482
0.665738501740114,-0.71345798798155
0.66677093295515,-0.70994874907916
0.667773249019246,-0.706415985556494
0.668745630540126,-0.702859931599738
0.669688258125518,-0.699280821395076
0.670601312383144,-0.69567888912869
0.671484973920732,-0.692054368986767
0.672339423346006,-0.688407495155489
0.673164841266691,-0.684738501821041
0.673961408290514,-0.681047623169607
0.674729305025199,-0.67733509338737
0.675468712078472,-0.673601146660516
0.676179810058057,-0.669846017175228
0.676862779571681,-0.666069939117691
0.677517801227069,-0.662273146674087
0.678145055631945,-0.658455874030603
0.678744723394036,-0.654618355373421
0.679316985121067,-0.650760824888725
0.679862021420762,-0.6468835167627
0.680380012900848,-0.64298666518153
0.68087114016905,-0.6390705043314
0.681335583833092,-0.635135268398492
0.681773524500701,-0.631181191568991
0.682185142779601,-0.627208508029082
0.682570619277518,-0.623217451964949
0.682930134602178,-0.619208257562774
0.683263869361305,-0.615181159008744
0.683572004162625,-0.611136390489041
0.683854719613864,-0.60707418618985
0.684112196322746,-0.602994780297355
0.684344614896997,-0.598898406997739
0.684552155944342,-0.594785300477188
0.684735000072507,-0.590655694921886
0.684893327889217,-0.586509824518015
0.685027320002197,-0.582347923451761
0.685137157019172,-0.578170225909307
0.685223019547869,-0.573976966076838
0.685285088196012,-0.569768378140538
0.685323543571326,-0.56554469628659
0.685338566281537,-0.56130615470118
0.685330336934371,-0.557052987570491
0.685299036137552,-0.552785429080706
0.685244844498806,-0.548503713418011
0.685167942625858,-0.544208074768589
0.685068511126434,-0.539898747318625
0.684946730608259,-0.535575965254302
0.684802781679057,-0.531239962761804
0.684636844946556,-0.526890974027317
0.684449101018479,-0.522529233237023
0.684239730502553,-0.518154974577107
0.684008914006502,-0.513768432233754
0.683756832138052,-0.509369840393146
0.683483665504928,-0.504959433241469
0.683189594714856,-0.500537444964906
0.68287480037556,-0.496104109749641
0.682539463094767,-0.491659661781859
0.682183763480201,-0.487204335247744
0.681807882139589,-0.482738364333479
0.681411999680654,-0.478261983225249
0.680996296711123,-0.473775426109238
0.680560953838721,-0.469278927171631
0.680106151671172,-0.46477272059861
0.679632070816204,-0.46025704057636
0.67913889188154,-0.455732121291066
0.678626795474907,-0.451198196928912
0.678095962204028,-0.446655501676081
0.677546572676631,-0.442104269718757
0.67697880750044,-0.437544735243125
0.67639284728318,-0.43297713243537
0.675788872632577,-0.428401695481674
0.675167064156357,-0.423818658568222
0.674527602462244,-0.419228255881198
0.673870668157963,-0.414630721606787
0.673196441851241,-0.410026289931172
0.672505104149802,-0.405415195040537
0.671796835661372,-0.400797671121067
0.671071816993677,-0.396173952358945
0.67033022875444,-0.391544272940357
0.669572251551389,-0.386908867051485
0.668798065992247,-0.382267968878514
0.668007852684741,-0.377621812607628
0.667201792236596,-0.372970632425012
0.666380065255537,-0.368314662516848
0.665542852349289,-0.363654137069322
0.664690334125579,-0.358989290268618
0.66382269119213,-0.354320356300919
0.662940104156669,-0.34964756935241
0.66204275362692,-0.344971163609274
0.66113082021061,-0.340291373257696
0.660204484515463,-0.335608432483861
0.659263927149204,-0.330922575473951
0.65830932871956,-0.326234036414152
0.657340869834255,-0.321543049490647
0.656358731101015,-0.31684984888962
0.655363093127565,-0.312154668797256
0.654354136521631,-0.307457743399738
0.653332041890937,-0.302759306883251
0.652296989843209,-0.298059593433979
0.651249160986173,-0.293358837238105
0.650188735927554,-0.288657272481815
0.649115895275076,-0.283955133351292
0.648030819636466,-0.279252654032719
0.646933689619448,-0.274550068712283
0.645824685831749,-0.269847611576165
0.644703988881093,-0.265145516810551
0.643571779375206,-0.260444018601625
0.642428237921813,-0.25574335113557
0.641273545128639,-0.251043748598571
0.64010788160341,-0.246345445176812
0.638931427953851,-0.241648675056477
0.637744364787687,-0.23695367242375
0.636546872712644,-0.232260671464816
0.635339132336447,-0.227569906365857
0.634121324266821,-0.222881611313059
0.632893629111492,-0.218196020492606
0.631656227478185,-0.213513368090681
0.630409299974626,-0.208833888293468
0.629153027208538,-0.204157815287153
0.62788758978765,-0.199485383257918
0.626613168319684,-0.194816826391949
0.625329943412367,-0.190152378875429
0.624038095673424,-0.185492274894541
0.62273780571058,-0.180836748635471
0.621429254131562,-0.176186034284403
0.620112621544093,-0.17154036602752
0.618788088555899,-0.166899978051007
0.617455835774706,-0.162265104541047
0.616116043808239,-0.157635979683825
0.614768893264223,-0.153012837665525
0.613414564750384,-0.148395912672331
0.612053238874447,-0.143785438890427
0.610685096244137,-0.139181650505998
0.60931031746718,-0.134584781705226
0.607929083151301,-0.129995066674297
0.606541573904225,-0.125412739599395
0.605147970333678,-0.120838034666703
0.603748453047384,-0.116271186062406
0.60234320265307,-0.111712427972688
0.600932399758461,-0.107161994583733
0.599516224971281,-0.102620120081724
0.598094858899257,-0.0980870386528472
0.596668482150114,-0.0935629844832853
0.595237275331576,-0.0890481917592226
0.593801419051369,-0.0845428946668435
0.59236109391722,-0.0800473273923318
0.590916480536852,-0.0755617241218719
0.589467759517991,-0.0710863190416475
0.588015111468363,-0.0666213463378431
0.586558716995693,-0.0621670401966425
0.585098756707706,-0.0577236348042301
0.583635411212128,-0.0532913643467896
0.582168861116683,-0.0488704630105056
0.580699287029098,-0.0444611649815617
0.579226869557098,-0.0400637044461425
0.577751789308407,-0.0356783155904315
0.576274226890751,-0.0313052326006135
0.574794362911856,-0.026944689662872
0.573312377979447,-0.0225969209633914
0.571828452701249,-0.0182621606883557
0.570342767684988,-0.0139406430239492
0.568855503538389,-0.00963260215635561
0.567366840869177,-0.00533827227175947
0.565876960285077,-0.00105788755634449
0.564386042393815,0.00320831780370491
0.562894267803117,0.00746010962220486
0.561401817120707,0.011697253712971
0.559908870954311,0.0159195158898196
0.558415609911654,0.0201266619665662
0.556922214600461,0.0243184577570269
0.555428865628459,0.0284946690750175
0.553935743603371,0.032655061734354
0.552443029132924,0.0367994015488522
0.550950902824843,0.0409274543323281
0.549459545286854,0.0450389858985975
0.54796913712668,0.0491337620614764
0.546479858952049,0.0532115486347805
0.544991891370684,0.0572721114323261
0.543505414990312,0.0613152162679285
0.542020610418658,0.0653406289554042
0.540537658263447,0.0693481153085687
0.539056739132405,0.0733374411412382
0.537578033633256,0.0773083722672282
0.536101722373727,0.081260674500355
0.534627985961542,0.0851941136544343
0.533157005004427,0.089108455543282
0.531688960110107,0.093003465980714
0.530224031886307,0.0968789107805464
0.528762400940754,0.100734555756595
0.527304247881171,0.104570166722675
0.525849753315285,0.108385509492604
0.52439909785082,0.112180349880196
0.522952462095503,0.115954453699268
0.521510026657058,0.119707586763635
0.520071972143212,0.123439514887114
0.518638479161688,0.127150003883521
0.517209728320212,0.130838819566671
0.51578590022651,0.13450572775038
0.514367175488308,0.138150494248464
0.51295373471333,0.141772884874739
0.511545758509301,0.145372665443021
0.510143427483948,0.148949601767126
0.508746922244995,0.15250345966087
0.507356423400168,0.156034004938068
0.505972111557192,0.159541003412537
0.504594167323792,0.163024220898092
0.503222771307695,0.166483423208549
0.501858104116624,0.169918376157725
0.500500346358305,0.173328845559435
0.499149678640465,0.176714597227495
0.497806281570827,0.18007539697572
0.496470335757118,0.183411010617928
0.495142021807063,0.186721203967933
0.493821520328386,0.190005742839552
0.492509011928814,0.1932643930466
0.491204677216072,0.196496920402894
0.489908696797885,0.199703090722249
0.488621251281978,0.202882669818481
0.487342521276076,0.206035423505406
0.486072687387906,0.209161117596841
0.484811930225193,0.2122595179066
0.483560430395661,0.2153303902485
0.482318368507036,0.218373500436357
0.481085925167043,0.221388614283986
0.479863280983408,0.224375497605204
0.478650616563856,0.227333916213826
0.477448112516112,0.230263635923668
0.476255949447903,0.233164422548547
0.475074307966952,0.236036041902278
0.473903368680985,0.238878259798677
0.472743312197728,0.241690842051559
0.471594319124906,0.244473554474742
0.470456570070245,0.24722616288204
0.469330245641469,0.24994843308727
0.468215526446304,0.252640130904247
0.467112593092475,0.255301022146787
0.466021626187708,0.257930872628707
0.464942806339729,0.260529448163822
0.463876314156261,0.263096514565948
0.462822330245031,0.265631837648901
0.461781035213764,0.268135183226497
0.460752609670185,0.270606317112552
0.45973723422202,0.273045005120881
0.458735089476994,0.275451013065301
0.457746356042832,0.277824106759628
0.45677121452726,0.280164052017677
0.455809845538003,0.282470614653264
0.454862429682786,0.284743560480205
0.453929147569335,0.286982655312316
0.453010179805375,0.289187664963414
0.45210570699863,0.291358355247313
0.451215909756828,0.29349449197783
0.450340968687693,0.29559584096878
0.449481064398949,0.29766216803398
0.448636377498324,0.299693238987246
0.447807088593541,0.301688819642393
0.446993378292327,0.303648675813237
0.446195427202406,0.305572573313595
0.445413415931504,0.307460277957281
0.444647525087346,0.309311555558113
0.443897935277658,0.311126171929905
0.443164827110165,0.312903892886474
0.442448381192592,0.314644484241636
0.441748778132665,0.316347711809206
0.441066198538108,0.318013341403001
0.440400823016648,0.319641138836836
0.439752832176009,0.321230869924527
0.439122406623917,0.32278230047989
0.438509726968098,0.324295196316742
0.437914973816276,0.325769323248897
0.437338327776177,0.327204447090173
0.436779969455526,0.328600333654384
0.436240079462049,0.329956748755346
0.43571883840347,0.331273458206877
0.435216426887516,0.33255022782279
0.434733025521911,0.333786823416903
0.434268814914381,0.334983010803031
0.433823975672652,0.336138555794991
0.433398688404448,0.337253224206597
0.432993133717494,0.338326781851667
