0.624596322286086,-0.830626920173299
0.612445183864297,-0.821375127372885
0.600392230169752,-0.812162991884997
0.588437107330048,-0.802990567647607
0.576579461472781,-0.793857908598685
0.564818938725548,-0.784765068676204
0.553155185215945,-0.775712101818134
0.541587847071569,-0.766699061962447
0.530116570420015,-0.757726003047113
0.518741001388882,-0.748792979010104
0.507460786105764,-0.739900043789391
0.496275570698259,-0.731047251322946
0.485185001293964,-0.722234655548739
0.474188724020474,-0.713462310404742
0.463286385005386,-0.704730269828926
0.452477630376297,-0.696038587759261
0.441762106260803,-0.68738731813372
0.4311394587865,-0.678776514890274
0.420609334080986,-0.670206231966894
0.410171378271856,-0.66167652330155
0.399825237486708,-0.653187442832215
0.389570557853137,-0.644739044496858
0.37940698549874,-0.636331382233453
0.369334166551114,-0.627964509979969
0.359351747137856,-0.619638481674378
0.349459373386561,-0.611353351254652
0.339656691424826,-0.60310917265876
0.329943347380247,-0.594905999824675
0.320318987380422,-0.586743886690368
0.310783257552947,-0.57862288719381
0.301335804025418,-0.570543055272973
0.291976272925431,-0.562504444865826
0.282704310380584,-0.554507109910342
0.273519562518473,-0.546551104344493
0.264421675466693,-0.538636482106247
0.255410295352842,-0.530763297133579
0.246485068304517,-0.522931603364457
0.237645640449313,-0.515141454736854
0.228891657914827,-0.507392905188741
0.220222766828656,-0.499686008658089
0.211638613318396,-0.49202081908287
0.203138843511644,-0.484397390401054
0.194723103535996,-0.476815776550612
0.186391039519049,-0.469276031469516
0.178142297588399,-0.461778209095737
0.169976523871643,-0.454322363367247
0.161893364496377,-0.446908548222016
0.153892465590197,-0.439536817598015
0.145973473280701,-0.432207225433217
0.138136033695485,-0.424919825665591
0.130379792962145,-0.41767467223311
0.122704397208277,-0.410471819073744
0.115109492561479,-0.403311320125465
0.107594725149346,-0.396193229326245
0.100159741099476,-0.389117600614052
0.0928041865394644,-0.38208448792686
0.085527707596908,-0.37509394520264
0.0783299503994034,-0.368146026379363
0.071210561074547,-0.361240785394999
0.0641691857499352,-0.35437827618752
0.0572054705531648,-0.347558552694898
0.0503190616118321,-0.340781668855103
0.0435096050535336,-0.334047678606107
0.0367767470058658,-0.327356635885881
0.0301201335964254,-0.320708594632396
0.0235394109528087,-0.314103608783623
0.0170342252026121,-0.307541732277534
0.0106042224734323,-0.301023019052099
0.00424904889286584,-0.294547523045291
-0.00203164941149091,-0.28811529819508
-0.00823822631204146,-0.281726398439437
-0.0143710356811892,-0.275380877716333
-0.0204304313913377,-0.269078789963741
-0.0264167673148904,-0.26282018911963
-0.032330397324251,-0.256605129121972
-0.0381716752918227,-0.250433663908739
-0.0439409550900092,-0.244305847417902
-0.0496385905912138,-0.238221733587431
-0.0552649356678403,-0.232181376355298
-0.060820344192292,-0.226184829659474
-0.0663051700369724,-0.220232147437931
-0.0717197670742849,-0.214323383628639
-0.0770644891766333,-0.20845859216957
-0.0823396902164209,-0.202637826998695
-0.0875457240660512,-0.196861142053986
-0.0926829445979277,-0.191128591273412
-0.097751705684454,-0.185440228594947
-0.102752361198033,-0.17979610795656
-0.10768526501107,-0.174196283296223
-0.112550770995966,-0.168640808551907
-0.117349233025126,-0.163129737661584
-0.122081004970954,-0.157663124563224
-0.126746440705852,-0.1522410231948
-0.131345894102224,-0.146863487494281
-0.135879719032474,-0.14153057139964
-0.140348269369005,-0.136242328848847
-0.144751898984221,-0.130998813779873
-0.149090961750525,-0.125800080130691
-0.153365811540321,-0.120646181839271
-0.157576802226011,-0.115537172843583
-0.161724287680001,-0.110473107081601
-0.165808621774693,-0.105454038491294
-0.16983015838249,-0.100480021010634
-0.173789251375797,-0.0955511085775916
-0.177686254627017,-0.0906673551301389
-0.181521522008552,-0.0858288146062467
-0.185295407392807,-0.081035540943886
-0.189008264652186,-0.0762875880810284
-0.192660447659091,-0.0715850099556448
-0.196252310285926,-0.0669278605057066
-0.199784206405095,-0.0623161936691848
-0.203256489889001,-0.0577500633840507
-0.206669514610048,-0.0532295235882757
-0.210023634440639,-0.0487546282198306
-0.213319203253178,-0.044325431216687
-0.216556574920068,-0.0399419865168158
-0.219736103313712,-0.0356043480581884
-0.222858142306515,-0.0313125697787759
-0.22592304577088,-0.0270667056165496
-0.228931167579209,-0.0228668095094806
-0.231882861603907,-0.0187129353955402
-0.234778481717378,-0.0146051372126995
-0.237618381792023,-0.0105434688989298
-0.240402915700249,-0.00652798439220215
-0.243132437314456,-0.002558737630488
-0.24580730050705,0.00136421744824161
-0.248427859150434,0.0052408269060155
-0.250994467117011,0.00907103680486233
-0.253507478279184,0.0128547932068111
-0.255967246509358,0.0165920421738904
-0.258374125679935,0.020282729768129
-0.260728469663319,0.023926802051556
-0.263030632331914,0.0275242050861999
-0.265280967558123,0.0310748849340896
-0.26747982921435,0.0345787876572539
-0.269627571172998,0.0380358593177216
-0.27172454730647,0.0414460459775215
-0.273771111487171,0.0448092936986824
-0.275767617587503,0.048125548543233
-0.277714419479871,0.0513947565732022
-0.279611871036677,0.0546168638506189
-0.281460326130325,0.0577918164375116
-0.283260138633218,0.0609195603959093
-0.285011662417761,0.0640000417878409
-0.286715251356357,0.0670332066753348
-0.288371259321409,0.0700190011204202
-0.28998004018532,0.0729573711851257
-0.291541947820494,0.0758482629314802
-0.293057336099335,0.0786916224215124
-0.294526558894246,0.0814873957172511
-0.295949970077631,0.0842355288807253
-0.297327923521892,0.0869359679739634
-0.298660773099435,0.0895886590589945
-0.299948872682661,0.0921935481978473
-0.301192576143975,0.0947505814525507
-0.30239223735578,0.0972597048851333
-0.30354821019048,0.0997208645576241
-0.304660848520478,0.102134006532052
-0.305730506218177,0.104499076870445
-0.306757537155982,0.106816021634833
-0.307742295206295,0.109084786887244
-0.30868513424152,0.111305318689707
-0.309586408134061,0.113477563104251
-0.310446470756321,0.115601466192905
-0.311265675980703,0.117676974017697
-0.312044377679612,0.119704032640657
-0.31278292972545,0.121682588123813
-0.313481685990621,0.123612586529193
-0.314141000347529,0.125493973918827
-0.314761226668577,0.127326696354744
-0.315342718826168,0.129110699898971
-0.315885830692707,0.130845930613539
-0.316390916140596,0.132532334560476
-0.316858329042239,0.13416985780181
-0.31728842327004,0.135758446399571
-0.317681552696401,0.137298046415787
-0.318038071193728,0.138788603912487
-0.318358332634422,0.1402300649517
-0.318642690890888,0.141622375595454
-0.318891499835529,0.142965481905779
-0.319105113340748,0.144259329944703
-0.31928388527895,0.145503865774255
-0.319428169522537,0.146699035456464
-0.319538319943913,0.147844785053359
-0.319614690415482,0.148941060626967
-0.319657634809647,0.149987808239319
-0.319667506998811,0.150984973952443
-0.319644660855378,0.151932503828368
-0.319589450251752,0.152830343929123
-0.319502229060336,0.153678440316735
-0.319383351153534,0.154476739053235
-0.319233170403748,0.155225186200651
-0.319052040683383,0.155923727821012
-0.318840315864843,0.156572309976346
-0.318598349820529,0.157170878728683
-0.318326496422847,0.15771938014005
-0.318025109544199,0.158217760272478
-0.317694543056989,0.158665965187994
-0.317335150833621,0.159063940948628
-0.316947286746497,0.159411633616408
-0.316531304668023,0.159708989253364
-0.3160875584706,0.159955953921523
-0.315616402026633,0.160152473682915
-0.315118189208525,0.160298494599569
-0.314593273888679,0.160393962733513
-0.314042009939499,0.160438824146776
-0.313464751233389,0.160433024901386
-0.312861851642752,0.160376511059374
-0.312233665039991,0.160269228682767
-0.31158054529751,0.160111123833594
-0.310902846287713,0.159902142573885
-0.310200921883003,0.159642230965667
-0.309475125955783,0.15933133507097
-0.308725812378458,0.158969400951823
-0.307953335023429,0.158556374670253
-0.307158047763102,0.158092202288291
-0.30634030446988,0.157576829867965
-0.305500459016165,0.157010203471303
-0.304638865274362,0.156392269160335
-0.303755877116873,0.155722972997089
-0.302851848416104,0.155002261043594
-0.301927133044456,0.154230079361879
-0.300982084874333,0.153406374013973
-0.30001705777814,0.152531091061904
-0.299032405628279,0.151604176567701
-0.298028482297154,0.150625576593393
-0.297005641657169,0.149595237201009
-0.295964237580727,0.148513104452578
-0.294904623940231,0.147379124410128
-0.293827154608085,0.146193243135688
-0.292732183456692,0.144955406691288
-0.291620064358456,0.143665561138955
-0.290491151185781,0.142323652540719
-0.28934579781107,0.140929626958608
-0.288184358106727,0.139483430454651
-0.287007185945154,0.137985009090877
-0.285814635198755,0.136434308929315
-0.284607059739935,0.134831276031994
-0.283384813441096,0.133175856460942
-0.282148250174642,0.131467996278188
-0.280897723812977,0.129707641545762
-0.279633588228503,0.12789473832569
-0.278356197293625,0.126029232680004
-0.277065904880746,0.124111070670731
-0.275763064862269,0.1221401983599
-0.274448031110599,0.12011656180954
-0.273121157498137,0.11804010708168
-0.271782797897289,0.115910780238348
-0.270433306180457,0.113728527341573
-0.269073036220045,0.111493294453385
-0.267702341888456,0.109205027635812
-0.266321577058095,0.106863672950882
-0.264931095601363,0.104469176460625
-0.263531251390666,0.102021484227069
-0.262122398298406,0.0995205423122433
-0.260704890196987,0.0969662967781765
-0.259279080958813,0.0943586936868974
-0.257845324456286,0.0916976791004347
-0.256403974561811,0.0889831990808175
-0.254955385147791,0.0862151996900742
-0.253499910086629,0.0833936269902339
-0.252037903250729,0.0805184270433252
-0.250569718512494,0.0775895459113771
-0.249095709744328,0.0746069296564181
-0.247616230818635,0.0715705243404773
-0.246131635607818,0.0684802760255833
-0.24464227798428,0.0653361307737651
-0.243148511820425,0.0621380346470511
-0.241650690988656,0.0588859337074706
-0.240149169361377,0.055579774017052
-0.238644300810992,0.0522195016378243
-0.237136439209903,0.0488050626318162
-0.235625938430515,0.0453364030610567
-0.234113152345231,0.0418134689875743
-0.232598434826454,0.0382362064733979
-0.231082139746588,0.0346045615805563
-0.229564620978037,0.0309184803710785
-0.228046232393203,0.027177908906993
-0.226527327864491,0.0233827932503288
-0.225008261264304,0.0195330794631144
-0.223489386465045,0.015628713607379
-0.221971057339117,0.011669641745151
-0.220453627758926,0.00765580993845966
-0.218937451596873,0.00358716424933328
-0.217422882725362,-0.000536349260198854
-0.215910275016798,-0.00471478452810853
-0.214399982343582,-0.00894819549236638
-0.21289235857812,-0.0132366360909439
-0.211387757592814,-0.0175801602618123
-0.209886533260068,-0.0219788219429428
-0.208389039452285,-0.0264326750723063
-0.206895630041869,-0.0309417735878745
-0.205406658901223,-0.0355061714276181
-0.203922479902751,-0.0401259225295088
-0.202443446918857,-0.0448010808315172
-0.200969913821943,-0.0495317002716153
-0.199502234484414,-0.0543178347877735
-0.198040762778673,-0.0591595383179636
-0.196585852577123,-0.0640568648001563
-0.195137857752167,-0.0690098681723234
-0.193697132176211,-0.0740186023724354
-0.192264029721656,-0.0790831213384643
-0.190838904260906,-0.0842034790083805
-0.189422109666365,-0.0893797293201559
-0.188013999810437,-0.0946119262117611
-0.186614928565524,-0.0999001236211679
-0.185225249804031,-0.105244375486347
-0.18384531739836,-0.11064473574527
-0.182475485220916,-0.116101258335908
-0.181116107144101,-0.121613997196231
-0.17976753704032,-0.127183006264213
-0.178430128781976,-0.132808339477822
-0.177104236241472,-0.138490050775032
-0.175790213291212,-0.144228194093812
-0.1744884138036,-0.150022823372135
-0.173199191651038,-0.155873992547971
-0.17192290070593,-0.161781755559291
-0.17065989484068,-0.167746166344067
-0.169410527927692,-0.17376727884027
-0.168175153839368,-0.179845146985871
-0.166954126448113,-0.185979824718842
-0.165747799626329,-0.192171365977153
-0.164556527246421,-0.198419824698776
-0.163380663180791,-0.204725254821682
-0.162220561301844,-0.211087710283842
-0.161076575481983,-0.217507245023227
-0.15994905959361,-0.223983912977809
-0.158838367509131,-0.230517768085559
-0.157744853100948,-0.237108864284447
-0.156668870241465,-0.243757255512447
-0.155610772803085,-0.250462995707527
-0.154570914658212,-0.25722613880766
-0.153549649679249,-0.264046738750817
-0.1525473317386,-0.270924849474968
-0.151564314708668,-0.277860524918086
-0.150600952461857,-0.284853819018142
-0.14965759887057,-0.291904785713106
-0.148734607807211,-0.29901347894095
-0.147832333144184,-0.306179952639644
-0.146951128753891,-0.313404260747162
-0.146091348508736,-0.320686457201472
-0.145253346281123,-0.328026595940547
-0.144437475943456,-0.335424730902358
-0.143644091368137,-0.342880916024876
-0.14287354642757,-0.350395205246073
-0.142126194994159,-0.357967652503918
-0.141402390940308,-0.365598311736385
-0.140702488138419,-0.373287236881443
-0.140026840460897,-0.381034481877064
-0.139375801780144,-0.38884010066122
-0.138749725968564,-0.396704147171881
-0.138148966898561,-0.404626675347019
-0.137573878442539,-0.412607739124605
-0.1370248144729,-0.42064739244261
-0.136502128862049,-0.428745689239004
-0.136006175482388,-0.436902683451761
-0.135537308206321,-0.44511842901885
-0.135095880906252,-0.453392979878244
-0.134682247454585,-0.461726389967912
-0.134296761723722,-0.470118713225826
-0.133939777586067,-0.478570003589958
-0.133611648914025,-0.487080314998279
-0.133312729579997,-0.49564970138876
-0.133043373456388,-0.504278216699372
-0.132803934415601,-0.512965914868086
-0.13259476633004,-0.521712849832874
-0.132416223072109,-0.530519075531706
-0.13226865851421,-0.539384645902555
-0.132152426528747,-0.54830961488339
-0.132067880988124,-0.557294036412184
-0.132015375764744,-0.566337964426908
-0.131995264731011,-0.575441452865532
-0.132007901759328,-0.584604555666028
-0.132053640722099,-0.593827326766368
-0.132132835491727,-0.603109820104522
-0.132245839940616,-0.612452089618461
-0.132393007941168,-0.621854189246157
-0.132574693365789,-0.631316172925581
-0.132791250086881,-0.640838094594704
-0.133043031976847,-0.650420008191498
-0.133330392908092,-0.660061967653933
-0.133653686753019,-0.669764026919982
-0.13401326738403,-0.679526239927614
-0.134409488673531,-0.689348660614801
-0.134842704493923,-0.699231342919515
-0.135313268717611,-0.709174340779726
-0.135821535216999,-0.719177708133406
-0.136367857864489,-0.729241498918527
-0.136952590532485,-0.739365767073058
-0.137576087093391,-0.749550566534972
-0.13823870141961,-0.759795951242239
-0.138940787383546,-0.770101975132832
-0.139682698857602,-0.78046869214472
-0.140464789714182,-0.790896156215876
-0.141287413825688,-0.80138442128427
-0.142150925064526,-0.811933541287874
-0.143055677303098,-0.822543570164658
-0.144002024413807,-0.833214561852595
-0.144990320269058,-0.843946570289655
-0.146020918741253,-0.854739649413809
