0.425963920175566,0.436636569613939
0.426098782112815,0.422610507620901
0.426098223756452,0.40878860111362
0.425964529569988,0.395169458672639
0.425699984016933,0.381751688878505
0.425306871560798,0.368533900311761
0.424787476665095,0.355514701552953
0.424144083793333,0.342692701182626
0.423378977409023,0.330066507781325
0.422494441975677,0.317634729929594
0.421492761956804,0.305395976207978
0.420376221815915,0.293348855197022
0.419147106016522,0.281491975477272
0.417807699022134,0.269823945629271
0.416360285296263,0.258343374233565
0.41480714930242,0.247048869870698
0.413150575504114,0.235939041121216
0.411392848364856,0.225012496565664
0.409536252348158,0.214267844784585
0.407583071917531,0.203703694358526
0.405535591536483,0.19331865386803
0.403396095668528,0.183111331893644
0.401166868777174,0.173080337015911
0.398850195325934,0.163224277815376
0.396448359778316,0.153541762872585
0.393963646597834,0.144031400768082
0.391398340247996,0.134691800082413
0.388754725192313,0.125521569396121
0.386035085894297,0.116519317289752
0.383241706817459,0.107683652343851
0.380376872425308,0.099013183138963
0.377442867181355,0.0905065182556321
0.374441975549112,0.0821622662744036
0.371376481992088,0.0739790357758222
0.368248670973795,0.0659554353404329
0.365060826957743,0.0580900735487805
0.361815234407444,0.0503815589814099
0.358514177786407,0.0428285002188661
0.355159941558143,0.0354295058416938
0.351754810186163,0.0281831844304379
0.348301068133979,0.0210881445656432
0.344800999865099,0.0141429948278548
0.341256889843036,0.00734634379761727
0.3376710225313,0.000696800055475663
0.334045682393402,-0.00580702781802518
0.330383153892852,-0.0121665312423404
0.32668572149316,-0.0183831016369252
0.322955669657839,-0.0244581304212346
0.319195282850398,-0.0303930090147238
0.315406845534348,-0.0361891288368479
0.3115926421732,-0.0418478813070621
0.307754957230464,-0.0473706578448215
0.303896075169652,-0.0527588498695811
0.300018280454274,-0.0580138488007963
0.29612385754784,-0.063137046057922
0.292215090913861,-0.0681298330604134
0.288294265015849,-0.0729936012277257
0.284363664317313,-0.077729741979314
0.280425573281765,-0.0823396467346334
0.276482276372715,-0.086824706913139
0.272536058053674,-0.091186313934286
0.268589202788152,-0.0954258592175296
0.264643995039661,-0.0995447341823248
0.260702719271711,-0.103544330248127
0.256767659947812,-0.107426038834391
0.252841101531475,-0.111191251360572
0.248925328486212,-0.114841359246125
0.245022625275533,-0.118377753910505
0.241135276362948,-0.121801826773168
0.237265566211968,-0.125114969253568
0.233415779286104,-0.128318572771162
0.229588200048866,-0.131414028745403
0.225785112963766,-0.134402728595747
0.222008802494314,-0.137286063741649
0.218261553104021,-0.140065425602564
0.214545649256397,-0.142742205597948
0.210863375414953,-0.145317795147255
0.207217016043199,-0.147793585669941
0.203608855604648,-0.150170968585461
0.200041178562808,-0.152451335313269
0.196516269381192,-0.154636077272822
0.193036412523309,-0.156726585883574
0.0875481891359271,-0.260673383814352
0.284458438583733,-0.262698325587842
0.0750159527205423,-0.261725689266364
0.179613197599327,-0.164174115227675
0.0600755168808535,-0.0481713785365348
0.173231300131017,-0.167368656712755
0.266207218810385,-0.0689284307766664
0.276333593395513,-0.0503447997624032
0.256852937308238,-0.0800019942298251
0.0615437441115385,-0.273387655578127
0.0593074966909714,-0.275755674885262
0.0362876438297579,-0.277199888731972
0.152937465727959,-0.175961058934558
0.247813131936945,-0.268240351203405
0.249501378725001,-0.075871730418813
0.245124726726463,-0.294219121668916
0.142985496612413,-0.179195815351853
0.140707224842065,-0.179828056411017
0.249903744637156,-0.27866991570977
0.249370269061172,-0.291334078610401
0.134412290167687,-0.181323566991412
0.224191908605802,-0.0754284923344489
0.0194070227642081,-0.0628666537176706
0.240043178261542,-0.0670775303119592
0.244761675392358,-0.283772353355852
0.245462135808121,-0.279638177566161
0.221280890319582,-0.0815012182324548
0.123166585791887,-0.182651250359331
0.0171981196989977,-0.286939499152477
0.21227394424491,-0.0685460086282343
0.119970835415205,-0.182384196358878
0.119138849650449,-0.182193907280314
0.118427303505279,-0.181955301694968
0.117838481443207,-0.181669771022296
0.117374667927744,-0.181338706681753
0.117038147422399,-0.180963500092794
0.116831204390684,-0.180545542674873
0.116756123296109,-0.180086225847448
0.116815188602185,-0.179586941029971
0.117010684772423,-0.179049079641899
0.117344896270333,-0.178474033102687
0.117820107559427,-0.177863192831789
0.118438603103214,-0.177217950248661
0.119202667365206,-0.176539696772759
0.120114584808913,-0.175829823823536
0.121176639897846,-0.175089722820449
0.122391117095515,-0.174320785182952
0.123760300865432,-0.173524402330501
0.125286475671107,-0.172701965682551
0.126971925976051,-0.171854866658556
0.128818936243774,-0.170984496677972
0.130829790937788,-0.170092247160255
0.133006774521602,-0.169179509524858
0.135352171458728,-0.168247675191238
0.137868266212676,-0.16729813557885
0.140557343246957,-0.166332282107148
0.143421687025082,-0.165351506195588
0.146463582010561,-0.164357199263624
0.149685312666905,-0.163350752730713
0.153089163457625,-0.162333558016309
0.156677418846232,-0.161307006539867
0.160452363296235,-0.160272489720843
0.164416281271147,-0.159231398978691
0.168571457234477,-0.158185125732867
0.172920175649736,-0.157135061402826
0.177464720980436,-0.156082597408022
0.182207377690086,-0.155029125167912
0.187150430242198,-0.15397603610195
0.192296163100281,-0.152924721629592
0.197646860727848,-0.151876573170291
0.203204807588408,-0.150832982143505
0.208972288145472,-0.149795339968687
0.214951586862551,-0.148765038065293
0.221144988203156,-0.147743467852778
0.227554776630797,-0.146732020750598
0.234183236608985,-0.145732088178206
0.241032652601231,-0.144745061555059
0.248105309071045,-0.143772332300612
0.255403490481938,-0.142815291834319
0.262929481297421,-0.141875331575636
0.270685565981005,-0.140953842944018
0.2786740289962,-0.14005221735892
0.286897154806517,-0.139171846239798
0.295357227875467,-0.138314121006105
0.30405653266656,-0.137480433077299
0.312997353643307,-0.136672173872832
0.322181975269218,-0.135890734812162
0.331612682007806,-0.135137507314742
0.341291758322579,-0.134413882800029
0.351221488677049,-0.133721252687476
0.361404157534727,-0.13306100839654
0.371842049359123,-0.132434541346676
0.382537448613748,-0.131843242957337
0.393492639762113,-0.131288504647981
0.404709907267728,-0.130771717838061
0.416191535594104,-0.130294273947034
0.427939809204752,-0.129857564394353
0.439957012563183,-0.129462980599475
0.452245430132906,-0.129111913981854
0.464807346377434,-0.128805755960945
0.477645045760276,-0.128545897956204
0.490760812744943,-0.128333731387086
0.504156931794947,-0.128170647673046
0.517835687373797,-0.128058038233538
0.531799363945005,-0.127997294488019
0.54605024597208,-0.127989807855943
0.560590617918535,-0.128036969756766
0.575422764247879,-0.128140171609942
0.590548969423623,-0.128300804834927
0.605971517909278,-0.128520260851175
0.621692694168355,-0.128799931078143
0.637714782664364,-0.129141206935284
0.654040067860816,-0.129545479842055
0.670670834221222,-0.13001414121791
0.687609366209092,-0.130548582482305
0.704857948287938,-0.131150195054694
0.722418864921269,-0.131820370354533
0.740294400572597,-0.132560499801277
