-0.175260817256422,0.894648410621935
-0.180167965429728,0.89208585448556
-0.185005751560831,0.889487296359345
-0.189774440707817,0.886853037085843
-0.194474297928777,0.884183377507601
-0.199105588281798,0.881478618467171
-0.203668576824968,0.878739060807101
-0.208163528616377,0.875965005369941
-0.212590708714112,0.873156752998243
-0.216950382176262,0.870314604534554
-0.221242814060915,0.867438860821425
-0.22546826942616,0.864529822701406
-0.229627013330084,0.861587791017047
-0.233719310830778,0.858613066610897
-0.237745426986327,0.855605950325505
-0.241705626854822,0.852566743003423
-0.245600175494351,0.8494957454872
-0.249429337963002,0.846393258619385
-0.253193379318862,0.843259583242527
-0.256892564620022,0.840095020199179
-0.260527158924569,0.836899870331888
-0.264097427290591,0.833674434483205
-0.267603634776177,0.830419013495678
-0.271046046439415,0.827133908211859
-0.274424927338395,0.823819419474298
-0.277740542531203,0.820475848125543
-0.280993157075928,0.817103495008144
-0.28418303603066,0.813702660964652
-0.287310444453486,0.810273646837616
-0.290375647402494,0.806816753469587
-0.293378909935773,0.803332281703112
-0.296320497111412,0.799820532380743
-0.299200673987498,0.79628180634503
-0.302019705622121,0.792716404438522
-0.304777857073368,0.789124627503768
-0.307475393399329,0.785506776383319
-0.31011257965809,0.781863151919725
-0.312689680907742,0.778194054955535
-0.315206962206371,0.774499786333299
-0.317664688612067,0.770780646895567
-0.320063125182918,0.767036937484889
-0.322402536977013,0.763268958943814
-0.324683189052439,0.759477012114891
-0.326905346467285,0.755661397840673
-0.329069274279639,0.751822416963706
-0.331175237547591,0.747960370326543
-0.333223501329227,0.744075558771732
-0.335214330682637,0.740168283141823
-0.33714799066591,0.736238844279366
-0.339024746337133,0.73228754302691
-0.342608604975783,0.724320556722204
-0.344316238059387,0.720305473355052
-0.345968027063296,0.716269730968102
-0.347564237045596,0.712213630403902
-0.349105133064378,0.708137472505003
-0.350590980177728,0.704041558113954
-0.352022043443737,0.699926188073305
-0.353398587920491,0.695791663225606
-0.354720878666079,0.691638284413406
-0.35598918073859,0.687466352479256
-0.357203759196112,0.683276168265705
-0.358364879096734,0.679068032615303
-0.359472805498544,0.6748422463706
-0.36052780345963,0.670599110374145
-0.36153013803808,0.666338925468489
-0.362480074291984,0.662061992496181
-0.363377877279429,0.657768612299771
-0.364223812058504,0.653459085721809
-0.365018143687297,0.649133713604844
-0.365761137223897,0.644792796791426
-0.366453057726391,0.640436636124106
-0.36709417025287,0.636065532445433
-0.367684739861419,0.631679786597956
-0.36822503161013,0.627279699424225
-0.368715310557088,0.622865571766791
-0.369155841760384,0.618437704468203
-0.369546890278105,0.613996398371011
-0.369888721168339,0.609541954317764
-0.370181599489176,0.605074673151013
-0.37062155865501,0.596102802847197
-0.370769169616183,0.591598815395231
-0.370868888240312,0.587083194199959
-0.370920979585486,0.582556240103932
-0.370925708709791,0.578018253949699
-0.370883340671318,0.57346953657981
-0.370794140528153,0.568910388836815
-0.370658373338387,0.564341111563263
-0.370476304160106,0.559762005601705
-0.3702481980514,0.55517337179469
-0.369654935275065,0.545968724014487
-0.369290308723612,0.5413533117264
-0.368880705474087,0.536729574963055
-0.368426390584579,0.532097814567002
-0.367927629113176,0.527458331380791
-0.367384686117965,0.522811426246972
-0.366797826657037,0.518157400008094
-0.366167315788478,0.513496553506707
-0.365493418570377,0.508829187585362
-0.364776400060823,0.504155603086607
-0.364016525317904,0.499476100852993
-0.363214059399709,0.494790981727069
-0.361482414269842,0.485405096168491
-0.35958358513593,0.476000353151273
-0.358572139212678,0.471291662202048
-0.35751969246268,0.466579159415812
-0.356426509944024,0.461863145635114
-0.355292856714798,0.457143921702506
-0.354118997833092,0.452421788460536
-0.351651723344589,0.442969997418711
-0.35035883785397,0.438240941303955
-0.347655895670438,0.428778012099506
-0.346246369093701,0.424044740694913
-0.344798492271103,0.419310665878806
-0.34331253026073,0.414576088493737
-0.341788748120672,0.409841309382254
-0.340227410909017,0.405106629386907
-0.338628783683853,0.400372349350247
-0.336993131503269,0.395638770114822
-0.333611812508193,0.38617491741788
-0.331866675809878,0.381445245641462
-0.328268773302136,0.371991915445482
-0.326416537608886,0.367268858711019
-0.324529132366834,0.36254860867564
-0.32260682263407,0.357831466181896
-0.318658549928754,0.348407707189509
-0.31663311707238,0.343701692375966
-0.314573839957646,0.338999988474257
-0.312480983642641,0.334302896326931
-0.310354813185453,0.329610716776538
-0.30819559364417,0.324923750665628
-0.306003590076882,0.32024229883675
-0.303779067541676,0.315566662132455
-0.299233525799863,0.306234037467811
-0.296913036709434,0.301577651192561
-0.294561088883441,0.296928283412094
-0.292177947379972,0.292286234968957
-0.289763877257116,0.287651806705702
-0.287319143572961,0.283025299464877
-0.284844011385595,0.278407014089034
-0.282338745753107,0.273797251420721
-0.279803611733585,0.269196312302488
-0.277238874385118,0.264604497576885
-0.2720216499337,0.255449444673769
-0.269369692946927,0.250886808181355
-0.263980414741694,0.241792819327565
-0.26124362363941,0.237262068651288
-0.2584790846148,0.23274254826549
-0.255687062725951,0.22823455901272
-0.252867823030953,0.223738401735529
-0.250021630587893,0.219254377276465
-0.247148750454859,0.214782786478079
-0.244249447689942,0.210323930182921
-0.241323987351227,0.20587810923354
-0.238372634496805,0.201445624472486
-0.23239331147319,0.192621866885559
-0.229365871420175,0.188231195744786
-0.226313599083805,0.183855064162538
-0.223236759522168,0.179493772981367
-0.220135617793355,0.175147623043822
-0.217010438955452,0.170816915192452
-0.210689030184732,0.162203029118439
-0.207493330368091,0.157920452580895
-0.204274653674715,0.153654521499726
-0.19776942989011,0.145173799076711
-0.194483412915057,0.140959609419965
-0.187845894089894,0.132585077428745
-0.18449492235596,0.12842533677937
-0.181122829151909,0.124284347484219
-0.17772987953583,0.120162410385841
-0.17431633856581,0.116059826326786
-0.170882471299939,0.111976896149603
-0.167428542796305,0.107913920696843
-0.163954818112995,0.103871200811055
-0.160461562308099,0.0998490373347898
-0.156949040439704,0.095847731110596
-0.1534175175659,0.091867582981024
-0.149867258744774,0.0879088937886235
-0.146298529034415,0.0839719643759441
-0.142711593492912,0.0800570955855357
-0.139106717178352,0.0761645882599483
-0.135484165148825,0.0722947432417315
-0.131844202462418,0.068447861373435
-0.12818709417722,0.0646242434976087
-0.124513105351319,0.0608241904568025
-0.113392506210284,0.0495684287700014
-0.109653645802457,0.0458656434947731
-0.105899230144368,0.0421879272673135
-0.0983447933097624,0.0349089053259005
-0.094545302249422,0.0313082012970467
-0.086903100133108,0.0241859113357929
-0.0830609191933112,0.0206649270884926
-0.0792050384098724,0.0171711177868098
-0.0753357228408799,0.0137047842732942
-0.0675578475785876,0.00685574798096399
-0.0636498180014647,0.00347364688724901
-0.0597294138711415,0.000120224951900269
-0.0557969002457068,-0.00320421698253208
-0.0478966047418558,-0.00976495747844922
-0.0399510519546186,-0.016206167860104
-0.0359619667249512,-0.0193811971517087
-0.0319623623487025,-0.0225254413870983
-0.0279525038839608,-0.0256385997237232
-0.0239326563888147,-0.0287203713190335
-0.0158640545396621,-0.0347885509155116
-0.0118158303018324,-0.0377743572315798
-0.00775867726595192,-0.0407275734361341
0.000381354967608716,-0.0465350321405028
0.00855392169631275,-0.0522085202882192
0.0126517428511226,-0.0549942732969584
0.0208691354512158,-0.0604622929714497
0.0291137613846844,-0.065790325238293
0.0332456242062136,-0.0684010939874721
0.0415271242684198,-0.0735146325045965
0.0498305565022336,-0.0784821667630772
0.0539898345382726,-0.0809104301889517
0.0748512415862507,-0.0924846765826733
0.0790346709627845,-0.0946840058164391
0.0832211978594245,-0.0968441264025956
0.0874105572180827,-0.0989647374985935
0.0916024839806704,-0.101045538261883
0.0957967130890996,-0.103086227849913
0.104191018111128,-0.10704607013
0.10839056390855,-0.108964621136957
0.11259135181946,-0.110841857598456
0.11679311678577,-0.112677478671948
0.12940162343621,-0.117931641138881
0.133604646043233,-0.119597792234846
0.137807320415213,-0.121220823730054
0.142009381494062,-0.122800434781956
0.146210564221692,-0.124336324548002
0.15460923439094,-0.127275736852327
0.158806191716381,-0.128678657705507
0.163001210458249,-0.130036653902631
0.167194025558456,-0.131349424601151
0.171384371958913,-0.132616668958516
0.175571984601532,-0.133838086132177
0.179756598428224,-0.135013375279583
0.183937948380901,-0.136142235558185
0.188115769401476,-0.137224366125434
0.204786463000971,-0.141079574429895
0.213093744697801,-0.142718978407708
0.229641575562088,-0.145409352312508
0.241985708417319,-0.146902776406316
0.246086293289166,-0.147299102546883
0.250179373357584,-0.14764418633785
0.254264683564484,-0.147937726936667
0.258341958851777,-0.148179423500783
0.262410934161377,-0.148368975187649
0.266471344435194,-0.148506081154716
0.274565409643126,-0.14862175255925
0.278598534461065,-0.148599716311618
0.282622034010867,-0.148524030973987
0.286635643234444,-0.148394395703808
0.290639097073709,-0.14821050965853
0.294632130470572,-0.147972071995603
0.298614478366945,-0.147678781872479
0.306546057425868,-0.146926440875437
0.310494758472241,-0.146466788316419
0.314431713785771,-0.145951079927004
0.330056776549688,-0.143321671214376
0.333931027327676,-0.142521171034728
0.337791942024289,-0.141662809969384
0.34163925558144,-0.140746287175794
0.349292019045002,-0.138737553033677
0.353096938835236,-0.137644740000051
0.356887197253655,-0.13649256186798
0.364422669742692,-0.134008906938304
0.368167353697133,-0.132676828455599
0.371896316047405,-0.13128418150425
0.375609291735419,-0.129830665241708
0.379306015703087,-0.128315978825421
0.382986222892321,-0.126739821412841
0.390296026703132,-0.123401890228602
0.397536582703145,-0.119814464948591
0.404705770427652,-0.11597513883241
0.40826293854137,-0.113960260854381
0.411801469411946,-0.111881505139661
0.415321097981293,-0.109738570845699
0.418821559191321,-0.107531157129946
0.422302587983943,-0.105258963149851
0.432626429276483,-0.0980506911980225
0.436027077818594,-0.0955163677350652
0.442765836721181,-0.0902485665353307
0.449419444327666,-0.0847132206868373
0.45271365374965,-0.0818444664129316
0.455985780173343,-0.0789079234491868
0.459235558540656,-0.0759032909530531
0.46884815472344,-0.0664778478448209
0.475139952498447,-0.0598482559973089
0.481335996653817,-0.0529390857990465
0.487434166724842,-0.0457479305096353
0.493432342246816,-0.0382723833886771
0.499328402755031,-0.0305100376957735
0.502237477233758,-0.0265205632784678
0.50512022778478,-0.0224584866905261
0.510805696871356,-0.0141153236325368
0.516382689550053,-0.00547814178140705
0.524540146786775,0.00803418097704689
0.527202763824976,0.0126879052618667
0.529836671412677,0.0174169393002701
0.535017298004224,0.0271021400080278
0.545022375225425,0.0473894955387398
0.547447895033149,0.0526541214436243
0.549842584925665,0.0579964638424907
0.554538414732721,0.0689155014923694
0.556839024531084,0.0744927984284812
0.559107744181886,0.0801490152287742
0.561344308627039,0.0858844527357984
0.563548452808454,0.0916994117921033
0.565719911668043,0.0975941932402391
0.567858420147718,0.103569097922755
0.569963713189389,0.109624426682202
0.574073592726369,0.121977559802084
0.576077649105501,0.12827596584762
0.578047429814276,0.134655999340285
0.579982669794606,0.14111796112263
0.583748467337579,0.154288872926555
0.585578494784044,0.160998424633236
0.587372921269711,0.167791107999796
0.589131481736491,0.174667223868783
0.590841603169141,0.18153920563913
0.59408039831783,0.195008484630995
0.59560977757742,0.201606461342779
0.597079614989542,0.208113782525308
0.598490263325973,0.214530787923714
0.599842075358489,0.22085781728313
0.601135403858865,0.227095210348689
0.603548021350303,0.239302446578765
0.605730937974498,0.251155214575005
0.60673714039082,0.256949522348269
0.608580797290791,0.268275684170746
0.61020180875904,0.279254172662041
0.610929704385709,0.284613888771328
0.611602996969777,0.289887705783217
0.612787184097211,0.300179001495336
0.613298784184129,0.30519715968583
0.61416276126325,0.314980195461353
0.614515843799004,0.319745752536647
0.61481679269459,0.324427788730473
0.615263700652357,0.333542657454252
0.615410365258092,0.337976169474471
0.615551879582144,0.34659704755723
0.615547434844014,0.350785093110035
0.615493325868147,0.354891995997302
0.61523752629031,0.36286373275575
0.615036541231891,0.366729246117197
0.614787303022841,0.370514975793636
0.614490164434935,0.374221261530199
0.61414547823995,0.377848443072021
0.612829661730279,0.388258759980357
0.611098616540834,0.397969369960791
0.60896186750957,0.406989446131905
0.606428939474442,0.415328161612284
0.605498236619052,0.417957905429533
0.604524924961448,0.420513301483899
0.603509357273406,0.422994689520512
0.602451886326703,0.425402409284507
0.601352864893115,0.427736800521016
0.600212645744418,0.429998202975172
0.5978100253888,0.434303400516956
0.596548329725432,0.436347875094849
0.589650107424044,0.445502595859636
0.58815498356929,0.447122387803586
0.586622189717188,0.448672588416512
0.576654111879733,0.456531399869955
0.569300011132781,0.460421815268548
0.567376130247076,0.46122893441895
0.56342841103934,0.462646969296589
0.561405278260861,0.463258564514091
0.559349767061676,0.463805664577558
0.55726223021356,0.464288609232123
0.548598881767323,0.465585628664018
0.546356508251201,0.465752892451065
0.544084225716805,0.465858039300005
0.541782386935912,0.465901408955973
0.539451344680298,0.465883341164101
0.534703060832013,0.465664252217367
0.514612340805263,0.462398347543377
0.511983343264944,0.461726891004025
0.498470857797763,0.457515995616209
0.495697330553642,0.456505472216364
0.49290094972677,0.455439626781069
0.490082068088924,0.454318799055455
0.484378213467413,0.451913555713805
0.475662494747242,0.447901817152262
0.472716016450848,0.446458230332527
0.469749506745912,0.444962039438404
0.457690209276276,0.438458030020676
0.451549544156388,0.434899234238929
0.429522533562603,0.420879171080803
0.426312625174578,0.418682196384172
0.423087976954654,0.416437713790143
0.419848941674607,0.414146063043849
0.416595872106212,0.411807583890423
0.413329121021245,0.409422616074997
0.40345030638468,0.401992178108049
0.400132356951189,0.399424653095952
0.386744910358083,0.388710051135531
0.3833709003539,0.385921973893082
0.373189358635597,0.37730055388223
0.36635559878636,0.371342014423405
0.349130548720585,0.355727242828513
0.345664249377179,0.352483848250969
0.342191676724501,0.349201099659213
0.338713183534326,0.345879336798377
0.328245708456583,0.335683360052721
0.321244256533168,0.328697199537653
0.303680231861016,0.310590667319854
0.300159895695603,0.306862170677906
0.293114514308006,0.299300705156681
0.289590174629373,0.295468415767671
0.286065205989885,0.291602208286572
0.282539961161319,0.287702422458518
0.279014792915451,0.283769398028641
0.275490054024056,0.279803474742073
0.271966097258911,0.275804992343949
0.268443275391793,0.271774290579399
0.250858536538753,0.251149382339928
0.243844932295884,0.242685774558812
0.240343889396914,0.238409548687643
0.212520333418749,0.203178460541164
0.209070778899819,0.198652010552704
0.18854297938833,0.170957018666844
0.185153226606674,0.166254975647923
0.181773428017446,0.161529206890896
0.178403936392424,0.156780052140895
0.175045104503383,0.152007851143054
0.1716972851221,0.147212943642504
0.161723429742557,0.132695379575935
0.11022062057175,0.14839991840597
0.161298690435905,0.138608183844027
0.138902389026682,0.098089754917269
0.100463496340927,0.0875386199145146
0.123967100115018,0.0509305319437906
0.171920921077626,0.0874087463075012
0.119047164973311,0.0504038280677228
0.110650279813903,0.0522473266440755
0.125026232610069,0.0630403775436084
0.110656638974771,0.0207738121610484
0.0809866730731113,-0.000189548179778259
0.0614861002658375,-0.0376601672410671
0.0640596290797621,-0.0679142391022891
0.0136411834159832,-0.07518243500606
0.00553796605128089,-0.127219371897184
0.026143519701213,-0.113974854904242
-0.0188757242183813,-0.200467653377169
-0.00131238835809677,-0.133465663780903
-0.0194781456549822,-0.163896170041168
-0.00351430266877205,-0.191343924751355
0.00676337423302358,-0.210560438821541
-0.062506948119755,-0.217583569200915
-0.0175367623278255,-0.235669447029262
-0.0401194859825931,-0.276885893303233
0.00206082827874599,-0.266834065687913
-0.00752020327938598,-0.282012452814417
-0.0372352399954216,-0.345879250648785
-0.0576326164456183,-0.367943941716219
-0.040209160280259,-0.334646666227286
-0.0459241429121297,-0.377900448084504
-0.0200146401783285,-0.379266896243743
-0.00334573743200828,-0.461768002335661
-0.0488303288027471,-0.42571627686737
-0.0489123826719346,-0.430963746809098
-0.0186357780614326,-0.421284653310604
-0.0468593310461376,-0.441690348346168
-0.0586932559135782,-0.470994524773378
-0.0916958749569332,-0.44186229826613
-0.0719223798636054,-0.484769420073929
-0.0469541592962065,-0.482594473857663
-0.005819879692118,-0.527197532361759
-0.0396967010088189,-0.532452884097462
-0.0312745261490945,-0.566117309245525
0.0124497959693313,-0.56526376704366
-0.0449579051689545,-0.58870081250039
0.045315540559171,-0.689505554795324
0.0529617777736536,-0.711120321940693
0.0107698653414554,-0.679999353936492
0.0913657383144256,-0.708349237785466
0.088574316671728,-0.814683177947425
