-0.243624484226761,0.607939270288058
-0.244839053516372,0.596566769415403
-0.245996253355488,0.585255622869218
-0.247096404600893,0.574005675664866
-0.248139828109371,0.562816772817711
-0.249126844737706,0.551688759343114
-0.250057775342682,0.540621480256437
-0.250932940781082,0.529614780573043
-0.251752661909692,0.518668505308295
-0.252517259585296,0.507782499477555
-0.253227054664676,0.496956608096185
-0.253882368004617,0.486190676179548
-0.254483520461904,0.475484548743005
-0.25503083289332,0.464838070801921
-0.255524626155649,0.454251087371656
-0.255965221105676,0.443723443467573
-0.256352938600184,0.433254984105035
-0.256688099495958,0.422845554299404
-0.25697102464978,0.412494999066043
-0.257202034918437,0.402203163420313
-0.257381451158711,0.391969892377578
-0.257509594227387,0.3817950309532
-0.257586784981248,0.37167842416254
-0.257613344277079,0.361619917020962
-0.257589592971663,0.351619354543829
-0.257515851921786,0.341676581746501
-0.25739244198423,0.331791443644342
-0.25721968401578,0.321963785252714
-0.256997898873219,0.31219345158698
-0.256727407413333,0.302480287662502
-0.256408530492905,0.292824138494642
-0.256041588968718,0.283224849098763
-0.255626903697558,0.273682264490227
-0.255164795536208,0.264196229684396
-0.254655585341451,0.254766589696634
-0.254099593970073,0.245393189542302
-0.253497142278857,0.236075874236762
-0.252848551124588,0.226814488795378
-0.252154141364048,0.217608878233512
-0.251414233854023,0.208458887566525
-0.250629149451296,0.199364361809781
-0.249799209012652,0.190325145978642
-0.248924733394874,0.181341085088469
-0.248006043454746,0.172412024154627
-0.247043460049053,0.163537808192476
-0.246037304034578,0.15471828221738
-0.244987896268106,0.1459532912447
-0.24389555760642,0.1372426802898
-0.242760608906306,0.128586294368042
-0.241583371024546,0.119983978494787
-0.240364164817924,0.111435577685399
-0.239103311143225,0.10294093695524
-0.237801130857233,0.0944999013196718
-0.236457944816732,0.0861123157940575
-0.235074073878506,0.0777780253937592
-0.233649838899339,0.0694968751341393
-0.232185560736014,0.0612687100305603
-0.230681560245317,0.0530933750983846
-0.229138158284031,0.0449707153529745
-0.227555675708939,0.0369005758096925
-0.225934433376827,0.0288828014839009
-0.224274752144478,0.0209172373909624
-0.222576952868676,0.013003728546239
-0.220841356406205,0.00514211996509331
-0.21906828361385,-0.00266774333711228
-0.217258055348394,-0.0104260163450153
-0.215410992466621,-0.0181328540432536
-0.213527415825316,-0.0257884114164645
-0.211607646281262,-0.0333928434492856
-0.209652004691243,-0.0409463051263547
-0.207660811912044,-0.0484489514323092
-0.205634388800449,-0.0559009373517868
-0.203573056213241,-0.0633024178694251
-0.201477135007205,-0.0706535479698616
-0.199346946039124,-0.077954482637734
-0.197182810165783,-0.0852053768576799
-0.194985048243966,-0.0924063856143369
-0.192753981130456,-0.0995576638923424
-0.190489929682038,-0.106659366676334
-0.188193214755496,-0.11371164895095
-0.185864157207614,-0.120714665700827
-0.183503077895176,-0.127668571910603
-0.181110297674966,-0.134573522564916
-0.178686137403768,-0.141429672648403
-0.176230917938366,-0.148237177145702
-0.173744960135544,-0.15499619104145
-0.171228584852086,-0.161706869320285
-0.168682112944776,-0.168369366966845
-0.166105865270399,-0.174983838965767
-0.163500162685738,-0.181550440301689
-0.160865326047577,-0.188069325959248
-0.1582016762127,-0.194540650923083
-0.155509534037891,-0.200964570177829
-0.152789220379935,-0.207341238708126
-0.150041056095616,-0.213670811498611
-0.147265362041717,-0.219953443533921
-0.144462459075022,-0.226189289798694
-0.141632668052316,-0.232378505277568
-0.138776309830382,-0.23852124495518
-0.135893705266005,-0.244617663816168
-0.132985175215969,-0.250667916845169
-0.130051040537058,-0.256672159026821
-0.127091622086055,-0.262630545345761
-0.124107240719745,-0.268543230786628
-0.121098217294912,-0.274410370334058
-0.118064872668339,-0.280232118972689
-0.115007527696812,-0.28600863168716
-0.111926503237113,-0.291740063462107
-0.108822120146028,-0.297426569282168
-0.105694699280339,-0.303068304131981
-0.102544561496831,-0.308665422996184
-0.099372027652289,-0.314218080859413
-0.0961774186034957,-0.319726432706306
-0.0929610552072356,-0.325190633521502
-0.0897232583202926,-0.330610838289638
-0.0864643487994508,-0.33598720199535
-0.0831846475014944,-0.341319879623278
-0.0798844752832073,-0.346609026158058
-0.0765641530013735,-0.351854796584328
-0.0732240015127771,-0.357057345886726
-0.0698643416742022,-0.362216829049889
-0.0664854943424328,-0.367333401058455
-0.0630877803742527,-0.372407216897061
-0.0596715206264463,-0.377438431550346
-0.0562370359557975,-0.382427200002946
-0.0527846472190904,-0.387373677239499
-0.0493146752731088,-0.392278018244644
-0.045827440974637,-0.397140378003016
-0.0423232651804589,-0.401960911499255
-0.0388024687473587,-0.406739773717997
-0.0352653725321201,-0.411477119643881
-0.0317122973915275,-0.416173104261543
-0.0281435641823648,-0.420827882555622
-0.0245594937614161,-0.425441609510754
-0.0209604069854653,-0.430014440111579
-0.0173466247112965,-0.434546529342732
-0.0137184677956938,-0.439038032188853
-0.0100762570954411,-0.443489103634577
-0.00642031346732261,-0.447899898664544
-0.00275095776812229,-0.452270572263391
0.000931489145375802,-0.456601279415754
0.00462670641638765,-0.460892175106272
0.00833437318812921,-0.465143414319583
0.0120541686038165,-0.469355152040324
0.0157857718066653,-0.473527543253132
0.0195288619398918,-0.477660742942645
0.0232831181467119,-0.481754906093501
0.0270482195703415,-0.485810187690338
0.0308238453539965,-0.489826742717792
0.0346096746408928,-0.493804726160502
0.0384053865742467,-0.497744293003105
0.042210660297274,-0.501645598230239
0.0460251749531905,-0.505508796826541
0.0498486096852123,-0.509334043776649
0.0536806436365554,-0.5131214940652
0.0575209559504358,-0.516871302676833
0.0613692257700692,-0.520583624596184
0.0652251322386717,-0.524258614807892
0.0690883544994594,-0.527896428296594
0.0729585716956482,-0.531497220046927
0.0768354629704539,-0.535061145043529
0.0807187074670926,-0.538588358271038
0.0846079843287802,-0.542079014714091
0.0885029726987328,-0.545533269357326
0.0924033517201661,-0.548951277185381
0.0963088005362963,-0.552333193182892
0.100218998290339,-0.555679172334498
0.104133624125511,-0.558989369624837
0.108052357185028,-0.562263940038545
0.111974876612105,-0.565503038560261
0.115900861549958,-0.568706820174622
0.119829991141805,-0.571875439866265
0.123761944530859,-0.575009052619829
0.127696400860339,-0.578107813419951
0.131633039273459,-0.581171877251268
0.135571538913435,-0.584201399098418
0.139511578923484,-0.587196533946039
0.14345283844682,-0.590157436778767
0.147394996626662,-0.593084262581242
0.151337732606223,-0.5959771663381
0.155280725528721,-0.598836303033979
0.159223654537371,-0.601661827653517
0.163166198775389,-0.604453895181351
0.167108037385992,-0.607212660602119
0.171048849512394,-0.609938278900458
0.174988314297812,-0.612630905061006
0.178926110885463,-0.615290694068401
0.182861918418561,-0.617917800907279
0.186795416040324,-0.62051238056228
0.190726282893966,-0.62307458801804
0.194654198122704,-0.625604578259197
0.198578840869753,-0.628102506270388
0.202499890278331,-0.630568527036252
0.206417025491652,-0.633002795541426
0.210329925652933,-0.635405466770546
0.21423826990539,-0.637776695708252
0.218141737392238,-0.64011663733918
0.222040007256694,-0.642425446647969
0.225932758641974,-0.644703278619255
0.229819670691293,-0.646950288237676
0.233700422547867,-0.649166630487871
0.237574693354913,-0.651352460354476
0.241442162255646,-0.653507932822128
0.245302508393282,-0.655633202875467
0.249155410911038,-0.657728425499129
0.253000548952129,-0.659793755677752
0.256837601659771,-0.661829348395973
0.260666248177181,-0.663835358638431
0.264486167647574,-0.665811941389762
0.268297039214165,-0.667759251634604
0.272098542020172,-0.669677444357596
0.27589035520881,-0.671566674543374
0.279672157923295,-0.673427097176575
0.283443629306843,-0.675258867241839
0.287204448502669,-0.677062139723802
0.290954294653991,-0.678837069607101
0.294692846904023,-0.680583811876375
0.298419784395982,-0.682302521516262
0.302134786273084,-0.683993353511397
0.305837531678545,-0.68565646284642
0.30952769975558,-0.687292004505968
0.313204969647406,-0.688900133474678
0.316869020497239,-0.690481004737189
0.320519531448294,-0.692034773278137
0.324156181643788,-0.69356159408216
0.327778650226936,-0.695061622133896
0.331386616340954,-0.696535012417982
0.334979759129059,-0.697981919919057
0.338557757734467,-0.699402499621756
0.342120291300393,-0.70079690651072
0.345667038970053,-0.702165295570583
0.349197679886663,-0.703507821785986
0.352711893193439,-0.704824640141564
0.356209358033598,-0.706115905621956
0.359689753550355,-0.707381773211799
0.363152758886926,-0.708622397895731
0.366598053186527,-0.709837934658389
0.370025315592374,-0.711028538484411
0.373434225247683,-0.712194364358435
0.376824461295669,-0.713335567265098
0.38019570287955,-0.714452302189038
0.383547629142541,-0.715544724114892
0.386879919227857,-0.716612988027298
0.390192252278716,-0.717657248910893
0.393484307438332,-0.718677661750315
0.396755763849921,-0.719674381530203
0.400006300656701,-0.720647563235192
0.403235597001886,-0.721597361849922
0.406443332028692,-0.722523932359029
0.409629184880337,-0.723427429747151
0.412792834700034,-0.724308008998926
0.415933960631002,-0.725165825098991
0.419052241816454,-0.726001033031984
0.422147357399608,-0.726813787782543
0.425218986523679,-0.727604244335304
0.428266808331884,-0.728372557674907
0.431290501967438,-0.729118882785987
0.434289746573557,-0.729843374653184
0.437264221293458,-0.730546188261134
0.440213605270355,-0.731227478594475
0.443137577647466,-0.731887400637844
0.446035817568006,-0.73252610937588
0.448908004175191,-0.73314375979322
0.451753816612237,-0.733740506874501
0.454572934022359,-0.734316505604361
0.457365035548775,-0.734871910967438
0.4601298003347,-0.73540687794837
0.462866907523349,-0.735921561531792
0.46557603625794,-0.736416116702345
0.468256865681687,-0.736890698444664
0.470909074937806,-0.737345461743388
0.473532343169515,-0.737780561583155
0.476126349520028,-0.738196152948601
0.478690773132562,-0.738592390824364
0.481225293150332,-0.738969430195083
0.483729588716555,-0.739327426045394
0.486203338974447,-0.739666533359935
0.488646223067223,-0.739986907123344
0.491057920138099,-0.740288702320258
0.493438109330292,-0.740572073935316
0.495786469787017,-0.740837176953154
0.49810268065149,-0.74108416635841
0.500386421066928,-0.741313197135722
0.502637370176546,-0.741524424269727
0.50485520712356,-0.741718002745063
0.507039611051186,-0.741894087546368
0.50919026110264,-0.742052833658279
0.511306836421139,-0.742194396065434
0.513389016149897,-0.74231892975247
0.515436479432132,-0.742426589704025
0.517448905411058,-0.742517530904736
0.519425973229892,-0.742591908339242
0.521367362031851,-0.742649876992179
0.523272750960149,-0.742691591848186
0.525141819158003,-0.742717207891899
0.526974245768628,-0.742726880107957
0.528769709935242,-0.742720763480998
0.530527890801059,-0.742699012995658
0.532248467509296,-0.742661783636575
0.533931119203168,-0.742609230388387
0.535575525025892,-0.742541508235731
0.537181364120683,-0.742458772163246
0.538748315630758,-0.742361177155568
0.540276058699333,-0.742248878197336
0.541764272469622,-0.742122030273186
0.543212636084843,-0.741980788367757
0.544620828688212,-0.741825307465686
0.545988529422944,-0.741655742551611
0.547315417432255,-0.741472248610169
0.548601171859361,-0.741274980625998
0.549845471847479,-0.741064093583735
0.551047996539823,-0.740839742468018
0.552208425079611,-0.740602082263485
0.553326436610058,-0.740351267954773
0.55440171027438,-0.74008745452652
0.555433925215792,-0.739810796963364
0.556422760577512,-0.739521450249941
0.557367895502755,-0.73921956937089
0.558269009134736,-0.738905309310848
0.559125780616673,-0.738578825054453
0.55993788909178,-0.738240271586343
0.560705013703274,-0.737889803891154
0.561426833594371,-0.737527576953525
0.562103027908286,-0.737153745758093
0.562733275788236,-0.736768465289496
0.563317256377436,-0.736371890532372
0.563854648819104,-0.735964176471357
0.564345132256453,-0.73554547809109
0.564788385832701,-0.735115950376208
0.565184088691064,-0.734675748311349
0.565531919974757,-0.73422502688115
0.565831558826996,-0.733763941070249
0.566082684390998,-0.733292645863284
0.566284975809978,-0.732811296244892
0.566438112227152,-0.732320047199711
0.566541772785737,-0.731819053712377
0.566595636628947,-0.73130847076753
0.5665993829,-0.730788453349807
0.566552690742111,-0.730259156443844
0.566455239298496,-0.72972073503428
0.566306707712371,-0.729173344105753
0.566106775126952,-0.7286171386429
0.565855120685454,-0.728052273630358
0.565551423531095,-0.727478904052765
0.56519536280709,-0.726897184894759
0.564786617656654,-0.726307271140977
0.564324867223004,-0.725709317776057
0.563809790649356,-0.725103479784636
0.563241067078926,-0.724489912151352
0.562618375654929,-0.723868769860844
0.561941395520582,-0.723240207897747
0.561209805819101,-0.722604381246701
0.560423285693701,-0.721961444892341
0.559581514287599,-0.721311553819307
0.55868417074401,-0.720654863012236
0.55773093420615,-0.719991527455765
0.556721483817236,-0.719321702134531
0.555655498720483,-0.718645542033173
0.554532658059108,-0.717963202136328
0.553352640976326,-0.717274837428634
0.552115126615353,-0.716580602894728
0.550819794119405,-0.715880653519248
0.549466322631699,-0.715175144286831
0.548054391295449,-0.714464230182116
0.546583679253873,-0.713748066189738
0.545053865650186,-0.713026807294338
0.543464629627604,-0.71230060848055
0.541815650329342,-0.711569624733015
0.540106606898618,-0.710834011036368
0.538337178478646,-0.710093922375248
0.536507044212644,-0.709349513734292
0.534615883243826,-0.708600940098137
0.532663374715409,-0.707848356451423
0.530649197770609,-0.707091917778785
0.528573031552641,-0.706331779064862
0.526434555204722,-0.705568095294291
0.524233447870068,-0.704801021451709
0.521969388691894,-0.704030712521755
0.519642056813417,-0.703257323489066
0.517251131377852,-0.70248100933828
0.514796291528416,-0.701701925054033
0.512277216408324,-0.700920225620965
0.509693585160793,-0.700136066023711
0.507045076929038,-0.699349601246911
0.504331370856275,-0.698560986275201
0.50155214608572,-0.69777037609322
0.49870708176059,-0.696977925685604
0.4957958570241,-0.696183790036991
0.492818151019466,-0.695388124132019
0.489773642889904,-0.694591082955326
0.486662011778631,-0.693792821491549
0.483482936828861,-0.692993494725325
0.480236097183811,-0.692193257641293
0.476921171986697,-0.69139226522409
0.473537840380736,-0.690590672458353
0.470085781509142,-0.689788634328721
0.466564674515132,-0.68898630581983
0.462974198541921,-0.688183841916318
0.459314032732727,-0.687381397602823
0.455583856230764,-0.686579127863983
