0.942035973105831,0.948023822895133
0.0281262005749108,-0.651970921758654
-0.378829366634183,0.908380367130477
-0.0539941435233082,0.25473823790896
0.270841079587566,-0.398903891312558
-0.653842444586332,0.0807992794990506
-0.553864228871359,-0.213376951828845
