-0.958840525217382,0.11434672580328
-0.958556083268258,0.114773105830531
-0.958212418621923,0.115225394174479
-0.957809834568851,0.115703392157797
-0.957348634399518,0.116206901103154
-0.956829121404398,0.116735722333223
-0.956251598873965,0.117289657170672
-0.955616370098694,0.117868506938174
-0.954923738369061,0.118472072958398
-0.954174006975539,0.119100156554016
-0.953367479208604,0.119752559047699
-0.952504458358731,0.120429081762116
-0.951585247716395,0.121129526019939
-0.950610150572069,0.121853693143839
-0.949579470216229,0.122601384456486
-0.94849350993935,0.123372401280551
-0.947352573031907,0.124166544938704
-0.946156962784373,0.124983616753617
-0.944906982487225,0.12582341804796
-0.943602935430936,0.126685750144404
-0.942245124905982,0.12757041436562
-0.940833854202838,0.128477212034278
-0.939369426611978,0.129405944473049
-0.937852145423876,0.130356413004604
-0.936282313929009,0.131328418951614
-0.93466023541785,0.132321763636749
-0.932986213180874,0.13333624838268
-0.931260550508556,0.134371674512077
-0.929483550691371,0.135427843347612
-0.927655517019794,0.136504556211956
-0.925776752784299,0.137601614427778
-0.923847561275361,0.13871881931775
-0.921868245783456,0.139855972204543
-0.919839109599057,0.141012874410826
-0.91776045601264,0.142189327259272
-0.915632588314679,0.14338513207255
-0.913455809795649,0.144600090173332
-0.911230423746025,0.145834002884287
-0.908956733456282,0.147086671528088
-0.906635042216895,0.148357897427404
-0.904265653318337,0.149647481904906
-0.901848870051085,0.150955226283265
-0.899384995705612,0.152280931885152
-0.896874333572394,0.153624400033238
-0.894317186941906,0.154985432050193
-0.891713859104622,0.156363829258688
-0.889064653351017,0.157759392981393
-0.886369872971565,0.15917192454098
-0.883629821256742,0.16060122526012
-0.880844801497022,0.162047096461482
-0.878015116982881,0.163509339467737
-0.875141071004792,0.164987755601557
-0.872222966853231,0.166482146185612
-0.869261107818673,0.167992312542573
-0.866255797191591,0.169518055995111
-0.863207338262462,0.171059177865896
-0.860116034321759,0.172615479477599
-0.856982188659958,0.17418676215289
-0.853806104567534,0.175772827214442
-0.85058808533496,0.177373475984923
-0.847328434252713,0.178988509787005
-0.844027454611266,0.18061772994336
-0.840685449701095,0.182260937776656
-0.837302722812674,0.183917934609566
-0.833879577236478,0.185588521764759
-0.830416316262982,0.187272500564908
-0.826913243182661,0.188969672332681
-0.823370661285988,0.190679838390751
-0.819788873863441,0.192402800061787
-0.816168184205492,0.194138358668461
-0.812508895602617,0.195886315533444
-0.80881131134529,0.197646471979405
-0.805075734723987,0.199418629329017
-0.801302469029183,0.201202588904948
-0.79749181755135,0.202998152029871
-0.793644083580966,0.204805120026456
-0.789759570408504,0.206623294217374
-0.785838581324439,0.208452475925295
-0.781881419619246,0.21029246647289
-0.777888388583401,0.21214306718283
-0.773859791507376,0.214004079377786
-0.769795931681649,0.215875304380428
-0.765697112396692,0.217756543513427
-0.761563636942981,0.219647598099455
-0.757395808610991,0.22154826946118
-0.753193930691197,0.223458358921275
-0.748958306474073,0.22537766780241
-0.744689239250093,0.227305997427256
-0.740387032309734,0.229243149118483
-0.73605198894347,0.231188924198763
-0.731684412441775,0.233143123990765
-0.727284606095123,0.235105549817162
-0.722852873193992,0.237076003000622
-0.718389517028854,0.239054284863818
-0.713894840890184,0.24104019672942
-0.709369148068458,0.243033539920098
-0.70481274185415,0.245034115758524
-0.700225925537735,0.247041725567368
-0.695609002409687,0.249056170669301
-0.690962275760482,0.251077252386993
-0.686286048880595,0.253104772043115
-0.681580625060499,0.255138530960339
-0.67684630759067,0.257178330461335
-0.672083399761583,0.259223971868772
-0.667292204863713,0.261275256505324
-0.662473026187533,0.263331985693659
-0.65762616702352,0.265393960756448
-0.652751930662147,0.267460983016364
-0.64785062039389,0.269532853796075
-0.642922539509223,0.271609374418254
-0.637967991298621,0.27369034620557
-0.632987279052559,0.275775570480694
-0.627980706061512,0.277864848566297
-0.622948575615954,0.279957981785051
-0.61789119100636,0.282054771459625
-0.612808855523206,0.28415501891269
-0.607701872456965,0.286258525466917
-0.602570545098113,0.288365092444977
-0.597415176737124,0.290474521169541
-0.592236070664473,0.292586612963278
-0.587033530170636,0.294701169148861
-0.581807858546086,0.29681799104896
-0.576559359081298,0.298936879986245
-0.571288335066748,0.301057637283387
-0.56599508979291,0.303180064263057
-0.560679926550259,0.305303962247925
-0.555343148629269,0.307429132560663
-0.549985059320416,0.309555376523941
-0.544605961914174,0.31168249546043
-0.539206159701018,0.313810290692801
-0.533785955971423,0.315938563543724
-0.528345654015863,0.31806711533587
-0.522885557124814,0.320195747391909
-0.51740596858875,0.322324261034514
-0.511907191698145,0.324452457586353
-0.506389529743475,0.326580138370098
-0.500853286015216,0.328707104708421
-0.49529876380384,0.33083315792399
-0.489726266399823,0.332958099339478
-0.48413609709364,0.335081730277555
-0.478528559175765,0.337203852060891
-0.472903955936674,0.339324266012158
-0.467262590666842,0.341442773454026
-0.461604766656742,0.343559175709165
-0.45593078719685,0.345673274100247
-0.45024095557764,0.347784869949943
-0.444535575089588,0.349893764580922
-0.438814949023167,0.351999759315857
-0.433079380668854,0.354102655477417
-0.427329173317123,0.356202254388273
-0.421564630258447,0.358298357371096
-0.415786054783303,0.360390765748557
-0.409993750182165,0.362479280843326
-0.404188019745508,0.364563703978075
-0.398369166763806,0.366643836475473
-0.392537494527535,0.368719479658192
-0.386693306327169,0.370790434848902
-0.380836905453183,0.372856503370275
-0.374968595196051,0.37491748654498
-0.369088678846249,0.376973185695689
-0.363197459694251,0.379023402145072
-0.357295241030533,0.381067937215801
-0.351382326145568,0.383106592230545
-0.345459018329832,0.385139168511975
-0.339525620873799,0.387165467382763
-0.333582437067944,0.389185290165579
-0.327629770202743,0.391198438183093
-0.321667923568669,0.393204712757977
-0.315697200456198,0.395203915212902
-0.309717904155804,0.397195846870537
-0.303730337957962,0.399180309053553
-0.297734805153147,0.401157103084622
-0.291731609031833,0.403126030286415
-0.285721052884497,0.405086891981601
-0.279703440001611,0.407039489492851
-0.273679073673651,0.408983624142837
-0.267648257191092,0.410919097254229
-0.261611293844409,0.412845710149698
-0.255568486924076,0.414763264151914
-0.249520139720569,0.416671560583549
-0.243466555524361,0.418570400767273
-0.237408037625928,0.420459586025756
-0.231344889315745,0.42233891768167
-0.225277413884285,0.424208197057684
-0.219205914622025,0.426067225476471
-0.213130694819439,0.427915804260701
-0.207052057767001,0.429753734733044
-0.200970306755187,0.431580818216171
-0.194885745074471,0.433396856032752
-0.188798676015328,0.43520164950546
-0.182709402868233,0.436994999956964
-0.17661822892366,0.438776708709934
-0.170525457472085,0.440546577087043
-0.164431391803982,0.44230440641096
-0.158336335209826,0.444049998004356
-0.152240590980091,0.445783153189903
-0.146144462405253,0.44750367329027
-0.140048252775786,0.449211359628128
-0.133952265382165,0.450906013526149
-0.127856803514865,0.452587436307002
-0.121762170464361,0.45425542929336
-0.115668669521127,0.455909793807891
-0.109576603975638,0.457550331173268
-0.103486277118369,0.459176842712161
-0.0973979922397955,0.46078912974724
-0.0913120526303907,0.462386993601176
-0.0852287615806307,0.463970235596641
-0.0791484223809894,0.465538657056304
-0.0730713383219423,0.467092059302837
-0.0669978126939635,0.46863024365891
-0.0609281487875285,0.470153011447194
-0.0548626498931114,0.47166016399036
-0.0488016193011877,0.473151502611078
-0.0427453603022315,0.47462682863202
-0.036694176186718,0.476085943375855
-0.0306483702451217,0.477528648165255
-0.0246082457679178,0.478954744322891
-0.0185741060455806,0.480364033171432
-0.0125462543685853,0.481756316033551
-0.00652499402740622,0.483131394231917
-0.000510628312518718,0.484489069089201
0.00549653948560302,0.485829141928074
0.0114962060764836,0.487151414071207
0.0174880681696488,0.488455686841271
0.0234718224746233,0.489741761560936
0.029447165700933,0.491009439552873
0.0354137945581023,0.492258522139753
0.0413714057556572,0.493488810644246
0.0473196960031223,0.494700106389023
0.0532583620100232,0.495892210696755
0.0591871004858849,0.497064924890113
0.0651056081402329,0.498218050291767
0.0710135816825919,0.499351388224389
0.0769107178224878,0.500464740010648
0.0827967132694451,0.501557906973216
0.0886712647329897,0.502630690434763
0.0945340689226462,0.50368289171796
0.10038482254794,0.504714312145478
0.106223222318397,0.505724753039988
0.112048964943542,0.506714015724159
0.117861747132899,0.507681901520664
0.123661265595995,0.508628211752172
0.129447217042354,0.509552747741356
0.135219298181502,0.510455310810884
0.140977205722964,0.511335702283428
0.146720636376265,0.512193723481658
0.152449286850931,0.513029175728246
0.158162853856486,0.513841860345863
0.163861034102455,0.514631578657178
0.169543524298365,0.515398131984862
0.17521002115374,0.516141321651587
0.180860221378106,0.516860948980023
0.186493821680987,0.517556815292841
0.192110518771909,0.518228721912712
0.197710009360397,0.518876470162305
0.203291990155976,0.519499861364293
0.208856157868172,0.520098696841345
0.21440220920651,0.520672777916133
0.219929840880514,0.521221905911327
0.225438749599711,0.521745882149598
0.230928632073625,0.522244507953617
0.236399185011782,0.522717584646054
0.241850105123706,0.52316491354958
0.247281089118924,0.523586295986866
0.25269183370696,0.523981533280582
0.258082035597339,0.5243504267534
0.263451391499587,0.52469277772799
0.268799598123229,0.525008387527023
0.27412635217779,0.525297057473169
0.279431350372795,0.525558588889099
0.28471428941777,0.525792783097485
0.28997486602224,0.525999441420996
0.295212776895729,0.526178365182304
0.300427718747764,0.526329355704079
0.305619388287869,0.526452214308992
0.31078748222557,0.526546742319713
0.315931697270392,0.526612741058914
0.32105173013186,0.526650011849265
0.326147277519499,0.526658356013437
0.331218036142835,0.5266375748741
0.336263702711392,0.526587469753926
0.341283973934696,0.526507841975585
0.346278546522273,0.526398492861748
0.351247117183646,0.526259223735085
0.356189382628343,0.526089835918267
0.361105039565887,0.525890130733966
0.365993784705804,0.525659909504851
0.37085531475762,0.525398973553593
0.375689326430858,0.525107124202864
0.380495516435046,0.524784162775334
0.385273581479707,0.524429890593673
0.390023218274368,0.524044108980553
0.394744123528553,0.523626619258644
0.399435993951787,0.523177222750617
0.404098526253596,0.522695720779142
0.408731417143505,0.522181914666891
0.41333436333104,0.521635605736534
0.417907061525724,0.521056595310741
0.422449208437085,0.520444684712184
0.426960500774646,0.519799675263534
0.431440635247933,0.51912136828746
0.435889308566471,0.518409565106634
0.440306217439786,0.517664067043727
0.444691058577403,0.516884675421408
0.449043528688847,0.51607119156235
0.453363324483642,0.515223416789223
0.457650142671315,0.514341152424696
0.461903679961391,0.513424199791442
0.466123633063394,0.512472360212131
0.470309698686851,0.511485435009433
0.474461573541285,0.51046322550602
0.478578954336223,0.509405533024562
0.48266153778119,0.508312158887729
0.486709020585711,0.507182904418193
0.49072109945931,0.506017570938625
0.494697471111514,0.504815959771694
0.498637832251847,0.503577872240072
0.502541879589836,0.50230310966643
0.506409309835004,0.500991473373437
0.510239819696877,0.499642764683766
0.514033105884981,0.498256784920086
0.51778886510884,0.496833335405069
0.52150679407798,0.495372217461385
0.525186589501926,0.493873232411705
0.528827948090204,0.492336181578699
0.532430566552338,0.490760866285039
0.535994141597853,0.489147087853394
0.539518369936276,0.487494647606437
0.54300294827713,0.485803346866837
0.546447573329942,0.484072986957265
0.549851941804236,0.482303369200393
0.553215750409539,0.48049429491889
0.556538695855374,0.478645565435427
0.559820474851267,0.476756982072676
0.563060784106744,0.474828346153307
0.56625932033133,0.47285945899999
0.569415780234549,0.470850121935397
0.572529860525927,0.468800136282198
0.57560125791499,0.466709303363063
0.578629669111262,0.464577424500665
0.581614790824269,0.462404301017672
0.584556319763536,0.460189734236757
0.587453952638587,0.45793352548059
0.59030738615895,0.455635476071841
0.593116317034147,0.453295387333181
0.595880441973706,0.450913060587281
0.598599457687151,0.448488297156812
0.601273060884007,0.446020898364445
0.603900948273799,0.44351066553285
0.606482816566053,0.440957399984697
0.609018362470294,0.438360903042659
0.611507282696047,0.435720976029404
0.613949273952837,0.433037420267605
0.61634403295019,0.430310037079932
0.618691256397631,0.427538627789056
0.620990641004684,0.424722993717646
0.623241883480876,0.421862936188375
0.625444680535731,0.418958256523913
0.627598728878775,0.41600875604693
0.629703725219533,0.413014236080097
0.631759366267529,0.409974497946086
0.63376534873229,0.406889342967566
0.63572136932334,0.403758572467208
0.637627124750206,0.400581987767684
0.639482311722411,0.397359390191664
0.641286626949481,0.394090581061818
0.643039767140941,0.390775361700818
0.644741429006317,0.387413533431334
0.646391309255134,0.384004897576037
0.647989104596917,0.380549255457597
0.649534511741191,0.377046408398686
0.651027227397481,0.373496157721974
0.652466948275313,0.369898304750132
0.653853371084212,0.36625265080583
0.655186192533703,0.362558997211739
0.656465109333312,0.358817145290531
0.657689818192562,0.355026896364875
0.658860015820981,0.351188051757442
0.659975398928093,0.347300412790904
0.661035664223422,0.343363780787931
0.662040508416495,0.339377957071194
0.662989628216837,0.335342742963363
0.663882720333973,0.331257939787109
0.664719481477427,0.327123348865102
0.665499608356726,0.322938771520015
0.666222797681394,0.318704009074517
0.666888746160957,0.314418862851279
0.66749715050494,0.310083134172972
0.668047707422868,0.305696624362266
0.668540113624266,0.301259134741832
0.66897406581866,0.296770466634342
0.669349260715574,0.292230421362465
0.669665395024535,0.287638800248873
0.669922165455066,0.282995404616236
0.670119268716694,0.278300035787225
0.670256401518944,0.27355249508451
0.670333260571341,0.268752583830764
0.67034954258341,0.263900103348655
0.670304944264675,0.258994854960855
0.670199162324664,0.254036639990034
0.670199162324664,0.254036639990034
0.670035715402745,0.249065574829945
0.669818536770807,0.244121940011248
0.669547945087151,0.239205783061979
0.669224259010079,0.234317151510172
0.668847797197892,0.229456092883862
0.668418878308891,0.224622654711085
0.667937821001376,0.219816884519874
0.667404943933652,0.215038829838266
0.666820565764017,0.210288538194295
0.666185005150774,0.205566057115996
0.665498580752223,0.200871434131404
0.664761611226667,0.196204716768554
0.663974415232406,0.191565952555481
0.663137311427743,0.18695518902022
0.662250618470977,0.182372473690805
0.661314655020412,0.177817854095273
0.660329739734347,0.173291377761657
0.659296191271084,0.168793092217993
0.658214328288925,0.164323044992315
0.657084469446171,0.159881283612659
0.655906933401124,0.15546785560706
0.654682038812084,0.151082808503552
0.653410104337353,0.146726189830171
0.652091448635232,0.142398047114951
0.650726390364023,0.138098427885927
0.649315248182028,0.133827379671135
0.647858340747546,0.129584949998609
0.646355986718881,0.125371186396385
0.644808504754332,0.121186136392496
0.643216213512202,0.117029847514979
0.641579431650792,0.112902367291868
0.639898477828403,0.108803743251198
0.638173670703336,0.104734022921004
0.636405328933893,0.100693253829321
0.634593771178376,0.096681483504184
0.632739316095085,0.0926987594736279
0.630842282342322,0.0887451292656877
0.628902988578387,0.0848206404083983
0.626921753461584,0.0809253404297946
0.624898895650212,0.0770592768579117
0.622834733802574,0.0732224972207845
0.62072958657697,0.0694150490464479
0.618583772631702,0.0656369798629369
0.616397610625072,0.0618883371982865
0.61417141921538,0.0581691685805316
0.611905517060928,0.0544795215377071
0.609600222820017,0.0508194435978481
0.60725585515095,0.0471889822889895
0.604872732712026,0.0435881851391662
0.602451174161547,0.0400170996764131
0.599991498157815,0.0364757734287653
0.597494023359131,0.0329642539242578
0.594959068423797,0.0294825886909254
0.592386952010113,0.0260308252568031
0.589777992776382,0.0226090111499258
0.587132509380904,0.0192171938983286
0.58445082048198,0.0158554210300464
0.581733244737913,0.0125237400731141
0.578980100807003,0.00922219855556669
0.576191707347552,0.00595084400543915
0.573368383017861,0.00270972395076642
0.570510446476232,-0.000501114080416587
0.567618216380965,-0.00368162256007487
0.564692011390363,-0.00683175396017344
0.561732150162727,-0.0099514607526774
0.558738951356357,-0.0130406954095518
0.555712733629555,-0.0160994104027616
0.552653815640623,-0.0191275582042719
0.549562516047862,-0.0221250912860479
0.546439153509573,-0.0250919621200543
0.543284046684058,-0.0280281231782565
0.540097514229618,-0.0309335269326193
0.536879874804554,-0.0338081258551078
0.533631447067167,-0.0366518724176871
0.53035254967576,-0.0394647190923222
0.527043501288633,-0.0422466183509781
0.523704620564088,-0.04499752266562
0.520336226160426,-0.0477173845082128
0.516938636735948,-0.0504061563507216
0.513512170948956,-0.0530637906651114
0.510057147457751,-0.0556902399233473
0.506573884920634,-0.0582854565973944
0.503062701995907,-0.0608493931592176
0.499523917341871,-0.0633820020807819
0.495957849616828,-0.0658832358340526
0.492364817479078,-0.0683530468909946
0.488745139586924,-0.0707913877235729
0.485099134598666,-0.0731982108037526
0.481427121172606,-0.0755734686034986
0.477729417967045,-0.0779171135947762
0.474006343640285,-0.0802290982495503
0.470258216850626,-0.082509375039786
0.466485356256371,-0.0847578964374483
0.46268808051582,-0.0869746149145022
0.458866708287275,-0.0891594829429128
0.455021558229038,-0.0913124529946452
0.451152948999409,-0.0934334775416643
0.44726119925669,-0.0955225090559353
0.443346627659182,-0.097579500009423
0.439409552865187,-0.0996044028740928
0.435450293533006,-0.10159717012191
0.43146916832094,-0.103557754224838
0.427466495887291,-0.105486107654844
0.42344259489036,-0.107382182883892
0.419397783988449,-0.109245932383947
0.415332381839858,-0.111077308626974
0.411246707102888,-0.112876264084938
0.407141078435843,-0.114642751229805
0.403015814497022,-0.116376722533539
0.398871233944728,-0.118078130468105
0.39470765543726,-0.119746927505469
0.390525397632922,-0.121383066117595
0.386324779190014,-0.122986498776449
0.382106118766837,-0.124557177953995
0.377869735021693,-0.126095056122199
0.373615946612883,-0.127600085753025
0.369345072198709,-0.129072219318439
0.365057430437471,-0.130511409290406
0.360753339987472,-0.13191760814089
0.356433119507012,-0.133290768341858
0.352097087654393,-0.134630842365273
0.347745563087917,-0.135937782683101
0.343378864465883,-0.137211541767307
0.338997310446595,-0.138452072089856
0.334601219688354,-0.139659326122713
0.330190910849459,-0.140833256337843
0.325766702588214,-0.141973815207211
0.321328913562919,-0.143080955202782
0.316877862431876,-0.144154628796522
0.312413867853386,-0.145194788460394
0.30793724848575,-0.146201386666365
0.30344832298727,-0.1471743758864
0.298947410016247,-0.148113708592462
0.294434828230982,-0.149019337256519
0.289910896289777,-0.149891214350533
0.285375932850933,-0.150729292346471
0.280830256572751,-0.151533523716298
0.276274186113533,-0.152303860931978
0.271708040131581,-0.153040256465477
0.267132137285195,-0.153742662788759
0.262546796232676,-0.154411032373791
0.257952335632327,-0.155045317692535
0.253349074142448,-0.155645471216959
0.248737330421341,-0.156211445419027
0.244117423127308,-0.156743192770704
0.239489670918649,-0.157240665743954
0.234854392453665,-0.157703816810744
0.230211906390659,-0.158132598443037
0.225562531387932,-0.1585269631128
0.220906586103784,-0.158886863291996
0.216244389196518,-0.159212251452592
0.211576259324434,-0.159503080066552
0.206902515145834,-0.159759301605842
0.20222347531902,-0.159980868542425
0.197539458502292,-0.160167733348268
0.192850783353952,-0.160319848495336
0.188157768532302,-0.160437166455593
0.183460732695642,-0.160519639701004
0.178759994502274,-0.160567220703535
0.1740558726105,-0.16057986193515
0.16934868567862,-0.160557515867815
0.164638752364937,-0.160500134973495
0.15992639132775,-0.160407671724154
0.155211921225363,-0.160280078591758
0.150495660716076,-0.160117308048272
0.14577792845819,-0.15991931256566
0.141059043110007,-0.159686044615889
0.136339323329828,-0.159417456670922
0.131619087775954,-0.159113501202726
0.126898655106688,-0.158774130683264
0.122178343980329,-0.158399297584502
0.11745847305518,-0.157988954378406
0.112739360989542,-0.15754305353694
0.108021326441716,-0.157061547532068
0.103304688070004,-0.156544388835757
0.0985897645327064,-0.155991529919972
0.0938768744881253,-0.155402923256677
0.0891663365945616,-0.154778521317837
0.0844584695103169,-0.154118276575417
0.0797535918936927,-0.153422141501383
0.07505202240299,-0.152690068567699
0.0703540796965102,-0.151922010246331
0.0656600824325547,-0.151117919009243
0.060970349269425,-0.150277747328401
0.0562851988654223,-0.14940144767577
0.0516049498788479,-0.148488972523314
0.0469299209680031,-0.147540274343
0.0422604307911896,-0.146555305606791
0.0375967980067084,-0.145534018786652
0.0329393412728608,-0.14447636635455
0.0282883792479484,-0.143382300782449
0.0236442305902725,-0.142251774542313
0.0190072139581343,-0.141084740106109
0.0143776480098352,-0.139881149945801
0.00975585140367657,-0.138640956533353
0.00514214279795977,-0.137364112340732
0.000536840850986237,-0.136050569839902
-0.00405973577894295,-0.134700281502829
-0.00864726843352634,-0.133313199801476
-0.0132254384544623,-0.13188927720781
-0.01779392718345,-0.130428466193796
-0.0223524159621875,-0.128930719231397
-0.026900586132374,-0.127395988792581
-0.0314381190357077,-0.12582422734931
-0.0359646960138878,-0.124215387373552
-0.0404799984086123,-0.122569421337269
-0.0449837075615804,-0.120886281712429
-0.0494755048144904,-0.119165920970995
-0.0539550715090412,-0.117408291584933
-0.0584220889869312,-0.115613346026208
-0.0628762385898594,-0.113781036766784
-0.0673172016595241,-0.111911316278627
-0.0717446595376243,-0.110004137033702
-0.0761582935658582,-0.108059451503975
-0.0805577850859249,-0.106077212161409
-0.0849428154395228,-0.10405737147797
-0.0893130659683507,-0.101999881925623
-0.093668218014107,-0.0999046959763335
-0.0980079529184908,-0.097771766102066
-0.1023319520232,-0.0956010447747858
-0.106639896669934,-0.0933924844664577
-0.110931468200392,-0.091146037649047
-0.115206347956271,-0.0888616567945185
-0.11946421727927,-0.0865392943748376
-0.123704757511089,-0.084178902861969
-0.127927649993426,-0.0817804347278779
-0.132132576067979,-0.0793438424445293
-0.136319217076447,-0.0768690784838883
-0.14048725436053,-0.0743560953179198
-0.144636369261924,-0.071804845418589
-0.148766243122329,-0.0692152812578609
-0.152876557283445,-0.0665873553077006
-0.156966993086968,-0.063921020040073
-0.161037231874599,-0.0612162279269433
-0.165086954988036,-0.0584729314402764
-0.169115843768976,-0.0556910830520375
-0.17312357955912,-0.0528706352341914
-0.177109843700166,-0.0500115404587035
-0.181074317533812,-0.0471137511975385
-0.185016682401756,-0.0441772199226617
-0.188936619645699,-0.0412018991060379
-0.192833810607338,-0.0381877412196323
-0.196707936628371,-0.0351346987354099
-0.200558679050499,-0.0320427241253359
-0.204385719215418,-0.0289117698613751
-0.208188738464828,-0.0257417884154928
-0.211967418140429,-0.0225327322596537
-0.215721439583917,-0.0192845538658232
-0.219450484136992,-0.015997205705966
-0.223154233141352,-0.0126706402520475
-0.226832367938697,-0.00930480997603247
-0.230484569870725,-0.00589966734988619
-0.234110520279134,-0.00245516484557343
-0.237709900505623,0.00102874506494047
-0.241282391891891,0.00455210990969077
-0.244827675779636,0.0081149772167122
-0.248345433510558,0.0117173945140399
-0.251835346426354,0.0153594093297085
-0.255297095868724,0.0190410691917534
-0.258730363179366,0.0227624216282091
-0.262134829699978,0.026523514167111
-0.26551017677226,0.0303243943364937
-0.26885608573791,0.0341651096643925
-0.272172237938627,0.0380457076788419
-0.275458314716109,0.0419662359078773
-0.278713997412055,0.0459267418795332
-0.281938967368163,0.0499272731218451
-0.285132905926133,0.0539678771628475
-0.288295494427663,0.0580486015305757
-0.291426414214452,0.0621694937530643
-0.294525346628198,0.0663306013583486
-0.297591973010599,0.0705319718744633
-0.300625974703355,0.0747736528294435
-0.303627033048165,0.079055691751324
-0.306594829386726,0.0833781361681401
-0.309529045060738,0.0877410336079262
-0.312429361411899,0.0921444315987179
-0.315295459781908,0.0965883776685496
-0.318127021512463,0.101072919345457
-0.320923727945264,0.105598104157474
-0.323685260422008,0.110163979632636
-0.326411300284395,0.114770593298978
-0.329101528874123,0.119417992684536
-0.331755627532891,0.124106225317343
-0.334373277602397,0.128835338725435
-0.33695416042434,0.133605380436847
-0.339497957340419,0.138416397979614
-0.342004349692333,0.143268438881771
-0.344473018821779,0.148161550671352
-0.346903646070457,0.153095780876394
-0.349295912780066,0.158071177024929
-0.351649500292303,0.163087786644995
-0.353964089948868,0.168145657264625
-0.35623936309146,0.173244836411854
-0.358475001061776,0.178385371614719
-0.360670685201516,0.183567310401252
-0.362826096852379,0.18879070029949
-0.364940917356062,0.194055588837467
-0.367014828054265,0.199362023543219
-0.369047510288686,0.204710051944779
-0.371038645401024,0.210099721570185
-0.372987914732977,0.215531079947469
-0.374894999626245,0.221004174604667
-0.376759581422526,0.226519053069814
-0.378581341463518,0.232075762870946
-0.38035996109092,0.237674351536096
-0.382095121646431,0.243314866593301
-0.38378650447175,0.248997355570594
-0.385433790908575,0.254721865996011
-0.387036662298604,0.260488445397587
-0.388594799983537,0.266297141303357
-0.390107885305072,0.272148001241356
-0.391575599604908,0.278041072739618
-0.392997624224743,0.283976403326179
-0.394373640506277,0.289954040529073
-0.395703329791207,0.295974031876336
-0.396986373421232,0.302036424896003
-0.398222452738051,0.308141267116108
-0.399411249083363,0.314288606064687
-0.400552443798867,0.320478489269773
-0.40164571822626,0.326710964259404
-0.402690753707242,0.332986078561612
-0.403687231583512,0.339303879704434
-0.404634833196767,0.345664415215904
-0.405533239888707,0.352067732624057
-0.40638213300103,0.358513879456928
-0.407181193875435,0.365002903242552
-0.40793010385362,0.371534851508964
-0.408628544277285,0.3781097717842
-0.409276196488128,0.384727711596293
-0.409872741827847,0.391388718473279
-0.410417861638142,0.398092839943193
-0.41091123726071,0.40484012353407
-0.41135255003725,0.411630616773944
-0.411741481309462,0.418464367190852
-0.412077712419044,0.425341422312827
-0.412360924707694,0.432261829667904
-0.412590799517111,0.439225636784119
-0.412767018188995,0.446232891189507
-0.412889262065042,0.453283640412103
-0.412957212486952,0.46037793197994
-0.412970550796425,0.467515813421055
-0.412928958335157,0.474697332263483
-0.412832116444849,0.481922536035257
-0.412679706467198,0.489191472264415
-0.412471409743904,0.496504188478989
-0.412206907616665,0.503860732207016
-0.411885881427179,0.511261150976529
-0.411508012517146,0.518705492315565
-0.411072982228263,0.526193803752158
-0.410580471902231,0.533726132814343
-0.410030162880746,0.541302527030154
-0.409421736505509,0.548923033927628
-0.408754874118217,0.556587701034799
-0.408029257060569,0.564296575879701
-0.407244566674264,0.57204970599037
-0.406400484301001,0.579847138894841
-0.405496691282478,0.587688922121149
-0.404532868960393,0.595575103197328
-0.403508698676447,0.603505729651414
-0.402423861772336,0.611480849011442
-0.40127803958976,0.619500508805446
-0.400070913470418,0.627564756561462
-0.398802164756008,0.635673639807523
-0.397471474788228,0.643827206071667
-0.396078524908778,0.652025502881927
-0.394622996459356,0.660268577766338
-0.393104570781661,0.668556478252935
-0.391522929217392,0.676889251869754
-0.389877753108246,0.685266946144828
-0.388168723795923,0.693689608606194
-0.386395522622121,0.702157286781886
-0.38455783092854,0.710670028199939
-0.382655330056877,0.719227880388388
-0.380687701348831,0.727830890875268
-0.378654626146101,0.736479107188614
-0.376555785790386,0.745172576856461
-0.374390861623385,0.753911347406843
-0.372159534986795,0.762695466367797
-0.369861487222316,0.771524981267356
-0.367496399671646,0.780399939633556
-0.365063953676484,0.789320388994431
-0.362563830578528,0.798286376878017
-0.359995711719478,0.807297950812349
-0.357359278441032,0.816355158325461
-0.354654212084888,0.825458046945388
-0.351880193992745,0.834606664200167
-0.349036905506302,0.84380105761783
-0.346124027967258,0.853041274726414
-0.343141242717311,0.862327363053953
-0.340088231098159,0.871659370128482
-0.336964674451502,0.881037343478036
-0.333770254119038,0.890461330630651
-0.330504651442466,0.899931379114361
-0.327167547763484,0.909447536457201
-0.323758624423792,0.919009850187205
-0.320277562765087,0.92861836783241
-0.316724044129068,0.93827313692085
-0.313097749857435,0.94797420498056
