0.258311962439805,-0.347559602389867
0.260138687645205,-0.338426273341529
0.235051338033913,-0.336065374625283
0.226605535221643,-0.342339401786495
0.211907456908252,-0.328719041436519
0.240232234596399,-0.347704196952572
0.21749077066995,-0.325876766865399
0.24356999447119,-0.289273163161704
0.196903910980685,-0.270921570046411
0.200012359149683,-0.296228409907913
0.205995992501948,-0.304239597730693
0.170082522996528,-0.283955908803287
0.198023613798228,-0.305676152038405
0.170030609737424,-0.261339920955964
0.195237286154715,-0.282959594528795
0.192660549271723,-0.277695329231297
0.184942625195316,-0.260880083406646
0.197166251476525,-0.234881440487924
0.18519697467313,-0.262036145641359
0.165315282919687,-0.224797432684588
0.180440692958482,-0.25170793793483
0.198510429227407,-0.262426482463383
0.19596996288819,-0.239624232041256
0.17816730691167,-0.256445596327181
0.161087137310197,-0.259954601493343
0.152132500130177,-0.239894218356297
0.167200828486436,-0.221256464336484
0.180032661337911,-0.202891386039063
0.137011844646327,-0.234584043850393
0.173342732536753,-0.217696185824544
0.159209639871089,-0.201399008682354
0.11852837106307,-0.185285685544115
0.155458033015051,-0.191603109521838
0.112908492080239,-0.192879775941861
0.153381766093636,-0.204013864701119
0.16685741227311,-0.169416038900264
0.151044100814277,-0.149167615431727
0.146772922953371,-0.167500165353552
0.122427244688624,-0.146881715343609
0.151839161905753,-0.179842328254247
0.132461544772537,-0.147199959028425
0.140520338539001,-0.148615034555733
0.110633349414991,-0.188309782282133
0.156940606811284,-0.111876518758296
0.146612009632584,-0.133576165055174
0.148102129089251,-0.127660862685322
0.121773016836212,-0.158297358331792
0.133705921194501,-0.130965104884935
0.146606708377768,-0.120783584002588
0.172321307397982,-0.0929973505582172
0.128615463369611,-0.107411115660906
0.183801469339757,-0.0880330451190105
0.126361545060071,-0.098496281226948
0.115089128797548,-0.0816639142100329
0.124245242698538,-0.0896691327780325
0.123238006992214,-0.0852884169066241
0.135650209651036,-0.0815306760193278
0.108810501578015,-0.103172516747217
0.134208972282828,-0.0851769359195903
0.14385443206813,-0.0588062985819574
0.149347469806411,-0.0941505653148116
0.166146587225558,-0.0735296315965546
0.146065672194959,-0.0559229063251881
0.117850890190452,-0.0603608001776374
0.115650633432313,-0.0468460044788276
0.0874907658676844,-0.0394154249518166
0.112472792006562,0.00575584397438701
0.11309876468322,-0.0303278792241777
0.0778330878913814,-0.0432558679107909
0.106137382233649,-0.0207067434841162
0.0893516239481361,-0.0335118475857178
0.117144735920174,-0.0423120505048858
0.0748978141163424,-0.0184140011980727
0.10658268144766,-0.0472579019382667
0.0891152963605863,-0.0160781766322292
0.140488152493707,0.0127637281370734
0.100220398817908,-0.0122081721970622
0.113287106773677,0.0176370255695424
0.108026944823716,0.0209537664653585
0.10103682238751,0.0138491618254429
0.107657767729336,0.0285180594576173
0.107512079851157,0.0322677633100423
0.152083603367604,0.0292023444524842
0.107297124420702,0.0397023335101667
0.121675795266896,0.0436894459365462
0.119311068378695,0.0892890752788117
0.0853316613512243,0.0637515079826017
0.108795313377469,0.0964837361685195
0.135743585347422,0.0373092141748184
0.104302781601299,0.0668674221759545
0.103712166243665,0.0724181684538518
0.0826660650064705,0.0765596395769408
0.124411001934002,0.0817280341092209
0.0988959372186139,0.0790342224726985
0.111681140430168,0.112391276046085
0.108721527689008,0.09271332681081
0.108993760009959,0.096075410445771
0.10667906035788,0.0960895731320288
0.0997223294077835,0.124617924264739
0.155874471897321,0.126223890691139
0.134719723797511,0.0944179316952747
0.138645489889124,0.0998820438282398
0.0861075570291229,0.0851439181585418
0.112337430569345,0.125370344820584
0.120371609480983,0.103754025658277
0.107262337908347,0.142725564005379
0.142911053437777,0.139188222034865
0.122718139730112,0.114502547110862
0.107358645109366,0.133353178161818
0.11539383536474,0.143938776299421
0.107499380341079,0.193801379482828
0.131286389574232,0.146667611306989
0.0964113121862931,0.148990222752647
0.112200069650451,0.174868898158066
0.129607447815084,0.17030448548635
0.0946842040302289,0.155169612717265
0.133678791056305,0.146783545431407
0.137685486348989,0.165446873988786
0.133867828960875,0.162132996277287
0.133154555591519,0.212432196415006
0.127100765083061,0.182482087245427
0.119798955598985,0.196146524766148
0.121528805079358,0.195452165962537
0.128479097436671,0.213086332552643
0.111845556572464,0.197630399805985
0.129130933370587,0.179727096308177
0.127071795006895,0.192391969770853
0.144575461003029,0.195394253047933
0.1449524370684,0.188885655603038
0.163599945989773,0.203745589150271
0.123786864765459,0.21126880242953
0.127769911021363,0.168619588193414
0.122460658281241,0.166608634697194
0.132945155916388,0.210565028638055
0.111542954869104,0.204185570906088
0.112732416537413,0.202021298883103
0.105275075541292,0.211957843430368
0.133302150805048,0.199386405389301
0.167448833333634,0.20849007540442
0.147458027332984,0.221798543470885
0.107252000359951,0.257886503292425
0.144081000884901,0.239318569628212
0.174004455369202,0.243224724077674
0.175857340655647,0.219205014186406
0.117997319456326,0.274263019321584
0.130959751124029,0.258027128014457
0.140061339284381,0.247730661859818
0.130756763673799,0.233777525633411
0.164467303792063,0.244440246183263
0.115576621080643,0.278153870214263
0.159430851969159,0.222034856229476
0.158142753599187,0.231545562236653
0.178807799035626,0.275857645408341
0.152033575325472,0.276679719233726
0.147246014290086,0.277482475828836
0.160303991172961,0.272965270423791
0.176451393008184,0.285286510744579
0.162392655424219,0.276795844407681
0.170482856447191,0.300588524503127
0.193080408890466,0.262284381674649
0.166586205090281,0.28420765760698
0.167636360735063,0.286008721909835
0.168686671266305,0.287789049726976
0.171835770154548,0.29300570982948
0.189178023392995,0.283439747372188
0.174976319733671,0.298036085595874
0.159378394956291,0.331594169382563
0.177061587137926,0.301286305562786
0.178100862538234,0.302880435052648
0.143074789569375,0.262692604596433
0.180171315723092,0.306006780827864
0.177456175762398,0.307711746105059
0.223862953635152,0.331023483026751
0.198454860499837,0.306108208443124
0.16915969093847,0.313449119595782
0.193116195872204,0.318464729377191
0.162902750022463,0.277813334085981
0.18830465056361,0.317688056160684
0.172628062997742,0.314414317385071
0.190289816702062,0.320402730313345
0.21833308159744,0.32002100909692
0.19322246365221,0.324320818619369
0.196010585005672,0.382356992079059
0.195144271085679,0.326830373701001
0.166948962449975,0.340243534884048
0.197036868203223,0.329258014945736
0.14686793530551,0.352465918150263
0.204968755286858,0.307921689898474
0.161662024897174,0.32885624018616
0.169563825901499,0.336400353348258
0.172661696078636,0.342217279623196
0.214096825600704,0.353989191467147
0.216942205629549,0.33097644479872
0.205984362373421,0.340170189446206
0.206825275586069,0.341149248419083
0.207655295588228,0.342107953167712
0.202949249262939,0.324013262609702
0.20422048770794,0.35861309128493
0.216785568977163,0.353557630078837
0.200656288967096,0.358505806769367
0.23276595319013,0.373357150226166
0.212391190845164,0.347433278116336
0.211809239070068,0.346293391502974
0.212911165140933,0.339549706334018
0.215295604499655,0.350577620758438
0.21598756982646,0.351313059771761
0.275086419627206,0.374774187121507
0.217977115159733,0.353397977763028
0.220311371621119,0.359848138643217
0.219228757818394,0.354686852781989
0.23965403465057,0.373186547124693
0.220418045870281,0.355894960748451
0.22514221403792,0.329618329000196
0.252164311545402,0.375626748901226
0.196975823694765,0.354035849440204
0.200723739253224,0.3595374647507
0.223589686191412,0.359035446855781
0.224057610143615,0.359488401872629
0.261083180527738,0.353525528951893
0.215055010219378,0.342827530590601
0.22535183034949,0.360726670623553
0.225745799193124,0.361099259962443
0.260597998125076,0.362721101403062
0.233872956404727,0.390542012405816
0.201836685233809,0.358745267615019
0.20920534110406,0.353772733700139
0.249187103528272,0.35263711611123
0.228395306750914,0.363550672030192
0.228585053653465,0.363723016131752
0.228752859248577,0.363875388270531
0.202701888685555,0.357088846140278
0.229021541706789,0.364120254885891
0.256108090821333,0.357722616454975
0.25085004594767,0.346709317228406
0.17663601456702,0.393991120809431
0.188779996196588,0.36930017943715
0.208020501341938,0.362434895869288
0.229230177369922,0.364349576022929
0.209668768421652,0.36609956260855
0.205684855660346,0.377796323079207
0.213964514980105,0.387100760397182
0.234449345106756,0.366546498590243
0.212616419205975,0.346969789728637
0.230051351456851,0.361847433777628
0.222349093353197,0.37513186213517
0.202834336976587,0.351128070697057
0.225851125955965,0.34478863154564
0.218717706478271,0.334589355244779
0.198852798283253,0.363060522479155
0.231208223547488,0.373916857907303
0.212306612279873,0.336888595111946
0.218629346303931,0.367573265634683
0.205525201132155,0.346967443124335
0.219431086250868,0.35724095680589
0.264228974498408,0.337103098166301
0.215644555824362,0.374381278688303
0.21701271318778,0.355560204758633
0.231776101244016,0.341582123652536
0.206591718426974,0.338705749892897
0.206095505691055,0.383917071603818
0.200700207105103,0.390287998790104
0.220370328765801,0.358212433284783
0.206900343657072,0.338769842519554
0.207128905137183,0.358195015155717
0.20028002320062,0.344606501878937
0.203063898455298,0.346240942123527
0.213921030649775,0.366829248463702
0.17737511714181,0.358383111917815
0.165938507362897,0.351267637960094
0.232290703658083,0.323414466049896
0.193069732380629,0.339857619153763
0.178181440714222,0.304323011416996
0.186529713734953,0.33578260674397
0.18100728389845,0.352772191504131
0.144767114027218,0.298443529384557
0.168585099708187,0.308243857685639
0.206190559314502,0.306726800925853
0.169502389369839,0.32548106232003
0.139390190760759,0.330488218992033
0.1630886276373,0.321699588067188
0.160866314756096,0.320400554349389
0.163410256649806,0.290659872286673
0.175077702745515,0.307376623475206
0.16060723557173,0.305584368416925
0.149109378963326,0.313616748553152
0.148330992548878,0.318357478201285
0.163096493993381,0.301577004737486
0.162906138085264,0.294710849288265
0.152514396453662,0.300587494943177
0.120699791627304,0.29120457799161
0.111736735443687,0.334445402792748
0.137934651522183,0.292627665123829
0.117692721082309,0.310155334871568
0.114367114633937,0.305951754358118
0.108563157544396,0.283532350308831
0.107094845172605,0.290388993455533
0.0820903682619687,0.298770722814586
0.112527644062089,0.282976957014787
0.094098593267122,0.283469158397057
0.0907270074283411,0.281691611076967
0.0720397152027484,0.304457622995554
0.0838348748989209,0.278079477065979
0.0731201309387888,0.272518820970526
0.0341455184977373,0.27023184455521
0.0581193208469465,0.264839098070382
0.0503077363809698,0.260885616592454
0.0463231825844846,0.258880504294404
-0.00614995014631661,0.265442765261719
0.0356176707813613,0.245049790994162
0.0352245537330679,0.236167046400291
0.0500966521620619,0.264075071300583
-0.0518143860683016,0.222414924196846
0.00804963507493855,0.239985067015975
0.00352389238042315,0.237791368455324
0.0198987149232755,0.223689927753673
0.0251873247861015,0.197241713196599
-0.0089132036225559,0.232975590637863
-0.0722882688246118,0.177161454519278
-0.0318522457330621,0.23623225227882
-0.0604743586156654,0.207565413803144
-0.071193481770619,0.202634513869084
-0.0766425768061179,0.200141065047898
-0.0821517290835303,0.197628963065991
-0.119262580039938,0.215850161196219
-0.0802704255194964,0.164376231845092
-0.0884818098281434,0.19105483843423
-0.127487498571096,0.176984021116536
-0.133024387306297,0.174373728587094
-0.138506994299208,0.171760596238797
-0.143935454127159,0.169144752990837
-0.131806957513799,0.15706595502103
-0.15989729639456,0.161282247040924
-0.165110513335978,0.158656849386253
-0.185429984091879,0.148135884922568
-0.19849519905845,0.142760425968118
-0.213121112384298,0.181858741487912
-0.209639272564557,0.134950757131235
-0.207259198226091,0.161114376604934
-0.210720013567687,0.147219229539184
-0.229514073881864,0.120569220030529
-0.228065160396715,0.124385572825891
-0.226482679384365,0.105996730533959
-0.212849214183605,0.114669953416101
-0.244539717944869,0.108933191842607
-0.32206341268175,0.0539789897983804
-0.289861776268283,0.0847778664894046
-0.293578877534942,0.0821448872202365
-0.307952913017636,0.0716309828647207
-0.311423502378975,0.0690076545520992
-0.304957767066061,0.0753579978917273
-0.321542416877879,0.0611520869843508
-0.340620298106014,0.0680579051933498
-0.336336553706596,0.0241266767385815
-0.33122487712305,0.0533208527748432
-0.329395037399383,0.0334027965286214
-0.34047451670241,0.0455174327418049
-0.351949895977964,0.0433570632512851
-0.357689868215384,0.0300079584780499
-0.347581616512173,0.0210596727767399
-0.370745561149969,0.0171991100941737
-0.373217540120172,0.0146515107389134
-0.32198171560367,0.037580888862947
-0.378023415062508,0.0095715137034571
-0.421943027338386,0.00679133447444264
-0.380856233168464,-0.0153777283090781
-0.387086601120149,-0.00052406392977692
-0.390353277470709,-0.00929613041937813
-0.381497628054721,-0.0349109175381021
-0.381145153634187,0.00202185618406705
-0.289552318137909,0.0682712632806398
-0.498846956578606,0.0680773624732749
-0.411584778935325,-0.0326513012584756
-0.547184680842701,0.0729386361142122
-0.537275329358946,0.0589085287135748
-0.326200879881416,0.0674089061188545
-0.446971669981694,-0.0619598109982615
-0.311496715720871,0.0630935695711953
-0.317344674344264,-0.156935343487676
-0.426007682672206,-0.0929332589910038
-0.336254189088808,0.0199570206434447
-0.521649491580876,-0.152878910587399
-0.443561550789395,-0.0476345164824315
-0.319337966867117,0.0361607537232774
-0.555173230958341,-0.167654942444036
-0.457941582737159,-0.11725648618177
-0.542227417458843,-0.0485093583599959
-0.543730131227995,-0.178081149530369
-0.384517511369075,-0.0495639302277995
-0.3486768500257,-0.223803517138708
-0.580373368291032,-0.042654550482834
-0.561365773497887,-0.231414683080438
-0.549573416049609,-0.0171428924384476
-0.441228865412161,-0.13426608460433
-0.548375166862127,-0.0236440702827361
-0.556108207985305,-0.0469455119943955
-0.446563250828905,-0.137591982568362
-0.340038768360752,-0.0400504786115694
-0.569627994132393,-0.00245498210581054
-0.51583600261177,-0.0527575476071042
-0.436770052583723,-0.15303630351528
-0.436124065035495,-0.154834640019929
-0.407483510215243,-0.156145904074829
-0.434724690572306,-0.15838671777801
-0.433183014135676,-0.161878475739846
-0.432265696596672,-0.137311158035788
-0.450511400204734,-0.150259901141101
-0.430606038383813,-0.167000756978753
-0.43560447664451,-0.17243427895885
-0.432080264815416,-0.180635999445807
-0.464660801557121,-0.19560455057508
-0.407140556017712,-0.196011739652812
-0.402497172241985,-0.185829504235812
-0.397260743251954,-0.203851950612292
-0.407704459648318,-0.201053045567181
-0.390041643574766,-0.208701526343782
-0.388515880604751,-0.190849485134533
-0.337041918790089,-0.210802643241999
-0.407556779249504,-0.220268438206333
-0.37417672093682,-0.188627002950331
-0.367657536808257,-0.220407328524869
-0.365442809383749,-0.221348782866734
-0.36319869702308,-0.22226922697663
-0.360925334303582,-0.223168531935363
-0.373804834822063,-0.244379418714607
-0.346294218560802,-0.264212691678341
-0.339171008940275,-0.230289743094695
-0.327508223252723,-0.210856714524241
-0.32725305980655,-0.25078205920744
-0.32068329709238,-0.234577288654966
-0.31793326860433,-0.235097503407307
-0.295807512759371,-0.240117373662917
-0.305046136370718,-0.253676317790184
-0.293447581727919,-0.247735538618078
-0.287836888568254,-0.241854540296975
-0.258742983706894,-0.269356029244989
-0.281663713473162,-0.225897122178149
-0.237409550230924,-0.24001164480321
-0.275633522164789,-0.224187468930673
-0.227058660818717,-0.239455351256989
-0.238797635872407,-0.221169177596506
-0.187367790581401,-0.235294863645088
-0.169339823604427,-0.210826394260901
-0.172281980235664,-0.232932489470673
-0.157225191275329,-0.234245664059055
-0.127110328055505,-0.196137101105335
-0.216968780972458,-0.241217434900179
-0.110729055773582,-0.206327337413636
-0.105923510406546,-0.232555321345323
-0.105477439969577,-0.231869808210883
-0.0902427109844962,-0.2401838984259
-0.0920076120475719,-0.213963888150243
-0.119092758497785,-0.189876281879726
-0.0577974921420331,-0.202882624616161
-0.0441606772108894,-0.213178278002313
-0.0570462512742602,-0.222964257460041
-0.0534862229007379,-0.207912625010123
-0.0314163212858006,-0.193200127802207
-0.0300620662530077,-0.215931117369339
0.0278557468573918,-0.16573198052482
0.0464265577708767,-0.159121713775377
0.0908782439313217,-0.146032505164634
0.111913710025011,-0.125221232823713
0.0989995698868504,-0.13161180131219
0.113609018597787,-0.123336689633313
0.144889913938313,-0.113778153533474
0.147147883886796,-0.0914095125321945
0.167629064190729,-0.0779501406611735
0.203436593442672,-0.0664744439472215
0.234118915168185,-0.0446895555142498
0.248038284467304,-0.0217690156800948
0.275523687436884,-0.01336429145381
0.286404454501588,0.00929734342841627
0.280305959531797,0.00792263021627076
0.319693060754157,0.0474059220985059
0.354977097973888,0.0460013493337371
0.396736812081924,0.145843470054853
0.418572407337617,0.112417891082175
0.432223795731116,0.100506666837909
0.455848610413953,0.160375586806974
0.483294311895517,0.178727888220147
0.481624512536525,0.199673304750274
0.543278214332708,0.210744966716468
