0.511353043515343,-0.242975320571829
-0.0917063302207557,0.994303211885258
-0.0833627466739804,-0.61018257229336
0.558140992524156,-0.850474048437611
1.19964473172229,-1.09076552458186
0.645827424401994,-0.627683852519834
0.499092654529698,-0.06433617317122
