-0.177515380492619,-0.870498173936663
-0.137982859725073,-0.913648997180443
-0.130392134592058,-0.901007515342241
-0.176867439032985,-0.853009657043636
-0.129423096998542,-0.888053902461138
-0.0936602389153836,-0.925725978292746
-0.0950182221597022,-0.853248176080008
-0.127860840292257,-0.868711210324706
-0.160525453129905,-0.832931016954053
-0.128023683048129,-0.880111868492545
-0.0909288533878771,-0.823498265818815
-0.0819052827815641,-0.887782697855181
-0.124970364260514,-0.836708225722199
-0.172339335063669,-0.791104692561805
-0.148731382594622,-0.800734586333343
-0.161520985048583,-0.853012492923606
-0.122403344933113,-0.811318158284014
-0.147887156946257,-0.785401803370335
-0.0788581154382197,-0.752772852374428
-0.12033152748389,-0.792400025953438
-0.119613259031544,-0.786117752274305
-0.145007945225723,-0.748881207746568
-0.118135511911872,-0.773588941244416
-0.069661299048003,-0.788097581799035
-0.116603133104371,-0.761107868298789
-0.09701996065181,-0.732552434998651
-0.11501650092761,-0.748674641013139
-0.160163425179908,-0.728553884499667
-0.0784302040244557,-0.722314899702524
-0.111594150142528,-0.739055967120844
-0.133790509105644,-0.690031976907694
-0.120742499074423,-0.670951415076129
-0.109934867367481,-0.711663108873195
-0.145180148300627,-0.700581923254787
-0.112964557543305,-0.7135378162196
-0.107215414354284,-0.693320092643772
-0.106282780654897,-0.687229954634549
-0.139472268184889,-0.641012291025226
-0.0909151162230149,-0.713359582351125
-0.103407093529268,-0.66903233106613
-0.101425619987508,-0.656961375206204
-0.127606960354928,-0.677660028536982
-0.0993931087843394,-0.644939179399828
-0.0881220955196224,-0.605964397885684
-0.0962494739363216,-0.626997546112545
-0.131775678367839,-0.609511275649721
-0.0760495769088427,-0.659268731833184
-0.138023511901717,-0.574414320794987
-0.0713801900534595,-0.571597210575254
-0.0641571883371505,-0.574457223773121
-0.0425629175168255,-0.610113722027851
-0.0738864556654277,-0.568210468275719
-0.0607760554306234,-0.588901412929285
-0.120316880886209,-0.588928968335431
-0.0849638705932332,-0.567990862411431
-0.083768254602698,-0.562158126614594
-0.126987556366714,-0.554416928299468
-0.0407025909925889,-0.504070099154672
-0.0801095791211161,-0.544734404000838
-0.0368981452677404,-0.573915092821732
-0.114293286081402,-0.489345497518796
-0.0860531659190031,-0.569303576665667
-0.0750655131090589,-0.521677073681593
-0.0496702029062952,-0.556009423094945
-0.0273566057620079,-0.531849806951906
-0.0783154451565553,-0.474470365842526
-0.0698346991056278,-0.498819732059408
-0.0963483891898174,-0.454826078115166
-0.0905093272740697,-0.453108730088755
-0.0543154752316957,-0.528256619613383
-0.0230992106748453,-0.486726570478625
-0.049785952657225,-0.450234796542556
-0.0262581216046773,-0.506873422833791
-0.0602405155359898,-0.459303195563519
-0.0153015976708172,-0.465912076188229
-0.0566241644006846,-0.435166363146381
-0.0743022491284197,-0.433648716382732
-0.0530520346327547,-0.43145624543238
-0.079544426887496,-0.414521238853105
-0.0500999054564762,-0.420406372366141
-0.0486075864244114,-0.414900541117925
-0.0459399413858554,-0.425039379865874
-0.0782843140824761,-0.413715037860868
-0.0642579603970727,-0.359030970974816
-0.0425310507658132,-0.393004898453586
-0.0409853384176856,-0.387562975604453
-0.0465332459757627,-0.420798153802121
-0.0352390630384519,-0.413832721083038
-0.0190192558756297,-0.397796814995964
-0.0330996705672472,-0.360545960608722
-0.0460522757552507,-0.401714847537009
-0.0282442874027123,-0.344490315101943
0.022398118194397,-0.378110623687815
-0.0249564941007648,-0.33385117700127
-0.0328482715229409,-0.339362026793204
-0.0216284452166772,-0.323263864862008
0.0211285876943666,-0.344198864601964
0.00889611382740488,-0.274312247106733
-0.0600358831800529,-0.289193094016861
-0.0224826213579657,-0.297363971680723
0.0260720247487113,-0.294474264416375
-0.0031937069534257,-0.275302768509125
-0.00966872338738342,-0.286617954945076
0.0188325093563983,-0.276309089668462
0.0180019816623841,-0.305427334040045
-0.0182815995163676,-0.301895232399646
-0.0207670965193638,-0.308818593740418
-0.0201152619101454,-0.257129115316184
-0.0474558321362321,-0.250148592308457
-0.0406441684873977,-0.254895409113238
0.0308521082231072,-0.278452508237967
0.0311890847726036,-0.256312801284562
0.0617631234023405,-0.189540702555108
0.02103414628195,-0.215078946997218
0.0243393110896075,-0.218874244028176
0.0635380737712472,-0.25360870287385
0.019415124503909,-0.20526956025702
0.0700309915347168,-0.187222362876289
0.0660966772713956,-0.214840062528524
0.0451714308644009,-0.164882902549569
0.0309181601239269,-0.17563826977123
0.0328657012733107,-0.170746449628167
0.00470322886963558,-0.184764136194667
0.00648152106294587,-0.161947466072208
0.0794878338431717,-0.182786720525655
0.0407408991851511,-0.151313171457665
0.0471830502366555,-0.150921668225215
0.0447288560721556,-0.141677122070962
0.0840640321078952,-0.109810074210104
0.0145911708102329,-0.129142171062146
0.018927496254484,-0.16626555941131
0.00996459476249735,-0.0868824159471651
0.0548425911584593,-0.117822914738514
0.0589446292542496,-0.108375880645508
0.0621776715532191,-0.102196451083453
0.0794404678862908,-0.0660514908202019
0.0651570870751891,-0.094307075151508
0.0234568257247359,-0.110773855871225
0.0762671142318515,-0.0428004489491626
0.0735492592614865,-0.0757391578036239
0.0756664325946765,-0.0711312841804831
0.07779116346287,-0.0665370797368032
0.0705275074732652,-0.0471250505764155
0.0452385231531957,-0.0575494527096523
0.116020914001613,-0.0806033993129143
0.0418141273121455,0.00245432298713148
0.0906956086771104,-0.0392596588734005
0.0818256690464097,-0.0509335340089778
0.0950554068899845,-0.0302771482836673
0.0972460275312494,-0.0258065715685278
0.0619919657382718,-0.0617668129605395
0.0896351452526524,-0.0390756025911152
0.081103697729661,-0.0159680963263193
0.135078402083474,-0.0154940112451152
0.115022067240818,0.00945998123985098
0.117274747179625,0.0138058410223416
0.112203572153548,0.0642366309446348
0.116967510921512,-0.00578894199338509
0.126351584320619,0.0310498989648358
0.171496474208444,0.00594273031205349
0.160352259224516,0.028677985384034
0.131248126293886,0.0541715142205814
0.137842848128233,0.0522903551988276
0.172528848160533,0.0818298019096447
0.189778602733228,0.100849888617857
0.100413897598382,0.0969494614734059
0.147148344473358,0.0690299783675044
0.149489947435993,0.0731796690712882
0.157577017257731,0.041395032064296
0.15419109698414,0.0814366982440434
0.156550548990009,0.0855440098190861
0.172058902147668,0.0892577462997685
0.161286971016229,0.09371615971168
0.191024483492208,0.063357114160509
0.172723951617755,0.145561053375065
0.173506171507824,0.153967305865955
0.170828563011608,0.109890189951902
0.161962321684139,0.104502798621884
0.220280550432027,0.109594816870766
0.132188983743767,0.129768849287412
0.160107692922839,0.167275762956023
0.183207909596839,0.152115909571867
0.188123346605739,0.0852430062406417
0.210827114723909,0.0946599836847692
0.140786087935355,0.164268312812635
0.192618458950285,0.145447760723636
0.195065917800552,0.149327006340152
0.152600138839861,0.180829327609296
0.199976083604145,0.157042378861405
0.170994370515377,0.120129852698174
0.188830487589508,0.203074525061219
0.20985608350857,0.1723002725418
0.170186056180062,0.18719887531567
0.214825160972259,0.179842578549512
0.197145230390357,0.181728511615568
0.265954523918536,0.165787594725414
0.217083416487104,0.174166619133621
0.244513338169591,0.24668181982845
0.262270927505624,0.184618991679948
0.274172008558845,0.246922228322002
0.237349158682184,0.219996948458728
0.257204066703476,0.234358539199962
0.242482433775044,0.220287343409784
0.196050381611123,0.213464846143183
0.224622060505329,0.252373605133688
0.297184750397619,0.211401300931351
0.304899122930222,0.259026986793432
0.285314535261528,0.255860049103471
0.260351086147051,0.245104744015784
0.227655307872725,0.243698924076116
0.259468150224996,0.217272138044398
0.268068059751272,0.255520271146067
0.308213878181373,0.268632258045647
0.236862565262052,0.296550774767643
0.234999565205669,0.278234412094185
0.27840931603704,0.26920096053064
0.29597694073695,0.316080961979166
0.288807178725831,0.282644655172389
0.291415134474841,0.285968447552028
0.299258621269079,0.295850494465598
0.277024334538939,0.272637994338132
0.266689113727561,0.306332002906305
0.27961267267231,0.355780622123367
0.288816141297008,0.317675080524868
0.322954591758469,0.324689516588553
0.317816690726046,0.307210765414991
0.318014724822826,0.334180410229493
0.33621691572937,0.340185396127062
0.353938946023322,0.318028702507358
0.341539659015315,0.346278086038727
0.322400871151774,0.315115662192855
0.349797442103707,0.304643522203699
0.31081988967595,0.359696005998998
0.347552402228915,0.402763381723305
0.316679176550904,0.367785274491421
0.346618992806738,0.409467512834347
0.376354871349293,0.384400110564257
0.381740481454373,0.390036131360789
0.416647214796332,0.428917021215027
0.389831480366112,0.398375104415419
0.378451542942725,0.394068281842779
0.397936444827082,0.406575684974703
0.400640982416957,0.409278395187443
0.406054098012106,0.414637509970605
0.408762581437738,0.417293887647099
0.364924628649915,0.432738090930437
0.414183163096008,0.42256021633509
0.433794270768597,0.432184341471069
0.41960824923148,0.427764553156657
0.427808307025676,0.479106896357746
0.450074720133044,0.475377337667105
0.433188188942291,0.440503474829344
0.481205686883132,0.440919242930782
0.395281205504104,0.438893569451719
0.48095677105637,0.446647156508845
0.439557338306634,0.432104427726639
0.421727850745575,0.428174795062511
0.454954978117517,0.460074261304981
0.457678198781454,0.462450102287743
0.463401020032197,0.473008033256251
0.467161903285895,0.508385996461379
0.465849888506932,0.469483292739963
0.508944391102059,0.458420086684124
0.438610902613794,0.515602195454958
0.455762555504438,0.459883735637848
0.447347537177556,0.433545457659192
0.526727984832787,0.447416974643359
0.523041145733318,0.530124812306997
0.490880397131312,0.476132724160861
0.447432771526148,0.50835983401615
0.485940785081182,0.458265989237809
0.505150403102875,0.540636169533478
0.498544364299591,0.496194612564986
0.486790093408485,0.473846072852772
0.503990892344434,0.500424319212499
0.495947989446969,0.457809102003109
0.50943568261006,0.5045902589943
0.512157307851114,0.506649282693147
0.554832316468424,0.529341906189417
0.501135070432115,0.542698838438581
0.54466563580748,0.473720970532046
0.500960513633823,0.560678576540983
0.525755843545928,0.516704401388286
0.508617490814545,0.479272005633009
0.539026551563755,0.561844754053476
0.534542635965928,0.558044248719802
0.545309468815895,0.494664253016829
0.550178031358968,0.533791380089561
0.592269159857558,0.555464880407482
0.563572471420215,0.58124615015877
0.568554850591875,0.533959056663236
0.563704777323801,0.542718812540974
0.566405891213431,0.544455640170186
0.569105482992365,0.54617621680279
0.571803505370783,0.547880528991824
0.559713107853062,0.563273026544458
0.619013521462705,0.56834344665987
0.542709741664142,0.549632607580177
0.632263287003876,0.574753919201507
0.603609251193213,0.525645786574679
0.596007280932772,0.562485219983307
0.596244344389228,0.581633508144582
0.606713463974486,0.568550404715514
0.656993303732962,0.584789986259047
0.614387125848461,0.56723168801928
0.599702766077397,0.557882326235048
0.633670931277422,0.555265092835141
0.635331313931698,0.608859867401378
0.67673294369005,0.629224432280881
0.655758092794351,0.591575271538741
0.616821032349566,0.605475422764049
0.680755140556166,0.603285727492241
0.640194561144504,0.623739284663109
0.657028595716406,0.593750426200866
0.659648298287998,0.594910468005073
0.646733981550864,0.621731964682648
0.63426417112955,0.617139027781868
0.641607043766872,0.61679954150216
0.623817518140229,0.602027007517171
0.675298136230506,0.601519093739055
0.677894604934752,0.602561801674508
0.643599753667345,0.594271383797486
0.683076970203845,0.604596756791127
0.690304131070537,0.566438411057181
0.708822560862537,0.618408134841982
0.663544315921711,0.563368141170547
0.695969005705099,0.609389162657665
0.689441233477219,0.564874056508042
0.713855280190319,0.615387938645787
0.712809753778504,0.66095481799595
0.715425460644114,0.614244894725641
0.684386128100756,0.60247453514066
0.721338820234994,0.617611602968048
0.761905310758757,0.615324167836441
0.711410384655112,0.573509854986255
0.685588917522793,0.601663903143772
0.733390862386096,0.585994056270065
0.749037479154159,0.579788810825893
0.744309872283221,0.622633823181832
0.729081520224597,0.668499335169048
0.777256679026774,0.576461269618218
0.724068068851881,0.600790208397976
0.760570056603276,0.624096380991017
0.806104452134781,0.595128832571831
0.792045018448917,0.639494257803739
0.775320974460984,0.622359605754535
0.73342861238371,0.627225825970846
0.773315101002368,0.623592938864039
0.812063277297557,0.614989340584397
0.74762142997689,0.594464282421818
0.779996053132219,0.622583498273316
0.748245163784889,0.615335104062929
0.803446838826356,0.642019091117733
0.769089708585535,0.592001117546703
0.790666432542092,0.619596138251182
0.784529734030544,0.617719748377288
0.794851272987239,0.617852989520209
0.764370037259225,0.66393167883513
0.776608149970081,0.57545075597794
0.814790488785672,0.606812029574728
0.800077835908304,0.615108743049116
0.836504744181179,0.581003051825719
0.789051784305145,0.587985187312411
0.768133567023145,0.625471628462163
0.785228971891416,0.606370725921783
0.760167536714732,0.634957368785849
0.809353248540419,0.608223970605737
0.804676158334629,0.585970027221934
0.858124889943535,0.614569413857698
0.818830991646035,0.597120666467976
0.806452448486788,0.567858851542173
0.794118729598916,0.568545196554893
0.821234697735845,0.593273545152008
0.781792953481735,0.559097881672963
0.82272791928555,0.590581027982994
0.814215564753076,0.585422847166344
0.792676659330285,0.577361900050848
0.825457165610607,0.584895929389306
0.826086704918286,0.583413208018894
0.846333711961057,0.566065874004881
0.786628022531512,0.611363283635813
0.837566652763567,0.563742465271694
0.864553795127758,0.599049905442316
0.870988407063572,0.547772320387329
0.82943857825498,0.518943191791734
0.859317262378402,0.53449729848456
0.846760483600434,0.524186133612648
0.883579912937888,0.574713434081696
0.834487736412702,0.54891725534558
0.815370496551403,0.542293530094662
0.818176448811333,0.510801819586578
0.795603955637121,0.489668821980633
0.835910901859868,0.528494474700751
0.832022488308416,0.560189467447823
0.835907382164842,0.513073375614639
0.82763377643897,0.499083541376176
0.835431362968333,0.501531229483135
0.865353830379827,0.508355180431381
0.835135008931057,0.496797360102664
0.834964684815725,0.49440608306933
0.798618909512385,0.43329188366821
0.876229493255949,0.447071145998623
0.832792361127162,0.472187233698506
0.862535014422859,0.494905662180854
0.857365777924098,0.506025401149146
0.819889590441844,0.459524566566714
0.830351155075044,0.454096112076558
0.800908813091729,0.417193989127575
0.817669312409862,0.436634948025741
0.871559213548745,0.458087505221368
0.793608109458989,0.478632116440408
0.831680242983465,0.394060000501619
0.823699955658525,0.416056958188009
0.836460234804188,0.366586852163045
0.784537118329881,0.414471026540191
0.866782824876951,0.412003484191247
0.818322599885339,0.390485056501477
0.780865006136307,0.387118518814559
0.814319177929852,0.373030508268597
0.812203164332711,0.364196061419566
0.842219062302232,0.386529022750946
0.786905405925212,0.355798691304764
0.827943942062814,0.314205020499628
0.782862573790437,0.298083511085765
0.847133620094176,0.313962758536614
0.837880939707745,0.365425251141127
0.802700139051992,0.301101613041453
0.799806765564669,0.316103944576584
0.798977735086344,0.313054022386657
0.841304695703998,0.335088810891556
0.797303164658806,0.306942064678545
0.79302691644503,0.291600042643618
0.830231336260572,0.318212057253286
0.791283405697411,0.285442222716372
0.819604599960835,0.32712604037985
0.785954139354447,0.266915741938105
0.804362012131394,0.265627320715016
0.789160662705491,0.223632748040193
0.772150781227203,0.220472389276281
0.731008269281472,0.241220784704197
0.730520459404182,0.21211147059695
0.770815333262043,0.183446578831451
0.782624747888946,0.173952615164397
0.7354345563501,0.183447358320232
0.756156329074688,0.16824700491713
0.755585262578549,0.147758345848201
0.760105432277876,0.191863919178509
0.743003739481386,0.182387746499444
0.776761202796224,0.128720632199034
0.760686910957638,0.143585437885466
0.713915362571374,0.14183530004299
0.743166928933143,0.126173717279733
0.74225653618638,0.123215456121496
0.698805595285109,0.117974690552337
0.721991425540984,0.131200199035609
0.771771099907511,0.0673821087249301
0.702082228400529,0.128111769331342
0.734543240554868,0.0978906783758388
0.722464381438149,0.0368981860363028
0.73720820265727,0.0333071502198913
0.691049160788118,0.0719770314883921
0.715339787447832,-0.00180433965590525
0.714763685758822,0.0307477911849136
0.674648274399378,0.0538011524152592
0.676277713669721,0.059253567876407
0.66050513002518,0.0219216449390921
0.682086339005804,0.0445358807247732
0.706953388707599,0.00660916150772253
0.65706492013374,0.00455876324358821
0.71816526577695,0.0115785823706372
0.657958768839177,-0.0331195883460903
0.700754148330947,-0.0232729927476315
0.699715236589221,-0.0277981378063798
0.684956924948742,-0.0714576169851262
0.721542751813402,-0.0723871662133876
0.695201852361837,-0.049334932236235
0.670013396124805,-0.0780836557727312
0.725184949076205,-0.0742280360736287
0.719083952999559,-0.0455921407347633
0.646294168043389,-0.0481415228911099
0.69014964086039,-0.0847342712987971
0.732055499043329,-0.120575299749835
0.689690566336496,-0.10289979021419
0.646147853865876,-0.0673280707072001
0.689941682407929,-0.106887449721267
0.682074958342261,-0.095384451022494
0.694023034660472,-0.0980636202042493
0.733992581420533,-0.0857510198277223
0.7400063218146,-0.133629533803979
0.697804496949894,-0.130044961786167
0.69896440391125,-0.131227136378354
0.740668416998975,-0.0868311703130798
0.749243015520234,-0.177897177418074
0.691849634853008,-0.177577161399572
0.666977497003123,-0.157889814984556
