0.364194672791023,0.792314827258245
-0.923104963703228,0.763655848301817
-0.647067008297992,-0.329017487791043
0.378067080469021,0.055681326063403
1.40320116923603,0.440380139917849
0.784946292738582,-0.80191642002257
-0.912166769504356,0.898641125847876
