-0.812732404854171,0.197840303935317
-0.806597972016768,0.192766993493901
-0.800485727774018,0.187743370369966
-0.794395683852873,0.182769277959536
-0.788327851980283,0.177844559658633
-0.7822822438832,0.172969058863279
-0.776258871288574,0.168142618969497
-0.770257745923356,0.163365083373309
-0.764278879514497,0.158636295470738
-0.758322283788948,0.153956098657806
-0.752387970473659,0.149324336330536
-0.746475951295582,0.144740851884951
-0.740586237981667,0.140205488717072
-0.734718842258866,0.135718090222922
-0.728873775854128,0.131278499798525
-0.723051050494406,0.126886560839901
-0.71725067790665,0.122542116743074
-0.71147266981781,0.118245010904066
-0.705717037954838,0.1139950867189
-0.699983794044684,0.109792187583599
-0.694272949814299,0.105636156894183
-0.688584516990635,0.101526838046678
-0.682918507300642,0.0974640744371034
-0.67727493247127,0.0934477094614832
-0.671653804229471,0.0894775865158399
-0.666055134302196,0.0855535489961956
-0.660478934416395,0.0816754402985729
-0.654925216299019,0.0778431038189944
-0.64939399167702,0.0740563829534825
-0.643885272277348,0.0703151210980597
-0.638399069826953,0.0666191616487485
-0.632935396052787,0.0629683480015714
-0.627494262681801,0.0593625235525509
-0.622075681440946,0.0558015316977094
-0.616679664057172,0.0522852158330695
-0.611306222257429,0.0488134193546536
-0.60595536776867,0.0453859856584843
-0.600627112317845,0.042002758140584
-0.595321467631905,0.0386635801969752
-0.584778057462482,0.0321167466167222
-0.579540315432901,0.0289087777721229
-0.574325231076008,0.0257442320859051
-0.569132816118755,0.0226229529540913
-0.563963082288091,0.0195447837727039
-0.558816041310968,0.0165095679377655
-0.553691704914337,0.0135171488452986
-0.548590084825148,0.0105673698913255
-0.543511192770353,0.00766007447186893
-0.538455040476902,0.00479510598295126
-0.528411002081836,-0.000808476619177406
-0.523423139434123,-0.0035474039403434
-0.518458063455558,-0.00624463074688054
-0.513515785873091,-0.00890031364276627
-0.508596318413673,-0.0115146092319782
-0.503699672804256,-0.0140876741184937
-0.493974894043225,-0.0191107381993458
-0.489146784345514,-0.0215610506016374
-0.484341543405606,-0.0239707587171426
-0.479559182950454,-0.0263400191498391
-0.474799714707006,-0.0286689885037042
-0.470063150402215,-0.0309578233827156
-0.46534950176303,-0.0332066803908507
-0.460658780516404,-0.035415716132087
-0.455990998389287,-0.0375850872104021
-0.45134616710863,-0.0397149502297734
-0.446724298401383,-0.0418054617941785
-0.442125403994497,-0.0438567785075949
-0.437549495614924,-0.0458690569740001
-0.432996584989614,-0.0478424537973716
-0.428466683845518,-0.0497771255816868
-0.423959803909587,-0.0516732289309234
-0.419475956908772,-0.0535309204490587
-0.415015154570023,-0.0553503567400705
-0.410577408620292,-0.057131694407936
-0.40616273078653,-0.058875090056633
-0.401771132795686,-0.0605807002901387
-0.397402626374712,-0.0622486817124309
-0.388734935150179,-0.0654723845392843
-0.384435773800521,-0.0670284191518006
-0.380159750928536,-0.0685474513690133
-0.375906878261176,-0.0700296377949
-0.371677167525391,-0.071475135033438
-0.367470630448132,-0.072884099688605
-0.36328727875635,-0.0742566883643785
-0.359127124176996,-0.0755930576647359
-0.354990178437021,-0.0768933641936547
-0.350876453263374,-0.0781577645551126
-0.346785960383009,-0.0793864153530869
-0.342718711522875,-0.0805794731915552
-0.338674718409923,-0.081737094674495
-0.334653992771103,-0.0828594364058838
-0.330656546333368,-0.0839466549896992
-0.326682390823667,-0.0849989070299186
-0.322731537968952,-0.0860163491305195
-0.318803999496174,-0.0869991378954795
-0.311018912604229,-0.0888613818343866
-0.307161387638965,-0.0897411502162888
-0.30332722396344,-0.09058689167846
-0.299516433304607,-0.0913987628248779
-0.295729027389415,-0.0921769202595199
-0.291965017944815,-0.0929215205863634
-0.288224416697759,-0.0936327204093862
-0.284507235375197,-0.0943106763325655
-0.28081348570408,-0.094955544959879
-0.277143179411359,-0.0955674828953041
-0.273496328223984,-0.0961466467428184
-0.269872943868907,-0.0966931931063994
-0.266273038073079,-0.0972072785900246
-0.26269662256345,-0.0976890597976714
-0.255614309310593,-0.0985563358009402
-0.252108435021268,-0.0989421438045173
-0.248626097925945,-0.099296273948026
-0.245167309751575,-0.099618882835444
-0.24173208222511,-0.0999101270707486
-0.238320427073501,-0.100170163257918
-0.234932356023698,-0.100399148000928
-0.231567880802651,-0.100597237903758
-0.228227013137313,-0.100764589570385
-0.224909764754634,-0.100901359604786
-0.221616147381564,-0.101007704610939
-0.218346172745055,-0.101083781192821
-0.215099852572057,-0.10112974595441
-0.211877198589521,-0.101145755499684
-0.208678222524399,-0.101131966432619
-0.20550293610364,-0.101088535357194
-0.202351351054196,-0.101015618877385
-0.199223479103018,-0.100913373597171
-0.196119331977057,-0.100781956120529
-0.193038921403263,-0.100621523051436
-0.189982259108587,-0.10043223099387
-0.18694935681998,-0.100214236551808
-0.183940226264394,-0.0999676963292284
-0.180954879168778,-0.0996927669301081
-0.177993327260084,-0.0993896049584248
-0.172141655911265,-0.098699209713279
-0.169251559925041,-0.0983122896477716
-0.166385306033542,-0.0978977634256111
-0.16354290596372,-0.0974557876507751
-0.160724371442524,-0.0969865189272412
-0.157929714196906,-0.0964901138589866
-0.155158945953817,-0.0959667290499892
-0.152412078440207,-0.0954165211042263
-0.149689123383028,-0.0948396466256754
-0.146990092509229,-0.094236262218314
-0.144314997545763,-0.0936065244861197
-0.14166385021958,-0.0929505900330699
-0.13903666225763,-0.0922686154631423
-0.136433445386865,-0.0915607573803142
-0.133854211334236,-0.0908271723885632
-0.131298971826693,-0.0900680170918668
-0.128767738591187,-0.0892834480942025
-0.126260523354669,-0.0884736219995478
-0.121318193786401,-0.0867788249351774
-0.118883102908553,-0.0858941671734167
-0.116472076937496,-0.0849848787305755
-0.11172226662356,-0.0830930362175624
-0.104778331127364,-0.0800744574393777
-0.102511940863024,-0.0790206735935823
-0.100269697594132,-0.0779433552945491
-0.0980516130476386,-0.0768426591462556
-0.0958576989504941,-0.0757187417526793
-0.0936879670296498,-0.0745717597177978
-0.0915424290120565,-0.0734018696455886
-0.089421096624665,-0.0722092281400291
-0.0873239815944261,-0.0709939918050969
-0.085251095648291,-0.0697563172447695
-0.0832024505132102,-0.0684963610630244
-0.0811780579161348,-0.0672142798638391
-0.0772020772438031,-0.064584368829058
-0.0752505126224487,-0.0632368522014173
-0.073323247446903,-0.0618678369722463
-0.0714202934441169,-0.0604774797455226
-0.0695416623410413,-0.059065937125224
-0.067687365864627,-0.0576333657153276
-0.0640518236995857,-0.054705762942652
-0.0605137607646001,-0.0516959242593161
-0.0587813133257553,-0.0501605579610942
-0.057073270875277,-0.0486051024971399
-0.0504853854960457,-0.0421855210635467
-0.0281217078746273,-0.02308780994236
-0.0898441275134186,-0.0384837777362189
-0.0807210922464031,-0.020129846159095
-0.042801048244356,-0.0337278305198737
-0.0496382561409069,-0.0527516584113361
-0.0490674199147423,-0.0142013091817708
-0.01155260715469,-0.0755323913652489
-0.0370949087230507,-0.0266273221938358
-0.000840917332700947,-0.0607020127217197
-0.0314737777772886,-0.0477675182695309
-0.0112438492447383,-0.0170777212841929
-0.073543257955842,-0.0344403641534283
0.00603706675406408,-0.0314953703494829
-0.0280555289269983,-0.0135184385395772
0.0209934700908611,-0.000112390754653351
-0.0256945343700173,-0.00961948981028258
-0.0223381321636949,-0.00364780366941059
0.00689529226877647,0.0273284759209002
-0.0202240605933396,0.000413668742719878
-0.0540370838659909,-0.0404552140197435
-0.0326944421456572,0.0293803939672183
0.027700053894221,0.00795475185324937
-0.0207961383906282,0.026501512208789
-0.0492222060796173,-0.000881850184814695
-0.00962051552865831,0.0260578114682333
-0.0488836736324434,0.0650158797773139
0.010166293915011,0.0559495920847594
0.0171946452483998,0.0166421256189857
-0.0407025299166922,0.000548274529379091
-0.00454015992285259,0.0442766115734183
-0.00401734780817796,0.0466121807149848
0.0165932959357106,0.0955824485727141
-0.00304667413265557,0.0513204091066441
0.014504597645592,0.0228056830028013
0.00624910360042215,0.0155368265647084
0.0192890743073863,0.0696597591027179
-0.00240264649633684,0.0357071168960012
-0.00105774876554653,0.0633000308665785
-0.000735101877165373,0.0657305396634515
-0.0329308209012742,0.018570273863615
0.0352052807624512,0.0619246425395216
0.000304634161195133,0.0755626362013138
-0.0132559085200599,0.10733950005167
0.0435846075849665,0.051120644180139
0.000820713744419042,0.0830478881112289
0.0492717567770931,0.102011818350728
-0.00355384225834009,0.0674805756289112
0.00111039370864873,0.0906237386216917
0.0344561316465856,0.134330308474015
0.0236265450998348,0.0788953901518582
0.000617869610639908,0.113852598682438
0.000436819887046415,0.116476607503875
-0.000258223973034192,0.124396191509061
-0.000848282723679927,0.129713979423474
-0.001181356133033,0.132383823142034
-0.00153980786767399,0.135060757896193
-0.00233289322062323,0.1404352740954
-0.00371315186347818,0.148546316061767
-0.00422411981581485,0.151262508345994
-0.005322448689271,0.156712720733741
-0.0059098330642922,0.159446427629306
-0.00652271303410991,0.162185659520696
-0.00782500666593843,0.167680071875036
-0.00851444378185099,0.170434939130033
-0.00922942340036347,0.173194704964944
-0.00996995724842688,0.175959212775792
-0.0115277345410096,0.181501827909386
-0.0123450014394307,0.184279622024179
-0.0131878694752061,0.187061531698998
-0.0140563503752866,0.189847400329865
-0.0149504558666232,0.192637071312805
-0.0168155875308678,0.198227193918989
-0.0177866371576775,0.201027332334278
-0.0187833582835468,0.203830646685729
-0.0198057626354263,0.206636980369364
-0.0208538619402671,0.209446176781205
-0.0219276679250198,0.212258079317276
-0.0230271923166355,0.215072531373598
-0.0253034432282591,0.220708457631086
-0.0264801932021686,0.223529618624297
-0.0276827084907445,0.22635270272185
-0.0314449635139789,0.234831927600782
-0.0327506573307288,0.237661138075926
-0.0340821750968993,0.240491488635523
-0.0368227293853058,0.24615498359217
-0.0382317893614435,0.248987814781264
-0.0396667201948052,0.251821159638902
-0.041127533612342,0.254654861561107
-0.0426142413410045,0.2574887639439
-0.0441268551077437,0.260322710183305
-0.0456653866395105,0.263156543675343
-0.0472298476632557,0.265990107816038
-0.04882024990593,0.268823246001412
-0.0504366050944846,0.271655801627487
-0.0520789249558701,0.274487618090285
-0.0537472212170375,0.277318538785831
-0.0554415056049375,0.280148407110144
-0.0589080856687391,0.285804360229168
-0.0606804047985425,0.288630131815924
-0.062478758962882,0.291454224615537
-0.0661536193029728,0.297096747437432
-0.0680301489326259,0.299914864251757
-0.0699327605046186,0.30273067586303
-0.0718614657459018,0.305544025667276
-0.0738162763834262,0.308354757060514
-0.0757972041441428,0.311162713438769
-0.0778042607550024,0.313967738198063
-0.0818968074349543,0.319568366443856
-0.0839823209579482,0.3223636567224
-0.0860940102388886,0.325155388966073
-0.0882318870047264,0.327943406570898
-0.0903959629824123,0.330727552932896
-0.0925862498988973,0.33350767144809
-0.0970455034560679,0.339055198522156
-0.0993144935506552,0.341822293873073
-0.101609741491845,0.344584734961277
-0.108653149664538,0.352842566609828
-0.111053546261647,0.3555848246074
-0.115933300626885,0.361052872150763
-0.118412681848916,0.363778348488599
-0.123450511006558,0.36921142327669
-0.126008982396071,0.371918708518991
-0.131205097431232,0.377313991680216
-0.133842764530783,0.380001676391185
-0.136506853654248,0.382682514383755
-0.141914344880726,0.388023023797787
-0.147427664926272,0.393334267090493
-0.150224040073573,0.395978522431405
-0.153046907606493,0.398614991430053
-0.158772166736997,0.403863943984646
-0.164603536133391,0.409079871922452
-0.17054110961128,0.414261522411652
-0.173549752198163,0.41683910210308
-0.176584980986272,0.419407642620425
-0.182735244073975,0.424516979716951
-0.185850301827469,0.427057463088177
-0.188991992689993,0.42958828086941
-0.192160328388499,0.43210927645667
-0.195355320649936,0.434620293245982
-0.198576981201256,0.437121174633367
-0.201825321769409,0.439611764014847
-0.20840208986402,0.444561440344185
-0.211730540844379,0.447020214084088
-0.215085718749375,0.449468069402176
-0.218467635305958,0.451904849694472
-0.221876302241081,0.454330398357
-0.225311731281693,0.45674455878578
-0.232262922587188,0.46153808852619
-0.235778708305974,0.463917144629865
-0.239321303038052,0.466284186083882
-0.246486966449892,0.470981598627037
-0.250110058583555,0.473311656508219
-0.250110058583555,0.473311656508219
-0.253713608136077,0.475600897503765
-0.260724134166017,0.479973428925045
-0.267475314869335,0.484073991033882
-0.273970452774245,0.487905741567041
-0.277123037717365,0.48972179928548
-0.28324030366507,0.493156253211555
-0.289109783134908,0.496329789903865
-0.291952634980694,0.497819701080097
-0.302721088810255,0.503142841384432
-0.305264527959384,0.504316473945847
-0.307749323017263,0.505428034935585
-0.310175886799918,0.506477919070742
-0.312544632123377,0.507466521068413
-0.314855971803666,0.508394235645695
-0.317110318656813,0.509261457519683
-0.319308085498845,0.510068581407472
-0.321449685145788,0.510816002026159
-0.32353553041367,0.511504114092838
-0.331329624015127,0.513671371181394
-0.334902877758191,0.514409411058114
-0.336610001221401,0.514693415339419
-0.339867305411313,0.515093366173399
-0.341418311770069,0.515210102160264
-0.344367097095317,0.515279068859224
-0.345765701693862,0.515232089005509
-0.348413398842932,0.51497717647717
-0.350864498701485,0.514510291634921
-0.352017356686887,0.514198346388819
-0.35312230379774,0.513834592215527
-0.354179752850073,0.51341942383214
-0.355190116659912,0.512953235955753
-0.357071239816218,0.511869380592365
-0.357942824794738,0.511252502539554
-0.361627496332097,0.507434397248158
-0.362232669680709,0.50652679620408
-0.362794885947098,0.505572122837959
-0.36331455794729,0.50457077186689
-0.364227920413194,0.502429615978292
-0.36462243651096,0.501290600494954
-0.364976059606637,0.500106486275051
-0.365289202516253,0.498877668035678
-0.365562278055835,0.497604540493932
-0.36579569904141,0.496287498366907
-0.365989878289004,0.494926936371699
-0.366262162834361,0.492076831645119
-0.366382434220121,0.489057384050955
-0.36638659701822,0.487485143471268
-0.366285040904991,0.484217602332164
-0.365864194701986,0.479014561430613
-0.365653960689582,0.477201332213707
-0.365131041643835,0.473458918707884
-0.364819182242545,0.471530523853159
-0.362268434946682,0.459184388476436
-0.359298281514368,0.447923476836818
-0.358617073999965,0.445569943969422
-0.357170784671435,0.440764685431922
-0.355615415050119,0.435831134604783
-0.353954267664234,0.43077244922477
-0.353085059349645,0.428197167870174
-0.35032784971162,0.420292305753179
-0.349360294320949,0.41759899475343
-0.348369184201325,0.414877163135132
-0.330956679830963,0.370895622259759
-0.324236225410304,0.355059065201059
-0.321440954783152,0.34858005844112
-0.318589444314674,0.342023283179781
-0.317143631180005,0.338716719153825
-0.314213953189944,0.332049211896818
-0.312730913966605,0.328689058099959
-0.309730499143447,0.321917923755007
-0.305150228207913,0.311640076115929
-0.303603882839963,0.308183400138845
-0.302048431304007,0.304712018641559
-0.30048428641607,0.301226326341165
-0.298911860992181,0.29772671795476
-0.29574381980065,0.290687331792297
-0.292547610257631,0.283597017890936
-0.289326534891341,0.276458933987441
-0.287707704564536,0.272872965077632
-0.286083896229994,0.269276237818577
-0.281186731340218,0.258425453116887
-0.279547139135,0.254789639631801
-0.276259625757784,0.247492053087419
-0.268011521423132,0.229115076008035
-0.266360176645856,0.225420036491478
-0.258117538089232,0.206868327845551
-0.256474717156048,0.203145446923406
-0.254834761719641,0.199419307276831
-0.253198084596037,0.195690303622923
-0.249936216551349,0.188225283161484
-0.246692415550199,0.180753543275856
-0.240272224791382,0.165802536179089
-0.238683629204228,0.162065518728474
-0.233963932545316,0.150862544226742
-0.232407439746619,0.147132227733188
-0.230860004685104,0.143404573271638
-0.226276174083923,0.13224152924997
-0.223273143996208,0.124820046542299
-0.220316252441869,0.11741868517294
-0.217408801949124,0.110040602878658
-0.209016122122607,0.0880776078139205
-0.207669753835681,0.0844462273894427
-0.203728753896859,0.0736098983201701
-0.201187302866212,0.0664378029484119
-0.197512206033634,0.0557657402443221
-0.196325379610455,0.0522329196389541
-0.195158344141159,0.0487130237100762
-0.191780111616853,0.0382348311533406
-0.190696368123367,0.0347705811013799
-0.185613732486777,0.0176806991130146
-0.183745222319036,0.0109600862301239
-0.181129074704062,0.00101261331080943
-0.177293996778601,-0.0151843366682832
-0.176609471752676,-0.0183628484772766
-0.173114432057574,-0.036974615787428
-0.172192511347835,-0.0429940922352567
-0.170450779680658,-0.0576093750410509
-0.16980835853778,-0.0660655617683982
-0.169481421250641,-0.0822239892177547
-0.170237595548236,-0.0948707820965477
-0.170814418417358,-0.0997091645881757
-0.17116327107676,-0.102079562395631
-0.171983922925381,-0.106720797548346
-0.173528459263259,-0.113427828365496
-0.175459173463721,-0.119819599678043
-0.176190488641464,-0.121878290434756
-0.176966363734714,-0.123900373489243
-0.180523719583317,-0.131614734343004
-0.181528586494504,-0.13344785812992
-0.186022550416208,-0.14038664605862
-0.187266729546008,-0.142020942650576
-0.197373926122626,-0.152292326109102
-0.199022471235612,-0.153587973900149
-0.206144814048027,-0.158325544622943
-0.208059504421383,-0.159396708607815
-0.21413203180649,-0.162332136218916
-0.21845822511103,-0.164053420502433
-0.220705912725722,-0.164842178255738
-0.223010544736731,-0.165582486793949
-0.23280677306448,-0.168051334453922
-0.23805728682296,-0.168984800348848
-0.25525805681542,-0.170543473452211
-0.258340532237012,-0.170618022938477
-0.2614857314793,-0.170638597170309
-0.267965952690071,-0.170516241002288
-0.278167033562119,-0.16991802441461
-0.285293069701061,-0.169238153432944
-0.333711088330877,-0.160249235495449
-0.352086565426065,-0.155306784958688
-0.366629358147477,-0.150935119686297
-0.371624145006762,-0.149349158986263
-0.381836979549716,-0.145981760869764
-0.403167250781918,-0.138454005692369
-0.425725675063951,-0.129847920344013
-0.474632663680435,-0.109299711557935
-0.521709005731175,-0.0875399937755839
-0.550461958207534,-0.0734668573735895
-0.572930898218188,-0.0621104082286434
-0.596187273269698,-0.0500550345621572
-0.653577006201755,-0.0191479241081985
-0.670792468996654,-0.00958879281764195
-0.679538663848052,-0.00468583220293359
-0.715456165320601,0.0157578534509967
-0.733980328721427,0.0264843282343589
-0.791854099920708,0.0607201732512124
