0.593658506131647,-0.561686769916288
0.582773322531881,-0.559666830346773
0.571941829724151,-0.557645551758153
0.561163990699687,-0.555623004165406
0.550439768449721,-0.553599257583507
0.539769125965483,-0.551574382027433
0.529152026238203,-0.54954844751216
0.518588432259112,-0.547521524052664
0.508078307019441,-0.545493681663923
0.49762161351042,-0.543464990360912
0.48721831472328,-0.541435520158607
0.476868373649252,-0.539405341071986
0.466571753279566,-0.537374523116024
0.456328416605453,-0.535343136305698
0.446138326618143,-0.533311250655985
0.436001446308868,-0.53127893618186
0.425917738668857,-0.5292462628983
0.415887166689342,-0.527213300820282
0.405909693361552,-0.525180119962782
0.395985281676719,-0.523146790340775
0.386113894626073,-0.52111338196924
0.376295495200846,-0.519079964863151
0.366530046392266,-0.517046609037486
0.356817511191566,-0.515013384507221
0.347157852589976,-0.512980361287332
0.337551033578725,-0.510947609392795
0.327997017149046,-0.508915198838588
0.318495766292169,-0.506883199639686
0.309047243999324,-0.504851681811065
0.299651413261741,-0.502820715367703
0.290308237070652,-0.500790370324575
0.281017678417287,-0.498760716696658
0.271779700292877,-0.496731824498929
0.262594265688653,-0.494703763746363
0.253461337595844,-0.492676604453937
0.244380879005682,-0.490650416636628
0.235352852909397,-0.488625270309411
0.22637722229822,-0.486601235487264
0.217453950163382,-0.484578382185162
0.208582999496112,-0.482556780418083
0.199764333287643,-0.480536500201002
0.190997914529204,-0.478517611548896
0.182283706212026,-0.47650018447674
0.173621671327339,-0.474484288999513
0.165011772866375,-0.472469995132189
0.156453973820363,-0.470457372889746
0.147948237180536,-0.46844649228716
0.139494525938122,-0.466437423339406
0.131092803084353,-0.464430236061463
0.122743031610459,-0.462425000468305
0.114445174507672,-0.460421786574909
0.106199194767221,-0.458420664396252
0.0980050553803374,-0.45642170394731
0.0898627193382517,-0.45442497524306
0.0817721496321944,-0.452430548298478
0.0737333092533964,-0.450438493128539
0.0657461611930882,-0.448448879748222
0.0578106684425003,-0.446461778172501
0.0499267939928635,-0.444477258416354
0.0420945008354082,-0.442495390494757
0.0343137519613653,-0.440516244422686
0.0265845103619654,-0.438539890215117
0.0189067390284389,-0.436566397887028
0.0112804009520165,-0.434595837453393
0.00370545912392908,-0.432628278929191
-0.00381812346459309,-0.430663792329397
-0.0112903838223191,-0.428702447668987
-0.0187113589580187,-0.426744314962938
-0.0260810858804607,-0.424789464226226
-0.0333996015984149,-0.422837965473829
-0.0406669431206506,-0.420889888720721
-0.0478831474559371,-0.418945303981879
-0.0550482516130439,-0.417004281272281
-0.0621622926007401,-0.415066890606902
-0.0692253074277954,-0.413133202000718
-0.076237333102979,-0.411203285468706
-0.0831984066350602,-0.409277211025843
-0.0901085650328085,-0.407355048687105
-0.0969678453049934,-0.405436868467468
-0.103776284460384,-0.403522740381908
-0.11053391950775,-0.401612734445403
-0.11724078745586,-0.399706920672928
-0.123896925313484,-0.397805369079459
-0.130502370089392,-0.395908149679974
-0.137057158792352,-0.394015332489448
-0.143561328431135,-0.392126987522858
-0.150014916014509,-0.390243184795181
-0.156417958551243,-0.388363994321392
-0.162770493050108,-0.386489486116468
-0.169072556519873,-0.384619730195386
-0.175324185969306,-0.382754796573121
-0.181525418407178,-0.380894755264651
-0.187676290842257,-0.379039676284952
-0.193776840283313,-0.377189629648999
-0.199827103739116,-0.37534468537177
-0.205827118218435,-0.373504913468241
-0.211776920730038,-0.371670383953388
-0.217676548282697,-0.369841166842187
-0.223526037885179,-0.368017332149616
-0.229325426546255,-0.36619894989065
-0.235074751274693,-0.364386090080265
-0.240774049079263,-0.362578822733439
-0.246423356968735,-0.360777217865147
-0.252022711951877,-0.358981345490366
-0.25757215103746,-0.357191275624073
-0.263071711234252,-0.355407078281243
-0.268521429551023,-0.353628823476854
-0.273921342996543,-0.35185658122588
-0.27927148857958,-0.3500904215433
-0.284571903308904,-0.348330414444089
-0.289822624193284,-0.346576629943223
-0.295023688241491,-0.34482913805568
-0.300175132462292,-0.343088008796435
-0.305276993864458,-0.341353312180465
-0.310329309456758,-0.339625118222746
-0.315332116247961,-0.337903496938254
-0.320285451246837,-0.336188518341967
-0.325189351462155,-0.33448025244886
-0.330043853902684,-0.332778769273909
-0.334848995577194,-0.331084138832092
-0.339604813494454,-0.329396431138385
-0.344311344663234,-0.327715716207763
-0.348968626092303,-0.326042064055203
-0.353576694790429,-0.324375544695683
-0.358135587766384,-0.322716228144177
-0.362645342028936,-0.321064184415663
-0.367105994586853,-0.319419483525117
-0.371517582448907,-0.317782195487515
-0.375880142623866,-0.316152390317833
-0.380193712120499,-0.314530138031049
-0.384458327947577,-0.312915508642138
-0.388674027113867,-0.311308572166077
-0.39284084662814,-0.309709398617842
-0.396958823499165,-0.30811805801241
-0.401027994735712,-0.306534620364756
-0.405048397346549,-0.304959155689858
-0.409020068340446,-0.303391734002692
-0.412943044726173,-0.301832425318234
-0.416817363512499,-0.30028129965146
-0.420643061708193,-0.298738427017348
-0.424420176322025,-0.297203877430873
-0.428148744362763,-0.295677720907011
-0.431828802839178,-0.294160027460739
-0.435460388760039,-0.292650867107034
-0.439043539134115,-0.291150309860872
-0.442578290970175,-0.289658425737229
-0.446064681276989,-0.288175284751082
-0.449502747063327,-0.286700956917407
-0.452892525337957,-0.28523551225118
-0.456234053109649,-0.283779020767378
-0.459527367387172,-0.282331552480977
-0.462772505179297,-0.280893177406954
-0.465969503494791,-0.279463965560285
-0.469118399342425,-0.278043986955946
-0.472219229730967,-0.276633311608914
-0.475272031669188,-0.275232009534165
-0.478276842165857,-0.273840150746675
-0.481233698229742,-0.272457805261422
-0.484142636869614,-0.271085043093381
-0.487003695094241,-0.269721934257528
-0.489816909912394,-0.268368548768841
-0.492582318332841,-0.267024956642295
-0.495299957364352,-0.265691227892867
-0.497969864015696,-0.264367432535533
-0.500592075295643,-0.26305364058527
-0.503166628212962,-0.261749922057054
-0.505693559776422,-0.260456346965861
-0.508172906994793,-0.259172985326668
-0.510604706876844,-0.257899907154451
-0.512988996431344,-0.256637182464187
-0.515325812667063,-0.255384881270852
-0.51761519259277,-0.254143073589422
-0.519857173217235,-0.252911829434875
-0.522051791549228,-0.251691218822185
-0.524199084597516,-0.250481311766329
-0.52629908937087,-0.249282178282285
-0.528351842878059,-0.248093888385028
-0.530357382127852,-0.246916512089535
-0.53231574412902,-0.245750119410781
-0.53422696589033,-0.244594780363745
-0.536091084420553,-0.243450564963401
-0.537908136728458,-0.242317543224726
-0.539678159822815,-0.241195785162697
-0.541401190712392,-0.24008536079229
-0.543077266405959,-0.238986340128482
-0.544706423912286,-0.237898793186248
-0.546288700240141,-0.236822789980565
-0.547824132398295,-0.23575840052641
-0.549312757395516,-0.23470569483876
-0.550754612240574,-0.233664742932589
-0.552149733942239,-0.232635614822875
-0.553498159509279,-0.231618380524595
-0.554799925950464,-0.230613110052724
-0.556055070274564,-0.229619873422238
-0.557263629490347,-0.228638740648115
-0.558425640606583,-0.227669781745331
-0.559541140632043,-0.226713066728862
-0.560610166575494,-0.225768665613685
-0.561632755445706,-0.224836648414775
-0.562608944251449,-0.223917085147109
-0.563538770001493,-0.223010045825665
-0.564422269704605,-0.222115600465417
-0.565259480369557,-0.221233819081343
-0.566050439005116,-0.220364771688418
-0.566795182620053,-0.21950852830162
-0.567493748223137,-0.218665158935924
-0.568146172823138,-0.217834733606307
-0.568752493428824,-0.217017322327746
-0.569312747048965,-0.216212995115216
-0.56982697069233,-0.215421821983695
-0.570295201367689,-0.214643872948158
-0.570717476083812,-0.213879218023582
-0.571093831849467,-0.213127927224943
-0.571424305673423,-0.212390070567218
-0.571708934564451,-0.211665718065383
-0.57194775553132,-0.210954939734415
-0.572140805582799,-0.210257805589289
-0.572288121727657,-0.209574385644983
-0.572389740974665,-0.208904749916473
-0.57244570033259,-0.208248968418734
-0.572456036810202,-0.207607111166744
-0.572420787416272,-0.206979248175478
-0.572339989159568,-0.206365449459914
-0.572213679048859,-0.205765785035028
-0.572041894092916,-0.205180324915795
-0.571824671300507,-0.204609139117193
-0.571562047680402,-0.204052297654198
-0.571254060241369,-0.203509870541786
-0.57090074599218,-0.202981927794933
-0.570502141941602,-0.202468539428616
-0.570058285098406,-0.201969775457812
-0.56956921247136,-0.201485705897496
-0.569034961069234,-0.201016400762645
-0.568455567900798,-0.200561930068236
-0.56783106997482,-0.200122363829245
-0.56716150430007,-0.199697772060648
-0.566446907885318,-0.199288224777421
-0.565687317739333,-0.198893791994542
-0.564882770870884,-0.198514543726986
-0.564033304288741,-0.19815054998973
-0.563138955001673,-0.19780188079775
-0.562199760018449,-0.197468606166023
-0.561215756347839,-0.197150796109525
-0.560186980998612,-0.196848520643232
-0.559113470979538,-0.19656184978212
-0.557995263299385,-0.196290853541167
-0.556832394966924,-0.196035601935349
-0.555624902990923,-0.195796164979641
-0.554372824380152,-0.195572612689021
-0.553076196143381,-0.195365015078465
-0.551735055289378,-0.195173442162948
-0.550349438826914,-0.194997963957448
-0.548919383764757,-0.194838650476941
-0.547444927111676,-0.194695571736404
-0.545926105876443,-0.194568797750811
-0.544362957067824,-0.194458398535141
-0.542755517694591,-0.19436444410437
-0.541103824765512,-0.194287004473473
-0.539407915289357,-0.194226149657427
-0.537667826274895,-0.194181949671209
-0.535883594730895,-0.194154474529795
-0.534055257666127,-0.194143794248162
-0.532182852089361,-0.194149978841285
-0.530266415009365,-0.194173098324141
-0.528305983434909,-0.194213222711707
-0.526301594374762,-0.194270422018958
-0.524253284837694,-0.194344766260872
-0.522161091832474,-0.194436325452425
-0.520025052367872,-0.194545169608593
-0.517845203452656,-0.194671368744352
-0.515621582095597,-0.19481499287468
-0.513354225305463,-0.194976112014551
-0.511043170091025,-0.195154796178943
-0.50868845346105,-0.195351115382833
-0.50629011242431,-0.195565139641195
-0.503848183989572,-0.195796938969008
-0.501362705165607,-0.196046583381246
-0.498833712961184,-0.196314142892888
-0.496261244385072,-0.196599687518908
-0.49364533644604,-0.196903287274283
-0.490986026152859,-0.197225012173991
-0.488283350514296,-0.197564932233006
-0.485537346539123,-0.197923117466306
-0.482748051236108,-0.198299637888867
-0.47991550161402,-0.198694563515666
-0.477039734681628,-0.199107964361678
-0.474120787447704,-0.19953991044188
-0.471158696921014,-0.199990471771249
-0.46815350011033,-0.20045971836476
-0.46510523402442,-0.200947720237391
-0.462013935672053,-0.201454547404117
-0.458879642062,-0.201980269879916
-0.455702390203029,-0.202524957679763
-0.45248221710391,-0.203088680818635
-0.449219159773412,-0.203671509311508
-0.445913255220305,-0.204273513173358
-0.442564540453357,-0.204894762419163
-0.439173052481339,-0.205535327063898
-0.43573882831302,-0.206195277122539
-0.432261904957169,-0.206874682610064
-0.428742319422555,-0.207573613541449
-0.425180108717948,-0.208292139931669
-0.421575309852117,-0.209030331795702
-0.417927959833831,-0.209788259148523
-0.414238095671861,-0.210565992005109
-0.410505754374975,-0.211363600380437
-0.406730972951942,-0.212181154289483
-0.402913788411533,-0.213018723747223
-0.399054237762516,-0.213876378768634
-0.395152358013661,-0.214754189368692
-0.391208186173737,-0.215652225562373
-0.387221759251513,-0.216570557364654
-0.38319311425576,-0.217509254790512
-0.379122288195246,-0.218468387854921
-0.37500931807874,-0.21944802657286
-0.370854240915012,-0.220448240959305
-0.366657093712832,-0.221469101029231
-0.362417913480969,-0.222510676797615
-0.358136737228192,-0.223573038279434
-0.35381360196327,-0.224656255489663
-0.349448544694973,-0.22576039844328
-0.345041602432071,-0.226885537155261
-0.340592812183332,-0.228031741640582
-0.336102210957526,-0.229199081914219
-0.331569835763423,-0.230387627991149
-0.326995723609791,-0.231597449886349
-0.322379911505401,-0.232828617614794
-0.317722436459021,-0.234081201191461
-0.313023335479421,-0.235355270631327
-0.30828264557537,-0.236650895949367
-0.303500403755638,-0.237968147160559
-0.298676647028994,-0.239307094279878
-0.293811412404207,-0.240667807322301
-0.288904736890047,-0.242050356302805
-0.283956657495284,-0.243454811236365
-0.278967211228685,-0.244881242137959
-0.273936435099022,-0.246329719022562
-0.268864366115063,-0.247800311905151
-0.263751041285577,-0.249293090800702
-0.258596497619335,-0.250808125724192
-0.253400772125105,-0.252345486690598
-0.248163901811656,-0.253905243714894
-0.242885923687759,-0.255487466812059
-0.237566874762183,-0.257092225997068
-0.232206792043696,-0.258719591284897
-0.226805712541068,-0.260369632690524
-0.221363673263069,-0.262042420228924
-0.215880711218468,-0.263738023915073
-0.210356863416035,-0.265456513763949
-0.204792166864538,-0.267197959790528
-0.199186658572748,-0.268962432009786
-0.193540375549432,-0.270750000436699
-0.187853354803362,-0.272560735086243
-0.182125633343306,-0.274394705973396
-0.176357248178034,-0.276251983113134
-0.170548236316314,-0.278132636520432
-0.164698634766917,-0.280036736210268
-0.158808480538612,-0.281964352197618
-0.152877810640168,-0.283915554497457
-0.146906662080354,-0.285890413124763
-0.14089507186794,-0.287888998094512
-0.134843077011695,-0.28991137942168
-0.128750714520389,-0.291957627121244
-0.122618021402791,-0.29402781120818
-0.11644503466767,-0.296122001697464
-0.110231791323796,-0.298240268604074
-0.103978328379939,-0.300382681942984
-0.0976846828448662,-0.302549311729172
-0.0913508917273488,-0.304740227977614
-0.0849769920361553,-0.306955500703287
-0.0785630207800557,-0.309195199921166
-0.0721090149678189,-0.311459395646228
-0.0656150116082146,-0.31374815789345
-0.0590810477100118,-0.316061556677808
-0.0525071602819804,-0.318399662014278
-0.0458933863328891,-0.320762543917837
-0.039239762871508,-0.323150272403461
-0.0325463269066058,-0.325562917486126
-0.0258131154469525,-0.32800054918081
-0.0190401655013168,-0.330463237502487
-0.0122275140784688,-0.332951052466136
-0.00537519818717722,-0.335464064086731
0.00151674516378798,-0.33800234237925
0.00844827896565805,-0.340565957358668
0.015419366209663,-0.343154979039963
0.022429969887034,-0.345769477438111
0.0294800529890011,-0.348409522568087
0.0365695785067956,-0.351075184444869
0.0436985094316475,-0.353766533083433
0.0508668087547879,-0.356483638498755
0.058074439467447,-0.359226570705811
0.065321364560856,-0.361995399719578
0.0726075470262448,-0.364790195555033
0.0799329498548447,-0.367611028227151
0.0872975360378857,-0.370457967750909
0.0947012685665991,-0.373331084141284
0.102144110432215,-0.376230447413252
0.109626024625964,-0.379156127581789
0.117146974139077,-0.382108194661872
0.124706921962785,-0.385086718668477
0.124706921962785,-0.385086718668477
0.132241183757544,-0.388074841990549
0.139685328223508,-0.391055592299806
0.14703969791145,-0.394028867535381
0.154304635372146,-0.396994565636408
0.16148048315637,-0.399952584542021
0.168567583814897,-0.402902822191353
0.175566279898502,-0.40584517652354
0.182476913957959,-0.408779545477714
0.189299828544044,-0.411705826993009
0.196035366207529,-0.414623919008559
0.202683869499192,-0.417533719463498
0.209245680969805,-0.420435126296961
0.215721143170144,-0.423328037448079
0.222110598650984,-0.426212350855989
0.228414389963099,-0.429087964459822
0.234632859657263,-0.431954776198714
0.240766350284252,-0.434812684011798
0.24681520439484,-0.437661585838207
0.252779764539802,-0.440501379617076
0.258660373269913,-0.443331963287539
0.264457373135947,-0.446153234788729
0.270171106688678,-0.448965092059781
0.275801916478882,-0.451767433039827
0.281350145057334,-0.454560155668002
0.286816134974807,-0.45734315788344
0.292200228782077,-0.460116337625275
0.297502769029918,-0.46287959283264
0.302724098269106,-0.465632821444669
0.307864559050414,-0.468375921400496
0.312924493924617,-0.471108790639255
0.317904245442491,-0.47383132710008
0.322804156154809,-0.476543428722104
0.327624568612346,-0.479244993444462
0.332365825365878,-0.481935919206287
0.337028268966178,-0.484616103946714
0.341612241964022,-0.487285445604875
0.346118086910184,-0.489943842119905
0.350546146355438,-0.492591191430937
0.354896762850561,-0.495227391477106
0.359170278946325,-0.497852340197545
0.363367037193506,-0.500465935531389
0.367487380142879,-0.50306807541777
0.371531650345218,-0.505658657795823
0.375500190351298,-0.508237580604682
0.379393342711894,-0.51080474178348
0.383211449977779,-0.513360039271352
0.38695485469973,-0.51590337100743
0.39062389942852,-0.51843463493085
0.394218926714925,-0.520953728980745
0.397740279109719,-0.523460551096248
0.401188299163676,-0.525954999216494
0.404563329427572,-0.528436971280616
0.407865712452181,-0.530906365227748
0.411095790788277,-0.533363078997024
0.414253906986636,-0.535807010527578
0.417340403598032,-0.538238057758544
0.42035562317324,-0.540656118629056
0.423299908263034,-0.543061091078246
0.426173601418189,-0.54545287304525
0.42897704518948,-0.547831362469201
0.431710582127682,-0.550196457289233
0.434374554783569,-0.55254805544448
0.436969305707915,-0.554886054874075
0.439495177451497,-0.557210353517153
0.441952512565087,-0.559520849312847
0.444341653599462,-0.56181744020029
0.446662943105395,-0.564100024118618
0.448916723633661,-0.566368499006964
0.451103337735035,-0.568622762804461
0.453223127960292,-0.570862713450244
0.455276436860206,-0.573088248883445
0.457263606985553,-0.5752992670432
0.459184980887106,-0.577495665868643
0.46104090111564,-0.579677343298905
0.46283171022193,-0.581844197273122
0.464557750756751,-0.583996125730428
0.466219365270878,-0.586133026609956
0.467816896315084,-0.588254797850841
0.469350686440146,-0.590361337392215
0.470821078196837,-0.592452543173213
0.472228414135932,-0.594528313132969
0.473573036808205,-0.596588545210616
0.474855288764433,-0.598633137345288
0.476075512555388,-0.60066198747612
0.477234050731847,-0.602674993542245
0.478331245844583,-0.604672053482796
0.479367440444371,-0.606653065236908
0.480342977081986,-0.608617926743715
0.481258198308203,-0.610566535942351
0.482113446673796,-0.612498790771948
0.48290906472954,-0.614414589171641
0.483645395026209,-0.616313829080564
0.484322780114579,-0.618196408437851
0.484941562545424,-0.620062225182636
0.485502084869519,-0.621911177254052
0.486004689637638,-0.623743162591233
0.486449719400556,-0.625558079133313
0.486837516709048,-0.627355824819426
0.487168424113888,-0.629136297588706
0.487442784165852,-0.630899395380286
0.487660939415713,-0.632645016133301
0.487823232414247,-0.634373057786884
0.487930005712228,-0.636083418280169
0.487981601860431,-0.63777599555229
0.48797836340963,-0.639450687542381
0.4879206329106,-0.641107392189576
0.487808752914116,-0.642746007433008
0.487643065970953,-0.644366431211811
0.487423914631886,-0.645968561465119
0.487151641447688,-0.647552296132067
0.486826588969134,-0.649117533151787
0.486449099747,-0.650664170463413
0.48601951633206,-0.652192106006081
0.485538181275089,-0.653701237718922
0.485005437126861,-0.655191463541072
0.484421626438151,-0.656662681411664
0.483787091759734,-0.658114789269831
0.483102175642384,-0.659547685054708
0.482367220636876,-0.660961266705429
0.481582569293985,-0.662355432161127
0.480748564164485,-0.663730079360936
0.479865547799152,-0.665085106243991
0.478933862748759,-0.666420410749423
0.477953851564082,-0.66773589081637
0.476925856795895,-0.669031444383962
0.475850220994972,-0.670306969391334
0.47472728671209,-0.671562363777621
0.473557396498021,-0.672797525481956
0.472340892903542,-0.674012352443473
0.471078118479426,-0.675206742601306
0.469769415776448,-0.676380593894588
0.468415127345383,-0.677533804262454
0.467015595737006,-0.678666271644037
0.465571163502091,-0.67977789397847
0.464082173191413,-0.680868569204889
0.462548967355747,-0.681938195262427
0.460971888545868,-0.682986670090217
0.459351279312549,-0.684013891627393
0.457687482206566,-0.68501975781309
0.455980839778693,-0.686004166586441
0.454231694579706,-0.68696701588658
0.452440389160378,-0.687908203652641
0.450607266071484,-0.688827627823757
0.4487326678638,-0.689725186339063
0.4468169370881,-0.690600777137692
0.444860416295158,-0.691454298158778
0.442863448035749,-0.692285647341456
0.440826374860648,-0.693094722624858
0.43874953932063,-0.693881421948119
0.436633283966469,-0.694645643250372
0.434477951348939,-0.695387284470751
0.432283884018817,-0.696106243548391
0.430051424526876,-0.696802418422425
0.42778091542389,-0.697475707031986
0.425472699260635,-0.698126007316209
0.423127118587886,-0.698753217214228
0.420744515956416,-0.699357234665176
0.418325233917002,-0.699937957608187
0.415869615020416,-0.700495283982396
0.413378001817435,-0.701029111726935
0.410850736858832,-0.701539338780939
0.408288162695383,-0.702025863083541
0.405690621877862,-0.702488582573876
0.403058456957044,-0.702927395191077
0.400392010483703,-0.703342198874279
0.397691625008614,-0.703732891562614
0.394957643082552,-0.704099371195216
0.392190407256292,-0.704441535711221
0.389390260080608,-0.704759283049761
0.386557544106274,-0.70505251114997
0.383692601884066,-0.705321117950982
0.380795775964759,-0.705565001391931
0.377867408899126,-0.705784059411951
0.374907843237943,-0.705978189950175
0.371917421531984,-0.706147290945738
0.368896486332024,-0.706291260337774
0.365845380188838,-0.706409996065415
0.3627644456532,-0.706503396067796
0.359654025275886,-0.706571358284051
0.356514461607669,-0.706613780653314
0.353346097199324,-0.706630561114719
0.350149274601626,-0.706621597607398
0.34692433636535,-0.706586788070487
0.343671625041271,-0.706526030443118
0.340391483180162,-0.706439222664427
0.337084253332799,-0.706326262673546
0.333750278049957,-0.70618704840961
0.33038989988241,-0.706021477811752
0.327003461380933,-0.705829448819106
0.3235913050963,-0.705610859370806
0.320153773579287,-0.705365607405986
0.316691209380667,-0.70509359086378
0.313203955051216,-0.704794707683322
0.309692353141708,-0.704468855803744
0.306156746202918,-0.704115933164182
0.302597476785621,-0.703735837703769
0.299014887440591,-0.703328467361639
0.295409320718603,-0.702893720076926
0.291781119170432,-0.702431493788763
0.288130625346852,-0.701941686436285
0.284458181798638,-0.701424195958624
0.280764131076565,-0.700878920294916
0.277048815731407,-0.700305757384294
0.273312578313939,-0.699704605165892
0.269555761374936,-0.699075361578843
0.265778707465172,-0.698417924562281
0.261981759135423,-0.697732192055341
0.258165258936462,-0.697018061997156
0.254329549419065,-0.69627543232686
0.250474973134006,-0.695504200983587
0.246601872632059,-0.69470426590647
0.242710590464,-0.693875525034644
0.238801469180604,-0.693017876307242
0.234874851332644,-0.692131217663399
0.230931079470896,-0.691215447042247
0.226970496146134,-0.690270462382921
0.222993443909134,-0.689296161624555
0.219000265310668,-0.688292442706282
0.214991302901513,-0.687259203567236
0.210966899232443,-0.686196342146552
0.206927396854233,-0.685103756383363
0.202873138317657,-0.683981344216803
0.19880446617349,-0.682829003586005
0.194721722972507,-0.681646632430104
0.190625251265482,-0.680434128688233
0.18651539360319,-0.679191390299526
0.182392492536406,-0.677918315203118
0.178256890615905,-0.676614801338141
0.17410893039246,-0.67528074664373
0.169948954416848,-0.673916049059018
0.165777305239842,-0.67252060652314
0.161594325412217,-0.671094316975229
0.157400357484747,-0.669637078354419
0.153195744008209,-0.668148788599845
0.148980827533376,-0.666629345650638
0.144755950611022,-0.665078647445935
0.140521455791923,-0.663496591924868
0.136277685626854,-0.661883077026571
0.132024982666588,-0.660238000690178
0.127763689461901,-0.658561260854823
0.123494148563567,-0.65685275545964
0.119216702522362,-0.655112382443763
0.114931693889058,-0.653340039746324
0.110639465214433,-0.65153562530646
0.106340359049259,-0.649699037063302
0.102034717944312,-0.647830172955986
0.0977228844503665,-0.645928930923644
0.0934052011181971,-0.643995208905411
0.0890820104985783,-0.64202890484042
0.0847536551422852,-0.640029916667805
0.080420477600092,-0.637998142326701
0.0760828204227739,-0.635933479756241
0.0717410261611049,-0.633835826895558
0.0673954373658604,-0.631705081683788
0.0630463965878146,-0.629541142060062
0.0586942463777425,-0.627343905963516
0.0543393292864185,-0.625113271333284
0.0499819878646175,-0.622849136108498
0.0456225646631139,-0.620551398228293
0.0412614022326828,-0.618219955631803
0.0368988431240985,-0.615854706258162
0.032535229888136,-0.613455548046502
0.0281709050755696,-0.611022378935959
0.0238062112371744,-0.608555096865666
0.0194414909237248,-0.606053599774757
0.0150770866859956,-0.603517785602366
0.0107133410747613,-0.600947552287626
0.006350596640797,-0.598342797769672
0.00198919593487687,-0.595703419987637
-0.00237051849222397,-0.593029316880655
-0.00672820408973125,-0.590320386387859
-0.0110835183068698,-0.587576526448385
-0.0154361185928655,-0.584797635001365
-0.0197856623969432,-0.581983609985934
-0.0241318071683284,-0.579134349341225
-0.0284742103562464,-0.576249751006372
-0.0328125294099225,-0.573329712920509
-0.0371464217785821,-0.57037413302277
-0.0414755449114505,-0.567382909252288
-0.0457995562577529,-0.564355939548198
-0.0501181132667149,-0.561293121849633
-0.0544308733875613,-0.558194354095728
-0.058737494069518,-0.555059534225615
-0.0630376327618099,-0.551888560178429
-0.0673309469136626,-0.548681329893304
-0.0716170939743011,-0.545437741309373
-0.0758957313929511,-0.542157692365771
-0.0801665166188375,-0.538841081001631
-0.0844291071011861,-0.535487805156086
-0.0886831602892217,-0.532097762768272
-0.0929283336321701,-0.528670851777321
-0.0971642845792562,-0.525206970122368
-0.101390670579706,-0.521706015742546
-0.105607149082744,-0.51816788657699
-0.109813377537595,-0.514592480564832
-0.114009013393486,-0.510979695645208
-0.118193714099642,-0.507329429757249
-0.122367137105287,-0.503641580840092
-0.126528939859647,-0.499916046832869
-0.130678779811948,-0.496152725674714
-0.134816314411415,-0.492351515304762
-0.138941201107272,-0.488512313662145
-0.143053097348746,-0.484635018685998
-0.147151660585062,-0.480719528315454
-0.151236548265445,-0.476765740489648
-0.15530741783912,-0.472773553147713
-0.159363926755313,-0.468742864228783
-0.163405732463248,-0.464673571671993
-0.167432492412152,-0.460565573416475
-0.17144386405125,-0.456418767401363
-0.175439504829766,-0.452233051565792
-0.179419072196927,-0.448008323848896
-0.183382223601958,-0.443744482189807
-0.187328616494083,-0.439441424527661
-0.191257908322528,-0.43509904880159
-0.195169756536519,-0.430717252950729
-0.199063818585281,-0.426295934914211
-0.202939751918039,-0.421834992631171
-0.206797213984018,-0.417334324040741
-0.210635862232445,-0.412793827082057
-0.214455354112543,-0.408213399694252
-0.218255347073539,-0.403592939816459
-0.222035498564657,-0.398932345387813
-0.225795466035124,-0.394231514347447
-0.229534906934164,-0.389490344634496
-0.233253478711002,-0.384708734188092
-0.236950838814865,-0.37988658094737
-0.240626644694977,-0.375023782851464
-0.244280553800564,-0.370120237839508
-0.24791222358085,-0.365175843850635
-0.251521311485062,-0.360190498823978
-0.255107474962425,-0.355164100698674
-0.258670371462163,-0.350096547413854
-0.262209658433503,-0.344987736908652
-0.265724993325669,-0.339837567122204
-0.269216033587887,-0.334645935993642
-0.272682436669382,-0.329412741462099
-0.27612386001938,-0.324137881466712
-0.279539961087106,-0.318821253946611
-0.282930397321784,-0.313462756840933
-0.286294826172642,-0.30806228808881
-0.289632905088902,-0.302619745629377
-0.292944291519793,-0.297135027401767
-0.296228642914537,-0.291608031345114
-0.299485616722361,-0.286038655398552
-0.302714870392491,-0.280426797501215
-0.30591606137415,-0.274772355592237
-0.309088847116566,-0.269075227610751
-0.312232885068962,-0.263335311495891
-0.315347832680565,-0.257552505186792
-0.318433347400599,-0.251726706622586
-0.32148908667829,-0.245857813742408
-0.324514707962864,-0.239945724485392
-0.327509868703545,-0.233990336790671
-0.330474226349559,-0.22799154859738
-0.333407438350131,-0.221949257844652
-0.336309162154487,-0.215863362471621
-0.339179055211852,-0.209733760417421
-0.342016774971451,-0.203560349621185
-0.344821978882509,-0.197343028022048
-0.347594324394252,-0.191081693559143
-0.350333468955905,-0.184776244171605
-0.353039070016694,-0.178426577798566
-0.355710785025844,-0.172032592379162
-0.358348271432579,-0.165594185852525
-0.360951186686126,-0.159111256157789
-0.36351918823571,-0.152583701234089
-0.366051933530556,-0.146011419020559
-0.368549080019889,-0.139394307456331
-0.371010285152935,-0.13273226448054
-0.373435206378919,-0.12602518803232
-0.375823501147066,-0.119272976050805
-0.378174826906602,-0.112475526475128
-0.380488841106751,-0.105632737244423
-0.382765201196741,-0.0987445062978245
-0.385003564625794,-0.091810731574466
-0.387203588843138,-0.0848313110134809
-0.389364931297996,-0.0778061425540038
-0.391487249439596,-0.0707351241351678
-0.393570200717161,-0.0636181536961074
-0.395613442579917,-0.0564551291759558
-0.39761663247709,-0.0492459485138474
-0.399579427857904,-0.0419905096489156
-0.401501486171586,-0.0346887105202948
-0.40338246486736,-0.0273404490671181
-0.405222021394452,-0.01994562322852
-0.407019813202087,-0.0125041309436337
-0.40877549773949,-0.00501587015159382
-0.410488732455887,0.00251926120846659
-0.412159174800503,0.010101365197413
-0.413786482222564,0.0177305438761122
-0.415370312171294,0.0254068993054298
-0.416910322095919,0.0331305335462325
-0.418406169445664,0.0409015486593858
-0.419857511669755,0.0487200467057567
-0.421264006217417,0.0565861297462104
-0.422625310537876,0.064499899841614
-0.423941082080355,0.0724614590528329
-0.425210978294082,0.0804709094407339
