0.745610504858356,-0.83938291176253
-0.28651569586762,0.220257217813038
-0.650184016635239,0.938073944645931
-0.000580477838215243,0.155542244942507
0.649023060958809,-0.626989454760917
-0.729072099320655,0.0177408897694076
-0.966205450222629,-0.0589516472887202
