-0.427883643865973,-0.309204950741369
-0.420315298785594,-0.303839124428459
-0.413290610502766,-0.301251706352829
-0.405445504355053,-0.29333736108844
-0.398143158314535,-0.288200540361337
-0.384002982110148,-0.289851213023165
-0.388935336220422,-0.304751211238146
-0.376760944749861,-0.273241019751674
-0.395497161183965,-0.231644961263319
-0.362939006052366,-0.263639372154959
-0.35615655277177,-0.258948632649526
-0.349459179076373,-0.25433069353938
-0.317484592682933,-0.289542530742887
-0.386088145177267,-0.274949577870425
-0.337051711508095,-0.232741337496036
-0.323511513243206,-0.236578104051694
-0.294747217628508,-0.27271864671731
-0.352894607636121,-0.212626018614302
-0.304922130599195,-0.224006415436536
-0.29888925315898,-0.219954972888753
-0.312429057699749,-0.223293529725887
-0.264219920082878,-0.256837721577417
-0.318796050143116,-0.178560472095326
-0.275563704732312,-0.204433021650693
-0.275184543334175,-0.213219882599095
-0.308399751924866,-0.162834563620427
-0.305718448679798,-0.23039415775863
-0.253506173871823,-0.189983971937649
-0.21371913612799,-0.158224438665526
-0.242943948125339,-0.183152948153051
-0.237777900964914,-0.17983426505374
-0.232687966486131,-0.176579545349758
-0.21934671769556,-0.200488260850399
-0.222734642192777,-0.170260228727787
-0.198630867626778,-0.155302504271565
-0.167442709701113,-0.208104641636618
-0.21350235216208,-0.196429019636671
-0.20372161859794,-0.158369714827878
-0.152938236629322,-0.137284168961865
-0.206374704021191,-0.129623189589658
-0.203896597293301,-0.178127397292342
-0.208533100533103,-0.16139116810959
-0.181593897486981,-0.144872843598232
-0.144452246626821,-0.13671046572752
-0.177020282407987,-0.0999050484311476
-0.148119288111722,-0.168765545953104
-0.212600266865364,-0.108345566063218
-0.124303119056648,-0.119645815840005
-0.157369874160617,-0.130607557219357
-0.153573300925968,-0.128428622281649
-0.180649107356731,-0.135670827473279
-0.14618248848128,-0.12423701529234
-0.107081130476871,-0.152946614890732
-0.139058465768219,-0.120264146484524
-0.135595379698105,-0.11835863427368
-0.132197646025364,-0.116506481058216
-0.128864816404818,-0.114707244988133
-0.134501297886434,-0.142731984608899
-0.122392075939602,-0.111265756884121
-0.119251268404576,-0.109622621150195
-0.0851559786344275,-0.0911735271490602
-0.109694229552597,-0.133113969756681
-0.0940065421681353,-0.144960889974071
-0.106272784211909,-0.119513858375184
-0.055106075671223,-0.123430209101176
-0.118874516251458,-0.137347031668566
-0.0525712826449005,-0.147064059779356
-0.0963591313028606,-0.0982818107130079
-0.0843504693230541,-0.10263324951259
-0.07759350129653,-0.131121586993412
-0.0394751177549135,-0.123075264708017
-0.0533843671756051,-0.0475038654081075
-0.0840006439095689,-0.0927556500404228
-0.0817025863641391,-0.09178840239215
-0.0471146793963344,-0.0514065397391101
-0.0887227521525216,-0.131030726687125
-0.0738631313696117,-0.082300025015389
-0.105773678620089,-0.0929202103189095
-0.0225928155787949,-0.0710812440494014
-0.10079543569557,-0.128958871738991
-0.0671824237080197,-0.0862519129261104
-0.0263485249375812,-0.0570373476013656
-0.0635237897886865,-0.0850535246018353
-0.0582516549331982,-0.1036908477773
-0.0298935433093925,-0.111424669000117
-0.017399333951306,-0.0734265594793867
-0.0129436261537022,-0.109690058967488
-0.0552933367666381,-0.0827670973363639
-0.0538007105624545,-0.0824279131196094
-0.0523581930195981,-0.0821270649983064
-0.0466170934098287,-0.0823915593603866
-0.0970358320408995,-0.126979184700217
-0.00347959200478275,-0.0450695180342727
-0.0557901340958038,-0.088973079981877
-0.037429824746319,-0.037633815251085
-0.04473026232037,-0.0811022906750897
-0.043625951741824,-0.0810574234220069
-0.0905457948803812,-0.115059740978673
-0.0415564479392675,-0.0810716509522491
-0.0405903580249014,-0.0811298620355783
-0.0396694449749062,-0.0812215488643824
-0.0591049517976512,-0.084326479991401
-0.0813315697792451,-0.0529984472730614
-0.0371732835593681,-0.0816930453236652
-0.0744441854802684,-0.0766128295601394
0.0111033489107994,-0.0882233228952526
-0.0316554714703949,-0.127198408052953
-0.0382863055343352,-0.117976248709588
-0.0417759231981191,-0.0651986168725649
-0.0333402094673007,-0.0834802336203398
-0.0414711890281688,-0.0806456624781385
-0.0162170042156854,-0.0600590740808899
-0.0358916265927314,-0.061906111190898
-0.0783030652678521,-0.0671420024265046
-0.0169082985455336,-0.128590116972743
-0.0235453594660245,-0.09611851954978
-0.0193623410665906,-0.0529514046756986
-0.0304915368964267,-0.0874738613637684
-0.0419761888263683,-0.109142263678683
0.00479704286429281,-0.105944381963961
-0.032607127619861,-0.126848244451776
-0.0299721072847602,-0.0900973531277296
-0.0482659008343607,-0.0828981850384742
-0.0656261075441258,-0.0941436515942528
0.00266247370414531,-0.0767982928599832
0.0047736229371805,-0.116455636907642
-0.0301140062666636,-0.0939078924819331
-0.0544055026011814,-0.140722132709152
-0.0304054050876564,-0.0955860217423253
-0.0149270213924907,-0.0828436901102579
-0.0308255033255046,-0.0973467993848633
-0.0472752021494084,-0.120808103706743
-0.0422674409792543,-0.125839684739442
-0.00651532182550173,-0.146602836622205
-0.0320374510060768,-0.101102160616445
-0.0794572786640861,-0.0835875387987622
-0.0328221269259554,-0.103089674605523
-0.00233901071726973,-0.0952793474771774
-0.083658713299242,-0.110125824268
-0.0057917656766997,-0.103912898551865
-0.0626653815142178,-0.152821167366419
-0.035276262308886,-0.108350454875439
-0.0550149018865625,-0.109120151376182
-0.0364454794466174,-0.11056228625234
0.00520904620564915,-0.114971069152958
-0.0133353592666577,-0.0797595198436429
-0.0383890568643679,-0.113984186284458
-0.0733800873119198,-0.0981149297752211
-0.0398060455898957,-0.116329733367073
-0.0405495760512344,-0.117520465476748
-0.0599994682829127,-0.0916984894435202
-0.0421044674451722,-0.119935637582844
-0.0443765514061818,-0.166013008776469
-0.0881407837963953,-0.103911128642511
-0.00496286552315603,-0.100935526651537
-0.00812912018233404,-0.121554776113662
-0.0840475895542836,-0.087730450295864
-0.0247919473679681,-0.091369169800695
-0.0512047138650254,-0.0884731642071322
-0.0980624045476514,-0.100558123049788
-0.0761062054780793,-0.175920067783808
-0.0265551409938115,-0.0850014809136842
-0.0145086168551507,-0.13879413296794
-0.0531447640294001,-0.135184914049177
-0.0834175975958098,-0.101342731027994
-0.0164275417960939,-0.116345793911484
-0.0563059638672305,-0.13914399831686
-0.0573905704149902,-0.140472025797319
-0.0794025677523761,-0.119859397817538
-0.0673558183570029,-0.191656659490027
-0.0607307330312288,-0.14447492051242
-0.0578228181736167,-0.16551258728402
-0.111892600385157,-0.164598111003125
-0.064190994858172,-0.148496754788152
-0.0367810451341503,-0.13506766364766
-0.111496284496452,-0.194024189158144
-0.0677592505760182,-0.152525598674572
-0.0568241856282491,-0.115852578468639
-0.0314957385393128,-0.152288165382688
-0.10876290684213,-0.135361623885989
-0.0401791753893792,-0.163739683201431
-0.07391345121695,-0.159223513064736
-0.0458388139088155,-0.138852267924807
-0.0801353671054037,-0.164303296288414
-0.0777105090803975,-0.163212725046605
-0.0543939268518064,-0.179820654235013
-0.0504399921500151,-0.130532642764616
-0.0734686203782962,-0.130736993954508
-0.110984716400369,-0.154967883332607
-0.0851000797967753,-0.137168390163041
-0.0797258970501475,-0.122918129390438
-0.104906525040406,-0.219486942822614
-0.0941333162851142,-0.213638661383028
-0.0894349077013208,-0.174912239957832
-0.108244313326837,-0.198674412885586
-0.0920851937375157,-0.177434833279359
-0.0956923291347526,-0.165752254775708
-0.143289409244182,-0.183930430932833
-0.100245718445606,-0.202872133824781
-0.129841465595034,-0.226078279931213
-0.0987404380151263,-0.18357710175759
-0.0978724547448265,-0.182663094731739
-0.101404932152285,-0.185959044368693
-0.102735899360036,-0.187132184392784
-0.0753527061206323,-0.224221248090268
-0.0719233400416065,-0.174986112755186
-0.133616806758878,-0.160574678873334
-0.0646614959809126,-0.152010785337333
-0.0932172697316946,-0.237357126940954
-0.0790118440363967,-0.227959048468761
-0.11198693352887,-0.194970074641019
-0.149300488318338,-0.219936979799547
-0.128684626699469,-0.185666245050476
-0.082479170339677,-0.211901464831592
-0.117182134454013,-0.199116058474168
-0.13563218461298,-0.153629060066987
-0.119743231310819,-0.201086795765049
-0.121013084629657,-0.202045054279073
-0.0831874382688876,-0.22740853689026
-0.158158291649553,-0.202622394374529
-0.160110088416198,-0.207043544730084
-0.155714321551669,-0.218337172070771
-0.127237466321097,-0.206547571535118
-0.12845422726259,-0.207387226973527
-0.179224359618691,-0.188708205762887
-0.150906297782834,-0.19308164947191
-0.113288033501518,-0.193868670400845
-0.0940439997544772,-0.210875410217729
-0.134372796001294,-0.211256962351686
-0.135520324139039,-0.211962108114556
-0.136654744268036,-0.212643289123176
-0.156234866695001,-0.205218754216651
-0.163862150679827,-0.221029294177211
-0.161457718079283,-0.208388114340767
-0.108220956314198,-0.175747688265956
-0.142114532700592,-0.215674258102618
-0.116583585172741,-0.231359017466005
-0.147760562973769,-0.205353987826257
-0.145204415563779,-0.217176984039429
-0.107888751856206,-0.255125533487023
-0.107409203840404,-0.182761600897032
-0.148140010388839,-0.218428237338172
-0.161083922459065,-0.197810096974844
-0.150005380093103,-0.219116807849545
-0.120289165634881,-0.196729193458219
-0.143992159072062,-0.189110202657608
-0.152656927477278,-0.219922429084965
-0.153499914645367,-0.220128606221676
-0.172016784616989,-0.190831088122085
-0.155121905970522,-0.220444764482468
-0.155900013437233,-0.220553861906554
-0.19014905793581,-0.22303273082079
-0.178377174857262,-0.252852740397378
-0.158097402911766,-0.22067992515359
-0.141595527348065,-0.210114144197745
-0.144216355673249,-0.25030954926893
-0.11823629741448,-0.19614337942983
-0.130804660840667,-0.208413560081468
-0.161276374906648,-0.220192756148051
-0.161835632629623,-0.219986754534372
-0.144748062596851,-0.244778219629244
-0.17850740364635,-0.235991866931017
-0.128884464839384,-0.208057267566253
-0.162581273425899,-0.217643336183176
-0.139613431379574,-0.179172695233858
-0.208444556853784,-0.254812232837891
-0.12238372616886,-0.243548989286077
-0.156599156405782,-0.187760400870856
-0.165620024331368,-0.216404806573176
-0.14429587845842,-0.23135794489392
-0.166135979613813,-0.215166993008138
-0.202399839909035,-0.176226042501266
-0.179001943514639,-0.233273512202155
-0.166672615466749,-0.212993563504371
-0.166786421484822,-0.212182863828134
-0.174680606686593,-0.191905117658706
-0.140554849659691,-0.244371757141166
-0.166926344907831,-0.209485909374512
-0.158500272201594,-0.173171492189442
-0.125112533036768,-0.165343477429976
-0.139757297652269,-0.189286291624315
-0.166626017112385,-0.205255478378299
-0.136271454509663,-0.216472952823902
-0.159050960694835,-0.207323141531309
-0.148582280679228,-0.251137118482121
-0.16574293798903,-0.200273992115868
-0.173663917070401,-0.161469709050428
-0.170076633598762,-0.190403750861003
-0.201988382949584,-0.222381157930277
-0.203457611856413,-0.193154550363221
-0.19995088878119,-0.172035820371556
-0.163262892239272,-0.191331675098358
-0.116673466961366,-0.164558177609945
-0.14520377688567,-0.167125535660441
-0.20014953940818,-0.219860833015637
-0.176805232953256,-0.199850389788081
-0.160075398509857,-0.182471409553851
-0.12749228150379,-0.17970985927956
-0.150149278063431,-0.207866883266034
-0.157648723405689,-0.176515960577848
-0.156751445155479,-0.17442161154431
-0.116223789862,-0.14935991233981
-0.154821618760764,-0.170066463314941
-0.178752539954137,-0.19214197838838
-0.134429071044019,-0.200245808764211
-0.102745624081391,-0.18590390985019
-0.150408332729164,-0.160677994407092
-0.12260262201201,-0.164512697880378
-0.174320844319826,-0.193877595459635
-0.172357521058148,-0.185984939216459
-0.154262084669746,-0.14024420001384
-0.190105136567517,-0.191893862236168
-0.152550816281842,-0.17942960873251
-0.184950566029339,-0.152871180597421
-0.120459398685114,-0.0966697287778577
-0.137648336137981,-0.136118607550631
-0.0940660247532766,-0.106096040936325
-0.134255966231725,-0.129990704448854
-0.12758252370859,-0.135467367301304
-0.100176327487487,-0.0860511243664293
-0.128772072626425,-0.120326388515727
-0.150497437480258,-0.135898599862046
-0.124847353698539,-0.11356338212336
-0.122803012241757,-0.110084514646098
-0.15865831595584,-0.116595873570741
-0.161503811641392,-0.105981424270249
-0.119821232089821,-0.139080555627766
-0.0947774656176148,-0.105838721531313
-0.111743551222342,-0.0916988604490877
-0.133521145804183,-0.126480363245423
-0.106920445961354,-0.0838737363919967
-0.150190407382101,-0.0409290548571567
-0.0806532067677739,-0.08474105308627
-0.103857517142212,-0.110172851487757
-0.12139917460649,-0.0811316006219263
-0.0827466061489644,-0.0577735946030999
-0.125322734174102,-0.0288153693464396
-0.117441946582616,-0.0397282443097248
-0.069904491259648,-0.0616818326265971
-0.0966196131047738,-0.0643913961961216
-0.0786693725153074,-0.0305237926040129
-0.0932917156909547,0.00481381355307231
-0.0729514445221592,-0.0310375793111374
-0.0499401342502943,-0.006403525242387
-0.0928904307650011,-0.00949956742635132
-0.0772079305474722,-0.038399607580083
-0.0984019266158589,0.0376663656991072
-0.0561318867310107,-0.00592584398184705
-0.0641588821142613,0.0281407900866979
-0.0823602233703687,0.0465914025250146
-0.0463871477814456,0.00133439773669633
-0.041565962862353,0.0420215333080447
-0.0416051670833511,-0.0257349122527199
-0.00146939370430814,0.0531747299151148
-0.0297994170897149,0.0324392855470377
0.0224888046031343,0.0848346061438842
0.0171197397120694,0.017382316822177
-0.0195697753771492,0.0672628585285713
-0.0303508801904701,0.0327786050515074
-0.00482582333551093,0.0456689835296092
-0.0244790043194774,0.0425513649667907
0.0232581935263424,0.0456352374028211
-0.0447971053012953,0.0796191993233345
0.00905701910504389,0.0874892017423255
0.000820908998338254,0.0524609583086438
0.0184853240659893,0.100626074829387
0.00873546059807353,0.0711477725634559
0.0282099608386632,0.11409917333229
0.0331845245173428,0.120962911739677
0.0307584090605634,0.160148383751174
0.0528375474362283,0.146007010407505
0.0789013209225169,0.14456023664319
0.00475101693653629,0.187243330868766
0.0591977296412824,0.156571169335877
0.0644435564392847,0.197196987894025
0.0896300058899648,0.201567671396373
0.119656694772208,0.153493740013357
0.0901238498524762,0.141495746980401
0.0871526776240911,0.194369205780659
0.0929816081606735,0.202196446881422
0.125407226559649,0.239798620063732
0.104880996935281,0.218122097694738
0.155810310348996,0.180605697366442
0.138976846154852,0.261192307190912
0.117614570969433,0.257728866929026
0.171058345336526,0.246177960656816
0.151384487034434,0.271866951960136
0.180225067169321,0.268095448306906
0.170419368678304,0.282767160838368
0.155764678679035,0.285505087104885
0.185220344246901,0.309991831752076
0.195072840742393,0.309340370785403
0.176233643254354,0.312323459698252
0.210470683179216,0.345063598589424
0.190309813759604,0.330681569863349
0.195104717493371,0.313332192571262
0.238566237770493,0.364195778206583
0.208847070499429,0.340138808985593
0.237723165952146,0.418077704882868
0.227032072917404,0.378279802719281
0.227032072917404,0.378279802719281
0.216891875584865,0.370368511599891
0.213816119311661,0.353046705680637
0.249298468443161,0.406972475395406
0.225892873775737,0.371192894665676
0.220466070391833,0.417584831696202
0.270708531505976,0.434466866183836
0.277656551026295,0.443367813924154
0.2405295161051,0.474919029462979
0.305271330842176,0.48595987860685
0.303776623347533,0.426285905528562
0.290806519263626,0.523971524514062
0.330834627536201,0.52693390378635
0.317388071425583,0.494039619001468
0.342777186541103,0.539803070071349
0.365328627338421,0.463307796714368
0.34001418547834,0.544024433962722
0.342037908086648,0.525255400737918
0.373822430249277,0.492638577676445
0.347035531633283,0.577416612759014
0.348953072275297,0.584832946664815
0.401736777909136,0.531513770632722
0.336651411607259,0.58539880239205
0.422886190032917,0.593061907332036
0.381713379292511,0.575058449899097
0.387040293066885,0.563643615127693
0.429188921874295,0.565753011936887
0.419515923035184,0.568570546172708
0.402445311062787,0.600817850966484
0.422203851928385,0.595109221103914
0.412291319767066,0.612974898733403
0.40670316895308,0.633722993436298
0.398127708353166,0.594310528108443
0.426418235322581,0.63031889785725
0.387390507517521,0.621259779607161
0.435412183864632,0.641293271442392
0.477391912843548,0.690177465674325
0.415354515162913,0.622727685850287
0.414467859033616,0.69394721512704
0.439297028047906,0.653608639550975
0.438778757585379,0.64276780459197
0.460389550928982,0.671438518077327
0.427707787483177,0.722297931498236
0.493602274027358,0.679570947237461
0.488971793106496,0.731554050297122
0.492738859717284,0.647195796864356
0.453886365482354,0.647973260868799
0.472036162112955,0.73119915027382
0.513294721531363,0.654140955877675
0.499275682409312,0.702421443236087
0.514200328521044,0.74614517260566
0.495504345633843,0.712671541948587
0.505979489202424,0.678612948818203
0.501575298735,0.719604367626996
0.487486590189746,0.682150509871892
0.507335428298582,0.726109009639214
0.468730632729898,0.775091057720523
0.553778878012073,0.693392047926842
0.552081154701759,0.782691471511459
0.517934379799929,0.737850444434945
0.520394213506042,0.740524712471362
0.504980843118672,0.776592978803886
0.507514238392371,0.700556749268229
0.535807268469348,0.764899898174925
0.55254151683658,0.784288836365505
0.531571399188312,0.752355605193778
0.533584881658493,0.754417347758485
0.535525193207712,0.756378829500653
0.578415087941883,0.718361871083552
0.539187698916626,0.760003098238605
0.590024034715053,0.724626102844719
0.507888134904965,0.776126442560128
0.544141396656301,0.764700593434199
0.53415806358689,0.807889318583772
0.547796487952836,0.76415797052126
0.548455393647723,0.768523925463592
0.591839268727155,0.788268575498411
0.56077687417109,0.79560522089625
0.578437628337761,0.774556985347908
0.553228578939356,0.772286248880862
0.528635131528364,0.760907058565586
0.555201960466624,0.773604468497081
0.593724926717816,0.769168268119881
0.5325375952191,0.738154086874622
0.553476559679011,0.782165186110991
0.558336255017698,0.775135900757022
0.542003593741839,0.792668177365555
0.598412705334534,0.822971965249026
0.559987054555712,0.775334034655755
0.527691589902936,0.769468116520324
0.560759524338172,0.775021362258955
0.547186395531244,0.774523352690793
0.585058051830694,0.770464578391195
0.551081728760724,0.762294558843634
0.561529670480446,0.77334737896616
0.60270464965976,0.771336585282378
0.597914157486282,0.820524007456086
0.586259312505108,0.772073498340745
0.561285363704039,0.770303047290886
0.511206835029553,0.720292085315571
0.560789767338147,0.768277439415986
0.550422920456218,0.804441917910459
0.526329751732269,0.779745175356046
0.517111934910279,0.759473166040087
0.591662174545289,0.803725942291509
0.584524923483054,0.790474667976082
0.591642003254537,0.773572885675132
0.557142221540696,0.7586159846453
0.55638287944696,0.756916154658865
0.536153245113095,0.758809445527032
0.597214830911166,0.780780714844639
0.553755131535244,0.751348713923265
0.552763804498972,0.749338656520328
0.530569417551852,0.705662230935769
0.523373064023479,0.706478367813657
0.527289341573876,0.758315188334063
0.543526849040766,0.726591431123283
0.519949921825913,0.740901567639538
0.594301411072726,0.754831253968969
0.544244574908273,0.733162426003114
0.509703513472892,0.707592095755013
0.541313136645758,0.72787943025495
0.539766266287009,0.725130339432345
0.509765555369413,0.734150035133588
0.499345771838064,0.674444502142217
0.514203005990178,0.717393684022356
0.566268911095008,0.708894405720359
0.559818243445928,0.757472348576147
0.567825339109005,0.734270028892838
0.527455909574416,0.703927015463797
0.52381366529139,0.742410957133255
0.538111916302421,0.704583146857708
0.521405158687758,0.693818749817282
0.498249538512906,0.712283337984694
0.517120007055431,0.686749969058155
0.529189588813256,0.712726292690812
0.524376956046903,0.698837342711179
0.495008925945536,0.713452102018578
0.522302679576769,0.69429925182964
0.507437975962649,0.660390008379389
0.503088925374584,0.664005859072953
0.536598523724218,0.613161536025509
0.46130780028484,0.615375979942459
0.520535742311363,0.613416118005816
0.492783089401401,0.647603400417634
0.49009085544882,0.643352605281817
0.487353009199205,0.639042781817821
0.517997908288716,0.680270801666408
0.517050013996583,0.580320815834505
0.458364930148521,0.643962711208274
0.518503669130886,0.601254870741
0.507687223794384,0.648059639694426
0.469987608690927,0.611973474239365
0.496992248608948,0.562943994332189
0.470717217181456,0.645001605335904
0.482284719373987,0.5809606574926
0.459788156665895,0.597048369106778
0.454326058044794,0.587888126122277
0.488408480620929,0.570014106037279
0.476987371149582,0.567421201290164
0.444429222787084,0.57279955983582
0.441049053282887,0.567666943086151
0.418509429529728,0.51619885321569
0.432499507275772,0.59676390970205
0.389679283735361,0.518959794270437
0.427131555663726,0.54663492095811
0.438240025513478,0.555905305683565
0.434232822779505,0.508381231859663
0.465068133141558,0.570005013275356
0.388819851320055,0.495548799387034
0.40262197085151,0.480852068653699
0.388797914410498,0.558157634548553
0.437806859113486,0.497391330105062
0.349698572815845,0.502902713327283
0.388256541490007,0.451468188040876
0.399222772373866,0.473964807871926
0.341728846317796,0.449321443295198
0.350908391330437,0.506271515280662
0.377746114930205,0.473084704656961
0.372903691745803,0.44826839239146
0.34386930526238,0.510117083064716
0.365503156090859,0.455066512321506
0.369874881800154,0.404086992461851
0.357175332441922,0.442852320028635
0.37935962214237,0.460255009315148
0.391962607500643,0.414916879947969
0.332187161511396,0.450028546697549
0.375227843511616,0.42091246032527
0.372618842227838,0.458259164621807
0.331426474480124,0.405285765484833
0.28898347919535,0.404578748658867
0.322597695310286,0.392469506223392
0.318138783048668,0.386008586326527
0.354393922636426,0.405732278745478
0.346947625846781,0.409537386484712
0.320936029803436,0.388045760090647
0.328142653203319,0.389834255048411
0.324739238728009,0.323722644720736
0.257401752350552,0.310155585961851
0.252939205786581,0.372460809801621
0.277054550357711,0.318694095836435
0.276735684194518,0.326370546725901
0.27200030328313,0.319588137656058
0.256688463992071,0.32454988571002
0.3099889882024,0.313109234547056
0.257641186562714,0.299067328364152
0.212335076789912,0.266258872466537
0.247944452193971,0.285247356403984
0.243059934573082,0.278297106485156
0.21087901163475,0.229430525497375
0.190220380632298,0.309260274853013
0.228265966084438,0.257291564137395
0.223289000857367,0.250239858925411
0.218289795837102,0.243164094715908
0.175363962240582,0.242859517999434
0.230350471768105,0.224592652199212
0.18912658697355,0.247003271580604
0.245499919073378,0.218486851338162
0.195299437669409,0.196208452114521
0.204412671965549,0.15469322290932
0.196149171478102,0.147700904054562
0.142480831760525,0.148124686296588
0.180901276466239,0.187673313940168
0.215250420972149,0.135953311326649
0.172390225253216,0.134500840371764
0.191734016355197,0.175611525960915
0.138789882796123,0.193694101125614
0.146161099538984,0.141869482016149
0.169745073290939,0.127704599675755
0.148637141060179,0.121182678905683
0.144739846621628,0.0790976764850436
0.124898782244873,0.112281250920791
0.119543301388701,0.104847532517033
0.213352714258862,0.201877930339952
0.00389757894736475,-0.00251398503250215
-0.00387109652988717,0.198951362028634
0.13368248686675,0.0389526800362601
0.0739106493830237,0.0529976363987472
0.0871021043147114,0.0599774614369049
0.104066547298496,0.0596705114150526
0.0761792920304351,0.044931293344234
-0.0589686430382868,-0.0643945135171827
0.169091048620115,0.130499066465308
0.175043745114308,-0.0732859179145358
-0.0500750545959637,0.115385731581884
0.147716050871871,0.157686952342606
0.0431226858529458,-0.000417187937127028
-0.072070785531055,0.0901276135661398
0.0993502119361429,0.126216431227731
-0.0617652142297972,0.103737893118679
0.122424299211951,0.0341407675404241
-0.102850969790509,-0.180106001136168
-0.129527349047592,0.11189347486585
0.0751773618873529,-0.136049249464968
-0.119196135897658,0.0331116338851686
-0.138526751767349,-0.141609615879216
0.12650352248609,-0.208385779015606
0.0192440220150408,-0.114762199116986
-0.0594602299464425,-0.117944821584426
-0.114640018085879,-0.195865415769103
-0.182750730364567,-0.178222579886542
-0.132917111809821,-0.231443421155118
-0.145260667831109,-0.212169401765303
0.0533514908435897,-0.205507465005291
-0.0164812448148151,-0.0901617377852162
-0.0636625900099174,-0.144982983389613
-0.11580591303898,-0.162543752770892
-0.0839415744990684,-0.173243350071367
-0.0539394098161224,-0.164081148390285
-0.0724084058133585,-0.160457552761217
-0.0489916975287431,-0.176696654219281
-0.0977789623671575,-0.19053471903663
-0.0867433178306294,-0.231608856073876
-0.109168071770524,-0.20567031905019
-0.102490714318874,-0.218278144631149
-0.120561022571489,-0.220774804058582
-0.153431602143522,-0.265972439057044
-0.131955024023325,-0.235843998619338
-0.098568692740237,-0.275244574042235
-0.149160904553771,-0.249154822229399
-0.149041891412997,-0.258372487090762
-0.193111929551623,-0.234162324049097
-0.139158229089499,-0.256592798470254
-0.17292342723244,-0.271136070522779
-0.164310898411775,-0.268707893290398
-0.165151595149529,-0.305962505502404
-0.193146515700974,-0.262019907472177
-0.181507005617572,-0.354501176802886
-0.194516100898379,-0.31790716186679
-0.20018481458592,-0.325284241805403
-0.19929649439455,-0.2960142726651
-0.18718688455415,-0.34290288632447
-0.227262362997357,-0.315428754952999
-0.249023236084051,-0.383306708631867
-0.264606627752907,-0.342671372791776
-0.257982234759404,-0.363417341653076
-0.277011463174946,-0.378612879718742
-0.240402270038316,-0.345090904856051
-0.233291275809218,-0.347123087061583
-0.29793930302222,-0.362408162469315
-0.218931934868727,-0.441883897210999
-0.267749160404657,-0.412401817374955
-0.273330589438899,-0.41952850147858
-0.307204405538043,-0.427084848135217
-0.287365213732216,-0.385080333961016
-0.303680374525251,-0.403568177951036
-0.249642990193445,-0.45665933644046
-0.294940142667777,-0.504428823143278
-0.258136690042107,-0.504680965684398
-0.32337679461837,-0.516208280447834
-0.273216184034378,-0.456717246132403
-0.346559383208241,-0.511863324774944
-0.328583734718342,-0.489448913851058
-0.361075060853341,-0.525038000097072
-0.350841278125058,-0.504081329129402
-0.352749282598369,-0.469318547083884
-0.304054007930674,-0.55591019127966
-0.355757939783311,-0.52338671443214
-0.361151009896871,-0.53008413121501
-0.408682557489964,-0.563662526987255
-0.371892588477828,-0.543384646004937
-0.377240399258545,-0.549986700151377
-0.392934022159149,-0.587403570746879
-0.396630156358884,-0.536073733722688
-0.393187731441553,-0.569593786432903
-0.398470312638373,-0.57606138337312
-0.388814423166233,-0.595276643869212
-0.454872413476798,-0.621297164941972
-0.41421358382951,-0.595252571708574
-0.448937925033051,-0.625285505446006
-0.384320523290854,-0.628407943196037
-0.410436785804899,-0.640833431965021
-0.458286119307788,-0.604541576775195
-0.440083197216547,-0.626501228165182
-0.495178143190354,-0.629272839395587
-0.403608438311253,-0.654852737681359
-0.455368112982856,-0.644785462644088
-0.462667649591014,-0.669345336108825
-0.49471278230032,-0.640882090768906
-0.47046387771948,-0.662703753876525
-0.475452137800611,-0.668592761224461
-0.480417985727303,-0.674439020490444
-0.529629885472955,-0.715261484495395
-0.490281049744005,-0.686001207055321
-0.495177568147333,-0.691716090493597
-0.500050279022858,-0.697386138128688
-0.510169373723525,-0.66052237256041
-0.545609784494059,-0.717275584990264
-0.503510915865321,-0.7374165849372
-0.486940532775031,-0.729467833025652
-0.57207036520312,-0.75988820327671
-0.528767050965052,-0.730435643975063
-0.577675240125256,-0.765259942306935
-0.515989840882983,-0.736094081754662
-0.519164140670719,-0.711302793935615
-0.528317244647098,-0.74832511364799
-0.52186432625389,-0.745069457616368
-0.56786886085205,-0.804323880188568
-0.54486108950184,-0.797625564109198
-0.562047858209935,-0.812868216032374
-0.606907500974138,-0.788200458575594
-0.605111632616112,-0.774706128815101
-0.578859788675707,-0.812967632680153
-0.585095904766402,-0.838732931058632
-0.54892417733329,-0.757256190916157
-0.610540711402975,-0.794802286563387
-0.596259866929653,-0.805175729353577
-0.627009134997193,-0.773265984498312
-0.647139982187878,-0.819637417508007
-0.60894608900822,-0.818659521613401
-0.623448832473298,-0.793088390945879
-0.617241508742874,-0.827360166032657
-0.638150654094479,-0.867822640291913
-0.632392168479566,-0.858135005405247
-0.591562551604909,-0.803965801201174
-0.65291492003863,-0.79558983096689
-0.626667955490881,-0.8135897342995
-0.593157285080618,-0.838274201136197
-0.651975175588146,-0.845680265519885
-0.649066228293937,-0.85976387242455
-0.645384899729168,-0.867459872091572
-0.656669214601181,-0.867244203988906
-0.660415810079349,-0.870888409899345
-0.646865196130775,-0.847668316449988
-0.681872693697103,-0.912428627634762
-0.641818482062194,-0.884149329388498
-0.675028067811047,-0.884813322688985
-0.678585856982023,-0.888128963521823
-0.682104838361538,-0.891377325548216
-0.685584663106251,-0.894557886837856
-0.682450808792924,-0.866435990355098
-0.676399520962497,-0.944146168019797
-0.653349432530152,-0.899544698927056
-0.658399225035129,-0.908430495056951
-0.713956760561272,-0.929917941137961
-0.726216363648652,-0.916244226808827
-0.708817747704154,-0.914879553090325
-0.731458480292274,-0.888289260067923
-0.749593101533638,-0.9305389072341
-0.748603785078928,-0.880786179854399
