-0.179709141364315,0.359582205238909
-0.172023382011275,0.36029829282274
-0.164382469212283,0.360988846015558
-0.156786362199194,0.361653973218992
-0.149235020203861,0.362293782834672
-0.141728402458138,0.362908383264225
-0.134266468193878,0.363497882909281
-0.126849176642936,0.364062390171468
-0.119476487037164,0.364602013452414
-0.112148358608417,0.365116861153749
-0.104864750588548,0.365607041677102
-0.0976256222094115,0.366072663424099
-0.0904309327028604,0.366513834796372
-0.0832806413007487,0.366930664195548
-0.0761747072349299,0.367323260023255
-0.0691130897372579,0.367691730681123
-0.0620957480395863,0.368036184570781
-0.0551226413737688,0.368356730093856
-0.048193728971659,0.368653475651978
-0.0413089700651108,0.368926529646775
-0.0344683238859778,0.369176000479876
-0.0276717496661136,0.36940199655291
-0.0209192066373719,0.369604626267506
-0.0142106540316065,0.369783998025291
-0.00754605108067104,0.369940220227895
-0.000925357016419194,0.370073401276946
0.00565146892929535,0.370183649574074
0.0121844675246189,0.370271073520906
0.0186736795376977,0.370335781519071
0.0251191457366782,0.370377881970199
0.0315209068897066,0.370397483275918
0.0378790037649293,0.370394693837856
0.0441934771304925,0.370369622057642
0.0504643677545426,0.370322376336905
0.0566917164052258,0.370253065077274
0.0628755638506885,0.370161796680377
0.069015950859077,0.370048679547843
0.0751129181985376,0.3699138220813
0.0811665066372167,0.369757332682378
0.0871767569432605,0.369579319752705
0.0931437098848152,0.369379891693909
0.0990674062300274,0.36915915690762
0.104947886747043,0.368917223795465
0.110785192204009,0.368654200759075
0.116579363369071,0.368370196200077
0.122330441010376,0.368065318520099
0.128038465896069,0.367739676120772
0.133703478794298,0.367393377403723
0.139325520473208,0.367026530770581
0.144904631700946,0.366639244622975
0.150440853245658,0.366231627362534
0.155934225875491,0.365803787390885
0.16138479035859,0.365355833109659
0.166792587463103,0.364887872920483
0.172157657957175,0.364400015224986
0.177480042608952,0.363892368424797
0.182759782186582,0.363365040921545
0.18799691745821,0.362818141116858
0.193191489191982,0.362251777412365
0.198343538156046,0.361666058209695
0.203453105118546,0.361061091910476
0.208520230847631,0.360436986916337
0.213544956111445,0.359793851628906
0.218527321678135,0.359131794449813
0.223467368315848,0.358450923780687
0.228365136792729,0.357751348023154
0.233220667876926,0.357033175578846
0.238034002336584,0.356296514849389
0.24280518093985,0.355541474236413
0.247534244454869,0.354768162141547
0.25222123364979,0.353976686966419
0.256866189292756,0.353167157112657
0.261469152151916,0.352339680981891
0.266030162995415,0.35149436697575
0.2705492625914,0.350631323495861
0.275026491708016,0.349750658943854
0.279461891113411,0.348852481721357
0.28385550157573,0.347936900229999
0.28820736386312,0.347004022871409
0.292517518743728,0.346053958047215
0.296786006985698,0.345086814159046
0.301012869357179,0.344102699608531
0.305198146626315,0.343101722797298
0.309341879561254,0.342083992126976
0.313444108930142,0.341049615999193
0.317504875501124,0.33999870281558
0.321524220042348,0.338931360977763
0.325502183321959,0.337847698887372
0.329438806108105,0.336747824946036
0.333334129168931,0.335631847555383
0.337188193272583,0.334499875117041
0.341001039187208,0.33335201603264
0.344772707680952,0.332188378703809
0.348503239521962,0.331009071532175
0.352192675478383,0.329814202919367
0.355841056318363,0.328603881267015
0.359448422810047,0.327378214976747
0.363014815721582,0.326137312450192
0.366540275821113,0.324881282088978
0.370024843876789,0.323610232294734
0.373468560656753,0.322324271469088
0.376871466929154,0.32102350801367
0.380233603462137,0.319708050330108
0.383555011023849,0.31837800682003
0.386835730382435,0.317033485885067
0.390075802306043,0.315674595926845
0.393275267562818,0.314301445346994
0.396434166920907,0.312914142547142
0.399552541148456,0.311512795928918
0.402630431013612,0.310097513893952
0.40566787728452,0.30866840484387
0.408664920729328,0.307225577180303
0.411621602116181,0.305769139304879
0.414537962213225,0.304299199619227
0.417414041788608,0.302815866524974
0.420249881610475,0.301319248423751
0.423045522446972,0.299809453717185
0.425801005066247,0.298286590806906
0.428516370236444,0.296750768094541
0.431191658725711,0.29520209398172
0.433826911302194,0.293640676870072
0.43642216873404,0.292066625161224
0.438977471789393,0.290480047256806
0.441492861236402,0.288881051558447
0.443968377843211,0.287269746467775
0.446404062377968,0.285646240386418
0.448799955608819,0.284010641716006
0.45115609830391,0.282363058858167
0.453472531231387,0.28070360021453
0.455749295159397,0.279032374186723
0.457986430856085,0.277349489176375
0.460183979089599,0.275655053585116
0.462341980628085,0.273949175814573
0.464460476239688,0.272231964266375
0.466539506692556,0.270503527342151
0.468579112754834,0.268763973443529
0.470579335194669,0.267013410972139
0.472540214780207,0.265251948329609
0.474461792279595,0.263479693917568
0.476344108460978,0.261696756137643
0.478187204092504,0.259903243391465
0.479991119942318,0.258099264080662
0.481755896778566,0.256284926606862
0.483481575369395,0.254460339371694
0.485168196482952,0.252625610776787
0.486815800887383,0.250780849223769
0.488424429350833,0.248926163114269
0.48999412264145,0.247061660849916
0.491524921527379,0.245187450832339
0.493016866776767,0.243303641463166
0.49446999915776,0.241410341144025
0.495884359438504,0.239507658276546
0.497259988387147,0.237595701262358
0.498596926771834,0.235674578503088
0.49989521536071,0.233744398400366
0.501154894921924,0.23180526935582
0.502376006223621,0.229857299771079
0.503558590033947,0.227900598047772
0.504702687121048,0.225935272587527
0.505808338253072,0.223961431791972
0.506875584198164,0.221979184062738
0.507904465724471,0.219988637801452
0.508895023600138,0.217989901409743
0.509847298593313,0.21598308328924
0.510761331472141,0.213968291841572
0.511637163004769,0.211945635468366
0.512474833959343,0.209915222571252
0.513274385104009,0.207877161551859
0.514035857206915,0.205831560811815
0.514759291036205,0.203778528752748
0.515444727360027,0.201718173776288
0.516092206946526,0.199650604284064
0.51670177056385,0.197575928677703
0.517273458980143,0.195494255358835
0.517807312963554,0.193405692729088
0.518303373282227,0.191310349190091
0.518761680704309,0.189208333143473
0.519182275997948,0.187099752990862
0.519565199931287,0.184984717133887
0.519910493272476,0.182863333974176
0.520218196789658,0.180735711913359
0.520488351250982,0.178601959353064
0.520720997424592,0.17646218469492
0.520916176078636,0.174316496340555
0.521073927981259,0.172165002691598
0.521194293900609,0.170007812149678
0.521277314604831,0.167845033116424
0.521323030862072,0.165676773993464
0.521331483440477,0.163503143182426
0.521302713108194,0.16132424908494
0.521236760633368,0.159140200102634
0.521133666784147,0.156951104637137
0.520993472328675,0.154757071090078
0.5208162180351,0.152558207863085
0.520601944671568,0.150354623357787
0.520350693006225,0.148146425975812
0.520062503807218,0.14593372411879
0.519737417842692,0.143716626188348
0.519375475880794,0.141495240586117
0.518976718689671,0.139269675713723
0.518541187037468,0.137040039972797
0.518068921692332,0.134806441764967
0.51755996342241,0.13256898949186
0.517014352995847,0.130327791555107
0.516432131180791,0.128082956356336
0.515813338745386,0.125834592297175
0.51515801645778,0.123582807779254
0.514466205086119,0.1213277112042
0.513737945398549,0.119069410973642
0.512973278163216,0.11680801548921
0.512172244148268,0.114543633152532
0.511334884121849,0.112276372365236
0.510461238852107,0.110006341528951
0.509551349107187,0.107733649045307
0.508605255655237,0.105458403315931
0.507622999264402,0.103180712742452
0.506604620702828,0.100900685726499
0.505550160738663,0.0986184306697009
0.504459660140052,0.0963340559736861
0.503333159675141,0.0940476700400833
0.502170700112077,0.0917593812705213
0.500972322219006,0.0894692980666285
0.499738066764075,0.087177528830034
0.49846797451543,0.084884181962366
0.497162086241217,0.0825893658652537
0.495820442709582,0.0802931889403253
0.494443084688673,0.0779957595892099
0.493030052946634,0.0756971862135358
0.491581388251612,0.073397577214932
0.490097131371754,0.071097040995027
0.488577323075207,0.0687956859554496
0.487022004130115,0.0664936204978284
0.485431215304626,0.0641909530237921
0.483804997366887,0.0618877919349693
0.482143391085042,0.059584245632989
0.480446437227239,0.0572804225194794
0.478714176561624,0.0549764309960696
0.476946649856342,0.0526723794643881
0.475143897879542,0.0503683763260636
0.473305961399368,0.0480645299827247
0.471432881183967,0.0457609488360003
0.469524698001486,0.0434577412875189
0.46758145262007,0.0411550157389093
0.465603185807867,0.0388528805918001
0.463589938333021,0.03655144424782
0.461541750963681,0.0342508151085977
0.459458664467991,0.0319511015757619
0.457340719614099,0.0296524120509412
0.45518795717015,0.0273548549357644
0.453000417904291,0.0250585386318601
0.450778142584669,0.0227635715408571
0.448521171979428,0.0204700620643839
0.446229546856717,0.0181781186040693
0.443903307984681,0.0158878495615419
0.441542496131466,0.0135993633384305
0.439147152065219,0.0113127683363638
0.436717316554086,0.00902817295697037
0.434253030366213,0.00674568560187885
0.431754334269748,0.00446541467271816
0.429221269032835,0.00218746857111671
0.426653875423621,-8.80443012965804e-05
0.424052194210253,-0.00236101554289325
0.421416266160877,-0.00463133675204444
0.418746132043639,-0.00689889952712158
0.416041832626686,-0.00916359546649585
0.413303408678164,-0.0114253161685388
0.410530900966219,-0.0136839532316214
0.407724350258997,-0.0159393982541153
0.404883797324645,-0.0181915428343916
0.402009282931309,-0.0204402785708218
0.399100847847135,-0.022685497061777
0.396158532840271,-0.0249270899056288
0.393182378678861,-0.0271649487007482
0.390172426131053,-0.0293989650455068
0.387128715964992,-0.0316290305382756
0.384051288948825,-0.0338550367774262
0.380940185850699,-0.0360768753613298
0.377795447438759,-0.0382944378883577
0.374617114481152,-0.0405076159568813
0.371405227746024,-0.0427163011652718
0.368159828001522,-0.0449203851119006
0.364880956015791,-0.0471197593951391
0.361568652556979,-0.0493143156133583
0.358222958393231,-0.0515039453649299
0.354843914292694,-0.053688540248225
0.351431561023514,-0.055867991861615
0.347985939353837,-0.0580421918034711
0.34450709005181,-0.0602110316721648
0.340995053885579,-0.0623744030660671
0.33744987162329,-0.0645321975835497
0.33387158403309,-0.0666843068229837
0.330260231883125,-0.0688306223827405
0.326615855941541,-0.0709710358611913
0.322938496976485,-0.0731054388567076
0.319228195756102,-0.0752337229676605
0.31548499304854,-0.0773557797924215
0.311708929621944,-0.0794715009293618
0.307900046244461,-0.0815807779768528
0.304058383684237,-0.0836835025332656
0.300183982709418,-0.0857795661969719
0.296276884088151,-0.0878688605663427
0.292337128588582,-0.0899512772397495
0.288364756978858,-0.0920267078155635
0.284359810027124,-0.0940950438921561
0.280322328501527,-0.0961561770678984
0.276252353170213,-0.0982099989411621
0.272149924801329,-0.100256401110318
0.268015084163021,-0.102295275173738
0.263847872023435,-0.104326512729793
0.259648329150718,-0.106350005376855
0.255416496313015,-0.108365644713294
0.251152414278474,-0.110373322337482
0.24685612381524,-0.112372929847791
0.242527665691459,-0.114364358842592
0.238167080675279,-0.116347500920255
0.233774409534845,-0.118322247679153
0.229349693038304,-0.120288490717657
0.224892971953802,-0.122246121634137
0.220404287049485,-0.124195032026966
0.2158836790935,-0.126135113494515
0.211331188853992,-0.128066257635154
0.206746857099109,-0.129988356047256
0.202130724596997,-0.131901300329191
0.197482832115801,-0.133804982079331
0.192803220423668,-0.135699292896047
0.188091930288745,-0.137584124377711
0.183349002479178,-0.139459368122694
0.178574477763113,-0.141324915729367
0.173768396908696,-0.143180658796101
0.168930800684074,-0.145026488921268
0.164061729857393,-0.146862297703239
0.159161225196799,-0.148687976740386
0.154229327470439,-0.150503417631079
0.149266077446459,-0.15230851197369
0.144271515893005,-0.154103151366591
0.139245683578224,-0.155887227408152
0.134188621270262,-0.157660631696746
0.129100369737265,-0.159423255830742
0.123980969747379,-0.161174991408514
0.118830462068751,-0.162915730028431
0.113648887469528,-0.164645363288865
0.108436286717854,-0.166363782788188
0.103192700581878,-0.168070880124771
0.0979181698297443,-0.169766546896986
0.0926127352296004,-0.171450674703202
0.0872764375495919,-0.173123155141793
0.0819093175578657,-0.174783879811129
0.0765114160225675,-0.176432740309581
0.0710827737118442,-0.178069628235521
0.0656234313938415,-0.17969443518732
0.0601334298367064,-0.18130705276335
0.0546128098085844,-0.182907372561981
0.0490616120776227,-0.184495286181585
0.0434798774119669,-0.186070685220534
0.0378676465797637,-0.187633461277198
0.0322249603491591,-0.18918350594995
0.0265518594882999,-0.190720710837159
0.0208483847653318,-0.192244967537199
0.0151145769484017,-0.193756167648439
0.00935047680565534,-0.195254202769252
0.0035561251052396,-0.196738964498008
-0.00226843738469974,-0.198210344433079
-0.00812316989601584,-0.199668234172836
-0.014008031660563,-0.201112525315651
-0.0199229819101943,-0.202543109459895
-0.0258679798767639,-0.203959878203939
-0.0318429847921251,-0.205362723146154
-0.0378479558881321,-0.206751535884912
-0.0438828523966379,-0.208126208018585
-0.049947633549497,-0.209486631145542
-0.0560422585785622,-0.210832696864157
-0.0621666867156881,-0.212164296772799
-0.0683208771927275,-0.213481322469841
-0.0745047892415349,-0.214783665553654
-0.0807183820939633,-0.216071217622609
-0.086961614981867,-0.217343870275077
-0.0932344471370992,-0.218601515109429
-0.099536837791514,-0.219844043724038
-0.105868746176965,-0.221071347717274
-0.112230131525305,-0.222283318687508
-0.118620953068389,-0.223479848233113
-0.12504117003807,-0.224660827952458
-0.131490741666202,-0.225826149443917
-0.137969627184639,-0.226975704305859
-0.144477785825233,-0.228109384136656
-0.15101517681984,-0.22922708053468
-0.157581759400312,-0.230328685098301
-0.164177492798503,-0.231414089425892
-0.170802336246268,-0.232483185115823
-0.177456248975459,-0.233535863766466
-0.18413919021793,-0.234572016976192
-0.190851119205536,-0.235591536343372
-0.197591995170129,-0.236594313466378
-0.204361777343564,-0.237580239943582
-0.211160424957693,-0.238549207373353
-0.217987897244372,-0.239501107354064
-0.224844153435453,-0.240435831484086
-0.23172915276279,-0.241353271361791
-0.238642854458237,-0.242253318585549
-0.245585217753648,-0.243135864753732
