-0.373146752039517,0.896800548740316
-0.364798964792073,0.891734762189614
-0.35649366357661,0.886675331577388
-0.348230836677085,0.88162223292277
-0.340010472377458,0.876575442244893
-0.331832558961687,0.871534935562889
-0.323697084713731,0.866500688895892
-0.315604037917549,0.861472678263035
-0.307553406857099,0.856450879683451
-0.299545179816341,0.851435269176272
-0.291579345079233,0.846425822760631
-0.283655890929734,0.841422516455662
-0.275774805651802,0.836425326280497
-0.267936077529397,0.831434228254269
-0.260139694846477,0.826449198396111
-0.252385645887001,0.821470212725156
-0.244673918934928,0.816497247260537
-0.237004502274216,0.811530278021387
-0.229377384188825,0.806569281026838
-0.221792552962712,0.801614232296024
-0.214249996879838,0.796665107848078
-0.206749704224159,0.791721883702132
-0.199291663279636,0.786784535877319
-0.191875862330228,0.781853040392772
-0.184502289659892,0.776927373267625
-0.177170933552588,0.77200751052101
-0.169881782292274,0.76709342817206
-0.162634824162909,0.762185102239908
-0.155430047448452,0.757282508743686
-0.148267440432862,0.752385623702528
-0.141146991400098,0.747494423135567
-0.134068688634117,0.742608883061936
-0.12703252041888,0.737728979500767
-0.120038475038344,0.732854688471193
-0.113086540776469,0.727985985992348
-0.106176705917213,0.723122848083363
-0.0993089587445356,0.718265250763374
-0.0924832875423948,0.713413170051511
-0.0856996805947494,0.708566581966907
-0.0789581261855585,0.703725462528697
-0.0722586125987806,0.698889787756013
-0.0656011281183748,0.694059533667987
-0.0589856610282995,0.689234676283753
-0.0524121996125137,0.684415191622443
-0.0458807321549762,0.679601055703191
-0.0393912469396455,0.67479224454513
-0.0329437322504806,0.669988734167391
-0.0265381763714402,0.665190500589109
-0.0201745675864831,0.660397519829415
-0.013852894179568,0.655609767907444
-0.00757314443465378,0.650827220842328
-0.00133530663569904,0.646049854653199
0.0048606309333373,0.641277645359191
0.0110146799884965,0.636510568979437
0.0171268522458199,0.631748601533069
0.0231971594213487,0.626991719039221
0.029225613231124,0.622239897517025
0.0352122253911871,0.617493112985615
0.0411570076175794,0.612751341464122
0.0470599716263418,0.608014558971681
0.0529211291335158,0.603282741527424
0.0587404918551426,0.598555865150484
0.0645180715072634,0.593833905859993
0.0702538798059194,0.589116839675086
0.0759479284671517,0.584404642614894
0.0816002292070019,0.579697290698551
0.0872107937415109,0.574994759945189
0.0927796337867201,0.570297026373941
0.0983067610586707,0.565604066003941
0.103792187273404,0.560915854854321
0.109235924146961,0.556232368944215
0.114637983395383,0.551553584292754
0.119998376734712,0.546879476919073
0.125317115880988,0.542210022842303
0.130594212550252,0.537545198081578
0.135829678458547,0.532884978656031
0.141023525321913,0.528229340584795
0.146175764856392,0.523578259887002
0.151286408778024,0.518931712581785
0.156355468802851,0.514289674688278
0.161382956646914,0.509652122225613
0.166368884026255,0.505019031212924
0.171313262656914,0.500390377669342
0.176216104254934,0.495766137614001
0.181077420536354,0.491146287066035
0.185897223217217,0.486530802044576
0.190675524013563,0.481919658568755
0.195412334641434,0.477312832657708
0.200107666816871,0.472710300330567
0.204761532255916,0.468112037606464
0.209373942674609,0.463518020504532
0.213944909788991,0.458928225043904
0.218474445315105,0.454342627243714
0.222962560968991,0.449761203123094
0.22740926846669,0.445183928701177
0.231814579524244,0.440610779997096
0.236178505857694,0.436041733029984
0.240501059183081,0.431476763818974
0.244782251216446,0.426915848383199
0.249022093673831,0.42235896274179
0.253220598271277,0.417806082913883
0.257377776724825,0.413257184918609
0.261493640750516,0.408712244775102
0.265568202064392,0.404171238502494
0.269601472382493,0.399634142119918
0.273593463420862,0.395100931646507
0.277544186895538,0.390571583101394
0.281453654522564,0.386046072503712
0.285321878017981,0.381524375872594
0.28914886909783,0.377006469227172
0.292934639478152,0.372492328586581
0.296679200874988,0.367981929969951
0.30038256500438,0.363475249396418
0.304044743582369,0.358972262885113
0.307665748324996,0.354472946455169
0.311245590948302,0.349977276125719
0.314784283168329,0.345485227915897
0.318281836701117,0.340996777844835
0.321738263262709,0.336511901931665
0.325153574569145,0.332030576195521
0.328527782336466,0.327552776655537
0.331860898280714,0.323078479330844
0.33515293411793,0.318607660240575
0.338403901564155,0.314140295403864
0.341613812335431,0.309676360839844
0.344782678147798,0.305215832567647
0.347910510717298,0.300758686606406
0.350997321759973,0.296304898975255
0.354043122991862,0.291854445693325
0.357047926129008,0.287407302779751
0.360011742887452,0.282963446253664
0.362934584983235,0.278522852134199
0.365816464132399,0.274085496440487
0.368657392050984,0.269651355191662
0.371457380455031,0.265220404406856
0.374216441060583,0.260792620105202
0.37693458558368,0.256367978305835
0.379611825740363,0.251946455027885
0.382248173246674,0.247528026290487
0.384843639818654,0.243112668112773
0.387398237172344,0.238700356513876
0.389911977023785,0.234291067512929
0.392384871089019,0.229884777129065
0.394816931084087,0.225481461381416
0.39720816872503,0.221081096289117
0.399558595727889,0.216683657871299
0.401868223808706,0.212289122147095
0.404137064683521,0.207897465135639
0.406365130068377,0.203508662856064
0.408552431679314,0.199122691327501
0.410698981232373,0.194739526569085
0.412804790443596,0.190359144599948
0.414869871029024,0.185981521439223
0.416894234704698,0.181606633106043
0.418877893186659,0.17723445561954
0.420820858190949,0.172864964998849
0.422723141433609,0.168498137263101
0.424584754630681,0.164133948431429
0.426405709498204,0.159772374522968
0.428186017752221,0.155413391556848
0.429925691108773,0.151056975552204
0.4316247412839,0.146703102528168
0.433283179993645,0.142351748503873
0.434901018954049,0.138002889498452
0.436478269881152,0.133656501531039
0.438014944490997,0.129312560620765
0.439511054499623,0.124971042786764
0.440966611623073,0.120631924048168
0.442381627577387,0.116295180424112
0.443756114078608,0.111960787933726
0.445090082842776,0.107628722596146
0.446383545585931,0.103298960430502
0.447636514024117,0.098971477455929
0.448848999873373,0.094646249691559
0.450021014849742,0.0903232531565251
0.451152570669263,0.0860024638699602
0.45224367904798,0.0816838578509973
0.453294351701932,0.0773674111187691
0.454304600347161,0.0730530996924087
0.455274436699708,0.0687408995910489
0.456203872475615,0.0644307868338228
0.457092919390922,0.0601227374398632
0.457941589161671,0.0558167274283029
0.458749893503903,0.0515127328182749
0.45951784413366,0.0472107296289122
0.460245452766983,0.0429106938793476
0.460932731119912,0.038612601588714
0.461579690908489,0.0343164287761444
0.462186343848756,0.0300221514607717
0.462752701656753,0.0257297456617288
0.463278776048522,0.0214391873981485
0.463764578740104,0.0171504526891638
0.464210121447541,0.0128635175539077
0.464615415886873,0.00857835801151308
0.464980473774141,0.00429495008111272
0.465305306825387,1.3269781839631e-05
0.465589926756653,-0.0042667068671732
0.465834345283979,-0.00854500384679291
0.466038574123407,-0.0128216451378868
0.466202624990977,-0.0170966547213217
0.466326509602732,-0.0213700565779647
0.466410239674712,-0.0256418746886831
0.466453826922959,-0.0299121330343436
0.466457283063513,-0.0341808555958139
0.466420619812416,-0.0384480663539604
0.46634384888571,-0.0427137892896507
0.466226981999435,-0.0469780483837515
0.466070030869633,-0.0512408676171303
0.465873007212345,-0.0555022709706537
0.465635922743612,-0.0597622824251894
0.465358789179476,-0.0640209259616038
0.465041618235977,-0.0682782255607646
0.464684421629157,-0.0725342052035384
0.464287211075058,-0.0767888888707927
0.463849998289719,-0.0810423005433942
0.463372794989184,-0.0852944642022104
0.462855612889492,-0.089545403828108
0.462298463706685,-0.0937951434019544
0.461701359156804,-0.0980437069046164
0.461064310955891,-0.102291118316961
0.460387330819987,-0.106537401619856
0.459670430465133,-0.110782580794168
0.45891362160737,-0.115026679820764
0.458116915962739,-0.119269722680511
0.457280325247283,-0.123511733354276
0.456403861177041,-0.127752735822927
0.455487535468055,-0.13199275406733
0.454531359836367,-0.136231812068353
0.453535345998017,-0.140469933806862
0.452499505669047,-0.144707143263725
0.451423850565498,-0.148943464419809
0.450308392403412,-0.15317892125598
0.449153142898829,-0.157413537753107
0.447958113767791,-0.161647337892056
0.446723316726339,-0.165880345653693
0.445448763490514,-0.170112585018887
0.444134465776358,-0.174344079968505
0.442780435299911,-0.178574854483412
0.441386683777216,-0.182804932544478
0.439953222924312,-0.187034338132567
0.438480064457242,-0.191263095228549
0.436967220092047,-0.195491227813289
0.435414701544767,-0.199718759867655
0.433822520531445,-0.203945715372514
0.432190688768121,-0.208172118308733
0.430519217970837,-0.212397992657179
0.428808119855633,-0.216623362398719
0.427057406138552,-0.220848251514221
0.425267088535633,-0.22507268398455
0.42343717876292,-0.229296683790576
0.421567688536452,-0.233520274913164
0.419658629572271,-0.237743481333181
0.417710013586418,-0.241966327031495
0.415721852294935,-0.246188835988973
0.413694157413862,-0.250411032186482
0.411626940659241,-0.254632939604889
0.409520213747114,-0.25885458222506
0.40737398839352,-0.263075984027865
0.405188276314503,-0.267297168994168
0.402963089226102,-0.271518161104837
0.40069843884436,-0.27573898434074
0.398394336885316,-0.279959662682744
0.396050795065013,-0.284180220111715
0.393667825099492,-0.28840068060852
0.391245438704794,-0.292621068154028
0.38878364759696,-0.296841406729104
0.386282463492032,-0.301061720314616
0.383741898106051,-0.305282032891431
0.381161963155057,-0.309502368440417
0.378542670355092,-0.313722750942439
0.375884031422199,-0.317943204378366
0.373186058072416,-0.322163752729064
0.370448762021787,-0.326384419975401
0.367672154986351,-0.330605230098243
0.364856248682151,-0.334826207078457
0.362001054825227,-0.339047374896912
0.359106585131622,-0.343268757534473
0.356172851317375,-0.347490378972008
0.353199865098529,-0.351712263190384
0.350187638191123,-0.355934434170468
0.347136182311201,-0.360156915893128
0.344045509174803,-0.364379732339229
0.34091563049797,-0.36860290748964
0.337746557996743,-0.372826465325227
0.334538303387165,-0.377050429826858
0.331290878385274,-0.3812748249754
0.328004294707115,-0.385499674751719
0.324678564068726,-0.389725003136682
0.32131369818615,-0.393950834111158
0.317909708775428,-0.398177191656013
0.314466607552601,-0.402404099752113
0.31098440623371,-0.406631582380327
0.307463116534797,-0.410859663521521
0.303902750171902,-0.415088367156562
0.300303318861068,-0.419317717266317
0.296664834318335,-0.423547737831654
0.292987308259744,-0.42777845283344
0.289270752401337,-0.432009886252541
0.285515178459154,-0.436242062069825
0.281720598149238,-0.440475004266159
0.27788702318763,-0.444708736822409
0.27401446529037,-0.448943283719444
0.2701029361735,-0.453178668938129
0.26615244755306,-0.457414916459333
0.262163011145094,-0.461652050263922
0.258134638665641,-0.465890094332763
0.254067341830742,-0.470129072646724
0.24996113235644,-0.474369009186671
0.245816021958775,-0.478609927933472
0.241632022353788,-0.482851852867993
0.237409145257521,-0.487094807971103
0.233147402386015,-0.491338817223667
0.228846805455311,-0.495583904606553
0.224507366181451,-0.499830094100628
0.220129096280475,-0.504077409686759
0.215712007468425,-0.508325875345814
0.211256111461343,-0.512575515058658
0.206761419975268,-0.51682635280616
0.202227944726243,-0.521078412569187
0.197655697430309,-0.525331718328605
0.193044689803507,-0.529586294065281
0.188394933561879,-0.533842163760084
0.183706440421464,-0.538099351393879
0.178979222098306,-0.542357880947534
0.174213290308445,-0.546617776401916
0.169408656767921,-0.550879061737892
0.164565333192778,-0.555141760936329
0.159683331299054,-0.559405897978095
0.154762662802793,-0.563671496844056
0.149803339420035,-0.567938581515079
0.144805372866821,-0.572207175972032
0.139768774859193,-0.576477304195782
0.134693557113192,-0.580748990167194
0.129579731344859,-0.585022257867138
0.124427309270235,-0.58929713127648
0.119236302605361,-0.593573634376087
0.11400672306628,-0.597851791146825
0.108738582369031,-0.602131625569563
0.103431892229657,-0.606413161625167
0.0980866643641981,-0.610696423294504
0.0927029104886961,-0.614981434558442
0.0872806423191917,-0.619268219397847
0.0818198715717268,-0.623556801793587
0.0763206099623419,-0.627847205726528
0.070782869207079,-0.632139455177538
0.0652066610219787,-0.636433574127484
0.0595919971230827,-0.640729586557233
0.0539388892264319,-0.645027516447652
0.0482473490480678,-0.649327387779607
0.0425173883040313,-0.653629224533968
0.0367490187103641,-0.657933050691599
0.0309422519831069,-0.662238890233368
0.0250970998383014,-0.666546767140143
0.0192135739919884,-0.670856705392791
0.0132916861602096,-0.675168728972178
0.00733144805900571,-0.679482861859172
0.00133287140441854,-0.683799128034639
-0.0047040320875112,-0.688117551479448
-0.0107792507007419,-0.692438156174464
-0.0168927727192326,-0.696760966100556
-0.0230445864269418,-0.701086005238589
-0.0292346801078286,-0.705413297569432
-0.0354630420458513,-0.709742867073951
-0.0417296605249692,-0.714074737733013
-0.0480345238291406,-0.718408933527486
-0.0543776202423247,-0.722745478438237
-0.0607589380484799,-0.727084396446131
-0.0671784655315652,-0.731425711532039
-0.0736361909755391,-0.735769447676824
-0.0801321026643609,-0.740115628861356
-0.0866661888819887,-0.7444642790665
-0.0932384379123818,-0.748815422273125
-0.0998488380394985,-0.753169082462096
-0.106497377547298,-0.757525283614283
-0.113184044719739,-0.76188404971055
-0.11990882784078,-0.766245404731766
-0.12667171519438,-0.770609372658797
-0.133472695064497,-0.774975977472511
-0.140311755735091,-0.779345243153774
-0.147188885490121,-0.783717193683455
-0.154104072613544,-0.788091853042419
-0.16105730538932,-0.792469245211535
-0.168048572101407,-0.796849394171668
-0.175077861033765,-0.801232323903686
-0.182145160470352,-0.805618058388457
-0.189250458695127,-0.810006621606847
-0.196393743992048,-0.814398037539723
-0.203575004645075,-0.818792330167953
-0.210794228938165,-0.823189523472403
-0.218051405155279,-0.827589641433941
-0.225346521580375,-0.831992708033434
-0.23267956649741,-0.836398747251748
-0.240050528190345,-0.840807783069752
-0.247459394943138,-0.845219839468311
-0.254906155039748,-0.849634940428293
-0.262390796764133,-0.854053109930566
-0.269913308400252,-0.858474371955996
-0.277473678232065,-0.862898750485451
-0.285071894543529,-0.867326269499796
-0.292707945618604,-0.871756952979901
