-0.497745869218008,0.270630358858148
-0.643439911744926,-0.988548391767446
0.20852166053769,-0.595441100347193
-0.323530915579944,-0.450326934515294
-0.855583491697579,-0.305212768683396
-0.875508221758692,-0.692480998488638
0.342634620896785,0.211963963777441
