-0.802413245601227,-0.32056614966439
-0.794639702812717,-0.319931009063834
-0.786931913168255,-0.319276484956325
-0.779289677637481,-0.318602676305733
-0.771712797190037,-0.317909682075925
-0.764201072795564,-0.31719760123077
-0.756754305423702,-0.316466532734136
-0.749372296044093,-0.315716575549891
-0.742054845626377,-0.314947828641904
-0.734801755140196,-0.314160390974042
-0.727612825555191,-0.313354361510175
-0.720487857841004,-0.31252983921417
-0.713426652967274,-0.311686923049896
-0.706429011903643,-0.31082571198122
-0.699494735619753,-0.309946304972012
-0.692623625085243,-0.30904880098614
-0.685815481269757,-0.308133298987471
-0.679070105142933,-0.307199897939875
-0.672387297674414,-0.306248696807219
-0.665766859833841,-0.305279794553371
-0.659208592590854,-0.304293290142201
-0.652712296915095,-0.303289282537576
-0.646277773776205,-0.302267870703364
-0.639904824143825,-0.301229153603435
-0.633593248987595,-0.300173230201655
-0.627342849277158,-0.299100199461894
-0.621153425982154,-0.29801016034802
-0.615024780072223,-0.296903211823901
-0.608956712517008,-0.295779452853405
-0.60294902428615,-0.294638982400401
-0.597001516349288,-0.293481899428756
-0.591113989676065,-0.29230830290234
-0.585286245236122,-0.29111829178502
-0.5795180839991,-0.289911965040665
-0.573809306934638,-0.288689421633143
-0.56815971501238,-0.287450760526323
-0.562569109201966,-0.286196080684072
-0.557037290473036,-0.284925481070259
-0.551564059795232,-0.283639060648752
-0.546149218138196,-0.28233691838342
-0.540792566471567,-0.28101915323813
-0.535493905764988,-0.279685864176752
-0.530253036988099,-0.278337150163153
-0.525069761110541,-0.276973110161201
-0.519943879101956,-0.275593843134766
-0.514875191931984,-0.274199448047715
-0.509863500570267,-0.272790023863916
-0.504908605986445,-0.271365669547238
-0.50001030915016,-0.26992648406155
-0.495168411031053,-0.268472566370718
-0.490382712598764,-0.267004015438613
-0.485653014822936,-0.265520930229101
-0.480979118673208,-0.264023409706051
-0.476360825119223,-0.262511552833332
-0.471797935130621,-0.260985458574812
-0.467290249677043,-0.259445225894359
-0.46283756972813,-0.257890953755842
-0.458439696253524,-0.256322741123128
-0.454096430222865,-0.254740686960086
-0.449807572605794,-0.253144890230585
-0.445572924371953,-0.251535449898492
-0.441392286490983,-0.249912464927676
-0.437265459932525,-0.248276034282005
-0.433192245666219,-0.246626256925347
-0.429172444661707,-0.244963231821571
-0.425205857888631,-0.243287057934546
-0.42129228631663,-0.241597834228138
-0.417431530915346,-0.239895659666217
-0.41362339265442,-0.238180633212651
-0.409867672503494,-0.236452853831309
-0.406164171432208,-0.234712420486057
-0.402512690410203,-0.232959432140766
-0.398913030407121,-0.231193987759302
-0.395364992392603,-0.229416186305535
-0.391868377336289,-0.227626126743332
-0.38842298620782,-0.225823908036563
-0.385028619976839,-0.224009629149094
-0.381685079612985,-0.222183389044795
-0.3783921660859,-0.220345286687534
-0.375149680365225,-0.218495421041179
-0.371957423420602,-0.216633891069598
-0.36881519622167,-0.21476079573666
-0.365722799738071,-0.212876234006233
-0.362680034939447,-0.210980304842185
-0.359686702795438,-0.209073107208384
-0.356742604275686,-0.2071547400687
-0.353847540349831,-0.205225302386999
-0.351001311987514,-0.203284893127151
-0.348203720158378,-0.201333611253023
-0.345454565832062,-0.199371555728485
-0.342753649978207,-0.197398825517404
-0.340100773566456,-0.195415519583648
-0.337495737566448,-0.193421736891086
-0.334938342947826,-0.191417576403586
-0.33242839068023,-0.189403137085017
-0.3299656817333,-0.187378517899246
-0.32755001707668,-0.185343817810142
-0.325181197680008,-0.183299135781574
-0.322859024512927,-0.181244570777409
-0.320583298545077,-0.179180221761516
-0.318353820746099,-0.177106187697763
-0.316170392085636,-0.175022567550018
-0.314032813533326,-0.172929460282151
-0.311940886058813,-0.170826964858028
-0.309894410631737,-0.168715180241518
-0.307893188221738,-0.16659420539649
-0.305937019798458,-0.164464139286812
-0.304025706331539,-0.162325080876352
-0.30215904879062,-0.160177129128979
-0.300336848145344,-0.15802038300856
-0.298558905365351,-0.155854941478965
-0.296825021420282,-0.15368090350406
-0.295134997279779,-0.151498368047716
-0.293488633913482,-0.149307434073799
-0.291885732291032,-0.147108200546178
-0.290326093382072,-0.144900766428722
-0.288809518156241,-0.142685230685299
-0.287335807583181,-0.140461692279777
-0.285904762632532,-0.138230250176024
-0.284516184273937,-0.135991003337908
-0.283169873477035,-0.133744050729299
-0.281865631211469,-0.131489491314064
-0.280603258446879,-0.129227424056071
-0.279382556152905,-0.126957947919189
-0.278203325299191,-0.124681161867286
-0.277065366855375,-0.122397164864231
-0.2759684817911,-0.120106055873891
-0.274912471076007,-0.117807933860135
-0.273897135679736,-0.115502897786832
-0.272922276571929,-0.113191046617849
-0.271987694722226,-0.110872479317054
-0.271093191100269,-0.108547294848317
-0.2702385666757,-0.106215592175505
-0.269423622418158,-0.103877470262487
-0.268648159297285,-0.101533028073131
-0.267911978282722,-0.0991823645713052
-0.267214880344111,-0.0968255787208779
-0.266556666451091,-0.0944627694857174
-0.265937137573305,-0.0920940358296921
-0.265356094680393,-0.0897194767166701
-0.264813338741997,-0.0873391911105199
-0.264308670727758,-0.0849532779751097
-0.263841891607316,-0.0825618362743077
-0.263412802350312,-0.0801649649719823
-0.263021203926389,-0.0777627630320018
-0.262666897305186,-0.0753553294182345
-0.262349683456345,-0.0729427630945486
-0.262069363349507,-0.0705251630248123
-0.261825737954313,-0.0681026281728942
-0.261618608240405,-0.0656752575026624
-0.261447775177422,-0.0632431499779851
-0.261313039735007,-0.0608064045627307
-0.2612142028828,-0.0583651202207675
-0.261151065590442,-0.0559193959159638
-0.261123428827575,-0.0534693306121878
-0.26113109356384,-0.0510150232733078
-0.261173860768877,-0.0485565728631922
-0.261251531412328,-0.0460940783457093
-0.261363906463834,-0.0436276386847272
-0.261510786893035,-0.0411573528441143
-0.261691973669574,-0.0386833197877389
-0.261907267763091,-0.0362056384794694
-0.262156470143226,-0.0337244078831738
-0.262439381779622,-0.0312397269627206
-0.262755803641919,-0.0287516946819781
-0.263105536699758,-0.0262604100048145
-0.263488381922781,-0.0237659718950981
-0.263904140280628,-0.0212684793166972
-0.26435261274294,-0.0187680312334802
-0.26483360027936,-0.0162647266093152
-0.265346903859527,-0.0137586644080706
-0.265892324453082,-0.0112499435936147
-0.266469663029668,-0.00873866312981572
-0.267078720558924,-0.00622492198054202
-0.267719298010492,-0.00370881910966184
-0.268391196354014,-0.00119045348104345
-0.269094216559129,0.00133007594144471
-0.26982815959548,0.00385267019393457
-0.270592826432707,0.0063772303125577
-0.271388018040451,0.00890365733344586
-0.272213535388353,0.0114318522927308
-0.273069179446056,0.013961716226544
-0.273954751183198,0.0164931501710175
-0.274870051569422,0.0190260551622829
-0.275814881574369,0.0215603322364717
-0.27678904216768,0.0240958824297159
-0.277792334318996,0.0266326067781471
-0.278824558997957,0.029170406317897
-0.279885517174206,0.0317091820850973
-0.280975009817382,0.0342488351158797
-0.282092837897128,0.036789266446376
-0.283238802383084,0.0393303771127178
-0.284412704244891,0.0418720681510368
-0.285614344452191,0.0444142405974648
-0.286843523974624,0.0469567954881335
-0.288100043781831,0.0494996338591747
-0.289383704843454,0.0520426567467198
-0.290694308129134,0.0545857651869008
-0.292031654608511,0.0571288602158494
-0.293395545251228,0.0596718428696971
-0.294785781026924,0.0622146141845758
-0.296202162905241,0.0647570751966172
-0.29764449185582,0.0672991269419529
-0.299112568848302,0.0698406704567148
-0.300606194852329,0.0723816067770343
-0.30212517083754,0.0749218369390435
-0.303669297773578,0.0774612619788737
-0.305238376630084,0.079999782932657
-0.306832208376697,0.0825373008365248
-0.308450593983061,0.085073716726609
-0.310093334418814,0.0876089316390413
-0.3117602306536,0.0901428466099533
-0.313451083657058,0.0926753626754768
-0.315165694398831,0.0952063808717435
-0.316903863848558,0.097735802234885
-0.318665392975881,0.100263527801033
-0.320450082750441,0.10278945860632
-0.322257734141879,0.105313495686876
-0.324088148119837,0.107835540078834
-0.325941125653954,0.110355492818326
-0.327816467713873,0.112873254941483
-0.329713975269235,0.115388727484437
-0.33163344928968,0.117901811483319
-0.333574690744849,0.120412407974262
-0.335537500604385,0.122920417993396
-0.337521679837927,0.125425742576855
-0.339527029415116,0.127928282760769
-0.341553350305595,0.13042793958127
-0.343600443479003,0.132924614074489
-0.345668109904983,0.13541820727656
-0.347756150553174,0.137908620223612
-0.349864366393219,0.140395753951779
-0.351992558394758,0.142879509497191
-0.354140527527432,0.145359787895981
-0.356308074760883,0.147836490184279
-0.358495001064751,0.150309517398219
-0.360701107408677,0.152778770573931
-0.362926194762304,0.155244150747548
-0.365170064095271,0.1577055589552
-0.367432516377219,0.16016289623302
-0.36971335257779,0.162616063617139
-0.372012373666626,0.16506496214369
-0.374329380613366,0.167509492848803
-0.376664174387652,0.169949556768611
-0.379016555959126,0.172385054939245
-0.381386326297427,0.174815888396837
-0.383773286372198,0.177241958177518
-0.386177237153079,0.179663165317421
-0.388597979609712,0.182079410852677
-0.391035314711737,0.184490595819418
-0.393489043428796,0.186896621253775
-0.395958966730529,0.189297388191881
-0.398444885586578,0.191692797669866
-0.400946600966584,0.194082750723863
-0.403463913840187,0.196467148390003
-0.40599662517703,0.198845891704419
-0.408544535946752,0.201218881703241
-0.411107447118995,0.203586019422602
-0.413685159663401,0.205947205898632
-0.41627747454961,0.208302342167465
-0.418884192747263,0.210651329265231
-0.421505115226002,0.212994068228063
-0.424140042955467,0.215330460092091
-0.426788776905299,0.217660405893448
-0.42945111804514,0.219983806668266
-0.432126867344631,0.222300563452676
-0.434815825773412,0.22461057728281
-0.437517794301126,0.226913749194799
-0.440232573897412,0.229209980224776
-0.442959965531912,0.231499171408871
-0.445699770174267,0.233781223783217
-0.448451788794118,0.236056038383946
-0.451215822361106,0.238323516247189
-0.453991671844873,0.240583558409078
-0.456779138215059,0.242836065905744
-0.459578022441305,0.245080939773319
-0.462388125493253,0.247318081047936
-0.465209248340543,0.249547390765725
-0.468041191952817,0.251768769962818
-0.470883757299716,0.253982119675348
-0.47373674535088,0.256187340939445
-0.476599957075951,0.258384334791242
-0.47947319344457,0.26057300226687
-0.482356255426378,0.262753244402462
-0.485248943991016,0.264924962234147
-0.488151060108125,0.267088056798059
-0.491062404747347,0.26924242913033
-0.493982778878321,0.27138798026709
-0.49691198347069,0.273524611244471
-0.499849819494095,0.275652223098606
-0.502796087918176,0.277770716865625
-0.505750589712574,0.279879993581662
-0.508713125846931,0.281979954282846
-0.511683497290888,0.284070500005311
-0.514661505014086,0.286151531785187
-0.517646949986165,0.288222950658607
-0.520639633176768,0.290284657661702
-0.523639355555534,0.292336553830604
-0.526645918092106,0.294378540201445
-0.529659121756124,0.296410517810356
-0.532678767517229,0.298432387693469
-0.535704656345062,0.300444050886915
-0.538736589209264,0.302445408426827
-0.541774367079477,0.304436361349337
-0.544817790925342,0.306416810690575
-0.547866661716499,0.308386657486673
-0.55092078042259,0.310345802773765
-0.553979948013255,0.31229414758798
-0.557043965458137,0.31423159296545
-0.560112633726875,0.316158039942308
-0.563185753789111,0.318073389554686
-0.566263126614486,0.319977542838714
-0.569344553172642,0.321870400830525
-0.572429834433218,0.32375186456625
-0.575518771365857,0.325621835082021
-0.578611164940199,0.327480213413969
-0.581706816125886,0.329326900598227
-0.584805525892558,0.331161797670927
-0.587907095209856,0.332984805668199
-0.591011325047422,0.334795825626175
-0.594118016374897,0.336594758580988
-0.597226970161922,0.338381505568769
-0.600337987378138,0.340155967625649
-0.603450868993185,0.341918045787761
-0.606565415976705,0.343667641091236
-0.60968142929834,0.345404654572205
-0.61279870992773,0.347128987266801
-0.615917058834516,0.348840540211156
-0.619036276988338,0.3505392144414
-0.62215616535884,0.352224910993666
-0.625276524915661,0.353897530904085
-0.628397156628442,0.35555697520879
-0.631517861466825,0.357203144943911
-0.634638440400451,0.358835941145581
-0.63775869439896,0.360455264849931
-0.640878424431995,0.362061017093092
-0.643997431469195,0.363653098911198
-0.647115516480202,0.365231411340378
-0.650232480434657,0.366795855416766
-0.653348124302201,0.368346332176493
-0.656462249052475,0.369882742655689
-0.659574655655121,0.371404987890489
-0.662685145079778,0.372912968917022
-0.66579351829609,0.37440658677142
-0.668899576273695,0.375885742489816
-0.672003119982236,0.377350337108341
-0.675103950391354,0.378800271663127
-0.67820186847069,0.380235447190305
-0.681296675189884,0.381655764726007
-0.684388171518578,0.383061125306365
-0.687476158426413,0.384451429967511
-0.69056043688303,0.385826579745576
-0.69364080785807,0.387186475676692
-0.696717072321175,0.388531018796991
-0.699789031241984,0.389860110142604
-0.702856485590139,0.391173650749663
-0.705919236335282,0.3924715416543
-0.708977084447054,0.393753683892647
-0.712029830895095,0.395019978500834
-0.715077276649046,0.396270326514995
-0.718119222678549,0.397504628971261
-0.721155469953245,0.398722786905763
-0.724185819442775,0.399924701354633
-0.727210072116779,0.401110273354002
-0.7302280289449,0.402279403940004
-0.733239490896777,0.403431994148768
-0.736244258942052,0.404567945016428
-0.739242134050367,0.405687157579114
-0.742232917191362,0.406789532872958
-0.745216409334678,0.407874971934093
-0.748192411449957,0.408943375798649
-0.751160724506839,0.409994645502759
-0.754121149474965,0.411028682082554
-0.757073487323977,0.412045386574166
-0.760017539023516,0.413044660013727
-0.762953105543222,0.414026403437368
-0.765879987852738,0.414990517881221
-0.768797986921703,0.415936904381418
-0.771706903719759,0.41686546397409
-0.774606539216547,0.41777609769537
-0.777496694381709,0.418668706581388
-0.780377170184884,0.419543191668277
-0.783247767595715,0.420399453992168
-0.786108287583842,0.421237394589194
-0.788958531118906,0.422056914495485
-0.79179829917055,0.422857914747173
-0.794627392708412,0.423640296380391
-0.797445612702135,0.424403960431269
-0.80025276012136,0.42514880793594
-0.803048635935728,0.425874739930536
-0.805833041114879,0.426581657451187
-0.808605776628456,0.427269461534026
-0.811366643446098,0.427938053215185
-0.814115442537447,0.428587333530795
-0.816851974872145,0.429217203516987
-0.819576041419832,0.429827564209894
-0.822287443150149,0.430418316645648
-0.824985981032737,0.430989361860379
-0.827671456037238,0.43154060089022
-0.830343669133292,0.432071934771302
-0.830343669133292,0.432071934771302
-0.832971143656615,0.432571420674926
-0.835522836307708,0.43302731929036
-0.837999198103393,0.433439836930695
-0.840400680060494,0.433809179909017
-0.842727733195832,0.434135554538415
-0.844980808526229,0.434419167131977
-0.847160357068508,0.434660224002792
-0.849266829839493,0.434858931463948
-0.851300677856003,0.435015495828533
-0.853262352134863,0.435130123409635
-0.855152303692894,0.435203020520343
-0.856970983546919,0.435234393473744
-0.858718842713761,0.435224448582928
-0.86039633221024,0.435173392160981
-0.862003903053181,0.435081430520994
-0.863542006259405,0.434948769976052
-0.865011092845734,0.434775616839246
-0.866411613828991,0.434562177423663
-0.867744020225999,0.434308658042392
-0.869008763053579,0.43401526500852
-0.870206293328554,0.433682204635136
-0.871337062067746,0.433309683235328
-0.872401520287978,0.432897907122184
-0.873400119006072,0.432447082608794
-0.87433330923885,0.431957416008244
-0.875201542003135,0.431429113633623
-0.876005268315749,0.430862381798019
-0.876744939193515,0.430257426814522
-0.877421005653254,0.429614454996218
-0.878033918711789,0.428933672656196
-0.878584129385943,0.428215286107544
-0.879072088692538,0.427459501663351
-0.879498247648395,0.426666525636705
-0.879863057270338,0.425836564340694
-0.880166968575189,0.424969824088406
-0.880410432579771,0.424066511192929
-0.880593900300904,0.423126831967353
-0.880717822755413,0.422150992724764
-0.880782650960119,0.421139199778252
-0.880788835931844,0.420091659440904
-0.880736828687412,0.419008578025809
-0.880627080243644,0.417890161846054
-0.880460041617362,0.416736617214729
-0.880236163825389,0.415548150444922
-0.879955897884548,0.41432496784972
-0.879619694811661,0.413067275742212
-0.879228005623549,0.411775280435486
-0.878781281337036,0.41044918824263
-0.878279972968944,0.409089205476734
-0.877724531536094,0.407695538450884
-0.87711540805531,0.406268393478169
-0.876453053543414,0.404807976871678
-0.875737919017228,0.403314494944498
-0.874970455493575,0.401788154009718
-0.874151113989276,0.400229160380426
-0.873280345521155,0.39863772036971
-0.872358601106033,0.397014040290659
-0.871386331760733,0.395358326456361
-0.870363988502077,0.393670785179904
-0.869292022346888,0.391951622774376
-0.868170884311988,0.390201045552866
-0.867001025414199,0.388419259828461
-0.865782896670344,0.38660647191425
-0.864516949097245,0.384762888123322
-0.863203633711724,0.382888714768764
-0.861843401530603,0.380984158163665
-0.860436703570706,0.379049424621113
-0.858983990848854,0.377084720454196
-0.857485714381871,0.375090251976003
-0.855942325186576,0.373066225499621
-0.854354274279795,0.371012847338139
-0.852722012678348,0.368930323804645
-0.851045991399059,0.366818861212228
-0.849326661458748,0.364678665873975
-0.84756447387424,0.362509944102975
-0.845759879662356,0.360312902212317
-0.843913329839919,0.358087746515088
-0.84202527542375,0.355834683324376
-0.840096167430672,0.35355391895327
-0.838126456877509,0.351245659714858
-0.836116594781081,0.348910111922229
-0.834067032158211,0.34654748188847
-0.831978220025722,0.34415797592667
-0.829850609400436,0.341741800349917
-0.827684651299176,0.339299161471299
-0.825480796738763,0.336830265603905
-0.82323949673602,0.334335319060822
-0.820961202307769,0.33181452815514
-0.818646364470834,0.329268099199946
-0.816295434242035,0.326696238508328
-0.813908862638196,0.324099152393375
-0.811487100676138,0.321477047168175
-0.809030599372685,0.318830129145817
-0.806539809744658,0.316158604639387
-0.80401518280888,0.313462679961976
-0.801457169582173,0.31074256142667
-0.79886622108136,0.307998455346559
-0.796242788323263,0.305230568034729
-0.793587322324703,0.302439105804271
-0.790900274102505,0.299624274968271
-0.788182094673489,0.296786281839819
-0.785433235054479,0.293925332732002
-0.782654146262296,0.291041633957909
-0.779845279313763,0.288135391830627
-0.777007085225703,0.285206812663246
-0.774140015014937,0.282256102768852
-0.771244519698288,0.279283468460536
-0.768321050292579,0.276289116051384
-0.765370057814632,0.273273251854485
-0.762391993281268,0.270236082182928
-0.759387307709311,0.2671778133498
-0.756356452115583,0.26409865166819
-0.753299877516906,0.260998803451186
-0.750218034930102,0.257878475011876
-0.747111375371994,0.254737872663348
-0.743980349859405,0.251577202718692
-0.740825409409156,0.248396671490994
-0.737647005038069,0.245196485293344
-0.734445587762968,0.241976850438829
-0.731221608600675,0.238737973240538
-0.727975518568012,0.235480060011558
-0.7247077686818,0.232203317064979
-0.721418809958864,0.228907950713888
-0.718109093416024,0.225594167271374
-0.714779070070104,0.222262173050525
-0.711429190937926,0.218912174364429
-0.708059907036311,0.215544377526174
-0.704671669382083,0.212158988848849
-0.701264928992064,0.208756214645542
-0.697840136883075,0.205336261229341
-0.69439774407194,0.201899334913334
-0.690938201575481,0.19844564201061
-0.68746196041052,0.194975388834257
-0.68396947159388,0.191488781697362
-0.680461186142382,0.187986026913015
-0.67693755507285,0.184467330794304
-0.673399029402105,0.180932899654316
-0.66984606014697,0.17738293980614
-0.666279098324267,0.173817657562865
-0.662698594950819,0.170237259237578
-0.659105001043447,0.166641951143368
-0.655498767618975,0.163031939593322
-0.651880345694224,0.15940743090053
-0.648250186286018,0.15576863137808
-0.644608740411178,0.152115747339059
-0.640956459086527,0.148448985096556
-0.637293793328886,0.144768550963659
-0.633621194155079,0.141074651253457
-0.629939112581928,0.137367492279038
-0.626247999626255,0.133647280353489
-0.622548306304882,0.129914221789899
-0.618840483634632,0.126168522901357
-0.615124982632327,0.12241039000095
-0.611402254314789,0.118640029401768
-0.607672749698842,0.114857647416897
-0.603936919801306,0.111063450359427
-0.600195215639006,0.107257644542445
-0.596448088228761,0.10344043627904
-0.592695988587397,0.0996120318823003
-0.588939367731733,0.0957726376653139
-0.585178676678594,0.0919224599411688
-0.581414366444801,0.0880617050229537
-0.577646888047177,0.0841905792237564
-0.573876692502543,0.0803092888566656
-0.570104230827724,0.0764180402347693
-0.566329954039539,0.0725170396711555
-0.562554313154812,0.0686064934789128
-0.558777759190367,0.0646866079711294
-0.555000743163023,0.0607575894608935
-0.551223716089605,0.0568196442612932
-0.547447128986934,0.0528729786854167
-0.543671432871833,0.0489177990463527
-0.539897078761125,0.044954311657189
-0.53612451767163,0.0409827228310139
-0.532354200620172,0.0370032388809158
-0.528586578623574,0.0330160661199827
-0.524822102698657,0.0290214108613032
-0.521061223862244,0.0250194794179651
-0.517304393131157,0.021010478103057
-0.513552061522219,0.016994613229667
-0.509804680052252,0.0129720911108833
-0.506062699738078,0.00894311805979423
-0.502326571596519,0.00490790038948793
-0.498596746644399,0.000866644413052758
-0.494873675898539,-0.00318044355642305
-0.491157810375761,-0.00723315720585144
-0.487449601092889,-0.011291290222144
-0.483749499066744,-0.0153546362922125
-0.480057955314149,-0.0194229891029688
-0.476375420851925,-0.0234961423413245
-0.472702346696897,-0.0275738896941916
-0.469039183865885,-0.0316560248484815
-0.465386383375712,-0.0357423414911063
-0.4617443962432,-0.0398326333089776
-0.458113673485172,-0.0439266939890073
-0.454494666118451,-0.0480243172181068
-0.450887825159858,-0.0521252966831883
-0.447293601626216,-0.0562294260711634
-0.443712446534347,-0.0603364990689438
-0.440144810901074,-0.0644463093634412
-0.436591145743218,-0.0685586506415676
-0.433051902077604,-0.0726733165902344
-0.429527530921051,-0.0767901008963538
-0.426018483290383,-0.0809087972468371
-0.422525210202423,-0.0850291993285965
-0.419048162673993,-0.0891511008285433
-0.415587791721914,-0.0932742954335898
-0.41214454836301,-0.0973985768306472
-0.408718883614103,-0.101523738706628
-0.405311248492014,-0.105649574748443
-0.401922094013567,-0.109775878643004
-0.398551871195584,-0.113902444077224
-0.395201031054887,-0.118029064738014
-0.391870024608299,-0.122155534312285
-0.388559302872641,-0.126281646486951
-0.385269316864736,-0.130407194948921
-0.382000517601407,-0.134531973385108
-0.378753356099476,-0.138655775482424
-0.375528283375765,-0.14277839492778
-0.372325750447097,-0.146899625408089
-0.369146208330293,-0.151019260610262
-0.365990108042177,-0.155137094221211
-0.36285790059957,-0.159252919927847
-0.359750037019296,-0.163366531417082
-0.356666968318175,-0.167477722375829
-0.353609145513032,-0.171586286490999
-0.350577019620687,-0.175692017449503
-0.347571041657964,-0.179794708938253
-0.344591662641684,-0.183894154644162
-0.341639333588671,-0.18799014825414
-0.338714505515745,-0.1920824834551
-0.335817629439731,-0.196170953933954
-0.33294915637745,-0.200255353377613
-0.330109537345724,-0.204335475472988
-0.327299223361376,-0.208411113906992
-0.324518665441228,-0.212482062366537
-0.321768314602103,-0.216548114538534
-0.319048621860823,-0.220609064109895
-0.31636003823421,-0.224664704767532
-0.313703014739086,-0.228714830198356
-0.311078002392274,-0.232759234089279
-0.308485452210597,-0.236797710127213
-0.305925815210876,-0.24083005199907
-0.303399542409934,-0.244856053391762
-0.300907084824594,-0.2488755079922
-0.298448893471677,-0.252888209487296
-0.296025419368006,-0.256893951563962
-0.293637113530403,-0.260892527909109
-0.291284426975691,-0.26488373220965
-0.288967810720693,-0.268867358152495
-0.286687715782229,-0.272843199424558
-0.284444593177124,-0.276811049712749
-0.282238893922198,-0.280770702703981
-0.280071069034276,-0.284721952085164
-0.277941569530177,-0.288664591543212
-0.275850846426726,-0.292598414765035
-0.273799350740745,-0.296523215437545
-0.271787533489055,-0.300438787247655
-0.26981584568848,-0.304344923882276
-0.267884738355841,-0.308241419028319
-0.265994662507961,-0.312128066372697
-0.264146069161662,-0.316004659602321
-0.262339409333767,-0.319870992404102
-0.260575134041098,-0.323726858464954
-0.258853694300477,-0.327572051471787
-0.257175541128727,-0.331406365111514
-0.25554112554267,-0.335229593071045
-0.253950898559128,-0.339041529037293
-0.252405311194924,-0.34284196669717
-0.25090481446688,-0.346630699737586
-0.249449859391818,-0.350407521845455
-0.248040896986561,-0.354172226707688
-0.246678378267932,-0.357924608011196
-0.245362754252751,-0.361664459442892
-0.244094475957843,-0.365391574689687
-0.242873994400029,-0.369105747438492
-0.241701760596131,-0.37280677137622
-0.240578225562972,-0.376494440189783
-0.239503840317374,-0.380168547566091
-0.23847905587616,-0.383828887192058
-0.237504323256152,-0.387475252754594
-0.236580093474172,-0.391107437940611
-0.235706817547042,-0.394725236437022
-0.234884946491586,-0.398328441930737
-0.234114931324624,-0.40191684810867
-0.233397223062981,-0.40549024865773
-0.232732272723477,-0.409048437264831
-0.232120531322936,-0.412591207616884
-0.23156244987818,-0.4161183534008
-0.231058479406031,-0.419629668303492
-0.230609070923311,-0.423124946011871
-0.230214675446842,-0.42660398021285
-0.229875743993448,-0.430066564593339
-0.229592727579951,-0.43351249284025
-0.229366077223172,-0.436941558640496
-0.229196243939934,-0.440353555680988
-0.22908367874706,-0.443748277648637
-0.229028832661371,-0.447125518230356
-0.229032156699691,-0.450485071113057
-0.229094101878842,-0.45382672998365
-0.229215119215645,-0.457150288529048
-0.229395659726924,-0.460455540436163
-0.2296361744295,-0.463742279391907
-0.229937114340196,-0.46701029908319
-0.230298930475834,-0.470259393196925
-0.230722073853238,-0.473489355420024
-0.231206995489228,-0.476699979439399
-0.231754146400627,-0.47989105894196
-0.232363977604258,-0.48306238761462
-0.233036940116943,-0.486213759144291
-0.233773484955505,-0.489344967217885
-0.234574063136765,-0.492455805522312
-0.235439125677547,-0.495546067744486
-0.236369123594672,-0.498615547571317
-0.237364507904962,-0.501664038689718
-0.238425729625241,-0.5046913347866
-0.239553239772331,-0.507697229548875
-0.240747489363053,-0.510681516663454
-0.24200892941423,-0.513643989817251
-0.243338010942685,-0.516584442697175
-0.24473518496524,-0.51950266899014
-0.246200902498717,-0.522398462383056
-0.247735614559939,-0.525271616562836
-0.249339772165728,-0.528121925216391
-0.251013826332906,-0.530949182030633
-0.252758228078295,-0.533753180692474
-0.254573428418719,-0.536533714888826
-0.256459878370999,-0.5392905783066
-0.258418028951958,-0.542023564632708
-0.260448331178417,-0.544732467554062
-0.2625512360672,-0.547417080757573
-0.264727194635129,-0.550077197930154
-0.266976657899026,-0.552712612758717
-0.269300076875714,-0.555323118930171
-0.271697902582014,-0.557908510131431
-0.274170586034749,-0.560468580049407
-0.276718578250742,-0.563003122371012
-0.279342330246815,-0.565511930783156
-0.28204229303979,-0.567994798972752
-0.284818917646489,-0.570451520626711
-0.287672655083736,-0.572881889431946
-0.290603956368351,-0.575285699075367
-0.293613272517158,-0.577662743243888
-0.296701054546979,-0.580012815624418
-0.299867753474637,-0.582335709903872
-0.303113820316953,-0.584631219769159
-0.30643970609075,-0.586899138907192
-0.309845861812851,-0.589139261004882
-0.313332738500077,-0.591351379749142
-0.316900787169251,-0.593535288826883
-0.320550458837195,-0.595690781925016
-0.324282204520733,-0.597817652730455
-0.328096475236685,-0.599915694930109
-0.331993722001875,-0.601984702210892
-0.335974395833125,-0.604024468259714
-0.340038947747257,-0.606034786763489
-0.344187828761093,-0.608015451409126
-0.348421489891456,-0.609966255883539
-0.352740382155168,-0.611886993873638
-0.357144956569052,-0.613777459066336
-0.36163566414993,-0.615637445148545
-0.366212955914624,-0.617466745807176
-0.370877282879957,-0.619265154729141
-0.37562909606275,-0.621032465601351
-0.380468846479827,-0.622768472110719
-0.385396985148009,-0.624472967944156
-0.39041396308412,-0.626145746788575
-0.395520231304981,-0.627786602330885
-0.400716240827415,-0.629395328258001
-0.406002442668243,-0.630971718256832
-0.411379287844289,-0.632515566014292
-0.416847227372375,-0.634026665217291
-0.422406712269323,-0.635504809552742
-0.428058193551955,-0.636949792707557
-0.433802122237094,-0.638361408368646
-0.439638949341562,-0.639739450222922
-0.445569125882182,-0.641083711957297
-0.451593102875775,-0.642393987258682
-0.457711331339165,-0.643670069813989
-0.463924262289173,-0.64491175331013
-0.470232346742622,-0.646118831434016
-0.476636035716334,-0.647291097872561
-0.483135780227133,-0.648428346312674
-0.489732031291838,-0.649530370441268
-0.496425239927275,-0.650596963945254
-0.503215857150264,-0.651627920511545
-0.510104333977628,-0.652623033827053
-0.517091121426188,-0.653582097578688
-0.524176670512769,-0.654504905453363
-0.531361432254192,-0.655391251137989
-0.53864585766728,-0.656240928319479
-0.546030397768854,-0.657053730684743
-0.553515503575737,-0.657829451920695
-0.561101626104751,-0.658567885714244
-0.56878921637272,-0.659268825752304
-0.576578725396464,-0.659932065721786
-0.584470604192807,-0.660557399309602
-0.592465303778571,-0.661144620202664
-0.600563275170578,-0.661693522087882
