-0.762389172385747,-0.914667473304476
-0.751993863821226,-0.902747162936247
-0.741689087496332,-0.890934137187096
-0.731474561082108,-0.879227867622048
-0.721350002249597,-0.867627825806133
-0.711315128669841,-0.856133483304376
-0.701369658013884,-0.844744311681804
-0.691513307952768,-0.833459782503444
-0.681745796157537,-0.822279367334324
-0.672066840299235,-0.81120253773947
-0.662476158048903,-0.800228765283909
-0.652973467077585,-0.789357521532668
-0.643558485056324,-0.778588278050775
-0.634230929656163,-0.767920506403255
-0.624990518548145,-0.757353678155136
-0.615836969403313,-0.746887264871445
-0.60676999989271,-0.736520738117209
-0.59778932768738,-0.726253569457454
-0.588894670458365,-0.716085230457208
-0.580085745876708,-0.706015192681498
-0.571362271613453,-0.696042927695351
-0.562723965339642,-0.686167907063793
-0.554170544726318,-0.676389602351851
-0.545701727444525,-0.666707485124553
-0.537317231165305,-0.657121026946926
-0.529016773559702,-0.647629699383996
-0.520800072298759,-0.63823297400079
-0.512666845053518,-0.628930322362335
-0.504616809495023,-0.619721216033658
-0.496649683294318,-0.610605126579787
-0.488765184122443,-0.601581525565747
-0.480963029650444,-0.592649884556567
-0.473242937549362,-0.583809675117273
-0.465604625490242,-0.575060368812891
-0.458047811144125,-0.56640143720845
-0.450572212182056,-0.557832351868975
-0.443177546275076,-0.549352584359494
-0.43586353109423,-0.540961606245033
-0.42862988431056,-0.532658889090621
-0.421476323595109,-0.524443904461282
-0.303535529507181,-0.406523723718009
-0.520399873476028,-0.611943220003569
-0.496581561767411,-0.604322467218008
-0.39365729483636,-0.492450722495215
-0.496755045578895,-0.389226259766614
-0.277483462954374,-0.568776306971698
-0.37362009286471,-0.469351134220267
-0.47593030131376,-0.553807357651497
-0.249716013881568,-0.343857622302378
-0.444336211866864,-0.32799235427572
-0.347992090145934,-0.439718287791192
-0.242611550104097,-0.33604122503281
-0.335639406826789,-0.425392326148935
-0.43730320079637,-0.510821840775943
-0.207233273474556,-0.509238513722888
-0.197825968020888,-0.523317901971517
-0.208755738585838,-0.287938139554401
-0.403115760081619,-0.494200210690746
-0.205579742885254,-0.281841284167252
-0.294788397018431,-0.377754252281681
-0.289251425746528,-0.371259582200134
-0.188852772090521,-0.271495852441314
-0.1811866269072,-0.467897719079198
-0.16373171855604,-0.235067838563735
-0.374750004583766,-0.455271282884246
-0.262669045275371,-0.339917267427949
-0.257571088056112,-0.333871312555811
-0.15113930186157,-0.435661581109594
-0.153806268343558,-0.437803809341647
-0.14197617023035,-0.422362797707959
-0.125587863043962,-0.401970360336404
-0.233158368242046,-0.304725014683094
-0.22848926123298,-0.299108751361335
-0.223890641107597,-0.293562253775566
-0.219362225536939,-0.288084993490815
-0.214903732192051,-0.282676442072109
-0.210514878743975,-0.277336071084474
-0.206195382863754,-0.272063352092938
-0.20194496222243,-0.266857756662527
-0.197763334491048,-0.261718756358269
-0.19365021734065,-0.25664582274519
-0.18960532844228,-0.251638427388318
-0.185628385466979,-0.246696041852678
-0.181719106085792,-0.2418181377033
-0.177877207969762,-0.237004186505208
-0.174102408789931,-0.23225365982343
-0.170394426217342,-0.227566029222994
-0.166752977923038,-0.222940766268925
-0.163177781578064,-0.218377342526252
-0.159668554853461,-0.21387522956
-0.156225015420272,-0.209433898935197
-0.152846880949541,-0.20505282221687
-0.149533869112311,-0.200731470970046
-0.146285697579625,-0.196469316759752
-0.143102084022526,-0.192265831151014
-0.139982746112056,-0.18812048570886
-0.136927401519259,-0.184032751998316
-0.133935767915179,-0.18000210158441
-0.131007562970857,-0.176028006032169
-0.128142504357338,-0.172109936906618
-0.125340309745663,-0.168247365772786
-0.122600696806877,-0.1644397641957
-0.119923383212022,-0.160686603740385
-0.117308086632141,-0.15698735597187
-0.114754524738278,-0.153341492455181
-0.112262415201475,-0.149748484755345
-0.109831475692775,-0.146207804437389
-0.107461423883222,-0.14271892306634
-0.105151977443858,-0.139281312207224
-0.102902854045727,-0.13589444342507
-0.100713771359871,-0.132557788284904
-0.0985844470573343,-0.129270818351752
-0.0965145988091591,-0.126033005190642
-0.0945039442863886,-0.122843820366601
-0.0925522011600658,-0.119702735444655
-0.0906590871012338,-0.116609221989831
-0.0888243197809358,-0.113562751567158
-0.0870476168702146,-0.11056279574166
-0.0853286960401134,-0.107608826078366
-0.0836672749616752,-0.104700314142303
-0.0820630713059431,-0.101836731498496
-0.0805158027439602,-0.0990175497119741
-0.0790251869467693,-0.0962422403477631
-0.0775909415854136,-0.0935102749708902
-0.0762127843309363,-0.0908211251463824
-0.0748904328543802,-0.0881742624392666
-0.0736236048267884,-0.0855691584145698
-0.072412017919204,-0.0830052846373187
-0.0712553898026701,-0.0804821126725407
-0.0701534381482296,-0.0779991140852624
-0.0691058806269257,-0.0755557604405107
-0.0681124349098013,-0.0731515233033128
-0.0671728186678996,-0.0707858742386955
-0.0662867495722636,-0.0684582848116859
-0.0654539452939362,-0.0661682265873107
-0.0646741235039607,-0.0639151711305969
-0.0639470018733799,-0.0616985900065717
-0.0632722980732371,-0.0595179547802618
-0.062649729774575,-0.0573727370166941
-0.062079014648437,-0.0552624082808957
-0.061559870365866,-0.0531864401378936
-0.0610920145979051,-0.0511443041527147
-0.0606751650155972,-0.0491354718903858
-0.0603090392899854,-0.0471594149159339
-0.0599933550921129,-0.045215604794386
-0.0597278300930226,-0.0433035130907691
-0.0595121819637575,-0.0414226113701101
-0.0593461283753608,-0.0395723711974359
-0.0592293869988754,-0.0377522641377734
-0.0591616755053446,-0.0359617617561498
-0.0591427115658111,-0.0342003356175917
-0.0591722128513182,-0.0324674572871263
-0.0592498970329089,-0.0307625983297805
-0.0593754817816261,-0.0290852303105812
-0.0595486847685131,-0.0274348247945553
-0.0597692236646127,-0.0258108533467298
-0.0600368161409681,-0.0242127875321317
-0.0603511798686222,-0.0226400989157879
-0.0607120325186183,-0.0210922590627253
-0.0611190917619992,-0.0195687395379709
-0.0615720752698081,-0.0180690119065517
-0.0620707007130879,-0.0165925477334945
-0.0626146857628818,-0.0151388185838264
-0.0632037480902327,-0.0137072960225742
-0.0638376053661838,-0.012297451614765
-0.0645159752617781,-0.0109087569254257
-0.0652385754480586,-0.00954068351958312
-0.0660051235960684,-0.00819270296226434
-0.0668153373768504,-0.00686428681849631
-0.0676689344614479,-0.00555490665330589
-0.0685656325209038,-0.00426403403172011
-0.0695051492262611,-0.00299114051876584
-0.0704872022485629,-0.00173569767947013
-0.0715115092588523,-0.000497177078859865
-0.0725777879281723,0.000724949718038076
-0.0736857559275659,0.0019312111461966
-0.0748351309280762,0.00312213564058887
-0.0760256306007462,0.00429825163618797
-0.0772569726166191,0.00546008756796679
-0.0785288746467378,0.00660817187089856
-0.0798410543621454,0.0077430329799562
-0.0811932294338848,0.00886519933011289
-0.0825851175329993,0.00997519935634156
-0.0840164363305318,0.0110735614936153
-0.0854869034975253,0.0121608141769072
-0.086996236705023,0.0132374858411903
-0.0885441536240679,0.0143041049214377
-0.0901303719257029,0.0153611998526224
-0.0917546092809712,0.0164092990697174
-0.0934165833609158,0.0174489310076958
-0.0951160118365797,0.0184806241015307
-0.0968526123790061,0.0195049067861951
-0.0986261026592379,0.020522307496662
-0.100436200348318,0.0215333546679046
-0.10228262311729,0.0225385767348959
-0.104165088637196,0.0235385021326089
-0.10608331457908,0.0245336592960167
-0.108037018613985,0.0255245766600922
-0.110025918412954,0.0265117826598088
-0.112049731647029,0.0274958057301392
-0.114108175987254,0.0284771743060566
-0.116200969104672,0.0294564168225341
-0.118327828670326,0.0304340617145447
-0.120488472355259,0.0314106374170614
-0.122682617830513,0.0323866723650573
-0.124909982767133,0.0333626949935055
-0.127170284836161,0.0343392337373791
-0.12946324170864,0.035316817031651
-0.131788571055614,0.0362959733112942
-0.134145990548124,0.037277231011282
-0.136535217857215,0.0382611185665873
-0.138955970653929,0.0392481644121832
-0.14140796660931,0.0402388969830427
-0.1438909233944,0.0412338447141389
-0.146404558680242,0.0422335360404449
-0.14894859013788,0.0432384993969336
-0.151522735438357,0.0442492632185782
-0.154126712252715,0.0452663559403517
-0.156760238251998,0.0462903059972271
-0.159423031107249,0.0473216418241776
-0.16211480848951,0.0483608918561761
-0.164835288069825,0.0494085845281958
-0.167584187519237,0.0504652482752095
-0.170361224508789,0.0515314115321906
-0.173166116709524,0.0526076027341118
-0.175998581792485,0.0536943503159465
-0.178858337428715,0.0547921827126674
-0.181745101289257,0.0559016283592479
-0.184658591045154,0.0570232156906608
-0.187598524367449,0.0581574731418793
-0.190564618927186,0.0593049291478763
-0.193556592395407,0.0604661121436251
-0.196574162443155,0.0616415505640984
-0.199617046741474,0.0628317728442696
-0.202684962961405,0.0640373074191115
-0.205777628773994,0.0652586827235974
-0.208894761850282,0.0664964271927002
-0.212036079861312,0.0677510692613928
-0.215201300478129,0.0690231373646485
-0.218390141371773,0.0703131599374404
-0.22160232021329,0.0716216654147413
-0.224837554673721,0.0729491822315244
-0.22809556242411,0.0742962388227627
-0.2313760611355,0.0756633636234294
-0.234678768478934,0.0770510850684974
-0.238003402125454,0.0784599315929397
-0.241349679746105,0.0798904316317295
-0.244717319011929,0.0813431136198399
-0.248106037593968,0.0828185059922437
-0.251515553163267,0.0843171371839142
-0.254945583390868,0.0858395356298243
-0.258395845947815,0.0873862297649472
-0.261866058505149,0.0889577480242558
-0.265355938733915,0.0905546188427232
-0.268865204305155,0.0921773706553225
-0.272393572889913,0.0938265318970268
-0.275940762159231,0.095502631002809
-0.279506489784153,0.0972061964076423
-0.283090473435721,0.0989377565464996
-0.286692430784979,0.100697839854354
-0.290312079502969,0.102486974766179
-0.293949137260735,0.104305689716947
-0.29760332172932,0.106154513141631
-0.301274350579767,0.108033973475205
-0.304961941483118,0.109944599152641
-0.308665812110417,0.111886918608912
-0.312385680132708,0.113861460278992
-0.316121263221032,0.115868752597853
-0.319872279046433,0.11790932400047
-0.323638445279954,0.119983702921813
-0.327419479592639,0.122092417796858
-0.331215099655529,0.124235997060576
-0.335025023139669,0.126414969147941
-0.338848967716101,0.128629862493927
-0.342686651055868,0.130881205533504
-0.346537790830014,0.133169526701649
-0.350402104709581,0.135495354433331
-0.354279310365613,0.137859217163527
-0.358169125469151,0.140261643327207
-0.362071267691241,0.142703161359345
-0.365985454702924,0.145184299694915
-0.369911404175244,0.147705586768889
-0.373848833779243,0.150267551016241
-0.377797461185965,0.152870720871943
-0.381757004066453,0.155515624770968
-0.38572718009175,0.15820279114829
-0.389707706932899,0.160932748438881
-0.393698302260942,0.163706025077715
-0.397698683746924,0.166523149499765
-0.401708569061886,0.169384650140004
-0.405727675876873,0.172291055433404
-0.409755721862926,0.175242893814939
-0.41379242469109,0.178240693719582
-0.417837502032407,0.181284983582306
-0.42189067155792,0.184376291838084
-0.425951650938673,0.187515146921889
-0.430020157845707,0.190702077268694
-0.434095909950068,0.193937611313473
-0.438178624922796,0.197222277491197
-0.442268020434937,0.200556604236841
-0.446363814157531,0.203941119985377
-0.450465723761623,0.207376353171779
-0.454573466918256,0.210862832231019
-0.458686761298473,0.21440108559807
-0.462805324573316,0.217991641707906
-0.466928874413829,0.2216350289955
-0.471057128491054,0.225331775895824
-0.475189804476036,0.229082410843852
-0.479326620039817,0.232887462274556
-0.483467292853439,0.236747458622911
-0.487611540587947,0.240662928323888
-0.491759080914382,0.244634399812462
-0.495909631503789,0.248662401523604
-0.500062910027209,0.252747461892288
-0.504218634155687,0.256890109353487
-0.508376521560265,0.261090872342175
-0.512536289911987,0.265350279293324
-0.516697656881894,0.269668858641906
-0.520860340141031,0.274047138822897
-0.525024057360441,0.278485648271267
-0.529188526211166,0.282984915421991
-0.533353464364249,0.287545468710041
-0.537518589490734,0.292167836570391
-0.541683619261664,0.296852547438014
-0.545848271348081,0.301600129747882
-0.550012263421029,0.306411111934968
-0.554175313151551,0.311286022434247
-0.55833713821069,0.31622538968069
-0.562497456269488,0.321229742109271
-0.566655984998989,0.326299608154963
-0.570812442070236,0.331435516252738
-0.574966545154273,0.336637994837571
-0.579118011922141,0.341907572344434
-0.583266560044884,0.3472447772083
-0.587411907193545,0.352650137864142
-0.591553771039168,0.358124182746933
-0.595691869252795,0.363667440291646
-0.599825919505469,0.369280438933255
-0.603955639468233,0.374963707106732
-0.608080746812131,0.380717773247051
-0.612200959208205,0.386543165789184
-0.616315994327498,0.392440413168104
-0.620425569841054,0.398410043818785
-0.624529403419916,0.4044525861762
-0.628627212735126,0.410568568675321
-0.632718715457728,0.416758519751122
-0.636803629258765,0.423022967838576
-0.640881671809279,0.429362441372656
-0.644952560780314,0.435777468788334
-0.649016013842913,0.442268578520585
-0.653071748668118,0.44883629900438
-0.657119482926974,0.455481158674694
-0.661158934290523,0.462203685966498
-0.665189820429807,0.469004409314767
-0.669211859015871,0.475883857154473
-0.673224767719757,0.48284255792059
-0.677228264212508,0.489881040048089
-0.681222066165167,0.496999831971945
-0.685205891248777,0.50419946212713
-0.689179457134382,0.511480458948618
-0.693142481493024,0.518843350871381
-0.697094681995746,0.526288666330394
-0.701035776313592,0.533816933760627
-0.704965482117605,0.541428681597055
-0.708883517078826,0.549124438274651
-0.712789598868301,0.556904732228388
-0.716683445157071,0.564770091893239
-0.72056477361618,0.572721045704176
-0.72443330191667,0.580758122096174
-0.728288747729586,0.588881849504205
-0.732130828725969,0.597092756363241
-0.735959262576863,0.605391371108257
-0.73977376695331,0.613778222174224
-0.743574059526355,0.622253837996117
-0.74735985796704,0.630818747008908
-0.751130879946408,0.639473477647572
-0.754886843135502,0.648218558347078
-0.758627465205365,0.657054517542403
-0.76235246382704,0.665981883668518
-0.76606155667157,0.675001185160396
-0.769754461409999,0.684112950453011
-0.77343089571337,0.693317707981336
-0.777090577252724,0.702615986180343
-0.780733223699106,0.712008313485007
-0.784358552723558,0.721495218330299
-0.787966281997124,0.731077229151193
-0.791556129190847,0.740754874382661
-0.795127811975769,0.750528682459678
-0.798681048022933,0.760399181817216
-0.802215555003384,0.770366900890248
-0.805731050588163,0.780432368113746
-0.809227252448314,0.790596111922686
-0.81270387825488,0.800858660752038
-0.816160645678904,0.811220543036777
-0.819597272391429,0.821682287211875
-0.823013476063497,0.832244421712305
-0.826408974366153,0.842907474973041
-0.829783484970439,0.853671975429055
-0.833136725547397,0.864538451515321
-0.836468413768073,0.875507431666812
