-0.0805228634056099,-0.924364012843075
-0.0868481904288128,-0.918559203470099
-0.0931277704884054,-0.912795630939427
-0.0993617542797221,-0.907073186757899
-0.105550292498098,-0.901391762432356
-0.111693535838866,-0.895751249469637
-0.117791634997362,-0.890151539376581
-0.12384474066892,-0.884592523660028
-0.129853003548875,-0.879074093826819
-0.13581657433256,-0.873596141383793
-0.141735603715311,-0.868158557837789
-0.147610242392461,-0.862761234695647
-0.153440641059346,-0.857404063464208
-0.159226950411299,-0.852086935650311
-0.0613633135116263,-0.736947942803954
-0.170667903951749,-0.841572376302501
-0.176322849530915,-0.836374727782269
-0.2866628255831,-0.932548081688337
-0.187502431783801,-0.826098150583346
-0.193027369848189,-0.821019004918336
-0.198509273464988,-0.815979143218746
-0.0878783478957808,-0.714189342896765
-0.209344580137152,-0.806016837743185
-0.214698284583186,-0.801094176980894
-0.220009557362968,-0.796210366211383
-0.225278549171832,-0.791365296941491
-0.230505410705113,-0.786558860678057
-0.134861412649449,-0.674514601722649
-0.240833345726261,-0.777061453197926
-0.245934720604798,-0.772370264994907
-0.142994822032997,-0.652200977050041
-0.256013038574468,-0.763102377197164
-0.37142602906261,-0.862617329134632
-0.270821696490483,-0.749485139623879
-0.275676166833562,-0.745021518226364
-0.280490013854402,-0.740595444903706
-0.285263388248337,-0.736206811162745
-0.289996440710702,-0.731855508510319
-0.294689321936831,-0.727541428453268
-0.299342182622059,-0.723264462498434
-0.30395517346172,-0.719024502152654
-0.308528445151149,-0.71482143892277
-0.317556433860647,-0.706525569838045
-0.322011452271385,-0.702432546996885
-0.326427354313229,-0.698375987298978
-0.330804290681512,-0.694355782251165
-0.33514241207157,-0.690371823360286
-0.339441869178737,-0.68642400213318
-0.343702812698347,-0.682512210076688
-0.347925393325734,-0.678636338697648
-0.352109761756233,-0.6747962795029
-0.356256068685179,-0.670991923999286
-0.360364464807906,-0.667223163693643
-0.364435100819749,-0.663489890092812
-0.267673841432013,-0.545819961968265
-0.372463695292118,-0.656129369032946
-0.376421955143313,-0.65250190458759
-0.380343057664961,-0.648909492874404
-0.384227153552398,-0.64535202540023
-0.388074393500956,-0.641829393671905
-0.391884928205971,-0.638341489196271
-0.395658908362777,-0.634888203480168
-0.399396484666708,-0.631469428030433
-0.300618003683974,-0.523452744090078
-0.406763028497285,-0.624734973957433
-0.410392297414599,-0.621419078347847
-0.413985765260377,-0.61813725903199
-0.417543582729952,-0.614889407516701
-0.530190298249732,-0.715078430181049
-0.424552869321833,-0.608495173915188
-0.428004639834808,-0.605348574842644
-0.431421362752918,-0.602235509598027
-0.434803188771499,-0.599155869688177
-0.33076213510109,-0.501079769601507
-0.441462752891407,-0.593096431900139
-0.444740792383403,-0.590116417035631
-0.447984537757208,-0.587169393533249
-0.451194139708154,-0.584255252899832
-0.454369748931577,-0.581373886642222
-0.457511516122812,-0.578525186267258
-0.460619591977191,-0.575709043281779
-0.463694127190051,-0.572925349192625
-0.466735272456725,-0.570173995506636
-0.469743178472548,-0.567454873730652
-0.472717995932854,-0.564767875371513
-0.378809402205626,-0.464525336972766
-0.478568967968254,-0.559489814931126
-0.481445423934016,-0.556898535863559
-0.368724614450421,-0.454260814859151
-0.5960544655946,-0.653558261209084
-0.489880479967568,-0.549314401353438
-0.583450478152166,-0.643116216201701
-0.587404391738852,-0.660315016432287
-0.503300242197769,-0.537300009888889
-0.505889751227961,-0.534990030065385
-0.508448130741984,-0.532710763247642
-0.510975531435173,-0.530462100942501
-0.513472104002862,-0.528243934656801
-0.515937999140385,-0.526056155897381
-0.520778359906272,-0.521771326984743
-0.523153126925306,-0.519674059845205
-0.525497819295511,-0.517606746259305
-0.527812587712223,-0.515569277733886
-0.530097582870776,-0.513561545775785
-0.532352955466505,-0.511583441891844
-0.534578856194743,-0.509634857588901
-0.536775435750826,-0.507715684373797
-0.538942844830088,-0.505825813753371
-0.431661687658815,-0.393194347016172
-0.545271556160292,-0.500330932528562
-0.547323790285614,-0.498557187355247
-0.549347607410787,-0.496812202310809
-0.553310593442025,-0.493408078635924
-0.555250063738758,-0.491748723019156
-0.445987128007527,-0.395216403153611
-0.560902192097428,-0.486940179133629
-0.562731309690924,-0.485393477182845
-0.564533215846946,-0.483874667415655
-0.56630806126083,-0.482383641338901
-0.568055996627908,-0.480920290459421
-0.569777172643517,-0.479484506284056
-0.571471740002991,-0.478076180319645
-0.573139849401663,-0.476695204073028
-0.457437872581587,-0.383666024981968
-0.577986936786218,-0.472715288708339
-0.581088801319715,-0.470196771346245
-0.582601327555604,-0.468977615050027
-0.58698709048385,-0.465479253782767
-0.588398908517906,-0.464365807590277
-0.589785926239841,-0.463278517690819
-0.591148294344987,-0.462217275591231
-0.593799684486254,-0.460172500819029
-0.595089007913044,-0.459188751160094
-0.597595664955609,-0.457297984830753
-0.598813299962052,-0.456390751174028
-0.602325239266041,-0.453820346317707
-0.603449399446705,-0.453013615093018
-0.60455056765926,-0.452231738243438
-0.606684530961381,-0.450742113696961
-0.499299181259493,-0.33094355466821
-0.608728334735081,-0.449350604732996
-0.609716803537109,-0.448691372361555
-0.610683184543034,-0.44805634340626
-0.611627628448193,-0.447445409373953
-0.612550285947917,-0.446858461771472
-0.613451307737543,-0.446295392105657
-0.614330844512405,-0.445756091883349
-0.615189046967837,-0.445240452611387
-0.616026065799173,-0.44474836579661
-0.520572969389107,-0.32785202620695
-0.617637155370897,-0.443834415565972
-0.618411527501954,-0.443412335163791
-0.619165318790253,-0.443013373246154
-0.619898679931129,-0.442637421319902
-0.519804600183779,-0.349201777272819
-0.621304714551949,-0.44195411346891
-0.621977689422562,-0.44164654055785
-0.62263083692709,-0.441361543665533
-0.623264307760866,-0.4410990142988
-0.623878252619227,-0.440858843964489
-0.625048167191035,-0.440445146420497
-0.626141786205191,-0.440119583088273
-0.626660361616485,-0.439989580518674
-0.627160315224369,-0.439881286022537
-0.627641797724178,-0.439794591106701
-0.628104959811246,-0.439729387278007
-0.628549952180908,-0.439685566043293
-0.628976925528497,-0.439663018909399
-0.629386030549349,-0.439661637383167
-0.629777417938798,-0.439681312971434
-0.630151238392178,-0.439721937181041
-0.63084678127207,-0.439865597491634
-0.63116880508925,-0.4399684166063
-0.6314738647517,-0.440091750369665
-0.632033694393744,-0.44039952786985
-0.632288765764007,-0.44058375462035
-0.632527475760878,-0.440788062046908
-0.63274997507969,-0.441012341656364
-0.633146944464475,-0.441520383451328
-0.633321715921117,-0.441803928650515
-0.633480879481038,-0.44210701205996
-0.633624585839573,-0.442429525186501
-0.633752985692056,-0.442771359536978
-0.633866229733822,-0.443132406618232
-0.634047853166538,-0.443911705000427
-0.634116533948157,-0.444329739315047
-0.634170661700397,-0.444766552387803
-0.634210387118591,-0.445222035725533
-0.742469963346723,-0.547069878311157
-0.634247233734181,-0.446188579223278
-0.634244656322246,-0.446699422396972
-0.743550309954783,-0.53985724134717
-0.634198253535588,-0.447775709128201
-0.634154729551534,-0.448340935699416
-0.634097858100775,-0.448924073083484
-0.633944675580483,-0.450143646317539
-0.531043818292341,-0.337009811289678
-0.633484771534165,-0.452792948840838
-0.633180461133489,-0.454220942239517
-0.735569764455415,-0.54890418292162
-0.632634438205606,-0.45648966891272
-0.741442309893942,-0.566822521927938
-0.631745563162317,-0.459746656037933
-0.631495626809776,-0.46060161135786
-0.631234904811216,-0.461472633106917
-0.630963547861972,-0.462359612791943
-0.63038953189277,-0.46418101199726
-0.7453657486612,-0.58496974804102
-0.629774784464845,-0.46606494102853
-0.629120511140871,-0.468010531940471
-0.518959980556736,-0.362747152912497
-0.628427917483526,-0.470016916787801
-0.628067627268175,-0.471042635704336
-0.530123487582283,-0.379924883829073
-0.534147374633788,-0.372643227770964
-0.625298450773935,-0.478633036625374
-0.624869356049231,-0.479774701768355
-0.624432338889862,-0.480930371970421
-0.623987549991165,-0.482099938738411
-0.623535140048472,-0.483283293579165
-0.623075259757118,-0.484480327999523
-0.622133690909765,-0.486915001606411
-0.621164049011783,-0.489403091613791
-0.620669077407142,-0.490666896534765
-0.619659586363232,-0.49323348374548
-0.619145368314632,-0.494536049048901
-0.618625036175381,-0.495851317493484
-0.618098740640814,-0.497179180586069
-0.617566632406265,-0.498519529833494
-0.616485580618559,-0.501237252820228
-0.615936938456071,-0.502614409573216
-0.615383086374939,-0.504003618508405
-0.722360508609308,-0.607640284036268
-0.614260355238081,-0.506817758952742
-0.611959004535351,-0.512585892328769
-0.611372902493075,-0.514056428730873
-0.61078279609483,-0.515538149369896
-0.609591173011773,-0.518534709386055
-0.608385340848856,-0.521574704431966
-0.607777473100786,-0.523110718858177
-0.607166505168753,-0.524657266562345
-0.605935871534141,-0.527781527831911
-0.501552195378083,-0.413709231061162
-0.604070437085871,-0.532544206991932
-0.602815582901691,-0.535768918848857
-0.602185238530004,-0.537395827022913
-0.486078591470594,-0.444901206194879
-0.600284344640571,-0.542333458609528
-0.599647928737084,-0.543997943182681
-0.599010371688983,-0.545671550622709
-0.702833551364132,-0.654487116688111
-0.59709236063034,-0.550746025212432
-0.596451745957127,-0.552455039188352
-0.595810743615972,-0.554172633565346
-0.595169504302211,-0.555898699850251
-0.593886917538203,-0.559375814171159
-0.592605191227779,-0.562885514205794
-0.591325530933614,-0.566426932008874
-0.590686852280966,-0.56820926384068
-0.589412551441207,-0.571796630899024
-0.682134013423751,-0.688946207555535
-0.588143330524397,-0.575413545862609
-0.586251661173064,-0.580892422000006
-0.585624950710326,-0.58273254772437
-0.585000414400332,-0.584579409466083
-0.584378202938415,-0.586432898731984
-0.694808663663423,-0.685997828225592
-0.582527024594481,-0.592032046743215
-0.581307292686714,-0.595795960663707
-0.580100476859287,-0.599583780845107
-0.579502289214037,-0.601486384550746
-0.578317107937136,-0.605308436726104
-0.577147856647264,-0.609152225299165
-0.575995740907096,-0.613016882324647
-0.574861966279308,-0.616901539857268
-0.573747738326576,-0.620805329951747
-0.571582744696979,-0.628666836045149
-0.57105559665317,-0.630642814255157
-0.570534390145466,-0.632622816153508
-0.570019275869202,-0.634606733247042
-0.569007926792329,-0.638585879047015
-0.56851199338239,-0.640580890767135
-0.568022754985227,-0.642579383709795
-0.567064966010572,-0.646586379290101
-0.566596716823748,-0.648594664941424
-0.566135765431039,-0.650605997842649
-0.454464639154256,-0.536221915614036
-0.564798204970947,-0.656657195114122
-0.563945749715925,-0.66070457383667
-0.563531749689929,-0.662731911880932
-0.562340468362018,-0.668827218827752
-0.561590053388483,-0.672900749205722
-0.56053310370248,-0.67902386352961
-0.560199702661629,-0.681067886000114
-0.559876010540245,-0.683113219829954
-0.559562178033662,-0.68515975652597
-0.658387259876792,-0.780397333846803
-0.558964694646234,-0.689256004543892
-0.558681345156059,-0.691305498879477
-0.673016960041973,-0.809368723234458
-0.445059610210725,-0.583651282421694
-0.557654078110087,-0.699510080225568
-0.55720623287062,-0.703614814396622
-0.556999284755438,-0.70566741263059
-0.556803853903734,-0.707720020305972
-0.664626162006148,-0.826091494243061
-0.556448146772104,-0.711824830008336
-0.556288171882846,-0.713876815048998
-0.556004732934115,-0.717979403043481
-0.655132362024455,-0.824797064867481
-0.555588117825165,-0.726176012876593
-0.446342834810574,-0.620656733704686
-0.555457352790296,-0.730268298824658
-0.555411883336434,-0.732312557330507
-0.555379890185398,-0.734355414866688
-0.459059968514729,-0.623405480521748
-0.55538969451622,-0.74251066545151
-0.448604601642935,-0.645996899216804
-0.555352128577038,-0.750101338813433
-0.555293001064189,-0.751828323884592
-0.555214046010019,-0.753487635728674
-0.555115296849477,-0.755079574386006
-0.554996787017513,-0.756604439896915
-0.554700619079116,-0.759454151640764
-0.554523027842584,-0.760779597954357
-0.5541089980096,-0.763233171666511
-0.553341336384572,-0.766424735552055
-0.552045506984726,-0.769780335285465
-0.551281502442552,-0.771077899257762
-0.550440461311676,-0.772125173063933
-0.548528339202206,-0.773478451468336
-0.548002578743771,-0.773664090219686
-0.547457793182809,-0.773789256711787
-0.444755780318822,-0.668257804012061
-0.541704110287127,-0.772244010128344
-0.538659509462449,-0.77004996386592
-0.537025733230926,-0.768614110405313
-0.535317996426078,-0.766955570488587
-0.530726832240524,-0.761850719568383
-0.528762339830874,-0.759431679595794
-0.525679265587898,-0.755406585354522
-0.522433391029515,-0.750912850942211
-0.520179475836919,-0.747660672887777
-0.519025618899369,-0.745958577447669
-0.517853873647583,-0.744206211119404
-0.516664273516511,-0.742403873943306
-0.514231642356308,-0.738650487208919
-0.512988678197078,-0.736700037731282
-0.400462343563608,-0.627611029611601
-0.509153592622264,-0.73055726534051
-0.507839944514785,-0.72841353335872
-0.505159919535714,-0.723983657859798
-0.503793609534021,-0.721698114423318
-0.496700421801976,-0.709576341983778
-0.379260504440661,-0.585555548298572
-0.37571965136544,-0.596238018747523
-0.487617406945013,-0.693542898813677
-0.486043458511944,-0.690717113187793
-0.482844337454431,-0.684936632215362
-0.476242134752503,-0.672868432516975
-0.471113070413434,-0.663382900979126
-0.469369767798692,-0.660139917964618
-0.465832941426325,-0.653534043424724
-0.45855934028866,-0.639851061430553
-0.451020924491073,-0.625555771034599
-0.548865442926166,-0.721223359182117
-0.441228769036178,-0.606854853281452
-0.439221454200308,-0.60300676283299
-0.424718058837476,-0.575099403540234
-0.420429887367813,-0.566822854402742
-0.418261911437208,-0.562635577050461
-0.413878346359197,-0.554164516980463
-0.398039440479486,-0.523534004632621
-0.393373305551005,-0.514511816120331
-0.391016949720085,-0.509957119806523
-0.485005185994708,-0.606013755032186
-0.381437050767377,-0.491454655107813
-0.379003624296691,-0.486759619273898
-0.369117114532407,-0.467710798511067
-0.366607453295699,-0.462882924165198
-0.257446344727242,-0.339641552090241
-0.353832616085829,-0.438364539521195
-0.338008856589424,-0.408148254859198
-0.329897010806645,-0.39273410562317
-0.423474242156111,-0.482508041847299
-0.32165305799234,-0.37712675323553
-0.316084142453508,-0.366618517097224
-0.304772442243725,-0.345364843360644
-0.301908489492629,-0.340003758190909
-0.287374231292729,-0.312927333944993
-0.284424714808513,-0.307459949698646
-0.269465647088498,-0.279879033699031
-0.247936878604303,-0.240637173288869
-0.244806103247959,-0.234976529356814
-0.133142021830032,-0.118321370203203
-0.228947260982506,-0.206487822792261
-0.225734733477316,-0.200755084380778
-0.219269186894436,-0.18925701078185
-0.206177063617266,-0.166138877609276
-0.202870679895304,-0.160335680806635
-0.196218123012823,-0.148702991272241
-0.192872016722205,-0.14287409862114
-0.186140315616959,-0.131192717752761
-0.179356186046035,-0.119481876398319
-0.27210748121038,-0.217962798418967
-0.262592339019723,-0.18721434781578
-0.252568534136131,-0.169184832932323
-0.133999872793852,-0.0428090805268926
-0.101346981196125,0.010595278314359
-0.097656912942254,0.0165339172695063
-0.093954573445707,0.0224724203380145
-0.090239996141434,0.0284104874795581
-0.0865132144643849,0.0343478186538102
-0.0790231717317573,0.0462190729391367
-0.0714847127274222,0.0580837828713844
-0.0638981049309778,0.0699395481279441
0.0559801004566653,0.16707117199425
0.0509094345777765,0.186992844569235
-0.0330755354160683,0.117225155945115
0.0854720186890067,0.239160310909961
-0.0252521958530484,0.129000192984094
0.0847513473400594,0.241106460594574
-0.00946615246304416,0.152477826905409
-0.00549080243109071,0.158330393451201
-0.00150398359525601,0.164175623142526
0.0145573110879018,0.187477172556634
-0.060790258044628,0.113323170942686
0.084809292357851,0.284699261860837
-0.00504293407302375,0.18243531957006
0.110353161533026,0.318127146467961
0.114647532287937,0.323645127861785
0.153765320453389,0.372549244490392
0.20720314128659,0.435355891502882
0.220785287122849,0.450575181385569
0.132842632820824,0.373309863799088
0.252814786747175,0.485259491185224
0.299372702897333,0.532629163463829
0.199835019062246,0.451605348178452
0.234388309085417,0.473482137867905
0.346843454787304,0.577164868012526
0.469575122341916,0.704058452581183
0.366079860121693,0.594118429834567
0.414772411331803,0.634182511813419
0.419688010681806,0.637998397128486
0.429544053397825,0.645522345661934
0.4593085263576,0.667210011585301
0.494398375398481,0.690767772017425
0.51969695076605,0.706390505850798
0.61231995436375,0.753702022639148
0.638460659794088,0.764202443157589
0.664772734744784,0.773484303189058
0.670055346292919,0.775191147493327
