-0.301596828838719,0.0776245897592891
-0.304337426130493,0.0713469825958452
-0.307002690098725,0.0651586977301447
-0.309592993162431,0.0590593816751938
-0.312108707740628,0.0530486809439986
-0.314550206252334,0.0471262420495652
-0.316917861116565,0.0412917115048998
-0.319212044752338,0.0355447358230086
-0.321433129578672,0.0298849615168976
-0.323581488014582,0.0243120350995731
-0.325657492479086,0.0188256030840411
-0.327661515391201,0.0134253119833079
-0.329593929169944,0.00811080831037959
-0.331455106234332,0.00288173857826228
-0.333245419003382,-0.00226225070003786
-0.334965239896112,-0.0073215130115147
-0.336614941331538,-0.0122964018431621
-0.338194895728678,-0.0171872706819738
-0.339705475506548,-0.0219944730149438
-0.341147053084166,-0.0267183623290659
-0.342520000880549,-0.031359292111334
-0.343824691314713,-0.0359176158487418
-0.345061496805677,-0.0403936870282834
-0.346230789772457,-0.0447878591369524
-0.34733294263407,-0.0491004856617428
-0.348368327809533,-0.0533319200896484
-0.349337317717863,-0.0574825159076631
-0.350240284778078,-0.0615526266027807
-0.351077601409195,-0.0655426056619951
-0.35184964003023,-0.0694528065723001
-0.352556773060201,-0.0732835828206896
-0.353199372918124,-0.0770352878941574
-0.353777812023018,-0.0807082752796975
-0.354292462793898,-0.0843028984643036
-0.354743697649783,-0.0878195109349695
-0.355131889009689,-0.0912584661786893
-0.355457409292633,-0.0946201176824566
-0.355720630917632,-0.0979048189332654
-0.355921926303704,-0.101112923418109
-0.356061667869866,-0.104244784623983
-0.356140228035134,-0.107300756037879
-0.356157979218526,-0.110281191146792
-0.356115293839058,-0.113186443437716
-0.356012544315749,-0.116016866397644
-0.355850103067615,-0.118772813513571
-0.355628342513673,-0.121454638272491
-0.35534763507294,-0.124062694161396
-0.355008353164433,-0.126597334667281
-0.35461086920717,-0.12905891327714
-0.354155555620167,-0.131447783477967
-0.353642784822442,-0.133764298756755
-0.353072929233011,-0.136008812600499
-0.352446361270892,-0.138181678496192
-0.351763453355103,-0.140283249930828
-0.351024577904659,-0.142313880391402
-0.350230107338578,-0.144273923364906
-0.349380414075877,-0.146163732338334
-0.348475870535573,-0.147983660798681
-0.347516849136684,-0.149734062232941
-0.346503722298226,-0.151415290128107
-0.345436862439217,-0.153027697971172
-0.344316641978673,-0.154571639249132
-0.343143433335612,-0.15604746744898
-0.341917608929051,-0.157455536057709
-0.340639541178007,-0.158796198562314
-0.339309602501496,-0.160069808449788
-0.337928165318537,-0.161276719207125
-0.336495602048146,-0.162417284321319
-0.33501228510934,-0.163491857279364
-0.333478586921137,-0.164500791568254
-0.331894879902553,-0.165444440674983
-0.330261536472605,-0.166323158086544
-0.328578929050311,-0.167137297289931
-0.326847430054688,-0.167887211772139
-0.325067411904752,-0.16857325502016
-0.323239247019522,-0.16919578052099
-0.321363307818013,-0.169755141761621
-0.319439966719244,-0.170251692229048
-0.317469596142231,-0.170685785410264
-0.315452568505991,-0.171057774792264
-0.313389256229541,-0.17136801386204
-0.311280031731899,-0.171616856106588
-0.309125267432082,-0.171804655012901
-0.306925335749105,-0.171931764067972
-0.304680609101988,-0.171998536758796
-0.302391459909747,-0.172005326572366
-0.300058260591399,-0.171952486995676
-0.29768138356596,-0.171840371515721
-0.295261201252449,-0.171669333619494
-0.292798086069882,-0.171439726793988
-0.290292410437276,-0.171151904526198
-0.287744546773648,-0.170806220303118
-0.285154867498017,-0.170403027611741
-0.282523745029397,-0.169942679939061
-0.279851551786808,-0.169425530772072
-0.277138660189265,-0.168851933597769
-0.274385442655786,-0.168222241903144
-0.271592271605388,-0.167536809175192
-0.268759519457087,-0.166795988900906
-0.265887558629902,-0.166000134567281
-0.26297676154285,-0.16514959966131
-0.260027500614946,-0.164244737669986
-0.257040148265209,-0.163285902080305
-0.254015076912656,-0.16227344637926
-0.250952658976303,-0.161207724053844
-0.247853266875168,-0.160089088591052
-0.244717273028267,-0.158917893477877
-0.241545049854618,-0.157694492201313
-0.238336969773239,-0.156419238248355
-0.235093405203146,-0.155092485105995
-0.231814728563355,-0.153714586261228
-0.228501312272885,-0.152285895201047
-0.225153528750752,-0.150806765412447
-0.221771750415974,-0.149277550382422
-0.218356349687567,-0.147698603597964
-0.214907698984549,-0.146070278546069
-0.211426170725936,-0.144392928713729
-0.207912137330747,-0.142666907587939
-0.204365971217997,-0.140892568655693
-0.200788044806704,-0.139070265403984
-0.197178730515885,-0.137200351319806
-0.193538400764558,-0.135283179890154
-0.189867427971738,-0.13331910460202
-0.186166184556444,-0.131308478942399
-0.182435042937693,-0.129251656398285
-0.178674375534501,-0.127148990456672
-0.174884554765886,-0.125000834604553
-0.171065953050864,-0.122807542328922
-0.167218942808453,-0.120569467116774
-0.163343896457671,-0.118286962455101
-0.159441186417533,-0.115960381830898
-0.155511185107057,-0.113590078731159
-0.151554264945261,-0.111176406642877
-0.14757079835116,-0.108719719053047
-0.143561157743774,-0.106220369448662
-0.139525715542117,-0.103678711316716
-0.135464844165208,-0.101095098144203
-0.131378916032064,-0.0984698834181162
-0.127268303561702,-0.0958034206254506
-0.123133379173138,-0.0930960632531994
-0.118974515285391,-0.0903481647883566
-0.114792084317476,-0.087560078717916
-0.110586458688412,-0.0847321585288714
-0.106358010817215,-0.0818647577082167
-0.102107113122902,-0.0789582297429459
-0.0978341380244904,-0.0760129281200526
-0.0935394579409974,-0.0730292063265308
-0.0892234452914399,-0.0700074178493743
-0.0848864724948352,-0.066947916175577
-0.0805289119702003,-0.0638510547921327
-0.0761511361365522,-0.0607171871860353
-0.0717535174129081,-0.0575466668442785
-0.0673364282182851,-0.0543398472538565
-0.0629002409717002,-0.0510970819017629
-0.0584453280921705,-0.0478187242749915
-0.0539720619987131,-0.0445051278605363
-0.0494808151103453,-0.0411566461453911
-0.0449719598460839,-0.0377736326165498
-0.0404458686249461,-0.0343564407610061
-0.035902913865949,-0.0309054240657539
-0.0313434679881098,-0.0274209360177873
-0.0267679034104455,-0.0239033301040999
-0.022176592551973,-0.0203529598116856
-0.0175699078317097,-0.0167701786275382
-0.0129482216686726,-0.0131553400386518
-0.00831190648187871,-0.00950879753202002
-0.00366133469034516,-0.0058309045946367
0.00100312128691099,-0.00212201471349581
0.00568108903087244,0.00161751862440883
0.0103721961225224,0.00538734193208336
0.0150760701428436,0.00918710172253398
0.019792338672819,0.0130164445087668
0.0245206292934314,0.016875016803788
0.0292605695856638,0.0207624651206036
0.0340117871304992,0.0246784359722199
0.0387739095089204,0.028622575871643
0.0435465643019102,0.032594531331879
0.0483293790904516,0.036593948865934
0.0531219814555278,0.0406204749868144
0.0579239989781213,0.0446737562075262
0.062735059239215,0.0487534390410753
0.067554789819792,0.0528591700004682
0.0723828183008353,0.0569905955987109
0.0772187722633276,0.0611473623488096
0.0820622792882518,0.0653291167637703
0.0869129669565909,0.0695355053565993
0.0917704628493279,0.0737661746403028
0.0966343945474456,0.0780207711278868
0.101504389631927,0.0822989413323575
0.106380075683754,0.0866003317667209
0.111261080283912,0.0909245889439834
0.116147031013381,0.0952713593771511
0.121037555453146,0.09964028957923
0.125932281184189,0.104031026063226
0.130830835787492,0.108443215342146
0.13573284684404,0.112876503928996
0.140637941934815,0.117330538336781
0.145545748640799,0.121804965078509
0.150455894542977,0.126299430667185
0.155368007222329,0.130813581615815
0.160281714259841,0.135347064437405
0.165196643236493,0.139899525644962
0.17011242173327,0.144470611751492
0.175028677331154,0.149059969270001
0.179945037611128,0.153667244713494
0.184861130154176,0.158292084594979
0.189776582541279,0.162934135427461
0.194691022353421,0.167593043723947
0.199604077171585,0.172268455997442
0.204515374576753,0.176960018760954
0.209424542149909,0.181667378527487
0.214331207472035,0.186390181810048
0.219234998124115,0.191128075121643
0.224135541687131,0.195880704975279
0.229032465742066,0.200647717883961
0.233925397869904,0.205428760360696
0.238813965651626,0.21022347891849
0.243697796668216,0.215031520070348
0.248576518500658,0.219852530329278
0.253449758729932,0.224686156208285
0.258317144937024,0.229532044220375
0.263178304702915,0.234389840878555
0.268032865608588,0.239259192695831
0.272880455235027,0.244139746185208
0.277720701163214,0.249031147859693
0.282553230974132,0.253933044232293
0.287377672248764,0.258845081816013
0.292193652568094,0.263766907123859
0.297000799513103,0.268698166668838
0.301798740664775,0.273638506963955
0.306587103604092,0.278587574522217
0.311365515912039,0.283545015856631
0.316133605169596,0.288510477480201
0.320890998957749,0.293483605905935
0.325637324857478,0.298464047646838
0.330372210449768,0.303451449215917
0.335095283315601,0.308445457126177
0.33980617103596,0.313445717890626
0.344504501191827,0.318451878022268
0.349189901364187,0.323463584034111
0.353861999134022,0.32848048243916
0.358520422082314,0.333502219750421
0.363164797790047,0.338528442480901
0.367794753838203,0.343558797143606
0.372409917807766,0.348592930251541
0.377009917279718,0.353630488317714
0.381594379835042,0.35867111785513
0.386162933054721,0.363714465376796
0.390715204519738,0.368760177395716
0.395250821811077,0.373807900424899
0.399769412509719,0.378857280977349
0.404270604196648,0.383907965566073
0.408754024452846,0.388959600704077
0.413219300859297,0.394011832904368
0.417666060996984,0.399064308679951
0.422093932446889,0.404116674543832
0.426502542789995,0.409168577009018
0.430891519607286,0.414219662588515
0.435260490479743,0.419269577795329
0.439609082988351,0.424317969142466
0.443936924714091,0.429364483142932
0.448243643237947,0.434408766309734
0.452528866140902,0.439450465155877
0.456792221003939,0.444489226194368
0.46103333540804,0.449524695938212
0.465251836934189,0.454556520900417
0.469447353163368,0.459584347593988
0.47361951167656,0.464607822531931
0.477767940054749,0.469626592227252
0.481892265878916,0.474640303192959
0.485992116730046,0.479648601942055
0.49006712018912,0.484651134987549
0.494116903837122,0.489647548842446
0.498141095255035,0.494637490019752
0.502139322023841,0.499620605032473
0.506111211724525,0.504596540393615
0.510056391938067,0.509564942616186
0.513974490245452,0.51452545821319
0.517865134227662,0.519477733697634
0.52172795146568,0.524421415582524
0.525562569540489,0.529356150380866
0.529368616033073,0.534281584605666
0.533145718524412,0.539197364769931
0.536893504595492,0.544103137386667
0.540611601827295,0.548998548968879
0.544299637800803,0.553883246029574
0.547957240097,0.558756875081759
0.551584036296868,0.563619082638438
0.55517965398139,0.568469515212619
0.55874372073155,0.573307819317308
0.562275864128329,0.57813364146551
0.565775711752712,0.582946628170232
0.569242891185681,0.587746425944479
0.572677030008218,0.592532681301259
0.576077755801308,0.597305040753578
0.579444696145932,0.60206315081444
0.582777478623073,0.606806657996854
0.586075730813715,0.611535208813823
0.58933908029884,0.616248449778356
0.592567154659432,0.620946027403458
0.595759581476473,0.625627588202134
0.598915988330946,0.630292778687392
0.602036002803834,0.634941245372238
0.60511925247612,0.639572634769677
0.608165364928787,0.644186593392716
0.611173967742817,0.64878276775436
0.614144688499194,0.653360804367617
0.617077154778901,0.657920349745492
0.61997099416292,0.66246105040099
0.622825834232234,0.66698255284712
0.625641302567827,0.671484503596886
0.628417026750681,0.675966549163295
0.631152634361779,0.680428336059353
0.633847752982104,0.684869510798065
0.636502010192639,0.689289719892439
0.639115033574367,0.693688609855481
0.64168645070827,0.698065827200195
0.644215889175332,0.70242101843959
0.646702976556536,0.706753830086669
0.649147340432864,0.711063908654442
0.651548608385299,0.715350900655912
0.653906407994825,0.719614452604086
0.656220366842423,0.723854211011971
0.658490112509078,0.728069822392572
0.660715272575772,0.732260933258895
0.662895474623488,0.736427190123948
0.665030346233208,0.740568239500735
0.667119514985916,0.744683727902264
0.669162608462595,0.74877330184154
0.671159254244227,0.752836607831569
0.673109079911796,0.756873292385358
0.675011713046284,0.760883002015912
0.676866781228674,0.764865383236239
0.67867391203995,0.768820082559343
0.680432733061093,0.772746746498231
0.682142871873087,0.77664502156591
0.683803956056915,0.780514554275385
0.68541561319356,0.784354991139662
0.686977470864005,0.788165978671748
0.688489156649232,0.791947163384649
0.689950298130225,0.795698191791371
0.691360522887966,0.799418710404921
0.692719458503438,0.803108365738303
0.694026732557625,0.806766804304525
0.695281972631508,0.810393672616592
0.696484806306072,0.813988617187512
0.697634861162299,0.817551284530289
0.698731764781171,0.82108132115793
0.699775144743672,0.824578373583441
0.700764628630785,0.828042088319829
0.701699844023493,0.831472111880099
0.702580418502778,0.834868090777257
0.703405979649623,0.838229671524311
0.704176155045011,0.841556500634265
0.704890572269926,0.844848224620126
0.70554885890535,0.848104489994901
0.706150642532266,0.851324943271595
0.706695550731656,0.854509230963214
0.707183211084505,0.857656999582765
0.707613251171794,0.860767895643254
0.707985298574507,0.863841565657687
0.708298980873627,0.86687765613907
0.708553925650135,0.869875813600409
0.708749760485016,0.87283568455471
0.708886112959253,0.87575691551498
0.708962610653827,0.878639152994225
0.708978881149723,0.88148204350545
0.708934552027923,0.884285233561662
0.708829250869409,0.887048369675868
0.708662605255165,0.889771098361072
0.708434242766175,0.892453066130282
0.708143790983419,0.895093919496504
0.707790877487882,0.897693304972743
0.707375129860547,0.900250869072006
0.706896175682396,0.9027662583073
0.706353642534412,0.905239119191629
0.705747157997578,0.907669098238
0.705076349652877,0.91005584195942
0.704340845081293,0.912398996868895
0.703540271863807,0.91469820947943
0.702674257581403,0.916953126304032
0.701742429815063,0.919163393855707
0.700744416145771,0.921328658647461
0.69967984415451,0.923448567192301
0.698548341422262,0.925522766003232
0.69734953553001,0.92755090159326
0.696083054058738,0.929532620475393
0.694748524589428,0.931467569162635
0.693345574703062,0.933355394167993
0.691873831980625,0.935195742004473
0.690332924003098,0.936988259185082
0.688722478351465,0.938732592222826
0.687042122606709,0.940428387630709
0.685291484349813,0.94207529192174
0.683470191161759,0.943672951608924
0.68157787062353,0.945221013205266
0.679614150316109,0.946719123223774
0.67757865782048,0.948166928177453
0.675471020717625,0.94956407457931
0.673290866588527,0.95091020894235
