0.721781528851806,0.762352921545974
0.642565681617702,0.748905947154299
0.569028469153952,0.734390731708207
0.500989543343011,0.718896073253876
0.438268556067335,0.702510769837482
0.380685159209381,0.685323619505205
0.328059004651604,0.667423420303222
0.280209744276461,0.648898970277709
0.236957029966406,0.629839067474847
0.198120513603896,0.610332509940811
0.163519847071387,0.59046809572178
0.132974682251335,0.570334622863932
0.106304671026196,0.550020889413444
0.0833294652784252,0.529615693416494
0.063868716890479,0.509207832919259
0.0477420777448133,0.488886105967919
0.034769199723884,0.468739310608649
0.024769734710147,0.448856244887629
0.0175633345860582,0.429325706851035
0.0129696512340736,0.410236494545046
0.010808336536649,0.39167740601584
0.0108990423762403,0.373737239309593
0.0130614206353036,0.356504792472484
0.0171151231962947,0.340068863550691
0.0228798019416694,0.324518250590391
0.0301751087538839,0.309941751637762
0.0388206955153939,0.296428164738982
0.0486362141086553,0.284066287940229
0.0594413164161242,0.27294491928768
0.0710556543202563,0.263152856827513
0.0832988797035077,0.254778898605905
0.0959906444483342,0.247911842669036
0.108950600437192,0.242640487063082
0.121998399552536,0.239053629834221
0.134953693676824,0.23724006902863
0.14763613469251,0.237288602692489
0.159865374482051,0.239288028871973
0.171461064927903,0.243327145613262
0.182242857912521,0.249494750962533
0.192030405318362,0.257879642965963
0.199840060294613,0.267395217443523
0.205434462318496,0.278719698305668
0.206223702288035,0.28939642328576
0.202517230838992,0.299384038329011
0.194624498607127,0.308641189380633
0.182854956228203,0.317126522385836
0.16751805433798,0.324798683289833
0.148923243572221,0.331616318037836
0.127379974566688,0.337538072575055
0.103197697957141,0.342522592846702
0.0766858643793417,0.346528524797989
0.0481539244690525,0.349514514374128
0.0179113288620346,0.351439207520329
-0.0137324718059504,0.352261250181805
-0.0464680268991412,0.351939288303768
-0.079985885781776,0.350431967831428
-0.113976597818093,0.347697934709997
-0.148130712372332,0.343695834884687
-0.182138778808729,0.33838431430071
-0.215691346491525,0.331722018903276
-0.248478964784957,0.323667594637598
-0.280192183053264,0.314179687448887
-0.310521550660684,0.303216943282355
-0.339157616971456,0.290738008083213
-0.365790931349818,0.276701527796673
-0.390112043160008,0.261066148367946
-0.411811501766266,0.243790515742244
-0.430579856532829,0.224833275864779
-0.446107656823936,0.204153074680761
-0.458085452003825,0.181708558135404
-0.466203791436736,0.157458372173917
-0.470153224486906,0.131361162741513
-0.469624300518573,0.103375575783404
-0.464307568895977,0.0734602572448006
-0.453893578983355,0.0415738530709146
-0.438072880144947,0.00767500920695759
-0.41653602174499,-0.0282776284018588
-0.388973553147723,-0.066325413810323
-0.355076023717385,-0.106509701073224
-0.314533982818214,-0.148871844245349
