0.17261712295802,0.536130200361146
-0.95476804272106,0.638112175978441
0.205973158018069,0.915874717705408
-0.595691805267319,-0.0346542622389896
-1.39735676855271,-0.985183242183387
0.427188604916091,0.716103515473509
0.373328716177968,0.939293573853593
