-0.65862330972278,-0.608439156997495
-0.647662974057589,-0.601997141766913
-0.636818879765324,-0.595610694718277
-0.626090521346662,-0.589279592690384
-0.615477393302279,-0.58300361252203
-0.604978990132852,-0.576782531052013
-0.594594806339056,-0.570616125119129
-0.584324336421568,-0.564504171562177
-0.574167074881066,-0.558446447219952
-0.564122516218224,-0.552442728931252
-0.554190154933719,-0.546492793534873
-0.544369485528228,-0.540596417869613
-0.534660002502427,-0.534753378774269
-0.525061200356993,-0.528963453087638
-0.515572573592601,-0.523226417648516
-0.506193616709929,-0.517542049295702
-0.496923824209652,-0.511910124867991
-0.487762690592448,-0.506330421204181
-0.478709710358991,-0.500802715143069
-0.469764378009959,-0.495326783523452
-0.460926188046028,-0.489902403184126
-0.452194634967875,-0.48452935096389
-0.443569213276175,-0.479207403701539
-0.435049417471606,-0.473936338235872
-0.426634742054844,-0.468715931405684
-0.418324681526564,-0.463545960049774
-0.410118730387443,-0.458426201006937
-0.402016383138158,-0.453356431115971
-0.394017134279386,-0.448336427215674
-0.386120478311802,-0.443365966144841
-0.378325909736082,-0.438444824742271
-0.370632923052904,-0.433572779846759
-0.363041012762943,-0.428749608297104
-0.355549673366876,-0.423975086932102
-0.34815839936538,-0.419248992590549
-0.34086668525913,-0.414571102111244
-0.333674025548803,-0.409941192332983
-0.326579914735076,-0.405359040094563
-0.319583847318624,-0.400824422234782
-0.312685317800125,-0.396337115592436
-0.305883820680254,-0.391896897006321
-0.299178850459688,-0.387503543315236
-0.292569901639103,-0.383156831357978
-0.286056468719176,-0.378856537973342
-0.279638046200583,-0.374602440000127
-0.273314128584001,-0.370394314277129
-0.267084210370105,-0.366231937643145
-0.260947786059572,-0.362115086936973
-0.254904350153079,-0.358043538997409
-0.248953397151302,-0.354017070663251
-0.243094421554917,-0.350035458773294
-0.237326917864601,-0.346098480166337
-0.23165038058103,-0.342205911681177
-0.22606430420488,-0.33835753015661
-0.220568183236828,-0.334553112431433
-0.21516151217755,-0.330792435344444
-0.209843785527723,-0.327075275734439
-0.204614497788022,-0.323401410440216
-0.199473143459125,-0.319770616300571
-0.194419217041708,-0.316182670154302
-0.189452213036446,-0.312637348840205
-0.184571625944017,-0.309134429197078
-0.179776950265097,-0.305673688063718
-0.175067680500361,-0.302254902278921
-0.170443311150488,-0.298877848681484
-0.165903336716152,-0.295542304110205
-0.16144725169803,-0.292248045403881
-0.157074550596799,-0.288994849401308
-0.152784727913135,-0.285782492941284
-0.148577278147715,-0.282610752862606
-0.144451695801214,-0.27947940600407
-0.140407475374309,-0.276388229204474
-0.136444111367677,-0.273336999302615
-0.132561098281994,-0.27032549313729
-0.128757930617936,-0.267353487547295
-0.125034102876179,-0.264420759371428
-0.121389109557401,-0.261527085448486
-0.117822445162277,-0.258672242617266
-0.114333604191484,-0.255856007716564
-0.110922081145697,-0.253078157585178
-0.107587370525595,-0.250338469061905
-0.104328966831852,-0.247636718985542
-0.101146364565145,-0.244972684194886
-0.0980390582261511,-0.242346141528734
-0.0950065423155462,-0.239756867825882
-0.0920483113340065,-0.237204639925129
-0.0891638597822086,-0.23468923466527
-0.0863526821608288,-0.232210428885103
-0.0836142729705435,-0.229767999423426
-0.080948126712029,-0.227361723119034
-0.0783537378859617,-0.224991376810725
-0.075830600993018,-0.222656737337297
-0.0733782105338744,-0.220357581537545
-0.0709960610092071,-0.218093686250268
-0.0686836469196925,-0.215864828314261
-0.0664404627660069,-0.213670784568323
-0.0642660030488269,-0.211511331851249
-0.0621597622688287,-0.209386247001838
-0.0601212349266888,-0.207295306858886
-0.0581499155230833,-0.20523828826119
-0.0562452985586889,-0.203214968047547
-0.0544068785341818,-0.201225123056754
-0.0526341499502385,-0.199268530127609
-0.0509266073075351,-0.197344966098908
-0.0492837451067483,-0.195454207809448
-0.0477050578485543,-0.193596032098026
-0.0461900400336295,-0.191770215803439
-0.0447381861626503,-0.189976535764485
-0.043348990736293,-0.18821476881996
-0.0420219482552342,-0.186484691808661
-0.0407565532201499,-0.184786081569386
-0.0395523001317167,-0.183118714940931
-0.038408683490611,-0.181482368762093
-0.0373251977975092,-0.17987681987167
-0.0363013375530874,-0.178301845108457
-0.0353365972580224,-0.176757221311254
-0.0344304714129901,-0.175242725318856
-0.0335824545186673,-0.17375813397006
-0.0327920410757301,-0.172303224103663
-0.032058725584855,-0.170877772558464
-0.0313820025467184,-0.169481556173257
-0.0307613664619965,-0.168114351786841
-0.0301963118313658,-0.166775936238013
-0.0296863331555027,-0.165466086365569
-0.0292309249350836,-0.164184579008307
-0.0288295816707847,-0.162931191005023
-0.0284817978632825,-0.161705699194515
-0.0281870680132533,-0.160507880415579
-0.0279448866213736,-0.159337511507013
-0.0277547481883197,-0.158194369307613
-0.0276161472147679,-0.157078230656177
-0.0275285782013947,-0.155988872391502
-0.0274915356488765,-0.154926071352385
-0.0275045140578895,-0.153889604377622
-0.0275670079291102,-0.152879248306011
-0.027678511763215,-0.151894779976348
-0.0278385200608801,-0.150935976227432
-0.0280465273227821,-0.150002613898058
-0.0283020280495972,-0.149094469827023
-0.0286045167420018,-0.148211320853126
-0.0289534879006724,-0.147352943815162
-0.0293484360262853,-0.146519115551929
-0.0297888556195168,-0.145709612902224
-0.0302742411810433,-0.144924212704844
-0.0308040872115412,-0.144162691798586
-0.031377888211687,-0.143424827022246
-0.0319951386821568,-0.142710395214623
-0.0326553331236273,-0.142019173214512
-0.0333579660367745,-0.141350937860711
-0.0341025319222751,-0.140705465992017
-0.0348885252808053,-0.140082534447227
-0.0357154406130416,-0.139481920065138
-0.0365827724196603,-0.138903399684547
-0.0374900152013377,-0.138346750144251
-0.0384366634587503,-0.137811748283047
-0.0394222116925743,-0.137298170939732
-0.0404461544034863,-0.136805794953103
-0.0415079860921625,-0.136334397161958
-0.0426072012592794,-0.135883754405092
-0.0437432944055132,-0.135453643521303
-0.0449157600315405,-0.135043841349388
-0.0461240926380375,-0.134654124728145
-0.0473677867256807,-0.13428427049637
-0.0486463367951463,-0.133934055492859
-0.0499592373471109,-0.133603256556411
-0.0513059828822507,-0.133291650525822
-0.0526860679012421,-0.13299901423989
-0.0540989869047615,-0.13272512453741
-0.0555442343934853,-0.132469758257181
-0.0570213048680898,-0.132232692237999
-0.0585296928292515,-0.132013703318661
-0.0600688927776467,-0.131812568337965
-0.0616383992139517,-0.131629064134707
-0.063237706638843,-0.131462967547684
-0.0648663095529969,-0.131314055415694
-0.0665237024570898,-0.131182104577532
-0.068209379851798,-0.131066891871998
-0.069922836237798,-0.130968194137886
-0.0716635661157661,-0.130885788213995
-0.0734310639863787,-0.130819450939121
-0.0752248243503121,-0.130768959152062
-0.0770443417082428,-0.130734089691614
-0.0788891105608471,-0.130714619396575
-0.0807586254088014,-0.130710325105741
-0.0826523807527819,-0.13072098365791
-0.0845698710934653,-0.130746371891878
-0.0865105909315277,-0.130786266646442
-0.0884740347676456,-0.130840444760401
-0.0904596971024954,-0.130908683072549
-0.0924670724367534,-0.130990758421686
-0.094495655271096,-0.131086447646606
-0.0965449401061996,-0.131195527586109
-0.0986144214427404,-0.13131777507899
-0.100703593781395,-0.131452966964047
-0.10281195162284,-0.131600880080076
-0.104938989467751,-0.131761291265875
-0.107084201816805,-0.13193397736024
-0.109247083170678,-0.13211871520197
-0.111427128030047,-0.13231528162986
-0.113623830895588,-0.132523453482707
-0.115836686267977,-0.13274300759931
-0.118065188647891,-0.132973720818464
-0.120308832536005,-0.133215369978967
-0.122567112432998,-0.133467731919616
-0.124839522839544,-0.133730583479207
-0.12712555825632,-0.134003701496539
-0.129424713184003,-0.134286862810407
-0.131736482123269,-0.134579844259609
-0.134060359574794,-0.134882422682942
-0.136395840039255,-0.135194374919203
-0.138742418017328,-0.135515477807188
-0.14109958800969,-0.135845508185696
-0.143466844517016,-0.136184242893522
-0.145843682039983,-0.136531458769465
-0.148229595079268,-0.13688693265232
-0.150624078135547,-0.137250441380886
-0.153026625709496,-0.137621761793958
-0.155436732301792,-0.138000670730335
-0.157853892413111,-0.138386945028812
-0.16027760054413,-0.138780361528187
-0.162707351195524,-0.139180697067258
-0.16514263886797,-0.13958772848482
-0.167582958062145,-0.140001232619672
-0.170027803278725,-0.14042098631061
-0.172476669018386,-0.140846766396431
-0.174929049781805,-0.141278349715932
-0.177384440069658,-0.14171551310791
-0.179842334382621,-0.142158033411162
-0.182302227221371,-0.142605687464485
-0.184763613086585,-0.143058252106677
-0.187225986478937,-0.143515504176534
-0.189688841899106,-0.143977220512853
-0.192151673847767,-0.144443177954431
-0.194613976825597,-0.144913153340066
-0.197075245333271,-0.145386923508554
-0.199534973871468,-0.145864265298692
-0.201992656940862,-0.146344955549277
-0.20444778904213,-0.146828771099107
-0.206899864675948,-0.147315488786978
-0.209348378342994,-0.147804885451688
-0.211792824543943,-0.148296737932032
-0.214232697779471,-0.14879082306681
-0.216667492550255,-0.149286917694816
-0.219096703356972,-0.149784798654849
-0.221519824700298,-0.150284242785706
-0.223936351080909,-0.150785026926183
-0.226345776999481,-0.151286927915077
-0.228747596956691,-0.151789722591186
-0.231141305453216,-0.152293187793306
-0.233526396989731,-0.152797100360235
-0.235902366066913,-0.153301237130769
-0.238268707185439,-0.153805374943706
-0.240624914845984,-0.154309290637843
-0.242970483549225,-0.154812761051976
-0.245304907795839,-0.155315563024902
-0.247627682086502,-0.15581747339542
-0.24993830092189,-0.156318269002324
-0.25223625880268,-0.156817726684414
-0.254521050229548,-0.157315623280485
-0.25679216970317,-0.157811735629335
-0.259049111724223,-0.15830584056976
-0.261291370793383,-0.158797714940558
-0.263518441411326,-0.159287135580526
-0.26572981807873,-0.159773879328461
-0.267924995296269,-0.160257723023159
-0.270103467564621,-0.160738443503418
-0.272264729384463,-0.161215817608035
-0.274408275256469,-0.161689622175807
-0.276533599681318,-0.16215963404553
-0.278640197159684,-0.162625630056003
-0.280727562192245,-0.163087387046021
-0.282795189279677,-0.163544681854382
-0.284842572922656,-0.163997291319883
-0.286869207621859,-0.164444992281321
-0.288874587877961,-0.164887561577492
-0.29085820819164,-0.165324776047195
-0.292819563063572,-0.165756412529226
-0.294758146994433,-0.166182247862381
-0.296673454484899,-0.166602058885459
-0.298564980035647,-0.167015622437255
-0.300432218147354,-0.167422715356567
-0.302274663320695,-0.167823114482193
-0.304091810056347,-0.168216596652928
-0.305883152854986,-0.168602938707571
-0.307648186217289,-0.168981917484918
-0.309386404643932,-0.169353309823765
-0.311097302635592,-0.169716892562911
-0.312780374692944,-0.170072442541152
-0.314435115316666,-0.170419736597285
-0.316061019007433,-0.170758551570107
-0.317657580265922,-0.171088664298415
-0.31922429359281,-0.171409851621007
-0.320760653488772,-0.171721890376678
-0.322266154454485,-0.172024557404227
-0.323740290990626,-0.17231762954245
-0.325182557597871,-0.172600883630145
-0.326592448776896,-0.172874096506107
-0.327969459028377,-0.173137045009135
-0.329313082852992,-0.173389505978025
-0.330622814751415,-0.173631256251575
-0.331898149224325,-0.17386207266858
-0.333138580772396,-0.17408173206784
-0.334343603896306,-0.174290011288149
-0.335512713096731,-0.174486687168306
-0.336645402874347,-0.174671536547107
-0.33774116772983,-0.174844336263349
-0.338799502163858,-0.17500486315583
-0.339819900677105,-0.175152894063347
-0.34080185777025,-0.175288205824696
-0.341744867943968,-0.175410575278674
-0.342648425698935,-0.175519779264079
-0.343512025535827,-0.175615594619707
-0.344335161955322,-0.175697798184356
-0.345117329458096,-0.175766166796822
-0.345858022544824,-0.175820477295903
-0.346556735716184,-0.175860506520395
-0.347212963472851,-0.175886031309096
-0.347826200315503,-0.175896828500802
-0.348395940744815,-0.175892674934312
-0.348921679261463,-0.17587334744842
-0.349402910366125,-0.175838622881926
-0.349839128559477,-0.175788278073625
-0.350229828342194,-0.175722089862314
-0.350574504214954,-0.175639835086792
-0.350872650678432,-0.175541290585854
-0.351123762233306,-0.175426233198297
-0.35132733338025,-0.17529443976292
-0.351482858619943,-0.175145687118518
-0.35158983245306,-0.174979752103889
-0.351647749380277,-0.17479641155783
-0.351656103902271,-0.174595442319137
-0.351614390519718,-0.174376621226609
-0.351522103733296,-0.174139725119041
-0.351378738043679,-0.173884530835231
-0.351183787951544,-0.173610815213976
-0.350936747957569,-0.173318355094072
-0.350637112562428,-0.173006927314318
-0.350284376266799,-0.172676308713509
-0.349878033571358,-0.172326276130444
-0.349417578976781,-0.171956606403918
-0.348902506983745,-0.171567076372729
-0.348332312092926,-0.171157462875675
-0.347706488805,-0.170727542751551
-0.347024531620644,-0.170277092839155
-0.346285935040535,-0.169805889977284
-0.345490193565347,-0.169313711004736
-0.344636801695759,-0.168800332760306
-0.343725253932446,-0.168265532082792
-0.342755044776084,-0.167709085810992
-0.341725668727351,-0.167130770783701
-0.340636620286921,-0.166530363839718
-0.339487393955473,-0.165907641817839
-0.338277484233682,-0.16526238155686
-0.337006385622224,-0.16459435989558
-0.335673592621776,-0.163903353672796
-0.334278599733015,-0.163189139727303
-0.332820901456616,-0.1624514948979
-0.331299992293256,-0.161690196023382
-0.329715366743611,-0.160905019942548
-0.328066519308358,-0.160095743494195
-0.326352944488174,-0.159262143517118
-0.324574136783733,-0.158403996850116
-0.322729590695714,-0.157521080331985
-0.320818800724792,-0.156613170801523
-0.318841261371643,-0.155680045097525
-0.316796467136945,-0.15472148005879
-0.314683912521373,-0.153737252524115
-0.312503092025603,-0.152727139332296
-0.310253500150313,-0.15169091732213
-0.307934631396178,-0.150628363332414
-0.305545980263875,-0.149539254201947
-0.30308704125408,-0.148423366769523
-0.30055730886747,-0.147280477873941
-0.297956277604721,-0.146110364353997
-0.295283441966509,-0.144912803048489
-0.292538296453511,-0.143687570796214
-0.289720335566403,-0.142434444435967
-0.286829053805862,-0.141153200806548
-0.283863945672563,-0.139843616746752
-0.280824505667184,-0.138505469095376
-0.2777102282904,-0.137138534691218
-0.274520608042888,-0.135742590373075
-0.271255139425324,-0.134317412979743
-0.267913316938386,-0.13286277935002
-0.264494635082748,-0.131378466322703
-0.260998588359088,-0.129864250736588
-0.257424671268081,-0.128319909430473
-0.253772378310405,-0.126745219243155
-0.250041203986736,-0.12513995701343
-0.246230642797749,-0.123503899580096
-0.242340189244122,-0.12183682378195
-0.23836933782653,-0.120138506457788
-0.23431758304565,-0.118408724446409
-0.230184419402159,-0.116647254586608
-0.225969341396733,-0.114853873717182
-0.221671843530048,-0.11302835867693
-0.21729142030278,-0.111170486304648
-0.212827566215607,-0.109280033439132
-0.208279775769204,-0.10735677691918
-0.203647543464247,-0.105400493583589
-0.203647543464247,-0.105400493583589
-0.198979385816505,-0.103422535637822
-0.194324224727527,-0.101434542747918
-0.189682162776662,-0.0994367229435401
-0.185053302543258,-0.0974292842543498
-0.180437746606665,-0.0954124347100097
-0.175835597546231,-0.093386382340182
-0.171246957941305,-0.091351335174529
-0.166671930371236,-0.089307501242713
-0.162110617415373,-0.0872550885743961
-0.157563121653065,-0.0851943051992407
-0.15302954566366,-0.083125359146909
-0.148509992026507,-0.0810484584470634
-0.144004563320956,-0.0789638111293659
-0.139513362126355,-0.076871625223479
-0.135036491022053,-0.0747721087590648
-0.130574052587399,-0.0726654697657857
-0.126126149401741,-0.0705519162733038
-0.121692884044429,-0.0684316563112815
-0.117274359094811,-0.0663048979093811
-0.112870677132236,-0.0641718490972647
-0.108481940736053,-0.0620327179045946
-0.104108252485611,-0.0598877123610331
-0.0997497149602589,-0.0577370404962425
-0.0954064307393453,-0.055580910339885
-0.091078502402219,-0.0534195299216228
-0.0867660325282289,-0.0512531072711183
-0.082469123696724,-0.0490818504180337
-0.078187878487053,-0.0469059673920312
-0.0739223994785648,-0.0447256662227732
-0.0696727892506082,-0.0425411549399218
-0.065439150382532,-0.0403526415731394
-0.0612215854536852,-0.0381603341520882
-0.0570201970434166,-0.0359644407064304
-0.052835087731075,-0.0337651692658284
-0.0486663600960093,-0.0315627278599443
-0.0445141167175683,-0.0293573245184405
-0.0403784601751008,-0.0271491672709792
-0.0362594930479557,-0.0249384641472226
-0.0321573179154819,-0.0227254231768331
-0.0280720373570282,-0.0205102523894729
-0.0240037539519435,-0.0182931598148042
-0.0199525702795765,-0.0160743534824893
-0.0159185889192761,-0.0138540414221905
-0.0119019124503913,-0.01163243166357
-0.00790264345227085,-0.00940973223629007
-0.00392088450426351,-0.007186151170013
4.32618142818114e-05,-0.00496189649440106
0.00398969292401621,-0.00273717623911647
0.0079183062455909,-0.00051219843382154
0.011828999199657,0.00171282889182152
0.0157216692068658,0.00393769770815042
0.0195962136878682,0.00616219998550291
0.0234525300633155,0.00838612769421672
0.0272905157538589,0.0106092728046296
0.0311100681801495,0.0128314272870793
0.0349110847628384,0.0150523831119035
0.0386934629225768,0.01727193224944
0.0424571000800159,0.0194898666700266
0.0462018936558068,0.0217059783440009
0.0499277410706006,0.0239200592417007
0.0536345397450486,0.0261319013334637
0.0573221870998018,0.0283412965896277
0.0609905805555115,0.0305480369805305
0.0646396175328287,0.0327519144765096
0.0682691954524047,0.034952721047903
0.0718792117348905,0.0371502486650484
0.0754695638009374,0.0393442892982834
0.0790401490711964,0.0415346349179458
0.0825908649663188,0.0437210774943734
0.0861216089069557,0.0459034089979039
0.0896322783137583,0.048081421398875
0.0931227706073776,0.0502549066676245
0.0965929832084649,0.0524236567744901
0.100042813537671,0.0545874636898095
0.103472159015648,0.0567461193839205
0.106880917063046,0.0588994158271609
0.110268985100517,0.0610471449898683
0.113636260548711,0.0631890988423806
0.11698264082828,0.0653250693550354
0.120308023359875,0.0674548484981705
0.123612305564148,0.0695782282421236
0.126895384861749,0.0716950005572324
0.130157158673329,0.0738049574138348
0.13339752441954,0.0759078907822685
0.136616379521032,0.0780035926328711
0.139813621398458,0.0800918549359804
0.142989147472467,0.0821724696619342
0.146142855163712,0.0842452287810702
0.149274641892844,0.0863099242637262
0.152384405080513,0.0883663480802398
0.15547204214737,0.0904142922009488
0.158537450514068,0.092453548596191
0.161580527601256,0.0944839092363041
0.164601170829587,0.0965051660916259
0.167599277619711,0.098517111132494
0.170574745392279,0.100519536329246
0.173527471567943,0.10251223365222
0.176457353567354,0.104494995071754
0.179364288811163,0.106467612558185
0.182248174720021,0.108429878081851
0.185108908714579,0.11038158361309
0.187946388215488,0.112322521122239
0.1907605106434,0.114252482579637
0.193551173418966,0.116171259955621
0.196318273962836,0.118078645220529
0.199061709695663,0.119974430344698
0.201781378038097,0.121858407298466
0.204477176410789,0.123730368052171
0.20714900223439,0.125590104576151
0.209796752929552,0.127437408840744
0.212420325916926,0.129272072816286
0.215019618617163,0.131093888473117
0.217594528450914,0.132902647781573
0.22014495283883,0.134698142711993
0.222670789201562,0.136480165234714
0.225171934959762,0.138248507320074
0.227648287534081,0.14000296093841
0.23009974434517,0.141743318060061
0.232526202813679,0.143469370655364
0.234927560360261,0.145180910694657
0.237303714405566,0.146877730148278
0.239654562370245,0.148559620986563
0.24198000167495,0.150226375179852
0.244279929740332,0.151877784698482
0.246554243987042,0.15351364151279
0.248802841835731,0.155133737593115
0.25102562070705,0.156737864909793
0.25322247802165,0.158325815433163
0.255393311200183,0.159897381133563
0.2575380176633,0.16145235398133
0.259656494831651,0.162990525946802
0.261748640125888,0.164511689000317
0.263814350966663,0.166015635112213
0.265853524774626,0.167502156252826
0.267866058970428,0.168971044392496
0.269851850974721,0.170422091501559
0.271810798208155,0.171855089550353
0.273742798091383,0.173269830509217
0.275647748045054,0.174666106348488
0.277525545489821,0.176043709038503
0.279376087846334,0.177402430549601
0.281199272535245,0.178742062852118
0.282994996977204,0.180062397916394
0.284763158592863,0.181363227712765
0.286503654802874,0.18264434421157
0.288216383027886,0.183905539383146
0.289901240688551,0.18514660519783
0.291558125205521,0.186367333625961
0.293186933999447,0.187567516637877
0.294787564490979,0.188746946203914
0.296359914100769,0.189905414294411
0.297903880249468,0.191042712879706
0.299419360357728,0.192158633930136
0.300906251846199,0.193252969416039
0.302364452135532,0.194325511307753
0.303793858646379,0.195376051575615
0.30519436879939,0.196404382189963
0.306565880015218,0.197410295121136
0.307908289714513,0.19839358233947
0.309221495317926,0.199354035815303
0.310505394246109,0.200291447518974
0.311759883919712,0.20120560942082
0.312984861759386,0.202096313491178
0.314180225185784,0.202963351700386
0.315345871619556,0.203806516018783
0.316481698481353,0.204625598416706
0.317587603191826,0.205420390864492
0.318663483171627,0.20619068533248
0.319709235841406,0.206936273791006
0.320724758621815,0.20765694821041
0.321709948933505,0.208352500561028
0.322664704197128,0.209022722813198
0.323588921833333,0.209667406937259
0.324482499262773,0.210286344903547
0.325345333906099,0.2108793286824
0.326177323183961,0.211446150244157
0.326978364517011,0.211986601559155
0.3277483553259,0.212500474597732
0.328487193031279,0.212987561330225
0.3291947750538,0.213447653726973
0.329870998814113,0.213880543758312
0.33051576173287,0.214286023394581
0.331128961230721,0.214663884606118
0.331710494728319,0.215013919363259
0.332260259646314,0.215335919636344
0.332778153405356,0.215629677395709
0.333264073426099,0.215894984611693
0.333717917129191,0.216131633254633
0.334139581935286,0.216339415294866
0.334528965265033,0.216518122702732
0.334885964539085,0.216667547448566
0.335210477178091,0.216787481502708
0.335502400602704,0.216877716835494
0.335761632233574,0.216938045417264
0.335988069491353,0.216968259218353
0.336181609796692,0.2169681502091
0.336342150570242,0.216937510359844
0.336469589232654,0.216876131640921
0.336563823204578,0.216783806022669
0.336624749906668,0.216660325475426
0.336652266759573,0.216505481969529
0.336646271183945,0.216319067475318
0.336606660600434,0.216100873963128
0.336533332429693,0.215850693403299
0.336426184092371,0.215568317766167
0.336285113009121,0.215253539022071
0.336110016600594,0.214906149141347
0.33590079228744,0.214525940094335
0.335657337490311,0.214112703851371
0.335379549629857,0.213666232382794
0.335067326126731,0.213186317658941
0.334720564401583,0.21267275165015
0.334339161875065,0.212125326326758
0.333923015967827,0.211543833659104
0.33347202410052,0.210928065617525
0.332986083693797,0.210277814172359
0.332465092168307,0.209592871293943
0.331908946944703,0.208873028952616
0.331317545443635,0.208118079118714
0.330690785085754,0.207327813762577
0.330028563291712,0.206502024854541
0.32933077748216,0.205640504364944
0.328597325077749,0.204743044264124
0.32782810349913,0.203809436522419
0.327023010166954,0.202839473110167
0.326181942501872,0.201832945997704
0.325304797924536,0.20078964715537
0.324391473855597,0.199709368553501
0.323441867715705,0.198591902162436
0.322455876925512,0.197437039952512
0.32143339890567,0.196244573894067
0.320374331076829,0.195014295957439
0.31927857085964,0.193745998112965
0.318146015674755,0.192439472330983
0.316976562942824,0.191094510581831
0.3157701100845,0.189710904835847
0.314526554520432,0.188288447063368
0.313245793671273,0.186826929234732
0.311927724957673,0.185326143320277
0.310572245800284,0.18378588129034
0.309179253619756,0.18220593511526
0.307748645836742,0.180586096765374
0.306280319871891,0.17892615821102
0.304774173145855,0.177225911422535
0.303230103079285,0.175485148370258
0.301648007092833,0.173703661024525
0.30002778260715,0.171881241355675
0.298369327042886,0.170017681334046
0.296672537820693,0.168112772929975
0.294937312361223,0.1661663081138
0.293163548085125,0.164178078855859
0.291351142413052,0.162147877126489
0.289499992765654,0.160075494896028
0.287609996563583,0.157960724134815
0.28568105122749,0.155803356813186
0.283713054178026,0.153603184901479
0.281705902835842,0.151360000370032
0.279659494621589,0.149073595189184
0.277573726955918,0.146743761329271
0.275448497259482,0.144370290760631
0.273283702952929,0.141952975453603
0.271079241456913,0.139491607378523
0.268835010192084,0.13698597850573
0.266550906579093,0.134435880805561
0.264226828038591,0.131841106248354
0.26186267199123,0.129201446804447
0.259458335857661,0.126516694444178
0.257013717058534,0.123786641137884
0.254528713014501,0.121011078855903
0.252003221146214,0.118189799568573
0.249437138874322,0.115322595246231
0.246830363619478,0.112409257859215
0.244182792802333,0.109449579377864
0.241494323843537,0.106443351772514
0.238764854163742,0.103390367013503
0.2359942811836,0.10029041707117
0.23318250232376,0.0971432939158517
0.230329415004875,0.0939487895178861
0.227434916647595,0.0907066958476107
0.224498904672572,0.0874168048753638
0.221521276500456,0.0840789085714825
0.2185019295519,0.080692798906305
0.215440761247554,0.0772582678501687
0.212337669008069,0.0737751073734118
0.209192550254096,0.0702431094463715
0.206005302406287,0.0666620660393859
0.202775822885293,0.0630317691227925
0.199504009111764,0.0593520106669293
0.196189758506353,0.0556225826421338
0.192832968489709,0.051843277018744
0.189433536482485,0.0480138857670973
0.185991359905332,0.0441342008575318
0.1825063361789,0.0402040142603849
0.178978362723841,0.0362231179459946
0.175407336960806,0.0321913038846984
0.171793156310446,0.0281083640468345
0.168135718193412,0.02397409040274
0.164434920030355,0.0197882749227532
0.160690659241927,0.0155507095772114
0.156902833248779,0.0112611863364526
0.153071339471562,0.00691949717081443
0.149196075330926,0.00252543405063484
0.145276938247524,-0.0019212110537488
0.141313825642006,-0.00642064617199831
0.137306634935024,-0.0109730793337764
0.133255263547228,-0.015578718568745
0.12915960889927,-0.0202377719065667
0.125019568411801,-0.0249504473769032
0.120835039505472,-0.0297169530094174
0.116605919600935,-0.0345374968337711
0.112332106118839,-0.0394122868796268
0.108013496479837,-0.0443415311766466
0.10364998810458,-0.049325437754493
0.0992414784137189,-0.0543642146428279
0.0947878648279045,-0.059458069871314
0.0902890447677885,-0.0646072114696132
0.0857449156540215,-0.0698118474673881
0.0811553749072552,-0.0750721858943004
0.0765203199481404,-0.080388434780013
0.0718396481973285,-0.0857608021541876
0.0671132570754703,-0.0911894960464871
0.0623410440032174,-0.0966747244865731
0.0575229064012204,-0.102216695504108
0.0526587416901311,-0.107815617128755
0.0477484472906001,-0.113471697390175
0.042791920623279,-0.119185144318031
0.0377890591088186,-0.124956165941985
0.0327397601678703,-0.130784970291699
0.0276439212210849,-0.136671765396836
0.0225014396891141,-0.142616759287058
0.0173122129926084,-0.148620159992027
0.0120761385522196,-0.154682175541405
0.0067931137885984,-0.160803013964856
0.00146303612239627,-0.16698288329204
-0.00391419702573606,-0.17322199155262
-0.00933868823514684,-0.179520546776258
-0.0148105400851857,-0.185878756992618
-0.0203298551552006,-0.19229683023136
-0.0258967360245411,-0.198774974522148
-0.0315112852725556,-0.205313397894643
-0.0371736054785934,-0.211912308378507
-0.0428837992220027,-0.218571914003404
-0.0486419690821331,-0.225292422798995
-0.0544482176383327,-0.232074042794943
-0.060302647469951,-0.238916982020909
-0.0662053611563363,-0.245821448506557
-0.0721564612768379,-0.252787650281548
-0.0781560504108043,-0.259815795375544
-0.0842042311375847,-0.266906091818208
-0.0903011060365275,-0.274058747639202
-0.096446777686982,-0.281273970868189
-0.102641348668297,-0.28855196953483
-0.108884921559821,-0.295892951668788
-0.115177598940903,-0.303297125299726
-0.121519483390892,-0.310764698457304
-0.127910677489136,-0.318295879171187
-0.134351283814985,-0.325890875471035
-0.140841404947788,-0.333549895386511
-0.147381143466893,-0.341273146947278
-0.153970601951649,-0.349060838182997
-0.160609882981404,-0.356913177123332
-0.167299089135509,-0.364830371797944
-0.174038322993312,-0.372812630236495
-0.18082768713416,-0.380860160468648
-0.187667284137405,-0.388973170524065
-0.194557216582393,-0.397151868432408
-0.201497587048475,-0.40539646222334
-0.208488498114998,-0.413707159926523
-0.215530052361312,-0.422084169571619
-0.222622352366765,-0.430527699188289
-0.229765500710708,-0.439037956806198
-0.236959599972487,-0.447615150455006
-0.244204752731453,-0.456259488164377
-0.251501061566953,-0.464971177963971
-0.258848629058337,-0.473750427883453
-0.266247557784954,-0.482597445952483
-0.273697950326153,-0.491512440200725
-0.281199909261281,-0.500495618657839
-0.28875353716969,-0.50954718935349
-0.296358936630725,-0.518667360317338
-0.304016210223738,-0.527856339579047
-0.311725460528077,-0.537114335168278
-0.319486790123091,-0.546441555114694
-0.327300301588127,-0.555838207447956
-0.335166097502536,-0.565304500197728
-0.343084280445666,-0.574840641393671
-0.351054952996867,-0.584446839065449
-0.359078217735485,-0.594123301242722
-0.367154177240872,-0.603870235955153
-0.375282934092375,-0.613687851232405
-0.383464590869344,-0.62357635510414
-0.391699250151126,-0.633535955600019
-0.399987014517072,-0.643566860749706
-0.40832798654653,-0.653669278582863
-0.416722268818849,-0.663843417129151
-0.425169963913376,-0.674089484418234
-0.433671174409463,-0.684407688479773
-0.442226002886457,-0.69479823734343
-0.450834551923707,-0.705261339038868
