-0.314079945577191,0.37240299337186
0.454566695639938,0.520473849933165
-0.795562950339062,0.817395435485709
-0.902916581038702,0.159541502879477
-1.01027021173834,-0.498312429726755
-0.563132714703694,0.0733577676712922
0.594405841392483,0.568885330182367
