0.49523671210631,0.116451363000375
0.496345661283514,0.119729679861131
0.497429932252806,0.12298732318832
0.498489590346483,0.126224366927953
0.49952470089684,0.129440885026042
0.500535329236175,0.132636951428602
0.501521540696782,0.135812640081643
0.502483400610959,0.138968024931179
0.503420974311002,0.142103179923222
0.504334327129206,0.145218179003784
0.505223524397868,0.148313096118878
0.506088631449285,0.151388005214517
0.506929713615752,0.154442980236713
0.507746836229566,0.157478095131478
0.508540064623022,0.160493423844825
0.509309464128417,0.163489040322767
0.510055100078048,0.166465018511316
0.51077703780421,0.169421432356484
0.511475342639199,0.172358355804285
0.512150079915313,0.175275862800729
0.512801314964847,0.178174027291831
0.513429113120096,0.181052923223603
0.514033539713359,0.183912624542056
0.51461466007693,0.186753205193204
0.515172539543106,0.189574739123059
0.515707243444183,0.192377300277633
0.516218837112457,0.195160962602939
0.516707385880225,0.19792580004499
0.517172955079783,0.200671886549798
0.517615610043426,0.203399296063376
0.518035416103452,0.206108102531735
0.518432438592156,0.208798379900889
0.518806742841834,0.21147020211685
0.519158394184784,0.214123643125631
0.5194874579533,0.216758776873243
0.519793999479679,0.2193756773057
0.520078084096218,0.221974418369014
0.520339777135213,0.224555074009198
0.520579143928959,0.227117718172264
0.520796249809753,0.229662424804224
0.520991160109891,0.232189267851091
0.52116394016167,0.234698321258878
0.521314655297386,0.237189658973597
0.521443370849334,0.23966335494126
0.521550152149811,0.24211948310788
0.521635064531114,0.24455811741947
0.521698173325538,0.246979331822042
0.52173954386538,0.249383200261609
0.521759241482935,0.251769796684182
0.521757331510501,0.254139195035775
0.521733879280373,0.256491469262401
0.521688950124847,0.25882669331007
0.521622609376221,0.261144941124797
0.521534922366789,0.263446286652593
0.521425954428848,0.265730803839472
0.521295770894694,0.267998566631444
0.521144437096625,0.270249648974524
0.520972018366934,0.272484124814724
0.52077858003792,0.274702068098055
0.520564187441878,0.276903552770532
0.520328905911104,0.279088652778165
0.520072800777895,0.281257442066968
0.519795937374546,0.283409994582952
0.519498381033355,0.285546384272132
0.519180197086617,0.287666685080518
0.518841450866628,0.289770970954124
0.518482207705685,0.291859315838962
0.518102532936083,0.293931793681045
0.51770249189012,0.295988478426384
0.517282149900091,0.298029444020994
0.516841572298292,0.300054764410885
0.51638082441702,0.302064513542071
0.51589997158857,0.304058765360564
0.51539907914524,0.306037593812376
0.514878212419325,0.308001072843521
0.514337436743122,0.30994927640001
0.513776817448926,0.311882278427856
0.513196419869034,0.313800152873072
0.512596309335742,0.31570297368167
0.511976551181347,0.317590814799662
0.511337210738144,0.319463750173062
0.51067835333843,0.321321853747881
0.5100000443145,0.323165199470133
0.509302348998652,0.324993861285828
0.508585332723181,0.326807913140981
0.507849060820384,0.328607428981604
0.507093598622556,0.330392482753708
0.506319011461994,0.332163148403308
0.505525364670995,0.333919499876414
0.504712723581854,0.33566161111904
0.503881153526867,0.337389556077198
0.503030719838331,0.3391034086969
0.502161487848543,0.34080324292416
0.501273522889797,0.342489132704989
0.500366890294391,0.344161151985401
0.499441655394621,0.345819374711407
0.498497883522782,0.34746387482902
0.497535640011172,0.349094726284252
0.496554990192085,0.350712003023117
0.495555999397819,0.352315778991626
0.49453873296067,0.353906128135793
0.493503256212934,0.355483124401629
0.492449634486906,0.357046841735147
0.491377933114884,0.35859735408236
0.490288217429164,0.36013473538928
0.489180552762041,0.36165905960192
0.488055004445812,0.363170400666291
0.486911637812773,0.364668832528408
0.48575051819522,0.366154429134281
0.48457171092545,0.367627264429924
0.483375281335759,0.369087412361349
0.482161294758443,0.370534946874569
0.480929816525798,0.371969941915596
0.47968091197012,0.373392471430443
0.478414646423705,0.374802609365121
0.477131085218851,0.376200429665644
0.475830293687852,0.377586006278025
0.474512337163006,0.378959413148275
0.473177280976608,0.380320724222407
0.471825190460955,0.381670013446434
0.470456130948342,0.383007354766368
0.469070167771067,0.384332822128221
0.467667366261424,0.385646489478007
0.466247791751711,0.386948430761737
0.464811509574224,0.388238719925425
0.463358585061259,0.389517430915082
0.461889083545111,0.390784637676721
0.460403070358078,0.392040414156355
0.458900610832456,0.393284834299996
0.45738177030054,0.394517972053657
0.455846614094627,0.395739901363349
0.454295207547012,0.396950696175087
0.452727615989994,0.398150430434881
0.451143904755867,0.399339178088746
0.449544139176927,0.400517013082692
0.447928384585472,0.401684009362733
0.446296706313796,0.402840240874881
0.444649169694197,0.403985781565149
0.44298584005897,0.405120705379549
0.441306782740413,0.406245086264094
0.43961206307082,0.407358998164796
0.437901746382488,0.408462515027667
0.436175898007714,0.409555710798721
0.434434583278793,0.410638659423969
0.432677867528022,0.411711434849425
0.430905816087697,0.4127741110211
0.429118494290114,0.413826761885007
0.42731596746757,0.414869461387159
0.42549830095236,0.415902283473568
0.423665560076781,0.416925302090247
0.421817810173129,0.417938591183208
0.4199551165737,0.418942224698464
0.418077544610791,0.419936276582026
0.416185159616698,0.420920820779909
0.414278026923716,0.421895931238124
0.412356211864142,0.422861681902683
0.410419779770273,0.423818146719599
0.408468795974404,0.424765399634886
0.406503325808832,0.425703514594554
0.404523434605852,0.426632565544617
0.402529187697762,0.427552626431087
0.400520650416857,0.428463771199977
0.398497888095434,0.4293660737973
0.396460966065788,0.430259608169066
0.394409949660216,0.43114444826129
0.392344904211015,0.432020668019984
0.39026589505048,0.43288834139116
0.388172987510907,0.43374754232083
0.386066246924593,0.434598344755008
0.383945738623834,0.435440822639706
0.381811527940926,0.436275049920935
0.379663680208166,0.43710110054471
0.377502260757849,0.437919048457041
0.375327334922272,0.438728967603942
0.373138968033731,0.439530931931426
0.370937225424522,0.440325015385504
0.368722172426942,0.441111291912189
0.366493874373286,0.441889835457494
0.364252396595851,0.442660719967432
0.361997804426933,0.443424019388013
0.359730163198829,0.444179807665253
0.357449538243834,0.444928158745162
0.355155994894244,0.445669146573753
0.352849598482356,0.446402845097038
0.350530414340467,0.447129328261031
0.348198507800872,0.447848670011744
0.345853944195867,0.448560944295189
0.343496788857749,0.449266225057379
0.341127107118814,0.449964586244326
0.338744964311358,0.450656101802042
0.336350425767677,0.451340845676541
0.333943556820068,0.452018891813834
0.331524422800827,0.452690314159935
0.329093089042249,0.453355186660856
0.326649620876632,0.454013583262608
0.324194083636271,0.454665577911206
0.321726542653462,0.45531124455266
0.319247063260503,0.455950657132985
0.316755710789688,0.456583889598191
0.314252550573315,0.457211015894293
0.311737647943679,0.457832109967301
0.309211068233076,0.45844724576323
0.306672876773804,0.45905649722809
0.304123138898157,0.459659938307895
0.301561919938433,0.460257642948658
0.298989285226927,0.46084968509639
0.296405300095936,0.461436138697105
0.293810029877755,0.462017077696814
0.291203539904682,0.46259257604153
0.288585895509012,0.463162707677267
0.285957162023041,0.463727546550035
0.283317404779066,0.464287166605848
0.280666689109383,0.464841641790719
0.278005080346288,0.465391046050659
0.275332643822078,0.465935453331681
0.272649444869048,0.466474937579799
0.269955548819494,0.467009572741023
0.267251021005714,0.467539432761367
0.264535926760002,0.468064591586844
0.261810331414656,0.468585123163465
0.259074300301972,0.469101101437243
0.256327898754245,0.469612600354192
0.253571192103773,0.470119693860322
0.25080424568285,0.470622455901648
0.248027124823774,0.47112096042418
0.24523989485884,0.471615281373932
0.242442621120345,0.472105492696917
0.239635368940586,0.472591668339146
0.236818203651857,0.473073882246633
0.233991190586456,0.473552208365389
0.231154395076678,0.474026720641428
0.22830788245482,0.474497493020761
0.225451718053179,0.474964599449402
0.222585967204049,0.475428113873362
0.219710695239728,0.475888110238655
0.216825967492512,0.476344662491292
0.213931849294697,0.476797844577287
0.211028405978578,0.477247730442652
0.208115702876453,0.477694394033399
0.205193805320617,0.47813790929554
0.202262778643368,0.478578350175089
0.199322688176999,0.479015790618058
0.19637359925381,0.479450304570459
0.193415577206094,0.479881965978304
0.190448687366149,0.480310848787607
0.187472995066271,0.48073702694438
0.184488565638755,0.481160574394635
0.181495464415899,0.481581565084385
0.178493756729998,0.482000072959643
0.175483507913349,0.48241617196642
0.172464783298247,0.482829936050729
0.16943764821699,0.483241439158583
0.166402168001872,0.483650755235994
0.163358407985191,0.484057958228975
0.160306433499243,0.484463122083539
0.157246309876323,0.484866320745697
0.154178102448729,0.485267628161463
0.151101876548756,0.485667118276848
0.1480176975087,0.486064865037866
0.144925630660857,0.486460942390528
0.141825741337525,0.486855424280848
0.138718094870999,0.487248384654838
0.135602756593575,0.487639897458509
0.132479791837549,0.488030036637876
0.129349265935218,0.48841887613895
0.126211244218878,0.488806489907744
0.123065792020825,0.48919295189027
0.119912974673355,0.489578336032541
0.116752857508765,0.48996271628057
0.113585505859351,0.490346166580368
0.110410985057408,0.490728760877948
0.107229360435234,0.491110573119323
0.104040697325124,0.491491677250506
0.100845061059374,0.491872147217508
0.0976425169702812,0.492252056966343
0.0944331303901412,0.492631480443023
0.0912169666512507,0.493010491593559
0.0879940910859053,0.493389164363966
0.0847645690264016,0.493767572700255
0.0815284658050356,0.494145790548439
0.0782858467541038,0.49452389185453
0.075036777205902,0.494901950564541
0.0717813224927267,0.495280040624485
0.0685195479468739,0.495658235980373
0.0652515189006401,0.496036610578218
0.0619773006863212,0.496415238364034
0.0586969586362136,0.496794193283831
0.0554105580826134,0.497173549283624
0.0521181643578169,0.497553380309424
0.0488198427941202,0.497933760307244
0.0455156587238197,0.498314763223096
0.0422056774792113,0.498696463002993
0.0388899643925916,0.499078933592947
0.0355685847962563,0.499462248938971
0.0322416040225022,0.499846482987078
0.0289090874036249,0.500231709683279
0.0255711002719212,0.500618002973588
0.0222277079596868,0.501005436804016
0.0188789757992183,0.501394085120577
0.0155249691228116,0.501784021869283
0.0121657532627632,0.502175320996146
0.00880139355136897,0.502568056447179
0.00543195532092544,0.502962302168394
0.00205750390372855,0.503358132105804
-0.00132189536792525,0.503755620205422
-0.00470617716173996,0.504154840413259
-0.00809527614541922,0.504555866675329
-0.0114891269866669,0.504958772937644
-0.0148876643531868,0.505363633146216
-0.0182908229126827,0.505770521247058
-0.0216985373328583,0.506179511186182
-0.0251107422814176,0.506590676909601
-0.0285273724260641,0.507004092363327
-0.031948362434502,0.507419831493374
-0.0353736469744346,0.507837968245752
-0.0388031607135662,0.508258576566476
-0.0422368383196001,0.508681730401557
-0.0456746144602405,0.509107503697008
-0.0491164238031908,0.509535970398841
-0.0525622010161553,0.509967204453069
-0.0560118807668373,0.510401279805705
-0.059465397722941,0.51083827040276
-0.0629226865521698,0.511278250190248
-0.0663836819222278,0.51172129311418
-0.0698483185008186,0.512167473120571
-0.0733165309556462,0.512616864155431
-0.0767882539544141,0.513069540164773
-0.0802634221648264,0.51352557509461
-0.0837419702545866,0.513985042890955
-0.0872238328913988,0.514448017499819
-0.0907089447429665,0.514914572867216
-0.0941972404769937,0.515384782939158
-0.0976886547611841,0.515858721661657
-0.101183122263242,0.516336462980726
-0.10468057765087,0.516818080842377
-0.108180955591773,0.517303649192624
-0.111684190753654,0.517793241977478
-0.115190217804217,0.518286933142951
-0.118698971411166,0.518784796635057
-0.122210386242206,0.519286906399808
-0.125724396965038,0.519793336383217
-0.129240938247368,0.520304160531295
-0.1327599447569,0.520819452790056
-0.136281351161336,0.521339287105511
-0.139805092128381,0.521863737423674
-0.143331102325738,0.522392877690557
-0.146859316421112,0.522926781852173
-0.150389669082206,0.523465523854533
-0.153922094976723,0.524009177643651
-0.157456528772369,0.524557817165538
-0.160992905136845,0.525111516366208
-0.164531158737858,0.525670349191673
-0.168071224243109,0.526234389587946
-0.171613036320303,0.526803711501038
-0.175156529637144,0.527378388876963
-0.178701638861335,0.527958495661732
-0.18224829866058,0.52854410580136
-0.185796443702584,0.529135293241856
-0.189346008655049,0.529732131929236
-0.19289692818568,0.53033469580951
-0.19644913696218,0.530943058828692
-0.200002569652254,0.531557294932794
-0.203557160923604,0.532177478067828
-0.207112845443936,0.532803682179807
-0.210669557880952,0.533435981214744
-0.214227232902356,0.53407444911865
-0.217785805175852,0.534719159837539
-0.221345209369145,0.535370187317423
-0.224905380149937,0.536027605504314
-0.228466252185933,0.536691488344226
-0.232027760144836,0.537361909783169
-0.23558983869435,0.538038943767158
-0.239152422502179,0.538722664242204
-0.242715446236027,0.53941314515432
-0.246278844563597,0.540110460449518
-0.249842552152594,0.540814684073812
-0.25340650367072,0.541525889973212
-0.256970633785681,0.542244152093733
-0.260534877165179,0.542969544381387
-0.264099168476919,0.543702140782185
-0.267663442388604,0.544442015242141
-0.271227633567938,0.545189241707266
-0.274791676682625,0.545943894123574
-0.278355506400369,0.546706046437078
-0.281919057388873,0.547475772593788
-0.285482264315841,0.548253146539718
-0.289045061848977,0.549038242220881
-0.292607384655985,0.549831133583289
-0.296169167404569,0.550631894572955
-0.299730344762432,0.55144059913589
-0.303290851397278,0.552257321218108
-0.306850621976811,0.553082134765621
-0.310409591168735,0.553915113724441
-0.313967693640754,0.554756332040581
-0.317524864060571,0.555605863660054
-0.32108103709589,0.556463782528872
-0.324636147414415,0.557330162593047
-0.32819012968385,0.558205077798592
-0.331742918571898,0.55908860209152
-0.335294448746263,0.559980809417842
-0.335294448746263,0.559980809417842
-0.338823249368014,0.560852077929583
-0.342307958970334,0.561672879861266
-0.345748676279107,0.562443430282658
-0.349145500020213,0.563163944263523
-0.352498528919534,0.563834636873629
-0.355807861702952,0.564455723182738
-0.359073597096348,0.565027418260618
-0.362295833825604,0.565549937177035
-0.365474670616601,0.566023495001753
-0.36861020619522,0.566448306804537
-0.371702539287344,0.566824587655154
-0.374751768618854,0.567152552623369
-0.377757992915631,0.567432416778948
-0.380721310903557,0.567664395191655
-0.383641821308514,0.567848702931257
-0.386519622856383,0.567985555067519
-0.389354814273045,0.568075166670207
-0.392147494284382,0.568117752809085
-0.394897761616276,0.568113528553921
-0.397605714994608,0.568062708974478
-0.40027145314526,0.567965509140523
-0.402895074794113,0.567822144121821
-0.405476678667048,0.567632828988137
-0.408016363489949,0.567397778809238
-0.410514227988695,0.567117208654889
-0.412970370889168,0.566791333594854
-0.41538489091725,0.5664203686989
-0.417757886798823,0.566004529036793
-0.420089457259768,0.565544029678297
-0.422379701025967,0.565039085693178
-0.4246287168233,0.564489912151202
-0.42683660337765,0.563896724122134
-0.429003459414899,0.56325973667574
-0.431129383660927,0.562579164881785
-0.433214474841617,0.561855223810035
-0.435258831682849,0.561088128530255
-0.437262552910506,0.560278094112211
-0.439225737250468,0.559425335625668
-0.441148483428618,0.558530068140393
-0.443030890170837,0.557592506726149
-0.444873056203007,0.556612866452704
-0.446675080251008,0.555591362389821
-0.448437061040724,0.554528209607267
-0.450159097298034,0.553423623174809
-0.451841287748821,0.552277818162209
-0.453483731118966,0.551091009639236
-0.455086526134351,0.549863412675653
-0.456649771520858,0.548595242341226
-0.458173566004367,0.547286713705722
-0.459658008310761,0.545938041838905
-0.46110319716592,0.544549441810541
-0.462509231295727,0.543121128690395
-0.463876209426063,0.541653317548234
-0.46520423028281,0.540146223453821
-0.466493392591848,0.538600061476924
-0.467743795079061,0.537015046687308
-0.468955536470329,0.535391394154737
-0.470128715491533,0.533729318948978
-0.471263430868555,0.532029036139797
-0.472359781327277,0.530290760796957
-0.473417865593581,0.528514707990226
-0.474437782393347,0.526701092789369
-0.475419630452458,0.52485013026415
-0.476363508496795,0.522962035484336
-0.47726951525224,0.521037023519693
-0.478137749444673,0.519075309439985
-0.478968309799977,0.517077108314978
-0.479761295044033,0.515042635214438
-0.480516803902723,0.51297210520813
-0.481234935101928,0.51086573336582
-0.48191578736753,0.508723734757272
-0.48255945942541,0.506546324452254
-0.48316605000145,0.50433371752053
-0.483735657821531,0.502086129031866
-0.484268381611535,0.499803774056027
-0.484764320097344,0.497486867662779
-0.485223572004839,0.495135624921887
-0.485646236059901,0.492750260903117
-0.486032410988412,0.490330990676234
-0.486382195516254,0.487878029311004
-0.486695688369308,0.485391591877193
-0.486972988273455,0.482871893444565
-0.487214193954578,0.480319149082886
-0.487419404138558,0.477733573861923
-0.487588717551276,0.47511538285144
-0.487722232918614,0.472464791121203
-0.487820048966453,0.469782013740977
-0.487882264420675,0.467067265780529
-0.487908978007162,0.464320762309622
-0.487900288451794,0.461542718398024
-0.487856294480455,0.458733349115499
-0.487777094819024,0.455892869531813
-0.487662788193384,0.453021494716732
-0.487513473329416,0.45011943974002
-0.487329248953002,0.447186919671444
-0.487110213790023,0.44422414958077
-0.486856466566361,0.441231344537762
-0.486568106007898,0.438208719612185
-0.486245230840514,0.435156489873807
-0.485887939790091,0.432074870392391
-0.485496331582512,0.428964076237704
-0.485070504943657,0.425824322479512
-0.484610558599408,0.422655824187578
-0.484116591275647,0.41945879643167
-0.483588701698255,0.416233454281553
-0.483026988593114,0.412980012806992
-0.482431550686104,0.409698687077752
-0.481802486703109,0.4063896921636
-0.481139895370009,0.403053243134301
-0.480443875412685,0.399689555059619
-0.47971452555702,0.396298843009321
-0.478951944528895,0.392881322053173
-0.478156231054192,0.389437207260939
-0.477327483858791,0.385966713702386
-0.476465801668575,0.382470056447278
-0.475571283209425,0.378947450565382
-0.474644027207223,0.375399111126463
-0.473684132387849,0.371825253200286
-0.472691697477187,0.368226091856616
-0.471666821201117,0.36460184216522
-0.47060960228552,0.360952719195863
-0.469520139456279,0.35727893801831
-0.468398531439275,0.353580713702327
-0.467244876960389,0.34985826131768
-0.466059274745503,0.346111795934134
-0.464841823520499,0.342341532621453
-0.463592622011257,0.338547686449405
-0.46231176894366,0.334730472487754
-0.46099936304359,0.330890105806267
-0.459655503036926,0.327026801474707
-0.458280287649552,0.323140774562842
-0.456873815607349,0.319232240140436
-0.455436185636198,0.315301413277255
-0.453967496461981,0.311348509043065
-0.452467846810579,0.307373742507631
-0.450937335407875,0.303377328740718
-0.449376060979748,0.299359482812092
-0.447784122252082,0.295320419791519
-0.446161617950757,0.291260354748764
-0.444508646801655,0.287179502753593
-0.442825307530658,0.283078078875771
-0.441111698863646,0.278956298185063
-0.439367919526503,0.274814375751235
-0.437594068245109,0.270652526644054
-0.435790243745345,0.266470965933283
-0.433956544753094,0.262269908688689
-0.432093069994237,0.258049569980037
-0.430199918194655,0.253810164877093
-0.42827718808023,0.249551908449622
-0.426324978376843,0.24527501576739
-0.424343387810376,0.240979701900162
-0.422332515106711,0.236666181917704
-0.420292458991729,0.232334670889781
-0.418223318191312,0.227985383886159
-0.416125191431341,0.223618535976603
-0.413998177437697,0.219234342230879
-0.411842374936263,0.214833017718752
-0.40965788265292,0.210414777509988
-0.407444799313548,0.205979836674352
-0.405203223644031,0.201528410281611
-0.40293325437025,0.197060713401528
-0.400634990218085,0.192576961103871
-0.398308529913418,0.188077368458404
-0.395953972182132,0.183562150534893
-0.393571415750107,0.179031522403103
-0.391160959343225,0.1744856991328
-0.388722701687368,0.16992489579375
-0.386256741508418,0.165349327455717
-0.383763177532255,0.160759209188468
-0.381242108484761,0.156154756061768
-0.378693633091818,0.151536183145383
-0.376117850079307,0.146903705509077
-0.37351485817311,0.142257538222617
-0.370884756099109,0.137597896355768
-0.368227642583185,0.132924994978296
-0.365543616351219,0.128239049159966
-0.362832776129093,0.123540273970543
-0.360095220642689,0.118828884479793
-0.357331048617888,0.114105095757482
-0.354540358780572,0.109369122873375
-0.351723249856622,0.104621180897238
-0.348879820571919,0.0998614848988357
-0.346010169652346,0.0950902499479341
-0.343114395823784,0.0903076911142987
-0.340192597812115,0.085514023467695
-0.337244874343219,0.0807094620778885
-0.334271324142978,0.0758942220146445
-0.429363135324374,0.171398004137666
-0.42545544509088,-0.0460260163643078
-0.325196700413005,0.0613865804819444
-0.208336079607508,0.168038287932711
-0.319019627577462,0.0516653690386588
-0.415065914749225,-0.0605669166594912
-0.312741617237698,0.0419066045759963
-0.40832234646864,-0.0820246708566194
-0.397422589388539,0.149318379709292
-0.209599380552243,-0.0757142763123958
-0.299885943273716,0.0222832988250369
-0.394307346603245,-0.0889424162862227
-0.293309859263602,0.0124221986529883
-0.2899851010421,0.00748003948700096
-0.176586089995117,0.0946130351434309
-0.375593036520246,-0.112029157867316
-0.387659074408321,-0.118147976295933
-0.373281625433082,-0.128961515066825
-0.272998096805399,-0.0173382443519441
-0.168910323835977,-0.124647774379241
-0.171835953186824,0.0846303735825236
-0.144365704375801,-0.131821196866674
-0.372646900290096,-0.146476567730807
-0.148051025019124,-0.153053600045966
-0.251827654653502,-0.0473282693694503
-0.351602733297024,-0.163000515436323
-0.352543753932198,-0.173459246495123
-0.345833592614406,-0.154976428644164
-0.137734902558561,0.0362855762050505
-0.340495668254546,-0.191143495841309
-0.137421070809277,-0.184351997373724
-0.226071979260513,-0.0825448221072265
-0.222301532145447,-0.0875918042554485
-0.218508614979009,-0.0926421527050808
-0.214693326487081,-0.0976956523863571
-0.210855765395543,-0.102752088229512
-0.206996030430278,-0.107811245164781
-0.203114220317167,-0.112872908122398
-0.199210433782092,-0.117936862032596
-0.195284769550934,-0.123002891825612
-0.191337326349574,-0.128070782431679
-0.187368202903895,-0.133140318781031
-0.183377497939777,-0.138211285803904
-0.179365310183102,-0.143283468430532
-0.175331738359753,-0.148356651591148
-0.171276881195609,-0.153430620215989
-0.167200837416554,-0.158505159235288
-0.163103705748468,-0.163580053579279
-0.158985584917233,-0.168655088178198
-0.15484657364873,-0.173730047962278
-0.150686770668842,-0.178804717861754
-0.146506274703449,-0.183878882806862
-0.142305184478433,-0.188952327727834
-0.138083598719676,-0.194024837554906
-0.133841616153059,-0.199096197218312
-0.129579335504463,-0.204166191648286
-0.125296855499771,-0.209234605775064
-0.120994274864864,-0.214301224528879
-0.116671692325624,-0.219365832839966
-0.112329206607931,-0.22442821563856
-0.107966916437667,-0.229488157854895
-0.103584920540715,-0.234545444419205
-0.0991833176429552,-0.239599860261725
-0.0947622064702693,-0.24465119031269
-0.0903216857485392,-0.249699219502334
-0.0858618542036461,-0.254743732760891
-0.0813828105614719,-0.259784515018596
-0.0768846535478977,-0.264821351205684
-0.0723674818888054,-0.269854026252388
-0.0678313943100764,-0.274882325088944
-0.0632764895375923,-0.279906032645586
-0.0587028662972345,-0.284924933852549
-0.0541106233148848,-0.289938813640066
-0.0494998593164244,-0.294947456938372
-0.0448706730277352,-0.299950648677702
-0.0402231631746983,-0.304948173788291
-0.0355574284831958,-0.309939817200373
-0.0308735676791087,-0.314925363844182
-0.026171679488319,-0.319904598649952
-0.0214518626367078,-0.324877306547919
-0.0167142158501571,-0.329843272468317
-0.011958837854548,-0.33480228134138
-0.0071858273757624,-0.339754118097342
-0.00239528313968151,-0.344698567666439
0.0024126961278127,-0.349635414978905
0.00723801170083921,-0.354564444964974
0.012080564853516,-0.35948544255488
0.0169402568599619,-0.364398192678859
0.0218169889942951,-0.369302480267144
0.0267106625306343,-0.374198090249971
0.0316211787430976,-0.379084807557573
0.036548438905804,-0.383962417120186
0.0414923442928713,-0.388830703868042
0.0464527961784187,-0.393689452731379
0.0514296958365639,-0.398538448640428
0.056422944541426,-0.403377476525426
0.0614324435671229,-0.408206321316606
0.0664580941877736,-0.413024767944204
0.0714997976774962,-0.417832601338453
0.0765574553104094,-0.422629606429588
0.0816309683606311,-0.427415568147843
0.0867202381022807,-0.432190271423454
0.0918251658094758,-0.436953501186654
0.0969456527563354,-0.441705042367678
0.102081600216978,-0.44644467989676
0.107232909465521,-0.451172198704135
0.112399481776084,-0.455887383720038
0.117581218422786,-0.460590019874703
0.122778020679743,-0.465279892098364
0.127989789821077,-0.469956785321256
0.133216427120903,-0.474620484473614
0.138457833853341,-0.479270774485671
0.14371391129251,-0.483907440287663
0.148984560712528,-0.488530266809823
0.154269683387513,-0.493139038982387
0.159569180591584,-0.497733541735589
0.164882953598859,-0.502313559999663
0.170210903683457,-0.506878878704844
0.175552932119496,-0.511429282781366
0.180908940181095,-0.515964557159464
0.186278829142372,-0.520484486769372
0.191662500277445,-0.524988856541325
0.197059854860434,-0.529477451405557
0.202470794165456,-0.533950056292303
0.20789521946663,-0.538406456131797
0.213333032038074,-0.542846435854274
0.218784133153907,-0.547269780389968
0.224248424088248,-0.551676274669114
0.229725806115214,-0.556065703621946
0.235216180508925,-0.560437852178698
0.240719448543498,-0.564792505269606
0.246235511493052,-0.569129447824904
0.251764270631706,-0.573448464774825
0.257305627233578,-0.577749341049605
0.262859482572787,-0.582031861579478
0.268425737923451,-0.586295811294679
0.274004294559688,-0.590540975125441
0.279595053755617,-0.594767138002001
0.285197916785356,-0.598974084854591
0.290812784923024,-0.603161600613447
0.29643955944274,-0.607329470208802
0.302078141618621,-0.611477478570893
0.307728432724786,-0.615605410629952
0.313390334035354,-0.619713051316215
0.319063746824444,-0.623800185559916
0.324748572366173,-0.627866598291289
0.330444711934659,-0.631912074440569
0.336152066804023,-0.635936398937991
0.341870538248381,-0.639939356713788
0.347600027541853,-0.643920732698196
0.353340435958557,-0.647880311821449
0.359091664772611,-0.651817879013781
0.364853615258133,-0.655733219205427
0.370626188689244,-0.659626117326621
0.376409286340059,-0.663496358307598
0.3822028094847,-0.667343727078593
0.388006659397282,-0.671168008569839
0.393820737351926,-0.674968987711572
0.399644944622749,-0.678746449434025
0.405479182483871,-0.682500178667434
0.411323352209408,-0.686229960342032
0.417177355073481,-0.689935579388055
0.423041092350207,-0.693616820735736
0.428914465313705,-0.697273469315311
0.434797375238094,-0.700905310057013
0.440689723397491,-0.704512127891078
0.446591411066015,-0.708093707747739
0.452502339517785,-0.711649834557231
0.458422410026919,-0.715180293249789
0.464351523867536,-0.718684868755648
0.470289582313754,-0.72216334600504
0.476236486639692,-0.725615509928202
0.482192138119467,-0.729041145455368
0.488156438027199,-0.732440037516771
0.494129287637005,-0.735811971042648
0.500110588223006,-0.739156730963231
0.506100241059318,-0.742474102208756
0.51209814742006,-0.745763869709456
0.518104208579351,-0.749025818395568
0.524118325811309,-0.752259733197324
0.530140400390053,-0.75546539904496
0.536170333589701,-0.75864260086871
0.542208026684372,-0.761791123598808
0.548253380948183,-0.76491075216549
0.554306297655254,-0.768001271498988
0.560366678079703,-0.771062466529539
0.566434423495649,-0.774094122187376
0.57250943517721,-0.777096023402734
0.578591614398503,-0.780067955105848
0.584680862433649,-0.783009702226951
0.590777080556765,-0.785921049696279
0.596880170041969,-0.788801782444066
0.602990032163381,-0.791651685400545
0.609106568195118,-0.794470543495953
0.615229679411299,-0.797258141660523
0.621359267086043,-0.80001426482449
0.627495232493468,-0.802738697918088
0.633637476907693,-0.805431225871552
0.639785901602835,-0.808091633615117
0.645940407853014,-0.810719706079016
0.652100896932348,-0.813315228193484
0.658267270114955,-0.815877984888756
0.664439428674953,-0.818407761095066
0.670617273886463,-0.820904341742649
0.6768007070236,-0.823367511761739
0.682989629360485,-0.825797056082571
0.689183942171235,-0.828192759635379
0.69538354672997,-0.830554407350398
0.701588344310807,-0.832881784157862
0.707798236187865,-0.835174674988005
0.714013123635262,-0.837432864771063
0.720232907927118,-0.839656138437269
