0.165174497507038,-0.256589549403805
0.165368026649054,-0.258319184377028
0.165532767866819,-0.259986977112669
0.165668846049334,-0.261593304356146
0.165776386085599,-0.263138542852875
0.165855512864616,-0.264623069348272
0.165906351275385,-0.266047260587755
0.165929026206906,-0.267411493316738
0.165923662548182,-0.268716144280639
0.165890385188211,-0.269961590224874
0.165829319015995,-0.27114820789486
0.165740588920536,-0.272276374036013
0.165624319790832,-0.273346465393749
0.165480636515886,-0.274358858713485
0.165309663984698,-0.275313930740637
0.165111527086268,-0.276212058220622
0.164886350709598,-0.277053617898857
0.164634259743689,-0.277838986520757
0.16435537907754,-0.278568540831739
0.164049833600152,-0.279242657577219
0.163717748200528,-0.279861713502615
0.163359247767666,-0.280426085353342
0.162974457190568,-0.280936149874816
0.162563501358235,-0.281392283812455
0.162126505159667,-0.281794863911675
0.161663593483865,-0.282144266917892
0.16117489121983,-0.282440869576522
0.160660523256563,-0.282685048632982
0.160120614483064,-0.282877180832689
0.159555289788334,-0.283017642921059
0.158964674061374,-0.283106811643508
0.158348892191184,-0.283145063745453
0.157708069066766,-0.28313277597231
0.15704232957712,-0.283070325069496
0.156351798611246,-0.282958087782426
0.155636601058146,-0.282796440856519
0.15489686180682,-0.282585761037189
0.154132705746269,-0.282326425069854
0.153344257765494,-0.282018809699929
0.152531642753495,-0.281663291672832
0.151694985599274,-0.281260247733979
0.15083441119183,-0.280810054628786
0.149950044420166,-0.280313089102669
0.14904201017328,-0.279769727901045
0.148110433340175,-0.279180347769331
0.14715543880985,-0.278545325452943
0.146177151471308,-0.277865037697297
0.145175696213547,-0.27713986124781
0.14415119792557,-0.276370172849898
0.143103781496376,-0.275556349248978
0.142033571814968,-0.274698767190466
0.140940693770344,-0.273797803419778
0.139825272251507,-0.272853834682332
0.138687432147456,-0.271867237723543
0.137527298347193,-0.270838389288827
0.136344995739718,-0.269767666123602
0.135140649214032,-0.268655444973284
0.133914383659136,-0.267502102583289
0.132666323964031,-0.266308015699034
0.131396595017716,-0.265073561065934
0.130105321709194,-0.263799115429408
0.128792628927464,-0.26248505553487
0.127458641561528,-0.261131758127737
0.126103484500386,-0.259739599953427
0.12472728263304,-0.258308957757354
0.123330160848488,-0.256840208284936
0.121912244035733,-0.25533372828159
0.120473657083776,-0.253789894492731
0.119014524881616,-0.252209083663776
0.117534972318255,-0.250591672540141
0.116035124282693,-0.248938037867243
0.114515105663932,-0.247248556390499
0.112975041350971,-0.245523604855324
0.111415056232812,-0.243763560007136
0.109835275198455,-0.24196879859135
0.108235823136901,-0.240139697353383
0.106616824937151,-0.238276633038652
0.104978405488206,-0.236379982392573
0.103320689679066,-0.234450122160562
0.101643802398732,-0.232487429088036
0.0999478685362045,-0.230492279920412
0.0982330129804848,-0.228465051403105
0.0964993606205733,-0.226406120281532
0.0947470363454709,-0.224315863301109
0.0929761650441781,-0.222194657207254
0.0911868716056959,-0.220042878745383
0.0893792809190249,-0.217860904660911
0.0875535178731658,-0.215649111699255
0.0857097073571194,-0.213407876605833
0.0838479742598865,-0.211137576126059
0.0819684434704677,-0.208838587005351
0.0800712398778639,-0.206511285989125
0.0781564883710757,-0.204156049822798
0.0762243138391039,-0.201773255251786
0.0742748411709492,-0.199363279021505
0.0723081952556124,-0.196926497877372
0.0703245009820942,-0.194463288564804
0.0683238832393954,-0.191974027829216
0.0663064669165166,-0.189459092416025
0.0642723769024587,-0.186918859070648
0.0622217380862224,-0.184353704538501
0.0601546753568084,-0.181764005565
0.0580713136032174,-0.179150138895563
0.0559717777144502,-0.176512481275604
0.0538561925795075,-0.173851409450542
0.0517246830873902,-0.171167300165792
0.0495773741270988,-0.16846053016677
0.0474143905876341,-0.165731476198894
0.045235857357997,-0.162980515007579
0.0430418993271881,-0.160208023338242
0.0408326413842081,-0.1574143779363
0.0386082084180579,-0.154599955547168
0.0363687253177381,-0.151765132916264
0.0341143169722495,-0.148910286789003
0.0318451082705928,-0.146035793910803
0.0295612241017688,-0.143142031027079
0.0272627893547782,-0.140229374883249
0.0249499289186218,-0.137298202224728
0.0226227676823002,-0.134348889796933
0.0202814305348142,-0.13138181434528
0.0179260423651646,-0.128397352615186
0.0155567280623521,-0.125395881352067
0.0131736125153775,-0.122377777301341
0.0107768206132414,-0.119343417208422
0.00836647724494465,-0.116293177818727
0.005942707299488,-0.113227435877674
0.00350563566587209,-0.110146568130679
0.00105538723309775,-0.107050951323157
-0.00140791310983428,-0.103940962200525
-0.0038841404739233,-0.100816977508201
-0.00637316997016861,-0.097679373991599
-0.00887487670956939,-0.0945285283961371
-0.0113891358031249,-0.0913648174672313
-0.0139158223618345,-0.0881886179502981
-0.0164548114966973,-0.0850003065907538
-0.0190059783187127,-0.081800260134015
-0.0215691979388799,-0.078588855325498
-0.0241443454681981,-0.0753664689106193
-0.0267312960176667,-0.0721334776347952
-0.0293299246982849,-0.0688902582434424
-0.0319401066210519,-0.0656371874819772
-0.034561716896967,-0.062374642095816
-0.0371946306370295,-0.0591029988303753
-0.0398387229522386,-0.0558226344310714
-0.0424938689535936,-0.052533925643321
-0.0451599437520937,-0.0492372492125404
-0.0478368224587382,-0.045932981884146
-0.0505243801845265,-0.0426215004035542
-0.0532224920404576,-0.0393031815161815
-0.0559310331375308,-0.0359784019674445
-0.0586498785867457,-0.0326475385027595
-0.0613789034991011,-0.0293109678675427
-0.0641179829855966,-0.025969066807211
-0.0668669921572312,-0.0226222120671805
-0.0696258061250044,-0.0192707803928678
-0.0723942999999153,-0.0159151485296892
-0.0751723488929632,-0.0125556932230613
-0.0779598279151474,-0.00919279121840043
-0.0807566121774672,-0.00582681926112304
-0.0835625767909217,-0.00245815409664558
-0.0863775968665102,0.000912827529615481
-0.0892015475152321,0.00428574887224363
-0.0920343038480866,0.00766023318582262
-0.0948757409760728,0.011035903724936
-0.0977257340101902,0.0144123837441671
-0.100584158061438,0.0177892964980997
-0.103450888240815,0.0211662652413172
-0.106325799659322,0.0245429132284034
-0.109208767427956,0.0279188637139416
-0.112099666657718,0.0312937399525155
-0.114998372459606,0.0346671651987087
-0.11790475994462,0.0380387627071046
-0.12081870422376,0.0414081557322869
-0.123740080408024,0.0447749675288391
-0.126668763608411,0.0481388213513448
-0.129604628935922,0.0514993404543875
-0.132547551501555,0.0548561480925509
-0.135497406416309,0.0582088675204184
-0.138454068791184,0.0615571219925735
-0.141417413737179,0.0649005347636001
-0.144387316365293,0.0682387290880815
-0.147363651786526,0.0715713282206012
-0.150346295111877,0.0748979554157429
-0.153335121452345,0.0782182339280902
-0.156330005918928,0.0815317870122265
-0.159330823622628,0.0848382379227355
-0.162337449674442,0.0881372099142008
-0.165349759185371,0.0914283262412058
-0.168367627266412,0.0947112101583341
-0.171390929028567,0.0979854849201693
-0.174419539582833,0.101250773781295
-0.17745333404021,0.104506699996295
-0.180492187511698,0.107752886819752
-0.183535975108295,0.11098895750625
-0.186584571941001,0.114214535310374
-0.189637853120816,0.117429243486705
-0.192695693758738,0.120632705289828
-0.195757968965766,0.123824543974327
-0.198824553852901,0.127004382794784
-0.20189532353114,0.130171845005784
-0.204970153111485,0.133326553861911
-0.208048917704933,0.136468132617746
-0.211131492422483,0.139596204527875
-0.214217752375137,0.142710392846881
-0.217307572673891,0.145810320829347
-0.220400828429747,0.148895611729857
-0.223497394753702,0.151965888802994
-0.226597146756757,0.155020775303343
-0.22969995954991,0.158059894485486
-0.232805708244161,0.161082869604007
-0.235914267950509,0.164089323913489
-0.239025513779954,0.167078880668517
-0.242139320843494,0.170051163123674
-0.245255564252129,0.173005794533543
-0.248374119116858,0.175942398152708
-0.25149486054868,0.178860597235753
-0.254617663658595,0.18176001503726
-0.257742403557602,0.184640274811815
-0.2608689553567,0.187500999813999
-0.263997194166889,0.190341813298397
-0.267126995099167,0.193162338519592
-0.270258233264534,0.195962198732169
-0.273390783773989,0.198741017190709
-0.276524521738532,0.201498417149798
-0.279659322269161,0.204234021864018
-0.282795060476877,0.206947454587954
-0.285931611472678,0.209638338576187
-0.289068850367563,0.212306297083304
-0.292206652272532,0.214950953363886
-0.295344892298584,0.217571930672517
-0.298483445556718,0.220168852263781
-0.301622187157934,0.222741341392262
-0.30476099221323,0.225289021312543
-0.307899735833607,0.227811515279207
-0.311038293130063,0.230308446546838
-0.314176539213598,0.232779438370021
-0.31731434919521,0.235224114003337
-0.3204515981859,0.237642096701371
-0.323588161296665,0.240033009718707
-0.326723913638507,0.242396476309928
-0.329858730322423,0.244732119729617
-0.332992486459414,0.247039563232358
-0.336125057160478,0.249318430072735
-0.339256317536614,0.251568343505331
-0.342386142698823,0.25378892678473
-0.345514407758102,0.255979803165515
-0.348640987825452,0.25814059590227
-0.351765758011872,0.260270928249579
-0.354888593428361,0.262370423462024
-0.358009369185918,0.26443870479419
-0.361127960395543,0.26647539550066
-0.364244242168234,0.268480118836018
-0.367358089614991,0.270452498054847
-0.370469377846814,0.272392156411731
-0.373577981974701,0.274298717161254
-0.376683777109652,0.276171803557998
-0.379786638362665,0.278011038856548
-0.382886440844742,0.279816046311487
-0.385983059666879,0.281586449177398
-0.389076369940078,0.283321870708866
-0.392166246775337,0.285021934160473
-0.395252565283655,0.286686262786804
-0.398335200576031,0.288314479842442
-0.401414027763466,0.28990620858197
-0.404488921956957,0.291461072259972
-0.407559758267506,0.292978694131031
-0.410626411806109,0.294458697449732
-0.413688757683768,0.295900705470657
-0.416746671011481,0.297304341448391
-0.419800026900247,0.298669228637516
-0.422848700461066,0.299994990292617
-0.425892566804937,0.301281249668276
-0.428931501042859,0.302527630019078
-0.431965378285831,0.303733754599606
-0.434994073644854,0.304899246664444
-0.438017462230925,0.306023729468175
-0.441035419155044,0.307106826265383
-0.444047819528211,0.308148160310651
-0.447054538461425,0.309147354858562
-0.450055451065685,0.310104033163702
-0.45305043245199,0.311017818480652
-0.45603935773134,0.311888334063996
-0.459022102014734,0.312715203168319
-0.46199854041317,0.313498049048204
-0.464968548037649,0.314236494958233
-0.46793199999917,0.314930164152991
-0.470888771408731,0.315578679887062
-0.473838737377333,0.316181665415029
-0.476781773015974,0.316738743991475
-0.479717753435653,0.317249538870984
-0.482646553747371,0.31771367330814
-0.485568049062125,0.318130770557525
-0.488482114490916,0.318500453873725
-0.491388625144743,0.318822346511322
-0.494287456134605,0.319096071724899
-0.497178482571501,0.319321252769041
-0.50006157956643,0.319497512898331
-0.502936622230392,0.319624475367353
-0.505803485674386,0.319701763430689
-0.508662045009412,0.319729000342924
-0.511512175346467,0.319705809358642
-0.514353751796553,0.319631813732425
-0.517186649470668,0.319506636718857
-0.52001074347981,0.319329901572522
-0.522825908934981,0.319101231548004
-0.525632020947178,0.318820249899886
-0.528428954627401,0.318486579882751
-0.53121658508665,0.318099844751184
-0.533994787435923,0.317659667759767
-0.53676343678622,0.317165672163084
-0.539522408248541,0.316617481215719
-0.542271576933883,0.316014718172255
-0.545010817953247,0.315357006287277
-0.547740006417632,0.314643968815367
-0.550459017438038,0.313875229011109
-0.553167726125462,0.313050410129086
-0.555866007590906,0.312169135423883
-0.558553736945367,0.311231028150083
-0.561230789299845,0.310235711562268
-0.56389703976534,0.309182808915024
-0.566552363452851,0.308071943462933
-0.569196635473377,0.306902738460579
-0.571829730937916,0.305674817162546
-0.57445152495747,0.304387802823416
-0.577061892643036,0.303041318697774
-0.579660709105614,0.301634988040204
-0.582247849456203,0.300168434105288
-0.584823188805803,0.298641280147611
-0.587386602265413,0.297053149421755
-0.589937964946031,0.295403665182305
-0.592477151958658,0.293692450683845
-0.595004038414293,0.291919129180956
-0.597518499423934,0.290083323928224
-0.600020410098582,0.288184658180231
-0.602509645549235,0.286222755191562
-0.604986080886893,0.2841972382168
-0.607449591222554,0.282107730510528
-0.609900051667219,0.27995385532733
-0.612337337331885,0.277735235921789
-0.614761323327554,0.27545149554849
-0.617171884765224,0.273102257462015
-0.619568896755893,0.270687144916949
-0.621952234410563,0.268205781167874
-0.62432177284023,0.265657789469374
-0.626677387155896,0.263042793076034
-0.629018952468559,0.260360415242435
-0.631346343889219,0.257610279223163
-0.633659436528874,0.254792008272801
-0.635958105498524,0.251905225645931
-0.638242225909169,0.248949554597138
-0.640511672871807,0.245924618381006
-0.642766321497438,0.242830040252117
-0.645006046897061,0.239665443465056
-0.647230724181675,0.236430451274405
-0.64944022846228,0.23312468693475
-0.651634434849875,0.229747773700672
-0.653813218455458,0.226299334826756
-0.65597645439003,0.222778993567584
-0.65812401776459,0.219186373177742
-0.660255783690136,0.215521096911812
-0.662371627277669,0.211782788024378
-0.664471423638187,0.207971069770023
-0.66655504788269,0.204085565403332
-0.668622375122176,0.200125898178886
-0.670673280467646,0.196091691351271
-0.672707639030098,0.19198256817507
-0.674725325920532,0.187798151904866
-0.676726216249947,0.183538065795242
-0.678710185129342,0.179201933100784
-0.680677107669717,0.174789377076072
-0.68262685898207,0.170300020975693
-0.684559314177401,0.165733488054228
-0.68647434836671,0.161089401566262
-0.688371836660995,0.156367384766378
-0.690251654171256,0.15156706090916
-0.692113676008491,0.146688053249191
-0.693957777283701,0.141729985041056
-0.695783833107885,0.136692479539336
-0.697591718592042,0.131575159998616
-0.69938130884717,0.12637764967348
-0.70115247898427,0.121099571818511
-0.702905104114341,0.115740549688293
-0.704639059348381,0.110300206537409
-0.70635421979739,0.104778165620442
-0.708050460572368,0.0991740501919776
-0.709727656784314,0.0934874835065973
-0.711385683544226,0.0877180888188858
-0.713024415963105,0.0818654893834261
-0.714643729151949,0.0759293084548021
-0.716243498221758,0.0699091692875971
-0.71782359828353,0.063804695136395
-0.719383904448266,0.0576155092557789
-0.720924291826964,0.0513412349003329
-0.722444635530624,0.04498149532464
-0.723944810670245,0.0385359137832843
-0.725424692356826,0.0320041135308489
-0.726884155701367,0.0253857178219178
-0.728323075814866,0.018680349911074
-0.729741327808324,0.0118876330529018
-0.731138786792739,0.00500719050198395
-0.731138786792739,0.00500719050198395
-0.732502864129913,-0.00187361111679562
-0.733821212041858,-0.00866746277310576
-0.735094066929888,-0.0153748276041909
-0.736321665195316,-0.0219961687472956
-0.737504243239455,-0.0285319493396641
-0.738642037463618,-0.0349826325185411
-0.739735284269119,-0.0413486814211709
-0.740784220057271,-0.0476305591847979
-0.741789081229388,-0.0538287289466668
-0.742750104186781,-0.0599436538440218
-0.743667525330766,-0.0659757970141074
-0.744541581062655,-0.0719256215941682
-0.745372507783762,-0.0777935907214485
-0.746160541895399,-0.0835801675331928
-0.746905919798881,-0.0892858151666456
-0.74760887789552,-0.0949109967590513
-0.74826965258663,-0.100456175447654
-0.748888480273524,-0.105921814369699
-0.749465597357515,-0.11130837666243
-0.750001240239917,-0.116616325463092
-0.750495645322043,-0.121846123908929
-0.750949049005206,-0.126998235137186
-0.75136168769072,-0.132073122285107
-0.751733797779898,-0.137071248489936
-0.752065615674053,-0.141993076888918
-0.752357377774499,-0.146839070619298
-0.752609320482548,-0.151609692818319
-0.752821680199515,-0.156305406623227
-0.752994693326712,-0.160926675171266
-0.753128596265452,-0.16547396159968
-0.75322362541705,-0.169947729045713
-0.753280017182818,-0.174348440646611
-0.75329800796407,-0.178676559539618
-0.753277834162119,-0.182932548861977
-0.753219732178278,-0.187116871750934
-0.753123938413861,-0.191229991343733
-0.752990689270181,-0.195272370777619
-0.75282022114855,-0.199244473189835
-0.752612770450283,-0.203146761717626
-0.752368573576694,-0.206979699498238
-0.752087866929094,-0.210743749668913
-0.751770886908798,-0.214439375366897
-0.751417869917118,-0.218067039729435
-0.751029052355369,-0.22162720589377
-0.750604670624863,-0.225120336997147
-0.750144961126913,-0.22854689617681
-0.749650160262833,-0.231907346570005
-0.749120504433937,-0.235202151313975
-0.748556230041538,-0.238431773545964
-0.747957573486948,-0.241596676403218
-0.747324771171481,-0.244697323022981
-0.746658059496451,-0.247734176542497
-0.745957674863171,-0.250707700099011
-0.745223853672954,-0.253618356829766
-0.744456832327113,-0.256466609872009
-0.743656847226962,-0.259252922362982
-0.742824134773814,-0.261977757439931
-0.741958931368982,-0.264641578240099
-0.74106147341378,-0.267244847900732
-0.740131997309521,-0.269788029559074
-0.739170739457518,-0.27227158635237
-0.738177936259085,-0.274695981417863
-0.737153824115535,-0.277061677892798
-0.73609863942818,-0.279369138914419
-0.735012618598336,-0.281618827619972
-0.733895998027314,-0.283811207146701
-0.732749014116428,-0.285946740631849
-0.731571903266992,-0.288025891212662
-0.730364901880318,-0.290049122026384
-0.72912824635772,-0.292016896210259
-0.727862173100512,-0.293929676901532
-0.726566918510006,-0.295787927237447
-0.725242718987516,-0.297592110355249
-0.723889810934356,-0.299342689392182
-0.722508430751838,-0.30104012748549
-0.721098814841276,-0.302684887772419
-0.719661199603983,-0.304277433390213
-0.718195821441272,-0.305818227476115
-0.716702916754457,-0.307307733167371
-0.715182721944852,-0.308746413601224
-0.713635473413768,-0.31013473191492
-0.712061407562521,-0.311473151245703
-0.710460760792422,-0.312762134730817
-0.708833769504786,-0.314002145507506
-0.707180670100925,-0.315193646713016
-0.705501698982153,-0.316337101484591
-0.703797092549784,-0.317432972959474
-0.70206708720513,-0.318481724274911
-0.700311919349505,-0.319483818568146
-0.698531825384222,-0.320439718976423
-0.696727041710594,-0.321349888636987
-0.694897804729935,-0.322214790687083
-0.693044350843559,-0.323034888263954
-0.691166916452777,-0.323810644504846
-0.689265737958905,-0.324542522547002
-0.687341051763254,-0.325230985527667
-0.685393094267139,-0.325876496584086
-0.683422101871872,-0.326479518853503
-0.681428310978767,-0.327040515473162
-0.679411957989137,-0.327559949580309
-0.677373279304296,-0.328038284312187
-0.675312511325557,-0.32847598280604
-0.673229890454233,-0.328873508199114
-0.671125653091637,-0.329231323628652
-0.669000035639083,-0.3295498922319
-0.666853274497884,-0.329829677146102
-0.664685606069353,-0.330071141508501
-0.662497266754804,-0.330274748456343
-0.66028849295555,-0.330440961126873
-0.658059521072905,-0.330570242657333
-0.65581058750818,-0.33066305618497
-0.653541928662691,-0.330719864847027
-0.651253780937751,-0.330741131780749
-0.648946380734671,-0.33072732012338
-0.646619964454766,-0.330678893012164
-0.64427476849935,-0.330596313584347
-0.641911029269735,-0.330480044977173
-0.639528983167234,-0.330330550327885
-0.637128866593161,-0.33014829277373
-0.634710915948831,-0.32993373545195
-0.632275367635554,-0.329687341499791
-0.629822458054646,-0.329409574054496
-0.627352423607418,-0.329100896253311
-0.624865500695186,-0.32876177123348
-0.622361925719261,-0.328392662132246
-0.619841935080958,-0.327994032086856
-0.617305765181589,-0.327566344234553
-0.614753652422467,-0.327110061712581
-0.612185833204907,-0.326625647658186
-0.609602543930221,-0.326113565208611
-0.607004020999723,-0.325574277501101
-0.604390500814726,-0.3250082476729
-0.601762219776544,-0.324415938861254
-0.599119414286489,-0.323797814203405
-0.596462320745874,-0.3231543368366
-0.593791175556015,-0.322485969898081
-0.591106215118222,-0.321793176525095
-0.588407675833811,-0.321076419854884
-0.585695794104093,-0.320336163024694
-0.582970806330384,-0.319572869171769
-0.580232948913995,-0.318787001433354
-0.57748245825624,-0.317979022946693
-0.574719570758432,-0.317149396849029
-0.571944522821885,-0.316298586277609
-0.569157550847913,-0.315427054369677
-0.566358891237827,-0.314535264262475
-0.563548780392942,-0.31362367909325
-0.560727454714571,-0.312692761999246
-0.557895150604028,-0.311742976117707
-0.555052104462624,-0.310774784585878
-0.552198552691675,-0.309788650541002
-0.549334731692493,-0.308785037120325
-0.546460877866391,-0.307764407461091
-0.543577227614683,-0.306727224700545
-0.540684017338682,-0.30567395197593
-0.537781483439701,-0.304605052424491
-0.534869862319055,-0.303520989183473
-0.531949390378055,-0.302422225390121
-0.529020304018015,-0.301309224181678
-0.526082839640249,-0.300182448695389
-0.52313723364607,-0.299042362068499
-0.520183722436791,-0.297889427438251
-0.517222542413726,-0.296724107941891
-0.514253929978188,-0.295546866716664
-0.511278121531489,-0.294358166899812
-0.508295353474944,-0.293158471628581
-0.505305862209866,-0.291948244040216
-0.502309884137568,-0.29072794727196
-0.499307655659363,-0.289498044461059
-0.496299413176565,-0.288258998744756
-0.493285393090487,-0.287011273260296
-0.490265831802442,-0.285755331144924
-0.487240965713744,-0.284491635535883
-0.484211031225706,-0.283220649570419
-0.481176264739641,-0.281942836385776
-0.478136902656862,-0.280658659119199
-0.475093181378684,-0.279368580907931
-0.472045337306418,-0.278073064889217
-0.468993606841378,-0.276772574200302
-0.465938226384879,-0.27546757197843
-0.462879432338233,-0.274158521360846
-0.459817461102752,-0.272845885484794
-0.456752549079752,-0.271530127487519
-0.453684932670545,-0.270211710506264
-0.450614848276443,-0.268891097678275
-0.447542532298762,-0.267568752140796
-0.444468221138813,-0.266245137031071
-0.44139215119791,-0.264920715486345
-0.438314558877367,-0.263595950643862
-0.435235680578497,-0.262271305640866
-0.432155752702613,-0.260947243614603
-0.429075011651028,-0.259624227702317
-0.425993693825056,-0.258302721041251
-0.42291203562601,-0.256983186768651
-0.419830273455203,-0.255666088021761
-0.416748643713949,-0.254351887937825
-0.413667382803561,-0.253041049654089
-0.410586727125352,-0.251734036307795
-0.407506913080636,-0.250431311036189
-0.404428177070726,-0.249133336976516
-0.401350755496934,-0.247840577266019
-0.398274884760576,-0.246553495041943
-0.395200801262963,-0.245272553441533
-0.392128741405409,-0.243998215602033
-0.389058941589227,-0.242730944660687
-0.385991638215732,-0.24147120375474
-0.382927067686235,-0.240219456021437
-0.37986546640205,-0.238976164598021
-0.376807070764492,-0.237741792621738
-0.373752117174872,-0.236516803229832
-0.370700842034504,-0.235301659559546
-0.367653481744702,-0.234096824748127
-0.364610272706779,-0.232902761932817
-0.361571451322048,-0.231719934250862
-0.358537253991822,-0.230548804839506
-0.355507917117415,-0.229389836835993
-0.35248367710014,-0.228243493377569
-0.349464770341311,-0.227110237601476
-0.34645143324224,-0.225990532644961
-0.343443902204241,-0.224884841645267
-0.340442413628628,-0.223793627739638
-0.337447203916713,-0.22271735406532
-0.33445850946981,-0.221656483759556
-0.331476566689233,-0.220611479959591
-0.328501611976293,-0.21958280580267
-0.325533881732306,-0.218570924426037
-0.322573612358584,-0.217576298966936
-0.31962104025644,-0.216599392562613
-0.316676401827188,-0.21564066835031
-0.313739933472142,-0.214700589467273
-0.310811871592613,-0.213779619050747
-0.307892452589916,-0.212878220237975
-0.304981912865364,-0.211996856166203
-0.302080488820271,-0.211135989972674
-0.299188416855949,-0.210296084794633
-0.296305933373712,-0.209477603769324
-0.293433274774873,-0.208681010033993
-0.290570677460745,-0.207906766725883
-0.287718377832643,-0.207155336982239
-0.284876612291878,-0.206427183940305
-0.282045617239766,-0.205722770737326
-0.279225629077617,-0.205042560510546
-0.276416884206747,-0.20438701639721
-0.273619619028468,-0.203756601534562
-0.270834069944094,-0.203151779059846
-0.268060473354938,-0.202573012110308
-0.265299065662313,-0.202020763823191
-0.262550083267533,-0.20149549733574
-0.25981376257191,-0.200997675785199
-0.257090339976759,-0.200527762308813
-0.254380051883392,-0.200086220043827
-0.251683134693123,-0.199673512127484
-0.248999824807265,-0.19929010169703
-0.246330358627132,-0.198936451889708
-0.243674972554036,-0.198613025842763
-0.241033902989292,-0.19832028669344
-0.238407386334211,-0.198058697578983
-0.235795658990109,-0.197828721636636
-0.233198957358297,-0.197630822003644
-0.230617517840089,-0.197465461817252
-0.228051576836799,-0.197333104214703
-0.22550137074974,-0.197234212333243
-0.222967135980225,-0.197169249310116
-0.220449108929568,-0.197138678282565
-0.217947525999081,-0.197142962387836
-0.215462623590079,-0.197182564763174
-0.212994638103874,-0.197257948545822
-0.21054380594178,-0.197369576873025
-0.208110363505109,-0.197517912882027
-0.205694547195176,-0.197703419710073
-0.203296593413294,-0.197926560494408
-0.200916738560775,-0.198187798372275
-0.198555219038934,-0.19848759648092
-0.196212271249083,-0.198826417957586
-0.193888131592537,-0.199204725939519
-0.191583036470607,-0.199622983563962
-0.189297222284608,-0.20008165396816
-0.187030925435852,-0.200581200289358
-0.184784382325654,-0.2011220856648
-0.182557829355326,-0.20170477323173
-0.180351502926182,-0.202329726127393
-0.178165639439535,-0.202997407489033
-0.176000475296698,-0.203708280453896
-0.173856246898984,-0.204462808159224
-0.171733190647708,-0.205261453742263
-0.169631542944182,-0.206104680340257
-0.167551540189719,-0.206992951090451
-0.165493418785633,-0.207926729130089
-0.163457415133238,-0.208906477596416
-0.161443765633846,-0.209932659626675
-0.15945270668877,-0.211005738358112
-0.157484474699325,-0.21212617692797
-0.155539306066823,-0.213294438473495
-0.153617437192577,-0.214510986131931
-0.151719104477902,-0.215776283040522
-0.14984454432411,-0.217090792336513
-0.147993993132515,-0.218454977157147
-0.146167687304429,-0.219869300639671
-0.144365863241167,-0.221334225921327
-0.142588757344041,-0.222850216139361
-0.140836606014365,-0.224417734431017
-0.139109645653452,-0.226037243933539
-0.137408112662616,-0.227709207784172
-0.135732243443169,-0.22943408912016
-0.134082274396426,-0.231212351078748
-0.132458441923698,-0.23304445679718
-0.130860982426301,-0.234930869412701
-0.129290132305546,-0.236872052062555
-0.127746127962748,-0.238868467883987
-0.126229205799219,-0.24092058001424
-0.124739602216273,-0.24302885159056
-0.123277553615224,-0.245193745750191
-0.121843296397384,-0.247415725630378
-0.120437066964066,-0.249695254368364
-0.119059101716585,-0.252032795101394
-0.117709637056253,-0.254428810966713
-0.116388909384384,-0.256883765101565
-0.115097155102291,-0.259398120643195
-0.113834610611288,-0.261972340728847
-0.112601512312687,-0.264606888495766
-0.111398096607802,-0.267302227081196
-0.110224599897946,-0.270058819622381
-0.109081258584433,-0.272877129256565
-0.107968309068575,-0.275757619120995
-0.106885987751687,-0.278700752352913
-0.105834531035081,-0.281706992089564
-0.104814175320072,-0.284776801468193
-0.103825157007971,-0.287910643626044
-0.102867712500092,-0.291108981700362
-0.10194207819775,-0.294372278828391
-0.101048490502256,-0.297700998147375
-0.100187185814925,-0.301095602794559
-0.0993584005370692,-0.304556555907188
-0.0985623710700025,-0.308084320622506
-0.097799333815038,-0.311679360077757
-0.0970695251734891,-0.315342137410185
-0.096373181546669,-0.319073115757037
-0.0957105393358912,-0.322872758255554
-0.0950818349424687,-0.326741528042983
-0.0944873047677151,-0.330679888256567
-0.0939271852129436,-0.334688302033552
-0.0934017126794675,-0.338767232511181
-0.0929111235686,-0.342917142826699
-0.0924556542816545,-0.34713849611735
-0.0920355412199444,-0.351431755520379
-0.0916510207847829,-0.35579738417303
-0.0913023293774834,-0.360235845212549
-0.090989703399359,-0.364747601776178
-0.0907133792517232,-0.369333117001163
-0.0904735933358893,-0.373992854024748
-0.0902705820531705,-0.378727275984178
-0.0901045818048801,-0.383536846016697
-0.0899758289923316,-0.38842202725955
-0.0898845600168381,-0.39338328284998
-0.0898310112797129,-0.398421075925232
-0.0898154191822695,-0.403535869622552
-0.0898380201258211,-0.408728127079182
-0.0898990505116809,-0.413998311432369
-0.0899987467411624,-0.419346885819356
-0.0901373452155787,-0.424774313377387
-0.0903150823362433,-0.430281057243707
-0.0905321945044694,-0.435867580555561
-0.0907889181215704,-0.441534346450193
-0.0910854895888595,-0.447281818064847
-0.09142214530765,-0.453110458536769
-0.0917991216792553,-0.459020731003202
-0.0922166551049887,-0.46501309860139
-0.0926749819861633,-0.471088024468579
-0.0931743387240927,-0.477245971742013
-0.0937149617200901,-0.483487403558935
-0.0942970873754687,-0.489812783056592
-0.0949209520915419,-0.496222573372226
-0.0955867922696231,-0.502717237643083
-0.0962948443110254,-0.509297239006407
-0.0970453446170623,-0.515963040599442
-0.0978385295890469,-0.522715105559433
-0.0986746356282927,-0.529553897023625
-0.0995538991361129,-0.536479878129261
-0.100476556513821,-0.543493512013587
-0.10144284416273,-0.550595261813846
-0.102452998484153,-0.557785590667284
-0.103507255879404,-0.565064961711144
-0.104605852749796,-0.572433838082671
-0.105749025496642,-0.579892682919109
-0.106937010521256,-0.587441959357704
-0.108170044224951,-0.595082130535699
-0.10944836300904,-0.602813659590339
-0.110772203274836,-0.610637009658868
-0.112141801423653,-0.618552643878531
-0.113557393856805,-0.626561025386572
-0.115019216975603,-0.634662617320236
-0.116527507181363,-0.642857882816767
-0.118082500875396,-0.65114728501341
-0.119684434459017,-0.659531287047409
-0.121333544333538,-0.668010352056008
-0.123030066900274,-0.676584943176452
-0.124774238560536,-0.685255523545986
-0.126566295715639,-0.694022556301853
-0.128406474766896,-0.702886504581299
