0.056320793133573,-0.869110328358809
0.0564881663793643,-0.859846202051297
0.0566870319845729,-0.850636012143564
0.0569170770615123,-0.841479571590968
0.057177988722496,-0.832376693348865
0.0574694540798375,-0.823327190372615
0.0577911602458501,-0.814330875617575
0.0581427943328476,-0.805387562039103
0.0585240434531432,-0.796497062592558
0.0589345947190506,-0.787659190233297
0.0593741352428831,-0.778873757916677
0.0598423521369542,-0.770140578598057
0.0603389325135776,-0.761459465232795
0.0608635634850665,-0.752830230776249
0.0614159321637346,-0.744252688183776
0.0619957256618953,-0.735726650410735
0.062602631091862,-0.727251930412484
0.0632363355659484,-0.71882834114438
0.0638965261964677,-0.710455695561782
0.0645828900957336,-0.702133806620047
0.0652951143760595,-0.693862487274533
0.066032886149759,-0.685641550480599
0.0667958925291454,-0.677470809193602
0.0675838206265322,-0.6693500763689
0.068396357554233,-0.661279164961851
0.0692331904245613,-0.653257887927813
0.0700940063498305,-0.645286058222144
0.070978492442354,-0.637363488800202
0.0718863358144455,-0.629489992617345
0.0728172235784183,-0.621665382628931
0.073770842846586,-0.613889471790317
0.074746880731262,-0.606162073056861
0.0757450243447598,-0.598482999383923
0.076764960799393,-0.590852063726859
0.0778063772074749,-0.583269079041027
0.0788689606813191,-0.575733858281786
0.079952398333239,-0.568246214404493
0.0810563772755482,-0.560805960364507
0.0821805846205601,-0.553412909117184
0.0833247074805882,-0.546066873617884
0.084488432967946,-0.538767666821964
0.085671448194947,-0.531515101684782
0.0868734402739046,-0.524308991161696
0.0880940963171323,-0.517149148208063
0.0893331034369438,-0.510035385779243
0.0905901487456522,-0.502967516830592
0.0918649193555713,-0.495945354317469
0.0931571023790145,-0.488968711195232
0.0944663849282952,-0.482037400419238
0.0957924541157269,-0.475151234944846
0.0971349970536232,-0.468310027727413
0.0984937008542975,-0.461513591722298
0.0998682526300632,-0.454761739884858
0.101258339493234,-0.448054285170451
0.102663648556123,-0.441391040534435
0.104083866931044,-0.434771818932169
0.105518681730311,-0.428196433319009
0.106967780066236,-0.421664696650315
0.108430849051134,-0.415176421881444
0.109907575797318,-0.408731421967753
0.111397647417101,-0.402329509864602
0.112900751022797,-0.395970498527347
0.114416573726719,-0.389654200911347
0.115944802641181,-0.383380429971959
0.117485124878497,-0.377148998664542
0.119037227550979,-0.370959719944454
0.120600797770941,-0.364812406767052
0.122175522650698,-0.358706872087694
0.123761089302561,-0.352642928861739
0.125357184838845,-0.346620390044544
0.126963496371863,-0.340639068591467
0.128579711013929,-0.334698777457866
0.130205515877357,-0.3287993295991
0.131840598074458,-0.322940537970526
0.133484644717548,-0.317122215527501
0.13513734291894,-0.311344175225384
0.136798379790947,-0.305606230019533
0.138467442445882,-0.299908192865306
0.140144217996059,-0.294249876718061
0.141828393553792,-0.288631094533155
0.143519656231394,-0.283051659265947
0.145217693141178,-0.277511383871795
0.146922191395459,-0.272010081306055
0.148632838106548,-0.266547564524088
0.150349320386761,-0.261123646481249
0.152071325348411,-0.255738140132898
0.15379854010381,-0.250390858434392
0.155530651765272,-0.24508161434109
0.157267347445112,-0.239810220808348
0.159008314255642,-0.234576490791525
0.160753239309176,-0.22938023724598
0.162501809718027,-0.224221273127069
0.164253712594509,-0.219099411390151
0.166008635050935,-0.214014464990584
0.167766264199619,-0.208966246883725
0.169526287152875,-0.203954570024933
0.171288391023015,-0.198979247369566
0.173052262922353,-0.194040091872982
0.174817589963203,-0.189136916490537
0.176584059257879,-0.184269534177591
0.178351357918693,-0.179437757889502
0.180119173057959,-0.174641400581627
0.181887191787991,-0.169880275209324
0.183655101221102,-0.165154194727951
0.185422588469606,-0.160462972092866
0.187189340645816,-0.155806420259427
0.188955044862045,-0.151184352182992
0.190719388230607,-0.14659658081892
0.192482057863817,-0.142042919122567
0.194242740873986,-0.137523180049291
0.196001124373428,-0.133037176554452
0.197756895474458,-0.128584721593406
0.199509741289388,-0.124165628121511
0.201259348930533,-0.119779709094127
0.203005405510204,-0.115426777466609
0.204747598140717,-0.111106646194317
0.206485613934384,-0.106819128232609
0.208219140003519,-0.102564036536842
0.209947863460436,-0.0983411840623735
0.211671471417447,-0.0941503837645625
0.213389650986867,-0.0899914485987667
0.215102089281008,-0.085864191520344
0.216808473412185,-0.081768425484652
0.218508490492711,-0.077703963447049
0.220201827634899,-0.073670618362893
0.221888171951063,-0.0696682031875417
0.223567210553516,-0.065696530876353
0.225238630554572,-0.061755414384685
0.226902119066544,-0.0578446666678957
0.228557363201746,-0.0539641006813428
0.230204050072491,-0.0501135293803845
0.231841866791093,-0.0462927657203784
0.233470500469864,-0.0425016226566828
0.23508963822112,-0.0387399131446555
0.236698967157173,-0.0350074501396543
0.238298174390336,-0.0313040465970373
0.239886947032924,-0.0276295154721624
0.241464972197249,-0.0239836697203876
0.243031936995625,-0.0203663222970707
0.244587528540366,-0.0167772861575698
0.246131433943784,-0.0132163742572426
0.247663340318195,-0.00968339955144723
0.24918293477591,-0.00617817499554157
0.250689904429244,-0.00270051354488354
0.25218393639051,0.000749771845168834
0.253664717772021,0.00417286821925765
0.255131935686091,0.00756896262202508
0.256585277245034,0.0109382420981131
0.258024429561162,0.0142808936921637
0.25944907974679,0.0175971044488191
0.260858914914231,0.0208870614127213
0.262253622175798,0.0241509516285123
0.263632888643806,0.0273889621408342
0.264996401430566,0.030601279994329
0.266343847648393,0.0337880922336389
0.267674914409601,0.036949585903406
0.268989288826502,0.0400859480482721
0.270286658011411,0.0431973657128794
0.27156670907664,0.0462840259418701
0.272829129134504,0.0493461157798861
0.274073605297315,0.0523838222715694
0.275299824677387,0.0553973324615623
0.276507474387035,0.0583868333945067
0.27769624153857,0.0613525121150447
0.278865813244307,0.0642945556678183
0.280015876616559,0.0672131510974697
0.28114611876764,0.0701084854486408
0.282256226809863,0.0729807457659738
0.283345887855541,0.0758301190941107
0.284414789016989,0.0786567924776934
0.285462617406519,0.0814609529613643
0.286489060136445,0.0842427875897653
0.287493804319081,0.0870024834075384
0.288476537066739,0.0897402274593257
0.289436945491734,0.0924562067897694
0.290374716706379,0.0951506084435113
0.291289537822988,0.0978236194651937
0.292181095953874,0.100475426899458
0.29304907821135,0.103106217790948
0.293893171707729,0.105716179184304
0.294713063555327,0.108305498124168
0.295508440866455,0.110874361655184
0.296278990753427,0.113422956821992
0.297024400328558,0.115951470669235
0.297744356704159,0.118460090241554
0.298438546992546,0.120949002583593
0.299106658306031,0.123418394739993
0.299748377756927,0.125868453755396
0.300363392457549,0.128299366674444
0.300951389520209,0.130711320541779
0.301512056057222,0.133104502402044
0.302045079180901,0.13547909929988
0.302550146003558,0.137835298279929
0.303026943637509,0.140173286386834
0.303475159195065,0.142493250665236
0.303894479788541,0.144795378159778
0.304284592530251,0.147079855915101
0.304645184532507,0.149346870975849
0.304975942907623,0.151596610386662
0.305276554767912,0.153829261192182
0.305546707225689,0.156045010437053
0.305786087393266,0.158244045165916
0.305994382382957,0.160426552423412
0.306171279307076,0.162592719254185
0.306316465277936,0.164742732702876
0.30642962740785,0.166876779814127
0.306510452809132,0.168995047632581
0.306558628594096,0.171097723202879
0.306573841875054,0.173184993569663
0.306555779764321,0.175257045777575
0.30650412937421,0.177314066871259
0.306418577817035,0.179356243895354
0.306298812205108,0.181383763894505
0.306144519650743,0.183396813913352
0.305955387266254,0.185395580996538
0.305731102163955,0.187380252188704
0.305471351456158,0.189351014534494
0.305175822255178,0.191308055078549
0.304844201673328,0.19325156086551
0.30447617682292,0.195181718940021
0.30407143481627,0.197098716346723
0.30362966276569,0.199002740130258
0.303150547783493,0.200893977335268
0.302633776981994,0.202772615006396
0.302079037473505,0.204638840188283
0.30148601637034,0.206492839925571
0.300854400784813,0.208334801262903
0.300183877829237,0.210164911244921
0.299474134615926,0.211983356916266
0.298724858257193,0.213790325321581
0.297935735865352,0.215586003505508
0.297106454552715,0.217370578512688
0.296236701431597,0.219144237387765
0.295326163614311,0.220907167175379
0.294374528213171,0.222659554920174
0.293381482340489,0.22440158766679
0.29234671310858,0.226133452459871
0.291269907629757,0.227855336344058
0.290150753016334,0.229567426363993
0.288988936380623,0.231269909564318
0.287784144834939,0.232962972989676
0.286536065491594,0.234646803684708
0.285244385462903,0.236321588694057
0.283908791861179,0.237987515062365
0.282528971798736,0.239644769834273
0.281104612387886,0.241293540054424
0.279635400740943,0.242934012767459
0.278121023970221,0.244566375018021
0.276561169188034,0.246190813850753
0.274955523506694,0.247807516310295
0.273303774038515,0.24941666944129
0.271605607895811,0.25101846028838
0.269860712190896,0.252613075896208
0.268068774036082,0.254200703309415
0.266229480543683,0.255781529572643
0.264342518826013,0.257355741730534
0.262407575995385,0.25892352682773
0.260424339164113,0.260485071908875
0.258392495444509,0.262040564018608
0.256311731948889,0.263590190201573
0.254181735789564,0.265134137502412
0.252002194078849,0.266672592965767
0.249772793929057,0.268205743636279
0.247493222452502,0.269733776558591
0.245163166761497,0.271256878777345
0.242782313968355,0.272775237337183
0.24035035118539,0.274289039282747
0.237866965524915,0.27579847165868
0.235331844099245,0.277303721509622
0.232744674020692,0.278804975880216
0.23010514240157,0.280302421815105
0.227412936354192,0.28179624635893
0.224667742990872,0.283286636556333
0.221869249423924,0.284773779451957
0.21901714276566,0.286257862090444
0.216111110128395,0.287739071516435
0.213150838624441,0.289217594774572
0.210136015366113,0.290693618909499
0.207066327465724,0.292167330965856
0.203941462035586,0.293638917988286
0.200761106188015,0.29510856702143
0.197524947035323,0.296576465109932
0.194232671689824,0.298042799298433
0.19088396726383,0.299507756631575
0.187478520869657,0.300971524154
0.184016019619616,0.30243428891035
0.180496150626023,0.303896237945267
0.176918601001189,0.305357558303394
0.173283057857429,0.306818437029372
0.169589208307056,0.308279061167844
0.165836739462384,0.309739617763451
0.162025338435726,0.311200293860836
0.158154692339395,0.31266127650464
0.154224488285706,0.314122752739506
0.150234413386971,0.315584909610076
0.146184154755503,0.317047934160991
0.142073399503618,0.318512013436895
0.137901834743627,0.319977334482428
0.133669147587845,0.321444084342234
0.129375025148585,0.322912450060953
0.12501915453816,0.324382618683229
0.120601222868884,0.325854777253703
0.116120917253071,0.327329112817017
0.111577924803033,0.328805812417814
0.106971932631085,0.330285063100734
0.102302627849539,0.331767051910422
0.0975696975707104,0.333251965891518
0.0927728289069111,0.334739992088664
0.0879117089704551,0.336231317546503
0.0829860248736558,0.337726129309677
0.0779954637288271,0.339224614422827
0.0729397126482817,0.340726959930596
0.0678184587443338,0.342233352877627
0.0626313891292964,0.34374398030856
0.0573781909154834,0.345259029268038
0.0520585512152079,0.346778686800703
0.0466721571407838,0.348303139951198
0.0412186958045242,0.349832575764163
0.0356978543187428,0.351367181284242
0.0301093197957528,0.352907143556076
0.0244527793478681,0.354452649624308
0.0187279200874019,0.356003886533579
0.0129344291266679,0.357561041328531
0.0070719935779792,0.359124301053807
0.00114030055364975,0.360693852754049
-0.00486096283400736,0.362269883473898
-0.0109321094726783,0.363852580257997
-0.01707345225005,0.365442130150988
-0.0232853040538084,0.367038720197513
-0.0295679777716406,0.368642537442214
-0.0359217862912328,0.370253768929733
-0.0423470425002716,0.371872601704712
-0.0488440592864434,0.373499222811793
-0.055413149537435,0.375133819295618
-0.0620546261409325,0.376776578200829
-0.0687688019846229,0.378427686572069
-0.0755559899561923,0.380087331453979
-0.0824165029433276,0.381755699891202
-0.0893506538337148,0.383432978928379
-0.096358755515041,0.385119355610153
-0.103441120874992,0.386815016981165
-0.110598062801255,0.388520150086058
-0.117829894181516,0.390234941969474
-0.125136927903463,0.391959579676054
-0.13251947685478,0.393694250250442
-0.139977853923155,0.395439140737278
-0.147512371996275,0.397194438181205
-0.155123343961825,0.398960329626866
-0.162811082707493,0.400737002118902
-0.170575901120964,0.402524642701954
-0.178418112089926,0.404323438420666
-0.186338028502065,0.40613357631968
-0.194335963245068,0.407955243443637
-0.20241222920662,0.409788626837179
-0.210567139274409,0.411633913544948
-0.218801006336121,0.413491290611588
-0.227114143279442,0.415360945081739
-0.235506862992059,0.417243064000043
-0.243979478361659,0.419137834411144
-0.252532302275928,0.421045443359682
-0.261165647622552,0.4229660778903
-0.269879827289218,0.42489992504764
-0.278675154163613,0.426847171876344
-0.287551941133424,0.428808005421054
-0.296510501086335,0.430782612726412
-0.305551146910035,0.432771180837061
-0.31467419149221,0.434773896797641
-0.323879947720546,0.436790947652796
-0.333168728482729,0.438822520447167
-0.342540846666447,0.440868802225397
-0.351996615159385,0.442929980032127
-0.361536346849231,0.445006240912
-0.37116035462367,0.447097771909658
-0.38086895137039,0.449204760069742
-0.390662449977076,0.451327392436895
-0.400541163331416,0.453465856055759
-0.410505404321095,0.455620337970975
-0.420555485833802,0.457791025227187
-0.43069172075722,0.459978104869035
-0.440914421979038,0.462181763941163
-0.451223902386942,0.464402189488211
-0.461620474868619,0.466639568554824
-0.472104452311754,0.468894088185641
-0.482676147604035,0.471165935425305
-0.493335873633148,0.473455297318459
-0.504083943286779,0.475762360909744
-0.514920669452615,0.478087313243803
-0.525846365018343,0.480430341365278
-0.536861342871648,0.482791632318809
-0.547965915900219,0.485171373149041
-0.55916039699174,0.487569750900615
-0.570445099033899,0.489986952618172
-0.581820334914382,0.492423165346355
-0.593286417520875,0.494878576129806
-0.604843659741066,0.497353372013167
-0.61649237446264,0.49984774004108
-0.628232874573285,0.502361867258187
-0.640065472960686,0.504895940709131
-0.65199048251253,0.507450147438553
-0.664008216116504,0.510024674491095
