0.0106891441531372,-0.556853500625033
0.0106346882369219,-0.551987534410224
0.0105535820983268,-0.547127724989806
0.0104460664094781,-0.542274241535597
0.0103123818425025,-0.537427253219415
0.0101527690695261,-0.532586929213078
0.00996746876267548,-0.527753438688403
0.00975672159407697,-0.522926950817207
0.00952076823585697,-0.518107634771309
0.00925984936014188,-0.513295659722526
0.0089742056390581,-0.508491194842675
0.00866407774473202,-0.503694409303575
0.00832970634929005,-0.498905472277042
0.00797133212485858,-0.494124552934895
0.007589195743564,-0.48935182044895
0.0071835378775327,-0.484587443991026
0.00675459919889111,-0.47983159273294
0.0063026203797656,-0.47508443584651
0.00582784209228257,-0.470346142503553
0.00533050500856842,-0.465616881875887
0.00481084980074955,-0.46089682313533
0.00426911714095236,-0.456186135453699
0.00370554770130323,-0.451484988002812
0.00312038215392857,-0.446793549954486
0.00251386117095478,-0.442111990480539
0.00188622542450825,-0.437440478752788
0.00123771558671537,-0.432779183943052
0.000568572329702549,-0.428128275223147
-0.000120963674403819,-0.423487921764892
-0.00083065175347734,-0.418858292740104
-0.00156025123539161,-0.4142395573206
-0.00230952144802025,-0.409631884678199
-0.00307822171923684,-0.405035443984717
-0.003866111376915,-0.400450404411973
-0.00467294974892832,-0.395876935131784
-0.00549849616315041,-0.391315205315967
-0.00634250994745489,-0.38676538413634
-0.00720475042971533,-0.382227640764722
-0.00808497693780535,-0.377702144372928
-0.00898294879959856,-0.373189064132778
-0.00989842534296855,-0.368688569216088
-0.0108311658957889,-0.364200828794677
-0.0117809297859333,-0.359726012040361
-0.0127474763412753,-0.355264288124959
-0.0137305648896884,-0.350815826220287
-0.0147299547590464,-0.346380795498165
-0.0157454052772228,-0.341959365130408
-0.0167766757720912,-0.337551704288835
-0.0178235255715252,-0.333157982145264
-0.0188857140033984,-0.328778367871512
-0.0199630003955844,-0.324413030639396
-0.0210551440759568,-0.320062139620735
-0.0221619043723893,-0.315725863987345
-0.0232830406127554,-0.311404372911045
-0.0244183121249287,-0.307097835563652
-0.0255674782367829,-0.302806421116983
-0.0267302982761915,-0.298530298742857
-0.0279065315710281,-0.294269637613091
-0.0290959374491664,-0.290024606899502
-0.0302982752384799,-0.285795375773908
-0.0315133042668423,-0.281582113408126
-0.0327407838621271,-0.277384988973976
-0.033980473352208,-0.273204171643272
-0.0352321320649585,-0.269039830587835
-0.0364955193282523,-0.26489213497948
-0.0377703944699629,-0.260761253990026
-0.0390565168179641,-0.25664735679129
-0.0403536457001293,-0.25255061255509
-0.0416615404443321,-0.248471190453244
-0.0429799603784463,-0.244409259657569
-0.0443086648303453,-0.240364989339882
-0.0456474131279028,-0.236338548672001
-0.0469959645989924,-0.232330106825745
-0.0483540785714877,-0.22833983297293
-0.0497215143732623,-0.224367896285374
-0.0510980313321898,-0.220414465934894
-0.0524833887761437,-0.216479711093309
-0.0538773460329978,-0.212563800932436
-0.0552796624306256,-0.208666904624093
-0.0566900972969007,-0.204789191340096
-0.0581084099596967,-0.200930830252264
-0.0595343597468872,-0.197091990532415
-0.0609677059863458,-0.193272841352365
-0.0624082080059462,-0.189473551883933
-0.0638556251335619,-0.185694291298936
-0.0653097166970665,-0.181935228769191
-0.0667702420243336,-0.178196533466517
-0.0682369604432369,-0.174478374562731
-0.0697096312816499,-0.170780921229651
-0.0711880138674462,-0.167104342639093
-0.0726718675284995,-0.163448807962876
-0.0741609515926833,-0.159814486372818
-0.0756550253878713,-0.156201547040735
-0.0771538482419371,-0.152610159138446
-0.0786571794827542,-0.149040491837768
-0.0801647784381962,-0.145492714310519
-0.0816764044361368,-0.141966995728516
-0.0831918168044496,-0.138463505263577
-0.0847107748710082,-0.13498241208752
-0.0862330379636861,-0.131523885372162
-0.0877583654103569,-0.12808809428932
-0.0892865165388944,-0.124675208010813
-0.0908172506771721,-0.121285395708458
-0.0923503271530635,-0.117918826554072
-0.0938855052944423,-0.114575669719474
-0.0954225444291821,-0.11125609437648
-0.0969612038851565,-0.107960269696909
-0.0985012429902391,-0.104688364852577
-0.100042421072304,-0.101440549015303
-0.101584497459223,-0.0982169913569047
-0.103127231478872,-0.0950178610491987
-0.104670382459124,-0.0918433272640031
-0.106213709727851,-0.0886935591731356
-0.107756972612929,-0.0855687259484135
-0.109299930442229,-0.0824689967616547
-0.110842342543627,-0.0793945407846765
-0.112383968244996,-0.0763455271892969
-0.113924566874209,-0.0733221251473332
-0.115463897759139,-0.070324503830603
-0.117001720227661,-0.067352832410924
-0.118537793607648,-0.0644072800601139
-0.120071877226974,-0.0614880159499902
-0.121603730413512,-0.0585952092523704
-0.123133112495135,-0.0557290291390721
-0.124659782799719,-0.0528896447819132
-0.126183500655135,-0.050077225352711
-0.127704025389258,-0.0472919400232833
-0.129221116329961,-0.0445339579654474
-0.130734532805118,-0.0418034483510213
-0.132244034142603,-0.0391005803518224
-0.133749379670288,-0.0364255231396682
-0.135250328716048,-0.0337784458863764
-0.136746640607757,-0.0311595177637648
-0.138238074673287,-0.0285689079436507
-0.139724390240513,-0.0260067855978518
-0.141205346637308,-0.0234733198981858
-0.142680703191546,-0.0209686800164702
-0.1441502192311,-0.0184930351245226
-0.145613654083844,-0.0160465543941606
-0.147070767077651,-0.0136294069972019
-0.148521317540395,-0.011241762105464
-0.149965064799951,-0.0088837888907646
-0.15140176818419,-0.00655565652492122
-0.152831187020987,-0.0042575341797514
-0.154253080638216,-0.00198959102707293
-0.15566720836375,0.000248003761296703
-0.157073329525463,0.00245508101353994
-0.158471203451228,0.00463147155783909
-0.159860589468919,0.00677700622237656
-0.161241246906409,0.00889151583533483
-0.162612935091573,0.0109748312248962
-0.163975413352283,0.0130267832192431
-0.165328441016414,0.015047202646558
-0.166671777411838,0.0170359203350232
-0.168005181866431,0.0189927671128211
-0.169328413708064,0.0209175738081342
-0.170641232264612,0.0228101712491447
-0.171943396863948,0.0246703902640352
-0.173234666833947,0.026498061680988
-0.174514801502481,0.0282930163281855
-0.175783560197424,0.0300550850338102
-0.17704070224665,0.0317840986260443
-0.178285986978032,0.0334798879330704
-0.179519173719444,0.0351422837830708
-0.18074002179876,0.0367711170042279
-0.181948290543853,0.038366218424724
-0.183143739282596,0.0399274188727417
-0.184326127342865,0.0414545491764634
-0.185495214052531,0.0429474401640712
-0.186650758739468,0.0444059226637478
-0.187792520731551,0.0458298275036755
-0.188920259356653,0.0472189855120366
-0.190033733942647,0.0485732275170137
-0.191132703817407,0.049892384346789
-0.192216928308807,0.051176286829545
-0.19328616674472,0.0524247657934641
-0.194340178453019,0.0536376520667287
-0.195378722761579,0.0548147764775211
-0.196401558998274,0.0559559698540238
-0.197408446490975,0.0570610630244192
-0.198399144567558,0.0581298868168897
-0.199373412555896,0.0591622720596176
-0.200331009783862,0.0601580495807854
-0.201271695579331,0.0611170502085754
-0.202195229270175,0.0620391047711701
-0.203101370184268,0.0629240440967519
-0.203989877649484,0.0637716990135031
-0.204860510993696,0.0645819003496061
-0.205713029544779,0.0653544789332435
-0.206547192630605,0.0660892655925974
-0.207362759579048,0.0667860911558504
-0.208159489717983,0.0674447864511849
-0.208937142375281,0.0680651823067832
-0.209695476878818,0.0686471095508277
-0.210434252556467,0.0691903990115008
-0.2111532287361,0.0696948815169851
-0.211852164745593,0.0701603878954626
-0.212530819912818,0.0705867489751161
-0.213188953565649,0.0709737955841278
-0.21382632503196,0.07132135855068
-0.214442693639624,0.0716292687029554
-0.215037818716515,0.0718973568691361
-0.215611459590507,0.0721254538774046
-0.216163375589473,0.0723133905559434
-0.216693326041286,0.0724609977329348
-0.217201070273821,0.0725681062365612
-0.21768636761495,0.0726345468950049
-0.218148977392548,0.0726601505364485
-0.218588658934488,0.0726447479890743
-0.219005171568644,0.0725881700810647
-0.21939827462289,0.0724902476406021
-0.219767727425098,0.0723508114958689
-0.220113289303142,0.0721696924750474
-0.220434719584897,0.0719467214063202
-0.220731777598236,0.0716817291178695
-0.221004222671031,0.0713745464378779
-0.221251814131158,0.0710250041945275
-0.22147431130649,0.0706329332160011
-0.221671473524899,0.0701981643304807
-0.22184306011426,0.069720528366149
-0.221988830402447,0.0691998561511882
-0.222108543717332,0.0686359785137808
-0.22220195938679,0.0680287262821091
-0.222268836738695,0.0673779302843556
-0.222308935100919,0.0666834213487027
-0.222322013801336,0.0659450303033328
-0.22230783216782,0.0651625879764282
-0.222266149528245,0.0643359251961713
-0.222196725210485,0.0634648727907446
-0.222099318542411,0.0625492615883305
-0.2219736888519,0.0615889224171113
-0.221819595466823,0.0605836861052694
-0.221636797715055,0.0595333834809874
-0.221425054924469,0.0584378453724474
-0.221184126422939,0.057296902607832
-0.220913771538338,0.0561103860153235
-0.22061374959854,0.0548781264231044
-0.220283819931419,0.0535999546593569
-0.219923741864848,0.0522757015522637
-0.219533274726701,0.0509051979300069
-0.219112177844851,0.0494882746207691
-0.218660210547172,0.0480247624527325
-0.218177132161538,0.0465144922540797
-0.217662702015822,0.044957294852993
-0.217116679437898,0.0433530010776549
-0.216538823755639,0.0417014417562477
-0.21592889429692,0.0400024477169537
-0.215286650389613,0.0382558497879554
-0.214611851361592,0.0364614787974354
-0.213904256540731,0.0346191655735758
-0.213163625254904,0.0327287409445591
-0.212389716831983,0.0307900357385676
-0.211582290599844,0.0288028807837839
-0.210741105886358,0.0267671069083902
-0.209865922019401,0.0246825449405691
-0.208956498326844,0.0225490257085029
-0.208012594136563,0.0203663800403739
-0.207033968776431,0.0181344387643646
-0.206020381574321,0.0158530327086575
-0.204971591858106,0.0135219927014347
-0.203887358955662,0.0111411495708789
-0.20276744219486,0.0087103341451723
-0.201611600903575,0.00622937725249742
-0.20041959440968,0.00369810972103654
-0.199191182041049,0.00111636237897234
-0.197926123125556,-0.00151603394551331
-0.196624176991074,-0.00419924842423747
-0.195285102965476,-0.00693345022901803
-0.193908660376637,-0.00971880853167253
-0.192494608552429,-0.0125554925040186
-0.191042706820727,-0.0154436713178738
-0.189552714509405,-0.0183835141450559
-0.188024390946335,-0.021375190157382
-0.186457495459391,-0.0244188685266703
-0.184851787376447,-0.0275147184247381
-0.183207026025377,-0.0306629090234031
-0.181522970734054,-0.0338636094944827
-0.179799380830351,-0.037116989009795
-0.178036015642143,-0.040423216741157
-0.176232634497303,-0.0437824618603867
-0.174388996723704,-0.0471948935393014
-0.172504861649221,-0.050660680949719
-0.170579988601726,-0.0541799932634569
-0.168614136909094,-0.0577529996523329
-0.166607065899197,-0.0613798692881643
-0.16455853489991,-0.0650607713427691
-0.162468303239107,-0.0687958749879645
-0.16033613024466,-0.0725853493955685
-0.158161775244443,-0.0764293637373982
-0.15594499756633,-0.0803280871852717
-0.153685556538195,-0.0842816889110063
-0.151383211487911,-0.0882903380864198
-0.149037721743352,-0.0923542038833295
-0.146648846632391,-0.0964734554735535
-0.144216345482903,-0.100648262028909
-0.14173997762276,-0.104878792721214
-0.139219502379836,-0.109165216722285
-0.136654679082004,-0.113507703203941
-0.13404526705714,-0.117906421337999
-0.131391025633115,-0.122361540296276
-0.128691714137804,-0.126873229250591
-0.12594709189908,-0.131441657372761
-0.123156918244817,-0.136066993834602
-0.120320952502888,-0.140749407807934
-0.117438954001167,-0.145489068464574
-0.114510682067528,-0.150286144976339
-0.111535896029844,-0.155140806515046
-0.108514355215989,-0.160053222252515
-0.105445818953836,-0.165023561360561
-0.102330046571259,-0.170051993011003
-0.0991667973961326,-0.175138686375657
-0.0959558307563288,-0.180283810626344
-0.0926969059797219,-0.185487534934878
-0.0893897823941854,-0.190750028473078
-0.086034219327593,-0.196071460412762
-0.0826299761078181,-0.201451999925747
-0.0791768120627347,-0.206891816183851
-0.0756744865202159,-0.212391078358892
-0.0721227588081358,-0.217949955622687
-0.0685213882543676,-0.223568617147053
-0.0648701341867851,-0.229247232103809
-0.0611687559332618,-0.234985969664771
-0.0574170128216716,-0.240784999001758
-0.0536146641798876,-0.246644489286587
-0.0497614693357839,-0.252564609691076
-0.0458571876172337,-0.258545529387042
-0.0419015783521109,-0.264587417546302
-0.0378944008682889,-0.270690443340676
-0.0338354144936415,-0.276854775941979
-0.0297243785560421,-0.28308058452203
-0.0255610523833644,-0.289368038252646
-0.0213451953034819,-0.295717306305646
-0.0170765666442686,-0.302128557852845
-0.0127549257335975,-0.308601962066063
-0.0083800318993428,-0.315137688117117
-0.00395164446937754,-0.321735905177824
0.000530477228424128,-0.328396782420001
0.00506657386618921,-0.335120489015468
0.00965688611604348,-0.34190719413604
0.0143016546501139,-0.348757066953536
0.0190011201405263,-0.355670276639774
0.0237555232594076,-0.36264699236657
0.0285651046788838,-0.369687383305743
0.0334301050710816,-0.37679161862911
0.0383507651081271,-0.383959867508488
0.0433273254621471,-0.391192299115697
0.0483600268052675,-0.398489082622551
0.0534491098096152,-0.405850387200871
0.058594815147316,-0.413276382022472
0.063797383490497,-0.420767236259174
0.069057055511284,-0.428323119082792
0.0743740718818038,-0.435944199665146
0.0797486732741825,-0.443630647178052
0.0851811003605468,-0.451382630793329
0.0906715938130228,-0.459200319682793
0.0962203943037371,-0.467083883018262
0.101827742504816,-0.475033489971554
0.107493879088386,-0.483049309714487
0.113219044726573,-0.491131511418878
0.119003480091504,-0.499280264256545
0.124847425855305,-0.507495737399305
0.130751122690104,-0.515778100018976
0.136714811268024,-0.524127521287376
0.142738732261195,-0.532544170376322
0.148823126341741,-0.541028216457631
0.154968234181789,-0.549579828703123
0.161174296453466,-0.558199176284612
0.167441553828898,-0.566886428373919
0.173770246980211,-0.57564175414286
0.180160616579533,-0.584465322763252
0.186612903298988,-0.593357303406914
0.193127347810704,-0.602317865245663
0.199704190786806,-0.611347177451317
0.206343672899423,-0.620445409195693
0.213046034820678,-0.629612729650608
0.219811517222701,-0.638849307987881
0.226640360777615,-0.648155313379329
0.233532806157549,-0.657530914996769
0.240489094034628,-0.66697628201202
0.247509465080979,-0.676491583596898
0.254594159968727,-0.686076988923222
0.261743419370001,-0.695732667162809
0.268957483956925,-0.705458787487477
0.276236594401627,-0.715255519069043
0.283580991376232,-0.725123031079324
0.290990915552868,-0.735061492690139
0.29846660760366,-0.745071073073305
0.306008308200735,-0.75515194140064
0.313616258016219,-0.76530426684396
0.321290697722239,-0.775528218575085
0.329031867990921,-0.785823965765831
0.336840009494392,-0.796191677588016
0.344715362904778,-0.806631523213458
0.352658168894205,-0.817143671813974
0.360668668134799,-0.827728292561382
0.368747101298688,-0.8383855546275
0.376893709057997,-0.849115627184144
0.385108732084853,-0.859918679403133
0.393392411051383,-0.870794880456284
0.401744986629712,-0.881744399515415
