0.334065023518848,0.839579785910959
0.416971589488806,0.0588460645646285
0.494703074267468,0.712092456228497
0.328920607535168,0.092722817647539
0.163138140802867,-0.526646820933419
-0.611732042139204,-0.327480321128412
-0.160150199837176,-0.0254535255477921
