-0.8630584152278,-0.90880241261515
-0.857724944503986,-0.90513701129795
-0.852377597682891,-0.901464633377323
-0.847016549697491,-0.897785430188448
-0.841641975480761,-0.894099553066505
-0.836254049965675,-0.890407153346674
-0.830852948085209,-0.886708382364134
-0.825438844772338,-0.883003391454065
-0.820011914960037,-0.879292331951646
-0.814572333581281,-0.875575355192057
-0.809120275569045,-0.871852612510477
-0.803655915856303,-0.868124255242087
-0.798179429376032,-0.864390434722065
-0.792690991061206,-0.860651302285592
-0.7871907758448,-0.856907009267847
-0.781678958659788,-0.853157707004009
-0.776155714439147,-0.849403546829258
-0.770621218115851,-0.845644680078774
-0.765075644622875,-0.841881258087737
-0.759519168893194,-0.838113432191324
-0.753951965859783,-0.834341353724718
-0.748374210455618,-0.830565174023097
-0.742786077613673,-0.82678504442164
-0.737187742266923,-0.823001116255527
-0.731579379348343,-0.819213540859939
-0.725961163790909,-0.815422469570053
-0.720333270527595,-0.811628053721051
-0.714695874491376,-0.807830444648111
-0.709049150615228,-0.804029793686414
-0.703393273832125,-0.800226252171138
-0.697728419075042,-0.796419971437464
-0.692054761276955,-0.79261110282057
-0.686372475370839,-0.788799797655638
-0.680681736289668,-0.784986207277845
-0.674982718966418,-0.781170483022372
-0.669275598334063,-0.777352776224398
-0.663560549325579,-0.773533238219104
-0.65783774687394,-0.769712020341667
-0.652107365912122,-0.765889273927269
-0.6463695813731,-0.762065150311089
-0.640624568189848,-0.758239800828306
-0.634872501295343,-0.7544133768141
-0.629113555622558,-0.75058602960365
-0.623347906104468,-0.746757910532136
-0.61757572767405,-0.742929170934738
-0.611797195264278,-0.739099962146636
-0.606012483808126,-0.735270435503008
-0.60022176823857,-0.731440742339034
-0.594425223488585,-0.727611033989895
-0.588623024491147,-0.723781461790769
-0.582815346179228,-0.719952177076836
-0.577002363485806,-0.716123331183276
-0.571184251343856,-0.712295075445269
-0.565361184686351,-0.708467561197994
-0.559533338446267,-0.70464093977663
-0.553700887556579,-0.700815362516357
-0.547864006950263,-0.696990980752355
-0.542022871560293,-0.693167945819804
-0.536177656319644,-0.689346409053882
-0.53032853616129,-0.68552652178977
-0.524475686018209,-0.681708435362647
-0.518619280823374,-0.677892301107693
-0.51275949550976,-0.674078270360087
-0.506896505010342,-0.670266494455009
-0.501030484258095,-0.666457124727639
-0.495161608185995,-0.662650312513155
-0.489290051727017,-0.658846209146738
-0.483415989814135,-0.655044965963568
-0.477539597380324,-0.651246734298823
-0.47166104935856,-0.647451665487684
-0.465780520681817,-0.64365991086533
-0.459898186283071,-0.63987162176694
-0.454014221095296,-0.636086949527695
-0.448128800051468,-0.632306045482774
-0.442242098084562,-0.628529060967356
-0.436354290127552,-0.624756147316621
-0.430465551113414,-0.620987455865748
-0.424576055975123,-0.617223137949918
-0.418685979645653,-0.61346334490431
-0.41279549705798,-0.609708228064103
-0.406904783145079,-0.605957938764476
-0.401014012839925,-0.602212628340611
-0.395123361075492,-0.598472448127686
-0.389233002784757,-0.59473754946088
-0.383343112900693,-0.591008083675373
-0.377453866356276,-0.587284202106346
-0.371565438084481,-0.583566056088977
-0.365678003018283,-0.579853796958446
-0.359791736090657,-0.576147576049933
-0.353906812234579,-0.572447544698618
-0.348023406383022,-0.568753854239679
-0.342141693468962,-0.565066656008296
-0.336261848425374,-0.56138610133965
-0.330384046185234,-0.557712341568919
-0.324508461681515,-0.554045528031284
-0.318635269847194,-0.550385812061923
-0.312764645615245,-0.546733344996017
-0.306896763918644,-0.543088278168745
-0.301031799690364,-0.539450762915286
-0.295169927863382,-0.535820950570821
-0.289311323370672,-0.532198992470528
-0.28345616114521,-0.528585039949588
-0.277604616119969,-0.52497924434318
-0.271756863227927,-0.521381756986483
-0.265913077402056,-0.517792729214678
-0.260073433575334,-0.514212312362943
-0.254238106680733,-0.510640657766459
-0.24840727165123,-0.507077916760404
-0.2425811034198,-0.503524240679959
-0.236759776919417,-0.499979780860304
-0.230943467083057,-0.496444688636617
-0.225132348843694,-0.492919115344078
-0.219326597134304,-0.489403212317867
-0.213526386887862,-0.485897130893164
-0.207731893037342,-0.482401022405148
-0.20194329051572,-0.478915038188998
-0.196160754255971,-0.475439329579895
-0.19038445919107,-0.471974047913018
-0.184614580253991,-0.468519344523545
-0.17885129237771,-0.465075370746658
-0.173094770495202,-0.461642277917536
-0.167345189539442,-0.458220217371358
-0.161602724443405,-0.454809340443304
-0.155867550140066,-0.451409798468553
-0.1501398415624,-0.448021742782285
-0.144419773643381,-0.44464532471968
-0.138707521315986,-0.441280695615917
-0.133003259513189,-0.437928006806176
-0.127307163167965,-0.434587409625636
-0.121619407213289,-0.431259055409477
-0.115940166582136,-0.427943095492878
-0.110269616207481,-0.42463968121102
-0.104607931022299,-0.421348963899082
-0.0989552859595657,-0.418071094892242
-0.0933118559522553,-0.414806225525682
-0.0876778159333434,-0.41155450713458
-0.0820533408358047,-0.408316091054117
-0.0764386055926143,-0.405091128619471
-0.0708337851367473,-0.401879771165822
-0.0652390544011784,-0.39868217002835
-0.0596545883188832,-0.395498476542235
-0.0540805618228364,-0.392328842042656
-0.0485171498460129,-0.389173417864792
-0.0429645273213878,-0.386032355343824
-0.0374228691819363,-0.38290580581493
-0.0318923503606334,-0.379793920613291
-0.0263731457904539,-0.376696851074086
-0.0208654304043731,-0.373614748532495
-0.0153693791353658,-0.370547764323696
-0.0098851669164072,-0.367496049782871
-0.00441296868047217,-0.364459756245198
0.00104704063946423,-0.361439035045857
0.00649468611042678,-0.358434037520027
0.0119297927994406,-0.355444915002889
0.0173521857735308,-0.352471818829621
0.0227616900997222,-0.349514900335404
0.0281581308450397,-0.346574310855417
0.0335413330765083,-0.343650201724839
0.0389111218611531,-0.34074272427885
0.0442673222659991,-0.33785202985263
0.049609759358071,-0.334978269781359
0.054938258204394,-0.332121595400215
0.0602526438719932,-0.329282158044379
0.0655527414278933,-0.32646010904903
0.0708383759391193,-0.323655599749347
0.0761093724726963,-0.320868781480511
0.0813655560956493,-0.318099805577701
0.0866067518750031,-0.315348823376096
0.0918327848777827,-0.312615986210876
0.0970434801710133,-0.309901445417221
0.10223866282172,-0.30720535233031
0.107418157896927,-0.304527858285322
0.11258179046366,-0.301869114617439
0.117729385588943,-0.299229272661838
0.122860768339803,-0.2966084837537
0.127975763783263,-0.294006899228204
0.133074196986348,-0.291424670420529
0.138155893016084,-0.288861948665857
0.143220676939496,-0.286318885299365
0.148268373823609,-0.283795631656233
0.153298808735447,-0.281292339071642
0.158311806742035,-0.278809158880771
0.163307192910399,-0.276346242418798
0.168284792307564,-0.273903741020905
0.173244430000554,-0.271481806022271
0.178185931056394,-0.269080588758074
0.18310912054211,-0.266700240563495
0.188013823524726,-0.264340912773713
0.192899865071267,-0.262002756723908
0.197767070248759,-0.25968592374926
0.202615264124226,-0.257390565184948
0.207444271764693,-0.255116832366151
0.212253918237186,-0.25286487662805
0.217044028608728,-0.250634849305824
0.221814427946346,-0.248426901734651
0.226564941317064,-0.246241185249713
0.231295393787907,-0.244077851186189
0.2360056104259,-0.241937050879258
0.240695416298069,-0.239818935664099
0.245364636471437,-0.237723656875893
0.25001309601303,-0.235651365849819
0.254640619989874,-0.233602213921056
0.259247033468992,-0.231576352424785
0.26383216151741,-0.229573932696184
0.268395829202153,-0.227595106070434
0.272937861590246,-0.225640023882714
0.277458083748714,-0.223708837468203
0.281956320744581,-0.221801698162081
0.286432397644874,-0.219918757299528
0.290886139516616,-0.218060166215724
0.295317371426833,-0.216226076245847
0.29972591844255,-0.214416638725078
0.304111605630791,-0.212632004988595
0.308474258058582,-0.21087232637158
0.312813700792948,-0.209137754209211
0.317129758900913,-0.207428439836667
0.321422257449503,-0.205744534589129
0.325691021505742,-0.204086189801776
0.329935876136656,-0.202453556809788
0.33415664640927,-0.200846786948344
0.338353157390607,-0.199266031552624
0.342525234147695,-0.197711441957807
0.346672701747556,-0.196183169499073
0.350795385257218,-0.194681365511602
0.354893109743703,-0.193206181330573
0.358965700274038,-0.191757768291165
0.363012981915247,-0.190336277728559
0.367034779734356,-0.188941860977934
0.371030918798389,-0.18757466937447
0.375001224174371,-0.186234854253346
0.378945520929327,-0.184922566949741
0.382863634130282,-0.183637958798836
0.386755388844262,-0.182381181135809
0.39062061013829,-0.181152385295842
0.394459123079393,-0.179951722614112
0.398270752734595,-0.1787793444258
0.402055324170921,-0.177635402066085
0.405812662455396,-0.176520046870147
0.409542592655045,-0.175433430173166
0.413244939836893,-0.17437570331032
0.416919529067965,-0.173347017616791
0.420566185415285,-0.172347524427756
0.42418473394588,-0.171377375078397
0.427774999726773,-0.170436720903891
0.431336807824991,-0.16952571323942
0.434869983307557,-0.168644503420162
0.438374351241497,-0.167793242781298
0.441849736693835,-0.166972082658006
0.445295964731598,-0.166181174385467
0.448712860421809,-0.16542066929886
0.452100248831494,-0.164690718733364
0.455457955027677,-0.16399147402416
0.458785804077384,-0.163323086506426
0.46208362104764,-0.162685707515343
0.465351231005469,-0.162079488386089
0.468588459017897,-0.161504580453845
0.471795130151948,-0.16096113505379
0.474971069474648,-0.160449303521104
0.478116102053021,-0.159969237190966
0.481230052954093,-0.159521087398556
0.484312747244888,-0.159105005479054
0.487364009992431,-0.158721142767639
0.490383666263748,-0.15836965059949
0.493371541125863,-0.158050680309787
0.496327459645801,-0.157764383233711
0.499251246890588,-0.15751091070644
0.502142727927248,-0.157290414063154
0.505001727822806,-0.157103044639032
0.507828071644288,-0.156948953769255
0.510621584458717,-0.156828292789001
0.51338209133312,-0.156741213033451
0.516109417334521,-0.156687865837784
0.518803387529944,-0.15666840253718
0.521463826986416,-0.156682974466817
0.524090560770961,-0.156731732961877
0.526683413950604,-0.156814829357538
0.52924221159237,-0.15693241498898
0.531766778763284,-0.157084641191382
0.534256940530371,-0.157271659299924
0.536712521960656,-0.157493620649787
0.539133348121163,-0.157750676576148
0.541519244078919,-0.158042978414188
0.543870034900947,-0.158370677499087
0.546185545654273,-0.158733925166024
0.548465601405922,-0.159132872750179
0.550710027222918,-0.159567671586731
0.552918648172288,-0.16003847301086
0.555091289321055,-0.160545428357745
0.557227775736244,-0.161088688962567
0.559327932484881,-0.161668406160504
0.561391584633991,-0.162284731286736
0.563418557250599,-0.162937815676443
0.565408675401729,-0.163627810664805
0.567361764154406,-0.164354867587
0.569277648575656,-0.165119137778209
0.571156153732504,-0.165920772573612
0.572997104691974,-0.166759923308387
0.574800326521091,-0.167636741317714
0.576565644286881,-0.168551377936774
0.578292883056368,-0.169503984500745
0.579981867896577,-0.170494712344807
0.581632423874534,-0.17152371280414
0.583244376057263,-0.172591137213923
0.584817549511789,-0.173697136909337
0.586351769305138,-0.174841863225559
0.587846860504334,-0.176025467497771
0.589302648176402,-0.177248101061152
0.590718957388367,-0.178509915250881
0.592095613207254,-0.179811061402137
0.593432440700088,-0.181151690850102
0.594729264933894,-0.182531954929953
0.595985910975698,-0.183952004976871
0.597202203892523,-0.185411992326035
0.598377968751396,-0.186912068312625
0.59951303061934,-0.188452384271821
0.600607214563381,-0.190033091538801
0.601660345650544,-0.191654341448747
0.602672248947855,-0.193316285336836
0.603642749522336,-0.195019074538249
0.604571672441015,-0.196762860388166
0.605458842770916,-0.198547794221765
0.606304085579063,-0.200374027374228
0.607107225932482,-0.202241711180732
0.607868088898198,-0.204150996976458
0.608586499543236,-0.206102036096586
0.60926228293462,-0.208094979876294
0.609895264139376,-0.210129979650763
0.610485268224528,-0.212207186755172
0.611032120257102,-0.214326752524701
0.611535645304123,-0.216488828294529
0.611995668432615,-0.218693565399836
0.612412014709604,-0.220941115175802
0.612784509202114,-0.223231628957606
0.61311297697717,-0.225565258080427
0.613397243101798,-0.227942153879446
0.613637132643023,-0.230362467689841
0.613832470667869,-0.232826350846793
0.613983082243361,-0.235333954685481
0.614088792436524,-0.237885430541085
0.614149426314384,-0.240480929748784
0.614164808943965,-0.243120603643757
0.614134765392293,-0.245804603561186
0.614059120726391,-0.248533080836248
0.613937700013286,-0.251306186804123
0.613770328320002,-0.254124072799992
0.613556830713564,-0.256986890159034
0.613297032260997,-0.259894790216428
0.612990758029326,-0.262847924307354
0.612637833085576,-0.265846443766992
0.612238082496772,-0.268890499930521
0.611791331329939,-0.27198024413312
0.611297404652103,-0.27511582770997
0.610756127530287,-0.27829740199625
0.610167325031517,-0.281525118327139
0.609530822222818,-0.284799128037818
0.608846444171215,-0.288119582463465
0.608114015943733,-0.29148663293926
0.607333362607396,-0.294900430800384
0.606504309229231,-0.298361127382015
0.605626680876261,-0.301868874019333
0.604700302615511,-0.305423822047517
0.603724999514008,-0.309026122801748
0.602700596638775,-0.312675927617205
0.601626919056838,-0.316373387829067
0.600503791835221,-0.320118654772514
0.599331040040951,-0.323911879782726
0.59810848874105,-0.327753214194882
0.596835963002546,-0.331642809344161
0.595513287892461,-0.335580816565744
0.594140288477822,-0.339567387194811
0.592716789825654,-0.343602672566539
0.591242617002981,-0.34768682401611
0.589717595076829,-0.351819992878703
0.588141549114222,-0.356002330489497
0.586514304182185,-0.360233988183672
0.584835685347744,-0.364515117296408
0.583105517677923,-0.368845869162883
0.581323626239747,-0.373226395118279
0.579489836100241,-0.377656846497773
0.577603972326431,-0.382137374636547
0.575665859985341,-0.386668130869779
0.573675324143996,-0.391249266532649
0.571632189869421,-0.395880932960337
0.569536282228641,-0.400563281488022
0.567387426288682,-0.405296463450884
0.565185447116567,-0.410080630184103
0.562930169779323,-0.414915933022857
0.560621419343974,-0.419802523302327
0.558259020877544,-0.424740552357693
0.555842799447059,-0.429730171524133
0.553372580119545,-0.434771532136828
0.550848187962025,-0.439864785530956
0.548269448041526,-0.445010083041698
0.545636185425071,-0.450207576004234
0.542948225179685,-0.455457415753742
0.540205392372395,-0.460759753625403
0.537407512070225,-0.466114740954395
0.534554409340199,-0.4715225290759
0.531645909249343,-0.476983269325095
0.528681836864681,-0.482497113037161
0.528681836864681,-0.482497113037161
0.525703962171144,-0.487988696012567
0.522754104209162,-0.493382838940089
0.519832161629016,-0.498679970487371
0.516938033080987,-0.503880519322056
0.514071617215355,-0.508984914111786
0.511232812682398,-0.513993583524203
0.508421518132399,-0.51890695622695
0.505637632215636,-0.52372546088767
0.50288105358239,-0.528449526174006
0.500151680882942,-0.533079580753599
0.49744941276757,-0.537616053294093
0.494774147886556,-0.54205937246313
0.492125784890179,-0.546409966928354
0.489504222428719,-0.550668265357405
0.486909359152457,-0.554834696417928
0.484341093711673,-0.558909688777564
0.481799324756647,-0.562893671103957
0.479283950937659,-0.566787072064749
0.476794870904989,-0.570590320327582
0.474331983308918,-0.5743038445601
0.471895186799724,-0.577928073429944
0.46948438002769,-0.581463435604758
0.467099461643093,-0.584910359752184
0.464740330296216,-0.588269274539864
0.462406884637338,-0.591540608635442
0.460099023316738,-0.59472479070656
0.457816644984698,-0.59782224942086
0.455559648291497,-0.600833413445985
0.453327931887415,-0.603758711449578
0.451121394422732,-0.606598572099282
0.44893993454773,-0.609353424062738
0.446783450912687,-0.61202369600759
0.444651842167884,-0.614609816601481
0.4425450069636,-0.617112214512052
0.440462843950117,-0.619531318406946
0.438405251777715,-0.621867556953807
0.436372129096672,-0.624121358820276
0.43436337455727,-0.626293152673997
0.432378886809789,-0.628383367182612
0.430418564504508,-0.630392431013763
0.428482306291708,-0.632320772835093
0.426570010821669,-0.634168821314245
0.424681576744671,-0.635937005118862
0.422816902710995,-0.637625752916586
0.420975887370919,-0.639235493375059
0.419158429374725,-0.640766655161925
0.417364427372693,-0.642219666944825
0.415593780015102,-0.643594957391403
0.413846385952234,-0.644892955169301
0.412122143834367,-0.646114088946162
0.410420952311782,-0.647258787389628
0.408742710034759,-0.648327479167342
0.407087315653579,-0.649320592946947
0.405454667818521,-0.650238557396085
0.403844665179865,-0.651081801182398
0.402257206387893,-0.651850752973531
0.400692190092883,-0.652545841437124
0.399149514945116,-0.653167495240821
0.397629079594872,-0.653716143052264
0.396130782692431,-0.654192213539096
0.394654522888074,-0.65459613536896
0.393200198832079,-0.654928337209498
0.391767709174729,-0.655189247728353
0.390356952566302,-0.655379295593167
0.388967827657078,-0.655498909471583
0.387600233097339,-0.655548518031243
0.386254067537364,-0.655528549939791
0.384929229627432,-0.655439433864869
0.383625618017826,-0.65528159847412
0.382343131358823,-0.655055472435185
0.381081668300705,-0.654761484415708
0.379841127493752,-0.654400063083332
0.378621407588243,-0.653971637105698
0.377422407234459,-0.65347663515045
0.37624402508268,-0.65291548588523
0.375086159783186,-0.652288617977681
0.373948709986258,-0.651596460095446
0.372831574342175,-0.650839440906166
0.371734651501217,-0.650017989077485
0.370657840113665,-0.649132533277046
0.369601038829799,-0.64818350217249
0.368564146299898,-0.647171324431461
0.367547061174244,-0.646096428721601
0.366549682103116,-0.644959243710553
0.365571907736793,-0.643760198065959
0.364613636725558,-0.642499720455462
0.363674767719688,-0.641178239546705
0.362755199369465,-0.63979618400733
0.361854830325169,-0.63835398250498
0.36097355923708,-0.636852063707297
0.360111284755478,-0.635290856281924
0.359267905530642,-0.633670788896505
0.358443320212855,-0.63199229021868
0.357637427452394,-0.630255788916094
0.35685012589954,-0.628461713656387
0.356081314204575,-0.626610493107205
0.355330891017777,-0.624702555936188
0.354598754989426,-0.622738330810979
0.353884804769804,-0.620718246399221
0.35318893900919,-0.618642731368558
0.352511056357864,-0.61651221438663
0.351851055466106,-0.614327124121081
0.351208834984196,-0.612087889239554
0.350584293562415,-0.60979493840969
0.349977329851043,-0.607448700299134
0.34938784250036,-0.605049603575527
0.348815730160645,-0.602598076906512
0.34826089148218,-0.600094548959731
0.347723225115244,-0.597539448402828
0.347202629710116,-0.594933203903445
0.346699003917079,-0.592276244129224
0.346212246386411,-0.589568997747808
0.345742255768392,-0.58681189342684
0.345288930713303,-0.584005359833962
0.344852169871425,-0.581149825636816
0.344431871893036,-0.578245719503047
0.344027935428417,-0.575293470100296
0.343640259127849,-0.572293506096205
0.34326874164161,-0.569246256158418
0.342913281619983,-0.566152148954577
0.342573777713246,-0.563011613152325
0.34225012857168,-0.559825077419303
0.341942232845564,-0.556592970423156
0.34164998918518,-0.553315720831525
0.341373296240807,-0.549993757312053
0.341112052662725,-0.546627508532383
0.340866157101214,-0.543217403160157
0.340635508206555,-0.539763869863019
0.340420004629027,-0.53626733730861
0.340219545018911,-0.532728234164573
0.340034028026487,-0.529146989098551
0.339863352302035,-0.525524030778186
0.339707416495835,-0.521859787871121
0.339566119258167,-0.518154689044999
0.339439359239312,-0.514409162967463
0.339327035089549,-0.510623638306154
0.339229045459158,-0.506798543728716
0.33914528899842,-0.502934307902791
0.339075664357615,-0.499031359496021
0.339020070187024,-0.49509012717605
0.338978405136925,-0.491111039610521
0.338950567857599,-0.487094525467074
0.338936456999326,-0.483041013413354
0.338935971212387,-0.478950932117003
0.338949009147062,-0.474824710245663
0.33897546945363,-0.470662776466977
0.339015250782372,-0.466465559448588
0.339068251783568,-0.462233487858139
0.339134371107498,-0.457966990363271
0.339213507404443,-0.453666495631628
0.339305559324681,-0.449332432330852
0.339410425518494,-0.444965229128586
0.339528004636161,-0.440565314692472
0.339658195327963,-0.436133117690153
0.33980089624418,-0.431669066789272
0.339956006035092,-0.427173590657471
0.340123423350979,-0.422647117962394
0.340303046842121,-0.418090077371681
0.340494775158798,-0.413502897552977
0.34069850695129,-0.408886007173923
0.340914140869879,-0.404239834902163
0.341141575564842,-0.399564809405339
0.341380709686462,-0.394861359351093
0.341631441885017,-0.390129913407069
0.341893670810789,-0.385370900240909
0.342167295114056,-0.380584748520255
0.3424522134451,-0.375771886912749
0.3427483244542,-0.370932744086036
0.343055526791636,-0.366067748707757
0.34337371910769,-0.361177329445555
0.343702800052639,-0.356261914967073
0.344042668276766,-0.351321933939952
0.34439322243035,-0.346357815031837
0.344754361163671,-0.341369986910369
0.345125983127009,-0.33635887824319
0.345507986970644,-0.331324917697945
0.345900271344858,-0.326268533942275
0.346302734899928,-0.321190155643823
0.346715276286136,-0.316090211470231
0.347137794153762,-0.310969130089142
0.347570187153086,-0.305827340168199
0.348012353934388,-0.300665270375044
0.348464193147949,-0.29548334937732
0.348925603444047,-0.29028200584267
0.349396483472964,-0.285061668438737
0.34987673188498,-0.279822765833161
0.350366247330374,-0.274565726693588
0.350864928459428,-0.269290979687658
0.35137267392242,-0.263998953483015
0.351889382369631,-0.258690076747301
0.352414952451341,-0.25336477814816
0.352949282817831,-0.248023486353233
0.35349227211938,-0.242666630030162
0.354043819006269,-0.237294637846592
0.354603822128777,-0.231907938470164
0.355172180137185,-0.226506960568521
0.355748791681773,-0.221092132809306
0.356333555412821,-0.215663883860161
0.356926369980609,-0.210222642388729
0.357527134035418,-0.204768837062652
0.358135746227527,-0.199302896549573
0.358752105207216,-0.193825249517135
0.359376109624766,-0.188336324632981
0.360007658130457,-0.182836550564752
0.360646649374569,-0.177326355980092
0.361292982007381,-0.171806169546643
0.361946554679175,-0.166276419932048
0.362607266040231,-0.160737535803949
0.363275014740827,-0.15518994582999
0.363949699431245,-0.149634078677812
0.364631218761765,-0.144070363015058
0.365319471382666,-0.138499227509371
0.36601435594423,-0.132921100828394
0.366715771096735,-0.127336411639769
0.367423615490462,-0.121745588611138
0.368137787775692,-0.116149060410146
0.368858186602704,-0.110547255704432
0.369584710621779,-0.104940603161642
0.370317258483196,-0.0993295314494167
0.371055728837235,-0.0937144692353994
0.371800020334178,-0.0880958451872324
0.372550031624304,-0.0824740879725586
0.373305661357893,-0.0768496262590203
0.374066808185225,-0.0712228887142606
0.37483337075658,-0.0655943040059216
0.375605247722239,-0.0599643008016464
0.376382337732481,-0.054333307769077
0.377164539437587,-0.0487017535758567
0.377951751487837,-0.0430700668896276
0.378743872533511,-0.0374386763780327
0.379540801224889,-0.0318080107087143
0.380342436212251,-0.0261784985493153
0.381148676145878,-0.0205505685674779
0.381959419676049,-0.0149246494308454
0.382774565453044,-0.00930116980705961
0.383594012127144,-0.00368055836376391
0.384417658348629,0.00193675623139974
0.385245402767779,0.00755034531078821
0.386077144034874,0.0131597802067593
0.386912780800194,0.0187646322516699
0.38775221171402,0.024364472777878
0.388595335426631,0.0299588731177404
0.389442050588307,0.035547404603615
0.390292255849329,0.0411296385678586
0.391145849859977,0.0467051463428292
0.392002731270531,0.0522734992608836
0.392862798731271,0.0578342686543797
0.393725950892477,0.0633870258556745
0.394592086404429,0.0689313421971257
0.395461103917408,0.0744667890110903
0.396332902081693,0.0799929376299261
0.397207379547565,0.0855093593859901
0.398084434965303,0.09101562561164
0.398963966985189,0.0965113076392329
0.399845874257501,0.101995976801126
0.400730055432521,0.107469204429678
0.401616409160528,0.112930561857245
0.402504834091802,0.118379620416184
0.403395228876624,0.123815951438853
0.404287492165273,0.12923912625761
0.40518152260803,0.134648716204812
0.406077218855175,0.140044292612816
0.406974479556988,0.145425426813979
0.407873203363749,0.150791690140659
0.408773288925739,0.156142653925214
0.409674634893236,0.161477889500001
0.410577139916523,0.166796968197376
0.411480702645877,0.172099461349698
0.412385221731581,0.177384940289324
0.413290595823913,0.182652976348611
0.414196723573154,0.187903140859917
0.415103503629585,0.193135005155599
0.416010834643484,0.198348140568014
0.416918615265133,0.20354211842952
0.417826744144812,0.208716510072474
0.4187351199328,0.213870886829234
0.419643641279378,0.219004820032156
0.420552206834825,0.224117881013599
0.421460715249423,0.22920964110592
0.42236906517345,0.234279671641475
0.423277155257188,0.239327543952623
0.424184884150916,0.244352829371721
0.425092150504914,0.249355099231126
0.425998852969463,0.254333924863196
0.426904890194843,0.259288877600288
0.427810160831334,0.264219528774759
0.428714563529215,0.269125449718967
0.429617996938768,0.274006211765268
0.430520359710272,0.278861386246022
0.431421550494007,0.283690544493584
0.432321467940253,0.288493257840313
0.433220010699291,0.293269097618565
0.4341170774214,0.298017635160698
0.435012566756862,0.30273844179907
0.435906377355955,0.307431088866037
0.43679840786896,0.312095147693958
0.437688556946158,0.316730189615189
0.438576723237828,0.321335785962088
0.43946280539425,0.325911508067013
0.440346702065704,0.33045692726232
0.441228311902472,0.334971614880367
0.442107533554832,0.339455142253511
0.442984265673065,0.343907080714111
0.443858406907451,0.348327001594523
0.44472985590827,0.352714476227104
0.445598511325802,0.357069075944212
0.446464271810328,0.361390372078205
0.447327036012127,0.365677935961439
0.44818670258148,0.369931338926273
0.449043170168666,0.374150152305063
0.449896337423967,0.378333947430167
0.450746102997661,0.382482295633943
0.45159236554003,0.386594768248747
0.452435023701352,0.390670936606937
0.45327397613191,0.39471037204087
0.454109121481981,0.398712645882904
0.454940358401847,0.402677329465397
0.455767585541788,0.406603994120705
0.456590701552084,0.410492211181186
0.457409605083015,0.414341551979197
0.45822419478486,0.418151587847096
0.459034369307901,0.42192189011724
0.459840027302418,0.425652030121987
0.460641067418689,0.429341579193693
0.461437388306997,0.432990108664717
0.46222888861762,0.436597189867415
0.463015467000839,0.440162394134146
0.463797022106934,0.443685292797265
0.464573452586184,0.447165457189132
0.465344657088872,0.450602458642103
0.466110534265275,0.453995868488535
0.466870982765675,0.457345258060786
0.467625901240351,0.460650198691213
0.468375188339584,0.463910261712174
0.469118742713654,0.467125018456027
0.469856463012841,0.470294040255127
0.470588247887425,0.473416898441834
0.471313995987686,0.476493164348503
0.472033605963904,0.479522409307494
0.472746976466359,0.482504204651162
0.473454006145333,0.485438121711865
0.474154593651104,0.488323731821962
0.474848637633952,0.491160606313808
0.475536036744159,0.493948316519762
0.476216689632003,0.496686433772181
0.476890494947766,0.499374529403422
0.477557351341727,0.502012174745842
0.478217157464166,0.5045989411318
0.478869811965364,0.507134399893652
0.479515213495601,0.509618122363756
0.480153260705156,0.512049679874469
0.48078385224431,0.514428643758149
0.481406886763343,0.516754585347153
0.482022262912535,0.519027075973837
0.482629879342167,0.521245686970561
0.483229634702518,0.523409989669681
0.483821427643868,0.525519555403554
0.484405156816498,0.527573955504538
0.484980720870688,0.52957276130499
0.485548018456718,0.531515544137268
0.486106948224867,0.533401875333729
0.486657408825417,0.53523132622673
0.487199298908647,0.537003468148629
0.487732517124837,0.538717872431783
0.488256962124268,0.54037411040855
0.488772532557219,0.541971753411286
0.489279127073971,0.54351037277235
0.489776644324804,0.544989539824098
0.490264982959998,0.546408825898889
0.490744041629832,0.547767802329078
0.491213718984589,0.549066040447025
0.491673913674546,0.550303111585086
0.492124524349985,0.551478587075618
0.492565449661185,0.55259203825098
0.492996588258428,0.553643036443528
0.493417838791991,0.554631152985619
0.493829099912157,0.555555959209612
0.494230270269205,0.556417026447863
0.494621248513415,0.55721392603273
0.495001933295068,0.55794622929657
0.495372223264443,0.55861350757174
0.49573201707182,0.559215332190599
0.49608121336748,0.559751274485503
0.496419710801703,0.56022090578881
0.496747408024769,0.560623797432877
0.497064203686958,0.560959520750062
0.49736999643855,0.561227647072721
0.497664684929825,0.561427747733213
0.497948167811064,0.561559394063895
0.498220343732546,0.561622157397123
0.498481111344552,0.561615609065256
0.498730369297361,0.561539320400651
0.498968016241255,0.561392862735665
0.499193950826512,0.561175807402656
0.499408071703414,0.56088772573398
0.49961027752224,0.560528189061996
0.49980046693327,0.560096768719061
0.499978538586785,0.559593036037532
0.500144391133065,0.559016562349766
