-0.452909819492283,-0.985132312567803
-0.479679349176198,-0.928537105698311
-0.449334411980894,-0.966326199615193
-0.516290943596087,-0.875301740213746
-0.496827326496453,-0.839401814466988
-0.483148971978469,-0.824208411345682
-0.460175176149771,-0.793099511230795
-0.449084147625009,-0.798165814175771
-0.495600461850147,-0.723578720235897
-0.465755870208246,-0.712343168545986
-0.505863291157742,-0.67523330905546
-0.548259388379468,-0.661638051948892
-0.465444577139785,-0.569506070261609
-0.470575929262665,-0.561993676469361
-0.550087583029822,-0.53193226683125
-0.518149928933294,-0.529032666408456
-0.508115867186165,-0.469296537851976
-0.553495522972661,-0.502965655365537
-0.472073144507624,-0.479553009707222
-0.545349115563145,-0.47481755481289
-0.490040056333212,-0.42028861374061
-0.527105928464599,-0.42770517212969
-0.507233471786892,-0.355616174785565
-0.504502482558534,-0.331733364663959
-0.501398565803698,-0.308314050869054
-0.497935605325418,-0.28536683038072
-0.475457317200815,-0.28915559483572
-0.5101191207112,-0.265894505316043
-0.485531299580243,-0.219443698553828
-0.480771002238519,-0.198470821090462
-0.489019329234643,-0.131953503432478
-0.469629601606054,-0.108854071191008
-0.464807897175815,-0.138677045855319
-0.458972403819181,-0.119816063094818
-0.452902820966403,-0.101504546459704
-0.452354250168371,-0.0542522222694925
-0.475185132026896,-0.0960324132262947
-0.433428373461542,-0.0499527631053739
-0.461266731564752,-0.029869469404451
-0.37381012428229,0.000919054640535169
-0.377409397671511,0.0310776287490052
-0.40502747455974,0.0105688721662822
-0.397584992647015,0.0241751685230278
-0.361643166605265,-0.00467040065615919
-0.382386506818069,0.0494986474240373
-0.365122012910823,0.0259054127874243
-0.387787247737082,0.0400215051771321
-0.329427004235103,0.0771596679368079
-0.391104986872397,0.0603510713119091
-0.35034079135723,0.121542705129585
-0.335282507121669,0.109737191076676
-0.283126554905171,0.12188991093201
-0.270895042291952,0.146954436431858
-0.285642189777046,0.158705954067551
-0.310853897774531,0.0954365333331026
-0.295955122621029,0.140885376565967
-0.300361652649412,0.115447666167057
-0.280626461393678,0.148234631843295
-0.273103871543473,0.150779867508545
-0.242464837512897,0.169718356516831
-0.296430526374469,0.156712829469119
-0.301259932755594,0.119292669729486
-0.263897894908271,0.152139353982137
-0.23746368204849,0.151868246905904
-0.223920531947934,0.179700362461993
-0.211901677959721,0.130394206121617
-0.218157593065536,0.142901544125941
-0.212151870341758,0.138257772917013
-0.206384107424972,0.132772238267166
-0.23951465390593,0.0989037478886933
-0.1950964972155,0.1690894470524
-0.176080065688498,0.100197676188658
-0.136598149485581,0.0646157974922339
-0.139256326894797,0.123369688897185
-0.183085305159399,0.0736938719368545
-0.214987243725263,0.0695894861182881
-0.175616222259646,0.011970595318506
-0.20508193397183,0.0587377505277705
-0.211069846614035,0.0290923471069482
-0.2054850157741,0.0497434740480411
-0.123990678331164,0.0146096832768713
-0.207576975119793,-0.032868163413207
-0.158396136022869,-0.0372247168534627
-0.157863826574977,-0.0563683407013049
-0.157791617782612,-0.0764912796679619
-0.158193393448807,-0.0976021307333022
-0.157796878044061,-0.108778079163109
-0.127114909909443,-0.112856186105642
-0.144096606751115,-0.166911959412669
-0.116338773721267,-0.219895846196965
-0.167797971764356,-0.218275961835652
-0.122511401819982,-0.220716608216787
-0.175443627406668,-0.273761773262773
-0.180137095650548,-0.303085412392847
-0.216273527818307,-0.283977440033455
-0.235280096238464,-0.371646105178302
-0.216101584123042,-0.370338939625109
-0.246203313987231,-0.438393679778604
-0.246345866728834,-0.458969904052717
-0.252996040948209,-0.483687068094848
-0.195666750345327,-0.540534131228015
-0.237060388049364,-0.565555432201871
-0.239801110276918,-0.631068248728059
-0.203711751940857,-0.663175104916738
-0.258278248524455,-0.662519511181383
-0.263630421716171,-0.691026394059498
-0.269810722142631,-0.759349300596054
-0.296421417807653,-0.721118314982036
-0.27862005227703,-0.802833383414625
-0.237322670408843,-0.74956232205977
-0.247288877001135,-0.771615729786139
-0.277963156234534,-0.812790285278477
-0.299143351189969,-0.795501518811318
-0.237841289786184,-0.859348527013134
-0.250698140637572,-0.843623504275639
-0.264856265572323,-0.925709724882613
-0.274371339524351,-0.889096585714147
-0.235054355441182,-0.860958717583305
-0.268432181418074,-0.904265071579921
-0.264735291066831,-0.909664222370554
-0.223403494219714,-0.898248143929372
-0.256017823565086,-0.916249494421739
-0.22752562046609,-0.922498285831648
-0.290293374315091,-0.943216022466684
-0.246249722118072,-0.874798488370459
-0.240314763161145,-0.919320931508382
-0.239930940711137,-0.893362210163878
-0.213857009328356,-0.885154235543071
-0.204771207109699,-0.928800010094594
-0.207339579611813,-0.891026728355264
-0.183388912743432,-0.863233566840542
-0.192765411512513,-0.87308731130626
-0.210103188368934,-0.898855153553142
-0.189018839982418,-0.832587919065512
-0.169951786710496,-0.838474397487243
-0.124448821993854,-0.811799391352316
-0.18075909359978,-0.809949419104472
-0.136207726059295,-0.817207793730803
-0.174474777757289,-0.824073994380064
-0.138153815529526,-0.786415317578161
-0.12348852433501,-0.744626596303026
-0.14486667722395,-0.679809648558538
-0.0885525953912783,-0.686143450629881
-0.136730615298951,-0.672341683990315
-0.108561329844218,-0.681949480528336
-0.124192993815405,-0.676894325396984
-0.081198403137304,-0.664576476520359
-0.0742272992384533,-0.601272153952927
-0.0470371419021034,-0.530612346230148
-0.0383758618288547,-0.596412304433206
-0.0907038647908612,-0.486731368978023
-0.0315786781607608,-0.529685357134041
-0.0470154409969085,-0.482204898619264
-0.0347960452971962,-0.410192005148812
-0.0877046452103641,-0.422447555465906
0.000997776375650135,-0.430625208567227
-0.032544760372976,-0.379965730587181
-0.0752438069886313,-0.359308566414893
-0.0283184728906864,-0.327209172902236
-0.0237491044018273,-0.252452421353777
-0.00654541220484289,-0.259159423576647
-0.0708364397550144,-0.204538761821832
-0.0269314899610524,-0.219679348229954
-0.0282095009990313,-0.192560091504051
-0.07466025116074,-0.161782921779292
-0.0184797023407604,-0.120204098749725
-0.0363619449121344,-0.11113689520171
0.00139068226736767,-0.124521506276027
-0.0032171274710054,-0.036699760673713
-0.0310928181219106,-0.00694068182004567
-0.0846644080580691,0.0444474885567027
-0.0719017189933921,-0.0119559428951702
-0.0387176494031865,0.031533468272621
-0.0798299946142569,0.0792643625206965
-0.0943790812602345,0.100939572495992
-0.101477965301063,0.122622864773453
-0.0761484745731761,0.154442964416991
-0.108267579356249,0.160664347697802
-0.129946874527604,0.248335579067015
-0.1267179190082,0.195534212100115
-0.226199632439023,0.252732947472264
-0.172916265386588,0.254615181729112
-0.215777707542562,0.292927583337516
-0.236076819403293,0.314712125822428
-0.295197480380822,0.29743624482307
-0.280379290928337,0.356459497752326
-0.304435024911429,0.37635946529554
-0.28388568104152,0.404106092591531
-0.343227240726714,0.458150925712799
-0.384534465655663,0.431787322827624
-0.413654375863717,0.436158693801912
-0.444806163408183,0.464864880758858
-0.477082194939521,0.480147062744771
-0.503586326682149,0.528922155529391
-0.59376634706375,0.517397538628753
-0.582785266066526,0.520590049373076
-0.621065239151158,0.532165088636413
-0.660911665522587,0.542734764841893
-0.702350732340204,0.55226764703863
-0.760817092579225,0.530794243413406
