0.864245990328034,-0.632366838331318
0.415014500395251,0.602717130016539
-0.352028974851748,-0.813953333069381
-0.288955762024559,-0.432900154017944
-0.22588254919737,-0.0518469749665074
0.543797158517218,-0.99393657744337
-0.91203843151048,-0.991141342220512
