-0.457395241806106,0.365173670648771
-0.454713226989645,0.35819783701668
-0.45204146434814,0.351311896372104
-0.449379907531681,0.344515387899782
-0.446728510190354,0.337807850784456
-0.444087225974249,0.331188824210864
-0.441456008533452,0.324657847363747
-0.438834811518051,0.318214459427845
-0.436223588578136,0.311858199587898
-0.433622293363792,0.305588607028646
-0.431030879525109,0.299405220934829
-0.428449300712174,0.293307580491187
-0.425877510575074,0.28729522488246
-0.423315462763899,0.281367693293388
-0.420763110928735,0.275524524908712
-0.418220408719671,0.269765258913171
-0.415687309786795,0.264089434491505
-0.413163767780194,0.258496590828454
-0.410649736349956,0.252986267108759
-0.408145169146169,0.247558002517159
-0.405650019818921,0.242211336238395
-0.403164242018301,0.236945807457206
-0.400687789394395,0.231760955358332
-0.398220615597291,0.226656319126515
-0.395762674277078,0.221631437946493
-0.393313919083844,0.216685851003006
-0.390874303667676,0.211819097480796
-0.388443781678662,0.207030716564601
-0.38602230676689,0.202320247439162
-0.383609832582449,0.197687229289218
-0.381206312775424,0.193131201299511
-0.378811700995906,0.188651702654779
-0.376425950893982,0.184248272539764
-0.374049016119738,0.179920450139205
-0.371680850323264,0.175667774637841
-0.369321407154648,0.171489785220414
-0.366970640263976,0.167386021071663
-0.364628503301338,0.163356021376328
-0.36229494991682,0.15939932531915
-0.359969933760511,0.155515472084867
-0.357653408482499,0.151704000858221
-0.355345327732871,0.147964450823952
-0.353045645161715,0.144296361166798
-0.35075431441912,0.140699271071501
-0.348471289155173,0.137172719722801
-0.346196523019962,0.133716246305437
-0.343929969663575,0.13032939000415
-0.3416715827361,0.12701169000368
-0.339421315887625,0.123762685488766
-0.337179122768237,0.120581915644149
-0.334944957028024,0.117468919654569
-0.332718772317075,0.114423236704765
-0.330500522285477,0.111444405979478
-0.328290160583318,0.108531966663448
-0.326087640860686,0.105685457941415
-0.323892916767669,0.102904418998119
-0.321705941954355,0.100188389018301
-0.319526670070831,0.0975369071866988
-0.317355054767185,0.094949512688054
-0.315191049693506,0.0924257447071064
-0.313034608499882,0.089965142428596
-0.310885684836399,0.0875672450372629
-0.308744232353147,0.085231591717847
-0.306610204700212,0.0829577216550884
-0.304483555527683,0.0807451740337272
-0.302364238485648,0.0785934880385034
-0.300252207224194,0.0765022028541571
-0.298147415393409,0.0744708576654282
-0.296049816643382,0.0724989916570569
-0.293959364624201,0.0705861440137832
-0.291876012985952,0.068731853920347
-0.289799715378724,0.0669356605614885
-0.287730425452605,0.0651971031219478
-0.285668096857682,0.0635157207864648
-0.283612683244044,0.0618910527397796
-0.281564138261779,0.0603226381666323
-0.279522415560974,0.0588100162517628
-0.277487468791717,0.0573527261799113
-0.275459251604096,0.0559503071358176
-0.2734377176482,0.0546022983042221
-0.271422820574115,0.0533082388698646
-0.26941451403193,0.0520676680174852
-0.267412751671732,0.0508801249318239
-0.26541748714361,0.0497451487976208
-0.263428674097651,0.0486622787996159
-0.261446266183944,0.0476310541225494
-0.259470217052575,0.0466510139511611
-0.257500480353634,0.0457216974701912
-0.255537009737208,0.0448426438643797
-0.253579758853384,0.0440133923184666
-0.251628681352251,0.043233482017192
-0.249683730883897,0.0425024521452959
-0.247744861098409,0.0418198418875185
-0.245812025645875,0.0411851904285996
-0.243885178176383,0.0405980369532794
-0.241964272340022,0.0400579206462979
-0.240049261786879,0.0395643806923952
-0.238140100167041,0.0391169562763112
-0.236236741130597,0.038715186582786
-0.234339138327634,0.0383586107965598
-0.232447245408242,0.0380467681023724
-0.230561016022506,0.037779197684964
-0.228680403820516,0.0375554387290747
-0.226805362452358,0.0373750304194443
-0.224935845568122,0.0372375119408131
-0.223071806817895,0.037142422477921
-0.221213199851764,0.0370893012155081
-0.219359978319818,0.0370776873383144
-0.217512095872144,0.03710712003108
-0.215669506158831,0.0371771384785448
-0.213832162829966,0.037287281865449
-0.212000019535637,0.0374370893765327
-0.210173029925933,0.0376261001965357
-0.20835114765094,0.0378538535101982
-0.206534326360747,0.0381198885022603
-0.204722519705442,0.0384237443574619
-0.202915681335112,0.0387649602605431
-0.201113764899846,0.0391430753962441
-0.199316724049731,0.0395576289493046
-0.197524512434855,0.0400081601044649
-0.195737083705306,0.040494208046465
-0.193954391511172,0.041015311960045
-0.192176389502541,0.0415710110299447
-0.190403031329501,0.0421608444409045
-0.188634270642139,0.0427843513776641
-0.186870061090544,0.0434410710249638
-0.185110356324803,0.0441305425675435
-0.183355109995005,0.0448523051901433
-0.181604275751236,0.0456058980775032
-0.179857807243586,0.0463908604143633
-0.178115658122141,0.0472067313854636
-0.17637778203699,0.0480530501755441
-0.174644132638221,0.048929355969345
-0.172914663575921,0.0498351879516062
-0.171189328500179,0.0507700853070678
-0.169468081061082,0.0517335872204699
-0.167750874908718,0.0527252328765523
-0.166037663693175,0.0537445614600553
-0.164328401064542,0.0547911121557189
-0.162623040672904,0.0558644241482831
-0.160921536168352,0.0569640366224879
-0.159223841200972,0.0580894887630734
-0.157529909420853,0.0592403197547797
-0.155839694478082,0.0604160687823467
-0.154153150022747,0.0616162750305145
-0.152470229704936,0.0628404776840232
-0.150790887174737,0.0640882159276128
-0.149115076082238,0.0653590289460234
-0.147442750077527,0.0666524559239949
-0.145773862810692,0.0679680360462675
-0.144108367931819,0.0693053084975812
-0.142446219090999,0.0706638124626759
-0.140787369938317,0.0720430871262919
-0.139131774123863,0.0734426716731691
-0.137479385297723,0.0748621052880474
-0.135830157109987,0.0763009271556671
-0.134184043210741,0.0777586764607682
-0.132540997250074,0.0792348923880906
-0.130900972878074,0.0807291141223744
-0.129263923744827,0.0822408808483598
-0.127629803500424,0.0837697317507866
-0.12599856579495,0.0853152060143949
-0.124370164278494,0.0868768428239249
-0.122744552601145,0.0884541813641165
-0.121121684412989,0.0900467608197098
-0.119501513364115,0.0916541203754448
-0.11788399310461,0.0932757992160616
-0.116269077284563,0.0949113365263002
-0.114656719554061,0.0965602714909006
-0.113046873563193,0.098222143294603
-0.111439492962045,0.0998964911221473
-0.109834531400707,0.101582854158274
-0.108231942529265,0.103280771587722
-0.106631679997808,0.104989782595232
-0.105033697456424,0.106709426365545
-0.1034379485552,0.108439242083399
-0.101844386944225,0.110178768933536
-0.100252966273586,0.111927546100695
-0.0986636401933708,0.113685112769617
-0.0970763623536678,0.11545100812504
-0.0954910864045648,0.117224771351707
-0.0939077659961495,0.119005941634355
-0.0923263547785099,0.120794058157726
-0.0907468064017338,0.122588660106559
-0.0891690745159092,0.124389286665595
-0.0875931127711239,0.126195477019574
-0.0860188748174657,0.128006770353235
-0.0844463143050226,0.129822705851319
-0.0828753848838825,0.131642822698566
-0.0813060402041332,0.133466660079715
-0.0797382339158626,0.135293757179507
-0.0781719196691585,0.137123653182682
-0.076607051114109,0.13895588727398
-0.0750435819008018,0.140789998638141
-0.0734814656793249,0.142625526459905
-0.071920656099766,0.144462009924012
-0.0703611068122131,0.146298988215202
-0.0688027714667542,0.148136000518215
-0.0672456037134769,0.149972586017791
-0.0656895572024693,0.151808283898671
-0.0641345855838192,0.153642633345593
-0.0625806425076145,0.155475173543299
-0.0610276816239431,0.157305443676528
-0.0594756565828927,0.159132982930021
-0.0579245210345516,0.160957330488517
-0.0563742286290072,0.162778025536757
-0.0548247330163477,0.164594607259479
-0.0532759878466608,0.166406614841426
-0.0517279467700346,0.168213587467336
-0.0501805634365567,0.17001506432195
-0.0486337914963151,0.171810584590007
-0.0470875845993978,0.173599687456248
-0.0455418963958926,0.175381912105413
-0.0439966805358872,0.177156797722242
-0.0424518906694698,0.178923883491474
-0.040907480446728,0.180682708597851
-0.0393634035177499,0.182432812226111
-0.0378196135326232,0.184173733560995
-0.0362760641414359,0.185905011787244
-0.0347327089942758,0.187626186089596
-0.0331895017412309,0.189336795652792
-0.0316463960323889,0.191036379661573
-0.0301033455178379,0.192724477300678
-0.0285603038476656,0.194400627754847
-0.02701722467196,0.19606437020882
-0.0254740616408088,0.197715243847338
-0.0239307684043002,0.19935278785514
-0.0223872986125217,0.200976541416966
-0.0208436059155615,0.202586043717557
-0.0192996439635072,0.204180833941652
-0.017755366406447,0.205760451273992
-0.0162107268944685,0.207324434899316
-0.0146656790776597,0.208872324002365
-0.0131201766061085,0.210403657767879
-0.0115741731299027,0.211917975380598
-0.0100276222991303,0.213414816025261
-0.00848047776387905,0.214893718886609
-0.00693269317423688,0.216354223149381
-0.00538422218029174,0.217795867998319
-0.0038350184321314,0.219218192618162
-0.00228503557984384,0.220620736193649
-0.000734227273516817,0.222003037909522
0.000817452836761615,0.223364636950519
0.00237005110090375,0.224705072501382
0.00392361386882157,0.22602388374685
0.00547818749042732,0.227320609871663
0.007033818315633,0.228594790060561
0.00859055269435083,0.229845963498285
0.0101484369764928,0.231073669369574
0.0117075175119712,0.232277446859168
0.013267840650698,0.233456835151807
0.0148294527425855,0.234611373432232
0.0163924001375456,0.235740600885183
0.0179567291854905,0.236844056695399
0.0195224862363324,0.23792128004762
0.0210897176399834,0.238971810126588
0.0226584697463555,0.239995186117041
0.0242287889053609,0.240990947203719
0.0258007214669117,0.241958632571363
0.0273743137809201,0.242897781404714
0.0289496121972981,0.243807932888509
0.030526663065958,0.244688626207491
0.0321055127368117,0.245539400546399
0.0336862075597714,0.246359795089973
0.0352687938847492,0.247149349022952
0.0368533180616574,0.247907601530078
0.0384398264404078,0.24863409179609
0.0400283653709129,0.249328359005728
0.0416189812030844,0.249989942343732
0.0432117202868348,0.250618380994842
0.0448066289720759,0.251213214143799
0.0464037536087201,0.251773980975342
0.0480031405466794,0.252300220674211
0.0496048361358659,0.252791472425147
0.0512088867261916,0.253247275412889
0.0528153386675689,0.253667168822177
0.0544242383099097,0.254050691837752
0.0560356320031262,0.254397383644354
0.0576495660971305,0.254706783426722
0.0592660869418348,0.254978430369597
0.060885240887151,0.255211863657719
0.0625070742829915,0.255406622475827
0.0641316334792683,0.255562246008662
0.0657589648258934,0.255678273440964
0.0673891146727791,0.255754243957473
0.0690221293698374,0.255789696742928
0.0706580552669805,0.255784170982071
0.0722969387141205,0.255737205859641
0.0739388260611694,0.255648340560377
0.0755837636580396,0.255517114269021
0.0772317978546429,0.255343066170312
0.0788829750008917,0.25512573544899
0.0805373414466978,0.254864661289795
0.0821949435419736,0.254559382877468
0.0838558276366311,0.254209439396747
0.0855200400805825,0.253814370032375
0.0871876272237398,0.253373713969089
0.0888586354160152,0.252887010391631
0.0905331110073208,0.252353798484741
0.0922111003475687,0.251773617433157
0.093892649786671,0.251146006421622
0.0955778056745399,0.250470504634874
0.0972666143610875,0.249746651257654
0.0989591221962259,0.248973985474701
0.100655375529867,0.248152046470756
0.102355420711924,0.247280373430559
0.104059304092307,0.24635850553885
0.10576707202093,0.245385981980369
0.107478770847704,0.244362341939855
0.109194446922542,0.24328712460205
0.110914146595355,0.242159869151692
0.112637916216056,0.240980114773522
0.114365802134557,0.239747400652281
0.11609785070077,0.238461265972708
0.117834108264607,0.237121249919543
0.11957462117598,0.235726891677526
0.121319435784802,0.234277730431397
0.123068598440984,0.232773305365896
0.124822155494439,0.231213155665764
0.126580153295078,0.229596820515741
0.128342638192814,0.227923839100565
0.130109656537559,0.226193750604978
0.131881254679225,0.22440609421372
0.133657478967725,0.22256040911153
0.13543837575297,0.220656234483149
0.137223991384872,0.218693109513316
0.139014372213344,0.216670573386773
0.140809564588297,0.214588165288257
0.142609614859644,0.212445424402511
0.144414569377297,0.210241889914274
0.146224474491168,0.207977101008285
0.148039376551169,0.205650596869285
0.149859321907213,0.203261916682014
0.151684356909211,0.200810599631212
0.153514527907075,0.198296184901619
0.155349881250718,0.195718211677975
0.157190463290052,0.193076219145021
0.159036320374988,0.190369746487495
0.16088749885544,0.187598332890139
0.162744045081319,0.184761517537692
0.164606005402536,0.181858839614894
0.166473426169006,0.178889838306485
0.168346353730638,0.175854052797206
0.170224834437347,0.172751022271797
0.172108914639043,0.169580285914996
0.173998640685638,0.166341382911545
0.175894058927046,0.163033852446184
0.177795215713178,0.159657233703653
0.179702157393946,0.156211065868691
0.181614930319262,0.152694888126038
0.183533580839039,0.149108239660436
0.185458155303188,0.145450659656623
0.187388700061622,0.14172168729934
0.189325261464252,0.137920861773327
0.191267885860992,0.134047722263323
0.193216619601752,0.13010180795407
0.195171509036446,0.126082658030306
0.197132600514985,0.121989811676773
0.199099940387281,0.11782280807821
0.201073575003247,0.113581186419356
0.203053550712794,0.109264485884953
0.205039913865835,0.10487224565974
0.207032710812282,0.100404004928458
0.209031987902047,0.0958593028758454
0.211037791485042,0.0912376786866435
0.213050167911179,0.0865386715455917
0.215069163530371,0.0817618206374305
0.217094824692529,0.0769066651468996
0.219127197747565,0.0719727442587393
0.221166329045392,0.0669595971576894
0.223212264935922,0.0618667630284903
0.225265051769067,0.0566937810558816
0.227324735894739,0.0514401904246038
0.22939136366285,0.0461055303193964
0.231464981423313,0.040689339925
0.233545635526039,0.0351911584261542
0.23563337232094,0.0296105250075995
0.237728238157929,0.0239469788540754
0.239830279386918,0.0182000591503225
0.241939542357818,0.0123693050810803
0.244056073420543,0.00645425583108941
0.246179918925004,0.000454450585089278
0.248311125221113,-0.00563057147217949
0.250449738658782,-0.0118012711559774
0.252595805587924,-0.0180581092815638
0.25474937235845,-0.0244015466641993
0.256910485320273,-0.0308320441191433
0.259079190823305,-0.0373500624616562
0.261255535217458,-0.0439560625069974
0.263439564852644,-0.0506505050704276
0.265631326078776,-0.057433850967206
0.267830865245764,-0.0643065610125932
0.270038228703522,-0.0712690960218486
0.272253462801961,-0.0783219168102328
0.274476613890995,-0.085465484193005
0.276707728320534,-0.0927002589854258
0.27894685244049,-0.100026702002755
0.281194032600777,-0.107445274060252
0.283449315151306,-0.114956435973177
0.28571274644199,-0.122560648556791
