0.227124746650675,0.745728175318196
-0.762023288637484,0.128052995265257
0.246692046164569,-0.96980592586525
-0.573856075739668,-0.787814036029387
-1.3944041976439,-0.605822146193524
0.933948617681741,-0.0253795640693921
-0.134931022294103,0.180030864554217
