-0.989642427412555,0.511864908704447
-0.975529514990357,0.510233010336358
-0.961515364535882,0.508575924159713
-0.947599679981728,0.506893834180106
-0.933782165260494,0.50518692440313
-0.920062524304778,0.503455378834377
-0.906440461047177,0.501699381479442
-0.89291567942029,0.499919116343918
-0.879487883356715,0.498114767433396
-0.866156776789049,0.496286518753471
-0.852922063649892,0.494434554309736
-0.83978344787184,0.492559058107783
-0.826740633387492,0.490660214153207
-0.813793324129446,0.488738206451599
-0.800941224030301,0.486793219008553
-0.788184037022653,0.484825435829663
-0.775521467039102,0.482835040920521
-0.762953218012246,0.48082221828672
-0.750478993874681,0.478787151933854
-0.738098498559007,0.476730025867516
-0.725811435997822,0.474651024093299
-0.713617510123723,0.472550330616795
-0.701516424869309,0.470428129443599
-0.689507884167177,0.468284604579303
-0.677591591949927,0.4661199400295
-0.665767252150155,0.463934319799784
-0.65403456870046,0.461727927895747
-0.64239324553344,0.459500948322983
-0.630842986581694,0.457253565087085
-0.619383495777818,0.454985962193645
-0.608014477054411,0.452698323648258
-0.596735634344072,0.450390833456516
-0.585546671579398,0.448063675624012
-0.574447292692987,0.44571703415634
-0.563437201617438,0.443351093059093
-0.552516102285348,0.440966036337863
-0.541683698629316,0.438562047998243
-0.53093969458194,0.436139312045828
-0.520283794075817,0.43369801248621
-0.509715701043546,0.431238333324982
-0.499235119417725,0.428760458567737
-0.488841753130951,0.426264572220069
-0.478535306115824,0.42375085828757
-0.46831548230494,0.421219500775834
-0.458181985630899,0.418670683690454
-0.448134520026298,0.416104591037023
-0.438172789423735,0.413521406821133
-0.428296497755808,0.410921315048379
-0.418505348955116,0.408304499724353
-0.408799046954256,0.405671144854649
-0.399177295685827,0.403021434444859
-0.389639799082426,0.400355552500576
-0.380186261076652,0.397673683027395
-0.370816385601102,0.394976010030907
-0.361529876588375,0.392262717516707
-0.352326437971069,0.389533989490386
-0.343205773681782,0.386790009957539
-0.334167587653112,0.384030962923758
-0.325211583817656,0.381257032394637
-0.316337466108014,0.378468402375769
-0.307544938456783,0.375665256872746
-0.298833704796561,0.372847779891162
-0.290203469059946,0.37001615543661
-0.281653935179537,0.367170567514683
-0.273184807087931,0.364311200130974
-0.264795788717727,0.361438237291077
-0.256486584001522,0.358551863000584
-0.248256896871914,0.355652261265089
-0.240106431261502,0.352739616090185
-0.232034891102884,0.349814111481465
-0.224041980328658,0.346875931444521
-0.216127402871422,0.343925259984948
-0.208290862663773,0.340962281108337
-0.200532063638311,0.337987178820284
-0.192850709727632,0.335000137126379
-0.185246504864335,0.332001340032218
-0.177719152981019,0.328990971543392
-0.170268358010281,0.325969215665495
-0.16289382388472,0.32293625640412
-0.155595254536932,0.319892277764859
-0.148372353899517,0.316837463753308
-0.141224825905073,0.313771998375057
-0.134152374486197,0.310696065635701
-0.127154703575487,0.307609849540833
-0.120231517105543,0.304513534096045
-0.113382519008961,0.301407303306931
-0.10660741321834,0.298291341179084
-0.0999059036662777,0.295165831718097
-0.0932776942853724,0.292030958929564
-0.0867224890082222,0.288886906819076
-0.0802399917674251,0.285733859392229
-0.073829906495579,0.282572000654613
-0.0674919371252822,0.279401514611824
-0.0612257875891327,0.276222585269453
-0.0550311618197284,0.273035396633094
-0.0489077637496675,0.26984013270834
-0.0428552973115483,0.266636977500785
-0.0368734664379685,0.26342611501602
-0.0309619750615263,0.26020772925964
-0.0251205271148196,0.256982004237238
-0.0193488265304468,0.253749123954407
-0.0136465772410058,0.250509272416739
-0.00801348317909453,0.247262633629828
-0.00244924827731124,0.244009391599267
0.00304642353174606,0.240749730330649
0.00847382831547927,0.237483833829568
0.0138332621412904,0.234211886101616
0.0191250210765814,0.230934071152386
0.024349401188754,0.227650572987473
0.0295066985452104,0.224361575612468
0.0345972092133525,0.221067263032965
0.0396212292605821,0.217767819254556
0.0445790547543011,0.214463428282837
0.0494709817619117,0.211154274123398
0.0542973063508156,0.207840540781834
0.0590583245884148,0.204522412263737
0.0637543325421113,0.201200072574701
0.0683856262793068,0.197873705720319
0.0729525018674035,0.194543495706183
0.0774552553738032,0.191209626537888
0.081894182865908,0.187872282221026
0.0862695804111195,0.18453164676119
0.09058174407684,0.181187904163973
0.0948309699304713,0.177841238434969
0.0990175540394153,0.17449183357977
0.103141792471074,0.171139873603971
0.107203981292849,0.167785542513163
0.111204416572143,0.16442902431294
0.115143394376357,0.161070503008895
0.119021210772894,0.157710162606622
0.122838161829155,0.154348187111713
0.126594543612542,0.150984760529761
0.130290652190457,0.14762006686636
0.133926783630303,0.144254290127103
0.13750323399948,0.140887614317582
0.141020299365392,0.137520223443392
0.144478275795439,0.134152301510124
0.147877459357025,0.130784032523373
0.15121814611755,0.127415600488731
0.154500632144417,0.124047189411792
0.157725213505027,0.120678983298148
0.160892186266784,0.117311166153394
0.164001846497087,0.11394392198312
0.16705449026334,0.110577434792922
0.170050413632945,0.107211888588392
0.172989912673303,0.103847467375123
0.175873283451816,0.100484355158709
0.178700822035887,0.0971227359447414
0.181472824492917,0.093762793738815
0.184189586890307,0.0904047125465222
0.186851405295461,0.0870486763734561
0.18945857577578,0.08369486922521
0.192011394398666,0.080343475107377
0.19451015723152,0.0769946780255503
0.196955160341745,0.0736486619853228
0.199346699796743,0.0703056109922877
0.201685071663916,0.0669657090520382
0.203970572010665,0.0636291401701676
0.206203496904393,0.0602960883522685
0.208384142412501,0.0569667376039344
0.210512804602391,0.0536412719307584
0.212589779541466,0.0503198753383337
0.214615363297127,0.0470027318322531
0.216589851936776,0.0436900254181099
0.218513541527816,0.0403819401014975
0.220386728137647,0.0370786598880086
0.222209707833672,0.0337803687832365
0.223982776683294,0.0304872507927742
0.225706230753913,0.0271994899222151
0.227380366112932,0.0239172701771522
0.229005478827753,0.0206407755631784
0.230581864965777,0.0173701900858871
0.232109820594407,0.0141056977508714
0.233589641781044,0.0108474825637242
0.235021624593091,0.00759572853003888
0.23640606509795,0.00435061965540841
0.237743259363021,0.00111233994542602
0.239033503455708,-0.00211892659431527
0.240277093443412,-0.0053429959582223
0.241474325393536,-0.00855968414070199
0.24262549537348,-0.0117688071361611
0.243730899450647,-0.0149701809390065
0.24479083369244,-0.0181636215436452
0.245805594166259,-0.0213489449444841
0.246775476939507,-0.02452596713593
0.247700778079586,-0.0276945041123896
0.248581793653897,-0.0308543718682701
0.249418819729843,-0.0340053863979782
0.250212152374826,-0.0371473636959208
0.250962087656247,-0.0402801197565048
0.251668921641509,-0.043403470574137
0.252332950398013,-0.0465172321432245
0.252954469993161,-0.0496212204581738
0.253533776494355,-0.0527152515133921
0.254071165968998,-0.0557991413032861
0.254566934484491,-0.0588727058222628
0.255021378108235,-0.061935761064729
0.255434792907634,-0.0649881230250916
0.255807474950089,-0.0680296076977575
0.256139720303001,-0.0710600310771336
0.256431825033773,-0.0740792091576265
0.256684085209807,-0.0770869579336436
0.256896796898505,-0.0800830933995913
0.257070256167268,-0.0830674315498768
0.257204759083499,-0.0860397883789067
0.257300601714599,-0.0889999798810881
0.257358080127971,-0.0919478220508277
0.257377490391016,-0.0948831308825326
0.257359128571136,-0.0978057223706094
0.257303290735733,-0.100715412509465
0.25721027295221,-0.103612017293507
0.257080371287967,-0.106495352717141
0.256913881810408,-0.109365234774775
0.256711100586933,-0.112221479460815
0.256472323684945,-0.115063902769669
0.256197847171847,-0.117892320695743
0.255887967115038,-0.120706549233443
0.255542979581923,-0.123506404377178
0.255163180639902,-0.126291702121354
0.254748866356378,-0.129062258460377
0.254300332798752,-0.131817889388655
0.253817876034427,-0.134558410900594
0.253301792130803,-0.137283638990602
0.252752377155285,-0.139993389653085
0.252169927175272,-0.142687478882449
0.251554738258168,-0.145365722673103
0.250907106471373,-0.148027937019453
0.250227327882291,-0.150673937915905
0.249515698558323,-0.153303541356867
0.24877251456687,-0.155916563336746
0.247998071975336,-0.158512819849948
0.247192666851121,-0.16109212689088
0.246356595261627,-0.163654300453949
0.245490153274258,-0.166199156533562
0.244593636956414,-0.168726511124126
0.243667342375497,-0.171236180220047
0.24271156559891,-0.173727979815734
0.241726602694055,-0.176201725905591
0.240712749728332,-0.178657234484027
0.239670302769145,-0.181094321545449
0.238599557883895,-0.183512803084262
0.237500811139984,-0.185912495094875
0.236374358604815,-0.188293213571693
0.235220496345788,-0.190654774509124
0.234039520430306,-0.192996993901575
0.232831726925771,-0.195319687743452
0.231597411899585,-0.197622672029162
0.230336871419149,-0.199905762753113
0.229050401551866,-0.202168775909711
0.227738298365138,-0.204411527493363
0.226400857926366,-0.206633833498476
0.225038376302953,-0.208835509919456
0.2236511495623,-0.211016372750712
0.22223947377181,-0.213176237986648
0.220803644998883,-0.215314921621673
0.219343959310923,-0.217432239650194
0.217860712775331,-0.219528008066616
0.21635420145951,-0.221602042865348
0.21482472143086,-0.223654160040795
0.213272568756784,-0.225684175587365
0.211698039504684,-0.227691905499465
0.210101429741961,-0.229677165771502
0.208483035536019,-0.231639772397882
0.206843152954258,-0.233579541373012
0.205182078064081,-0.235496288691299
0.203500106932889,-0.23738983034715
0.201797535628085,-0.239259982334972
0.200074660217071,-0.241106560649172
0.198331776767247,-0.242929381284157
0.196569181346017,-0.244728260234333
0.194787170020782,-0.246503013494108
0.192986038858945,-0.248253457057888
0.191166083927906,-0.24997940692008
0.189327601295069,-0.251680679075091
0.187470887027834,-0.253357089517328
0.185596237193604,-0.255008454241198
0.183703947859782,-0.256634589241108
0.181794315093767,-0.258235310511464
0.179867634962964,-0.259810434046674
0.177924203534773,-0.261359775841144
0.175964316876597,-0.262883151889281
0.173988271055838,-0.264380378185492
0.171996362139897,-0.265851270724184
0.169988886196176,-0.267295645499764
0.167966139292077,-0.268713318506639
0.165928417495003,-0.270104105739215
0.163876016872355,-0.2714678231919
0.161809233491535,-0.2728042868591
0.159728363419945,-0.274113312735222
0.157633702724987,-0.275394716814674
0.155525547474064,-0.276648315091861
0.153404193734576,-0.277873923561191
0.151269937573925,-0.279071358217071
0.149123075059515,-0.280240435053908
0.146963902258746,-0.281380970066108
0.144792715239021,-0.282492779248078
0.142609810067741,-0.283575678594225
0.140415482812309,-0.284629484098957
0.138210029540126,-0.28565401175668
0.135993746318594,-0.2866490775618
0.133766929215116,-0.287614497508725
0.131529874297093,-0.288550087591862
0.129282877631927,-0.289455663805618
0.12702623528702,-0.290331042144398
0.124760243329775,-0.291176038602611
0.122485197827592,-0.291990469174663
0.120201394847874,-0.292774149854961
0.117909130458023,-0.293526896637912
0.115608700725441,-0.294248525517923
0.113300401717529,-0.2949388524894
0.11098452950169,-0.295597693546751
0.108661380145326,-0.296224864684382
0.106331249715838,-0.296820181896701
0.103994434280628,-0.297383461178114
0.101651229907099,-0.297914518523027
0.0993019326626521,-0.298413169925849
0.0969468386146896,-0.298879231380985
0.0945862438306131,-0.299312518882843
0.0922204443778248,-0.29971284842583
0.0898497363237265,-0.300080036004351
0.0874744157357203,-0.300413897612816
0.0850947786812078,-0.300714249245629
0.0827111212275914,-0.300980906897198
0.0803237394422725,-0.30121368656193
0.0779329293926536,-0.301412404234232
0.0755389871461361,-0.301576875908511
0.0731422087701224,-0.301706917579173
0.0707428903320141,-0.301802345240626
0.0683413278992133,-0.301862974887276
0.0659378175391219,-0.30188862251353
0.0635326553191418,-0.301879104113795
0.061126137306675,-0.301834235682478
0.0587185595691234,-0.301753833213986
0.0563102181738888,-0.301637712702726
0.0539014091883735,-0.301485690143104
0.051492428679979,-0.301297581529528
0.0490835727161076,-0.301073202856404
0.0466751373641609,-0.300812370118139
0.0442674186915412,-0.30051489930914
0.0418607127656501,-0.300180606423814
0.0394553156538897,-0.299809307456568
0.0370515234236619,-0.299400818401808
0.0346496321423688,-0.298954955253943
0.032249937877412,-0.298471534007377
0.0298527366961937,-0.297950370656519
0.0274583246661157,-0.297391281195775
0.0250669978545801,-0.296794081619552
0.0226790523289886,-0.296158587922258
0.0202947841567434,-0.295484616098298
0.0179144894052461,-0.29477198214208
0.015538464141899,-0.29402050204801
0.0131670044341038,-0.293229991810496
0.0108004063492625,-0.292400267423944
0.00843896595477701,-0.291531144882761
0.00608297931804936,-0.290622440181355
0.00373274250648134,-0.289673969314131
0.00138855158747503,-0.288685548275497
-0.000949297371567806,-0.28765699305986
-0.00328050830324502,-0.286588119661627
-0.0056047851401549,-0.285478744075204
-0.00792183181489531,-0.284328682294999
-0.0102313522600645,-0.283137750315417
-0.0125330504082603,-0.281905764130867
-0.0148266301920811,-0.280632539735755
-0.0171117955441246,-0.279317893124488
-0.0193882503969892,-0.277961640291472
-0.0216556986832727,-0.276563597231115
-0.0239138443355733,-0.275123579937824
-0.026162391286489,-0.273641404406005
-0.0284010434686181,-0.272116886630065
-0.0306295048145583,-0.270549842604411
-0.0328474792569079,-0.268940088323451
-0.0350546707282648,-0.26728743978159
-0.0372507831612273,-0.265591712973236
-0.0394355204883932,-0.263852723892796
-0.0416085866423608,-0.262070288534676
-0.043769685555728,-0.260244222893283
-0.045918521161093,-0.258374342963025
-0.0480547973910537,-0.256460464738308
-0.0501782181782083,-0.254502404213539
-0.0522884874551548,-0.252499977383125
-0.0543853091544914,-0.250453000241473
-0.0564683872088159,-0.248361288782989
-0.0585374255507266,-0.246224659002081
-0.0605921281128214,-0.244042926893155
-0.0626321988276986,-0.241815908450619
-0.0646573416279559,-0.239543419668878
-0.0666672604461917,-0.237225276542341
-0.0686616592150039,-0.234861295065414
-0.0706402418669907,-0.232451291232503
-0.0726027123347499,-0.229995081038016
-0.0745487745508799,-0.22749248047636
-0.0764781324479785,-0.224943305541941
-0.078390489958644,-0.222347372229167
-0.0802855510154742,-0.219704496532443
-0.0821630195510673,-0.217014494446178
-0.0840225994980214,-0.214277181964778
-0.0858639947889346,-0.211492375082649
-0.0876869093564047,-0.208659889794199
-0.0894910471330301,-0.205779542093835
-0.0894910471330301,-0.205779542093835
-0.0912693201445331,-0.202897194802255
-0.0930149130062565,-0.20005861246039
-0.0947279385352288,-0.197263463642998
-0.0964085095484787,-0.194511416924836
-0.0980567388630347,-0.191802140880661
-0.0996727392959253,-0.189135304085229
-0.101256623664179,-0.186510575113298
-0.102808504784825,-0.183927622539625
-0.10432849547489,-0.181386114938965
-0.105816708551405,-0.178885720886078
-0.107273256831397,-0.176426108955718
-0.108698253131895,-0.174006947722644
-0.110091810269928,-0.171627905761612
-0.111454041062524,-0.169288651647379
-0.112785058326711,-0.166988853954702
-0.114084974879519,-0.164728181258339
-0.115353903537975,-0.162506302133045
-0.116591957119109,-0.160322885153579
-0.117799248439949,-0.158177598894696
-0.118975890317523,-0.156070111931154
-0.12012199556886,-0.15400009283771
-0.121237677010988,-0.151967210189121
-0.122323047460937,-0.149971132560143
-0.123378219735735,-0.148011528525534
-0.124403306652409,-0.146088066660051
-0.12539842102799,-0.14420041553845
-0.126363675679504,-0.142348243735488
-0.127299183423982,-0.140531219825923
-0.128205057078451,-0.138749012384512
-0.12908140945994,-0.13700128998601
-0.129928353385478,-0.135287721205176
-0.130746001672093,-0.133607974616766
-0.131534467136814,-0.131961718795538
-0.132293862596669,-0.130348622316247
-0.133024300868686,-0.128768353753651
-0.133725894769895,-0.127220581682508
-0.134398757117324,-0.125704974677573
-0.135043000728002,-0.124221201313604
-0.135658738418956,-0.122768930165358
-0.136246083007216,-0.121347829807592
-0.13680514730981,-0.119957568815063
-0.137336044143767,-0.118597815762527
-0.137838886326116,-0.117268239224742
-0.138313786673884,-0.115968507776464
-0.1387608580041,-0.114698289992451
-0.139180213133794,-0.113457254447459
-0.139571964879992,-0.112245069716246
-0.139936226059725,-0.111061404373567
-0.140273109490021,-0.109905926994182
-0.140582727987908,-0.108778306152845
-0.140865194370414,-0.107678210424315
-0.141120621454569,-0.106605308383348
-0.141349122057401,-0.1055592686047
-0.141550808995938,-0.10453975966313
-0.141725795087209,-0.103546450133394
-0.141874193148242,-0.102579008590249
-0.141996115996067,-0.101637103608451
-0.142091676447711,-0.100720403762758
-0.142160987320203,-0.0998285776279275
-0.142204161430573,-0.0989612937787152
-0.142221311595847,-0.0981182207898786
-0.142212550633055,-0.0972990272361745
-0.142177991359226,-0.0965033816923599
-0.142117746591388,-0.0957309527331918
-0.142031929146569,-0.0949814089334272
-0.141920651841799,-0.0942544188678228
-0.141784027494105,-0.0935496511111358
-0.141622168920516,-0.0928667742381231
-0.141435188938061,-0.0922054568235415
-0.141223200363769,-0.0915653674421481
-0.140986316014667,-0.0909461746686997
-0.140724648707785,-0.0903475470779534
-0.14043831126015,-0.089769153244666
-0.140127416488793,-0.0892106617435946
-0.13979207721074,-0.0886717411494961
-0.139432406243021,-0.0881520600371273
-0.139048516402665,-0.0876512869812454
-0.138640520506699,-0.0871690905566071
-0.138208531372152,-0.0867051393379695
-0.137752661816054,-0.0862591019000895
-0.137273024655431,-0.085830646817724
-0.136769732707314,-0.08541944266563
-0.136242898788731,-0.0850251580185644
-0.135692635716709,-0.0846474614512843
-0.135119056308279,-0.0842860215385464
-0.134522273380467,-0.0839405068551079
-0.133902399750303,-0.0836105859757255
-0.133259548234816,-0.0832959274751563
-0.132593831651034,-0.0829961999281573
-0.131905362815985,-0.0827110719094852
-0.131194254546698,-0.0824402119938972
-0.130460619660202,-0.0821832887561501
-0.129704570973525,-0.0819399707710009
-0.128926221303696,-0.0817099266132066
-0.128125683467742,-0.081492824857524
-0.127303070282694,-0.0812883340787102
-0.126458494565579,-0.081096122851522
-0.125592069133427,-0.0809158597507165
-0.124703906803264,-0.0807472133510505
-0.123794120392121,-0.0805898522272811
-0.122862822717025,-0.0804434449541651
-0.121910126595006,-0.0803076601064595
-0.120936144843091,-0.0801821662589213
-0.119940990278309,-0.0800666319863073
-0.11892477571769,-0.0799607258633747
-0.11788761397826,-0.0798641164648801
-0.11682961787705,-0.0797764723655807
-0.115750900231087,-0.0796974621402335
-0.114651573857401,-0.0796267543635952
-0.113531751573019,-0.0795640176104229
-0.11239154619497,-0.0795089204554735
-0.111231070540283,-0.079461131473504
-0.110050437425986,-0.0794203192392713
-0.108849759669108,-0.0793861523275323
-0.107629150086678,-0.079358299313044
-0.106388721495723,-0.0793364287705634
-0.105128586713273,-0.0793202092748474
-0.103848858556356,-0.0793093094006529
-0.102549649842001,-0.0793033977227369
-0.101231073387236,-0.0793021428158563
-0.0998932420090901,-0.0793052132547682
-0.0985362685245912,-0.0793122776142293
-0.0971602657507683,-0.0793230044689966
-0.0957653465046498,-0.0793370623938272
-0.0943516236032643,-0.079354119963478
-0.0929192098636403,-0.0793738457527059
-0.0914682181028065,-0.0793959083362678
-0.0899987611377914,-0.0794199762889207
-0.0885109517856235,-0.0794457181854215
-0.0870049028633314,-0.0794728026005273
-0.0854807271879436,-0.0795008981089948
-0.0839385375764888,-0.0795296732855812
-0.0823784468459954,-0.0795587967050432
-0.080800567813492,-0.0795879369421379
-0.0792050132960072,-0.0796167625716223
-0.0775918961105696,-0.0796449421682532
-0.0759613290742077,-0.0796721443067876
-0.07431342500395,-0.0796980375619825
-0.0726482967168251,-0.0797222905085948
-0.0709660570298617,-0.0797445717213814
-0.0692668187600882,-0.0797645497750993
-0.067550694724533,-0.0797818932445054
-0.065817797740225,-0.0797962707043567
-0.0640682406241926,-0.0798073507294102
-0.0623021361934643,-0.0798148018944227
-0.0605195972650688,-0.0798182927741513
-0.0587207366560345,-0.0798174919433527
-0.0569056671833901,-0.0798120679767842
-0.055074501664164,-0.0798016894492025
-0.0532273529153849,-0.0797860249353645
-0.0513643337540813,-0.0797647430100273
-0.0494855569972818,-0.0797375122479479
-0.0475911354620149,-0.079704001223883
-0.0456811819653091,-0.0796638785125897
-0.0437558093241931,-0.079616812688825
-0.0418151303556955,-0.0795624723273457
-0.0398592578768447,-0.0795005260029089
-0.0378883047046692,-0.0794306422902715
-0.0359023836561977,-0.0793524897641903
-0.0339016075484588,-0.0792657369994224
-0.031886089198481,-0.0791700525707248
-0.0298559414232927,-0.0790651050528542
-0.0278112770399227,-0.0789505630205678
-0.0257522088653995,-0.0788260950486224
-0.0236788497167515,-0.078691369711775
-0.0215913124110075,-0.0785460555847825
-0.0194897097651958,-0.0783898212424019
-0.0173741545963452,-0.0782223352593902
-0.0152447597214841,-0.0780432662105042
-0.013101637957641,-0.0778522826705009
-0.0109449021218447,-0.0776490532141373
-0.0087746650311236,-0.0774332464161703
-0.00659103950250628,-0.0772045308513569
-0.00439413835302124,-0.0769625750944539
-0.0021840743996971,-0.0767070477202184
3.90395404375465e-05,-0.0764376173034073
0.00227509065035418,-0.0761539524187775
0.0045239661130243,-0.075855721641086
0.00678555311141932,-0.0755425935450898
0.00905973882851058,-0.0752142367055457
0.0113464104472696,-0.0748703196972107
0.0136454551506679,-0.0745105110948418
0.0159567601216768,-0.0741344794731959
0.0182802125432678,-0.07374189340703
0.0206156995984123,-0.073332421471101
0.0229631084700818,-0.0729057322401658
0.0253223263412477,-0.0724614942889814
0.0276932403948815,-0.0719993761923048
0.0300757378139545,-0.0715190465248929
0.0324697057814384,-0.0710201738615026
0.0348750314803044,-0.0705024267768908
0.037291602093524,-0.0699654738458146
0.0397193048040687,-0.0694089836430309
0.0421580267949099,-0.0688326247432966
0.0446076552490191,-0.0682360657213686
0.0470680773493676,-0.067618975152004
0.049539180278927,-0.0669810216099596
0.0520208512206687,-0.0663218736699924
0.0545129773575641,-0.0656411999068593
0.0570154458725846,-0.0649386688953174
0.0595281439487019,-0.0642139492101234
0.062050958768887,-0.0634667094260345
0.0645837775161118,-0.0626966181178074
0.0671264873733474,-0.0619033438601993
0.0696789755235654,-0.061086555227967
0.0722411291497372,-0.0602459207958674
0.0748128354348344,-0.0593811091386576
0.0773939815618281,-0.0584917888310944
0.0799844547136902,-0.0575776284479348
0.0825841420733916,-0.0566382965639358
0.0851929308239043,-0.0556734617538542
0.0878107081481992,-0.0546827925924471
0.0904373612292483,-0.0536659576544714
0.0930727772500225,-0.052622625514684
0.0957168433934937,-0.0515524647478419
0.0983694468426329,-0.050455143928702
0.101030474780412,-0.0493303316320213
0.103699814389802,-0.0481776964325567
0.106377352853775,-0.0469969069050651
0.109062977355302,-0.0457876316243036
0.111756575077354,-0.044549539165029
0.114458033202903,-0.0432822981019983
0.11716723891492,-0.0419855770099685
0.119884079396377,-0.0406590444636964
0.122608441830246,-0.0393023690379391
0.125340213399497,-0.0379152193074535
0.128079281287102,-0.0364972638469964
0.130825532676033,-0.035048171231325
0.133578854749261,-0.0335676100351961
0.136339134689757,-0.0320552488333666
0.139106259680493,-0.0305107562005936
0.14188011690444,-0.0289338007116339
0.144660593544571,-0.0273240509412445
0.147447576783855,-0.0256811754641824
0.150240953805265,-0.0240048428552044
0.153040611791772,-0.0222947216890676
0.155846437926347,-0.0205504805405288
0.158658319391963,-0.0187717879843452
0.16147614337159,-0.0169583125952735
0.1642997970482,-0.0151097229480707
0.167129167604764,-0.0132256876174938
0.169964142224254,-0.0113058751782997
0.172804608089641,-0.00934995420524522
0.175650452383896,-0.00735759327308762
0.178501562289992,-0.00532846095658356
0.181357824990899,-0.00326222583049021
0.18421912766959,-0.00115855646956431
0.187085357509034,0.000982878551437
0.189956401692205,0.00316241065775702
0.192832147402072,0.00538037127463854
0.195712481821609,0.0076370918273248
0.198597292133785,0.00993290374105875
0.201486465521574,0.0122681384410835
0.204379889167945,0.014643127352642
0.207277450255871,0.0170582019009776
0.210179035968322,0.019513693511333
0.213084533488271,0.0220099336089515
0.215993829998689,0.0245472536190759
0.218906812682547,0.0271259849669496
0.221823368722817,0.0297464590778152
0.22474338530247,0.0324090073769162
0.227666749604478,0.0351139612894954
0.230593348811811,0.0378616522407961
0.233523070107442,0.0406524116560609
0.236455800674342,0.0434865709605334
0.239391427695483,0.0463644615794562
0.242329838353835,0.0492864149380727
0.24527091983237,0.0522527624616256
0.24821455931406,0.0552638355753583
0.251160643981876,0.0583199657045136
0.25410906101879,0.0614214842743348
0.257059697607773,0.0645687227100646
0.260012440931796,0.0677620124369466
0.262967178173831,0.0710016848802232
0.26592379651685,0.0742880714651379
0.268882183143823,0.0776215036169336
0.271842225237722,0.0810023127608535
0.274803809981519,0.0844308303221404
0.277766824558186,0.0879073877260376
0.280731156150692,0.0914323163977879
0.283696691942011,0.0950059477626347
0.286663319115113,0.0986286132458206
0.28963092485297,0.102300644272589
0.292599396338554,0.106022372268183
0.295568620754835,0.109794128657846
0.298538485284785,0.113616244866819
0.301508877111376,0.117489052320348
0.304479683417579,0.121412882443674
0.307450791386366,0.125388066662042
0.310422088200707,0.129414936400692
0.313393461043575,0.13349382308487
0.316364797097941,0.137625058139818
0.319335983546776,0.141808972990778
0.322306907573052,0.146045899062995
0.32527745635974,0.150336167781711
0.328247517089811,0.154680110572168
0.331216976946238,0.159078058859611
0.334185723111991,0.163530344069282
0.337153642770043,0.168037297626425
0.340120623103363,0.172599250956281
0.343086551294924,0.177216535484095
0.346051314527698,0.18188948263511
0.349014799984656,0.186618423834568
0.351976894848768,0.191403690507712
0.354937486303007,0.196245614079787
0.357896461530344,0.201144525976034
0.360853707713751,0.206100757621696
0.363809112036199,0.211114640442017
0.366762561680659,0.216186505862241
0.369713943830102,0.221316685307609
0.372663145667502,0.226505510203365
0.375610054375827,0.231753311974752
0.378554557138051,0.237060422047012
0.381496541137145,0.24242717184539
0.384435893556079,0.247853892795129
0.387372501577826,0.25334091632147
0.390306252385357,0.258888573849658
0.393237033161643,0.264497196804935
0.396164731089657,0.270167116612544
0.399089233352368,0.275898664697729
0.402010427132749,0.281692172485732
0.404928199613771,0.287547971401797
0.407842437978406,0.293466392871166
0.410753029409624,0.299447768319083
0.413659861090398,0.305492429170791
0.416562820203699,0.311600706851532
0.419461793932499,0.31777293278655
0.422356669459768,0.324009438401088
0.425247333968478,0.330310555120389
0.428133674641601,0.336676614369696
0.431015578662108,0.343107947574252
0.433892933212971,0.3496048861593
0.436765625477161,0.356167761550083
0.439633542637649,0.362796905171844
0.442496571877407,0.369492648449827
0.445354600379406,0.376255322809274
0.448207515326618,0.383085259675428
0.451055203902014,0.389982790473532
0.453897553288566,0.39694824662883
0.456734450669245,0.403981959566565
0.459565783227022,0.411084260711979
0.46239143814487,0.418255481490315
0.465211302605759,0.425495953326818
0.46802526379266,0.432806007646729
0.470833208888546,0.440185975875292
0.473635025076388,0.447636189437749
0.476430599539157,0.455156979759345
0.479219819459824,0.462748678265321
0.482002572021362,0.470411616380921
0.484778744406741,0.478146125531389
0.487548223798933,0.485952537141966
0.49031089738091,0.493831182637897
0.493066652335642,0.501782393444424
0.495815375846101,0.50980650098679
0.49855695509526,0.517903836690239
0.501291277266088,0.526074731980012
0.504018229541558,0.534319518281355
0.506737699104641,0.542638527019508
0.509449573138309,0.551032089619717
0.512153738825532,0.559500537507222
0.514850083349283,0.568044202107269
0.517538493892533,0.576663414845099
0.520218857638253,0.585358507145956
0.522891061769414,0.594129810435083
0.525554993468989,0.602977656137723
0.528210539919948,0.611902375679118
0.530857588305264,0.620904300484513
0.533496025807907,0.629983761979149
0.536125739610849,0.639141091588271
0.53874661689706,0.64837662073712
0.541358544849514,0.657690680850941
0.543961410651182,0.667083603354976
0.546555101485034,0.676555719674469
0.549139504534041,0.686107361234661
0.551714506981177,0.695738859460798
0.554279996009411,0.70545054577812
0.556835858801716,0.715242751611872
0.559381982541063,0.725115808387297
0.561918254410423,0.735070047529637
0.564444561592768,0.745105800464136
0.56696079127107,0.755223398616037
0.569466830628298,0.765423173410582
0.571962566847426,0.775705456273016
0.574447887111425,0.78607057862858
0.576922678603265,0.796518871902518
0.579386828505919,0.807050667520073
0.581840224002358,0.817666296906488
0.584282752275553,0.828366091487006
0.586714300508476,0.839150382686871
0.589134755884098,0.850019501931324
0.59154400558539,0.86097378064561
0.593941936795325,0.872013550254971
0.596328436696873,0.883139142184651
0.598703392473007,0.894350887859892
0.601066691306696,0.905649118705938
0.603418220380914,0.91703416614803
0.605757866878631,0.928506361611415
0.608085517982818,0.940066036521332
0.610401060876448,0.951713522303026
