0.924752963359417,-0.0381270585239717
0.911679124282929,-0.0370454929256336
0.898719096391136,-0.0359716299743089
0.885872416537077,-0.034905471230353
0.873138621573794,-0.0338470182541214
0.860517248354327,-0.0327962726059692
0.848007833731715,-0.031753235846252
0.835609914558998,-0.030717909535325
0.823323027689219,-0.0296902952335437
0.811146709975415,-0.0286703945012635
0.799080498270628,-0.0276582088988395
0.787123929427898,-0.0266537399866274
0.775276540300265,-0.0256569893249823
0.763537867740769,-0.0246679584742597
0.751907448602451,-0.023686648994815
0.74038481973835,-0.0227130624470034
0.728969518001508,-0.0217472003911804
0.717661080244964,-0.0207890643877014
0.706459043321758,-0.0198386559969217
0.695362944084931,-0.0188959767791966
0.684372319387523,-0.0179610282948816
0.673486706082574,-0.017033812104332
0.662705641023124,-0.0161143297679032
0.652028661062214,-0.0152025828459505
0.641455303052884,-0.0142985728988293
0.630985103848174,-0.013402301486895
0.620617600301124,-0.0125137701705029
0.610352329264775,-0.0116329805100084
0.600188827592167,-0.0107599340657669
0.590126632136339,-0.00989463239813374
0.580165279750333,-0.00903707706746426
0.570304307287189,-0.00818726963411385
0.560543251599946,-0.00734521165843788
0.550881649541645,-0.00651090470079171
0.541319037965326,-0.00568435032153071
0.531854953724029,-0.00486555008101024
0.522488933670796,-0.00405450553958568
0.513220514658665,-0.00325121825761238
0.504049233540677,-0.00245568979544571
0.378629382313687,-0.100757729839354
0.485996232399292,-0.00088791557195373
0.477113586081975,-0.000115672931339163
0.562288230263263,0.112398279733464
0.459633686219293,0.00140551560585033
0.351423591317204,-0.110282185777183
0.44253122240615,0.0028956314152845
0.548155403903654,0.0979141001369229
0.425802489466866,0.00435466201412041
0.417577114207522,0.00507251645867561
0.409443782225764,0.00578259491951514
0.401402030374631,0.00648489583628365
0.492258821606735,0.107569652044864
0.377821624135392,0.00854511771860935
0.370141561337166,0.00921629285554007
0.362550762934766,0.00987968264662294
0.355048765781234,0.0105352855315026
0.34763510672961,0.0111830999498236
0.340309322632933,0.0118231243412307
0.233309720335424,-0.0916445955817529
0.325919526716584,0.0130797968018816
0.318854588602992,0.0136964417504146
0.298174055877028,0.0154995927445797
0.291450428350112,0.0160850432576388
0.284810970602466,0.016662691260941
0.278255219487129,0.017232535194131
0.163624363017559,-0.0978585985707929
0.375228542996691,0.110934055387978
0.168408551946309,-0.0856262939564862
0.246715853251503,0.0199646391959593
0.234669843039829,0.021002797693467
0.22876707169242,0.0215101528929657
0.222943838654682,0.022009689979154
0.211534134920384,0.0229853035701772
0.205946737929904,0.0234613769543016
0.296575582450964,0.137092522736351
0.310771553933345,0.130257059720924
0.189648808701621,0.0248426447368611
0.184369375716714,0.0252874113399252
0.179165775865801,0.0257243473468357
0.174037546001921,0.0261534511972375
0.288832513924723,0.130209807321528
0.164005343647425,0.026988156187093
0.159100444862889,0.027393754205836
0.154269063477548,0.0277915138266487
0.149510736344442,0.0281814334891757
0.26362297555105,0.144222687531337
0.140211392247097,0.0289377466979512
0.0417989099126275,-0.0841315806451798
0.131198707395175,0.0296626813493196
0.126798704318849,0.0300133778150878
0.122468976612999,0.030356224960438
0.118209061130666,0.030691221225015
0.11401849472489,0.0310183650484634
0.109896814248711,0.0313376548704278
0.10584355655517,0.0316490891305529
0.101858258497306,0.0319526662684832
0.216415131244402,0.140033471218036
0.0940896887007736,0.0325362429363383
-0.0141589052117746,-0.0808612766609737
0.192100527794956,0.132942526610401
0.0829349525995635,0.0333526405127765
0.0793476862696113,0.0336090421500759
0.0758251375466187,0.0338575757426931
0.0723668432836256,0.0340982397302726
0.0689723403336723,0.0343310325524591
-0.0435031769050617,-0.0608882797363512
0.0623728557850462,0.0347729984592316
0.0591669478924539,0.0349821684231068
-0.0483254080552801,-0.0752258269460082
0.0529404851359116,0.0353768745700586
0.0499190039780423,0.0355624076324243
0.0469580721044945,0.0357400586069095
0.0440572263683082,0.0359098259331588
0.041216003622524,0.0360717080508167
0.0384339407201819,0.036225703399528
0.146624473239088,0.150249194309838
0.0330454418579851,0.0365100275486891
0.0304380796042108,0.0366403532284282
0.0278880246060398,0.0367627858977991
0.025394813716512,0.0368773239964465
0.0205770716755473,0.0370827102401494
0.0182516142301909,0.0371735552644942
0.0159811483056387,0.037256499476694
0.013765210754931,0.0373315413163934
0.011603338431108,0.0373986792232371
0.00949506818720999,0.0374579116368698
0.0074399368762772,0.0375092369969361
0.00348723846546795,0.0375881603149478
0.00158874507167205,0.0376157551521825
-0.00205484582750117,0.037647203381333
-0.00380086962679806,0.037651053652538
-0.00549699652184807,0.0376469859476889
-0.00714368965961104,0.0376349987064305
-0.00874141218704682,0.0376150903684074
-0.0102906272511151,0.0375872593732642
-0.0117917979987755,0.0375515041606455
-0.013245387576988,0.037507823170196
-0.0146518591327124,0.0374562148415603
-0.0173253007645354,0.0373292099283089
-0.0185931971345537,0.0372538102229825
-0.0209936567176027,0.0370792085131512
-0.0221271462245529,0.0369800033879356
-0.0232167597377333,0.0368728600020463
-0.0242629604041037,0.0367577767951279
-0.0252662113706237,0.036634752206825
-0.0288589811773962,0.0360632088326611
-0.0296544308490612,0.0359004539321052
-0.0304097097026346,0.0357297482880327
-0.0318016075433453,0.0353644785279161
-0.0324391528244023,0.0351699112911613
-0.0330383798752065,0.0349673870694683
-0.0341237318738964,0.0345384614298465
-0.0346107831157014,0.0343120568912069
-0.0350613687150929,0.0340776891262076
-0.0354759518190306,0.0338353565744934
-0.0358549955744743,0.0335850576757088
-0.0361989631283838,0.0333267908694986
-0.148327058394174,-0.072018956862677
-0.036783522219439,0.0327863472933794
-0.0370250400505043,0.0325041674027597
-0.0372333342678745,0.0322140133632929
-0.0374088680185092,0.0319158836146236
0.0596208838266959,0.12283308238098
-0.0376635067074116,0.0312956907482557
0.0698075078862879,0.14277851891318
-0.0377926612928895,0.0306435763208133
-0.0378113399142437,0.0303055446208007
-0.0378000369506211,0.0299595278494533
-0.0377592155489815,0.0296055244464159
-0.0376893388562846,0.029243532851333
-0.0375908700194903,0.0288735515038492
-0.0373100085014481,0.0281096133102576
-0.0369203361705332,0.0273136973827983
-0.0358293797727975,0.0256258823949045
-0.0354944232523151,0.0251839230598217
-0.035135506057333,0.0247339583687843
-0.0347530913348108,0.024275986761437
-0.0339196218949853,0.0233360165563914
-0.0334694934716016,0.0228540148379824
-0.0329977201085169,0.0223639999618419
-0.0325047649526909,0.0218659703676148
-0.0319910911510835,0.0213599244949456
-0.0314571618506545,0.020845860783479
-0.0309034401983635,0.0203237776728595
-0.0303303893411703,0.0197936736027319
-0.0278541568025717,0.0175930165200325
-0.0265121071248135,0.0164445216523942
-0.0258167199481788,0.0158582271757591
-0.0243795366541972,0.0146615363350803
-0.0236386668307699,0.0140511368503259
-0.0228835624189978,0.0134326992421542
-0.0213325024182586,0.0121717034141378
-0.0205374731232111,0.0115291420735823
-0.0189107316785588,0.0102198847376001
-0.0180799458228736,0.00955318562146248
-0.107330136577618,-0.098320591183162
-0.0163858595795841,0.00819563869111769
-0.0155234854858993,0.00750478775619976
-0.0146515082734674,0.00680588309431092
-0.0137703910892483,0.00609892314509589
0.0978617051940832,0.114299411356563
-0.0119825893932873,0.00466083114326565
-0.011076831175465,0.0039296959699397
-0.00924391573493568,0.00244323947668938
-0.00831768480614815,0.00168791503605427
-0.00644799226632618,0.000153065964987292
-0.0045584131299068,-0.00141406042817779
0.0868553476582602,0.109768301751499
-0.00265265257256819,-0.00301347662628392
-0.00169486212845357,-0.00382529730307831
-0.00073441576998845,-0.00464519511217401
0.000228223355867443,-0.00547317161392648
0.00119259210215424,-0.00630922836869101
0.00312466586818178,-0.00800558887867781
0.00505810035241599,-0.00973428912497738
0.00602416999646123,-0.0106107705501329
0.007952698353609,-0.0123880038062321
0.00891423077279193,-0.0132887587578865
0.00987332448976804,-0.0141976080057514
0.0108295163575774,-0.015114553110182
0.0117823432292603,-0.0160395956315337
0.0155507378155319,-0.0198207710932591
0.0174027033109549,-0.021759983894888
0.018319007094879,-0.0227417520246378
0.0192282407069985,-0.0237316300541517
0.0201299410003536,-0.0247296195437849
0.0219088890429317,-0.0267499391448312
0.0227852104982352,-0.0277722723769549
-0.0936482285093544,-0.125932348549435
0.0245092325420718,-0.0298412935061804
0.0253560068366856,-0.0308879845239928
0.027016766236505,-0.0330057352677941
0.0278298250477913,-0.0340767981144936
0.0301941601636384,-0.037338755278052
0.0309557809397178,-0.0384423357415761
0.133352533880832,0.0593544548384626
0.0324365072163134,-0.0406738981442631
-0.0724785318583552,-0.140030013689004
0.0345443612379025,-0.0440822688427217
0.0352149305523786,-0.0452346725421435
0.0365052172604918,-0.0475639095030226
0.0371240083602094,-0.0487407458851907
0.037724613761088,-0.0499257296156517
0.0383065703161678,-0.0511188622547609
0.038869414878489,-0.0523201453628736
0.0394126843010919,-0.0535295805003453
0.0413807476551247,-0.0584488725509287
-0.0652693050366537,-0.162075265180029
-0.0537048062501715,-0.16674957039886
0.0429985570168827,-0.0634987218996845
0.043344808568831,-0.0647815955173781
0.0436668535114633,-0.0660726367679843
0.0439642286978198,-0.0673718472118586
0.0442364709809408,-0.0686792284093561
0.044703704249637,-0.0713185093066426
0.0448977689412927,-0.0726504121271424
0.0450648481418738,-0.0739904919426869
0.0452044787044205,-0.0753387503136316
-0.0614532546407611,-0.169764409579968
-0.0714293041539549,-0.191503500799394
0.0454792516350681,-0.0808136005585195
0.0454746918030464,-0.0822027751117955
-0.0678865193919698,-0.175903721282064
0.0452777946003842,-0.0864194325182393
0.0451495458074319,-0.087841368103777
0.0449892169068475,-0.0892714978482685
0.0447963447516713,-0.0907098233120692
0.0445704661949435,-0.0921563460555345
0.0440178372889941,-0.0950739896228802
0.043327625013321,-0.0980244410331487
0.0429297672444387,-0.0995119735802672
0.0420262327097837,-0.10251166016025
0.0415196296500915,-0.104023817313825
0.0409758518662098,-0.105544185790263
0.0403944362111787,-0.107072767149919
0.0384197305495925,-0.11170780413175
0.0376831319403667,-0.113269252627833
0.0369065797251928,-0.114838921808911
0.036089610757111,-0.116416813235339
0.0352317618891616,-0.118002928467473
0.0343325699743848,-0.119597269065668
0.0333915718658208,-0.121199836590279
0.0324083044165098,-0.122810632601663
0.030313108907808,-0.126056916326167
0.0292002545544976,-0.127692407159998
0.0280432782726011,-0.129336132722023
0.0255951073352111,-0.132648294272074
0.024302986385798,-0.134316733380811
-0.0945703477558408,-0.233782859337584
0.0215803577907368,-0.137678336067484
0.020148923851169,-0.139371502766132
-0.0983395335855521,-0.25609753592395
0.0155685857008006,-0.144500483007581
0.0139449170502567,-0.146226641671085
0.0105494669667788,-0.149703716234754
0.00877675923992522,-0.151454635255631
0.00695344552704884,-0.153213810849676
0.00507906268119001,-0.154981244577245
-0.0919514017190676,-0.263132459985679
-0.000855132123879533,-0.160333110164649
-0.124048936524695,-0.265587841338191
-0.00726562241634346,-0.16575935512656
-0.00951045730795364,-0.167584639478746
-0.0141649131641157,-0.171260021592574
-0.0165754604225871,-0.173110122474927
-0.0190421714305985,-0.174968498654712
-0.0241459372830804,-0.178710083148003
-0.0267839184214704,-0.18059329458222
-0.0294799158972395,-0.18248478755529
-0.129226220561143,-0.293764253154618
-0.0350478124487537,-0.186292624359416
-0.0438463584803621,-0.192066530115897
-0.0500152600188565,-0.195957252524557
-0.164888683774782,-0.295420906797078
-0.0597326815419264,-0.201855545201166
-0.0665257454153891,-0.20582923123213
-0.0700181016504246,-0.207828526202646
-0.073574958280276,-0.209836124556991
-0.0771967784519028,-0.21185202785552
-0.0808840253122651,-0.213876237658591
-0.0846371620083224,-0.215908755526556
-0.0884566516870347,-0.217949583019773
-0.100317870088698,-0.224121938854481
-0.104407403167628,-0.226196020452255
-0.112792938624807,-0.230369137489242
-0.12145685412748,-0.234575536717182
-0.218924228410422,-0.330152145116228
-0.138437426459932,-0.242498539640241
-0.157920099582099,-0.250960781737615
-0.0511442823832762,-0.14355011118936
-0.172138975754799,-0.256611649131329
-0.284414097547742,-0.374242124179417
-0.185166660091633,-0.261298389126634
-0.191240772375367,-0.263289001852697
-0.0982170182593957,-0.171411054046075
-0.197025447164652,-0.265049131332536
-0.308948548748146,-0.375322182925369
-0.202523471280996,-0.266582293767275
-0.205165860218536,-0.267264861155585
-0.207737631545905,-0.267892005358041
-0.210239133615791,-0.268464165899786
-0.104633045039085,-0.156905031615405
-0.221704797447079,-0.270515597077754
-0.227763259228113,-0.271114781464998
-0.126364144866913,-0.158532356333398
-0.12254285500264,-0.162984127505901
-0.239566233594237,-0.270747411836204
-0.240990803510012,-0.270499609225694
-0.242351026164004,-0.270204294881864
-0.243647249908904,-0.269861908329855
-0.345177761319038,-0.380418459788943
-0.248199122851332,-0.268030430542842
-0.249180577341089,-0.267459275827048
-0.3502575045867,-0.386308465852612
-0.365072103289541,-0.375167232961446
-0.251754881463328,-0.26548095943622
-0.254336820316939,-0.262241624618995
-0.254832758338257,-0.261327296148462
-0.255647616819207,-0.25937632216391
-0.255967233984216,-0.258340555700172
-0.256228774235833,-0.257265188955647
-0.256432585926745,-0.256150661455475
-0.256579017409641,-0.254997412724798
-0.256668417037208,-0.253805882288756
-0.25602665359127,-0.245877397267722
-0.255726584106813,-0.244430201598066
-0.254964058389123,-0.241431953271177
-0.253419528230968,-0.236681531189013
-0.252126744519149,-0.233351011199657
-0.130996071618218,-0.133021985241416
-0.247994266524077,-0.224477848421782
-0.245988383246292,-0.220719068216793
-0.243785027583763,-0.216845839402727
-0.24261016848994,-0.214867405580142
-0.136582517339905,-0.105322250251615
-0.236017994502774,-0.204574623317326
-0.344439198383456,-0.31149399942752
-0.22826128864861,-0.193654442275922
-0.224842291259458,-0.189123004905296
-0.217477369632315,-0.179799415063268
-0.215528394856037,-0.177416765853421
-0.213537019037338,-0.175014294994118
-0.209428457683431,-0.17015164642771
-0.196121377283197,-0.155133691756204
-0.188933045100735,-0.147404590868006
-0.183949139007139,-0.142178387661807
-0.181400725626821,-0.139544563849911
-0.173533824384038,-0.131565477880717
-0.159704353134609,-0.118034657662163
-0.240790626252429,-0.21464084780242
-0.235195159322436,-0.186050194191976
-0.0143931750376085,0.0220369849963548
-0.123088859155574,-0.0846746138568318
-0.119832909045765,-0.0818552861052558
-0.116547098590313,-0.0790319596092904
-0.113231776141907,-0.0762050738940765
-0.109887290053235,-0.0733750684847549
-0.0962246763496472,-0.062032640409204
-0.0892274448261509,-0.0563541358604401
-0.085688567130886,-0.0535145992963035
-0.0749150665432839,-0.0450001267465639
-0.167329500483187,-0.143961928139679
-0.0639135801094242,-0.0365010899387844
-0.0564572417192182,-0.0308495011476742
-0.0526935133518902,-0.0280293560517642
-0.0412642717932652,-0.0195967922643026
-0.0296352609561326,-0.0112152657551989
-0.0257161564832986,-0.0084348163202338
-0.0138354174210632,-0.000139799571517177
0.00635633200047778,0.0135044183139728
-0.107638530416829,-0.075744359656393
0.112450230520388,0.13697757403491
0.0186903647258075,0.0215631239216526
0.0353717141935102,0.0321343220131293
-0.0799052757827985,-0.0821082242015694
0.0523023098279919,0.0424811715225265
0.0565712908050095,0.0450295329953705
0.0608541079040094,0.0475616750561309
0.0694598570572032,0.0525755428408384
0.0737820924060205,0.055056389514504
0.0999646090906489,0.0695485584109981
0.104366628011617,0.0718943324681839
0.122071262592721,0.0810624915592064
0.14887957236036,0.0941215710170986
0.157871557102476,0.0982756902509223
0.162376459665107,0.100313476894925
0.180447342963385,0.10819254806492
0.194044588261965,0.113803865562162
0.321659816117711,0.230963183353873
0.216762762830006,0.122553307226777
0.221311677429981,0.124208826708815
0.266795434224562,0.138904998555033
0.271335607224361,0.140179043889143
0.275872895417106,0.141415772604415
0.293986233063771,0.145980730774311
0.388604818429128,0.244013216246274
0.303016535874881,0.148027882492574
0.426860337463055,0.263905815731309
0.329968538401242,0.153185833767114
0.338896947869353,0.154565595561458
0.343349161633685,0.155189831977278
0.347792916947949,0.155769719372009
0.352227865459458,0.15630481822051
0.356653658815523,0.15679468899764
0.369872624424176,0.157988537649401
0.382996652937057,0.15875951075376
0.391688617745485,0.159032701628456
0.396016338831586,0.159095741131919
0.404633516604121,0.15907251064537
0.417458396973431,0.158657798304753
0.335719866654125,0.0625002993865619
0.434355285579218,0.157377304121201
0.438540943971084,0.156924331765554
0.4468635457745,0.155855891806566
0.467369623105748,0.152216391790972
0.47141654994867,0.151318964137907
0.483442482882391,0.148279714426285
0.487411683486323,0.147149510521133
0.60707231518728,0.251457689195869
0.503081977960483,0.142031370890384
0.544318322063669,0.122835172760244
0.562068873781213,0.111509360047528
0.565538569049774,0.109041705469485
0.568980646470412,0.106505527987613
0.57239475769044,0.103900388076772
0.57578055435717,0.101225846211821
0.598659061906106,0.0805238783302717
0.731167186998985,0.154725480758271
0.645037849798541,0.0195455361600058
0.650204309590203,0.0105210534657778
0.660085981673699,-0.00850138341702428
0.671563243619106,-0.0341409493965345
0.673738568726777,-0.0395214604939778
0.598551635430424,-0.223867323807083
0.812693362605896,-0.0943844732421616
0.718434785337632,-0.242542018441388
0.628992731174833,-0.46804029491024
0.723869018604882,-0.396141150057541
0.811687038140339,-0.364153255561264
