0.382074262496607,-0.156664140637105
0.373598291771678,-0.158703016670644
0.365186842410593,-0.160703805358546
0.35683964960348,-0.162666764400651
0.348556448540467,-0.164592151496798
0.340336974411681,-0.166480224346827
0.332180962407251,-0.168331240650576
0.324088147717305,-0.170145458107886
0.316058265531971,-0.171923134418596
0.308091051041377,-0.173664527282545
0.300186239435651,-0.175369894399573
0.29234356590492,-0.177039493469519
0.284562765639314,-0.178673582192222
0.276843573828959,-0.180272418267523
0.269185725663984,-0.18183625939526
0.261588956334517,-0.183365363275274
0.254053001030687,-0.184859987607402
0.24657759494262,-0.186320390091486
0.239162473260445,-0.187746828427364
0.231807371174291,-0.189139560314876
0.224512023874284,-0.190498843453861
0.217276166550554,-0.191824935544159
0.210099534393228,-0.193118094285609
0.202981862592433,-0.19437857737805
0.195922886338299,-0.195606642521323
0.188922340820953,-0.196802547415266
0.181979961230524,-0.197966549759719
0.175095482757138,-0.199098907254521
0.168268640590925,-0.200199877599512
0.161499169922012,-0.201269718494532
0.154786805940527,-0.202308687639419
0.148131283836599,-0.203317042734013
0.141532338800354,-0.204295041478154
0.134989706021923,-0.205242941571681
0.128503120691431,-0.206161000714434
0.122072317999008,-0.207049476606252
0.115697033134781,-0.207908626946974
0.109377001288879,-0.20873870943644
0.103111957651429,-0.209539981774489
0.0969016374125592,-0.210312701660961
0.0907457757623982,-0.211057126795695
0.0846441078910736,-0.211773514878531
0.0785963689887135,-0.212462123609308
0.0726022942454459,-0.213123210687866
0.0666616188513988,-0.213757033814043
0.0607740779967004,-0.21436385068768
0.0549394068714784,-0.214943919008616
0.049157340665861,-0.215497496476691
0.0434276145699763,-0.216024840791743
0.0377499637739522,-0.216526209653612
0.0321241234679167,-0.217001860762139
0.0265498288419979,-0.217452051817161
0.0210268150863239,-0.217877040518519
0.0155548173910225,-0.218277084566052
0.0101335709462218,-0.218652441659599
0.00476281094204982,-0.219003369499001
-0.000557727431365299,-0.219330125784096
-0.00582830898389573,-0.219632968214724
-0.0110491985254133,-0.219912154490724
-0.0162206608657901,-0.220167942311935
-0.021342960814898,-0.220400589378198
-0.0264163631826091,-0.220610353389352
-0.0314411327787953,-0.220797492045236
-0.0364175344133286,-0.220962263045689
-0.041345832896081,-0.221104924090551
-0.0462262930369244,-0.221225732879662
-0.0510591796457309,-0.221324947112861
-0.0558447575323724,-0.221402824489987
-0.0605832915067209,-0.22145962271088
-0.0652750463786484,-0.221495599475379
-0.0699202869580269,-0.221511012483323
-0.0745192780547283,-0.221506119434553
-0.0790722844786247,-0.221481178028908
-0.0835795710395879,-0.221436445966226
-0.0880414025474901,-0.221372180946348
-0.0924580438122032,-0.221288640669113
-0.0968297596435991,-0.221186082834361
-0.10115681485155,-0.22106476514193
-0.105439474245927,-0.22092494529166
-0.109678002636604,-0.220766880983391
-0.113872664833451,-0.220590829916963
-0.118023725646341,-0.220397049792214
-0.122131449885145,-0.220185798308984
-0.126196102359737,-0.219957333167112
-0.130217947879987,-0.219711912066439
-0.134197251255767,-0.219449792706803
-0.138134277296951,-0.219171232788044
-0.142029290813409,-0.218876490010001
-0.145882556615013,-0.218565822072514
-0.149694339511636,-0.218239486675422
-0.15346490431315,-0.217897741518565
-0.157194515829427,-0.217540844301782
-0.160883438870338,-0.217169052724913
-0.164531938245755,-0.216782624487796
-0.168140278765551,-0.216381817290272
-0.171708725239597,-0.21596688883218
-0.175237542477766,-0.215538096813359
-0.17872699528993,-0.21509569893365
-0.18217734848596,-0.21463995289289
-0.185588866875728,-0.21417111639092
-0.188961815269106,-0.213689447127579
-0.192296458475967,-0.213195202802707
-0.195593061306183,-0.212688641116143
-0.198851888569624,-0.212170019767727
-0.202073205076164,-0.211639596457297
-0.205257275635675,-0.211097628884694
-0.208404365058027,-0.210544374749757
-0.211514738153094,-0.209980091752325
-0.214588659730747,-0.209405037592237
-0.217626394600858,-0.208819469969334
-0.2206282075733,-0.208223646583455
-0.223594363457943,-0.207617825134439
-0.226525127064661,-0.207002263322125
-0.229420763203325,-0.206377218846353
-0.232281536683807,-0.205742949406963
-0.235107712315979,-0.205099712703793
-0.237899554909714,-0.204447766436684
-0.240657329274882,-0.203787368305475
-0.243381300221356,-0.203118776010005
-0.246071732559009,-0.202442247250114
-0.248728891097711,-0.201758039725641
-0.251353040647336,-0.201066411136425
-0.253944446017754,-0.200367619182306
-0.256503372018838,-0.199661921563124
-0.259030083460461,-0.198949575978718
-0.261524845152493,-0.198230840128927
-0.263987921904807,-0.197505971713591
-0.266419578527275,-0.19677522843255
-0.268820079829769,-0.196038867985642
-0.27118969062216,-0.195297148072707
-0.273528675714322,-0.194550326393585
-0.275837299916125,-0.193798660648115
-0.278115828037442,-0.193042408536137
-0.280364524888145,-0.192281827757489
-0.282583655278105,-0.191517176012012
-0.284773484017195,-0.190748710999545
-0.286934275915287,-0.189976690419927
-0.289066295782253,-0.189201371972998
-0.291169808427964,-0.188423013358597
-0.293245078662293,-0.187641872276564
-0.295292371295112,-0.186858206426738
-0.297311951136292,-0.186072273508958
-0.299304082995706,-0.185284331223065
-0.301269031683225,-0.184494637268897
-0.303207062008722,-0.183703449346293
-0.305118438782068,-0.182911025155095
-0.307003426813136,-0.18211762239514
-0.308862290911797,-0.181323498766268
-0.310695295887924,-0.180528911968319
-0.312502706551389,-0.179734119701132
-0.314284787712062,-0.178939379664547
-0.316041804179818,-0.178144949558403
-0.317774020764526,-0.177351087082539
-0.31948170227606,-0.176558049936796
-0.321165113524291,-0.175766095821011
-0.322824519319092,-0.174975482435026
-0.324460184470334,-0.174186467478679
-0.326072373787889,-0.173399308651809
-0.327661352081629,-0.172614263654257
-0.329227384161427,-0.171831590185862
-0.330770734837154,-0.171051545946462
-0.332291668918683,-0.170274388635899
-0.333790451215884,-0.16950037595401
-0.33526734653863,-0.168729765600635
-0.336722619696794,-0.167962815275615
-0.338156535500247,-0.167199782678788
-0.339569358758861,-0.166440925509993
-0.340961354282508,-0.165686501469071
-0.342332786881061,-0.164936768255861
-0.34368392136439,-0.164191983570201
-0.345015022542368,-0.163452405111933
-0.346326355224868,-0.162718290580894
-0.34761818422176,-0.161989897676925
-0.348890774342917,-0.161267484099864
-0.350144390398212,-0.160551307549552
-0.351379297197515,-0.159841625725828
-0.352595759550699,-0.159138696328532
-0.353794042267637,-0.158442777057502
-0.354974410158199,-0.157754125612578
-0.356137128032257,-0.1570729996936
-0.357282460699685,-0.156399657000406
-0.358410672970354,-0.155734355232838
-0.359522029654135,-0.155077352090733
-0.360616795560901,-0.154428905273932
-0.361695235500525,-0.153789272482274
-0.362757614282876,-0.153158711415598
-0.363804196717829,-0.152537479773743
-0.364835247615254,-0.15192583525655
-0.365851031785024,-0.151324035563858
-0.366851814037011,-0.150732338395506
-0.367837859181086,-0.150151001451333
-0.368809432027122,-0.149580282431179
-0.36976679738499,-0.149020439034884
-0.370710220064564,-0.148471728962287
-0.371639964875713,-0.147934409913227
-0.372556296628311,-0.147408739587544
-0.37345948013223,-0.146894975685077
-0.374349780197342,-0.146393375905666
-0.375227461633518,-0.14590419794915
-0.37609278925063,-0.145427699515369
-0.376946027858551,-0.144964138304162
-0.377787442267152,-0.144513772015368
-0.378617297286306,-0.144076858348827
-0.379435857725884,-0.143653655004378
-0.380243388395759,-0.143244419681862
-0.381040154105802,-0.142849410081117
-0.381826419665885,-0.142468883901982
-0.382602449885881,-0.142103098844298
-0.383368509575661,-0.141752312607903
-0.384124863545097,-0.141416782892638
-0.384871776604061,-0.141096767398341
-0.385609513562426,-0.140792523824852
-0.386338339230063,-0.14050430987201
-0.387058518416844,-0.140232383239655
-0.387770315932642,-0.139977001627627
-0.388473996587328,-0.139738422735764
-0.389169825190773,-0.139516904263907
-0.389858066552851,-0.139312703911894
-0.390538985483433,-0.139126079379566
-0.391212846792392,-0.138957288366761
-0.391879915289598,-0.138806588573319
-0.392540455784924,-0.13867423769908
-0.393194733088243,-0.138560493443882
-0.393843012009425,-0.138465613507566
-0.394485557358343,-0.138389855589971
-0.39512263394487,-0.138333477390936
-0.395754506578876,-0.138296736610301
-0.396381440070235,-0.138279890947905
-0.397003699228817,-0.138283198103588
-0.397621548864495,-0.138306915777188
-0.398235253787141,-0.138351301668547
-0.398845078806627,-0.138416613477502
-0.399451288732825,-0.138503108903893
-0.400054148375607,-0.138611045647561
-0.400653922544844,-0.138740681408344
-0.40125087605041,-0.138892273886081
-0.401845273702175,-0.139066080780613
-0.402437380310012,-0.139262359791779
-0.403027460683792,-0.139481368619417
-0.403615779633388,-0.139723364963368
-0.404202601968672,-0.139988606523471
-0.404788192499516,-0.140277350999566
-0.405372816035791,-0.140589856091492
-0.40595673738737,-0.140926379499088
-0.406540221364125,-0.141287178922193
-0.407123532775927,-0.141672512060648
-0.407706936432649,-0.142082636614292
-0.408290697144162,-0.142517810282964
-0.408875079720339,-0.142978290766503
-0.409460348971052,-0.14346433576475
-0.410046769706172,-0.143976202977543
-0.410634606735571,-0.144514150104722
-0.411224124869122,-0.145078434846126
-0.411815588916697,-0.145669314901595
-0.412409263688167,-0.146287047970969
-0.413005413993404,-0.146931891754086
-0.41360430464228,-0.147604103950787
-0.414206200444669,-0.14830394226091
-0.41481136621044,-0.149031664384295
-0.415420066749467,-0.149787528020782
-0.416032566871621,-0.15057179087021
-0.416649131386774,-0.151384710632418
-0.417270025104799,-0.152226545007246
-0.417895512835567,-0.153097551694533
-0.41852585938895,-0.15399798839412
-0.41916132957482,-0.154928112805844
-0.41980218820305,-0.155888182629546
-0.42044870008351,-0.156878455565066
-0.421101130026074,-0.157899189312241
-0.421759742840613,-0.158950641570913
-0.422424803337,-0.160033070040921
-0.423096576325105,-0.161146732422103
-0.423775326614801,-0.1622918864143
-0.424461319015961,-0.163468789717351
-0.425154818338455,-0.164677700031094
-0.425856089392157,-0.165918875055371
-0.426565396986937,-0.16719257249002
-0.427283005932669,-0.16849905003488
-0.428009181039223,-0.169838565389792
-0.428744187116473,-0.171211376254594
-0.429488288974289,-0.172617740329125
-0.430241751422545,-0.174057915313227
-0.431004839271111,-0.175532158906737
-0.43177781732986,-0.177040728809496
-0.432560950408664,-0.178583882721342
-0.433354503317395,-0.180161878342116
-0.434158740865924,-0.181774973371656
-0.434973927864125,-0.183423425509802
-0.435800329121868,-0.185107492456394
-0.436638209449026,-0.186827431911271
-0.437487833655471,-0.188583501574273
-0.438349466551074,-0.190375959145238
-0.439223372945709,-0.192205062324006
-0.440109817649245,-0.194071068810418
-0.441009065471557,-0.195974236304312
-0.441921381222515,-0.197914822505527
-0.442847029711992,-0.199893085113904
-0.443786275749859,-0.201909281829281
-0.444739384145989,-0.203963670351498
-0.445706619710254,-0.206056508380395
-0.446688247252525,-0.208188053615811
-0.447684531582674,-0.210358563757585
-0.448695737510575,-0.212568296505557
-0.449722129846097,-0.214817509559566
-0.450763973399114,-0.217106460619452
-0.451821532979498,-0.219435407385054
-0.45289507339712,-0.221804607556212
-0.453984859461852,-0.224214318832765
-0.455091155983567,-0.226664798914553
-0.456214227772136,-0.229156305501414
-0.457354339637432,-0.231689096293189
-0.458511756389326,-0.234263428989717
-0.45968674283769,-0.236879561290837
-0.460879563792397,-0.239537750896389
-0.462090484063318,-0.242238255506213
-0.463319768460325,-0.244981332820147
-0.46456768179329,-0.247767240538031
-0.465834488872086,-0.250596236359704
-0.467120454506583,-0.253468577985007
-0.468425843506655,-0.256384523113778
-0.469750920682173,-0.259344329445857
-0.47109595084301,-0.262348254681084
-0.472461198799036,-0.265396556519297
-0.473846929360124,-0.268489492660337
-0.475253407336147,-0.271627320804042
-0.476680897536976,-0.274810298650252
-0.478129664772482,-0.278038683898807
-0.479599973852539,-0.281312734249547
-0.481092089587018,-0.284632707402309
-0.482606276785791,-0.287998861056935
-0.484142800258729,-0.291411452913263
-0.485701924815706,-0.294870740671133
-0.487283915266593,-0.298376982030384
-0.488889036421261,-0.301930434690857
-0.490517553089584,-0.305531356352389
-0.492169730081432,-0.309180004714821
-0.493845832206678,-0.312876637477992
-0.495546124275194,-0.316621512341742
-0.497270871096852,-0.320414887005909
-0.499020337481524,-0.324257019170334
-0.500794788239081,-0.328148166534856
-0.502594488179396,-0.332088586799315
-0.504419702112341,-0.336078537663549
-0.506270694847788,-0.340118276827398
-0.508147731195608,-0.344208061990703
-0.510051075965674,-0.348348150853301
-0.511980993967858,-0.352538801115033
-0.513937750012032,-0.356780270475738
-0.515921608908067,-0.361072816635255
-0.517932835465835,-0.365416697293425
-0.51997169449521,-0.369812170150086
-0.522038450806061,-0.374259492905077
-0.524133369208263,-0.378758923258239
-0.526256714511686,-0.383310718909411
-0.528408751526202,-0.387915137558432
-0.530589745061684,-0.392572436905142
-0.532799959928003,-0.397282874649379
-0.535039660935032,-0.402046708490985
-0.537309112892642,-0.406864196129797
-0.539608580610706,-0.411735595265655
-0.541938328899095,-0.4166611635984
-0.544298622567681,-0.42164115882787
-0.546689726426337,-0.426675838653904
-0.549111905284934,-0.431765460776344
-0.551565423953345,-0.436910282895026
-0.554050547241441,-0.442110562709792
-0.556567539959094,-0.44736655792048
-0.559116666916176,-0.452678526226931
-0.56169819292256,-0.458046725328982
-0.564312382788117,-0.463471412926475
-0.566959501322718,-0.468952846719248
-0.569639813336238,-0.474491284407141
-0.572353583638546,-0.480086983689993
-0.575101077039516,-0.485740202267645
-0.577882558349018,-0.491451197839934
-0.580698292376926,-0.497220228106701
-0.583548543933111,-0.503047550767784
-0.586433577827445,-0.508933423523025
-0.5893536588698,-0.514878104072261
-0.592309051870048,-0.520881850115333
-0.595300021638061,-0.52694491935208
-0.598326832983711,-0.533067569482341
-0.60138975071687,-0.539250058205955
-0.60448903964741,-0.545492643222763
-0.607624964585203,-0.551795582232604
-0.610797790340121,-0.558159132935317
-0.614007781722036,-0.564583553030741
-0.617255203540819,-0.571069100218717
-0.620540320606344,-0.577616032199082
-0.623863397728481,-0.584224606671678
-0.627224699717103,-0.590895081336343
-0.630624491382082,-0.597627713892917
-0.63406303753329,-0.604422762041239
-0.637540602980598,-0.611280483481149
-0.641057452533879,-0.618201135912486
-0.644613851003005,-0.62518497703509
-0.648210063197848,-0.632232264548799
-0.65184635392828,-0.639343256153454
-0.655522988004172,-0.646518209548894
-0.659240230235396,-0.653757382434959
-0.659240230235396,-0.653757382434959
-0.662946681202368,-0.660974752703203
-0.666590949640647,-0.668084503573273
-0.670173312592826,-0.675087200737144
-0.673694047101496,-0.681983409886793
-0.677153430209248,-0.688773696714196
-0.680551738958674,-0.695458626911329
-0.683889250392367,-0.702038766170168
-0.687166241552916,-0.708514680182688
-0.690382989482915,-0.714886934640867
-0.693539771224953,-0.721156095236679
-0.696636863821624,-0.727322727662101
-0.69967454431552,-0.733387397609109
-0.70265308974923,-0.739350670769679
-0.705572777165347,-0.745213112835787
-0.708433883606462,-0.75097528949941
-0.711236686115168,-0.756637766452522
-0.713981461734056,-0.762201109387101
-0.716668487505717,-0.767665883995121
-0.719298040472743,-0.77303265596856
-0.721870397677725,-0.778301990999393
-0.724385836163256,-0.783474454779596
-0.726844632971926,-0.788550613001145
-0.729247065146328,-0.793531031356017
-0.731593409729052,-0.798416275536187
-0.733883943762692,-0.803206911233631
-0.736118944289837,-0.807903504140326
-0.73829868835308,-0.812506619948247
-0.740423452995012,-0.81701682434937
-0.742493515258226,-0.821434683035672
-0.744509152185312,-0.825760761699128
-0.746470640818862,-0.829995626031715
-0.748378258201468,-0.834139841725408
-0.750232281375721,-0.838193974472184
-0.752032987384213,-0.842158589964019
-0.753780653269536,-0.846034253892888
-0.755475556074281,-0.849821531950767
-0.75711797284104,-0.853520989829634
-0.758708180612403,-0.857133193221463
-0.760246456430964,-0.86065870781823
-0.761733077339314,-0.864098099311913
-0.763168320380044,-0.867451933394486
-0.764552462595745,-0.870720775757927
-0.76588578102901,-0.873905192094209
-0.76716855272243,-0.877005748095311
-0.768401054718596,-0.880023009453208
-0.7695835640601,-0.882957541859875
-0.770716357789535,-0.885809911007289
-0.77179971294949,-0.888580682587427
-0.772833906582559,-0.891270422292263
-0.773819215731332,-0.893879695813774
-0.774755917438401,-0.896409068843937
-0.775644288746358,-0.898859107074726
-0.776484606697795,-0.901230376198119
-0.777277148335302,-0.903523441906091
-0.778022190701472,-0.905738869890617
-0.778720010838896,-0.907877225843676
-0.779370885790166,-0.909939075457241
-0.779975092597873,-0.911924984423289
-0.78053290830461,-0.913835518433797
-0.781044609952967,-0.91567124318074
-0.781510474585536,-0.917432724356095
-0.781930779244908,-0.919120527651836
-0.782305800973676,-0.920735218759941
-0.782635816814432,-0.922277363372386
-0.782921103809765,-0.923747527181146
-0.783161939002269,-0.925146275878197
-0.783358599434535,-0.926474175155516
-0.783511362149154,-0.927731790705078
-0.783620504188718,-0.92891968821886
-0.783686302595819,-0.930038433388838
-0.783709034413047,-0.931088591906986
-0.783688976682996,-0.932070729465283
-0.783626406448256,-0.932985411755704
-0.783521600751418,-0.933833204470224
-0.783374836635076,-0.934614673300819
-0.783186391141819,-0.935330383939467
-0.782956541314241,-0.935980902078142
-0.782685564194932,-0.936566793408821
-0.782373736826483,-0.93708862362348
-0.782021336251488,-0.937546958414095
-0.781628639512536,-0.937942363472641
-0.781195923652221,-0.938275404491095
-0.780723465713132,-0.938546647161433
-0.780211542737863,-0.938756657175632
-0.779660431769004,-0.938906000225666
-0.779070409849148,-0.938995242003513
-0.778441754020885,-0.939024948201147
-0.777774741326808,-0.938995684510545
-0.777069648809507,-0.938908016623684
-0.776326753511575,-0.938762510232538
-0.775546332475604,-0.938559731029085
-0.774728662744184,-0.9383002447053
-0.773874021359907,-0.937984616953159
-0.772982685365366,-0.937613413464638
-0.772054931803151,-0.937187199931714
-0.771091037715854,-0.936706542046362
-0.770091280146068,-0.936172005500558
-0.769055936136382,-0.935584155986278
-0.767985282729389,-0.934943559195499
-0.766879596967682,-0.934250780820196
-0.76573915589385,-0.933506386552346
-0.764564236550486,-0.932710942083924
-0.763355115980181,-0.931865013106906
-0.762112071225528,-0.930969165313269
-0.760835379329117,-0.930023964394989
-0.75952531733354,-0.929029976044041
-0.758182162281389,-0.927987765952402
-0.756806191215256,-0.926897899812047
-0.755397681177731,-0.925760943314954
-0.753956909211407,-0.924577462153096
-0.752484152358875,-0.923348022018451
-0.750979687662727,-0.922073188602995
-0.749443792165555,-0.920753527598704
-0.747876742909949,-0.919389604697554
-0.746278816938502,-0.91798198559152
-0.744650291293805,-0.91653123597258
-0.74299144301845,-0.915037921532708
-0.741302549155029,-0.913502607963881
-0.739583886746132,-0.911925860958074
-0.737835732834352,-0.910308246207265
-0.73605836446228,-0.908650329403429
-0.734252058672508,-0.906952676238542
-0.732417092507628,-0.90521585240458
-0.73055374301023,-0.903440423593519
-0.728662287222908,-0.901626955497335
-0.726743002188251,-0.899776013808004
-0.724796164948851,-0.897888164217502
-0.722822052547302,-0.895963972417805
-0.720820942026194,-0.89400400410089
-0.718793110428118,-0.892008824958732
-0.716738834795666,-0.889979000683307
-0.71465839217143,-0.887915096966591
-0.712552059598002,-0.885817679500561
-0.710420114117972,-0.883687313977192
-0.708262832773933,-0.88152456608846
-0.706080492608476,-0.879330001526342
-0.703873370664194,-0.877104185982813
-0.701641743983676,-0.874847685149849
-0.699385889609516,-0.872561064719427
-0.697106084584304,-0.870244890383522
-0.694802605950632,-0.867899727834112
-0.692475730751092,-0.86552614276317
-0.690125736028276,-0.863124700862674
-0.687752898824775,-0.8606959678246
-0.68535749618318,-0.858240509340923
-0.682939805146083,-0.85575889110362
-0.680500102756077,-0.853251678804667
-0.678038666055751,-0.850719438136039
-0.675555772087699,-0.848162734789714
-0.673051697894512,-0.845582134457665
-0.67052672051878,-0.842978202831871
-0.667981117003096,-0.840351505604307
-0.665415164390052,-0.837702608466948
-0.662829139722239,-0.835032077111771
-0.660223320042248,-0.832340477230752
-0.657597982392672,-0.829628374515867
-0.654953403816102,-0.826896334659093
-0.652289861355128,-0.824144923352404
-0.649607632052344,-0.821374706287777
-0.646906992950341,-0.818586249157188
-0.64418822109171,-0.815780117652613
-0.641451593519042,-0.812956877466028
-0.63869738727493,-0.81011709428941
-0.635925879401965,-0.807261333814733
-0.633137346942739,-0.804390161733975
-0.630332066939843,-0.801504143739111
-0.627510316435868,-0.798603845522117
-0.624672372473408,-0.79568983277497
-0.621818512095052,-0.792762671189644
-0.618949012343393,-0.789822926458117
-0.616064150261022,-0.786871164272365
-0.613164202890531,-0.783907950324363
-0.610249447274511,-0.780933850306087
-0.607320160455554,-0.777949429909513
-0.604376619476252,-0.774955254826618
-0.601419101379196,-0.771951890749378
-0.598447883206979,-0.768939903369768
-0.59546324200219,-0.765919858379765
-0.592465454807422,-0.762892321471344
-0.589454798665267,-0.759857858336482
-0.586431550618317,-0.756817034667154
-0.583395987709162,-0.753770416155337
-0.580348386980394,-0.750718568493007
-0.577289025474606,-0.747662057372139
-0.574218180234389,-0.744601448484711
-0.571136128302333,-0.741537307522696
-0.568043146721031,-0.738470200178073
-0.564939512533075,-0.735400692142816
-0.561825502781056,-0.732329349108903
-0.558701394507566,-0.729256736768308
-0.555567464755195,-0.726183420813008
-0.552423990566537,-0.723109966934979
-0.549271248984182,-0.720036940826197
-0.546109517050722,-0.716964908178638
-0.542939071808749,-0.713894434684278
-0.539760190300854,-0.710826086035093
-0.536573149569629,-0.707760427923059
-0.533378226657665,-0.704698026040152
-0.530175698607554,-0.701639446078348
-0.526965842461888,-0.698585253729624
-0.523748935263258,-0.695536014685955
-0.520525254054256,-0.692492294639316
-0.517295075877473,-0.689454659281685
-0.514058677775502,-0.686423674305038
-0.510816336790933,-0.683399905401349
-0.507568329966358,-0.680383918262596
-0.504314934344369,-0.677376278580754
-0.501056426967558,-0.6743775520478
-0.497793084878516,-0.671388304355709
-0.494525185119834,-0.668409101196457
-0.491253004734105,-0.665440508262021
-0.48797682076392,-0.662483091244376
-0.484696910251869,-0.659537415835499
-0.481413550240546,-0.656604047727366
-0.478127017772542,-0.653683552611951
-0.474837589890448,-0.650776496181233
-0.471545543636856,-0.647883444127186
-0.468251156054357,-0.645004962141787
-0.464954704185543,-0.642141615917011
-0.461656465073006,-0.639293971144835
-0.458356715759337,-0.636462593517235
-0.455055733287128,-0.633648048726187
-0.451753794698971,-0.630850902463666
-0.448451177037456,-0.628071720421649
-0.445148157345176,-0.625311068292112
-0.441845012664723,-0.622569511767031
-0.438542020038687,-0.619847616538382
-0.435239456509661,-0.617145948298141
-0.431937599120236,-0.614465072738283
-0.428636724913003,-0.611805555550786
-0.425337110930555,-0.609167962427624
-0.422039034215483,-0.606552859060775
-0.418742771810378,-0.603960811142214
-0.415448600757832,-0.601392384363916
-0.412156798100437,-0.598848144417859
-0.408867640880784,-0.596328656996018
-0.405581406141465,-0.593834487790369
-0.402298370925071,-0.591366202492889
-0.399018812274195,-0.588924366795552
-0.395743007231427,-0.586509546390336
-0.392471232839359,-0.584122306969216
-0.389203766140583,-0.581763214224168
-0.385940884177691,-0.579432833847169
-0.382682863993274,-0.577131731530194
-0.379429982629923,-0.574860472965219
-0.376182517130231,-0.572619623844221
-0.372940744536789,-0.570409749859176
-0.369704941892188,-0.568231416702058
-0.36647538623902,-0.566085190064846
-0.363252354619877,-0.563971635639513
-0.36003612407735,-0.561891319118038
-0.356826971654031,-0.559844806192395
-0.353625174392511,-0.55783266255456
-0.350431009335383,-0.55585545389651
-0.347244753525237,-0.553913745910221
-0.344066684004665,-0.552008104287669
-0.34089707781626,-0.550139094720829
-0.337736212002612,-0.548307282901678
-0.334584363606312,-0.546513234522191
-0.331441809669954,-0.544757515274346
-0.328308827236128,-0.543040690850117
-0.325185693347425,-0.541363326941481
-0.322072685046438,-0.539725989240414
-0.318970079375759,-0.538129243438892
-0.315878153377978,-0.536573655228891
-0.312797184095687,-0.535059790302387
-0.309727448571478,-0.533588214351356
-0.306669223847943,-0.532159493067774
-0.303622786967672,-0.530774192143617
-0.300588414973259,-0.529432877270861
-0.297566384907293,-0.528136114141482
-0.294556973812368,-0.526884468447456
-0.291560458731074,-0.525678505880759
-0.288577116706003,-0.524518792133368
-0.285607224779747,-0.523405892897258
-0.282651059994897,-0.522340373864405
-0.279708899394045,-0.521322800726785
-0.276781020019782,-0.520353739176374
-0.273867698914701,-0.519433754905149
-0.270969213121392,-0.518563413605086
-0.268085839682447,-0.517743280968159
-0.265217855640459,-0.516973922686346
-0.262365538038017,-0.516255904451623
-0.259529163917715,-0.515589791955964
-0.256709010322144,-0.514976150891348
-0.253905354293895,-0.514415546949749
-0.25111847287556,-0.513908545823143
-0.24834864310973,-0.513455713203507
-0.245596142038997,-0.513057614782817
-0.242861246705954,-0.512714816253048
-0.24014423415319,-0.512427883306177
-0.237445381423298,-0.512197381634179
-0.23476496555887,-0.512023876929032
-0.232103263602497,-0.511907934882709
-0.22946055259677,-0.511850121187189
-0.226837109584282,-0.511851001534447
-0.224233211607624,-0.511911141616458
-0.221649135709387,-0.512031107125199
-0.219085158932164,-0.512211463752646
-0.216541558318545,-0.512452777190775
-0.214018610911122,-0.512755613131562
-0.211516593752487,-0.513120537266983
-0.209035783885232,-0.513548115289014
-0.206576458351948,-0.51403891288963
-0.204138894195226,-0.514593495760809
-0.201723368457659,-0.515212429594526
-0.199330158181838,-0.515896280082757
-0.196959540410354,-0.516645612917478
-0.194611792185799,-0.517460993790666
-0.295233257027805,-0.409461614677304
-0.303209826546475,-0.638680934463578
-0.289582797129295,-0.413886545677347
-0.185455035608704,-0.521394311507597
-0.0710208586202863,-0.410255425231379
-0.0811606759269796,-0.421892938972433
-0.275379404002108,-0.640618508839177
-0.0717426089214866,-0.420228822887916
-0.268259429795751,-0.434238099924904
-0.172453084391506,-0.529371896872902
-0.274558479857294,-0.631990963615726
-0.0510403649601576,-0.415565798632335
-0.0540621309707243,-0.437809166752199
-0.0690201701678815,-0.641577801375725
-0.265134409808817,-0.441327564206135
-0.275891402697967,-0.643077014716994
-0.0612541806904755,-0.448159288934211
-0.156578845223117,-0.544076952938419
-0.051246951109002,-0.43215806281448
-0.0486748080314581,-0.444017455214211
-0.151082587240499,-0.550842929502823
-0.252335964747471,-0.659838681324679
-0.0511934459321162,-0.444067488783152
-0.241063743637895,-0.459889731301026
-0.0396823461920948,-0.465334358933812
-0.142505140849577,-0.563696964908618
-0.140879592491733,-0.56650947438733
-0.254809073272088,-0.459499878923947
-0.137720653037118,-0.572380721278114
-0.0273527638050881,-0.483797137927737
-0.134686436881212,-0.578584043359885
-0.133216792646754,-0.581811646827332
-0.131779160364748,-0.585123966168453
-0.130373817077785,-0.588521567075226
-0.129001039828457,-0.592005015239626
-0.127661105659356,-0.595574876353629
-0.126354291613073,-0.599231716109211
-0.125080874732201,-0.602976100198348
-0.123841132059329,-0.606808594313016
-0.122635340637051,-0.610729764145192
-0.121463777507958,-0.614740175386851
-0.120326719714641,-0.618840393729969
-0.119224444299692,-0.623030984866523
-0.118157228305702,-0.627312514488488
-0.117125348775263,-0.63168554828784
-0.116129082750968,-0.636150651956556
-0.115168707275406,-0.640708391186611
-0.114244499391171,-0.645359331669982
-0.113356736140853,-0.650104039098644
-0.112505694567044,-0.654943079164574
-0.111691651712336,-0.659877017559747
-0.11091488461932,-0.66490641997614
-0.110175670330588,-0.670031852105728
-0.109474285888732,-0.675253879640488
-0.108811008336342,-0.680573068272395
-0.108186114716012,-0.685989983693427
-0.107599882070332,-0.691505191595558
-0.107052587441893,-0.697119257670765
-0.106544507873289,-0.702832747611023
-0.106075920407109,-0.70864622710831
-0.105647102085946,-0.7145602618546
-0.105258329952392,-0.72057541754187
-0.104909881049037,-0.726692259862096
-0.104602032418474,-0.732911354507254
-0.104335061103295,-0.73923326716932
-0.104109244146089,-0.74565856354027
-0.103924858589451,-0.752187809312079
-0.10378218147597,-0.758821570176725
-0.103681489848238,-0.765560411826183
-0.103623060748848,-0.772404899952429
-0.103607171220391,-0.779355600247439
-0.103634098305458,-0.786413078403189
-0.103704119046641,-0.793577900111655
-0.103817510486531,-0.800850631064814
-0.10397454966772,-0.80823183695464
-0.104175513632801,-0.815722083473111
-0.104420679424363,-0.823321936312202
-0.104710324085,-0.83103196116389
-0.105044724657302,-0.83885272372015
-0.105424158183861,-0.846784789672958
-0.105848901707269,-0.85482872471429
-0.106319232270118,-0.862985094536123
-0.106835426914998,-0.871254464830433
-0.107397762684502,-0.879637401289195
-0.108006516621221,-0.888134469604385
-0.108661965767746,-0.89674623546798
-0.10936438716667,-0.905473264571955
-0.110114057860584,-0.914316122608287
-0.11091125489208,-0.923275375268951
-0.111756255303749,-0.932351588245925
