0.96809044053945,-0.823839672418719
-0.654390069736986,0.158326692471879
-0.321899981714785,0.111719776026481
-0.156478726826064,-0.567991383230912
0.00894252806265761,-1.24770254248831
-0.295059734004942,0.616593891501865
0.329925055088923,0.712032675014151
