0.581639823794833,-0.419660993878184
0.582037954162476,-0.423115379966516
0.582447649279813,-0.426555126426991
0.573229207144846,-0.436225028320582
0.600659196021784,-0.448032455209359
0.465197909874656,-0.534124372168026
0.60214521924855,-0.433914163041027
0.575893281546388,-0.417756874477708
0.468723335854666,-0.555479485253378
0.603799367418588,-0.47016132494726
0.602236649866195,-0.424118555518226
0.586635279520207,-0.45684053976803
0.587153942283862,-0.460129382766704
0.587682833827086,-0.463402684700874
0.605276551677609,-0.451892831073514
0.593636907082891,-0.488667209143051
0.591781915898729,-0.472247564978993
0.589898258759086,-0.476338842816784
0.610821504407511,-0.470577221817074
0.592963643729956,-0.453084272849695
0.598802685106592,-0.490670098619519
0.617714955150307,-0.465537966914309
0.592883113244861,-0.492149532655972
0.597657006997228,-0.448246864829321
0.594141005030899,-0.498359858366582
0.626865229271408,-0.506192817107168
0.602041276182748,-0.492410181898462
0.62614660980905,-0.491083268413121
0.609576196839139,-0.529710128281902
0.598533153929841,-0.503788645788004
0.488562321872772,-0.622846651402356
0.53192731940321,-0.646564211183478
0.599513710333309,-0.522533627308552
0.73535837211091,-0.437176465765713
0.600937313125297,-0.528406908117477
0.601660510506186,-0.531317573589629
0.602391143274567,-0.534210813175194
0.603129089978609,-0.537086544925385
0.603874229166483,-0.539944686891415
0.604626439386359,-0.542785157124498
0.605385599186408,-0.545607873675849
0.606924281719708,-0.551199717938205
0.608489305151745,-0.556719564088196
0.609281391075217,-0.559452282999088
0.610079697867885,-0.562166756535529
0.610884104077919,-0.564862902748734
0.61169448825349,-0.567540639689916
0.727562491001773,-0.463336112224783
0.613332704693926,-0.572840557961067
0.614160294055131,-0.575462575393463
0.614993375574555,-0.578065855758691
0.615831827800369,-0.580650317107965
0.616675529280743,-0.583215877492499
0.617524358563847,-0.585762454963506
0.618378194197852,-0.588289967572201
0.619236914730929,-0.590798333369796
0.620100398711248,-0.593287470407506
0.518902151118161,-0.709372835347351
0.621841171206293,-0.598207730408125
0.622718216817361,-0.600638689473462
0.623599540068352,-0.603050091983768
0.62537453368279,-0.607813899544146
0.626267961142576,-0.610166140696644
0.627165180434969,-0.612498497498967
0.628066070108138,-0.614810888002329
0.628970508710254,-0.617103230257943
0.630789546894009,-0.621627442230783
0.631703903571989,-0.623859148050436
0.632621323371598,-0.626070477827197
0.633541684841007,-0.628261349612279
0.634464866528385,-0.630431681456895
0.635390746981904,-0.632581391412261
0.636319204749734,-0.634710397529589
0.637250118380046,-0.636818617860093
0.639118827420795,-0.640972373365484
0.732394272118098,-0.525823521034196
0.640995902489516,-0.645042002338145
0.641937273654793,-0.647045064502736
0.643825075988029,-0.650987274444508
0.644771264252331,-0.652926258324116
0.645718815312648,-0.654843718877824
0.646667607717152,-0.656739574156846
0.647617520014013,-0.658613742212396
0.648568430751401,-0.660466141095687
0.649520218477487,-0.662296688857933
0.650472761740442,-0.664105303550347
0.535045019095885,-0.770994523020413
0.652379629069639,-0.667656405930538
0.653333710232222,-0.669398729720742
0.755298463617369,-0.571592981344519
0.65524256029421,-0.672816512757434
0.656197086289957,-0.67449180810635
0.657151517659765,-0.676144596743932
0.762430565901213,-0.581206706804587
0.659059610714249,-0.679382326089945
0.553179783065977,-0.786781579396365
0.660965867843027,-0.682529045205183
0.661918004305702,-0.684068071054296
0.662869317431463,-0.685584098499357
0.663819685768479,-0.68707704559158
0.664768987864921,-0.688546830382177
0.66571710226896,-0.689993370922363
0.666663907528765,-0.691416585263352
0.667609282192508,-0.692816391456358
0.784272228970051,-0.59290921350676
0.671374045850265,-0.69817989577282
0.672310445756253,-0.699461431994113
0.673244686355201,-0.700719068374707
0.675106203824661,-0.703162313818645
0.676033237791514,-0.704347758984418
0.787288051536795,-0.587607674099507
0.677879248930317,-0.706645884459639
0.794300577381669,-0.592460432217149
0.679713707997054,-0.708846443801186
0.577826701139635,-0.801134373098614
0.792200239629312,-0.602479956788101
0.68244161105502,-0.71196291220911
0.683344083455787,-0.7129522417221
0.68424293912756,-0.713916688008954
0.68513805661851,-0.714856169120887
0.686029314476807,-0.715770603109111
0.793256910586001,-0.618831955896061
0.779463039277994,-0.621763650326579
0.68867871573749,-0.71836280284367
0.689553320546882,-0.719176228849198
0.800644318702144,-0.624024212536895
0.692149847816941,-0.721463437864799
0.693856912180254,-0.722859866886519
0.694702893861404,-0.723519322454416
0.808427758433419,-0.608096508110153
0.696379148963543,-0.724760305960353
0.697209179480873,-0.725341670000821
0.600456632670371,-0.836401975893489
0.698852439188907,-0.726425732912822
0.597961218923111,-0.836355661509737
0.700472487449243,-0.72740436260767
0.701273503656951,-0.727853935126696
0.702068352647245,-0.728276903495075
0.702856912968298,-0.728673185764021
0.703639063168278,-0.729042699984748
0.584744373896258,-0.822910369363225
0.705183647397703,-0.729701096486398
0.70594583852349,-0.729989814869749
0.706701133720887,-0.730251437409735
0.707449411538064,-0.730485882157571
0.708190550523193,-0.73069306716447
0.709650926189984,-0.731025330160313
0.711081289106626,-0.731247570806973
0.711784912154066,-0.731317227877395
0.712480667658481,-0.731359133514161
0.71316843416804,-0.731373205768488
0.713848090230914,-0.731359362691587
0.714519514395274,-0.731317522334674
0.715837181221131,-0.731149521985663
0.71648318097897,-0.731023198095993
0.717120463030977,-0.730868549131165
0.717748905925321,-0.730685493142393
0.601233583688924,-0.828059917467758
0.719579985144087,-0.729965063544548
0.824378606885372,-0.6117195254222
0.833353904712437,-0.621278856283287
0.721890307817517,-0.728601820852504
0.722443665184703,-0.728188558515874
0.722987090327762,-0.727746151616222
0.723520461794863,-0.727274518204765
0.624994270019833,-0.845975023119954
0.60944009691526,-0.833757516749366
0.726032263176983,-0.724475085262858
0.726502762099923,-0.72382637185605
0.726962357184099,-0.723147858295931
0.727410926977683,-0.722439462633715
0.727848350028843,-0.721701102920617
0.728274504885752,-0.72093269720785
0.728689270096579,-0.720134163546627
0.729092524209495,-0.719305419988163
0.729484145772671,-0.718446384583671
0.729864013334277,-0.717556975384365
0.730232005442482,-0.716637110441459
0.73058800064546,-0.715686707806167
0.731263514528409,-0.713693961663277
0.731889583368487,-0.711578081365407
0.836198021185283,-0.608176404235377
0.73246523555106,-0.709338411322265
0.732733851766208,-0.708171950274253
0.732989499461491,-0.706974295943564
0.733232057185079,-0.705745366381412
0.733461403485143,-0.704485079639011
0.733677416909853,-0.703193353767575
0.733879976007381,-0.701870106818318
0.734068959325896,-0.700515256842454
0.734244245413569,-0.699128721891195
0.73440571281857,-0.697710420015756
0.734553240089071,-0.696260269267351
0.73480598841925,-0.693264093356497
0.625302328482656,-0.786806835871946
0.735001518789472,-0.690139538568343
0.735138859585099,-0.686885949312599
0.735217039191497,-0.683502669998974
0.735235085994028,-0.67998904503718
0.735192028378057,-0.676344418836925
0.735147281783559,-0.67447277540041
0.825401212862697,-0.556490206146888
0.735010745762392,-0.670630418110672
0.734918713432064,-0.668659540359877
0.73468651287277,-0.664617976902504
0.734546101740146,-0.662547127298353
0.73438932143643,-0.660442789845511
0.734216050509794,-0.658304882595191
0.734026167508408,-0.656133323598608
0.733355631537455,-0.649415916643414
0.733098085718774,-0.647108931173914
0.732221646452027,-0.6399832780291
0.731894494586779,-0.637539554906103
0.731549637580315,-0.635061442497766
0.731186953980806,-0.632548858855304
0.729990729105714,-0.624803461035297
0.614287130368335,-0.716979189223436
0.83878590887591,-0.50113454106202
0.728138822225304,-0.613988695104492
0.727100565346331,-0.608370878987739
0.834000945145193,-0.500280917811394
0.724169578293431,-0.593707316957299
0.723524921578706,-0.590667830948597
0.721471846693312,-0.581334350639111
0.720002661633737,-0.574932025708774
0.627957292814482,-0.666106350077679
0.717645752303817,-0.565056892251525
0.831195526404502,-0.45333803705255
0.71510217004132,-0.554853816749314
0.714212259638043,-0.55137953314425
0.713301121990496,-0.547868483739045
0.712368635646848,-0.544320586584913
0.71141467915527,-0.540735759733067
0.595213930024648,-0.634630925708944
0.615575996214636,-0.620295238300132
0.707381722673068,-0.526025516372828
0.706318593664397,-0.522254811800623
0.607713533650143,-0.625719299196839
0.701842874522349,-0.506796960119633
0.700667536700848,-0.502838329107412
0.698248321251853,-0.494807491731098
0.6970042007207,-0.490735121469432
0.695736909716004,-0.486624674227046
0.693132330478665,-0.478289221004967
0.691794799342362,-0.474064051127702
0.690433611925199,-0.469800476474571
0.689048646775345,-0.465498415096788
0.687639782440971,-0.461157785045567
0.684749870411345,-0.452360491127666
0.683268579812434,-0.447903663363414
0.681762904221685,-0.443407939130578
0.680232722187268,-0.438873236480374
0.675493922903717,-0.425034438537682
0.673864500576335,-0.420343002730137
0.672209964546138,-0.415612178761293
0.670530193361296,-0.410841884682361
0.668825065569981,-0.406032038544557
0.667094459720362,-0.401182558399094
0.663556328038895,-0.391364368290044
0.65805500878368,-0.37633777934937
0.65616898409582,-0.37124877423344
0.547081521442088,-0.470811520580745
0.65231782860494,-0.360950059105306
0.650352454898261,-0.355740185195529
0.644295692511316,-0.339867514697924
0.642222819787266,-0.334495335113343
0.519442087321138,-0.411439814378141
0.633658330533605,-0.312597984380492
0.631448351371677,-0.307021078854716
0.629210586566686,-0.301402982294343
0.6269449146668,-0.295743612750585
0.718458293782702,-0.178780450378098
0.622329363775031,-0.284300726917773
0.615193697929937,-0.266824802073518
0.612758032972271,-0.260916073704945
0.607800309832009,-0.248972995144351
0.716206088488397,-0.124831530114072
0.600145920281849,-0.230743093513042
0.594896373750553,-0.218378680496052
0.59222725008006,-0.212132884562363
0.589528397537232,-0.205844586413497
0.586799694670237,-0.199513704100666
0.578433269605966,-0.18026473269053
0.575583950924014,-0.173762694233982
0.457270768109622,-0.283817889104742
0.666734451971813,-0.0332120515444798
0.560878064727969,-0.140605954357091
0.557844178768697,-0.133844723221379
0.548554917317821,-0.113299788415423
0.545395557470411,-0.106364123184543
0.649300725401349,0.0039944117675971
0.52577003343815,-0.063827182280842
0.518970281079564,-0.0492946353921956
0.512039953856001,-0.0345842125593597
0.603880451316755,0.0649889194515295
0.604796557156724,0.0780799396250278
0.490455806849096,0.0106208675071843
0.479211565978461,0.0338314830123954
0.475395688251285,0.0416589864278097
0.463742962433249,0.0654145386980906
0.459789951442304,0.0734243432921515
0.447722910989053,0.0977287658692416
0.443630823505066,0.105922182822529
0.439503663268245,0.114161707737588
0.532601510081734,0.220277955386978
0.426910531522483,0.139157749741261
0.422641865756031,0.147582525991271
0.418337519977597,0.156053819946985
0.409621302577467,0.173136288770668
0.291613299292144,0.107235672571972
0.382603699099251,0.225508642852366
0.373488189307847,0.24303834859709
0.466532773206178,0.366986410314874
0.355907052840853,0.276844804476393
0.351645374245037,0.285037526516695
0.343280199524689,0.301114868868976
0.331123299007018,0.324466132191824
0.323275699447416,0.33952808858185
0.315630841644443,0.354189027761188
0.30453833534908,0.375434950727924
0.300939549462288,0.382319596600291
0.290435052129235,0.402386686041971
0.377398237611683,0.538927892956618
0.277098627628463,0.427787192019468
0.273882045870446,0.433897690987621
0.255546174314441,0.468576068034459
0.249793958693902,0.479388289153646
0.347608112120934,0.59730469616458
0.244217529753221,0.48983178387149
0.238814437030871,0.499909487716114
0.223620671558568,0.527977209291891
0.22123325668375,0.532343229732958
0.218886419094299,0.536621104924859
0.336067581294481,0.637986714073703
0.107269352539013,0.428342096009736
0.310145777892372,0.657292597976562
0.319224105144299,0.659224129121496
0.199540317861837,0.571215990706951
0.19758240620308,0.574632595163019
0.193777900280187,0.581213844322172
0.191930693400671,0.584379222907288
0.190119775498853,0.58746159341745
0.184901692582691,0.596214325908371
0.181598799886085,0.601641167779499
0.176902078558615,0.609176299722267
0.173939102562205,0.613800581420009
0.1725071471075,0.615994081212694
0.171107804938206,0.61810897622261
0.169740769746634,0.620145633390771
0.168405735225092,0.622104419658194
0.162199851898675,0.630743130419751
0.161050388935815,0.632242397044059
0.159930782489152,0.633666361354735
0.158840726250995,0.635015390292794
0.155744795710654,0.638616534281423
0.152903789970005,0.64155646979305
0.150309438721401,0.643845104235089
0.14949803764532,0.64446496120282
0.148712817393149,0.645013919149102
0.147219694129772,0.645900605741383
0.145168707721762,0.64670806649432
0.0432222184928395,0.535717706833242
0.142233172494519,0.646684779455616
0.141715724997771,0.646478066272972
0.260432504252726,0.741233155623359
0.0365527561433624,0.545768672451661
0.140297188066497,0.645460420113512
0.13945993833455,0.644454403241083
0.138706582975279,0.6431897422719
0.137728491500557,0.640814214604477
0.137174151303806,0.638915786328942
0.136925378518279,0.637873250065044
0.135953235411494,0.631742025124865
0.135811006800473,0.630334639999798
0.135685463474953,0.628867731024757
0.135405882134491,0.624113530409938
0.135265441286674,0.618836825021898
0.0395746840713573,0.512720819951495
0.135255870623855,0.61304752226805
0.135280333230359,0.611005556549104
0.135368899838388,0.606755529555807
0.135432391224532,0.604548202163487
0.135696022019196,0.597601367696025
0.135807263470526,0.595178695246755
0.135929676668926,0.592703103885785
0.136360883669637,0.584962485742833
0.13652492077941,0.582278888145219
0.136881609317116,0.576758807271137
0.137483583303716,0.56810197587811
0.137700867049831,0.565117377155988
0.137925953158419,0.562083895873334
0.138398307232253,0.555871753390496
0.138644962582118,0.55269382607234
0.138898195063693,0.549468483957715
0.0311839780668549,0.439585962178579
0.13997077015329,0.53610030635482
0.140829252276613,0.525594297899463
0.141422717555909,0.518367284352462
0.141724874431609,0.514687976028978
0.142030239054424,0.510965289260192
0.142338505116663,0.507199590987119
0.143277648863013,0.495648096552336
0.14359445760604,0.491714021672271
0.144551878010182,0.479666204000875
0.145192923681922,0.471433334104099
0.145513357215413,0.467257702544003
0.147415410798558,0.441398277903476
0.148034249611106,0.432480367596259
0.149234455894304,0.414215007009994
0.150904330041483,0.38578714912286
0.151416370170412,0.376048320737575
0.151662652240244,0.371131268575206
0.1519020339034,0.36618294702104
0.152358870778924,0.356193963501377
0.152784430335458,0.346084305706709
0.152984715349877,0.340985141308787
0.153176262111477,0.335856909165158
0.153531915645457,0.325514709404847
0.154246688517728,0.299176210325295
0.154456420820062,0.288455316583286
0.154618947803495,0.277632829499067
0.154792583967559,0.255694817416487
0.0554193216084298,0.155952175127471
0.15474799331772,0.233385658302536
0.154700450407909,0.227753128858011
0.154465572161782,0.210728836382192
0.154355508548539,0.205013060646221
0.154229048990213,0.199277390689928
0.154085887179111,0.193522193454327
0.044550048710577,0.0931577758854662
0.153553125152251,0.176143107481829
0.152590361577693,0.152719872029783
0.15230255466753,0.14682166643627
0.151668257473544,0.134976947759747
0.0602363620376234,0.0329277217943499
0.150953673730072,0.123070265370667
0.148303698587491,0.0870077912092978
0.147243464030827,0.0748826092512066
0.145478836069522,0.0566070922817081
0.143497725372074,0.0382350890577419
0.135224349953464,-0.0235745606413308
0.132209579399924,-0.042250185371218
0.131147155171533,-0.0484855821465932
0.121568640247175,-0.0984993104208207
0.118863024373754,-0.111025553005269
0.114561405206929,-0.129820099185862
-0.00525171062143449,-0.261716102037149
0.103346499076417,-0.173646852616739
0.10160527200312,-0.179899328430201
0.0998283516002303,-0.186148581180023
0.096166205574912,-0.198635949724685
0.0923576105389377,-0.211106022722602
0.0884001160307826,-0.223555864645652
0.063862813171308,-0.291537183346216
0.0563226304845506,-0.309891703648455
-0.0713865301535083,-0.457148364447237
-0.0540156422273568,-0.45946234324489
0.0284040551077878,-0.370307411646108
0.0191612365686651,-0.388164154276871
0.00283029907946596,-0.417606518284735
-0.0257923740384978,-0.463783464076218
-0.0452995079464208,-0.491990728809725
-0.0534615666622801,-0.503120075315187
-0.0704149418941398,-0.525099378256396
-0.131522191306121,-0.593702598369503
-0.136616260567234,-0.598785112365781
-0.0621816325215267,-0.529882613909636
-0.173908828158533,-0.633512162774113
-0.238481139066413,-0.684845876792206
-0.257403097540016,-0.698105326456831
-0.324694445531613,-0.739820181710876
