-0.629975206378305,0.850961625014578
-0.628480736137445,0.849224569042466
-0.626943317456536,0.847506457717635
-0.625363261626566,0.845807220337441
-0.62374087993852,0.844126786199246
-0.622076483683383,0.842465084600407
-0.620370384152141,0.840822044838283
-0.618622892635781,0.839197596210234
-0.616834320425289,0.837591668013617
-0.615004978811649,0.836004189545793
-0.613135179085848,0.834435090104119
-0.611225232538872,0.832884298985955
-0.609275450461706,0.831351745488661
-0.607286144145336,0.829837358909594
-0.605257624880749,0.828341068546113
-0.603190203958929,0.826862803695578
-0.601084192670864,0.825402493655347
-0.598939902307538,0.82396006772278
-0.596757644159937,0.822535455195234
-0.594537729519048,0.82112858537007
-0.592280469675856,0.819739387544646
-0.589986175921346,0.818367791016321
-0.587655159546506,0.817013725082454
-0.58528773184232,0.815677119040403
-0.582884204099774,0.814357902187529
-0.580444887609855,0.813056003821189
-0.577970093663548,0.811771353238742
-0.575460133551839,0.810503879737547
-0.572915318565713,0.809253512614965
-0.570335959996157,0.808020181168352
-0.567722369134157,0.806803814695068
-0.565074857270698,0.805604342492473
-0.562393735696765,0.804421693857925
-0.559679315703346,0.803255798088782
-0.556931908581425,0.802106584482404
-0.554151825621989,0.80097398233615
-0.551339378116024,0.799857920947379
-0.548494877354514,0.798758329613449
-0.545618634628447,0.797675137631719
-0.542710961228807,0.796608274299549
-0.539772168446581,0.795557668914297
-0.536802567572755,0.794523250773322
-0.533802469898314,0.793504949173983
-0.530772186714244,0.792502693413639
-0.527712029311531,0.791516412789649
-0.524622308981161,0.790546036599372
-0.521503337014119,0.789591494140167
-0.518355424701392,0.788652714709392
-0.515178883333966,0.787729627604407
-0.511974024202825,0.78682216212257
-0.508741158598957,0.785930247561241
-0.505480597813346,0.785053813217777
-0.502192653136979,0.784192788389539
-0.498877635860841,0.783347102373886
-0.495535857275919,0.782516684468175
-0.492167628673198,0.781701463969765
-0.488773261343664,0.780901370176017
-0.485353066578302,0.780116332384289
-0.481907355668099,0.779346279891939
-0.478436439904041,0.778591141996327
-0.474940630577113,0.777850847994811
-0.471420238978301,0.77712532718475
-0.467875576398591,0.776414508863504
-0.464306954128968,0.775718322328431
-0.460714683460419,0.77503669687689
-0.45709907568393,0.77436956180624
-0.453460442090486,0.77371684641384
-0.449799093971072,0.773078479997049
-0.446115342616676,0.772454391853225
-0.442409499318283,0.771844511279729
-0.438681875366878,0.771248767573917
-0.434932782053447,0.77066709003315
-0.431162530668977,0.770099407954787
-0.427371432504453,0.769545650636186
-0.42355979885086,0.769005747374706
-0.419727940999185,0.768479627467706
-0.415876170240414,0.767967220212545
-0.412004797865533,0.767468454906583
-0.408114135165526,0.766983260847176
-0.40420449343138,0.766511567331686
-0.400276183954081,0.76605330365747
-0.396329518024615,0.765608399121888
-0.392364806933967,0.765176783022299
-0.388382361973124,0.76475838465606
-0.384382494433071,0.764353133320532
-0.380365515604794,0.763960958313074
-0.376331736779278,0.763581788931043
-0.372281469247511,0.7632155544718
-0.368215024300477,0.762862184232702
-0.364132713229162,0.762521607511109
-0.360034847324552,0.76219375360438
-0.355921737877633,0.761878551809874
-0.351793696179391,0.761575931424949
-0.347651033520811,0.761285821746965
-0.34349406119288,0.76100815207328
-0.339323090486583,0.760742851701253
-0.335138432692907,0.760489849928244
-0.330940399102836,0.760249076051611
-0.326729301007357,0.760020459368713
-0.322505449697456,0.759803929176908
-0.318269156464118,0.759599414773557
-0.314020732598329,0.759406845456018
-0.309760489391075,0.759226150521649
-0.305488738133343,0.759057259267809
-0.301205790116117,0.758900100991859
-0.296911956630383,0.758754604991155
-0.292607548967128,0.758620700563058
-0.288292878417337,0.758498317004926
-0.283968256271997,0.758387383614119
-0.279633993822092,0.758287829687994
-0.275290402358609,0.758199584523911
-0.270937793172533,0.75812257741923
-0.266576477554851,0.758056737671307
-0.262206766796548,0.758001994577505
-0.25782897218861,0.757958277435179
-0.253443405022022,0.757925515541689
-0.249050376587772,0.757903638194396
-0.244650198176844,0.757892574690656
-0.240243181080224,0.75789225432783
-0.235829636588898,0.757902606403276
-0.231409875993853,0.757923560214353
-0.226984210586073,0.75795504505842
-0.222552951656545,0.757996990232836
-0.218116410496255,0.758049325034959
-0.213674898396187,0.75811197876215
-0.209228726647329,0.758184880711766
-0.204778206540666,0.758267960181166
-0.200323649367184,0.75836114646771
-0.195865366417868,0.758464368868757
-0.191403668983705,0.758577556681665
-0.18693886835568,0.758700639203792
-0.182471275824779,0.758833545732499
-0.178001202681988,0.758976205565144
-0.173528960218293,0.759128547999086
-0.169054859724679,0.759290502331683
-0.164579212492133,0.759461997860295
-0.16010232981164,0.759642963882281
-0.155624522974186,0.759833329695
-0.151146103270757,0.76003302459581
-0.146667381992339,0.76024197788207
-0.142188670429918,0.760460118851139
-0.137710279874479,0.760687376800377
-0.133232521617008,0.760923681027142
-0.128755706948491,0.761168960828793
-0.124280147159914,0.761423145502688
-0.119806153542262,0.761686164346188
-0.115334037386523,0.76195794665665
-0.11086410998368,0.762238421731434
-0.106396682624721,0.762527518867899
-0.101932066600631,0.762825167363403
-0.0974705732023957,0.763131296515305
-0.0930125137210011,0.763445835620964
-0.0885581994474331,0.76376871397774
-0.0841079416726774,0.764099860882991
-0.0796620516877199,0.764439205634076
-0.0752208407835463,0.764786677528353
-0.0707846202511426,0.765142205863183
-0.0663537013814946,0.765505719935924
-0.0619283954655881,0.765877149043934
-0.0575090137944088,0.766256422484572
-0.0530958676589428,0.766643469555198
-0.0486892683501757,0.767038219553171
-0.0442895271590934,0.767440601775849
-0.0398969553766817,0.767850545520591
-0.0355118642939265,0.768267980084756
-0.0311345652018137,0.768692834765703
-0.0267653693913289,0.769125038860791
-0.022404588153458,0.769564521667379
-0.018052532779187,0.770011212482825
-0.0137095145595016,0.77046504060449
-0.00937584478538755,0.770925935329731
-0.00505183474783083,0.771393825955907
-0.00073779573781721,0.771868641780378
0.00356596095366746,0.772350312100502
0.00785912403563746,0.772838766213638
0.0121413822171069,0.773333933417146
0.0164124242070898,0.773835743008383
0.0206719387146004,0.77434412428471
0.0249196144486531,0.774859006543484
0.029155140118262,0.775380319082065
0.0333782044324409,0.775907991197812
0.0375884961002044,0.776441952188083
0.0417857038305665,0.776982131350238
0.0459695163325414,0.777528457981635
0.0501396223151432,0.778080861379634
0.0542957104873861,0.778639270841593
0.0584374695582844,0.77920361566487
0.0625645882368522,0.779773825146826
0.0666767552321036,0.780349828584819
0.0707736592530527,0.780931555276208
0.0748549890087139,0.781518934518352
0.0789204332081013,0.782111895608609
0.0829696805602289,0.782710367844339
0.0870024197741111,0.7833142805229
0.0910183395587619,0.783923562941652
0.0950171286231956,0.784538144397953
0.0989984756764263,0.785157954189163
0.102962069427468,0.785782921612639
0.106907598585335,0.786412975965742
0.110834751859042,0.787048046545829
0.114743217957603,0.787688062650261
0.118632685590031,0.788332953576395
0.122502843465341,0.788982648621591
0.126353380292548,0.789637077083208
0.130183984780665,0.790296168258604
0.133994345638706,0.790959851445138
0.137784151575686,0.79162805594017
0.14155309130062,0.792300711041058
0.14530085352252,0.792977746045162
0.149027126950401,0.793659090249839
0.152731600293278,0.79434467295245
0.156413962260164,0.795034423450352
0.160073901560074,0.795728271040905
0.163711106902023,0.796426145021468
0.167325266995023,0.797127974689399
0.170916070548089,0.797833689342058
0.174483206270236,0.798543218276804
0.178026362870478,0.799256490790994
0.181545229057828,0.799973436181989
0.185039493541301,0.800693983747148
0.188508845029911,0.801418062783828
0.191952972232673,0.802145602589389
0.1953715638586,0.80287653246119
0.198764308616707,0.803610781696591
0.202130895216007,0.804348279592948
0.205471012365516,0.805088955447623
0.208784348774246,0.805832738557973
0.212070593151213,0.806579558221357
0.215329434205431,0.807329343735135
0.218560560645913,0.808082024396665
0.221763661181674,0.808837529503306
0.224938424521728,0.809595788352418
0.228084539375089,0.810356730241358
0.231201694450771,0.811120284467486
0.234289578457789,0.811886380328161
0.237347880105157,0.812654947120742
0.240376288101888,0.813425914142588
0.243374491156998,0.814199210691057
0.246342177979499,0.814974766063508
0.249279037278408,0.815752509557301
0.252184757762736,0.816532370469795
0.255059028141499,0.817314278098347
0.257901537123712,0.818098161740318
0.260711973418387,0.818883950693065
0.26349002573454,0.819671574253949
0.266235382781183,0.820460961720327
0.268947733267333,0.821252042389559
0.271626765902002,0.822044745559004
0.274272169394205,0.82283900052602
0.276883632452957,0.823634736587967
0.27946084378727,0.824431883042203
0.28200349210616,0.825230369186088
0.28451126611864,0.826030124316979
0.286983854533726,0.826831077732237
0.28942094606043,0.82763315872922
0.291822229407767,0.828436296605287
0.294187393284752,0.829240420657797
0.296516126400398,0.830045460184108
0.298808117463719,0.83085134448158
0.301063055183731,0.831658002847572
0.303280628269446,0.832465364579442
0.30546052542988,0.83327335897455
0.307602435374046,0.834081915330254
0.309706046810958,0.834890962943913
0.311771048449631,0.835700431112887
0.313797128999079,0.836510249134533
0.315783977168316,0.837320346306212
0.317731281666356,0.838130651925281
0.319638731202213,0.838941095289099
0.321506014484902,0.839751605695027
0.323332820223436,0.840562112440423
0.325118837126831,0.841372544822644
0.326863753904099,0.842182832139052
0.328567259264256,0.842992903687003
0.330229041916314,0.843802688763858
0.33184879056929,0.844612116666975
0.333426193932196,0.845421116693713
0.334960940714047,0.846229618141431
0.336452719623857,0.847037550307488
0.33790121937064,0.847844842489242
0.339306128663411,0.848651423984054
0.340667136211183,0.84945722408928
0.341983930722971,0.850262172102282
0.343256200907789,0.851066197320417
0.344483635474651,0.851869229041044
0.345665923132571,0.852671196561523
0.346802752590564,0.853472029179211
0.347893812557643,0.854271656191469
0.348938791742823,0.855070006895655
0.349937378855118,0.855867010589127
0.350889262603542,0.856662596569246
0.351794131697109,0.857456694133369
0.352651674844834,0.858249232578856
0.35346158075573,0.859040141203065
0.354223538138812,0.859829349303356
0.354937235703094,0.860616786177087
0.35560236215759,0.861402381121617
0.356218606211315,0.862186063434306
0.356785656573282,0.862967762412511
0.357303201952505,0.863747407353593
0.357770931058,0.864524927554909
0.358188532598779,0.86530025231382
0.358555695283857,0.866073310927683
0.358872107822249,0.866844032693858
0.359137458922969,0.867612346909703
0.35935143729503,0.868378182872578
0.359513731647446,0.869141469879841
0.359624030689233,0.869902137228851
0.359682023129404,0.870660114216967
0.359687397676974,0.871415330141549
0.359639843040956,0.872167714299955
0.359539047930364,0.872917195989543
0.359384701054214,0.873663704507674
0.359176491121518,0.874407169151705
0.358914106841292,0.875147519218996
0.358597236922549,0.875884684006905
0.358225570074303,0.876618592812792
0.35779879500557,0.877349174934015
0.357316600425362,0.878076359667933
0.356778675042694,0.878800076311906
0.356184707566581,0.879520254163292
0.355534386706036,0.88023682251945
0.354827401170073,0.880949710677739
0.354063439667707,0.881658847935517
0.353242190907953,0.882364163590144
0.352363343599823,0.883065586938979
0.351426586452332,0.883763047279381
0.350431608174495,0.884456473908708
0.349378097475326,0.885145796124319
0.348265743063838,0.885830943223574
0.347094233649047,0.886511844503831
0.345863257939965,0.887188429262449
0.344572504645608,0.887860626796787
0.343221662474989,0.888528366404205
0.341810420137123,0.889191577382059
0.340338466341023,0.889850189027711
0.338805489795705,0.890504130638518
0.337211179210181,0.89115333151184
0.335555223293467,0.891797720945036
0.333837310754577,0.892437228235464
0.332057130302524,0.893071782680483
0.330214370646323,0.893701313577452
0.328308720494988,0.894325750223731
0.326339868557533,0.894945021916677
0.324307503542973,0.895559057953651
0.322211314160321,0.89616778763201
0.320050989118591,0.896771140249114
0.317826217126799,0.897369045102322
0.315536686893957,0.897961431488993
0.313182087129081,0.898548228706485
0.310762106541184,0.899129366052157
0.308276433839281,0.899704772823369
0.305724757732385,0.900274378317478
0.303106766929511,0.900838111831846
0.300422150139674,0.901395902663829
0.297670596071886,0.901947680110787
0.294851793435163,0.902493373470079
0.291965430938519,0.903032912039064
0.289011197290967,0.9035662251151
0.285988781201522,0.904093241995547
0.282897871379198,0.904613891977764
0.27973815653301,0.905128104359109
0.276509325371971,0.905635808436941
0.273211066605095,0.90613693350862
0.269843068941397,0.906631408871504
0.266405021089892,0.907119163822952
0.262896611759592,0.907600127660322
0.259317529659512,0.908074229680975
0.255667463498667,0.908541399182269
0.251946101986071,0.909001565461562
0.248153133830738,0.909454657816214
0.244288247741681,0.909900605543583
0.240351132427915,0.910339337941029
0.236341476598455,0.91077078430591
0.232258968962315,0.911194873935586
0.228103298228507,0.911611536127414
0.223874153106048,0.912020700178755
0.219571222303951,0.912422295386967
0.21519419453123,0.912816251049408
0.210742758496899,0.913202496463439
0.206216602909973,0.913580960926417
0.201615416479465,0.913951573735702
0.196938887914391,0.914314264188652
0.192186705923763,0.914668961582627
0.187358559216596,0.915015595214985
0.182454136501905,0.915354094383085
0.177473126488704,0.915684388384287
0.172415217886005,0.916006406515949
0.167280099402826,0.916320078075429
0.162067459748177,0.916625332360088
0.156776987631076,0.916922098667283
0.151408371760534,0.917210306294375
0.145961300845567,0.91748988453872
0.140435463595189,0.91776076269768
0.134830548718414,0.918022870068612
0.129146244924256,0.918276135948875
0.123382240921729,0.918520489635828
0.117538225419847,0.918755860426831
0.111613887127625,0.918982177619242
0.105608914754077,0.91919937051042
0.105608914754077,0.91919937051042
0.0995925729902249,0.919408886388225
0.0936342492058212,0.919612155824154
0.0877338161279761,0.919809083041019
0.0818911464837997,0.919999572261632
0.0761061130004017,0.920183527708806
0.0703785884048921,0.920360853605353
0.0647084454243809,0.920531454174085
0.059095556785978,0.920695233637816
0.0535397952167935,0.920852096219357
0.0480410334439372,0.92100194614152
0.042599144194519,0.921144687627118
0.037214000195649,0.921280224898963
0.0318854741744372,0.921408462179868
0.0266134388579934,0.921529303692645
0.0213977669734275,0.921642653660107
0.0162383312478496,0.921748416305066
0.0111350044083697,0.921846495850333
0.0060876591820975,0.921936796518722
0.00109616829614317,0.922019222533045
-0.00383959552238343,0.922093678116115
-0.00871975954637231,0.922160067490743
-0.0135444510487135,0.922218294879742
-0.0183137973022972,0.922268264505925
-0.0230279255800132,0.922309880592104
-0.0276869631547518,0.92234304736109
-0.0322910372994029,0.922367669035697
-0.0368402752868566,0.922383649838737
-0.041334804390003,0.922390893993023
-0.045774751881732,0.922389305721366
-0.0501602450349337,0.922378789246579
-0.0544914111224983,0.922359248791475
-0.0587683774173157,0.922330588578865
-0.062991271192276,0.922292712831563
-0.0671602197202692,0.92224552577238
-0.0712753502741854,0.922188931624129
-0.0753367901269146,0.922122834609622
-0.0793446665513469,0.922047138951672
-0.0832991068203723,0.921961748873091
-0.0872002382068809,0.921866568596692
-0.0910481879837628,0.921761502345286
-0.094843083423908,0.921646454341687
-0.0985850518002064,0.921521328808705
-0.102274220385548,0.921386029969155
-0.105910716452823,0.921240462045848
-0.109494667274922,0.921084529261597
-0.113026200124734,0.920918135839214
-0.11650544227515,0.920741186001511
-0.11993252099906,0.920553583971301
-0.123307563569353,0.920355233971396
-0.12663069725892,0.920146040224609
-0.12990204934065,0.919925906953751
-0.133121747087435,0.919694738381636
-0.136289917772163,0.919452438731076
-0.139406688667725,0.919198912224882
-0.142472187047011,0.918934063085868
-0.145486540182912,0.918657795536845
-0.148449875348316,0.918370013800627
-0.151362319816114,0.918070622100025
-0.154224000859197,0.917759524657852
-0.157035045750453,0.917436625696921
-0.159795581762774,0.917101829440043
-0.16250573616905,0.916755040110031
-0.165165636242169,0.916396161929697
-0.167775409255023,0.916025099121854
-0.170335182480502,0.915641755909315
-0.172845083191495,0.91524603651489
-0.175305238660892,0.914837845161394
-0.177715776161585,0.914417086071638
-0.180076822966461,0.913983663468434
-0.182388506348413,0.913537481574596
-0.184650953580329,0.913078444612934
-0.1868642919351,0.912606456806263
-0.189028648685616,0.912121422377394
-0.191144151104767,0.911623245549139
-0.193210926465443,0.911111830544311
-0.195229102040533,0.910587081585722
-0.197198805102929,0.910048902896185
-0.19912016292552,0.909497198698512
-0.200993302781196,0.908931873215515
-0.202818351942847,0.908352830670007
-0.204595437683364,0.9077599752848
-0.206324687275635,0.907153211282706
-0.208006227992552,0.906532442886538
-0.209640187107005,0.905897574319109
-0.211226691891883,0.90524850980323
-0.212765869620076,0.904585153561714
-0.214257847564475,0.903907409817374
-0.21570275299797,0.903215182793021
-0.21710071319345,0.902508376711468
-0.218451855423806,0.901786895795528
-0.219756306961927,0.901050644268012
-0.221014195080704,0.900299526351734
-0.222225647053028,0.899533446269505
-0.223390790151787,0.898752308244139
-0.224509751649871,0.897956016498446
-0.225582658820172,0.89714447525524
-0.226609638935579,0.896317588737334
-0.227590819268982,0.895475261167539
-0.228526327093271,0.894617396768667
-0.229416289681337,0.893743899763532
-0.230260834306068,0.892854674374945
-0.231060088240356,0.891949624825719
-0.23181417875709,0.891028655338667
-0.232523233129161,0.890091670136601
-0.233187378629458,0.889138573442332
-0.233806742530871,0.888169269478674
-0.234381452106291,0.887183662468438
-0.234911634628607,0.886181656634438
-0.23539741737071,0.885163156199486
-0.23583892760549,0.884128065386393
-0.236236292605836,0.883076288417972
-0.23658963964464,0.882007729517037
-0.23689909599479,0.880922292906398
-0.237164788929176,0.879819882808869
-0.23738684572069,0.878700403447261
-0.237565393642221,0.877563759044388
-0.237700559966659,0.876409853823061
-0.237792471966893,0.875238592006093
-0.237841256915815,0.874049877816297
-0.237847042086314,0.872843615476484
-0.237809954751281,0.871619709209467
-0.237730122183604,0.870378063238058
-0.237607671656175,0.869118581785071
-0.237442730441883,0.867841169073316
-0.237235425813618,0.866545729325608
-0.236985885044271,0.865232166764756
-0.236694235406732,0.863900385613575
-0.23636060417389,0.862550290094877
-0.235985118618635,0.861181784431474
-0.235567906013859,0.859794772846178
-0.235109093632449,0.858389159561802
-0.234608808747298,0.856964848801159
-0.234067178631295,0.85552174478706
-0.233484330557329,0.854059751742317
-0.232860391798291,0.852578773889744
-0.232195489627071,0.851078715452152
-0.231489751316559,0.849559480652355
-0.230743304139645,0.848020973713164
-0.22995627536922,0.846463098857391
-0.229128792278172,0.84488576030785
-0.228260982139393,0.843288862287353
-0.227352972225771,0.841672309018711
-0.226404889810198,0.840036004724737
-0.225416862165564,0.838379853628244
-0.224389016564757,0.836703759952044
-0.22332148028067,0.83500762791895
-0.22221438058619,0.833291361751773
-0.221067844754209,0.831554865673326
-0.219882000057617,0.829798043906422
-0.218656973769303,0.828020800673873
-0.217392893162158,0.82622304019849
-0.216089885509072,0.824404666703088
-0.214748078082935,0.822565584410478
-0.213367598156636,0.820705697543471
-0.211948573003066,0.818824910324882
-0.210491129895115,0.816923126977521
-0.208995396105674,0.815000251724203
-0.207461498907631,0.813056188787738
-0.205889565573877,0.811090842390939
-0.204279723377302,0.809104116756619
-0.202632099590797,0.80709591610759
-0.20094682148725,0.805066144666664
-0.199224016339553,0.803014706656654
-0.197463811420595,0.800941506300372
-0.195666334003267,0.79884644782063
-0.193831711360458,0.796729435440241
-0.191960070765058,0.794590373382018
-0.190051539489958,0.792429165868772
-0.188106244808048,0.790245717123316
-0.186124313992217,0.788039931368463
-0.184105874315356,0.785811712827024
-0.182051053050354,0.783560965721812
-0.179959977470102,0.78128759427564
-0.17783277484749,0.778991502711319
-0.175669572455408,0.776672595251663
-0.173470497566746,0.774330776119483
-0.171235677454394,0.771965949537592
-0.168965239391241,0.769578019728803
-0.166659310650179,0.767166890915927
-0.164318018504097,0.764732467321777
-0.161941490225885,0.762274653169166
-0.159529853088433,0.759793352680906
-0.157083234364631,0.757288470079808
-0.15460176132737,0.754759909588687
-0.152085561249539,0.752207575430353
-0.149534761404029,0.74963137182762
-0.146949489063728,0.747031203003299
-0.144329871501529,0.744406973180203
-0.14167603599032,0.741758586581145
-0.138988109802991,0.739085947428937
-0.136266220212433,0.73638895994639
-0.133510494491536,0.733667528356319
-0.13072105991319,0.730921556881534
-0.127898043750284,0.728150949744848
-0.125041573275709,0.725355611169074
-0.122151775762355,0.722535445377025
-0.119228778483112,0.719690356591512
-0.11627270871087,0.716820249035347
-0.113283693718519,0.713925026931343
-0.110261860778949,0.711004594502314
-0.10720733716505,0.70805885597107
-0.104120250149712,0.705087715560424
-0.101000727005826,0.702091077493189
-0.0978488950062804,0.699068845992177
-0.0946648814239665,0.696020925280201
-0.0914488135317739,0.692947219580072
-0.0882008186025928,0.689847633114603
-0.0849210239093132,0.686722070106607
-0.081609556724825,0.683570434778896
-0.0782665443220185,0.680392631354282
-0.0748921139737835,0.677188564055578
-0.0714863929530102,0.673958137105596
-0.0680495085325886,0.670701254727148
-0.0645815879854089,0.667417821143047
-0.0610827585843608,0.664107740576105
-0.0575531476023347,0.660770917249134
-0.0539928823122203,0.657407255384948
-0.0504020899869082,0.654016659206358
-0.0467808978992879,0.650599032936176
-0.0431294333222497,0.647154280797215
-0.0394478235286835,0.643682307012288
-0.0357361957914796,0.640183015804207
-0.0319946773835278,0.636656311395783
-0.0282233955777183,0.63310209800983
-0.024422477646941,0.62952027986916
-0.0205920508640863,0.625910761196586
-0.0167322425020437,0.622273446214919
-0.0128431798337038,0.618608239146971
-0.00892499013195609,0.614915044215557
-0.00497780066969125,0.611193765643487
-0.00100173871979878,0.607444307653574
0.00300306844483092,0.603666574468631
0.00703649355130798,0.599860470311469
0.0110984093267422,0.596025899404902
0.0151886884982439,0.592162765971741
0.0193072037929224,0.588270974234799
0.0234538279378883,0.584350428416889
0.0276284336602511,0.580401032740823
0.031830893687121,0.576422691429412
0.0360610807456078,0.57241530870547
0.0403188675628217,0.568378788791809
0.0446041268658722,0.564313035911241
0.0489167313818697,0.560217954286579
0.0532565538379238,0.556093448140634
0.0576234669611448,0.55193942169622
0.0620173434786423,0.547755779176149
0.0664380561175267,0.543542424803233
0.0708854776049073,0.539299262800284
0.0753594806678947,0.535026197390115
0.0798599380335984,0.530723132795539
0.0843867224291287,0.526389973239366
0.0889397065815952,0.522026622944411
0.0935187632181082,0.517632986133485
0.0981237650657773,0.513208967029401
0.102754584851713,0.508754469854971
0.107411095303024,0.504269398833008
0.112093169146822,0.499753658186323
0.116800679110216,0.49520715213773
0.121533497920316,0.49062978491004
0.126291498304232,0.486021460726066
0.131074552989073,0.48138208380862
0.135882534701951,0.476711558380515
0.140715316169975,0.472009788664563
0.145572770120254,0.467276678883577
0.150454769279899,0.462512133260368
0.155361186376019,0.457716056017749
0.160291894135726,0.452888351378533
0.165246765286128,0.448028923565533
0.170225672554335,0.443137676801559
0.175228488667458,0.438214515309425
0.180255086352607,0.433259343311943
0.18530533833689,0.428272065031925
0.19037911734742,0.423252584692185
0.195476296111304,0.418200806515533
0.200596747355654,0.413116634724783
0.205740343807579,0.407999973542747
0.210906958194189,0.402850727192237
0.216096463242594,0.397668799896066
0.221308731679904,0.392454095877046
0.226543636233229,0.38720651935799
0.23180104962968,0.381925974561709
0.237080844596365,0.376612365711016
0.242382893860395,0.371265597028724
0.247707070148879,0.365885572737645
0.253053246188929,0.360472197060591
0.258421294707653,0.355025374220375
0.263811088432162,0.349545008439808
0.269222500089565,0.344031003941705
0.274655402406973,0.338483264948875
0.280109668111496,0.332901695684134
0.285585169930243,0.327286200370291
0.291081780590324,0.321636683230161
0.29659937281885,0.315953048486554
0.30213781934293,0.310235200362285
0.307696992889675,0.304483043080164
0.313276766186193,0.298696480863005
0.318877011959596,0.29287541793362
0.324497602936993,0.287019758514821
0.330138411845494,0.28112940682942
0.335799311412209,0.27520426710023
0.341480174364248,0.269244243550063
0.347180873428721,0.263249240401733
0.352901281332737,0.257219161878049
0.358641270803408,0.251153912201827
0.364400714567842,0.245053395595877
0.37017948535315,0.238917516283013
0.375977455886442,0.232746178486045
0.381794498894828,0.226539286427788
0.387630487105417,0.220296744331053
0.393485293245319,0.214018456418653
0.399358790041645,0.207704326913399
0.405250850221505,0.201354260038105
0.411161346512007,0.194968160015583
0.417090151640264,0.188545931068645
0.423037138333383,0.182087477420103
0.429002179318476,0.17559270329277
0.434985147322652,0.169061512909458
0.440985915073021,0.16249381049298
0.447004355296693,0.155889500266148
0.453040340720778,0.149248486451774
0.459093744072386,0.142570673272671
0.465164438078627,0.135855964951652
0.471252295466611,0.129104265711527
0.477357188963448,0.122315479775111
0.483478991296248,0.115489511365214
0.48961757519212,0.108626264704651
0.495772813378175,0.101725644016232
0.501944578581523,0.0947875535227706
0.508132743529273,0.0878118974470787
0.514337180948536,0.0807985800119693
0.520557763566421,0.073747505440254
0.526794364110039,0.0666585779547458
0.533046855306499,0.0595317017782566
0.539315109882912,0.0523667811335993
0.545599000566387,0.0451637202435856
0.551898400084034,0.0379224233310285
0.558213181162963,0.0306427946187399
0.564543216530284,0.0233247383295326
0.570888378913108,0.0159681586862185
0.577248541038544,0.00857295991161047
0.583623575633702,0.00113904622852042
0.590013355425691,-0.00633367814023879
0.596417753141623,-0.0138453089718554
0.602836641508606,-0.0213959420435164
0.609269893253752,-0.0289856731324099
0.615717381104169,-0.0366145980157232
0.622178977786968,-0.0442828124706443
0.628654556029258,-0.0519904122743602
0.63514398855815,-0.0597374932040593
0.641647148100753,-0.0675241510369284
0.648163907384179,-0.0753504815501561
0.654694139135535,-0.083216580520929
0.661237716081933,-0.0911225437264356
0.667794510950482,-0.0990684669438628
0.674364396468293,-0.107054445950399
0.680947245362475,-0.115080576523231
0.687542930360138,-0.123146954439547
0.694151324188393,-0.131253675476534
0.700772299574349,-0.139400835411381
0.707405729245115,-0.147588530021274
0.714051485927803,-0.155816855083402
0.720709442349521,-0.164085906374951
0.727379471237381,-0.17239577967311
0.734061445318491,-0.180746570755067
0.740755237319963,-0.189138375398008
0.747460719968905,-0.197571289379121
0.754177765992428,-0.206045408475595
0.760906248117641,-0.214560828464616
0.767646039071655,-0.223117645123373
0.77439701158158,-0.231715954229053
0.781159038374525,-0.240355851558843
0.787931992177601,-0.249037432889932
0.794715745717917,-0.257760793999506
0.801510171722584,-0.266526030664754
0.808315142918711,-0.275333238662863
0.815130532033408,-0.284182513771021
0.821956211793786,-0.293073951766415
0.828792054926953,-0.302007648426233
0.835637934160021,-0.310983699527663
0.842493722220099,-0.320002200847892
0.849359291834297,-0.329063248164107
0.856234515729725,-0.338166937253498
0.863119266633493,-0.34731336389325
0.87001341727271,-0.356502623860552
0.876916840374488,-0.365734812932592
0.883829408665936,-0.375010026886556
0.890750994874163,-0.384328361499633
0.89768147172628,-0.39368991254901
0.904620711949397,-0.403094775811876
0.911568588270623,-0.412543047065416
0.918524973417069,-0.42203482208682
0.925489740115844,-0.431570196653275
0.932462761094059,-0.441149266541968
0.939443909078823,-0.450772127530087
0.946433056797246,-0.46043887539482
0.95343007697644,-0.470149605913353
0.960434842343512,-0.479904414862876
0.967447225625573,-0.489703398020575
0.974467099549734,-0.499546651163639
