0.519918108472746,0.838605430887272
0.514219130115026,0.826336627899856
0.508575742759982,0.81415995218655
0.50298774947485,0.802075062162636
0.497454953326862,0.790081616243397
0.491977157383252,0.778179272844114
0.486554164711256,0.766367690380069
0.481185778378106,0.754646527266544
0.475871801451037,0.743015441918821
0.470612036997283,0.731474092752182
0.465406288084077,0.720022138181909
0.460254357778654,0.708659236623284
0.455156049148248,0.697385046491589
0.450111165260093,0.686199226202106
0.445119509181422,0.675101434170116
0.44018088397947,0.664091328810902
0.435295092721471,0.653168568539746
0.430461938474659,0.642332811771929
0.425681224306267,0.631583716922733
0.42095275328353,0.620920942407441
0.416276328473682,0.610344146641335
0.411651752943957,0.599852988039695
0.407078829761588,0.589447125017805
0.402557361993811,0.579126215990946
0.398087152707858,0.5688899193744
0.393668004970964,0.55873789358345
0.389299721850362,0.548669797033376
0.384982106413287,0.538685288139461
0.380714961726973,0.528784025316987
0.376498090858654,0.518965666981236
0.372331296875564,0.509229871547489
0.368214382844936,0.499576297431029
0.364147151834006,0.490004603047138
0.360129406910006,0.480514446811098
0.35616095114017,0.47110548713819
0.352241587591734,0.461777382443697
0.348371119331931,0.4525297911429
0.344549349427994,0.443362371651081
0.340776080947158,0.434274782383523
0.337051116956657,0.425266681755506
0.333374260523724,0.416337728182314
0.329745314715595,0.407487580079229
0.326164082599502,0.398715895861531
0.32263036724268,0.390022333944503
0.319143971712363,0.381406552743427
0.315704699075785,0.372868210673585
0.31231235240018,0.364406966150259
0.308966734752781,0.356022477588731
0.305667649200823,0.347714403404282
0.30241489881154,0.339482402012195
0.299208286652166,0.331326131827751
0.296047615789935,0.323245251266233
0.292932689292081,0.315239418742923
0.289863310225837,0.307308292673102
0.286839281658438,0.299451531472052
0.283860406657118,0.291668793555056
0.280926488289111,0.283959737337395
0.278037329621651,0.276324021234351
0.275192733721972,0.268761303661206
0.272392503657307,0.261271243033242
0.269636442494892,0.253853497765741
0.266924353301959,0.246507726273986
0.264256039145743,0.239233586973257
0.261631303093478,0.232030738278837
0.259049948212398,0.224898838606007
0.256511777569737,0.217837546370051
0.254016594232729,0.210846519986248
0.251564201268607,0.203925417869883
0.249154401744606,0.197073898436236
0.246786998727961,0.19029162010059
0.244461795285904,0.183578241278226
0.24217859448567,0.176933420384426
0.239937199394493,0.170356815834473
0.237737413079607,0.163848086043648
0.235579038608246,0.157406889427233
0.233461879047643,0.15103288440051
0.231385737465034,0.144725729378761
0.229350416927651,0.138485082777269
0.227355720502729,0.132310603011314
0.225401451257503,0.126201948496179
0.223487412259205,0.120158777647146
0.22161340657507,0.114180748879497
0.219779237272332,0.108267520608513
0.217984707418225,0.102418751249477
0.216229620079983,0.0966340992176708
0.214513778324839,0.090913222928376
0.212836985220029,0.0852557807968746
0.211199043832786,0.0796614312384486
0.209599757230343,0.07412983266838
0.208038928479936,0.0686606435019509
0.206516360648797,0.0632535221544428
0.205031856804161,0.0579081270411379
0.203585220013263,0.0526241165773182
0.202176253343335,0.0474011491782656
0.200804759861612,0.0422388832592619
0.199470542635328,0.0371369772355891
0.198173404731717,0.0320950895225294
0.196913149218013,0.0271128785353644
0.19568957916145,0.0221900026893761
0.194502497629262,0.0173261203998466
0.193351707688683,0.0125208900820578
0.192237012406947,0.00777397015129154
0.191158214851288,0.00308501902282979
0.19011511808894,-0.00154630488804551
0.189107525187136,-0.00612034316605232
0.188135239213112,-0.0106374373959088
0.187198063234101,-0.015097929162333
0.186295800317336,-0.019502160050043
0.185428253530053,-0.0238504716437567
0.184595225939485,-0.0281432055281923
0.183796520612865,-0.0323807032880679
0.183031940617429,-0.0365633065081015
0.18230128902041,-0.0406913567730111
0.181604368889041,-0.0447651956675148
0.180940983290558,-0.0487851647763306
0.180310935292193,-0.0527516056841768
0.179714027961182,-0.0566648599757712
0.179150064364758,-0.060525269235832
0.178618847570154,-0.0643331750490772
0.178120180644606,-0.0680889190002248
0.177653866655347,-0.0717928426739929
0.17721970866961,-0.0754452876550997
0.176817509754631,-0.0790465955282631
0.176447072977643,-0.0825971078782011
0.176108201405879,-0.086097166289632
0.175800698106575,-0.0895471123472736
0.175524366146964,-0.0929472876358441
0.175279008594279,-0.0962980337400616
0.175064428515756,-0.099599692244644
0.174880428978628,-0.10285260473431
0.174726813050129,-0.106057112793776
0.174603383797493,-0.109213558007762
0.174509944287954,-0.112322281960985
0.174446297588746,-0.115383626238163
0.174412246767103,-0.118397932424015
0.174407594890259,-0.121365542103258
0.174432145025448,-0.12428679686061
0.174485700239904,-0.12716203828079
0.174568063600862,-0.129991607948516
0.174679038175554,-0.132775847448505
0.174818427031215,-0.135515098365476
0.17498603323508,-0.138209702284147
0.175181659854381,-0.140860000789235
0.175405109956354,-0.14346633546546
0.175656186608231,-0.146029047897538
0.175934692877248,-0.148548479670188
0.176240431830638,-0.151024972368129
0.176573206535635,-0.153458867576077
0.176932820059473,-0.155850506878752
0.177319075469386,-0.158200231860871
0.177731775832608,-0.160508384107152
0.178170724216373,-0.162775305202313
0.178635723687915,-0.165001336731073
0.179126577314469,-0.16718682027815
0.179643088163267,-0.169332097428261
0.180185059301545,-0.171437509766124
0.180752293796535,-0.173503398876458
0.181344594715473,-0.175530106343981
0.181961765125592,-0.17751797375341
0.182603608094126,-0.179467342689465
0.183269926688309,-0.181378554736862
0.183960523975375,-0.18325195148032
0.184675203022559,-0.185087874504557
0.185413766897093,-0.186886665394291
0.186176018666213,-0.188648665734241
0.186961761397151,-0.190374217109123
0.187770798157143,-0.192063661103657
0.188602932013422,-0.19371733930256
0.189457966033222,-0.19533559329055
0.190335703283777,-0.196918764652346
0.191235946832322,-0.198467194972665
0.192158499746089,-0.199981225836226
0.193103165092314,-0.201461198827746
0.19406974593823,-0.202907455531944
0.19505804535107,-0.204320337533538
0.196067866398071,-0.205700186417245
0.197099012146464,-0.207047343767784
0.198151285663484,-0.208362151169873
0.199224490016366,-0.20964495020823
0.200318428272342,-0.210896082467573
0.201432903498648,-0.21211588953262
0.202567718762517,-0.213304712988089
0.203722677131183,-0.214462894418699
0.20489758167188,-0.215590775409166
0.206092235451843,-0.21668869754421
0.207306441538305,-0.217757002408548
0.2085400029985,-0.218796031586899
0.209792722899661,-0.21980612666398
0.211064404309025,-0.220787629224509
0.212354850293823,-0.221740880853205
0.213663863921291,-0.222666223134786
0.214991248258661,-0.223563997653969
0.216336806373169,-0.224434545995474
0.217700341332048,-0.225278209744017
0.219081656202533,-0.226095330484316
0.220480554051856,-0.226886249801091
0.221896837947253,-0.227651309279059
0.223330310955957,-0.228390850502938
0.224780776145202,-0.229105215057446
0.226248036582222,-0.229794744527301
0.227731895334252,-0.230459780497221
0.229232155468525,-0.231100664551925
0.230748620052275,-0.23171773827613
0.232281092152736,-0.232311343254554
0.233829374837142,-0.232881821071916
0.235393271172728,-0.233429513312933
0.236972584226727,-0.233954761562324
0.238567117066373,-0.234457907404806
0.2401766727589,-0.234939292425098
0.241801054371543,-0.235399258207918
0.243440064971535,-0.235838146337984
0.24509350762611,-0.236256298400014
0.246761185402502,-0.236654055978725
0.248442901367945,-0.237031760658837
0.250138458589674,-0.237389754025066
0.251847660134922,-0.237728377662132
0.253570309070923,-0.238047973154752
0.255306208464912,-0.238348882087644
0.257055161384122,-0.238631446045526
0.258816970895787,-0.238896006613117
0.260591440067141,-0.239142905375134
0.262378371965418,-0.239372483916296
0.264177569657853,-0.23958508382132
0.265988836211679,-0.239781046674924
0.267811974694131,-0.239960714061828
0.269646788172441,-0.240124427566748
0.271493079713845,-0.240272528774402
0.273350652385576,-0.24040535926951
0.275219309254869,-0.240523260636788
0.277098853388956,-0.240626574460956
0.278989087855073,-0.24071564232673
0.280889815720454,-0.240790805818829
0.282800840052331,-0.240852406521972
0.28472196391794,-0.240900786020875
0.286652990384514,-0.240936285900258
0.288593722519288,-0.240959247744838
0.290543963389495,-0.240970013139334
0.292503516062369,-0.240968923668462
0.294472183605144,-0.240956320916943
0.296449769085055,-0.240932546469492
0.298436075569335,-0.24089794191083
0.300430906125218,-0.240852848825673
0.302434063819939,-0.24079760879874
0.304445351720731,-0.240732563414748
0.306464572894828,-0.240658054258416
0.308491530409464,-0.240574422914462
0.310526027331874,-0.240482010967604
0.312567866729292,-0.24038116000256
0.31461685166895,-0.240272211604048
0.316672785218084,-0.240155507356787
0.318735470443927,-0.240031388845493
0.320804710413714,-0.239900197654885
0.322880308194678,-0.239762275369682
0.324962066854053,-0.239617963574601
0.327049789459073,-0.239467603854361
0.329143279076973,-0.239311537793679
0.331242338774987,-0.239150106977273
0.333346771620347,-0.238983652989863
0.335456380680289,-0.238812517416164
0.337570969022047,-0.238637041840897
0.339690339712853,-0.238457567848778
0.341814295819943,-0.238274437024526
0.343942640410551,-0.238087990952859
0.34607517655191,-0.237898571218494
0.348211707311254,-0.237706519406151
0.350352035755817,-0.237512177100547
0.352495964952834,-0.2373158858864
0.354643297969539,-0.237117987348428
0.356793837873164,-0.236918823071349
0.358947387730945,-0.236718734639881
0.361103750610116,-0.236518063638743
0.36326272957791,-0.236317151652653
0.365424127701561,-0.236116340266327
0.367587748048303,-0.235915971064485
0.369753393685371,-0.235716385631845
0.371920867679999,-0.235517925553125
0.37408997309942,-0.235320932413042
0.376260513010868,-0.235125747796315
0.378432290481577,-0.234932713287661
0.380605108578782,-0.2347421704718
0.382778770369717,-0.234554460933448
0.384953078921615,-0.234369926257325
0.38712783730171,-0.234188908028147
0.389302848577237,-0.234011747830634
0.391477915815429,-0.233838787249502
0.39365284208352,-0.233670367869471
0.395827430448745,-0.233506831275258
0.398001483978337,-0.233348519051582
0.400174805739531,-0.23319577278316
0.40234719879956,-0.23304893405471
0.404518466225659,-0.232908344450951
0.406688411085061,-0.232774345556601
0.408856836445001,-0.232647278956377
0.411023545372712,-0.232527486234997
0.413188340935428,-0.232415308977181
0.415351026200384,-0.232311088767645
0.417511404234813,-0.232215167191108
0.41966927810595,-0.232127885832288
0.421824450881028,-0.232049586275904
0.423976725627282,-0.231980610106672
0.426125905411945,-0.231921298909311
0.428271793302252,-0.231871994268539
0.430414192365435,-0.231833037769075
0.432552905668731,-0.231804770995636
0.434687736279372,-0.23178753553294
0.436818487264593,-0.231781672965705
0.438944961691626,-0.231787524878651
0.441066962627708,-0.231805432856493
0.443184293140071,-0.231835738483951
0.445296756295949,-0.231878783345743
0.447404155162577,-0.231934909026586
0.449506292807188,-0.232004457111199
0.451602972297017,-0.2320877691843
0.453693996699297,-0.232185186830607
0.455779169081263,-0.232297051634838
0.457858292510149,-0.232423705181711
0.459931170053187,-0.232565489055943
0.461997604777614,-0.232722744842254
0.464057399750662,-0.232895814125361
0.466110358039565,-0.233085038489982
0.468156282711558,-0.233290759520836
0.470194976833874,-0.23351331880264
0.472226243473748,-0.233753057920112
0.474249885698413,-0.234010318457971
0.476265706575104,-0.234285442000934
0.478273509171055,-0.234578770133719
0.480273096553498,-0.234890644441046
0.48226427178967,-0.235221406507631
0.484246837946803,-0.235571397918193
0.486220598092132,-0.235940960257449
0.48818535529289,-0.236330435110119
0.490140912616311,-0.236740164060919
0.49208707312963,-0.237170488694568
0.494023639900081,-0.237621750595785
0.495950415994897,-0.238094291349286
0.497867204481313,-0.238588452539791
0.499773808426562,-0.239104575752017
0.501670030897879,-0.239643002570682
0.503555674962498,-0.240204074580504
0.505430543687652,-0.240788133366202
0.507294440140575,-0.241395520512493
0.509147167388502,-0.242026577604096
0.510988528498667,-0.242681646225728
0.512818326538303,-0.243361067962108
0.514636364574645,-0.244065184397954
0.516442445674926,-0.244794337117983
0.518236372906381,-0.245548867706915
0.520017949336244,-0.246329117749466
0.521786978031748,-0.247135428830354
0.523543262060127,-0.247968142534299
0.525286604488617,-0.248827600446018
0.52701680838445,-0.249714144150229
0.52873367681486,-0.250628115231651
0.530437012847082,-0.251569855275
0.53212661954835,-0.252539705864996
0.533802299985897,-0.253538008586356
0.535463857226958,-0.254565105023798
0.537111094338766,-0.255621336762041
0.538743814388556,-0.256707045385802
0.540361820443562,-0.2578225724798
0.541964915571017,-0.258968259628753
0.543552902838156,-0.260144448417378
0.545125585312212,-0.261351480430394
0.54668276606042,-0.262589697252519
0.548224248150014,-0.26385944046847
0.549749834648227,-0.265161051662967
0.551259328622294,-0.266494872420726
0.552752533139449,-0.267861244326467
0.554229251266925,-0.269260508964907
0.555689286071957,-0.270693007920763
0.557132440621778,-0.272159082778755
0.558558517983623,-0.273659075123601
0.559967321224726,-0.275193326540017
0.56135865341232,-0.276762178612723
0.562732317613641,-0.278365972926437
0.56408811689592,-0.280005051065875
0.565425854326393,-0.281679754615758
0.566745332972294,-0.283390425160802
0.568046355900857,-0.285137404285726
0.569328726179315,-0.286921033575247
0.570592246874903,-0.288741654614085
0.571836721054855,-0.290599608986956
0.573061951786404,-0.292495238278579
0.574267742136785,-0.294428884073672
0.575453895173232,-0.296400887956953
0.576620213962978,-0.29841159151314
0.577766501573258,-0.300461336326951
0.578892561071305,-0.302550463983105
0.579998195524355,-0.304679316066319
0.58108320799964,-0.306848234161311
0.582147401564394,-0.309057559852799
0.583190579285853,-0.311307634725502
0.584212544231249,-0.313598800364138
0.585213099467817,-0.315931398353424
0.58619204806279,-0.318305770278079
0.587149193083403,-0.32072225772282
0.58808433759689,-0.323181202272366
0.588997284670484,-0.325682945511435
0.58988783737142,-0.328227829024745
0.590755798766933,-0.330816194397013
0.590755798766933,-0.330816194397013
0.591604610613693,-0.333398288057501
0.592437824640042,-0.335924339151793
0.593255408870719,-0.338394663339095
0.594057331330459,-0.340809576278612
0.594843560044,-0.34316939362955
0.595614063036078,-0.345474431051115
0.59636880833143,-0.347725004202511
0.597107763954794,-0.349921428742944
0.597830897930907,-0.352064020331621
0.598538178284505,-0.354153094627745
0.599229573040326,-0.356188967290523
0.599905050223106,-0.358171953979161
0.600564577857583,-0.360102370352863
0.601208123968493,-0.361980532070835
0.601835656580574,-0.363806754792283
0.602447143718562,-0.365581354176413
0.603042553407195,-0.367304645882429
0.603621853671209,-0.368976945569537
0.604185012535341,-0.370598568896943
0.604731998024329,-0.372169831523852
0.60526277816291,-0.37369104910947
0.60577732097582,-0.375162537313002
0.606275594487796,-0.376584611793653
0.606757566723576,-0.37795758821063
0.607223205707895,-0.379281782223138
0.607672479465493,-0.380557509490381
0.608105356021104,-0.381785085671566
0.608521803399468,-0.382964826425899
0.608921789625319,-0.384097047412583
0.609305282723396,-0.385182064290826
0.609672250718435,-0.386220192719833
0.610022661635174,-0.387211748358808
0.610356483498349,-0.388157046866959
0.610673684332697,-0.389056403903489
0.610974232162955,-0.389910135127604
0.611258095013861,-0.390718556198511
0.611525240910151,-0.391481982775415
0.611775637876562,-0.39220073051752
0.612009253937831,-0.392875115084033
0.612226057118696,-0.393505452134158
0.612426015443893,-0.394092057327103
0.61260909693816,-0.394635246322071
0.612775269626232,-0.395135334778269
0.612924501532848,-0.395592638354902
0.613056760682744,-0.396007472711175
0.613172015100657,-0.396380153506294
0.613270232811324,-0.396710996399464
0.613351381839483,-0.397000317049892
0.61341543020987,-0.397248431116782
0.613462345947222,-0.39745565425934
0.613492097076276,-0.397622302136771
0.613504651621769,-0.397748690408281
0.613499977608438,-0.397835134733076
0.613478043061021,-0.39788195077036
0.613438816004253,-0.39788945417934
0.613382264462873,-0.39785796061922
0.613308356461617,-0.397787785749207
0.613217060025222,-0.397679245228506
0.613108343178425,-0.397532654716322
0.612982173945963,-0.397348329871861
0.612838520352573,-0.397126586354328
0.612677350422993,-0.396867739822929
0.612498632181958,-0.39657210593687
0.612302333654206,-0.396240000355355
0.612088422864475,-0.39587173873759
0.6118568678375,-0.395467636742782
0.61160763659802,-0.395028010030134
0.61134069717077,-0.394553174258853
0.611056017580489,-0.394043445088145
0.610753565851912,-0.393499138177214
0.610433310009778,-0.392920569185266
0.610095218078822,-0.392308053771507
0.609739258083783,-0.391661907595143
0.609365398049396,-0.390982446315378
0.608973606000399,-0.390269985591418
0.60856384996153,-0.389524841082469
0.608136097957524,-0.388747328447736
0.607690318013119,-0.387937763346425
0.607226478153052,-0.387096461437741
0.60674454640206,-0.386223738380889
0.60624449078488,-0.385319909835076
0.605726279326249,-0.384385291459506
0.605189880050903,-0.383420198913386
0.604635260983581,-0.38242494785592
0.604062390149019,-0.381399853946314
0.603471235571953,-0.380345232843774
0.602861765277121,-0.379261400207504
0.60223394728926,-0.378148671696712
0.601587749633107,-0.377007362970602
0.600923140333398,-0.375837789688378
0.600240087414871,-0.374640267509249
0.599538558902264,-0.373415112092417
0.598818522820312,-0.37216263909709
0.598079947193752,-0.370883164182472
0.597322800047323,-0.369577003007769
0.59654704940576,-0.368244471232187
0.595752663293802,-0.366885884514931
0.594939609736183,-0.365501558515206
0.594107856757643,-0.364091808892218
0.593257372382917,-0.362656951305172
0.592388124636743,-0.361197301413275
0.591500081543858,-0.359713174875731
0.590593211128999,-0.358204887351746
0.589667481416902,-0.356672754500525
0.588722860432305,-0.355117091981275
0.587759316199944,-0.353538215453199
0.586776816744557,-0.351936440575505
0.585775330090881,-0.350312083007397
0.584754824263653,-0.348665458408081
0.583715267287609,-0.346996882436762
0.582656627187487,-0.345306670752647
0.581578871988023,-0.343595139014939
0.580481969713956,-0.341862602882846
0.57936588839002,-0.340109378015571
0.578230596040954,-0.338335780072322
0.577076060691495,-0.336542124712303
0.57590225036638,-0.33472872759472
0.574709133090345,-0.332895904378778
0.573496676888127,-0.331043970723682
0.572264849784465,-0.32917324228864
0.571013619804094,-0.327284034732855
0.569742954971751,-0.325376663715533
0.568452823312174,-0.32345144489588
0.567143192850099,-0.321508693933101
0.565814031610264,-0.319548726486402
0.564465307617405,-0.317571858214988
0.56309698889626,-0.315578404778065
0.561709043471565,-0.313568681834838
0.560301439368059,-0.311543005044513
0.558874144610476,-0.309501690066295
0.557427127223554,-0.30744505255939
0.555960355232032,-0.305373408183003
0.554473796660644,-0.303287072596339
0.552967419534129,-0.301186361458605
0.551441191877224,-0.299071590429005
0.549895081714665,-0.296943075166746
0.54832905707119,-0.294801131331032
0.546743085971534,-0.29264607458107
0.545137136440436,-0.290478220576064
0.543511176502633,-0.28829788497522
0.541865174182861,-0.286105383437744
0.540199097505857,-0.28390103162284
0.538512914496359,-0.281685145189716
0.536806593179103,-0.279458039797575
0.535080101578826,-0.277220031105624
0.533333407720266,-0.274971434773068
0.531566479628159,-0.272712566459113
0.529779285327242,-0.270443741822964
0.527971792842253,-0.268165276523826
0.526143970197928,-0.265877486220905
0.524295785419004,-0.263580686573407
0.522427206530218,-0.261275193240537
0.520538201556308,-0.2589613218815
0.51862873852201,-0.256639388155502
0.516698785452061,-0.254309707721749
0.514748310371199,-0.251972596239446
0.51277728130416,-0.249628369367798
0.510785666275681,-0.247277342766011
0.508773433310499,-0.244919832093291
0.506740550433352,-0.242556153008842
0.504686985668975,-0.240186621171872
0.502612707042107,-0.237811552241583
0.500517682577484,-0.235431261877184
0.498401880299843,-0.233046065737878
0.496265268233922,-0.230656279482871
0.494107814404456,-0.22826221877137
0.491929486836184,-0.225864199262579
0.489730253553842,-0.223462536615704
0.487510082582167,-0.22105754648995
0.485268941945896,-0.218649544544523
0.483006799669766,-0.216238846438628
0.480723623778514,-0.213825767831471
0.478419382296878,-0.211410624382257
0.476094043249593,-0.208993731750193
0.473747574661397,-0.206575405594482
0.471379944557028,-0.204155961574332
0.468991120961222,-0.201735715348946
0.466581071898716,-0.199314982577532
0.464149765394246,-0.196894078919293
0.461697169472551,-0.194473320033437
0.459223252158367,-0.192053021579167
0.456727981476431,-0.189633499215691
0.45421132545148,-0.187215068602212
0.45167325210825,-0.184798045397938
0.449113729471481,-0.182382745262073
0.446532725565906,-0.179969483853822
0.443930208416265,-0.177558576832391
0.441306146047294,-0.175150339856986
0.43866050648373,-0.172745088586813
0.435993257750309,-0.170343138681076
0.43330436787177,-0.167944805798981
0.430593804872849,-0.165550405599734
0.427861536778282,-0.16316025374254
0.425107531612807,-0.160774665886605
0.422331757401162,-0.158393957691134
0.419534182168082,-0.156018444815332
0.416714773938305,-0.153648442918406
0.413873500736568,-0.15128426765956
0.411010330587608,-0.148926234698
0.408125231516161,-0.146574659692932
0.405218171546966,-0.14422985830356
0.402289118704758,-0.141892146189092
0.399338041014276,-0.139561839008731
0.396364906500255,-0.137239252421684
0.393369683187433,-0.134924702087157
0.390352339100546,-0.132618503664353
0.387312842264333,-0.13032097281248
0.384251160703529,-0.128032425190742
0.381167262442872,-0.125753176458345
0.378061115507099,-0.123483542274495
0.374932687920947,-0.121223838298396
0.371781947709152,-0.118974380189256
0.368608862896452,-0.116735483606278
0.365413401507584,-0.114507464208668
0.362195531567284,-0.112290637655633
0.358955221100291,-0.110085319606377
0.35569243813134,-0.107891825720105
0.352407150685168,-0.105710471656025
0.349099326786514,-0.10354157307334
0.345768934460113,-0.101385445631257
0.342415941730703,-0.09924240498898
0.33904031662302,-0.0971127668057159
0.335642027161802,-0.0949968467406697
0.332221041371786,-0.0928949604530469
0.328777327277708,-0.0908074236020529
0.325310852904306,-0.0887345518468933
0.321821586276317,-0.0866766608467735
0.318309495418477,-0.084634066260899
0.314774548355524,-0.0826070837484754
0.311216713112195,-0.0805960289687081
0.307635957713226,-0.0786012175808026
0.304032250183354,-0.0766229652439644
0.300405558547318,-0.074661587617399
0.296755850829853,-0.0727174003603119
0.293083095055696,-0.0707907191319085
0.289387259249585,-0.0688818595913945
0.285668311436256,-0.0669911373979751
0.281926219640447,-0.0651188682108561
0.278160951886894,-0.0632653676892427
0.274372476200336,-0.0614309514923406
0.270560760605507,-0.0596159352793552
0.266725773127146,-0.0578206347094921
0.262867481789989,-0.0560453654419565
0.258985854618775,-0.0542904431359543
0.255080859638238,-0.0525561834506907
0.251152464873117,-0.0508429020453713
0.247200638348148,-0.0491509145792015
0.243225348088069,-0.047480536711387
0.239226562117616,-0.045832084101133
0.235204248461527,-0.0442058724076452
0.231158375144538,-0.042602217290129
0.227088910191386,-0.04102143440779
0.222995821626809,-0.0394638394198336
0.218879077475543,-0.0379297479854652
0.214738645762326,-0.0364194757638905
0.210574494511894,-0.0349333384143149
0.206386591748984,-0.0334716515959438
0.202174905498334,-0.0320347309679828
0.19793940378468,-0.0306228921896374
0.19368005463276,-0.029236450920113
0.189396826067309,-0.0278757228186152
0.185089686113066,-0.0265410235443494
0.180758602794768,-0.0252326687565211
0.17640354413715,-0.0239509741143359
0.172024478164951,-0.0226962552769991
0.167621372902908,-0.0214688279037164
0.163194196375756,-0.0202690076536931
0.158742916608234,-0.0190971101861348
0.154267501625078,-0.017953451160247
0.149767919451025,-0.0168383462352352
0.145244138110813,-0.0157521110703048
0.140696125629177,-0.0146950613246614
0.136123850030856,-0.0136675126575104
0.131527279340587,-0.0126697807280573
0.126906381583105,-0.0117021811955077
0.122261124783149,-0.010765029719067
0.117591476965454,-0.0098586419579406
0.112897406154759,-0.00898333357133418
0.108178880375801,-0.0081394202184531
0.103435867653315,-0.00732721755850295
0.0986683360120393,-0.00654704125068911
0.093876253476711,-0.00579920695421718
0.0890595880720667,-0.00508403032829254
0.0842183078228436,-0.00440182703212079
0.0793523807537785,-0.00375291272490736
0.0744617748896088,-0.00313760306585773
0.0695464582550708,-0.00255621371417743
0.0646063988749023,-0.00200906032907194
0.0596415647738396,-0.00149645856974675
0.0546519239766201,-0.00101872409540733
0.0496374445079805,-0.000576172565259206
0.0445980943926582,-0.000169119638507865
0.0395338416553897,0.000202119025641273
0.0344446543209126,0.000537227767982616
0.0293305004139631,0.000835890929310724
0.024191347959279,0.00109779285042009
0.0190271649815966,0.00132261787210527
0.0138379195056535,0.00151005033516068
0.00862357955618609,0.00165977458038089
0.00338411315793188,0.0017714749485604
-0.00188051166437248,0.00184483578049376
-0.0071703268859897,0.00187954141697542
-0.0124853644821832,0.0018752761987999
-0.0178256564282154,0.00183172446676174
-0.02319123469935,0.0017485705616554
-0.0285821312708494,0.00162549882427541
-0.0339983781179771,0.00146219359541629
-0.0394400072159957,0.00125833921587256
-0.0449070505401686,0.00101362002643869
-0.0503995400657584,0.000727720367909222
-0.0559175077680284,0.00040032458107865
-0.0614609856222414,3.11170067414795e-05
-0.0670300056036607,-0.000380218014307777
-0.072624599687549,-0.000833996141274607
-0.0782447998491695,-0.0013305330333645
-0.0838906380637851,-0.00187014434978293
-0.089562146306659,-0.00245314574973544
-0.0952593565530539,-0.00307985289242748
-0.100982300778233,-0.00375058143706455
-0.106731010957459,-0.00446564704285212
-0.112505519065996,-0.00522536536899573
-0.118305857079106,-0.00603005207470081
-0.124132056972052,-0.00688002281917294
-0.129984150720097,-0.00777559326161751
-0.135862170298504,-0.00871707906124011
-0.141766147682537,-0.00970479587724609
-0.147696114847458,-0.0107390593688411
-0.15365210376853,-0.0118201851952305
-0.159634146421016,-0.0129484890156199
-0.16564227478018,-0.0141242864892147
-0.171676520821284,-0.0153478932752205
-0.177736916519591,-0.0166196250328426
-0.183823493850365,-0.0179397974212867
-0.189936284788868,-0.0193087260997581
-0.196075321310363,-0.0207267267274625
-0.202240635390113,-0.0221941149636052
-0.208432259003382,-0.0237112064673919
-0.214650224125432,-0.0252783168980278
-0.220894562731527,-0.0268957619147186
-0.227165306796929,-0.0285638571766698
-0.233462488296901,-0.0302829183430868
-0.239786139206707,-0.0320532610731751
-0.246136291501609,-0.0338752010261403
-0.25251297715687,-0.0357490538611877
-0.258916228147754,-0.037675135237523
-0.265346076449523,-0.0396537608143515
-0.271802554037441,-0.0416852462508788
-0.27828569288677,-0.0437699072063104
-0.284795524972774,-0.0459080593398518
-0.291332082270715,-0.0481000183107084
-0.297895396755856,-0.0503460997780858
-0.304485500403461,-0.0526466194011893
-0.311102425188793,-0.0550018928392247
-0.317746203087113,-0.0574122357513972
-0.324416866073687,-0.0598779637969126
-0.331114446123776,-0.0623993926349759
-0.337838975212643,-0.0649768379247932
-0.344590485315552,-0.0676106153255695
-0.351369008407765,-0.0703010404965106
-0.358174576464546,-0.0730484290968217
-0.365007221461158,-0.0758530967857086
-0.371866975372863,-0.0787153592223765
-0.378753870174925,-0.0816355320660312
-0.385667937842606,-0.084613930975878
-0.39260921035117,-0.0876508716111224
-0.399577719675879,-0.0907466696309699
-0.406573497791997,-0.093901640694626
-0.413596576674787,-0.0971161004612962
-0.420646988299511,-0.100390364590186
-0.427724764641432,-0.103724748740501
-0.434829937675815,-0.107119568571446
-0.441962539377921,-0.110575139742228
-0.449122601723014,-0.114091777912051
-0.456310156686356,-0.117669798740121
-0.463525236243211,-0.121309517885644
-0.470767872368842,-0.125011251007824
-0.478038097038511,-0.128775313765869
-0.485335942227482,-0.132602021818982
-0.492661439911018,-0.136491690826369
-0.500014622064382,-0.140444636447237
-0.507395520662836,-0.14446117434079
-0.514804167681644,-0.148541620166234
-0.522240595096069,-0.152686289582775
-0.529704834881373,-0.156895498249618
-0.53719691901282,-0.161169561825968
-0.544716879465673,-0.165508795971031
-0.552264748215195,-0.169913516344012
-0.559840557236649,-0.174384038604117
-0.567444338505297,-0.178920678410552
-0.575076123996403,-0.183523751422521
-0.58273594568523,-0.188193573299232
-0.59042383554704,-0.192930459699887
-0.598139825557098,-0.197734726283695
-0.605883947690665,-0.202606688709859
-0.613656233923006,-0.207546662637585
-0.621456716229382,-0.21255496372608
-0.629285426585057,-0.217631907634547
-0.637142396965294,-0.222777810022194
-0.645027659345355,-0.227992986548225
