0.373693615454488,-0.739817549425507
0.377706461744158,-0.740139051157505
0.381631826809066,-0.74044420444795
0.3854702013594,-0.740733010046423
0.389222076105351,-0.741005468702507
0.392887941757106,-0.741261581165782
0.396468289024855,-0.741501348185829
0.399963608618788,-0.741724770512231
0.403374391249092,-0.741931848894569
0.406701127625959,-0.742122584082424
0.409944308459575,-0.742296976825379
0.413104424460131,-0.742455027873013
0.416181966337816,-0.74259673797491
0.419177424802819,-0.74272210788065
0.422091290565329,-0.742831138339816
0.424924054335534,-0.742923830101987
0.427676206823625,-0.743000183916747
0.430348238739791,-0.743060200533677
0.432940640794219,-0.743103880702357
0.435453903697101,-0.74313122517237
0.437888518158624,-0.743142234693297
0.440244974888977,-0.74313691001472
0.442523764598351,-0.74311525188622
0.444725377996933,-0.743077261057378
0.446850305794914,-0.743022938277776
0.448899038702482,-0.742952284296997
0.450872067429826,-0.74286529986462
0.452769882687135,-0.742761985730228
0.4545929751846,-0.742642342643403
0.456341835632408,-0.742506371353725
0.458016954740748,-0.742354072610776
0.459618823219811,-0.742185447164138
0.461147931779785,-0.742000495763392
0.462604771130859,-0.74179921915812
0.463989831983222,-0.741581618097904
0.465303605047063,-0.741347693332324
0.466546581032572,-0.741097445610962
0.467719250649938,-0.740830875683401
0.468822104609349,-0.74054798429922
0.469855633620995,-0.740248772208002
0.470820328395065,-0.739933240159329
0.471716679641749,-0.739601388902782
0.472545178071234,-0.739253219187942
0.47330631439371,-0.738888731764391
0.474000579319368,-0.738507927381711
0.474628463558394,-0.738110806789483
0.47519045782098,-0.737697370737287
0.475687052817312,-0.737267619974707
0.476118739257583,-0.736821555251324
0.476486007851979,-0.736359177316718
0.47678934931069,-0.735880486920472
0.477029254343905,-0.735385484812167
0.477206213661813,-0.734874171741384
0.477320717974605,-0.734346548457706
0.477373257992467,-0.733802615710713
0.477364324425591,-0.733242374249987
0.477294407984164,-0.73266582482511
0.477163999378376,-0.732072968185663
0.476973589318416,-0.731463805081227
0.476723668514473,-0.730838336261385
0.476414727676737,-0.730196562475717
0.476047257515396,-0.729538484473806
0.475621748740639,-0.728864103005232
0.475138692062656,-0.728173418819577
0.474598578191636,-0.727466432666423
0.474001897837768,-0.726743145295352
0.47334914171124,-0.726003557455943
0.472640800522243,-0.725247669897781
0.471059325797595,-0.723686998623517
0.470187173682322,-0.722882216406579
0.469261399345336,-0.722061137469213
0.468282493496826,-0.721223762560999
0.467250946846981,-0.72037009243152
0.466167250105989,-0.719500127830356
0.46503189398404,-0.71861386950709
0.463845369191324,-0.717711318211303
0.462608166438029,-0.716792474692576
0.461320776434344,-0.715857339700491
0.458597397516562,-0.713938198294573
0.457162390022842,-0.712954193379903
0.45567915811949,-0.7119538999902
0.454148192516694,-0.710937318875048
0.452569983924642,-0.709904450784026
0.450945023053525,-0.708855296466717
0.449273800613531,-0.707789856672702
0.447556807314849,-0.706708132151562
0.445794533867669,-0.70561012365288
0.44398747098218,-0.704495831926236
0.440240939737029,-0.702218401787389
0.438302452797746,-0.70105526487435
0.43632113926091,-0.699875847731676
0.434297489836711,-0.698680151108947
0.432231995235336,-0.697468175755746
0.430125146166976,-0.696239922421655
0.42797743334182,-0.694995391856254
0.425789347470056,-0.693734584809125
0.423561379261874,-0.69245750202985
0.421294019427463,-0.69116414426801
0.418987758677012,-0.689854512273187
0.41664308772071,-0.688528606794962
0.414260497268747,-0.687186428582917
0.41184047803131,-0.685827978386634
0.40938352071859,-0.684453256955693
0.406890116040776,-0.683062265039676
0.404360754708056,-0.681655003388165
0.40179592743062,-0.680231472750742
0.399196124918658,-0.678791673876987
0.396561837882357,-0.677335607516483
0.393893557031907,-0.67586327441881
0.391191773077498,-0.674374675333551
0.388456976729318,-0.672869811010287
0.385689658697556,-0.671348682198599
0.382890309692402,-0.669811289648069
0.380059420424045,-0.668257634108279
0.377197481602674,-0.66668771632881
0.374304983938477,-0.665101537059243
0.371382418141645,-0.66349909704916
0.368430274922366,-0.661880397048143
0.362439219057223,-0.65859422007163
0.356335742024563,-0.655243012126359
0.353243072345887,-0.653543023414392
0.350123769505898,-0.651826779208979
0.346978324214787,-0.650094280259702
0.343807227182742,-0.648345527316144
0.340610969119951,-0.646580521127884
0.337390040736606,-0.644799262444505
0.334144932742893,-0.643001752015588
0.330876135849003,-0.641187990590715
0.327584140765126,-0.639357978919467
0.324269438201448,-0.637511717751425
0.320932518868161,-0.635649207836172
0.317573873475453,-0.633770449923289
0.314193992733512,-0.631875444762357
0.31079336735253,-0.629964193102957
0.300471930477216,-0.624132966629771
0.296993233641953,-0.622156736472318
0.293496245718593,-0.620164263564305
0.289981457417326,-0.618155548655314
0.286449359448339,-0.616130592494927
0.282900442521822,-0.614089395832724
0.279335197347965,-0.612031959418287
0.275754114636956,-0.609958284001199
0.272157685098985,-0.60786837033104
0.268546399444241,-0.605762219157392
0.261281222625188,-0.601501207297954
0.257628312881258,-0.599346348111328
0.250284304275537,-0.594987926972168
0.242892648247261,-0.590564573809008
0.239180179225137,-0.588328549592382
0.231724412715866,-0.583807809636945
0.227982096649097,-0.581523095397297
0.224230812987823,-0.579222152649138
0.220471052442234,-0.57690498214205
0.21670330572252,-0.574571584625614
0.212928063538869,-0.572221960849411
0.209145816601471,-0.569856111563024
0.197761954368682,-0.562661218138568
0.193956595518185,-0.560230474307256
0.186332714918974,-0.555320322107383
0.178694555190068,-0.550345288855053
0.174871347427453,-0.54783344370817
0.171046042012981,-0.545305380546917
0.167219129656842,-0.542761100120877
0.163391101069224,-0.54020060317963
0.151905225019395,-0.532421820760463
0.148077638607757,-0.529796465254204
0.144251389515585,-0.527154896980646
0.140426968453071,-0.52449711668937
0.136604866130402,-0.521823125129959
0.132785573257768,-0.519132923051992
0.128969580545358,-0.516426511205053
0.125157378703361,-0.513703890338722
0.121349458441966,-0.510965061202582
0.117546310471363,-0.508210024546212
0.11374842550174,-0.505438781119196
0.109956294243286,-0.502651331671114
0.106170407406191,-0.499847676951549
0.0986193298368331,-0.494191754696291
0.0948551205249486,-0.491339488659763
0.0910991184751793,-0.488471020350076
0.087351814397714,-0.485586350516813
0.0836136990027421,-0.482685479909556
0.0798852630004528,-0.479768409277885
0.0761669971010347,-0.476835139371382
0.0724593920146776,-0.473885670939629
0.06876293845157,-0.470920004732207
0.0650781271219016,-0.467938141498697
0.0614054487358609,-0.464940081988682
0.0540984536354203,-0.45889537713746
0.0504651183413985,-0.455848733295417
0.046845878831761,-0.452785896175194
0.0432412258166973,-0.449706866526372
0.0396516500063962,-0.446611645098534
0.0325196928408386,-0.440372629904134
0.0289782929059603,-0.437228837636735
0.0254539330166011,-0.434068856588645
0.0219471038829504,-0.430892687509446
0.01498800072353,-0.424491788256047
0.0115367081181386,-0.42126705958101
0.00469309440693921,-0.414769047882168
-0.00206861923688821,-0.408206302048845
-0.0054175367580646,-0.404900655705708
-0.00874450713183081,-0.401578828077695
-0.0120490396479975,-0.398240819914388
-0.0153306435963757,-0.394886631965368
-0.02182310294901,-0.388129719708518
-0.0250329769328877,-0.38472699689985
-0.0345112875924948,-0.374421770747854
-0.0376186516810578,-0.37095434528713
-0.0406991615203195,-0.367470746037345
-0.0437523264000905,-0.363970973748081
-0.0467776556101819,-0.36045502916892
-0.0527428441805689,-0.353374626139232
-0.0556817221204864,-0.349810169187869
-0.0585908015499679,-0.346229542944933
-0.0614695917588239,-0.342632748160008
-0.0643176020368657,-0.339019785582675
-0.0671343416739038,-0.335390655962515
-0.0699193199597494,-0.33174536004911
-0.0753920296371061,-0.32440627234089
-0.0780787796082391,-0.320712482045238
-0.0833506162644687,-0.313276412318759
-0.0859347215291871,-0.309534134387094
-0.088483630471389,-0.305775695409255
-0.0909968523808855,-0.302001096134822
-0.0959142722610051,-0.294403419694504
-0.100683055488033,-0.286741111062791
-0.105299276380457,-0.279014176236337
-0.107548949175719,-0.275126475874035
-0.109759009256763,-0.271222621211792
-0.111928965913399,-0.26730261299919
-0.114058328435439,-0.263366451985809
-0.116146606112692,-0.259414138921232
-0.118193308234971,-0.255445674555041
-0.122160022973847,-0.247460294916139
-0.124079054170067,-0.243443381142591
-0.127786010665122,-0.235361109435211
-0.12957295454358,-0.231295753000541
-0.131314887895739,-0.227214250511328
-0.13301132001141,-0.223116602717151
-0.134661760180404,-0.219002810367593
-0.137822701837605,-0.210726795000659
-0.139332221905434,-0.206564573482446
-0.142206906968601,-0.198191706524436
-0.144885847200522,-0.189754279334857
-0.146150686229293,-0.185511357527183
-0.147365116919684,-0.181252297910361
-0.149640790444573,-0.1726857682476
-0.152663970439335,-0.15971495892439
-0.153565646185481,-0.155359088193894
-0.155945650724945,-0.142194683628269
-0.156629008971145,-0.137774287146954
-0.157827816301977,-0.128885106242652
-0.158342283966232,-0.124416323318828
-0.158799473349459,-0.119931413079997
-0.159822464711092,-0.106379925969282
-0.160045633868322,-0.101830513966241
-0.16020907119358,-0.0972649783961012
-0.160354787507423,-0.0880855395528503
-0.160255687971108,-0.0788416154361818
-0.160113105483668,-0.0741954732742697
-0.159907846903122,-0.069533212042748
-0.159639421519279,-0.0648548324911977
-0.158911107500949,-0.0554497214263386
-0.158450237446084,-0.0507229914121926
-0.157924237747166,-0.0459801460763443
-0.157332617694006,-0.0412211861683753
-0.156674886576416,-0.036446112437867
-0.155950553684206,-0.0316549256344011
-0.152377390165386,-0.0123290626825902
-0.15131268774724,-0.00745732175805827
-0.150178439293339,-0.0025694722580579
-0.148974154093495,0.00233448506782981
-0.14635351061522,0.0121907201989404
-0.14493617091641,0.0171429965050002
-0.143446831630901,0.0221113776386213
-0.140250191459025,0.0320964513902204
-0.13854190915228,0.0371131425090353
-0.136759664418079,0.0421459354570855
-0.134902966546232,0.047194829484789
-0.13297132482655,0.0522598238425646
-0.130964248548845,0.0573409177808305
-0.128881247002926,0.0624381105500056
-0.124485505265693,0.0726807895827564
-0.117310185393519,0.0881655306241616
-0.112133109015646,0.0985691642348338
-0.109425039757215,0.103795120666346
-0.106636628838869,0.109037169182533
-0.103767385550419,0.114295309033815
-0.100816819181675,0.119569539470608
-0.0977844390224494,0.124859859743332
-0.0946697543625521,0.130166269102406
-0.0914722744917941,0.135488766798247
-0.0881915086999865,0.140827352081275
-0.0848269662769398,0.146182024201907
-0.0778445886963736,0.15693962595766
-0.0742257721184758,0.162342554093617
-0.0705212160685826,0.167761566068853
-0.066730429836505,0.173196661133786
-0.0628529227120538,0.178647838538835
-0.05888820398504,0.184115097534418
-0.0506951688825678,0.19509785729886
-0.0464658710867312,0.200613356568557
-0.0421473988475756,0.206144934430461
-0.0332409681985503,0.217256322932567
-0.0286520283683024,0.222836132073607
-0.0239719512539791,0.228432016808528
-0.0143364223323491,0.239672010061691
-0.00433045575214729,0.250976296695404
0.00081266843539092,0.256652548156013
0.00604987416813921,0.262344870713014
0.0279493267550179,0.28527485691332
0.0336643008666546,0.291047523708564
0.039476300784636,0.296836257102711
0.0453858172191518,0.302641056346181
0.0637043727237944,0.32015184167671
0.0764133219963604,0.331906014068012
0.0829182424440522,0.337807192666204
0.0895241143796016,0.343724431866648
0.109952346215289,0.361572505585674
0.124084921231837,0.37355151066729
0.131306807008505,0.379565097740032
0.138633079244356,0.385594740167955
0.146064228649576,0.391640437201478
0.153600745934358,0.39770218809102
0.176847412167951,0.415983756399936
0.184810308072863,0.422109715217735
0.200618951044843,0.434199788365313
0.208355322553873,0.44011203871638
0.230897877547165,0.457322724172848
0.238191331693119,0.462885675041136
0.259415615345261,0.479058620637583
0.266273139293525,0.484279044415303
0.286200113100678,0.499434567328358
0.292628694016639,0.504319236407718
0.298951130919116,0.509121024998772
0.311279319474964,0.51847765381401
0.317285944524009,0.52303334058722
0.328986439653524,0.53190157523739
0.334681183129667,0.536214969663376
0.345761845393908,0.544602429089713
0.35114863757768,0.548677340639092
0.376564676926514,0.567880647728602
0.390615684401916,0.578480869338874
0.399490877627004,0.585170670552843
0.407976430625092,0.59156281177463
0.412074183783601,0.594648318074739
0.416075836978871,0.597660679200341
0.427508563763605,0.606263124275243
0.43113018408428,0.608987137447951
0.434657887930899,0.61164012181872
0.441433292993312,0.616734697252487
0.444681867604779,0.619177134864512
0.447838272533537,0.621550236772649
0.450902944477422,0.623854426251411
0.459550929378202,0.630357752856575
0.462253036360959,0.632390525362967
0.464865593848027,0.634356501812549
0.467389038537241,0.636256105479835
0.472170336313456,0.639857887565568
0.476600423272298,0.643199257816272
0.480682792996461,0.646283602428051
0.487818355071521,0.651694759519254
0.497076500386071,0.658804485135486
0.498070590043999,0.65958175866317
0.499816759440821,0.660961737293408
0.501837539206025,0.662601633293634
0.502790837637568,0.66341312086635
0.503150630523272,0.663735601548017
0.503433101452713,0.664003137859241
0.503798499564582,0.664532304889967
0.503528621026694,0.66447822732001
0.503282065801722,0.664373004724498
0.502567906928907,0.664008308284971
0.502101176676737,0.663749680989983
0.501561928144508,0.663440765344195
0.500267623031218,0.662673762098274
0.496828008148741,0.660554919475417
0.495793359195524,0.659905837060401
0.494689685544941,0.659209852490691
0.492277010943024,0.657678869985238
0.489593477925684,0.655965358155165
0.488151231255821,0.655041211929678
0.474259378142758,0.646086546910706
0.472235212001905,0.644778375999146
0.470148571631236,0.643429652050588
0.467999893728588,0.642040798339546
0.465789614991798,0.64061223814053
0.456341225659949,0.634509397955012
0.453829493219998,0.632888654433833
0.451258780132925,0.63123074407176
0.44594215880876,0.627805115922988
0.32592450958492,0.528590317981537
0.522308196749028,0.725408137624924
0.518859749852565,0.496988234174584
0.319295356571548,0.716303413741208
0.412670968628554,0.606488316746968
0.402462348165882,0.599994879919769
0.514263298111052,0.693349294529449
0.282351610370743,0.49660351244164
0.490725663338172,0.691650470854141
0.38066486491687,0.586210212974608
0.243677820296307,0.462163244579733
0.348877407878901,0.566310293779039
0.344694896858037,0.563710155507761
0.340467379520826,0.561086395180008
0.237914577083868,0.458411771495878
0.215123066912192,0.665833183755421
0.205311141606533,0.450646906864077
0.423047761886717,0.434805825409135
0.300466494393303,0.536479399983532
0.161694932905389,0.634964135913424
0.366351279684699,0.623047937639925
0.145095946460907,0.619666829542123
0.113096006734185,0.370725833141463
0.315623516244998,0.586989726056837
0.264275775505984,0.554922294744109
0.267879696174475,0.568778724811005
0.255782679929695,0.547950222456159
0.145144475557001,0.444846644656953
0.0421513628516425,0.335068083739756
0.217231332092291,0.322781532492749
0.207647006392659,0.307563244178772
0.0990526607741384,0.418922389701379
0.0931783969081522,0.415662541490236
0.0813594815069642,0.409134623526463
0.0514219774992825,0.392786622435637
0.0393000603488956,0.386245028291523
0.0332093666620532,0.382975411380137
0.0209706925542531,0.376440654251269
0.0148235855289688,0.373176360582815
0.00865854745321096,0.369914687877698
-0.00372357505837964,0.363400898455525
-0.0161721813978254,0.356902672180858
-0.041254871229508,0.343966453858455
-0.0538819675563581,0.33753523420293
-0.060215425130107,0.334330328212382
-0.0665615733802893,0.331133122479328
-0.0792901951186082,0.324763504883754
-0.0920643391886213,0.318429767612313
-0.0984673903534216,0.315277412284425
-0.150017654672428,0.290462761285031
-0.162979723776113,0.284386894051693
-0.169469531943444,0.281370457772322
-0.188968810533351,0.272412217577561
-0.201988841021516,0.266520180728978
-0.228062408303471,0.254943640789298
-0.247633145800504,0.246456161019502
-0.254157360108303,0.243666387166967
-0.260681164157435,0.240897011807318
-0.32580056689801,0.214418295712472
-0.351726792896721,0.204504632252658
-0.358192039325448,0.202092027227879
-0.377541647275958,0.195018930562171
-0.39039857615154,0.190445030870687
-0.396812887568393,0.188201800274181
-0.409611020871041,0.183804893952205
-0.4223655901467,0.179530215955033
-0.441408119297441,0.173354784372259
-0.454038494081342,0.169400491795052
-0.466613077298827,0.165580279229015
-0.479128375367201,0.161897532870252
-0.491580894703773,0.158355638914868
-0.516283622850731,0.151707952998656
-0.534619891268684,0.147117110953896
-0.546746673226308,0.144250956990513
-0.57075076324901,0.139000464705717
-0.588521785128203,0.135497517326005
-0.600252084657337,0.133375673825744
-0.657367992268067,0.125454895712925
-0.662928412644162,0.124919346221483
-0.679432533085774,0.123604398509712
-0.690283295829585,0.122975083415792
-0.695661771842802,0.122735890706549
-0.701008395353111,0.122547572255135
-0.742582289590485,0.122923290867242
-0.762524424237426,0.124410014871601
-0.791303005007552,0.128339871163377
-0.800579325280077,0.130116640121117
-0.809691552922688,0.132132461169274
-0.831731290136915,0.138240088597171
-0.848572259333281,0.14425271788793
-0.880026561047727,0.159397180066184
-0.883740992215627,0.161590917028665
-0.89458399624271,0.168583192091354
-0.918076607469912,0.187350695155748
-0.946999813466291,0.22035659908249
-0.949577638690031,0.224072022462899
