0.70570383849114,0.00711870472663723
0.704432522994391,0.00877575313859206
0.703180403309518,0.0103827179643505
0.70194724055085,0.0119399681956501
0.700732795832716,0.0134478728242287
0.699536830269441,0.0149068008418239
0.698359104975353,0.0163171212401734
0.69719938106478,0.0176792030110149
0.69605741965205,0.0189934151460861
0.69493298185149,0.0202601266371246
0.693825828777427,0.0214797064758682
0.692735721544188,0.0226525236540544
0.691662421266102,0.0237789471634211
0.690605689057495,0.0248593459957058
0.689565286032695,0.0258940891426464
0.68854097330603,0.0268835455959803
0.687532511991827,0.0278280843474454
0.686539663204413,0.0287280743887793
0.685562188058117,0.0295838847117197
0.684599847667264,0.0303958843080043
0.683652403146183,0.0311644421693708
0.682719615609202,0.0318899272875568
0.681801246170648,0.0325727086543
0.680897055944847,0.0332131552613382
0.680006806046128,0.0338116361004089
0.679130257588819,0.03436852016325
0.678267171687246,0.034884176441599
0.677417309455737,0.0353589739271936
0.676580432008619,0.0357932816117716
0.67575630046022,0.0361874684870706
0.674944675924868,0.0365419035448283
0.674145319516889,0.0368569557767823
0.673357992350612,0.0371329941746705
0.672582455540364,0.0373703877302303
0.671818470200471,0.0375695054351996
0.671065797445263,0.037730716281316
0.670324198389065,0.0378543892603173
0.669593434146207,0.037940893363941
0.668873265831014,0.0379905975839248
0.668163454557814,0.0380038709120065
0.667463761440936,0.0379810823399237
0.666773947594706,0.0379226008594142
0.666093774133452,0.0378287954622155
0.665423002171501,0.0377000351400654
0.664761392823181,0.0375366888847015
0.664108707202819,0.0373391256878617
0.663464706424743,0.0371077145412834
0.662829151603279,0.0368428244367044
0.662201803852757,0.0365448243658625
0.661582424287503,0.0362140833204952
0.660970774021844,0.0358509702923403
0.660366614170107,0.0354558542731354
0.659769705846622,0.0350291042546182
0.659179810165714,0.0345710892285265
0.658596688241712,0.0340821781865978
0.658020101188942,0.0335627401205699
0.657449810121733,0.0330131440221805
0.656885576154412,0.0324337588831672
0.656327160401305,0.0318249536952678
0.655774323976741,0.0311870974502198
0.655226827995048,0.0305205591397611
0.654684433570551,0.0298257077556292
0.65414690181758,0.0291029122895619
0.653613993850461,0.0283525417332968
0.653085470783522,0.0275749650785716
0.652561093731091,0.0267705513171241
0.652040623807494,0.0259396694406918
0.651523822127059,0.0250826884410125
0.651010449804114,0.0241999773098238
0.650500267952987,0.0232919050388635
0.649993037688004,0.0223588406198693
0.649488520123493,0.0214011530445787
0.648986476373781,0.0204192113047295
0.648486667553197,0.0194133843920594
0.647988854776067,0.018384041298306
0.647492799156719,0.0173315510152071
0.64699826180948,0.0162562825345003
0.646505003848679,0.0151586048479233
0.646012786388641,0.0140388869472138
0.645521370543695,0.0128974978241094
0.645030517428169,0.011734806470348
0.644539988156389,0.010551181877667
0.644049543842683,0.00934699303780429
0.643558945601378,0.00812260894249745
0.643067954546803,0.00687839858348422
0.642576331793284,0.00561473095250226
0.642083838455149,0.00433197504128923
0.641590235646726,0.00303049984158284
0.641095284482341,0.00171067434512078
0.640598746076323,0.000372867543640718
0.640100381542998,-0.000982551571119671
0.639599951996695,-0.00235521400742269
0.63909721855174,-0.00374475077353064
0.638591942322462,-0.00515079287770586
0.638083884423186,-0.00657297132821066
0.637572805968242,-0.00801091713330737
0.637058468071957,-0.00946426130125831
0.636540631848657,-0.0109326348403258
0.636019058412671,-0.0124156687587721
0.635493508878326,-0.0139129940648596
0.634963744359949,-0.0154242417668505
0.634429525971868,-0.0169490428730073
0.63389061482841,-0.0184870283915921
0.633346772043902,-0.0200378293308675
0.632797758732673,-0.0216010766990955
0.63224333600905,-0.0231764015045386
0.631683264987359,-0.0247634347554592
0.631117306781929,-0.0263618074601194
0.630545222507087,-0.0279711506267816
0.629966773277161,-0.0295910952637082
0.629381720206477,-0.0312212723791614
0.628789824409364,-0.0328613129814036
0.628190847000148,-0.0345108480786971
0.627584549093158,-0.0361695086793042
0.62697069180272,-0.0378369257914872
0.626349036243163,-0.0395127304235084
0.625719343528813,-0.0411965535836302
0.625081374773998,-0.0428880262801149
0.624434891093046,-0.0445867795212247
0.623779653600284,-0.0462924443152221
0.623115423410039,-0.0480046516703692
0.622441961636639,-0.0497230325949286
0.621759029394411,-0.0514472180971623
0.621066387797683,-0.0531768391853329
0.620363797960783,-0.0549115268677025
0.619651020998037,-0.0566509121525335
0.618927818023774,-0.0583946260480883
0.61819395015232,-0.0601422995626291
0.617449178498003,-0.0618935637044183
0.616693264175151,-0.0636480494817181
0.615925968298091,-0.0654053879027909
0.615147051981149,-0.067165209975899
0.614356276338656,-0.0689271467093048
0.613553402484936,-0.0706908291112704
0.612738191534319,-0.0724558881900584
0.61191040460113,-0.0742219549539309
0.611069802799698,-0.0759886604111503
0.610216147244351,-0.0777556355699789
0.609349199049415,-0.079522511438679
0.608468719329218,-0.0812889190255131
0.607574469198088,-0.0830544893387432
0.606666209770352,-0.0848188533866318
0.605743702160337,-0.0865816421774412
0.604806707482372,-0.0883424867194337
0.603854986850782,-0.0901010180208717
0.602888301379897,-0.0918568670900173
0.601906412184043,-0.0936096649351331
0.600909080377547,-0.0953590425644812
0.599896067074738,-0.097104630986324
0.598867133389943,-0.0988460612089238
0.597822040437488,-0.100582964240543
0.596760549331703,-0.102314971089444
0.595682421186913,-0.104041712763889
0.594587417117447,-0.10576282027214
0.593475298237631,-0.107477924622459
0.592345825661794,-0.10918665682311
0.591198760504263,-0.110888647882354
0.590033863879366,-0.112583528808453
0.588850896901429,-0.11427093060967
0.58764962068478,-0.115950484294267
0.586429796343747,-0.117621820870507
0.585191184992657,-0.119284571346652
0.583933547745838,-0.120938366730964
0.582656645717617,-0.122582838031705
0.581360240022321,-0.124217616257138
0.580044091774279,-0.125842332415525
0.578707962087816,-0.127456617515128
0.577351612077262,-0.129060102564211
0.575974802856943,-0.130652418571034
0.574577295541187,-0.13223319654386
0.573158851244321,-0.133802067490953
0.571719231080672,-0.135358662420573
0.570258196164569,-0.136902612340983
0.568775507610339,-0.138433548260447
0.567270926532309,-0.139951101187225
0.565744214044806,-0.14145490212958
0.564195131262158,-0.142944582095775
0.562623439298693,-0.144419772094072
0.561028899268737,-0.145880103132732
0.559411272286619,-0.14732520622002
0.557770319466666,-0.148754712364196
0.556105801923204,-0.150168252573524
0.554417480770563,-0.151565457856265
0.552705117123069,-0.152945959220681
0.55096847209505,-0.154309387675036
0.549207306800832,-0.155655374227591
0.547421382354744,-0.156983549886609
0.545610459871113,-0.158293545660352
0.543774300464267,-0.159584992557083
0.541912665248533,-0.160857521585063
0.540025315338238,-0.162110763752555
0.538112011847709,-0.163344350067821
0.536172515891275,-0.164557911539124
0.534206588583263,-0.165751079174726
0.532213991038,-0.166923483982889
0.530194484369814,-0.168074756971876
0.528147829693032,-0.169204529149949
0.526073788121981,-0.17031243152537
0.52397212077099,-0.171398095106401
0.521842588754384,-0.172461150901306
0.519684953186493,-0.173501229918345
0.517498975181644,-0.174517963165782
0.515284415854163,-0.175510981651879
0.513041036318378,-0.176479916384898
0.510768597688617,-0.177424398373101
0.508466861079208,-0.178344058624751
0.506135587604477,-0.17923852814811
0.503774538378752,-0.180107437951441
0.501383474516361,-0.180950419043005
0.498962157131631,-0.181767102431066
0.496510347338889,-0.182557119123884
0.494027806252463,-0.183320100129724
0.491514294986681,-0.184055676456846
0.48896957465587,-0.184763479113513
0.486393406374357,-0.185443139107988
0.483785551256469,-0.186094287448534
0.481145770416536,-0.186716555143411
0.478473824968882,-0.187309573200883
0.475769476027837,-0.187872972629212
0.473032484707727,-0.188406384436659
0.470262612122881,-0.188909439631489
0.467459619387625,-0.189381769221962
0.464623267616287,-0.189823004216342
0.461753317923195,-0.190232775622889
0.458849531422675,-0.190610714449868
0.455911669229056,-0.19095645170554
0.452939492456664,-0.191269618398167
0.449932762219828,-0.191549845536012
0.446891239632874,-0.191796764127337
0.443814685810131,-0.192010005180404
0.440702861865925,-0.192189199703476
0.437555528914585,-0.192333978704815
0.434372448070437,-0.192443973192683
0.431153380447808,-0.192518814175343
0.427898087161028,-0.192558132661057
0.424606329324422,-0.192561559658087
0.421277868052319,-0.192528726174696
0.417912464459045,-0.192459263219145
0.414509879658929,-0.192352801799698
0.411069874766297,-0.192208972924616
0.407592210895478,-0.192027407602162
0.404076649160798,-0.191807736840599
0.400522950676586,-0.191549591648187
0.396930876557168,-0.191252603033191
0.393300187916872,-0.190916402003872
0.389630645870025,-0.190540619568492
0.385922011530956,-0.190124886735314
0.382174046013991,-0.1896688345126
0.378386510433457,-0.189172093908612
0.374559165903683,-0.188634295931613
0.370691773538996,-0.188055071589865
0.366784094453723,-0.18743405189163
0.362835889762191,-0.186770867845171
0.358846920578729,-0.18606515045875
0.354816948017664,-0.185316530740629
0.350745733193322,-0.184524639699071
0.346633037220032,-0.183689108342338
0.34247862121212,-0.182809567678692
0.338282246283916,-0.181885648716395
0.334043673549745,-0.180916982463711
0.329762664123935,-0.1799031999289
0.325438979120814,-0.178843932120226
0.32107237965471,-0.177738810045951
0.316662626839949,-0.176587464714337
0.312209481790859,-0.175389527133647
0.307712705621767,-0.174144628312142
0.303172059447002,-0.172852399258085
0.298587304380891,-0.171512470979739
0.29395820153776,-0.170124474485366
0.289284512031938,-0.168688040783227
0.284565996977751,-0.167202800881586
0.279802417489528,-0.165668385788704
0.274993534681596,-0.164084426512845
0.270139109668282,-0.16245055406227
0.265238903563914,-0.160766399445241
0.260292677482819,-0.159031593670021
0.255300192539324,-0.157245767744873
0.250261209847758,-0.155408552678058
0.245175490522447,-0.153519579477839
0.240042795677719,-0.151578479152478
0.234862886427901,-0.149584882710238
0.229635523887322,-0.147538421159381
0.224360469170308,-0.145438725508168
0.219037483391186,-0.143285426764863
0.213666327664285,-0.141078155937729
0.208246763103932,-0.138816544035026
0.202778550824454,-0.136500222065017
0.197261451940178,-0.134128821035965
0.191695227565432,-0.131701971956133
0.186079638814544,-0.129219305833781
0.180414446801841,-0.126680453677174
0.174699412641651,-0.124085046494572
0.1689342974483,-0.121432715294239
0.163118862336117,-0.118723091084436
0.157252868419429,-0.115955804873426
0.151336076812563,-0.113130487669472
0.145368248629846,-0.110246770480835
0.139349144985607,-0.107304284315778
0.133278526994173,-0.104302660182564
0.12715615576987,-0.101241529089453
0.120981792427028,-0.0981205220447101
0.114755198079972,-0.0949392700565959
0.108476133843031,-0.0916974041333733
0.102144360830531,-0.0883945552833044
0.0957596401568014,-0.0850303545146517
0.089321732936168,-0.0816044328356773
0.0828304002829595,-0.0781164212546439
0.0762854033115022,-0.0745659507798134
0.0696865031361245,-0.0709526524194484
0.0630334608711533,-0.067276157181811
0.0563260376309164,-0.0635360960751637
0.0495639945297408,-0.0597321001077686
0.0427470926819545,-0.0558638002878883
0.0358750932018845,-0.0519308276237849
0.0289477572038587,-0.047932813123721
0.0219648458022041,-0.0438693877959584
0.0149261201112486,-0.03974018264876
0.00783134124531912,-0.0355448286903876
0.000680270318743653,-0.031282956929104
-0.00652733155415086,-0.026954198373171
-0.0137917032590363,-0.0225581840308515
-0.0211130836815859,-0.0180945449104073
-0.0284917117074717,-0.013562912020101
-0.0359278262223666,-0.00896291636819477
-0.0434216661119428,-0.00429418896295111
-0.0509734702618732,0.000443639187367881
-0.0585834775578299,0.00525093707449961
-0.0662519268854862,0.0101280736901821
-0.0739790571305136,0.0150754180261527
-0.0817651071785856,0.0200933390741495
-0.0896103159153741,0.0251822058259097
-0.0975149222265521,0.0303423872731714
-0.105479164997792,0.0355742524076719
-0.113503283114766,0.0408781702211493
-0.121587515463147,0.0462545097053408
-0.129732100928607,0.0517036398519847
-0.13793727839682,0.057225929652818
-0.146203286753457,0.062821748099579
-0.154530364884191,0.0684914641840049
-0.162918751674695,0.0742354468978337
-0.171368686010641,0.0800540652328029
-0.179880406777701,0.0859476881806504
-0.188454152861549,0.0919166847331135
-0.197090163147857,0.0979614238819303
-0.205788676522297,0.104082274618838
-0.214549931870542,0.110279605935575
-0.223374168078264,0.116553786823878
-0.232261624031137,0.122905186275486
-0.241212538614832,0.129334173282136
-0.250227150715022,0.135841116835565
-0.25930569921738,0.142426385927511
-0.268448423007578,0.149090349549713
-0.277655560971288,0.155833376693907
-0.286927351994184,0.162655836351832
-0.296264034961937,0.169558097515224
-0.305665848760222,0.176540529175822
-0.315133032274708,0.183603500325364
-0.324665824391071,0.190747379955587
-0.33426446399498,0.197972537058228
-0.343929189972111,0.205279340625026
-0.353660241208135,0.212668159647718
-0.363457856588725,0.220139363118042
-0.373322274999552,0.227693320027735
-0.38325373532629,0.235330399368536
-0.393252476454612,0.243050970132181
-0.403318737270189,0.25085540131041
-0.413452756658694,0.258744061894957
-0.423654773505801,0.266717320877564
-0.43392502669718,0.274775547249965
-0.444263755118506,0.282919110003901
-0.45467119765545,0.291148378131106
-0.465147593193686,0.299463720623321
-0.475693180618885,0.307865506472282
-0.48630819881672,0.316354104669727
-0.496992886672863,0.324929884207393
-0.507747483072988,0.33359321407702
-0.518572226902767,0.342344463270343
-0.529467357047872,0.351184000779101
-0.540433112393975,0.360112195595031
-0.551469731826751,0.369129416709871
-0.56257745423187,0.378236033115359
-0.573756518495005,0.387432413803233
-0.58500716350183,0.39671892776523
-0.596329628138016,0.406095943993087
-0.607724151289236,0.415563831478543
-0.619190971841163,0.425122959213336
-0.630730328679469,0.434773696189202
-0.642342460689827,0.44451641139788
-0.654027606757909,0.454351473831107
-0.665786005769388,0.464279252480621
-0.677617896609936,0.47430011633816
-0.689523518165227,0.484414434395461
-0.701503109320931,0.494622575644262
-0.713556908962723,0.504924909076301
-0.725685155976274,0.515321803683314
-0.737888089247258,0.525813628457042
-0.750165947661345,0.536400752389219
-0.762518970104211,0.547083544471586
-0.774947395461525,0.557862373695878
-0.787451462618963,0.568737609053834
