0.447170819760906,-0.933926315649847
0.438798913361232,-0.920924037239949
0.43053125652423,-0.908044564524084
0.422367360998979,-0.895287342029011
0.414306738534559,-0.882651814281488
0.406348900880051,-0.870137425808275
0.398493359784533,-0.857743621136129
0.390739626997086,-0.845469844791811
0.383087214266789,-0.833315541302077
0.375535633342722,-0.821280155193688
0.368084395973966,-0.809363130993401
0.360733013909599,-0.797563913227975
0.353480998898702,-0.785881946424169
0.346327862690354,-0.774316675108742
0.339273117033636,-0.762867543808453
0.332316273677626,-0.751533997050059
0.325456844371406,-0.74031547936032
0.318694340864055,-0.729211435265995
0.312028274904651,-0.718221309293841
0.305458158242276,-0.707344545970618
0.298983502626009,-0.696580589823085
0.292603819804931,-0.685928885378
0.286318621528119,-0.675388877162121
0.280127419544656,-0.664960009702207
0.274029725603619,-0.654641727525019
0.26802505145409,-0.644433475157313
0.262112908845148,-0.634334697125848
0.256292809525873,-0.624344837957383
0.250564265245344,-0.614463342178677
0.244926787752641,-0.604689654316489
0.239379888796845,-0.595023218897577
0.233923080127035,-0.585463480448699
0.22855587349229,-0.576009883496615
0.223277780641691,-0.566661872568084
0.218088313324318,-0.557418892189863
0.212986983289249,-0.548280386888712
0.203046782062348,-0.530314579624653
0.198206934368674,-0.521486166715262
0.188785303566279,-0.504135544975553
0.184202543955718,-0.495612225198751
0.179704503871021,-0.48718949218633
0.175290695061268,-0.478866790465047
0.170960629275538,-0.470643564561662
0.166713818262911,-0.462519259002934
0.162549773772468,-0.45449331831562
0.158468007553287,-0.446565187026481
0.154468031354449,-0.438734309662273
0.150549356925034,-0.431000130749757
0.146711496014121,-0.42336209481569
0.14295396037079,-0.415819646386831
0.139276261744121,-0.40837222998994
0.135677911883193,-0.401019290151774
0.132158422537088,-0.393760271399093
0.128717305454883,-0.386594618258655
0.12535407238566,-0.379521775257219
0.122068235078498,-0.372541186921543
0.118859305282477,-0.365652297778386
0.115726794746676,-0.358854552354507
0.106782896191396,-0.339002623666123
0.103951180187275,-0.332563898386942
0.101193442188775,-0.326213539460832
0.0985091939449735,-0.319950991414552
0.0958979472049516,-0.313775698774861
0.0884973334983594,-0.295767798562904
0.0861732102642526,-0.289935972817153
0.0839196472793239,-0.284188625111784
0.0817361562926536,-0.278525199973556
0.0775774373104062,-0.267447895505556
0.0756012328129888,-0.262032905229302
0.071852692550966,-0.251447471226078
0.0700793802845201,-0.246275916552625
0.0683727222598909,-0.241184396133624
0.0667322302261583,-0.236172354495833
0.0636477911277021,-0.226384485670915
0.0622028675611379,-0.221607547537306
0.0608221569817896,-0.216907866291941
0.0582514217810596,-0.207738052572981
0.0570604206578376,-0.203266809152903
0.0559316795181505,-0.198870600728104
0.0548647101110782,-0.194548871825344
0.0538590241857006,-0.190301066971379
0.0512047847905337,-0.177995641969855
0.0504393502827326,-0.174037978578665
0.0497327580020253,-0.170151461870065
0.0490845196974914,-0.166335536370813
0.0484941471182108,-0.16258964660767
0.0479611520132634,-0.158913237107392
0.0474850461317288,-0.155305752396739
0.0470653412226869,-0.15176663700247
0.0467015490352176,-0.148295335451344
0.0463931813184005,-0.144891292270117
0.0461397498213156,-0.141553951985551
0.0459407662930426,-0.138282759124403
0.0457957424826614,-0.135077158213431
0.0457041901392517,-0.131936593779396
0.0456656210118934,-0.128860510349054
0.0456795468496662,-0.125848352449166
0.0457454794016501,-0.122899564606489
0.0458629304169246,-0.120013591347782
0.0460314116445699,-0.117189877199804
0.0462504348336654,-0.114427866689314
0.0465195117332913,-0.111727004343071
0.046838154092527,-0.109086734687832
0.0472058736604527,-0.106506502250357
0.047622182186148,-0.103985751557404
0.0480865914186926,-0.101523927135733
0.0485986131071666,-0.0991204735121007
0.0491577590006495,-0.0967748352132673
0.0497635408482214,-0.0944864567659907
0.0511130594019509,-0.0900792575331437
0.0518558196062681,-0.0879593258010905
0.0526432627609935,-0.0858944320276291
0.0534749006152067,-0.0838840207395181
0.0543502449179876,-0.0819275364635162
0.0552688074184161,-0.080024423726382
0.0562300998655718,-0.0781741270548745
0.0572336340085347,-0.0763760909757521
0.0582789215963845,-0.0746297600157734
0.0593654743782011,-0.0729345787016973
0.0604928041030642,-0.0712899915602824
0.0616604225200536,-0.0696954431182873
0.0641145724267309,-0.0666542404395914
0.0654001274145782,-0.0652064752564079
0.0680857562046895,-0.0624538398361635
0.0709208217412216,-0.0598880278558066
0.073901418016813,-0.0575045955294069
0.0786366381748327,-0.0542616881092536
0.0802835787557272,-0.0532670946947562
0.0819639725158654,-0.0523147633543002
0.0836773312043271,-0.0514041386146442
0.085423166570192,-0.0505346650025469
0.089010314330451,-0.0489169492680629
0.0908506502230046,-0.0481675961991937
0.0927215097892807,-0.0474571723649179
0.0946224047783591,-0.0467851222919942
0.0965528469393197,-0.0461508905071811
0.0985123480212422,-0.0455539215372375
0.100500419773206,-0.044993659908922
0.102516573944292,-0.0444695501489933
0.104560322283579,-0.04398103678421
0.106631176540147,-0.0435275643413309
0.108728648463077,-0.0431085773471146
0.110852249801447,-0.0427235203283197
0.113001492304337,-0.0423718378117049
0.115175887720828,-0.0420529743240291
0.121845108942701,-0.0412877433022212
0.124115233504392,-0.0410946011978875
0.126408069725082,-0.040931500756286
0.131059924139779,-0.0406932029683141
0.133417965831947,-0.0406168946754613
0.135796766179432,-0.0405684061523754
0.140614689836679,-0.040552666522539
0.1430528366446,-0.0405843044693059
0.145509789104158,-0.0406415402928745
0.147985058964434,-0.0407238185200033
0.150478157974508,-0.0408305836774512
0.152988597883459,-0.0409612802919766
0.155515890440367,-0.0411153528903384
0.160619080494373,-0.0414914041456058
0.163194001489632,-0.0417122718560287
0.165783822129166,-0.0419542936573226
0.168388054162057,-0.0422169140762463
0.176282336111664,-0.0431228123063823
0.178939331208778,-0.0434622724634116
0.18428874356835,-0.0441941010584982
0.186980184328968,-0.0445853585500728
0.189682130475581,-0.0449927708733465
0.192394093757269,-0.0454157825550781
0.19511558592311,-0.0458538381220261
0.197846118722186,-0.0463063821009493
0.200585203903576,-0.0467728590186064
0.206087078409615,-0.0477453897771568
0.208848891232425,-0.0482503326715674
0.211617303433868,-0.0487669866117465
0.214391826763024,-0.049294796124453
0.217171972968973,-0.0498332057364452
0.219957253800794,-0.0503816599744821
0.222747181007567,-0.0509396033653222
0.225541266338372,-0.0515064804357243
0.22833902154229,-0.0520817357124469
0.233943588565779,-0.0532551589918887
0.236749423883511,-0.0538522160481253
0.242365756876348,-0.055064243627423
0.245175278049613,-0.0556781032040014
0.247985051339549,-0.0562964526742113
0.250794588495234,-0.0569187365648111
0.25360340126575,-0.0575443994025597
0.256411001400176,-0.0581728857142156
0.262020610757077,-0.0594361068662842
0.264821643477712,-0.0600697307602143
0.267619510558576,-0.0607039562350865
0.270413723748749,-0.0613382278176594
0.273203794797311,-0.0619719900346917
0.275989235453341,-0.0626046874129422
0.27876955746592,-0.0632357644791694
0.281544272584127,-0.0638646657601322
0.287074929133745,-0.0651137190732986
0.289829894063316,-0.0657327601590198
0.292577299094835,-0.0663474035665111
0.300769272291872,-0.0681593929871928
0.303481555221979,-0.0687508909493515
0.306183836999431,-0.0693352138670738
0.308875629373311,-0.0699118062671183
0.311556444092696,-0.0704801126762438
0.314225792906667,-0.0710395776212088
0.316883187564304,-0.071589645628772
0.324778764090008,-0.0731779132946381
0.327383459613106,-0.0736848388201812
0.329973759725269,-0.0741795900421159
0.335109220713108,-0.0751303476821949
0.337653405086944,-0.0755852431538565
0.340181241046164,-0.0760257424289445
0.342692240339848,-0.0764512900342176
0.345185914717076,-0.0768613304964343
0.347661775926927,-0.0772553083423534
0.354977598043019,-0.0783353114499118
0.357377324074161,-0.0786594840982272
0.362115524619594,-0.0792507539741039
0.364453022632044,-0.0795167402551826
0.366768801469756,-0.0797622201340331
0.369062372881809,-0.0799866381374141
0.371333248617284,-0.0801894387920841
0.378004819255036,-0.080662581931416
0.386552886744115,-0.0809570978585996
0.396635771334911,-0.0807347011888366
0.398567172441128,-0.0806059282453051
0.400469042357884,-0.0804477613276842
0.407771445111892,-0.0795100444514804
0.409518335317539,-0.0791965755647928
0.412914245392967,-0.0784709018775642
0.414562288760906,-0.0780575861305406
0.416176406681103,-0.0776098771502557
0.417756110902636,-0.0771272194634682
0.419300913174587,-0.0766090575969367
0.420810325246034,-0.0760548360774201
0.422283858866057,-0.0754639994316767
0.423721025783736,-0.0748359921864655
0.426484306508382,-0.073466244004674
0.42909626141261,-0.071941147746115
0.431552984489059,-0.0702562596248579
0.434938465035543,-0.0674195969186901
0.435985111129173,-0.066389332650527
0.436990019760337,-0.0653157875772413
0.437952702678115,-0.064198406225592
0.442115642784005,-0.0579345137284418
0.444075450228012,-0.0536145926023415
0.444636130433905,-0.0520776884495584
0.445149702417211,-0.0504913932859984
0.445615677927008,-0.0488551516384198
0.446402886522396,-0.0454306069982426
0.446723143106147,-0.0436411930591611
0.446993850212709,-0.041799610743096
0.447214519591162,-0.039905304576806
0.447503792160059,-0.0359562988005857
0.447571418848663,-0.0339004882441728
0.447587054805476,-0.0317897319445696
0.44755021177958,-0.0296234744285349
0.447460401520053,-0.0274011602228273
0.447317135775975,-0.0251222338542053
0.447119926296427,-0.0227861398494279
0.446868284830488,-0.0203923227352536
0.445307634084417,-0.0102287137197611
0.44477650892272,-0.00753794895998256
0.44418802226911,-0.00478612825135916
0.442837011482474,0.000902902905387339
0.441250695717148,0.00684282353640897
0.439425168965768,0.0130380774276364
0.438421480843009,0.0162328430289304
0.436229813848748,0.0228194289090863
0.433789170850031,0.0296724575142743
0.431095645839496,0.0367963726304251
0.429652831952496,0.040461301313215
0.426572660160432,0.0479998782944298
0.424934325753526,0.0518746375393375
0.421458718663369,0.0598378749039603
0.419620469478276,0.063927463970158
0.417714605531947,0.0680897739232681
0.395292017463383,0.0962473703884436
0.39750354542523,0.106765952696318
0.39997497244639,0.104072862265963
0.33993222557418,0.0609838447410663
0.418414276878413,0.138211725790262
0.3984442309105,0.159201087773072
0.414288088355683,0.110671031585568
0.352322524835212,0.152614072855847
0.363107701348559,0.118835696683727
0.371290324277618,0.156079864236417
0.364559125020812,0.160815536791952
0.357690844257484,0.179183255121022
0.35409508354875,0.185171456087728
0.346665075530398,0.197406570228493
0.34393861540796,0.214812099201618
0.30050066687836,0.219253875985008
0.330837442064399,0.222927200590199
0.317509038555384,0.225214982753159
0.317978943567532,0.256946686138503
0.309198336851054,0.256843318985067
0.318015632451858,0.290299444619552
0.295202337209094,0.278294495640365
0.29048045247653,0.255787710202327
0.25739653976105,0.327926195154403
0.255404504123687,0.32668042998785
0.248242609530283,0.352859340372975
0.244963482945039,0.357207567656218
0.232671948412106,0.371215249618338
0.241742088155448,0.345617816058457
0.181920255036867,0.363566460816425
0.207652159273114,0.408735935774258
0.193533560469868,0.43023829538871
0.188974175844375,0.437238805263603
0.175731650573197,0.457742768492783
0.1714615382747,0.464412344483598
0.167262884000548,0.470999769788085
0.159078573433431,0.483929100793582
0.155092229094543,0.490271472722344
0.143552311581023,0.508812211579207
0.139844230834358,0.514831109267942
0.136204855928346,0.520769721181361
0.132633842840023,0.526628280433341
0.115792163860101,0.55472844575734
0.112624097195724,0.560111584432095
0.109521984188305,0.565416302242547
0.100607926878182,0.580862261626852
0.0949886832019294,0.590771737315944
0.0870381290240601,0.605058867276448
0.082052620195268,0.614201617863255
0.0728248832065544,0.631578704607954
0.0685771506792464,0.639816770587871
0.0665436143269888,0.64382400012829
0.06456983921838,0.647757004854184
0.0626554813304583,0.65161601787943
0.0590036411248296,0.659113001283485
0.0555853415264095,0.666316815251466
0.0539629093974986,0.669809366481621
0.0523978303515048,0.673229324694387
0.0508897603654666,0.676576923003642
0.0494383554164223,0.679852394523261
0.0467041645374687,0.686187889649098
0.0454206905616362,0.689248379483071
0.044192505530951,0.692237674982914
0.0419006262131758,0.698003615435719
0.0408362438801625,0.700780726616434
0.03982577440045,0.703487575918526
0.0388688737510765,0.706124396455873
0.0379651979090804,0.708691421342349
0.0363161445553737,0.713617016618199
0.0342331500061028,0.720487769997366
0.0336415985261764,0.722640916370033
0.0326106014832993,0.726742950668041
0.0321704678744255,0.728692304821137
0.0314392103669987,0.732388852704892
0.0311473984225225,0.734136512663305
0.0309043389869222,0.735817407451244
0.0304127458740475,0.74187799717579
0.0308539031772645,0.747979491660991
0.0313499602140989,0.749967419435976
0.0324278674619672,0.75247013535348
0.0328748129041078,0.753177526249495
0.033365006487738,0.753821881797061
0.0344737619876203,0.754922419302351
0.0379784116060771,0.75658696243908
0.038802205495004,0.75673542729861
0.0405699050544002,0.756849778160868
0.0435165735029256,0.756568354020395
0.0445761186564357,0.756354691646714
0.0468091283316887,0.755748984092329
0.0479819048075082,0.755357405139377
0.0491917370115074,0.754906986887754
0.0517211925121988,0.753830564944003
0.0530401277629677,0.753205027479628
0.0572096352414268,0.750981906483022
0.0616909708269202,0.748243917972604
0.064847178748335,0.746135662976339
0.0664748458994833,0.744997356023041
0.0681350964803099,0.743803240251467
0.0698275864678532,0.742553548775495
0.0715519718391515,0.741248514709001
0.0750950526411668,0.738473351259952
0.0787615867026624,0.735479614815334
0.0806402886483113,0.733901364504378
0.0844868422546028,0.730583265274554
0.0864540058693221,0.72884388258344
0.0884499686611417,0.727051255326692
0.0904743866070998,0.725205616618188
0.0946072118695849,0.721356237301418
0.0967149311401887,0.719352962920905
0.107652832968354,0.708560068352119
0.112207914492737,0.703884884739398
0.121611376176535,0.6939310160356
0.126454251968564,0.688656060766548
0.141514432940848,0.671661490222933
0.146702503851365,0.665612948166283
0.14932649318825,0.662517785173757
0.151969993082271,0.659375671690266
0.162732217770477,0.646342375124176
0.176582703410889,0.62902234203503
0.185088590909059,0.618093025044134
0.211381164889954,0.582958569799335
0.214366859231661,0.578842523325377
0.217364151602386,0.574684887979614
0.220372697979166,0.570485896875924
0.232512543087616,0.553281037159418
0.235572199150252,0.548878763974238
0.24789928185404,0.530872431625602
0.25100144702849,0.526272704205846
0.260351384980861,0.512241705370375
0.263481365031452,0.507488210612737
0.266617438743675,0.502696856805321
0.269759262094567,0.497867877062002
0.276058781620514,0.488097972223163
0.279215789749645,0.483157513355396
0.285542582625415,0.47316674829255
0.288711679326131,0.468116908325224
0.342816846626104,0.376952746572697
0.345993454416571,0.37129067853069
0.349167211271667,0.365596812399695
0.361826848879101,0.342508029263365
0.371274785138153,0.324868984556695
0.39310780617046,0.282674430992892
0.396197516239583,0.276531567192263
0.405415138538556,0.257935498644107
0.411513856584592,0.245400886462209
0.420585507964495,0.226397780742202
0.435478190229153,0.194204978941537
0.441347878086931,0.181150961918163
0.458621557393103,0.141406653080545
0.46705271425931,0.121218517804411
0.472590999605861,0.107647004760901
0.475334364440977,0.10082812072295
0.47806008535337,0.0939874624927028
0.486127944324595,0.0733371737869556
0.491411990270835,0.0594657174427171
0.499189388679098,0.0385062993932802
0.51659469269862,-0.0110767966003863
0.537289750733708,-0.0761144966427731
0.539462566115498,-0.0834237476705202
0.553908529949861,-0.135015420969792
0.561533007961739,-0.164811297202197
0.576877734069937,-0.232598505385585
0.578419945715543,-0.240188780360848
0.591925583277325,-0.316648047529151
0.598262828170177,-0.362945888782111
0.600064373758265,-0.378437693225685
0.601705897685433,-0.393955984830532
0.603862122560133,-0.417279006172349
0.605091551531344,-0.432855356694698
0.605642817664488,-0.440651133502584
0.60615132619871,-0.448451667189775
0.607416865978218,-0.471879478388418
0.608638838155848,-0.510999210677121
0.608414106727328,-0.565871980578252
0.608191706555994,-0.573716920847119
0.607920700395389,-0.58156265505939
0.607231494014519,-0.597255572858638
0.606812605748331,-0.605102290217861
0.605254672371213,-0.62864067876741
0.602461624327862,-0.660012379016467
0.598830332414921,-0.691355754317709
0.596693464548121,-0.707012157835368
0.595543521056774,-0.714835722662388
0.594338779162845,-0.722655885383035
0.591763524075398,-0.738285072049698
0.588964947102088,-0.753897852924344
