-0.825423505846107,-0.847958295663397
-0.821837526993398,-0.834113836182828
-0.818283360140184,-0.820341285606317
-0.814760774085478,-0.806640615688022
-0.811269537628293,-0.793011798182101
-0.807809419567641,-0.779454804842712
-0.804380188702534,-0.765969607424013
-0.800981613831984,-0.75255617768016
-0.797613463755004,-0.739214487365315
-0.794275507270606,-0.725944508233632
-0.790967513177802,-0.712746212039271
-0.787689250275604,-0.699619570536389
-0.784440487363027,-0.686564555479146
-0.78122099323908,-0.673581138621697
-0.778030536702777,-0.660669291718202
-0.77486888655313,-0.647828986522818
-0.771735811589151,-0.635060194789704
-0.768631080609853,-0.622362888273018
-0.765554462414248,-0.609737038726916
-0.762505725801348,-0.597182617905557
-0.759484639570167,-0.5846995975631
-0.756490972519715,-0.572287949453702
-0.753524493449005,-0.559947645331521
-0.75058497115705,-0.547678656950715
-0.747672174442862,-0.535480956065443
-0.744785872105454,-0.523354514429861
-0.741925832943837,-0.511299303798129
-0.739091825757023,-0.499315295924403
-0.736283619344027,-0.487402462562842
-0.733500982503859,-0.475560775467604
-0.730743684035532,-0.463790206392847
-0.728011492738058,-0.452090727092729
-0.72530417741045,-0.440462309321407
-0.72262150685172,-0.42890492483304
-0.71996324986088,-0.417418545381786
-0.717329175236942,-0.406003142721803
-0.71471905177892,-0.394658688607248
-0.712132648285825,-0.383385154792279
-0.70956973355667,-0.372182513031056
-0.707030076390466,-0.361050735077734
-0.704513445586227,-0.349989792686473
-0.702019609942964,-0.338999657611431
-0.69954833825969,-0.328080301606765
-0.697099399335418,-0.317231696426633
-0.694672561969159,-0.306453813825194
-0.692267594959926,-0.295746625556605
-0.689884267106731,-0.285110103375024
-0.687522347208587,-0.27454421903461
-0.685181604064506,-0.264048944289519
-0.6828618064735,-0.253624250893911
-0.680562723234581,-0.243270110601943
-0.678284123146763,-0.232986495167772
-0.676025775009056,-0.222773376345558
-0.673787447620475,-0.212630725889458
-0.67156890978003,-0.20255851555363
-0.669369930286734,-0.192556717092231
-0.6671902779396,-0.182625302259421
-0.66502972153764,-0.172764242809356
-0.662888029879865,-0.162973510496195
-0.66076497176529,-0.153253077074096
-0.658660315992925,-0.143602914297216
-0.656573831361784,-0.134022993919715
-0.654505286670878,-0.124513287695748
-0.65245445071922,-0.115073767379476
-0.650421092305822,-0.105704404725055
-0.648404980229697,-0.0964051714866436
-0.646405883289856,-0.0871760394183995
-0.644423570285312,-0.078016980274481
-0.642457810015079,-0.0689279658090459
-0.640508371278167,-0.0599089677762522
-0.638575022873589,-0.0509599579302578
-0.636657533600357,-0.0420809080252207
-0.634755672257485,-0.0332717898152989
-0.632869207643983,-0.0245325750546503
-0.630997908558865,-0.0158632354974328
-0.629141543801143,-0.00726374289780446
-0.627299882169829,0.0012659309900766
-0.625472692463935,0.0097258144120527
-0.623659743482475,0.0181159356139658
-0.621860804024459,0.0264363228416579
-0.620075642888901,0.0346870043409709
-0.618304028874813,0.042868008357747
-0.616545730781206,0.0509793631378284
-0.614800517407094,0.0590210969270568
-0.613068157551489,0.0669932379712743
-0.611348420013403,0.0748958145163233
-0.609641073591849,0.0827288548080454
-0.607945887085838,0.0904923870922828
-0.606262629294383,0.0981864396148775
-0.604591069016497,0.105811040621672
-0.602930975051192,0.113366218358507
-0.601282116197479,0.120852001071226
-0.599644261254372,0.128268417005671
-0.598017179020883,0.135615494407683
-0.596400638296024,0.142893261523104
-0.594794407878807,0.150101746597777
-0.593198256568245,0.157240977877544
-0.59161195316335,0.164310983608246
-0.590035266463135,0.171311792035727
-0.588467965266611,0.178243431405827
-0.586909818372791,0.185105929964388
-0.585360594580688,0.191899315957254
-0.583820062689313,0.198623617630265
-0.582287991497679,0.205278863229265
-0.580764149804799,0.211865081000094
-0.579248306409685,0.218382299188595
-0.577740230111348,0.22483054604061
-0.576239689708802,0.231209849801982
-0.574746454001059,0.237520238718551
-0.57326029178713,0.243761741036161
-0.571780971866029,0.249934385000652
-0.570308263036768,0.256038198857868
-0.568841934098358,0.26207321085365
-0.567381753849813,0.26803944923384
-0.565927491090145,0.273936942244281
-0.564478914618365,0.279765718130814
-0.563035793233487,0.285525805139282
-0.561597895734523,0.291217231515526
-0.560164990920484,0.296840025505388
-0.558736847590384,0.302394215354711
-0.557313234543235,0.307879829309336
-0.555893920578049,0.313296895615106
-0.554478674493837,0.318645442517862
-0.553067265089614,0.323925498263448
-0.55165946116439,0.329137091097703
-0.550255031517179,0.334280249266472
-0.548853744946992,0.339355001015595
-0.547455370252843,0.344361374590915
-0.546059676233742,0.349299398238274
-0.544666431688704,0.354169100203514
-0.543275405416739,0.358970508732477
-0.54188636621686,0.363703652071005
-0.54049908288808,0.36836855846494
-0.539113324229411,0.372965256160123
-0.537728859039866,0.377493773402398
-0.536345456118455,0.381954138437606
-0.534962884264193,0.386346379511589
-0.533580912276092,0.390670524870189
-0.532199308953162,0.394926602759249
-0.530817843094417,0.399114641424609
-0.52943628349887,0.403234669112113
-0.528054398965533,0.407286714067603
-0.526671958293417,0.411270804536919
-0.525288730281535,0.415186968765905
-0.523904483728901,0.419035235000403
-0.522518987434525,0.422815631486254
-0.52113201019742,0.4265281864693
-0.519743320816598,0.430172928195384
-0.518352688091073,0.433749884910348
-0.516959880819856,0.437259084860033
-0.515564667801959,0.440700556290282
-0.514166817836395,0.444074327446937
-0.512766099722177,0.447380426575839
-0.511362282258316,0.450618881922831
-0.509955134243825,0.453789721733755
-0.508544424477716,0.456892974254453
-0.507129921759002,0.459928667730767
-0.505711394886694,0.462896830408538
-0.504288612659805,0.46579749053361
-0.502861343877348,0.468630676351823
-0.501429357338335,0.471396416109021
-0.499992421841779,0.474094738051045
-0.49855030618669,0.476725670423736
-0.497102779172083,0.479289241472938
-0.495649609596968,0.481785479444492
-0.49419056626036,0.484214412584241
-0.492725417961268,0.486576069138025
-0.491253933498707,0.488870477351688
-0.489775881671689,0.491097665471071
-0.488291031279225,0.493257661742017
-0.486799151120329,0.495350494410367
-0.485300009994012,0.497376191721963
-0.483793376699286,0.499334781922648
-0.482279020035165,0.501226293258264
-0.480756708800661,0.503050753974652
-0.479226211794785,0.504808192317654
-0.47768729781655,0.506498636533114
-0.476139735664969,0.508122114866872
-0.474583294139053,0.50967865556477
-0.473017742037816,0.511168286872652
-0.471442848160269,0.512591037036358
-0.469858381305425,0.513946934301731
-0.468264110272296,0.515236006914613
-0.466659803859894,0.516458283120846
-0.465045230867232,0.517613791166271
-0.463420160093322,0.518702559296732
-0.461784360337177,0.51972461575807
-0.460137600397808,0.520679988796127
-0.458479649074228,0.521568706656744
-0.45681027516545,0.522390797585765
-0.455129247470485,0.523146289829032
-0.453436334788347,0.523835211632385
-0.451731305918047,0.524457591241667
-0.450013929658598,0.525013456902721
-0.448283974809011,0.525502836861389
-0.446541210168301,0.525925759363511
-0.444785404535477,0.526282252654931
-0.443016326709554,0.52657234498149
-0.441233745489544,0.526796064589031
-0.439437429674457,0.526953439723395
-0.437627148063308,0.527044498630425
-0.435802669455109,0.527069269555962
-0.433963762648871,0.527027780745849
-0.432110196443607,0.526920060445928
-0.430241739638329,0.52674613690204
-0.42835816103205,0.526506038360028
-0.426459229423783,0.526199793065734
-0.424544713612538,0.525827429265
-0.422614382397329,0.525388975203667
-0.420668004577168,0.524884459127579
-0.418705348951068,0.524313909282576
-0.41672618431804,0.523677353914501
-0.414730279477097,0.522974821269196
-0.412717403227251,0.522206339592503
-0.410687324367515,0.521371937130265
-0.408639811696901,0.520471642128322
-0.406574634014422,0.519505482832517
-0.404491560119089,0.518473487488693
-0.402390358809915,0.517375684342691
-0.400270798885912,0.516212101640353
-0.398132649146093,0.514982767627522
-0.39597567838947,0.513687710550038
-0.393799655415055,0.512326958653745
-0.39160434902186,0.510900540184485
-0.389389528008899,0.509408483388099
-0.387154961175183,0.507850816510429
-0.384900417319725,0.506227567797318
-0.382625665241536,0.504538765494608
-0.38033047373963,0.50278443784814
-0.378014611613018,0.500964613103756
-0.375677847660714,0.4990793195073
-0.373319950681728,0.497128585304612
-0.370940689475074,0.495112438741535
-0.368539832839764,0.49303090806391
-0.366117149574811,0.49088402151758
-0.363672408479225,0.488671807348388
-0.361205378352021,0.486394293802174
-0.35871582799221,0.484051509124781
-0.356203526198805,0.481643481562051
-0.353668241770817,0.479170239359826
-0.35110974350726,0.476631810763948
-0.348527800207145,0.474028224020259
-0.345922180669485,0.471359507374601
-0.343292653693293,0.468625689072816
-0.34063898807758,0.465826797360747
-0.337960952621358,0.462962860484235
-0.335258316123641,0.460033906689122
-0.332530847383441,0.45703996422125
-0.329778315199769,0.453981061326462
-0.327000488371638,0.450857226250599
-0.324197135698062,0.447668487239503
-0.32136802597805,0.444414872539017
-0.318512928010618,0.441096410394982
-0.315631610594775,0.437713129053241
-0.312723842529536,0.434265056759636
-0.309789392613911,0.430752221760008
-0.306828029646914,0.427174652300199
-0.303839522427557,0.423532376626053
-0.300823639754852,0.41982542298341
-0.297780150427812,0.416053819618113
-0.294708823245448,0.412217594776003
-0.291609427006774,0.408316776702924
-0.288481730510801,0.404351393644716
-0.285325502556542,0.400321473847222
-0.282140511943009,0.396227045556284
-0.278926527469214,0.392068137017744
-0.27568331793417,0.387844776477445
-0.27241065213689,0.383556992181227
-0.269108298876384,0.379204812374933
-0.265776026951667,0.374788265304405
-0.26241360516175,0.370307379215486
-0.259020802305645,0.365762182354017
-0.255597387182365,0.36115270296584
-0.252143128590922,0.356478969296797
-0.248657795330329,0.35174100959273
-0.245141156199597,0.346938852099482
-0.241592979997739,0.342072525062895
-0.238013035523768,0.337142056728809
-0.234401091576695,0.332147475343068
-0.230756916955534,0.327088809151514
-0.227080280459296,0.321966086399988
-0.223370950886994,0.316779335334333
-0.21962869703764,0.311528584200391
-0.215853287710246,0.306213861244002
-0.212044491703825,0.300835194711011
-0.208202077817389,0.295392612847259
-0.20432581484995,0.289886143898587
-0.200415471600521,0.284315816110838
-0.196470816868115,0.278681657729854
-0.192491619451742,0.272983697001476
-0.188477648150417,0.267221962171548
-0.18442867176315,0.261396481485911
-0.180344459088955,0.255507283190406
-0.176224778926843,0.249554395530877
-0.172069400075828,0.243537846753164
-0.16787809133492,0.237457665103111
-0.163650621503134,0.231313878826559
-0.15938675937948,0.22510651616935
-0.155086273762972,0.218835605377326
-0.150748933452622,0.21250117469633
-0.146374507247442,0.206103252372203
-0.141962763946443,0.199641866650787
-0.13751347234864,0.193117045777924
-0.133026401253043,0.186528817999457
-0.128501319458666,0.179877211561227
-0.123937995764521,0.173162254709077
-0.11933619896962,0.166383975688849
-0.114695697872974,0.159542402746383
-0.110016261273598,0.152637564127524
-0.105297657970502,0.145669488078112
-0.1005396567627,0.13863820284399
-0.0957420264492037,0.131543736670999
-0.0909045358290252,0.124386117804982
-0.0860269537011768,0.117165374491781
-0.0811090488646713,0.109881534977238
-0.0761505901185204,0.102534627507194
-0.0711513462617371,0.0951246803274928
-0.0661110860933332,0.087651721683975
-0.0610295784123214,0.0801157798224835
-0.0559065920177138,0.0725168829888597
-0.0507418957085229,0.0648550594289462
-0.0455352582837608,0.0571303373885844
-0.0402864485424401,0.0493427451136172
-0.0349952352835728,0.0414923108498857
-0.0296613873061717,0.0335790628432328
-0.0242846734092486,0.0256030293394997
-0.0188648623918163,0.0175642385845293
-0.0134017230528866,0.00946271882416277
-0.00789502419147248,0.00129849830424295
-0.00234453460658569,-0.00692839472938886
0.00324997690276095,-0.0152179320308899
0.00888874153755562,-0.0235700853544189
0.0145719904987855,-0.0319848264541329
0.0202999549874387,-0.0404621270841909
0.0260728662045024,-0.0490019589987498
0.0318909553509649,-0.0576042939519686
0.0377544536278132,-0.0662691036980044
0.0436635922360355,-0.0749963599910159
0.0496186023766191,-0.0837860345851602
0.055619715250552,-0.0926380992345963
0.0616671620588215,-0.101552525693481
0.0677611740024157,-0.110529285715974
0.0739019822823217,-0.119568351056231
0.0800898180995279,-0.128669693468411
0.0863249126550213,-0.137833284706673
0.0926074971497901,-0.147059096525173
0.0989378027848214,-0.156347100678071
0.105316060761104,-0.165697268919524
0.111742502279623,-0.175109573003689
0.11821735854137,-0.184583984684725
0.124740860747329,-0.19412047571679
0.13131324009849,-0.203719017854042
0.137934727795839,-0.213379582850639
0.144605555040365,-0.223102142460738
0.151325953033055,-0.232886668438498
0.158096152974897,-0.242733132538077
0.164916386066879,-0.252641506513632
0.171786883509987,-0.262611762119323
0.178707876505211,-0.272643871109305
0.185679596253537,-0.282737805237738
0.192702273955953,-0.292893536258779
0.199776140813448,-0.303111035926588
0.206901428027007,-0.31339027599532
0.21407836679762,-0.323731228219134
0.221307188326274,-0.334133864352189
0.228588123813957,-0.344598156148643
0.235921404461655,-0.355124075362652
0.243307261470358,-0.365711593748376
0.250745926041052,-0.376360683059971
0.258237629374725,-0.387071315051598
0.265782602672365,-0.397843461477411
0.27338107713496,-0.408677094091572
0.281033283963497,-0.419572184648236
0.288739454358964,-0.430528704901562
0.296499819522349,-0.441546626605708
0.304314610654638,-0.452625921514832
0.312184058956821,-0.463766561383092
0.320108395629885,-0.474968517964645
0.328087851874816,-0.486231763013651
0.336122658892604,-0.497556268284266
0.344213047884235,-0.508942005530649
0.352359250050697,-0.520388946506958
0.360561496592978,-0.53189706296735
0.368820018712066,-0.543466326665984
0.377135047608948,-0.555096709357017
0.385506814484613,-0.566788182794608
0.393935550540047,-0.578540718732914
0.402421486976238,-0.590354288926094
0.410964854994174,-0.602228865128305
0.419565885794843,-0.614164419093706
0.428224810579232,-0.626160922576454
0.436941860548329,-0.638218347330707
0.445717266903121,-0.650336665110624
0.454551260844598,-0.662515847670362
0.463444073573744,-0.674755866764078
0.47239593629155,-0.687056694145933
0.481407080199002,-0.699418301570082
0.490477736497088,-0.711840660790684
0.499608136386796,-0.724323743561898
0.508798511069113,-0.73686752163788
