0.151646389678709,-0.296775467565881
0.155558886149164,-0.289034338094236
0.159420595895152,-0.281390956056349
0.163231677772548,-0.273844848468688
0.166992290637228,-0.266395542347717
0.170702593345066,-0.259042564709905
0.174362744751937,-0.251785442571717
0.177972903713716,-0.244623702949621
0.181533229086279,-0.237556872860082
0.185043879725499,-0.230584479319567
0.188505014487253,-0.223706049344543
0.191916792227415,-0.216921109951476
0.19527937180186,-0.210229188156833
0.198592912066463,-0.203629810977081
0.201857571877099,-0.197122505428685
0.205073510089643,-0.190706798528112
0.20824088555997,-0.184382217291829
0.211359857143954,-0.178148288736303
0.214430583697472,-0.172004539877999
0.217453224076397,-0.165950497733385
0.220427937136605,-0.159985689318927
0.223354881733971,-0.154109641651091
0.22623421672437,-0.148321881746345
0.229066100963676,-0.142621936621154
0.231850693307766,-0.137009333291985
0.234588152612512,-0.131483598775304
0.237278637733792,-0.126044260087579
0.239922307527478,-0.120690844245276
0.242519320849448,-0.11542287826486
0.245069836555575,-0.1102398891628
0.247574013501734,-0.10514140395556
0.250032010543801,-0.100126949659609
0.25244398653765,-0.0951960532914117
0.254810100339157,-0.0903482418674353
0.257130510804196,-0.0855830424041463
0.259405376788642,-0.0808999819180112
0.26163485714837,-0.0762985874254965
0.263819110739256,-0.0717783859430688
0.265958296417174,-0.0673389044871947
0.268052573037999,-0.0629796700743404
0.270102099457606,-0.0587002097209728
0.272107034531871,-0.0545000504435582
0.274067537116667,-0.0503787192585632
0.275983766067871,-0.0463357431824544
0.277855880241356,-0.0423706492316982
0.279684038492999,-0.0384829644227613
0.281468399678673,-0.03467221577211
0.283209122654254,-0.030937930296211
0.284906366275618,-0.0272796350115308
0.286560289398638,-0.0236968569345359
0.28817105087919,-0.0201891230816927
0.289738809573148,-0.016755960469468
0.291263724336389,-0.0133968961143282
0.292745954024786,-0.0101114570327398
0.294185657494215,-0.0068991702411693
0.29558299360055,-0.00375956275608329
0.296938121199667,-0.000692161593948325
0.298251199147441,0.00230350622876913
0.299522386299746,0.00522791369560249
0.300751841512458,0.00808153379008533
0.301939723641451,0.010864839495751
0.303086191542601,0.013578303796133
0.304191404071782,0.0162223996747648
0.30525552008487,0.01879760011518
0.306278698437738,0.0213043781009118
0.307261097986264,0.023743206615494
0.30820287758632,0.0261145586424598
0.309104196093783,0.0284189071653428
0.310786085254427,0.0328284856329942
0.311566973619359,0.0349346615448296
0.312308036315196,0.036975725886716
0.313009432197815,0.038952151642187
0.313671320123089,0.0408644117947759
0.314293858946895,0.0427129793280164
0.314877207525107,0.0444983272254418
0.315926969368248,0.0478812560469813
0.316393700344927,0.0494797829381623
0.316821876499513,0.0510169821276622
0.317211656687879,0.0524933265990144
0.317563199765901,0.0539092893357524
0.317876664589454,0.0552653433214096
0.318152210014412,0.0565619615395195
0.318389994896652,0.0577996169736156
0.318590178092047,0.0589787826072314
0.318752918456472,0.0600999314239003
0.318878374845803,0.0611635364071557
0.318966706115915,0.0621700705405314
0.319018071122682,0.0631200068075605
0.31903262872198,0.0640138181917766
0.319010537769683,0.0648519776767132
0.318857045633806,0.0663632328828818
0.318725962161976,0.0670372745711807
0.31855886556205,0.067657556294334
0.318355914689906,0.0682245510358751
0.318117268401416,0.0687387317793376
0.317843085552457,0.0692005715082548
0.317533524998903,0.0696105432061602
0.317188745596629,0.0699691198565875
0.31680890620151,0.0702767744430699
0.315944682856238,0.0707412093583341
0.315460616617835,0.070898935654183
0.314942125810086,0.0710076318202209
0.314389369288868,0.0710677708399814
0.313802505910054,0.0710798256969978
0.313181694529521,0.0710442693748038
0.312527094003142,0.0709615748569328
0.311838863186793,0.0708322151269182
0.311117160936349,0.0706566631682935
0.310362146107685,0.0704353919645922
0.309573977556675,0.0701688744993478
0.308752814139196,0.0698575837560936
0.307898814711121,0.0695019927183633
0.307012138128325,0.0691025743696902
0.306092943246685,0.0686598016936079
0.305141388922073,0.0681741476736498
0.304157634010367,0.0676460852933493
0.30314183736744,0.0670760875362401
0.302094157849167,0.0664646273858555
0.299903785610086,0.0651192118393939
0.298761410601026,0.0643862024103839
0.297587788140122,0.0636136225222325
0.295147436286275,0.061951643302639
0.293881024605083,0.0610631899382639
0.292584000895545,0.0601370580488812
0.291256524013537,0.0591737206180244
0.289898752814932,0.0581736506292268
0.285645261878294,0.0549577751505251
0.284167901972056,0.0538155047652996
0.282661042028597,0.0526388667398009
0.279559457453516,0.0501843797021174
0.276341779000051,0.0475980979057423
0.274689801708611,0.0462567164318791
0.273009277515201,0.0448838052189434
0.271300365275694,0.0434798372504686
0.267798012081892,0.0405806229810362
0.266004888839346,0.0390863226471452
0.262335543342341,0.0360107004986815
0.260459638799631,0.0344303246511757
0.25855645820195,0.0328222029328651
0.256626160405172,0.0311868083272833
0.254668904265173,0.0295246138179637
0.252684848637827,0.0278360923884398
0.25067415237901,0.0261217170222451
0.248636974344596,0.024381960702913
0.24657347339046,0.0226172964139771
0.244483808372478,0.0208281971389708
0.242368138146524,0.0190151358614275
0.235866684779582,0.0134369098489107
0.23364858228049,0.0115327303965544
0.231405268852802,0.00960695385932846
0.229136903352393,0.00766005322076646
0.222183082973581,0.00169733653239838
0.217424854715139,-0.00237475706841385
0.212570230706807,-0.00651999546976734
0.210107167436121,-0.00861886151181328
0.207620481795588,-0.0107345948033941
0.205110332641082,-0.0128667223609763
0.200020279213654,-0.0171782683400111
0.194838278000836,-0.0215497155806499
0.192213194114594,-0.0237567197152371
0.189565599849629,-0.0259772802146248
0.186895654061817,-0.0282109240952796
0.184203515607032,-0.0304571783736681
0.178753296120045,-0.034985626189512
0.175995532799593,-0.0372668737599006
0.170415493284145,-0.0418610513079434
0.164750495641807,-0.0464943188421175
0.161886534662741,-0.04882442889517
0.159001810719577,-0.051162892494155
0.156096482668191,-0.0535092366555388
0.153170709364457,-0.0558629883957881
0.15022464966425,-0.0582236747313694
0.141266340743541,-0.0653426114747703
0.138240724016192,-0.0677263063563448
0.132131173066075,-0.0725069321689541
0.122823435740475,-0.0797038662585171
0.119683249148663,-0.0821078844530771
0.116524523575002,-0.0845136344241011
0.113347417875368,-0.0869206431880552
0.110152090905635,-0.0893284377614064
0.103707408579375,-0.0941444924021652
0.100458370934597,-0.0965518065025059
0.097191747443221,-0.0989580144781097
0.0939076969611216,-0.101362643345443
0.0906063783441734,-0.103765220120972
0.0872879504482519,-0.106165271821164
0.0839525721292316,-0.108562325462485
0.0772315996453955,-0.11334554663438
0.0738463231923295,-0.115730768197887
0.0670269841432762,-0.120486068362354
0.063593239259039,-0.122855200996247
0.060143655942828,-0.125218024686534
0.056678393050518,-0.127574066449682
0.0531976094379844,-0.129922853302159
0.0497014639611017,-0.13226391226043
0.0319958685670791,-0.143836734215027
0.0284108878774774,-0.146121493153862
0.0248116573146517,-0.148395213313756
0.0211983357344767,-0.150657421711176
0.0175710819928276,-0.15290764536259
0.0139300549455792,-0.155145411284464
0.0102754134486067,-0.157370246493263
0.00292592252898867,-0.161779232837507
-0.000768609181906951,-0.163962438005885
-0.00447611991902676,-0.166130820527055
-0.00819645082649621,-0.168283907417483
-0.0119294430484399,-0.170421225693637
-0.0156749377289833,-0.172542302371983
-0.0232027990423683,-0.176733839001116
-0.0384015615138337,-0.184901201810213
-0.0422301254400741,-0.186895343764965
-0.0460699209779145,-0.188869460253641
-0.0499207892714794,-0.190823078292707
-0.065431812885488,-0.19842310628221
-0.0693356621195525,-0.200267137320228
-0.0732496309740918,-0.202087832007435
-0.0771735605932312,-0.203884717360299
-0.0811072921210955,-0.205657320395286
-0.0850506667018101,-0.207405168128862
-0.0890035254794995,-0.209127787577494
-0.0969370602023041,-0.212495449685792
-0.100917418435669,-0.214139546378391
-0.104906625442509,-0.215756522851912
-0.10890452236695,-0.217345906122822
-0.112910950353116,-0.218907223207586
-0.116925750545132,-0.220440001122673
-0.124979832123216,-0.223418047509677
-0.129018795797533,-0.224862370014527
-0.133065496254201,-0.226276261415565
-0.145250429759557,-0.230330619160472
-0.149326488786877,-0.231618056310926
-0.153409490317173,-0.232872697439901
-0.157499275494569,-0.234094069563863
-0.165698561367164,-0.236435114862613
-0.169807744350612,-0.237553842070335
-0.178044396132436,-0.239685340684804
-0.182171547219062,-0.240697166124484
-0.190442705504366,-0.242610604351069
-0.194586394991295,-0.243511271170907
-0.198735279566575,-0.244373939150397
-0.20288920037433,-0.245198135306006
-0.207047998558687,-0.2459833866542
-0.211211515263769,-0.246729220211446
-0.215379591633703,-0.24743516299421
-0.223728787944625,-0.248725484302159
-0.240474906886181,-0.250806626348805
-0.244670452945574,-0.25122009017126
-0.248869287822818,-0.251589879350966
-0.253071252662038,-0.251915520904389
-0.25727618860736,-0.252196541847996
-0.261483936802908,-0.252432469198252
-0.265694338392808,-0.252622829971625
-0.269907234521184,-0.252767151184582
-0.274122466332162,-0.252864959853588
-0.278339874969866,-0.252915782995111
-0.282559301578422,-0.252919147625616
-0.291003573284589,-0.252781609419441
-0.29522810067045,-0.252639760615693
-0.299454010603663,-0.252448561366795
-0.303681144228353,-0.252207538689212
-0.307909342688644,-0.251916219599411
-0.316368298692533,-0.251180800249021
-0.32059873852438,-0.250735754021365
-0.329060747568506,-0.249688623543464
-0.333291999069034,-0.249085593326152
-0.341754201747646,-0.247718238017137
-0.345984835213981,-0.246952966958367
-0.358672957850597,-0.244325104362608
-0.367126969580936,-0.242291758280559
-0.371352077870259,-0.24118923498347
-0.375575709301184,-0.240028847537629
-0.379797705017836,-0.2388101229595
-0.384017906164341,-0.23753258826555
-0.388236153884824,-0.236195770472247
-0.392452289323409,-0.234799196596056
-0.400877587931386,-0.231824888660878
-0.405086433389029,-0.230246208634824
-0.417695848106072,-0.2251383885204
-0.421892749606875,-0.223310278525059
-0.426086267978781,-0.221418628578564
-0.430276244365915,-0.219462965697379
-0.438644935762366,-0.215357709196811
-0.442823333059933,-0.21320716961036
-0.455332825079502,-0.206358229703936
-0.459493559608731,-0.203941232740994
-0.463649481306188,-0.201456438975095
-0.484351337361271,-0.187998963677581
-0.492592830005276,-0.182124841514209
-0.500809987934194,-0.17596439666594
-0.504909044240808,-0.172775620776135
-0.513087317258972,-0.166178597147518
-0.529360056950541,-0.152093418955318
-0.533409855559005,-0.148383713058537
-0.541486277207493,-0.140734896761766
-0.549530739058896,-0.132777054570492
-0.557541970266214,-0.124506402616446
-0.561534727238654,-0.12025259051955
-0.573459657360596,-0.107011533946969
-0.593147206893413,-0.0833159930410142
-0.597055186996538,-0.0783285610152738
-0.600952953168143,-0.0732572507464392
-0.604840346552352,-0.0681015892509764
-0.60871720829329,-0.0628611035453524
-0.612583379535082,-0.0575353206460332
-0.616438701421854,-0.0521237675694859
-0.624116161706835,-0.041041458950572
-0.631748318301233,-0.0296103938203428
-0.635547010574777,-0.0237628951046512
-0.646871637030284,-0.00568685855286778
-0.650622166207496,0.000517910377741515
-0.661484336031269,0.0190755563238392
-0.664941299255938,0.0251760241685258
-0.67796093036197,0.0491507918106736
-0.692446722121287,0.0781581750032539
-0.695109347778084,0.0838314957333884
-0.700203239933701,0.0950499713703151
-0.702635299816794,0.100595123798367
-0.707271630654231,0.111557251676798
-0.709476694992847,0.116974224648436
-0.715644243993924,0.132968764820604
-0.717552201296479,0.138214814499176
-0.719386873570361,0.143418130256057
-0.722837949800645,0.153696555047264
-0.724455147141322,0.158771661602849
-0.726000646221869,0.163804029279262
-0.72887813637112,0.173740543037092
-0.730210920824098,0.178644686639769
-0.732666551947437,0.188324741095794
-0.736749170443471,0.207171884308171
-0.737599504990224,0.211776795027508
-0.739098566835977,0.220858357690082
-0.73974808751925,0.22533500715458
-0.740331463632301,0.229768900388723
-0.740849091867269,0.234160036153143
-0.741301368916288,0.23850841320847
-0.742011456225027,0.247076886234362
-0.742596370596933,0.259608874470745
-0.742664871065126,0.263700673244738
-0.742076692133908,0.283518131557035
-0.741775696938182,0.28735330743237
-0.74141450755428,0.291145708486801
-0.740993520674338,0.294895333480956
-0.738005508058803,0.313001774169656
-0.736405604765082,0.319944874645257
-0.735520518833729,0.323352246539889
-0.734579205635564,0.326716831219916
-0.733582061862721,0.330038627445966
-0.732529484207339,0.333317633978671
-0.731421869361552,0.336553849578659
-0.727772768603131,0.346005738388625
-0.720627214797071,0.360902952076371
-0.717405947701452,0.366562231617732
-0.715719105442218,0.369327665159416
-0.708472934478961,0.379961328880879
-0.693932838465923,0.39692197831614
-0.67967412444892,0.409789735852983
-0.677142992160712,0.411784475278211
-0.67456872344619,0.41373638658962
-0.67195171499749,0.41564546854784
-0.666591065666099,0.419335139447232
-0.649524620033823,0.429376118774379
-0.640457253556999,0.433818278317929
-0.637358310284791,0.435213311367012
-0.634221784276176,0.436565498951094
-0.631048072223292,0.437874839830806
-0.627837570818274,0.439141332766778
-0.61798929741178,0.442683711518548
-0.607824200752991,0.445840414159329
-0.604367281262854,0.446806936786753
-0.600876745957674,0.447730601555477
-0.586586380429248,0.450996657255955
-0.57924981677032,0.452372505730363
-0.568014670736602,0.45411477633636
-0.552621242743426,0.455837614493664
-0.544754569227484,0.4564417872705
-0.540780131012152,0.456679557745668
-0.536778820748093,0.456874449292844
-0.524617624584927,0.457201837972712
-0.516383072921686,0.457205679730874
-0.512228860900135,0.45714327168332
-0.508050553674813,0.457037976032182
-0.460612344698321,0.453048787573296
-0.456175837014371,0.452428744008286
-0.451720391124421,0.451765796727882
-0.442754271495068,0.450311186063408
-0.438244391139937,0.449519520200599
-0.433717159347352,0.448684945664914
-0.424612228218364,0.446887065617438
-0.420035322266234,0.445923757626906
-0.415442651645195,0.444917536006019
-0.410834613047382,0.443868399515406
-0.396922256314672,0.440463488431512
-0.3875777846315,0.437978950638502
-0.359245355955429,0.429495162256916
-0.330531051118423,0.41946590315732
-0.32571422329401,0.417644087079357
-0.320889564643414,0.415779332583636
-0.306372570655891,0.409927426196226
-0.301520555621927,0.407890905635774
-0.296662693222461,0.405811440460713
-0.286931013095571,0.401523671309288
-0.282057988752419,0.399315364854182
-0.277180703812311,0.397064108826988
-0.272299554967384,0.394769901988336
-0.252744254382202,0.385163541731738
-0.24784973639522,0.382654562245242
-0.233158866690809,0.374869869342196
-0.22336282402301,0.369465266310168
-0.213568780189929,0.363888805500022
-0.208673499566749,0.36103612532973
-0.184230377069905,0.346128177251265
-0.16960540898395,0.336667726005263
-0.159879085717315,0.330145870185541
-0.145333017846092,0.320040729184976
-0.111650342513056,0.294957559407263
-0.106873852725362,0.291202287553812
-0.0973513308019655,0.283562760039303
-0.0926060920505344,0.279678501899505
-0.0831496424288894,0.271780990657973
-0.0690559880815082,0.259612217800282
-0.0643839620902825,0.2554699536248
-0.0597255266482351,0.251284684105574
-0.0366510919004381,0.229713212975353
-0.000583100798836056,0.192962130161656
0.0126374249530883,0.178470633722949
0.0213500983637886,0.168594506097589
0.0299782609754173,0.15854626290513
0.0511581064213941,0.132672584250996
0.0553239486449683,0.127368740775554
0.0717403382493181,0.105722966412729
0.0877425197672093,0.0833884918224521
0.0916753699421507,0.0776972544690674
0.0955803486510067,0.0719629671546166
0.140121722865014,-0.000206828712679158
0.143628273530358,-0.00650087830367063
0.150540702700928,-0.0192181806617664
0.163951765021784,-0.0451696327847726
0.16721600906031,-0.0517651795882693
0.173635494442382,-0.065085502398148
0.176789942401656,-0.0718102808832702
0.194917512308036,-0.113063668996877
0.200646089151554,-0.127159482285485
0.219397464911621,-0.177852216921187
0.244520645691852,-0.261779123441935
0.25225293405627,-0.293591269671615
0.266728274168327,-0.367691057419492
0.26937370440288,-0.384632053563727
0.276921705555879,-0.44528421651934
0.27777743177237,-0.454121358095177
0.281195679131561,-0.498954197288013
0.282544039651554,-0.526371650471959
0.28335236840941,-0.554177456806303
0.283571578379084,-0.591856027989982
0.28243005723334,-0.63992532934164
0.282009048268449,-0.649668680321947
0.28152287877666,-0.659455197764109
0.279669440218539,-0.689073761255429
0.277215276001423,-0.71908086752077
0.274149675437632,-0.749476550023126
0.269092572513611,-0.790608636454449
0.2645586344666,-0.821911126977031
0.257504872402259,-0.864252412226926
0.253538631768068,-0.885682204826157
0.247031145741186,-0.918150859078685
