-0.860386222316779,-0.76266325390316
-0.849292961046716,-0.752505217650164
-0.83827916595363,-0.742440597161562
-0.827344536455354,-0.732469017889765
-0.816488771969721,-0.722590105287187
-0.805711571914564,-0.712803484806241
-0.795012635707713,-0.70310878189934
-0.784391662767001,-0.693505622018897
-0.773848352510262,-0.683993630617325
-0.763382404355328,-0.674572433147035
-0.75299351772003,-0.665241655060442
-0.742681392022201,-0.656000921809959
-0.732445726679674,-0.646849858847997
-0.72228622111028,-0.637788091626971
-0.712202574731853,-0.628815245599293
-0.702194486962225,-0.619930946217375
-0.692261657219227,-0.611134818933631
-0.682403784920693,-0.602426489200474
-0.672620569484454,-0.593805582470316
-0.662911710328343,-0.58527172419557
-0.653276906870193,-0.57682453982865
-0.643715858527836,-0.568463654821968
-0.634228264719103,-0.560188694627937
-0.624813824861828,-0.55199928469897
-0.615472238373844,-0.54389505048748
-0.606203204672981,-0.535875617445879
-0.597006423177073,-0.527940611026582
-0.587881593303952,-0.520089656681999
-0.57882841447145,-0.512322379864546
-0.5698465860974,-0.504638406026633
-0.560935807599634,-0.497037360620675
-0.552095778395985,-0.489518869099083
-0.543326197904284,-0.482082556914272
-0.534626765542365,-0.474728049518653
-0.525997180728059,-0.467454972364641
-0.517437142879199,-0.460262950904646
-0.508946351413617,-0.453151610591084
-0.500524505749146,-0.446120576876366
-0.492171305303618,-0.439169475212905
-0.483886449494865,-0.432297931053114
-0.47566963774072,-0.425505569849407
-0.467520569459016,-0.418792017054196
-0.459438944067583,-0.412156898119893
-0.451424460984256,-0.405599838498912
-0.443476819626866,-0.399120463643666
-0.435595719413245,-0.392718399006568
-0.427780859761226,-0.386393270040029
-0.420031940088641,-0.380144702196465
-0.412348659813324,-0.373972320928286
-0.404730718353105,-0.367875751687907
-0.397177815125818,-0.361854619927739
-0.389689649549294,-0.355908551100197
-0.382265921041367,-0.350037170657692
-0.374906329019868,-0.344240104052638
-0.36761057290263,-0.338516976737448
-0.360378352107485,-0.332867414164534
-0.353209366052266,-0.327291041786309
-0.346103314154804,-0.321787485055187
-0.339059895832933,-0.316356369423579
-0.332078810504485,-0.3109973203439
-0.325159757587292,-0.305709963268562
-0.318302436499186,-0.300493923649978
-0.311506546658,-0.29534882694056
-0.304771787481567,-0.290274298592722
-0.298097858387717,-0.285269964058876
-0.291484458794285,-0.280335448791436
-0.284931288119102,-0.275470378242814
-0.278438045780001,-0.270674377865423
-0.272004431194813,-0.265947073111677
-0.265630143781373,-0.261288089433987
-0.25931488295751,-0.256697052284767
-0.253058348141059,-0.25217358711643
-0.246860238749851,-0.247717319381388
-0.240720254201719,-0.243327874532056
-0.234638093914495,-0.239004878020844
-0.228613457306012,-0.234747955300166
-0.222646043794102,-0.230556731822436
-0.216735552796597,-0.226430833040066
-0.21088168373133,-0.222369884405469
-0.205084136016133,-0.218373511371058
-0.199342609068838,-0.214441339389246
-0.193656802307278,-0.210572993912445
-0.188026415149285,-0.206768100393068
-0.182451147012691,-0.20302628428353
-0.17693069731533,-0.199347171036241
-0.171464765475032,-0.195730386103616
-0.166053050909631,-0.192175554938067
-0.16069525303696,-0.188682302992006
-0.155391071274849,-0.185250255717848
-0.150140205041132,-0.181879038568005
-0.144942353753642,-0.178568276994889
-0.139797216830209,-0.175317596450913
-0.134704493688668,-0.172126622388491
-0.129663883746849,-0.168994980260036
-0.124675086422586,-0.16592229551796
-0.119737801133711,-0.162908193614676
-0.114851727298057,-0.159952300002596
-0.110016564333455,-0.157054240134135
-0.105232011657738,-0.154213639461705
-0.100497768688738,-0.151430123437718
-0.0958135348442876,-0.148703317514588
-0.0911790095422197,-0.146032847144727
-0.0865938922003662,-0.143418337780549
-0.0820578822365595,-0.140859414874466
-0.0775706790686321,-0.138355703878891
-0.0731319821144161,-0.135906830246237
-0.068741490791744,-0.133512419428917
-0.0643989045184482,-0.131172096879344
-0.0601039227123611,-0.12888548804993
-0.0558562447913152,-0.12665221839309
-0.0516555701731424,-0.124471913361234
-0.0475015982756754,-0.122344198406777
-0.0433940285167466,-0.120268698982132
-0.0393325603141883,-0.11824504053971
-0.0353168930858327,-0.116272848531926
-0.0313467262495124,-0.114351748411191
-0.0274217592230598,-0.11248136562992
-0.023541691424307,-0.110661325640524
-0.0197062222710865,-0.108891253895416
-0.0159150511812307,-0.107170775847011
-0.0121678775725721,-0.105499516947719
-0.00846440086294277,-0.103877102649955
-0.00480432047017518,-0.102303158406131
-0.00118733581210176,-0.100777309668661
0.00238685369344514,-0.0992991818899558
0.00591854862863311,-0.0978684005224299
0.00940804957562993,-0.0964845910184957
0.0128556571166031,-0.0951473788305661
0.0162616718337202,-0.0938563894110542
0.019626394309149,-0.0926112482123726
0.0229501251250573,-0.0914115806869344
0.0262331648636123,-0.0902570122871523
0.029475814106982,-0.0891471684654394
0.0326783734373337,-0.0880816746742085
0.0358411434368354,-0.0870601563658724
0.0389644246876545,-0.0860822389928441
0.0420485177719587,-0.0851475480075366
0.0450937232719156,-0.0842557088623625
0.0481003417696928,-0.0834063470097349
0.0510686738474582,-0.0825990879020667
0.0539990200873791,-0.0818335569917707
0.0568916810716232,-0.0811093797312598
0.0597469573823584,-0.0804261815729469
0.062565149601752,-0.0797835879692449
0.0653465583119717,-0.0791812243725668
0.0680914840951853,-0.0786187162353253
0.0708002275335602,-0.0780956890099334
0.0734730892092643,-0.077611768148804
0.0761103697044651,-0.07716657910435
0.0787123696013302,-0.0767597473289842
0.0812793894820273,-0.0763908982751195
0.083811729928724,-0.0760596573951689
0.0863096915235878,-0.0757656501415452
0.0887735748487866,-0.0755085019666614
0.0912036804864879,-0.0752878383229302
0.0936003090188593,-0.0751032846627647
0.0959637610280684,-0.0749544664385776
0.098294337096283,-0.074841009102782
0.100592337805671,-0.0747625381077906
0.102858063738399,-0.0747186789060164
0.105091815476635,-0.0747090569498722
0.107293893602548,-0.074733297691771
0.109464598698304,-0.0747910265841256
0.111604231346071,-0.074881869079349
0.113713092128018,-0.075005450629854
0.11579148162631,-0.0751613966880536
0.117839700423117,-0.0753493327063605
0.119858049100605,-0.0755688841371877
0.121846828240943,-0.0758196764329482
0.123806338426298,-0.0761013350460547
0.125736880238838,-0.0764134854289201
0.127638754260729,-0.0767557530339574
0.129512261074141,-0.0771277633135796
0.13135770126124,-0.0775291417201993
0.133175375404195,-0.0779595137062296
0.134965584085172,-0.0784185047240833
0.136728627886339,-0.0789057402261734
0.138464807389865,-0.0794208456649126
0.140174423177917,-0.0799634464927139
0.141857775832661,-0.0805331681619903
0.143515165936267,-0.0811296361251545
0.145146894070901,-0.0817524758346195
0.146753260818732,-0.0824013127427982
0.148334566761927,-0.0830757723021034
0.149891112482653,-0.0837754799649482
0.151423198563078,-0.0845000611837452
0.15293112558537,-0.0852491414109074
0.154415194131696,-0.0860223460988479
0.155875704784224,-0.0868193006999793
0.157312958125122,-0.0876396306667146
0.158727254736558,-0.0884829614514667
0.160118895200698,-0.0893489185066485
0.161488180099711,-0.0902371272846729
0.162835410015764,-0.0911472132379528
0.164160885531025,-0.092078801818901
0.165464907227662,-0.0930315184799305
0.166747775687841,-0.0940049886734542
0.168009791493732,-0.0949988378518849
0.1692512552275,-0.0960126914676354
0.170472467471315,-0.0970461749731189
0.171673728807344,-0.098098913820748
0.172855339817753,-0.0991705334629358
0.174017601084712,-0.100260659352095
0.175160813190387,-0.101368916940639
0.176285276716947,-0.10249493168098
0.177391292246558,-0.103638329025531
0.178479160361388,-0.104798734426705
0.179549181643606,-0.105975773336915
0.180601656675379,-0.107169071208574
0.181636886038873,-0.108378253494094
0.182655170316258,-0.10960294564589
0.183656810089701,-0.110842773116373
0.184642105941368,-0.112097361357956
0.185611358453429,-0.113366335823052
0.18656486820805,-0.114649321964075
0.187502935787399,-0.115945945233437
0.188425861773644,-0.117255831083551
0.189333946748953,-0.118578604966829
0.190227491295492,-0.119913892335686
0.191106795995431,-0.121261318642533
0.191972161430935,-0.122620509339783
0.192823888184174,-0.12399108987985
0.193662276837314,-0.125372685715147
0.194487627972523,-0.126764922298085
0.195300242171969,-0.128167425081079
0.19610042001782,-0.12957981951654
0.196888462092243,-0.131001731056883
0.197664668977405,-0.132432785154519
0.198429341255475,-0.133872607261862
0.19918277950862,-0.135320822831325
0.199925284319008,-0.13677705731532
0.200657156268806,-0.13824093616626
0.201378695940182,-0.139712084836559
0.202090203915304,-0.141190128778628
0.202791980776338,-0.142674693444882
0.203484327105454,-0.144165404287733
0.204167543484818,-0.145661886759593
0.204841930496598,-0.147163766312876
0.205507788722962,-0.148670668399995
0.206165418746077,-0.150182218473362
0.206815121148111,-0.15169804198539
0.207457196511232,-0.153217764388493
0.208091945417607,-0.154741011135083
0.208719668449404,-0.156267407677573
0.209340666188791,-0.157796579468376
0.209955239217935,-0.159328151959905
0.210563688119003,-0.160861750604572
0.211166313474164,-0.162397000854791
0.211763415865585,-0.163933528162975
0.212355295875434,-0.165470957981536
0.212942254085878,-0.167008915762887
0.213524591079085,-0.168547026959441
0.214102607437223,-0.170084917023612
0.214676603742459,-0.171622211407811
0.21524688057696,-0.173158535564452
0.215813738522896,-0.174693514945948
0.216377478162432,-0.176226775004712
0.216938400077737,-0.177757941193156
0.217496804850979,-0.179286638963693
0.218052993064325,-0.180812493768737
0.218607265299942,-0.1823351310607
0.219159922139999,-0.183854176291995
0.219711264166662,-0.185369254915035
0.2202615919621,-0.186879992382233
0.220811206108481,-0.188386014146002
0.221360407187971,-0.189886945658754
0.221909495782739,-0.191382412372903
0.222458772474952,-0.192872039740862
0.223008537846777,-0.194355453215042
0.223559092480383,-0.195832278247858
0.224110736957937,-0.197302140291722
0.224663771861607,-0.198764664799047
0.22521849777356,-0.200219477222246
0.225775215275963,-0.201666203013731
0.226334224950986,-0.203104467625917
0.226895827380794,-0.204533896511215
0.227460323147557,-0.205954115122038
0.228028012833441,-0.207364748910799
0.228599197020613,-0.208765423329912
0.229174176291243,-0.210155763831789
0.229753251227497,-0.211535395868843
0.230336722411543,-0.212903944893487
0.230924890425549,-0.214261036358134
0.231518055851682,-0.215606295715196
0.232116519272109,-0.216939348417087
0.232720581268999,-0.21825981991622
0.23333054242452,-0.219567335665007
0.233946703320838,-0.220861521115861
0.234569364540122,-0.222142001721195
0.235198826664538,-0.223408402933422
0.235835390276256,-0.224660350204955
0.236479355957441,-0.225897468988207
0.237131024290263,-0.227119384735591
0.237790695856888,-0.22832572289952
0.238458671239485,-0.229516108932405
0.23913525102022,-0.230690168286662
0.239820735781262,-0.231847526414701
0.240515426104778,-0.232987808768937
0.241219622572935,-0.234110640801781
0.241933625767902,-0.235215647965648
0.242657736271846,-0.23630245571295
0.243392254666935,-0.237370689496099
0.244137481535336,-0.238419974767509
0.244893717459217,-0.239449936979592
0.245661263020746,-0.240460201584762
0.24644041880209,-0.241450394035431
0.247231485385416,-0.242420139784013
0.248034763352893,-0.243369064282919
0.248850553286688,-0.244296792984563
0.249679155768969,-0.245202951341359
0.250520871381903,-0.246087164805718
0.251376000707659,-0.246949058830053
0.252244844328402,-0.247788258866778
0.253127702826303,-0.248604390368306
0.254024876783527,-0.249397078787049
0.254936666782242,-0.25016594957542
0.255863373404617,-0.250910628185832
0.256805297232818,-0.251630740070699
0.257762738849014,-0.252325910682432
0.258735998835372,-0.252995765473445
0.25972537777406,-0.25363992989615
0.260731176247245,-0.254258029402961
0.261753694837095,-0.254849689446291
0.262793234125778,-0.255414535478552
0.263850094695461,-0.255952192952157
0.264924577128311,-0.256462287319519
0.266016982006498,-0.256944444033052
0.267127609912187,-0.257398288545167
0.268256761427547,-0.257823446308278
0.269404737134746,-0.258219542774798
0.27057183761595,-0.258586203397139
0.271758363453328,-0.258923053627715
0.272964615229048,-0.259229718918938
0.274190893525276,-0.259505824723221
0.275437498924182,-0.259750996492978
0.276704732007931,-0.25996485968062
0.277992893358692,-0.260147039738562
0.279302283558633,-0.260297162119215
0.28063320318992,-0.260414852274993
0.281985952834723,-0.260499735658309
0.283360833075207,-0.260551437721575
0.284758144493542,-0.260569583917205
0.286178187671895,-0.26055379969761
0.287621263192433,-0.260503710515205
0.289087671637323,-0.260418941822402
0.290577713588734,-0.260299119071615
0.292091689628834,-0.260143867715254
0.293629900339789,-0.259952813205735
0.295192646303768,-0.259725580995469
0.296780228102937,-0.25946179653687
0.298392946319466,-0.25916108528235
0.300031101535521,-0.258823072684322
0.301694994333269,-0.2584473841952
0.30338492529488,-0.258033645267396
0.305101195002519,-0.257581481353322
0.306844104038356,-0.257090517905393
0.308613952984557,-0.25656038037602
0.31041104242329,-0.255990694217617
0.312235672936723,-0.255381084882597
0.314088145107023,-0.254731177823372
0.315968759516359,-0.254040598492355
0.317877816746897,-0.253308972341959
0.319815617380805,-0.252535924824598
0.321782462000252,-0.251721081392684
0.323778651187404,-0.250864067498629
0.325804485524429,-0.249964508594847
0.327860265593495,-0.249022030133751
0.329946291976769,-0.248036257567754
0.33206286525642,-0.247006816349268
0.334210286014614,-0.245933331930706
0.33638885483352,-0.244815429764481
0.338598872295305,-0.243652735303007
0.340840638982137,-0.242444873998696
0.343114455476182,-0.24119147130396
0.34542062235961,-0.239892152671213
0.347759440214587,-0.238546543552868
0.350131209623282,-0.237154269401338
0.352536231167861,-0.235714955669035
0.354974805430493,-0.234228227808373
0.357447232993344,-0.232693711271763
0.359953814438584,-0.23111103151162
0.362494850348379,-0.229479813980356
0.365070641304897,-0.227799684130384
0.367681487890305,-0.226070267414117
0.370327690686772,-0.224291189283967
0.373009550276465,-0.222462075192348
0.375727367241551,-0.220582550591673
0.378481442164198,-0.218652240934353
0.381272075626574,-0.216670771672804
0.384099568210847,-0.214637768259436
0.386964220499183,-0.212552856146663
0.389866333073752,-0.210415660786899
0.392806206516719,-0.208225807632555
0.395784141410254,-0.205982922136045
0.398800438336523,-0.203686629749781
0.401855397877695,-0.201336555926177
0.404949320615936,-0.198932326117646
0.408082507133415,-0.196473565776599
0.411255258012299,-0.193959900355451
0.414467873834755,-0.191390955306614
