-0.640928191829597,0.0638088276403355
-0.639803634598535,0.0623038992785794
-0.638656590228042,0.0608404045076083
-0.637487137046249,0.0594180120089182
-0.636295353381285,0.0580363904640048
-0.635081317561281,0.0566952085543639
-0.633845107914367,0.0553941349614914
-0.632586802768673,0.0541328383668831
-0.631306480452331,0.0529109874520349
-0.63000421929347,0.0517282508984425
-0.628680097620219,0.0505842973876018
-0.627334193760711,0.0494787956010087
-0.625966586043074,0.0484114142201589
-0.62457735279544,0.0473818219265483
-0.623166572345938,0.0463896874016726
-0.621734323022699,0.0454346793270279
-0.620280683153854,0.0445164663841098
-0.618805731067532,0.0436347172544142
-0.617309545091863,0.0427891006194369
-0.615792203554978,0.0419792851606738
-0.614253784785008,0.0412049395596207
-0.612694367110083,0.0404657324977734
-0.611114028858332,0.0397613326566277
-0.609512848357886,0.0390914087176795
-0.607890903936877,0.0384556293624246
-0.606248273923432,0.0378536632723589
-0.604585036645684,0.0372851791289781
-0.602901270431763,0.0367498456137781
-0.601197053609798,0.0362473314082547
-0.59947246450792,0.0357773051939037
-0.597727581454259,0.0353394356522211
-0.595962482776946,0.0349333914647025
-0.59417724680411,0.0345588413128439
-0.592371951863883,0.0342154538781411
-0.590546676284395,0.0339028978420898
-0.588701498393775,0.0336208418861859
-0.586836496520154,0.0333689546919254
-0.584951748991662,0.0331469049408039
-0.58304733413643,0.0329543613143173
-0.581123330282588,0.0327909924939614
-0.579179815758266,0.0326564671612321
-0.577216868891595,0.0325504539976252
-0.575234568010705,0.0324726216846366
-0.573232991443725,0.032422638903762
-0.571212217518788,0.0324001743364972
-0.569172324564021,0.0324048966643382
-0.567113390907557,0.0324364745687808
-0.565035494877525,0.0324945767313206
-0.562938714802056,0.0325788718334537
-0.560823129009279,0.0326890285566759
-0.558688815827326,0.0328247155824829
-0.556535853584326,0.0329856015923705
-0.55436432060841,0.0331713552678347
-0.552174295227708,0.0333816452903713
-0.54996585577035,0.033616140341476
-0.547739080564467,0.0338745091026447
-0.54549404793819,0.0341564202553733
-0.543230836219647,0.0344615424811575
-0.540949523736969,0.0347895444614932
-0.538650188818288,0.0351400948778762
-0.536332909791733,0.0355128624118024
-0.533997764985434,0.0359075157447675
-0.531644832727521,0.0363237235582675
-0.529274191346126,0.0367611545337981
-0.526885919169378,0.0372194773528552
-0.524480094525408,0.0376983606969345
-0.522056795742346,0.038197473247532
-0.519616101148322,0.0387164836861434
-0.517158089071466,0.0392550606942647
-0.514682837839909,0.0398128729533915
-0.512190425781781,0.0403895891450197
-0.509680931225213,0.0409848779506453
-0.507154432498334,0.0415984080517639
-0.504611007929275,0.0422298481298715
-0.502050735846167,0.0428788668664638
-0.499473694577139,0.0435451329430367
-0.496879962450321,0.044228315041086
-0.494269617793846,0.0449280818421076
-0.491642738935841,0.0456441020275972
-0.488999404204438,0.0463760442790508
-0.486339691927767,0.047123577277964
-0.483663680433959,0.0478863697058329
-0.480971448051143,0.0486640902441531
-0.47826307310745,0.0494564075744205
-0.47553863393101,0.050262990378131
-0.472798208849954,0.0510835073367804
-0.470041876192411,0.0519176271318644
-0.467269714286513,0.052765018444879
-0.464481801460389,0.05362534995732
-0.46167821604217,0.0544982903506832
-0.458859036359985,0.0553835083064643
-0.456024340741966,0.0562806725061594
-0.453174207516243,0.0571894516312641
-0.450308715010945,0.0581095143632743
-0.447427941554204,0.0590405293836858
-0.444531965474148,0.0599821653739946
-0.44162086509891,0.0609340910156963
-0.438694718756619,0.0618959749902868
-0.435753604775405,0.062867485979262
-0.432797601483399,0.0638482926641177
-0.429826787208731,0.0648380637263497
-0.426841240279531,0.0658364678474538
-0.423841039023929,0.0668431737089259
-0.420826261770056,0.0678578499922618
-0.417796986846043,0.0688801653789574
-0.414753292580018,0.0699097885505084
-0.411695257300114,0.0709463881884106
-0.408622959334459,0.07198963297416
-0.405536477011185,0.0730391915892524
-0.402435888658421,0.0740947327151835
-0.399321272604298,0.0751559250334492
-0.396192707176947,0.0762224372255453
-0.393050270704497,0.0772939379729677
-0.389894041515078,0.0783700959572122
-0.386724097936822,0.0794505798597747
-0.383540518297858,0.0805350583621508
-0.380343380926316,0.0816232001458366
-0.377132764150328,0.0827146738923277
-0.373908746298023,0.0838091482831201
-0.370671405697531,0.0849062919997096
-0.367420820676984,0.0860057737235919
-0.36415706956451,0.087107262136263
-0.360880230688241,0.0882104259192186
-0.357590382376306,0.0893149337539546
-0.354287602956837,0.0904204543219668
-0.350971970757962,0.0915266563047511
-0.347643564107814,0.0926332083838032
-0.344302461334521,0.093739779240619
-0.340948740766215,0.0948460375566944
-0.337582480731025,0.095951652013525
-0.334203759557081,0.0970562912926069
-0.330812655572515,0.0981596240754358
-0.327409247105456,0.0992613190435075
-0.323993612484035,0.100361044878318
-0.320565830036382,0.101458470261363
-0.317125978090627,0.102553263874138
-0.313674134974901,0.10364509439814
-0.310210379017333,0.104733630514863
-0.306734788546055,0.105818540905804
-0.303247441889196,0.106899494252459
-0.299748417374887,0.107976159236323
-0.296237793331257,0.109048204538893
-0.292715648086438,0.110115298841664
-0.28918205996856,0.111177110826131
-0.285637107305753,0.112233309173792
-0.282080868426147,0.113283562566141
-0.278513421657872,0.114327539684675
-0.274934845329059,0.115364909210889
-0.271345217767838,0.116395339826278
-0.26774461730234,0.11741850021234
-0.264133122260694,0.11843405905057
-0.260510810971032,0.119441685022463
-0.256877761761482,0.120441046809516
-0.253234052960177,0.121431813093224
-0.249579762895245,0.122413652555083
-0.245914969894817,0.123386233876589
-0.242239752287023,0.124349225739238
-0.238554188399995,0.125302296824525
-0.234858356561861,0.126245115813947
-0.231152335100753,0.127177351388998
-0.2274362023448,0.128098672231176
-0.223710036622133,0.129008747021976
-0.219973916260883,0.129907244442894
-0.216227919589179,0.130793833175425
-0.212472124935152,0.131668181901065
-0.208706610626932,0.132529959301311
-0.204931454992649,0.133378834057658
-0.201146736360434,0.134214474851601
-0.197352533058417,0.135036550364637
-0.193548923414729,0.135844729278262
-0.189735985757499,0.136638680273971
-0.185913798414857,0.137418072033261
-0.182082439714935,0.138182573237626
-0.178241987985863,0.138931852568563
-0.17439252155577,0.139665578707568
-0.170534118752787,0.140383420336136
-0.166666857905045,0.141085046135764
-0.162790817340673,0.141770124787946
-0.158906075387802,0.14243832497418
-0.155012710374563,0.143089315375961
-0.151110800629085,0.143722764674784
-0.147200424479499,0.144338341552145
-0.143281660253935,0.144935714689541
-0.139354586280523,0.145514552768467
-0.135419280887394,0.146074524470419
-0.131475822402678,0.146615298476893
-0.127524289154506,0.147136543469385
-0.123564759471006,0.14763792812939
-0.119597311680311,0.148119121138404
-0.115622024110551,0.148579791177923
-0.111638975089854,0.149019606929443
-0.107648242946352,0.14943823707446
-0.103649906008176,0.149835350294469
-0.0996440426034547,0.150210615270967
-0.0956307310603191,0.15056370068545
-0.0916100497068994,0.150894275219412
-0.0875820768713262,0.15120200755435
-0.0835468908817294,0.15148656637176
-0.0795045700662395,0.151747620353137
-0.0754551927529866,0.151984838179978
-0.0713988372701013,0.152197888533778
-0.0673355819457136,0.152386440096033
-0.0632655051079541,0.152550161548239
-0.0591886850849527,0.152688721571892
-0.0551052002048402,0.152801788848487
-0.0510151287957463,0.152889032059521
-0.0469185491858018,0.152950119886488
-0.0428155397031367,0.152984721010886
-0.0387061786758815,0.15299250411421
-0.0345905444321663,0.152973137877955
-0.0304687153001216,0.152926290983618
-0.0263407696078774,0.152851632112694
-0.0222067856835644,0.15274882994668
-0.0180668418553124,0.15261755316707
-0.0139210164512523,0.152457470455361
-0.00976938779951378,0.152268250493049
-0.00561203422822762,0.152049561961629
-0.00144903406552374,0.151801073542598
0.00271953436046726,0.151522453917451
0.00689359272161538,0.151213371767683
0.0110730626897899,0.150873495774792
0.0152578659368611,0.150502494620272
0.0194479241346981,0.15010003698562
0.0236431589551711,0.149665791552331
0.0278434920701494,0.149199427001901
0.0320488451515031,0.148700612015826
0.0362591398711015,0.148169015275601
0.0404742979008146,0.147604305462724
0.0446942409125119,0.147006151258689
0.0489188905780633,0.146374221344992
0.0531481685693383,0.145708184403129
0.0573819965582069,0.145007709114596
0.0616202962165385,0.144272464160889
0.0658629892162029,0.143502118223503
0.0701099972290699,0.142696339983935
0.0743612419270091,0.14185479812368
0.0786166449818903,0.140977161324234
0.0828761280655831,0.140063098267093
0.0871396128499572,0.139112277633753
0.0914070210068825,0.138124368105709
0.0956782742082284,0.137099038364458
0.0999532941258649,0.136035957091495
0.104232002431661,0.134934792968316
0.108514320797488,0.133795214676416
0.112800170895214,0.132616890897293
0.117089474396709,0.131399490312441
0.121382152973844,0.130142681603356
0.125678128298487,0.128846133451535
0.129977322042508,0.127509514538472
0.134279655877778,0.126132493545665
0.138585051476165,0.124714739154608
0.14289343050954,0.123255920046798
0.147204714649772,0.121755704903729
0.151518825568731,0.1202137624069
0.155835684938287,0.118629761237804
0.160155214430309,0.117003370077937
0.164477335716667,0.115334257608797
0.168801970469231,0.113622092511878
0.17312904035987,0.111866543468676
0.177458467060454,0.110067279160688
0.181790172242853,0.108223968269408
0.186124077578937,0.106336279476334
0.190460104740575,0.104403881462959
0.194798175399637,0.102426442910782
0.199138211227993,0.100403632501296
0.203480133897512,0.0983351189159989
0.207823865080065,0.0962205708363855
0.21216932644752,0.0940596569439519
0.216516439671747,0.091852045920194
0.220865126424617,0.0895974064466073
0.225215308377998,0.087295407204688
0.229566907203762,0.0849457168759317
0.233919844573776,0.0825480041418344
0.238274042159912,0.0801019376838917
0.242629421634038,0.0776071861835999
0.246985904668025,0.0750634183224541
0.251343412933742,0.0724703027819508
0.255701868103058,0.0698275082435854
0.260061191847845,0.067134703388854
0.26442130583997,0.0643915568992522
0.268782131751305,0.0615977374562761
0.273143591253718,0.0587529137414212
0.277505606019079,0.0558567544361837
0.281868097719259,0.052908928222059
0.286230988026126,0.0499091037805434
0.290594198611551,0.0468569497931323
0.294957651147403,0.0437521349413218
0.299321267305552,0.0405943279066076
0.303684968757868,0.0373831973704858
0.30804867717622,0.0341184120144517
0.312412314232477,0.0307996405200016
0.316775801598511,0.0274265515686311
0.32113906094619,0.0239988138418362
0.325502013947384,0.0205160960211124
0.329864582273963,0.016978066787956
0.334226687597796,0.0133843948238624
0.338588251590754,0.00973474881032783
0.342949195924706,0.00602879742884768
0.347309442271521,0.00226620936091812
0.35166891230307,-0.00155334671196525
0.356027527691221,-0.00543020210830636
0.360385210107846,-0.00936468814660966
0.364741881224813,-0.0133571361453789
0.369097462713992,-0.0174078774231189
0.373451876247253,-0.0215172432983332
0.377805043496465,-0.0256855650895264
0.382156886133499,-0.0299131741152023
0.386507325830224,-0.0342004016938654
0.390856284258509,-0.0385475791440196
0.395203683090225,-0.0429550377841695
0.399549443997242,-0.0474231089328187
0.403893488651427,-0.0519521239084718
0.408235738724653,-0.0565424140296328
0.412576115888787,-0.0611943106148059
0.416914541815701,-0.0659081449824951
0.421250938177263,-0.070684248451205
0.425585226645343,-0.0755229523394393
0.429917328891812,-0.0804245879657026
0.434247166588538,-0.0853894866484986
0.438574661407392,-0.0904179797063319
0.442899735020243,-0.0955103984577063
0.447222309098961,-0.100667074221126
0.451542305315415,-0.105888338315096
0.455859645341475,-0.11117452205812
0.460174250849012,-0.116525956768701
0.464486043509894,-0.121942973765345
0.468794944995992,-0.127425904366554
0.473100876979175,-0.132975079890835
0.477403761131312,-0.13859083165669
0.481703519124274,-0.144273490982624
0.48600007262993,-0.15002338918714
0.490293343320151,-0.155840857588744
0.494583252866804,-0.16172622750594
0.498869722941761,-0.167679830257231
0.503152675216891,-0.173701997161121
0.507432031364064,-0.179793059536116
0.511707713055149,-0.185953348700718
0.515979641962017,-0.192183195973433
0.520247739756536,-0.198482932672764
0.524511928110577,-0.204852890117215
0.528772128696009,-0.211293399625291
0.533028263184702,-0.217804792515497
0.537280253248526,-0.224387400106335
0.54152802055935,-0.23104155371631
0.545771486789044,-0.237767584663927
0.550010573609478,-0.244565824267689
0.554245202692521,-0.251436603846101
0.558475295710044,-0.258380254717668
0.562700774333915,-0.265397108200892
0.566921560236005,-0.272487495614278
0.571137575088183,-0.279651748276331
0.57534874056232,-0.286890197505554
0.579554978330284,-0.294203174620452
0.583756210063945,-0.301591010939529
0.587952357435174,-0.309054037781289
0.592143342115839,-0.316592586464237
0.596329085777811,-0.324206988306876
0.600509510092959,-0.33189757462771
0.604684536733154,-0.339664676745244
0.608854087370264,-0.347508625977983
0.613018083676159,-0.355429753644429
0.617176447322709,-0.363428391063088
0.621329099981784,-0.371504869552463
0.625475963325253,-0.379659520431059
0.629616959024987,-0.387892675017379
0.633752008752855,-0.396204664629929
0.637881034180725,-0.404595820587211
0.64200395698047,-0.413066474207731
0.646120698823957,-0.421616956809993
0.650231181383057,-0.4302475997125
0.65433532632964,-0.438958734233757
0.658433055335575,-0.447750691692268
0.662524290072731,-0.456623803406537
0.666608952212979,-0.465578400695069
0.670686963428188,-0.474614814876367
0.674758245390228,-0.483733377268936
0.678822719770969,-0.492934419191279
0.68288030824228,-0.502218271961902
0.686930932476031,-0.511585266899308
0.690974514144091,-0.521035735322001
0.695010974918332,-0.530570008548486
0.699040236470621,-0.540188417897267
0.70306222047283,-0.549891294686847
0.707076848596826,-0.559678970235732
0.711084042514481,-0.569551775862424
0.715083723897665,-0.57951004288543
0.719075814418245,-0.589554102623251
0.723060235748094,-0.599684286394394
0.727036909559079,-0.609900925517361
0.731005757523071,-0.620204351310658
0.734966701311939,-0.630594895092787
0.738919662597554,-0.641072888182255
0.742864563051785,-0.651638661897563
0.746801324346501,-0.662292547557218
0.750729868153573,-0.673034876479722
0.754650116144869,-0.683865979983581
0.758561989992261,-0.694786189387297
0.762465411367616,-0.705795836009377
0.766360301942807,-0.716895251168322
0.7702465833897,-0.728084766182639
