-0.266152140140983,0.463601646097151
-0.363076859147711,0.365672292398026
-0.230891026090122,0.453106263521646
-0.375650981585257,0.357642715710344
-0.282990519167612,0.468310907408031
-0.285597982291712,0.467597025961136
-0.28579415329012,0.493622404115203
-0.288970122809266,0.464010136568572
-0.318036982026228,0.43592248458939
-0.31712143968205,0.499183233556042
-0.265440630051647,0.430754168548074
-0.282782604889362,0.461200648946506
-0.287182705530541,0.443183406049396
-0.285164772866261,0.437111069745674
-0.29892539384309,0.475914858086073
-0.27955962659022,0.423185475087787
-0.234979351052974,0.387964177094942
-0.277881915088553,0.368896864664881
-0.267399645296937,0.398081155755054
-0.302466612777096,0.361295052247938
-0.265528801606979,0.355793427724881
-0.237444401560534,0.334059533721016
-0.244660748101886,0.357400856716975
-0.259803108235423,0.360478108791377
-0.192237374825452,0.306807698817322
-0.23528033299424,0.278573905855442
-0.281834396655359,0.177925217352223
-0.233686149611313,0.343301208092804
-0.164879925816839,0.251937850429335
-0.0630196699544,0.431009799435603
-0.21074444413562,0.241135886553713
-0.134594607666257,0.275668118396905
-0.164262689435997,0.228435566375114
-0.148787841612389,0.243232369175587
-0.184351616411712,0.245086585583351
-0.122935889535395,0.162256649757952
-0.116395609464463,0.164047964209958
-0.104877565965689,0.147951534509056
-0.093106134923377,0.131634415733445
-0.0575527850201777,0.0960818168882821
-0.229295218548094,0.0224979170035986
-0.0389629508560991,0.0354024127596904
-0.0514225660796894,0.022457063166092
-0.0398635706582515,0.0950584965783634
-0.0116592889414988,0.0751212663946254
0.15021876680485,0.125319509551871
-0.012615027291111,0.0321057342050624
0.0223588385324079,-0.022550506026721
0.0521589386868903,-0.0536395351711875
0.0817545580602925,-0.0825559812883948
0.0633200072328665,-0.0610764241947951
0.077795540241183,-0.0934007081484817
-0.0410638995601303,-0.232508183422864
0.153948127428998,-0.158573968668086
0.088532334874039,-0.124224176588443
0.135906428486752,-0.133679213042003
0.120681186804528,-0.188885590706918
0.16353796475247,-0.19936293535301
0.206167314973424,-0.23000961633143
0.147970953122004,-0.266436837786223
0.174325990057198,-0.267395987980328
0.196945825044904,-0.293032408674478
0.235794788310772,-0.285211008724947
0.250197197336184,-0.301923835797151
0.264556697056705,-0.318447630458371
0.253970102839177,-0.34007874213086
0.279074718204732,-0.342161928210556
0.270748626214541,-0.394602818096204
0.310640039613144,-0.384645339690568
0.366658705836368,-0.40166560711272
0.391576152198033,-0.436066800160288
0.383586081233733,-0.465554901497113
0.35717690657621,-0.456744542347233
0.389980930437054,-0.456055168332869
0.403284555313914,-0.469821920356839
0.416419914526933,-0.483226296264341
0.534800236504381,-0.352349662858153
0.463403835837179,-0.499886913757087
0.412676017486973,-0.671170395831103
0.467050774087958,-0.532904868356063
0.321018947394705,-0.665770825921144
0.538094025458966,-0.52273260046621
0.492673559935146,-0.53418306082791
0.484972787166866,-0.54547323209386
0.480429628631396,-0.55190840447234
0.640987842613253,-0.470937015381595
0.546544066723888,-0.60225067121738
0.541511316297551,-0.568845273565475
0.542463952662176,-0.595281243790156
0.62288947904081,-0.612691210770888
0.733231192227265,-0.523715821188908
0.606659355325987,-0.638634034476222
0.602933618960215,-0.640387136270937
0.580807745632783,-0.612573588803268
0.573967813031,-0.659156442099658
0.673070681019578,-0.508209423892
0.633210715861882,-0.653100970834723
0.63976103421452,-0.654546166953775
0.616970322665388,-0.650787967864304
0.651559151644041,-0.655246334534843
0.687366491717789,-0.644181904470849
0.653584836931668,-0.635771748486368
0.692607622401522,-0.647796230190542
0.666306535875699,-0.654813270147741
0.674074362241548,-0.643874239197692
0.628972840281388,-0.685223833163968
0.682905813133933,-0.663461819010717
0.726941005728117,-0.601694088110684
0.688843458963324,-0.620307969347178
0.817390579682335,-0.50313657781549
0.672939913566631,-0.615800089368232
0.657642598927669,-0.57167689403027
0.695000697230485,-0.605758951885455
0.722482378524045,-0.624776797985772
0.703876466848797,-0.56533246311632
0.812033430892775,-0.448779728310662
0.706982880548733,-0.542732622033338
0.745795080618951,-0.506856179262127
0.72945240529713,-0.544519501698031
0.709852005558666,-0.505649456799193
0.689397468571408,-0.509483247867122
0.736054323718132,-0.485309620826503
0.78424837901742,-0.388243098036311
0.710327697280917,-0.451521511146148
0.709847241754801,-0.437352927440094
0.709126675324599,-0.422989639486631
0.672058732040095,-0.372209022416112
0.70989897932751,-0.390502150062054
0.746522649895218,-0.413870749348419
0.656313446184383,-0.367295104820637
0.767580676331658,-0.260793690177485
0.699750881157957,-0.334399293322079
0.705989718526502,-0.284501285145774
0.665246340829212,-0.286230340088619
0.713544851524907,-0.280261062049915
0.701391736715594,-0.257249478160798
0.733926756491017,-0.222288243176686
0.57589992492928,-0.354821078891603
0.694028637608696,-0.214742790922284
0.673726434376562,-0.218241369678382
0.669382633100178,-0.204553598196253
0.706670587311488,-0.236663221686838
0.768557903859335,-0.0725149354103655
0.65489258777577,-0.165318791750803
0.599856279020945,-0.16357630426357
0.76030550903941,-0.0480726830608343
0.684606723777645,-0.174087975154584
0.632162319454549,-0.118391015660271
0.625795911053739,-0.123428598789622
0.605912016854179,-0.0776238797951475
0.660711783767798,-0.0724697616303535
0.599774883917715,-0.091628280059763
0.526706043506533,-0.172431848169367
0.590735959747883,-0.0634350318484906
0.67490047313138,0.0542692647886785
0.549483168466599,-0.0402722310655741
0.578079653426177,-0.079004733560994
0.515056785300103,-0.0150304994192771
0.509261231070309,-0.0379333753050878
0.515474750659156,0.00357441885905556
0.483905581457199,-0.0279617435350819
0.556107147162899,-0.064126979427847
0.540930824027725,-0.0490658986302921
0.502046935259937,-0.0289861182816631
0.487571671827108,-0.0683881960280425
0.481349423844891,-0.0328256425957018
0.589229022701169,0.0482835036129422
0.584385207551402,0.0956949850286427
0.328493825590377,-0.151564532476022
0.413624085387942,-0.0928641791141442
0.425271580365833,-0.0610431201687782
0.413311591022973,-0.0701181258115929
0.3678570131681,-0.0578132279294922
0.414078428598812,-0.07308917719485
0.422130089357245,-0.15349567365892
0.391301911535621,-0.156683269191211
0.275964507463179,-0.217068349915432
0.324703576554648,-0.140192521539068
0.322325744574235,-0.188698927077429
0.216566741309126,-0.279529391257065
0.323725269340328,-0.244459248353546
0.327591496223887,-0.253894053492595
0.261803276385396,-0.243831367357388
0.233475669278667,-0.297732846191806
0.195843756186834,-0.3247175852074
0.219691185081036,-0.33824819369573
0.235365048576337,-0.371699050960203
0.188025410858811,-0.400767430535989
0.171815459885075,-0.434551922061274
0.181279964752349,-0.512600672981327
0.138640531408817,-0.507320487996426
0.18288359603763,-0.476148373712259
0.0916961158111263,-0.620262540520208
0.107055557222716,-0.581139522894969
0.0692655350413541,-0.674495036780966
-0.0438246448322794,-0.814520298296931
-0.00629899908631134,-0.779770549938033
0.152564755217317,-0.703354434097754
0.0131773594153487,-0.833665592523671
0.00968525620032836,-0.97649900065092
