-0.500343798946744,0.884583970808055
-0.491401895908772,0.884116385907682
-0.482513787932785,0.883655202548362
-0.473679351883129,0.883200296859217
-0.464898464624153,0.88275154496937
-0.456171003020203,0.882308823007944
-0.447496843935628,0.881872007104061
-0.438875864234773,0.881440973386845
-0.430307940781988,0.881015597985417
-0.421792950441619,0.880595757028901
-0.413330770078014,0.88018132664642
-0.404921276555519,0.879772182967096
-0.396564346738483,0.879368202120052
-0.388259857491253,0.878969260234411
-0.380007685678177,0.878575233439295
-0.3718077081636,0.878185997863827
-0.363659801811873,0.877801429637131
-0.35556384348734,0.877421404888329
-0.347519710054351,0.877045799746543
-0.339527278377251,0.876674490340896
-0.33158642532039,0.876307352800512
-0.323697027748113,0.875944263254513
-0.315858962524769,0.875585097832021
-0.308072106514705,0.87522973266216
-0.300336336582269,0.874878043874051
-0.292651529591807,0.874529907596819
-0.285017562407667,0.874185199959586
-0.277434311894197,0.873843797091473
-0.269901654915744,0.873505575121606
-0.262419468336655,0.873170410179105
-0.254987629021278,0.872838178393094
-0.24760601383396,0.872508755892695
-0.240274499639048,0.872182018807032
-0.232992963300891,0.871857843265226
-0.225761281683835,0.871536105396402
-0.218579331652227,0.871216681329681
-0.211446990070416,0.870899447194186
-0.204364133802749,0.870584279119041
-0.197330639713572,0.870271053233367
-0.190346384667234,0.869959645666288
-0.183411245528082,0.869649932546926
-0.176525099160463,0.869341790004405
-0.169687822428725,0.869035094167846
-0.162899292197214,0.868729721166373
-0.156159385330279,0.868425547129109
-0.149467978692267,0.868122448185175
-0.142824949147525,0.867820300463696
-0.136230173560401,0.867518980093793
-0.129683528795242,0.86721836320459
-0.123184891716395,0.866918325925209
-0.116734139188208,0.866618744384773
-0.110331148075029,0.866319494712404
-0.103975795241204,0.866020453037227
-0.0976679575510809,0.865721495488362
-0.0914075118690075,0.865422498194934
-0.085194335059331,0.865123337286064
-0.0790283039863988,0.864823888890876
-0.0729092955145584,0.864524029138492
-0.0668371865081569,0.864223634158036
-0.060811853831542,0.863922580078629
-0.0548331743490611,0.863620743029395
-0.0489010249250614,0.863317999139456
-0.0430152824238905,0.863014224537935
-0.0371758237098957,0.862709295353955
-0.0313825256474245,0.862403087716639
-0.0256352651008242,0.86209547775511
-0.0199339189344421,0.861786341598489
-0.0142783640126259,0.861475555375901
-0.00866847719972276,0.861162995216467
-0.00310413536008024,0.860848537249311
0.00241478464195437,0.860532057603555
0.00788840594203356,0.860213432408321
0.01331685167581,0.859892537792734
0.0187002449789362,0.859569249885916
0.0240387089870649,0.859243444816988
0.0293323668358486,0.858914998715074
0.0345813416609399,0.858583787709298
0.0397857565979914,0.858249687928781
0.0449457347826557,0.857912575502646
0.0500613993505855,0.857572326560016
0.055132873437433,0.857228817230015
0.0601602801788514,0.856881923641764
0.0651437427104928,0.856531521924386
0.0700833841680101,0.856177488207004
0.0749793276870556,0.855819698618741
0.0798316964032822,0.85545802928872
0.0846406134523423,0.855092356346064
0.0894062019698886,0.854722555919894
0.0941285850915736,0.854348504139335
0.0988078859530499,0.853970077133508
0.10344422768997,0.853587151031537
0.108037733437987,0.853199601962544
0.112588526332753,0.852807306055652
0.117096729509921,0.852410139439984
0.121562466105143,0.852007978244662
0.125985859254072,0.85160069859881
0.13036703209236,0.851188176631549
0.13470610775566,0.850770288472004
0.139003209379626,0.850346910249296
0.143258460099908,0.849917918092548
0.147471983052161,0.849483188130884
0.151643901372035,0.849042596493425
0.155774338195185,0.848596019309295
0.159863416657263,0.848143332707616
0.163911259893921,0.847684412817512
0.167917991040812,0.847219135768105
0.171883733233588,0.846747377688517
0.175808609607902,0.846269014707871
0.179692743299407,0.845783922955291
0.183536257443755,0.845291978559899
0.187339275176599,0.844793057650817
0.191101919633592,0.844287036357169
0.194824313950385,0.843773790808077
0.198506581262632,0.843253197132665
0.202148844705986,0.842725131460054
0.205751227416098,0.842189469919367
0.209313852528621,0.841646088639728
0.212836843179209,0.841094863750259
0.216320322503513,0.840535671380083
0.219764413637186,0.839968387658322
0.223169239715881,0.8393928887141
0.226534923875251,0.838809050676539
0.229861589250947,0.838216749674761
0.233149358978623,0.83761586183789
0.236398356193932,0.837006263295049
0.239608704032525,0.83638783017536
0.242780525630055,0.835760438607946
0.245913944122175,0.835123964721929
0.249009082644538,0.834478284646433
0.252066064332796,0.83382327451058
0.255085012322602,0.833158810443493
0.258066049749608,0.832484768574295
0.261009299749467,0.831801025032108
0.263914885457831,0.831107455946056
0.266782930010354,0.83040393744526
0.269613556542687,0.829690345658845
0.272406888190484,0.828966556715932
0.275163048089396,0.828232446745644
0.277882159375077,0.827487891877104
0.28056434518318,0.826732768239435
0.283209728649355,0.82596695196176
0.285818432909258,0.825190319173201
0.288390581098539,0.824402746002881
0.290926296352851,0.823604108579923
0.293425701807848,0.82279428303345
0.295888920599181,0.821973145492584
0.298316075862503,0.821140572086448
0.300707290733467,0.820296438944165
0.303062688347726,0.819440622194858
0.305382391840932,0.81857299796765
0.307666524348737,0.817693442391662
0.309915209006795,0.816801831596019
0.312128568950758,0.815898041709842
0.314306727316278,0.814981948862255
0.316449807239008,0.81405342918238
0.3185579318546,0.81311235879934
0.320631224298708,0.812158613842258
0.322669807706983,0.811192070440256
0.324673805215079,0.810212604722458
0.326643339958648,0.809220092817985
0.328578535073343,0.808214410855962
0.330479513694816,0.807195434965511
0.332346398958719,0.806163041275753
0.334179314000706,0.805117105915813
0.335978381956429,0.804057505014812
0.33774372596154,0.802984114701875
0.339475469151693,0.801896811106122
0.341173734662539,0.800795470356678
0.342838645629732,0.799679968582665
0.344470325188923,0.798550181913205
0.346068896475766,0.797405986477422
0.347634482625914,0.796247258404438
0.349167206775018,0.795073873823376
0.350667192058731,0.793885708863359
0.352134561612706,0.792682639653509
0.353569438572596,0.79146454232295
0.354971946074053,0.790231293000804
0.35634220725273,0.788982767816193
0.357680345244278,0.787718842898241
0.358986483184352,0.78643939437607
0.360260744208603,0.785144298378804
0.361503251452685,0.783833431035564
0.362714128052249,0.782506668475474
0.363893497142948,0.781163886827656
0.365041481860435,0.779804962221234
0.366158205340363,0.778429770785329
0.367243790718384,0.777038188649065
0.36829836113015,0.775630091941564
0.369322039711315,0.77420535679195
0.37031494959753,0.772763859329344
0.371277213924449,0.77130547568287
0.372208955827724,0.769830081981651
0.373110298443007,0.768337554354809
0.373981364905952,0.766827768931466
0.37482227835221,0.765300601840747
0.375633161917435,0.763755929211773
0.37641413873728,0.762193627173667
0.377165331947395,0.760613571855553
0.377886864683435,0.759015639386552
0.378578860081051,0.757399705895787
0.379241441275897,0.755765647512383
0.379874731403625,0.75411334036546
0.380478853599888,0.752442660584142
0.381053931000338,0.750753484297551
0.381600086740627,0.749045687634811
0.382117443956409,0.747319146725045
0.382606125783336,0.745573737697374
0.38306625535706,0.743809336680921
0.383497955813235,0.74202581980481
0.383901350287512,0.740223063198164
0.384276561915544,0.738400942990104
0.384623713832985,0.736559335309754
0.384942929175486,0.734698116286236
0.3852343310787,0.732817162048674
0.38549804267828,0.73091634872619
0.385734187109878,0.728995552447906
0.385942887509147,0.727054649342946
0.38612426701174,0.725093515540432
0.386278448753309,0.723112027169488
0.386405555869506,0.721110060359234
0.386505711495985,0.719087491238796
0.386579038768397,0.717044195937295
0.386625660822396,0.714980050583854
0.386645700793634,0.712894931307596
0.386639281817764,0.710788714237644
0.386606527030438,0.708661275503119
0.386547559567309,0.706512491233146
0.38646250256403,0.704342237556847
0.386351479156252,0.702150390603345
0.386214612479629,0.699936826501762
0.386052025669813,0.697701421381221
0.385863841862457,0.695444051370845
0.385650184193214,0.693164592599757
0.385411175797736,0.69086292119708
0.385146939811675,0.688538913291935
0.384857599370684,0.686192445013447
0.384543277610416,0.683823392490737
0.384204097666524,0.681431631852929
0.38384018267466,0.679017039229145
0.383451655770476,0.676579490748509
0.383038640089625,0.674118862540142
0.38260125876776,0.671635030733167
0.382139634940534,0.669127871456708
0.381653891743598,0.666597260839887
0.381144152312607,0.664043075011827
0.380610539783211,0.661465190101651
0.380053177291064,0.658863482238481
0.379472187971818,0.65623782755144
0.378867694961127,0.653588102169651
0.378239821394641,0.650914182222236
0.377588690408015,0.648215943838319
0.376914425136901,0.645493263147023
0.376217148716951,0.642746016277469
0.375496984283818,0.639974079358781
0.374754054973155,0.637177328520081
0.373988483920613,0.634355639890493
0.373200394261847,0.631508889599139
0.372389909132507,0.628636953775141
0.371557151668248,0.625739708547623
0.370702245004721,0.622817030045708
0.369825312277579,0.619868794398517
0.368926476622475,0.616894877735174
0.368005861175061,0.613895156184802
0.36706358907099,0.610869505876523
0.366099783445914,0.60781780293946
0.365114567435487,0.604739923502736
0.36410806417536,0.601635743695474
0.363080396801186,0.598505139646796
0.362031688448619,0.595347987485825
0.360962062253309,0.592164163341685
0.359871641350911,0.588953543343496
0.358760548877076,0.585716003620383
0.357628907967458,0.582451420301469
0.356476841757708,0.579159669515875
0.35530447338348,0.575840627392726
0.354111925980426,0.572494170061142
0.352899322684198,0.569120173650248
0.35166678663045,0.565718514289166
0.350414440954833,0.562289068107019
0.349142408793001,0.558831711232929
0.347850813280606,0.55534631979602
0.346539777553301,0.551832769925413
0.345209424746737,0.548290937750233
0.343859877996568,0.544720699399601
0.342491260438447,0.54112193100264
0.341103695208026,0.537494508688473
0.339697305440957,0.533838308586224
0.338272214272894,0.530153206825014
0.336828544839488,0.526439079533966
0.335366420276392,0.522695802842204
0.33388596371926,0.518923252878849
0.332387298303743,0.515121305773025
0.330870547165494,0.511289837653855
0.329335833440166,0.507428724650461
0.327783280263411,0.503537842891966
0.326213010770882,0.499617068507492
0.324625148098231,0.495666277626163
0.323019815381112,0.491685346377101
0.321397135755176,0.48767415088943
0.319757232356077,0.483632567292271
0.318100228319467,0.479560471714747
0.316426246780998,0.475457740285982
0.314735410876323,0.471324249135098
0.313027843741094,0.467159874391218
0.311303668510966,0.462964492183464
0.309563008321588,0.45873797864096
0.307805986308616,0.454480209892828
0.3060327256077,0.450191062068191
0.304243349354494,0.445870411296171
0.302437980684651,0.441518133705892
0.300616742733822,0.437134105426476
0.29877975863766,0.432718202587046
0.296927151531819,0.428270301316724
0.29505904455195,0.423790277744634
0.293175560833707,0.419278007999899
0.291276823512741,0.41473336821164
0.289362955724706,0.410156234508981
0.287434080605253,0.405546483021044
0.285490321290036,0.400903989876953
0.283531800914708,0.39622863120583
0.28155864261492,0.391520283136797
0.279570969526326,0.386778821798978
0.277568904784578,0.382004123321496
0.275552571525328,0.377196063833472
0.273522092884229,0.372354519464031
0.271477591996934,0.367479366342293
0.269419191999096,0.362570480597384
0.267347016026366,0.357627738358424
0.265261187214398,0.352651015754537
0.263161828698844,0.347640188914846
0.261049063615357,0.342595133968474
0.258923015099589,0.337515727044542
0.256783806287193,0.332401844272175
0.254631560313822,0.327253361780494
0.252466400315128,0.322070155698622
0.250288449426763,0.316852102155683
0.248097830784381,0.311599077280799
0.245894667523634,0.306310957203092
0.243679082780174,0.300987618051687
0.241451199689654,0.295628935955704
0.239211141387727,0.290234787044267
0.236959031010045,0.284805047446499
0.234694991692262,0.279339593291523
0.232419146570028,0.273838300708461
0.230131618778998,0.268301045826436
0.227832531454823,0.262727704774571
0.225522007733157,0.257118153681989
0.223200170749651,0.251472268677812
0.220867143639959,0.245789925891163
0.218523049539733,0.240071001451165
0.216168011584626,0.23431537148694
0.21380215291029,0.228522912127612
0.211425596652377,0.222693499502304
0.209038465946541,0.216827009740136
0.206640883928434,0.210923318970234
0.204232973733709,0.20498230332172
0.201814858498018,0.199003838923715
0.199386661357014,0.192987801905344
0.196948505446349,0.186934068395728
0.194500513901676,0.180842514523991
0.192042809858648,0.174713016419255
0.189575516452916,0.168545450210643
0.187098756820135,0.162339692027278
0.184612654095956,0.156095617998282
0.182117331416032,0.149813104252779
0.179612911916016,0.143492026919891
0.177099518731559,0.137132262128741
0.174577274998316,0.130733686008451
0.172046303851938,0.124296174688145
0.169506728428077,0.117819604296944
0.166958671862388,0.111303850963973
0.164402257290521,0.104748790818354
0.16183760784813,0.0981542999892085
0.159264846670868,0.0915202546056604
0.156684096894386,0.0848465307968325
0.154095481654338,0.078133004691847
0.151499124086376,0.0713795524198273
0.148895147326153,0.0645860501098955
0.146283674509321,0.057752373891175
0.143664828771533,0.0508783998927879
0.141038733248441,0.0439640042438577
0.138405511075699,0.0370090630735065
0.135765285388958,0.0300134525108576
0.133118179323871,0.0229770486850332
0.130464316016092,0.0158997277251567
0.127803818601271,0.00878136576035018
0.125136810215063,0.00162183891973709
0.12246341399312,-0.00557897666756046
0.119783753071093,-0.0128212048724191
0.117097950584637,-0.0201049695657166
0.114406129669403,-0.0274303946183297
0.111708413461044,-0.0347976039011362
0.109004925095213,-0.0422067212850127
0.106295787707562,-0.0496578706408372
0.103581124433743,-0.0571511758394861
0.10086105840941,-0.0646867607518374
0.0981357127702156,-0.0722647492487676
0.0954052106518113,-0.0798852652011547
0.0926696751898503,-0.0875484324798752
0.0899292295199849,-0.095254374955807
0.0899292295199849,-0.095254374955807
0.0871837859982072,-0.10293551202488
0.0844332028768452,-0.110524399579515
0.0816775221360558,-0.118021366235327
0.0789167857559964,-0.12542674060793
0.0761510357168239,-0.132740851312939
0.0733803139986954,-0.139964026965967
0.070604662581768,-0.147096596182631
0.067824123446199,-0.154138887578544
0.0650387385721452,-0.16109122976932
0.0622485499397638,-0.167953951370573
0.059453599529212,-0.174727380997919
0.0566539293206468,-0.181411847266972
0.0538495812942254,-0.188007678793346
0.0510405974301047,-0.194515204192656
0.048227019708442,-0.200934752080516
0.0454088901093943,-0.20726665107254
0.0425862506131188,-0.213511229784343
0.0397591431997724,-0.219668816831539
0.0369276098495123,-0.225739740829744
0.0340916925424956,-0.23172433039457
0.0312514332588795,-0.237622914141633
0.0284068739788209,-0.243435820686547
0.0255580566824771,-0.249163378644927
0.022705023350005,-0.254805916632386
0.0198478159615619,-0.26036376326454
0.0169864764973047,-0.265837247157003
0.0141210469373906,-0.271226696925389
0.0112515692619767,-0.276532441185313
0.00837808545122008,-0.281754808552389
0.00550063748527786,-0.286894127642231
0.00261926734430708,-0.291950727070454
-0.000265982991535095,-0.296924935452673
-0.0031550715420916,-0.301817081404502
-0.00604795632720534,-0.306627493541555
-0.00894459536671921,-0.311356500479447
-0.0118449466804761,-0.316004430833792
-0.014748968288319,-0.320571613220204
-0.0176566182100906,-0.325058376254298
-0.0205678544656341,-0.329465048551689
-0.0234826350747921,-0.333791958727991
-0.0264009180574077,-0.338039435398818
-0.0293226614333238,-0.342207807179785
-0.0322478232223832,-0.346297402686506
-0.0351763614444289,-0.350308550534596
-0.0381082341193037,-0.354241579339669
-0.0410433992668506,-0.358096817717339
-0.0439818149069124,-0.361874594283222
-0.0469234390593321,-0.36557523765293
-0.0498682297439526,-0.36919907644208
-0.0528161449806167,-0.372746439266284
-0.0557671427891675,-0.376217654741159
-0.0587211811894476,-0.379613051482317
-0.0616782182013002,-0.382932958105374
-0.0646382118445681,-0.386177703225944
-0.0676011201390941,-0.389347615459641
-0.0705669011047212,-0.392443023422081
-0.0735355127612923,-0.395464255728876
-0.0765069131286503,-0.398411640995643
-0.0794810602266381,-0.401285507837994
-0.0824579120750986,-0.404086184871545
-0.0854374266938746,-0.40681400071191
-0.0884195621028092,-0.409469283974703
-0.0914042763217452,-0.41205236327554
-0.0943915273705255,-0.414563567230033
-0.097381273268993,-0.417003224453799
-0.100373472036991,-0.41937166356245
-0.103368081694361,-0.421669213171602
-0.106365060260948,-0.42389620189687
-0.109364365756593,-0.426052958353866
-0.11236595620114,-0.428139811158207
-0.115369789614432,-0.430157088925506
-0.118375824016311,-0.432105120271378
-0.121384017426621,-0.433984233811437
-0.124394327865204,-0.435794758161298
-0.127406713351903,-0.437537021936574
-0.130421131906561,-0.439211353752882
-0.133437541549022,-0.440818082225834
-0.136455900299127,-0.442357535971046
-0.13947616617672,-0.443830043604131
-0.142498297201644,-0.445235933740705
-0.145522251393742,-0.446575534996382
-0.148547986772856,-0.447849175986775
-0.151575461358829,-0.4490571853275
-0.154604633171505,-0.450199891634172
-0.157635460230726,-0.451277623522403
-0.160667900556336,-0.45229070960781
-0.163701912168176,-0.453239478506006
-0.16673745308609,-0.454124258832605
-0.169774481329922,-0.454945379203223
-0.172812954919513,-0.455703168233473
-0.175852831874706,-0.456397954538971
-0.178894070215346,-0.45703006673533
-0.181936627961273,-0.457599833438164
-0.184980463132332,-0.458107583263089
-0.188025533748366,-0.458553644825719
-0.191071797829216,-0.458938346741669
-0.194119213394727,-0.459262017626551
-0.197167738464741,-0.459524986095982
-0.2002173310591,-0.459727580765575
-0.203267949197649,-0.459870130250946
-0.206319550900229,-0.459952963167708
-0.209372094186683,-0.459976408131475
-0.212425537076855,-0.459940793757863
-0.215479837590588,-0.459846448662485
-0.218534953747724,-0.459693701460957
-0.221590843568106,-0.459482880768892
-0.224647465071577,-0.459214315201905
-0.22770477627798,-0.458888333375611
-0.230762735207158,-0.458505263905624
-0.233821299878954,-0.458065435407557
-0.236880428313211,-0.457569176497027
-0.239940078529771,-0.457016815789646
-0.243000208548478,-0.456408681901031
-0.246060776389174,-0.455745103446794
-0.249121740071703,-0.455026409042551
-0.252183057615907,-0.454252927303915
-0.255244687041629,-0.453424986846502
-0.258306586368712,-0.452542916285926
-0.261368713616999,-0.451607044237801
-0.264431026806333,-0.450617699317742
-0.267493483956556,-0.449575210141362
-0.270556043087512,-0.448479905324277
-0.273618662219044,-0.447332113482101
-0.276681299370994,-0.446132163230449
-0.279743912563206,-0.444880383184934
-0.282806459815522,-0.443577101961172
-0.285868899147785,-0.442222648174776
-0.288931188579838,-0.440817350441361
-0.291993286131524,-0.439361537376542
-0.295055149822686,-0.437855537595933
-0.298116737673166,-0.436299679715148
-0.301178007702809,-0.434694292349803
-0.304238917931456,-0.43303970411551
-0.30729942637895,-0.431336243627885
-0.310359491065135,-0.429584239502542
-0.313419070009853,-0.427784020355096
-0.316478121232947,-0.425935914801161
-0.319536602754261,-0.424040251456351
-0.322594472593636,-0.422097358936281
-0.325651688770916,-0.420107565856566
-0.328708209305944,-0.418071200832819
-0.331763992218563,-0.415988592480656
-0.334818995528615,-0.41386006941569
-0.337873177255944,-0.411685960253536
-0.340926495420393,-0.409466593609809
-0.343978908041803,-0.407202298100122
-0.347030373140019,-0.404893402340091
-0.350080848734883,-0.40254023494533
-0.353130292846238,-0.400143124531453
-0.356178663493927,-0.397702399714075
-0.359225918697792,-0.395218389108809
-0.362272016477678,-0.392691421331272
-0.365316914853426,-0.390121824997076
-0.368360571844879,-0.387509928721837
-0.371402945471881,-0.384856061121168
-0.374443993754275,-0.382160550810685
-0.377483674711902,-0.379423726406002
-0.380521946364607,-0.376645916522732
-0.383558766732232,-0.373827449776491
-0.38659409383462,-0.370968654782894
-0.389627885691613,-0.368069860157553
-0.392660100323056,-0.365131394516085
-0.39569069574879,-0.362153586474102
-0.398719629988658,-0.359136764647221
-0.401746861062504,-0.356081257651055
-0.404772346990171,-0.352987394101218
-0.4077960457915,-0.349855502613326
-0.410817915486336,-0.346685911802992
-0.413837914094521,-0.343478950285831
-0.416855999635898,-0.340234946677457
-0.419872130130309,-0.336954229593484
-0.422886263597599,-0.333637127649529
-0.425898358057609,-0.330283969461204
-0.428908371530183,-0.326895083644124
-0.431916262035163,-0.323470798813903
-0.434921987592393,-0.320011443586156
-0.437925506221715,-0.316517346576498
-0.440926775942972,-0.312988836400543
-0.443925754776007,-0.309426241673905
-0.446922400740663,-0.305829891012198
-0.449916671856784,-0.302200113031038
-0.45290852614421,-0.298537236346038
-0.455897921622787,-0.294841589572813
-0.458884816312356,-0.291113501326978
-0.461869168232761,-0.287353300224147
-0.464850935403844,-0.283561314879934
-0.467830075845449,-0.279737873909953
-0.470806547577417,-0.27588330592982
-0.473780308619593,-0.271997939555148
-0.476751316991819,-0.268082103401553
-0.479719530713938,-0.264136126084647
-0.482684907805792,-0.260160336220047
-0.485647406287226,-0.256155062423366
-0.488606984178081,-0.252120633310219
-0.4915635994982,-0.24805737749622
-0.494517210267427,-0.243965623596984
-0.497467774505604,-0.239845700228125
-0.500415250232575,-0.235697936005257
-0.503359595468182,-0.231522659543995
-0.506300768232267,-0.227320199459954
-0.509238726544675,-0.223090884368747
-0.512173428425248,-0.21883504288599
-0.515104831893828,-0.214553003627297
-0.518032894970259,-0.210245095208281
-0.520957575674383,-0.205911646244558
-0.523878832026044,-0.201552985351742
-0.526796622045085,-0.197169441145448
-0.529710903751347,-0.192761342241289
-0.532621635164675,-0.188329017254881
-0.535528774304911,-0.183872794801837
-0.538432279191898,-0.179393003497772
-0.541332107845478,-0.174889971958301
-0.544228218285496,-0.170364028799038
-0.547120568531793,-0.165815502635598
-0.550009116604213,-0.161244722083594
-0.552893820522598,-0.156652015758642
-0.555774638306792,-0.152037712276356
-0.558651527976637,-0.14740214025235
-0.561524447551976,-0.142745628302238
-0.564393355052652,-0.138068505041635
-0.567258208498508,-0.133371099086156
-0.570118965909387,-0.128653739051415
-0.572975585305132,-0.123916753553026
-0.575828024705586,-0.119160471206604
-0.578676242130591,-0.114385220627764
-0.581520195599991,-0.109591330432119
-0.584359843133628,-0.104779129235283
-0.587195142751346,-0.0999489456528732
-0.590026052472987,-0.0951011083005016
-0.592852530318393,-0.0902359457937836
-0.595674534307409,-0.0853537867483333
-0.598492022459877,-0.0804549597797655
-0.60130495279564,-0.0755397935036942
-0.60411328333454,-0.0706086165357342
-0.606916972096421,-0.0656617574914996
-0.609715977101126,-0.0606995449866052
-0.612510256368497,-0.0557223076366651
-0.615299767918377,-0.050730374057294
-0.61808446977061,-0.045724072864106
-0.620864319945037,-0.0407037326727161
-0.623639276461503,-0.035669682098738
-0.62640929733985,-0.0306222497577868
-0.629174340599921,-0.0255617642654765
-0.631934364261558,-0.020488554237422
-0.634689326344605,-0.015402948289237
-0.637439184868905,-0.0103052750365366
-0.6401838978543,-0.00519586309493481
-0.642923423320633,-7.50410800464119e-05
-0.645657719287748,0.00505686239251449
-0.648386743775487,0.0101995187071331
-0.651110454803693,0.0153525992481955
-0.653828810392209,0.0205157754000865
-0.656541768560878,0.0256887185471925
-0.659249287329542,0.0308711000738983
-0.661951324718046,0.0360625913645902
-0.66464783874623,0.0412628638036531
-0.66733878743394,0.0464715887754732
-0.670024128801017,0.0516884376644353
-0.672703820867304,0.0569130818549258
-0.675377821652644,0.0621451927313296
-0.67804608917688,0.0673844416780327
-0.680708581459856,0.0726305000794203
-0.683365256521413,0.0778830393198785
-0.686016072381395,0.0831417307837922
-0.688660987059645,0.0884062458555475
-0.691299958576005,0.0936762559195296
-0.693932944950319,0.0989514323601244
-0.69655990420243,0.104231446561717
-0.69918079435218,0.109515969908694
-0.701795573419411,0.114804673785439
-0.704404199423968,0.12009722957634
-0.707006630385694,0.12539330866578
-0.70960282432443,0.130692582438147
-0.71219273926002,0.135994722277825
-0.714776333212306,0.141299399569201
-0.717353564201132,0.146606285696659
-0.719924390246341,0.151915052044585
-0.722488769367775,0.157225369997364
-0.725046659585278,0.162536910939384
-0.727598018918692,0.167849346255028
-0.73014280538786,0.173162347328682
-0.732680977012625,0.178475585544732
-0.73521249181283,0.183788732287565
-0.737737307808318,0.189101458941564
-0.740255383018931,0.194413436891116
-0.742766675464514,0.199724337520606
-0.745271143164908,0.20503383221442
-0.747768744139956,0.210341592356943
-0.750259436409502,0.215647289332562
-0.752743177993387,0.22095059452566
-0.755219926911457,0.226251179320626
-0.757689641183552,0.231548715101842
-0.760152278829516,0.236842873253696
-0.762607797869192,0.242133325160573
-0.765056156322423,0.247419742206858
-0.767497312209052,0.252701795776937
-0.769931223548921,0.257979157255195
-0.772357848361874,0.263251498026019
-0.774777144667753,0.268518489473793
-0.777189070486401,0.273779802982904
-0.779593583837662,0.279035109937736
-0.781990642741378,0.284284081722675
-0.784380205217391,0.289526389722108
-0.786762229285546,0.294761705320419
-0.789136672965684,0.299989699901994
-0.791503494277649,0.305210044851218
-0.793862651241284,0.310422411552478
-0.796214101876431,0.315626471390158
-0.798557804202934,0.320821895748645
-0.800893716240635,0.326008356012323
-0.803221796009378,0.331185523565579
-0.805542001529004,0.336353069792798
-0.807854290819357,0.341510666078365
-0.810158621900281,0.346657983806667
-0.812454952791617,0.351794694362088
-0.814743241513209,0.356920469129014
-0.8170234460849,0.362034979491831
-0.819295524526532,0.367137896834925
-0.821559434857948,0.372228892542681
-0.823815135098992,0.377307637999484
-0.826062583269507,0.38237380458972
-0.828301737389334,0.387427063697775
-0.830532555478317,0.392467086708034
-0.8327549955563,0.397493545004883
-0.834969015643124,0.402506109972707
-0.837174573758633,0.407504452995892
-0.83937162792267,0.412488245458823
-0.841560136155077,0.417457158745887
-0.843740056475698,0.422410864241468
-0.845911346904375,0.427349033329952
-0.848073965460951,0.432271337395725
-0.85022787016527,0.437177447823173
-0.852373019037174,0.44206703599668
-0.854509370096505,0.446939773300632
-0.856636881363108,0.451795331119416
-0.858755510856824,0.456633380837416
-0.860865216597497,0.461453593839019
-0.86296595660497,0.466255641508609
-0.865057688899085,0.471039195230572
-0.867140371499685,0.475803926389294
-0.869213962426614,0.48054950636916
-0.871278419699714,0.485275606554557
-0.873333701338829,0.489981898329869
-0.8753797653638,0.494668053079482
-0.877416569794471,0.499333742187782
-0.879444072650685,0.503978637039154
-0.881462231952284,0.508602409017983
-0.883471005719113,0.513204729508656
-0.885470351971013,0.517785269895558
-0.887460228727827,0.522343701563075
-0.889440594009398,0.526879695895591
-0.89141140583557,0.531392924277493
-0.893372622226185,0.535883058093166
-0.895324201201086,0.540349768726996
-0.897266100780116,0.544792727563369
-0.899198278983117,0.549211605986669
-0.901120693829934,0.553606075381283
-0.903033303340408,0.557975807131595
-0.904936065534383,0.562320472621992
-0.906828938431701,0.56663974323686
-0.908711880052205,0.570933290360583
-0.910584848415739,0.575200785377547
-0.912447801542145,0.579441899672138
-0.914300697451266,0.583656304628742
-0.916143494162945,0.587843671631744
-0.917976149697025,0.592003672065529
-0.919798622073348,0.596135977314483
-0.921610869311759,0.600240258762992
-0.923412849432099,0.604316187795441
-0.925204520454211,0.608363435796216
-0.926985840397939,0.612381674149702
-0.928756767283125,0.616370574240285
-0.930517259129612,0.620329807452351
-0.932267273957243,0.624259045170284
-0.934006769785861,0.628157958778472
-0.935735704635309,0.632026219661298
-0.93745403652543,0.63586349920315
-0.939161723476067,0.639669468788411
-0.940858723507062,0.643443799801469
-0.942544994638259,0.647186163626708
-0.9442204948895,0.650896231648514
-0.945885182280628,0.654573675251272
-0.947539014831487,0.658218165819369
-0.949181950561919,0.661829374737189
-0.950813947491767,0.665406973389119
-0.952434963640873,0.668950633159543
-0.954044957029082,0.672460025432848
-0.955643885676235,0.675934821593419
-0.957231707602176,0.679374693025642
-0.958808380826748,0.682779311113901
-0.960373863369793,0.686148347242584
-0.961928113251154,0.689481472796074
-0.963471088490674,0.692778359158758
-0.965002747108197,0.696038677715022
-0.966523047123564,0.699262099849251
-0.96803194655662,0.70244829694583
-0.969529403427206,0.705596940389145
-0.971015375755166,0.708707701563582
-0.972489821560343,0.711780251853526
