-0.675608806460307,0.63586355752382
-0.664613817928917,0.626805232063774
-0.653709068148614,0.617850864261412
-0.642894293274041,0.608999930981117
-0.63216922945984,0.600251909087273
-0.621533612860656,0.591606275444264
-0.610987179631129,0.583062506916472
-0.600529665925903,0.574620080368282
-0.590160807899622,0.566278472664078
-0.579880341706928,0.558037160668244
-0.569688003502464,0.549895621245162
-0.559583529440873,0.541853331259217
-0.549566655676797,0.533909767574792
-0.53963711836488,0.526064407056272
-0.529794653659764,0.518316726568039
-0.520038997716093,0.510666202974478
-0.510369886688509,0.503112313139973
-0.500787056731656,0.495654533928906
-0.491290244000175,0.488292342205662
-0.48187918464871,0.481025214834624
-0.472553614831904,0.473852628680176
-0.4633132707044,0.466774060606702
-0.45415788842084,0.459788987478585
-0.445087204135868,0.45289688616021
-0.436100954004126,0.44609723351596
-0.427198874180258,0.439389506410218
-0.418380700818905,0.432773181707369
-0.409646170074712,0.426247736271795
-0.40099501810232,0.419812646967881
-0.392426981056374,0.413467390660011
-0.383941795091515,0.407211444212568
-0.375539196362386,0.401044284489936
-0.367218921023631,0.394965388356498
-0.358980705229893,0.388974232676638
-0.350824285135813,0.383070294314741
-0.342749396896036,0.377253050135189
-0.334755776665204,0.371521977002366
-0.326843160597959,0.365876551780657
-0.319011284848946,0.360316251334444
-0.311259885572806,0.354840552528112
-0.303588698924182,0.349448932226044
-0.295997461057719,0.344140867292624
-0.288485908128057,0.338915834592236
-0.281053776289841,0.333773310989262
-0.273700801697712,0.328712773348088
-0.266426720506315,0.323733698533097
-0.259231268870292,0.318835563408672
-0.252114182944285,0.314017844839197
-0.245075198882938,0.309280019689056
-0.238114052840893,0.304621564822633
-0.231230480972794,0.300041957104311
-0.224424219433284,0.295540673398474
-0.217695004377004,0.291117190569505
-0.211042571958599,0.286770985481789
-0.20446665833271,0.282501534999709
-0.197966999653982,0.278308315987649
-0.191543332077056,0.274190805309992
-0.185195391756576,0.270148479831123
-0.178922914847184,0.266180816415424
-0.172725637503524,0.26228729192728
-0.166603295880238,0.258467383231075
-0.160555626131969,0.254720567191191
-0.15458236441336,0.251046320672013
-0.148683246879054,0.247444120537925
-0.142858009683694,0.243913443653309
-0.137106388981923,0.240453766882551
-0.131428120928384,0.237064567090033
-0.125822941677719,0.233745321140139
-0.120290587384571,0.230495505897254
-0.114830794203584,0.22731459822576
-0.109443298289399,0.224202074990041
-0.104127835796661,0.221157413054482
-0.0988841428800119,0.218180089283465
-0.0937119556940944,0.215269580541375
-0.0886110103935518,0.212425363692595
-0.0835810431330266,0.209646915601509
-0.078621790067162,0.206933713132501
-0.0737329873506008,0.204285233149954
-0.0689143711379858,0.201700952518252
-0.0641656775839599,0.199180348101778
-0.0594866428431662,0.196722896764918
-0.0548770030702473,0.194328075372053
-0.0503364944198463,0.191995360787568
-0.0458648530466058,0.189724229875847
-0.0414618151051691,0.187514159501273
-0.0371271167501789,0.18536462652823
-0.0328604941362779,0.183275107821102
-0.0286616834181092,0.181245080244272
-0.0245304207503156,0.179274020662124
-0.02046644228754,0.177361405939042
-0.0164694841844254,0.17550671293941
-0.0125392825956145,0.173709418527611
-0.00867557367575038,0.171968999568028
-0.00487809357947587,0.170284932925047
-0.00114657846143366,0.168656695463049
0.00251923552373316,0.16708376404642
0.0061196122213817,0.165565615539542
0.00965481547686917,0.1641017268068
0.0131251091355526,0.162691574712577
0.0165307570427893,0.161334636121257
0.0198720230439359,0.160030387897224
0.0231491709843501,0.158778306904861
0.0263624647093887,0.157577870008552
0.0295121680644088,0.15642855407268
0.0325985448947676,0.15532983596163
0.0356218590458222,0.154281192539785
0.0385823743629297,0.153282100671529
0.0414803546914473,0.152332037221245
0.0443160638767319,0.151430479053318
0.0470897657641408,0.15057690303213
0.0498017241990311,0.149770786022066
0.0524522030267597,0.14901160488751
0.055041466092684,0.148298836492845
0.057569777242161,0.147631957702454
0.0600374003205478,0.147010445380722
0.0624445991732015,0.146433776392032
0.0647916376454792,0.145901427600767
0.067078779582738,0.145412875871313
0.0693062888303352,0.144967598068052
0.0714744292336277,0.144565071055367
0.0735834646379726,0.144204771697644
0.0756336588887273,0.143886176859265
0.0776252758312486,0.143608763404614
0.0795585793108937,0.143372008198074
0.0814338331730197,0.143175388104031
0.0832513012629838,0.143018379986866
0.085011247426143,0.142900460710965
0.0867139355078546,0.14282110714071
0.0883596293534755,0.142779796140485
0.0899485928083629,0.142776004574675
0.0914810897178739,0.142809209307662
0.0929573839273657,0.142878887203831
0.0943777392821953,0.142984515127565
0.0957424196277199,0.143125569943248
0.0970516888092964,0.143301528515263
0.0983058106722822,0.143511867707995
0.0995050490620343,0.143756064385826
0.10064966782391,0.144033595413142
0.101739930803266,0.144343937654325
0.102776101845459,0.144686567973759
0.103758444795848,0.145060963235828
0.104687223499788,0.145466600304915
0.105562701802637,0.145902956045405
0.106385143549752,0.14636950732168
0.107154812586491,0.146865730998125
0.10787197275821,0.147391103939124
0.108536887910266,0.14794510300906
0.109149821888017,0.148527205072316
0.109711038536819,0.149136886993277
0.11022080170203,0.149773625636326
0.110679375229007,0.150436897865847
0.111087022963107,0.151126180546223
0.111444008749687,0.151840950541839
0.111750596434105,0.152580684717078
0.112007049861716,0.153344859936324
0.112213632877879,0.15413295306396
0.112370609327951,0.15494444096437
0.112478243057288,0.155778800501938
0.112536797911248,0.156635508541048
0.112546537735188,0.157514041946082
0.112507726374465,0.158413877581426
0.112420627674436,0.159334492311462
0.112285505480458,0.160275363000575
0.112102623637889,0.161235966513148
0.111872245992085,0.162215779713565
0.111594636388404,0.163214279466209
0.111270058672202,0.164230942635464
0.110898776688837,0.165265246085714
0.110481054283666,0.166316666681343
0.110017155302046,0.167384681286734
0.109507343589335,0.168468766766271
0.108951882990888,0.169568399984338
0.108351037352064,0.170683057805319
0.107705070518219,0.171812217093596
0.107014246334711,0.172955354713554
0.106278828646896,0.174111947529577
0.105499081300133,0.175281472406048
0.104675268139777,0.176463406207351
0.103807653011186,0.17765722579787
0.102896499759718,0.178862408041988
0.101942072230729,0.180078429804089
0.100944634269576,0.181304767948557
0.0999044497216162,0.182540899339776
0.0988217824322073,0.183786300842128
0.0976968962467063,0.185040449319999
0.09653005501047,0.186302821637771
0.0953215225688557,0.187572894659829
0.0940715627672203,0.188850145250555
0.0927804394509212,0.190134050274335
0.0914484164653155,0.19142408659555
0.09007575765576,0.192719731078586
0.088662726867612,0.194020460587826
0.0872095879462287,0.195325751987653
0.0857166047369671,0.196635082142452
0.0841840410851844,0.197947927916605
0.0826121608362376,0.199263766174497
0.0810012278354838,0.200582073780512
0.0793515059282804,0.201902327599033
0.0776632589599841,0.203224004494443
0.0759367507759522,0.204546581331127
0.0741722452215419,0.205869534973468
0.0723700061421102,0.20719234228585
0.0705302973830143,0.208514480132657
0.0686533827896112,0.209835425378272
0.0667395262072581,0.211154654887079
0.0647889914813121,0.212471645523462
0.0628020424571303,0.213785874151804
0.0607789429800698,0.215096817636489
0.0587199568954878,0.216403952841902
0.0566253480487412,0.217706756632425
0.0544953802851873,0.219004705872442
0.0523303174501832,0.220297277426337
0.050130423389086,0.221583948158493
0.0478959619472527,0.222864194933296
0.0456271969700406,0.224137494615127
0.0433243923028066,0.225403324068371
0.040987811790908,0.226661160157411
0.0386177192797018,0.227910479746632
0.0362143786145453,0.229150759700417
0.0337780536407953,0.230381476883149
0.0313090082038092,0.231602108159213
0.0288075061489439,0.232812130392992
0.0262738113215567,0.234011020448869
0.0237081875670045,0.235198255191229
0.0211108987306446,0.236373311484455
0.018482208657834,0.237535666192931
0.01582238119393,0.23868479618104
0.0131316801842894,0.239820178313167
0.0104103694742697,0.240941289453695
0.00765871290922757,0.242047606467007
0.0048769743345205,0.243138606217488
0.00206541759550531,0.244213765569521
-0.000775693462460592,0.24527256138749
-0.00364609499402035,0.246314470535778
-0.00654552315381664,0.247338969878769
-0.00947371409649259,0.248345536280848
-0.0124304039766908,0.249333646606397
-0.0154153289490545,0.2503027777198
-0.0184282251682261,0.251252406485442
-0.0214688287888491,0.252182009767705
-0.0245368759655658,0.253091064430974
-0.0276321028530195,0.253979047339632
-0.0307542456058529,0.254845435358062
-0.0339030403787089,0.25568970535065
-0.0370782233262303,0.256511334181777
-0.0402795306030604,0.257309798715829
-0.0435066983638414,0.258084575817188
-0.0467594627632169,0.258835142350239
-0.0500375599558292,0.259560975179364
-0.0533407260963216,0.260261551168949
-0.0566686973393368,0.260936347183376
-0.0600212098395177,0.261584840087029
-0.0633979997515071,0.262206506744293
-0.0667988032299482,0.26280082401955
-0.0702233564294834,0.263367268777184
-0.0736713955047562,0.263905317881579
-0.0771426566104089,0.264414448197119
-0.0806368759010848,0.264894136588188
-0.0841537895314265,0.265343859919169
-0.0876931336560771,0.265763095054445
-0.0912546444296793,0.266151318858401
-0.0948380580068762,0.266508008195421
-0.0984431105423104,0.266832639929887
-0.102069538190625,0.267124690926185
-0.105717077106463,0.267383638048696
-0.109385463444467,0.267608958161806
-0.11307443335928,0.267800128129897
-0.116783723005545,0.267956624817354
-0.120513068537905,0.268077925088561
-0.124262206111002,0.2681635058079
-0.12803087187948,0.268212843839756
-0.131818801997982,0.268225416048512
-0.13562573262115,0.268200699298553
-0.139451399903627,0.268138170454261
-0.143295540000056,0.26803730638002
-0.14715788906508,0.267897583940215
-0.151038183253342,0.267718479999229
-0.154936158719485,0.267499471421445
-0.158851551618152,0.267240035071247
-0.162784098103985,0.26693964781302
-0.166733534331627,0.266597786511146
-0.170699596455722,0.26621392803001
-0.174682020630912,0.265787549233995
-0.17868054301184,0.265318126987484
-0.182694899753149,0.264805138154863
-0.186724827009483,0.264248059600513
-0.190770060935482,0.263646368188819
-0.194830337685792,0.262999540784165
-0.198905393415054,0.262307054250935
-0.202994964277911,0.261568385453511
-0.207098786429007,0.260783011256278
-0.211216596022984,0.25995040852362
-0.215348129214485,0.25907005411992
-0.219493122158153,0.258141424909562
-0.22365131100863,0.257163997756929
-0.227822431920561,0.256137249526406
-0.232006221048587,0.255060657082376
-0.236202414547352,0.253933697289222
-0.240410748571498,0.252755847011329
-0.244630959275668,0.25152658311308
-0.248862782814506,0.250245382458859
-0.253105955342654,0.248911721913049
-0.257360213014754,0.247525078340035
-0.261625291985451,0.246084928604199
-0.265900928409386,0.244590749569927
-0.270186858441203,0.2430420181016
-0.274482818235544,0.241438211063604
-0.278788543947053,0.239778805320321
-0.283103771730372,0.238063277736137
-0.287428237740144,0.236291105175433
-0.291761678131012,0.234461764502594
-0.296103829057619,0.232574732582003
-0.300454426674608,0.230629486278045
-0.304813207136622,0.228625502455103
-0.309179906598303,0.226562257977561
-0.313554261214294,0.224439229709802
-0.31793600713924,0.222255894516211
-0.322324880527781,0.22001172926117
-0.326720617534561,0.217706210809064
-0.331122954314224,0.215338816024275
-0.335531627021411,0.212909021771189
-0.339946371810767,0.210416304914189
-0.344366924836933,0.207860142317658
-0.348793022254552,0.20524001084598
-0.353224400218268,0.202555387363539
-0.357660794882724,0.199805748734718
-0.362101942402561,0.196990571823902
-0.366547578932424,0.194109333495473
-0.370997440626955,0.191161510613817
-0.279658211076709,0.0792935633339569
-0.379908784128592,0.185064018648352
-0.384369738244984,0.181913303293312
-0.278461671482866,0.28739751876627
-0.513224203555919,0.0593459166959018
-0.492950016727878,0.0588101946081281
-0.492897658305166,0.265613234786489
-0.303793445712387,0.0664913292504142
-0.302991842081643,0.057991742173898
-0.415670395650438,0.157906041534102
-0.519570213694755,0.250097587402197
-0.42462930409544,0.150403619517789
-0.521388366736305,0.0490510905140268
-0.317761823607964,0.23572412209861
-0.347635017005585,0.25090460672287
-0.533069052123017,0.0176326850953505
-0.342629526620179,0.225695381543325
-0.340874847580194,0.225941299586292
-0.455996679785002,0.121806040379271
-0.575256346017053,0.210525292874651
-0.560148457387669,0.0117141477091255
-0.374890647213324,-0.00842656002782695
-0.572866194079404,0.00414813138113419
-0.579387899854595,-0.0132898218226198
-0.365075188717106,-0.0215163298329375
-0.379905955994729,0.184637807410877
-0.491776727688905,0.0844897941468133
-0.496237772779152,0.0794652107145466
-0.39414231345369,0.165348207466105
-0.410488204407621,-0.0303431177454329
-0.509599294564336,0.0638988349586751
-0.514045051179687,0.0585440907683069
-0.518486326062922,0.0531054985493725
-0.522922855368683,0.0475825351662559
-0.527354375251614,0.0419746774833403
-0.531780621866356,0.0362814023650101
-0.536201331367553,0.0305021866756484
-0.540616239909847,0.0246365072796394
-0.545025083647883,0.0186838410413662
-0.549427598736301,0.0126436648252133
-0.553823521329747,0.00651545549556356
-0.558212587582861,0.000298689916801459
-0.562594533650287,-0.00600715504668998
-0.566969095686669,-0.0124026025305264
-0.571336009846649,-0.0188881756703247
-0.575695012284869,-0.0254643976017006
-0.580045839155973,-0.0321317914602711
-0.584388226614604,-0.0388908803816517
-0.588721910815404,-0.0457421875014594
-0.593046627913017,-0.0526862359553098
-0.597362114062084,-0.0597235488788199
-0.60166810541725,-0.0668546494076053
-0.605964338133157,-0.0740800606772831
-0.610250548364448,-0.0814003058234687
-0.614526472265766,-0.0888159079817792
-0.618791845991753,-0.0963273902878302
-0.623046405697053,-0.103935275877239
-0.627289887536308,-0.11164008788562
-0.631522027664162,-0.119442349448592
-0.635742562235257,-0.127342583701769
-0.639951227404236,-0.135341313780769
-0.644147759325742,-0.143439062821207
-0.648331894154418,-0.151636353958701
-0.652503368044907,-0.159933710328865
-0.656661917151852,-0.168331655067317
-0.660807277629895,-0.176830711309672
-0.664939185633679,-0.185431402191548
-0.669057377317848,-0.19413425084856
-0.673161588837044,-0.202939780416325
-0.67725155634591,-0.211848514030458
-0.681327015999089,-0.220860974826578
-0.681327015999089,-0.220860974826578
-0.685371292775836,-0.22988131181485
-0.689367988423305,-0.238813500067328
-0.693317254247989,-0.247657801812454
-0.69721924155638,-0.256414479278669
-0.70107410165497,-0.265083794694415
-0.704881985850251,-0.273666010288134
-0.708643045448718,-0.282161388288268
-0.712357431756861,-0.290570190923258
-0.716025296081173,-0.298892680421547
-0.719646789728147,-0.307129119011577
-0.723222064004274,-0.315279768921788
-0.726751270216048,-0.323344892380624
-0.730234559669961,-0.331324751616525
-0.733672083672506,-0.339219608857934
-0.737063993530174,-0.347029726333293
-0.740410440549458,-0.354755366271043
-0.743711576036851,-0.362396790899626
-0.746967551298844,-0.369954262447484
-0.750178517641932,-0.377428043143059
-0.753344626372605,-0.384818395214793
-0.764423712848922,-0.359149907727303
-0.7610819943265,-0.366314722538009
-0.782000055574872,-0.397929244702583
-0.808915128046957,-0.396771300877891
-0.777432152592317,-0.444122659644753
-0.796489360537989,-0.37770737065251
-0.778788574495057,-0.441458860051369
-0.777076778950171,-0.440969248743397
-0.779845977961277,-0.447620543480442
-0.782571832424892,-0.454191031878063
-0.821697744937198,-0.442794499190708
-0.826867372364228,-0.423999081531744
-0.815976558711489,-0.479311517686436
-0.793044830934302,-0.479670166643158
-0.795556232257855,-0.485840556770292
-0.798025196872872,-0.491931713928655
-0.800451876085846,-0.497943900346688
-0.806106212478552,-0.466317295511219
-0.786981034476121,-0.551739194577526
-0.807479714377436,-0.515509257443223
-0.810569237736055,-0.54984439347099
-0.835568791732194,-0.513982056499292
-0.837832791290834,-0.563718986052642
-0.836267705324505,-0.488180259492712
-0.818361192095188,-0.543229912452086
-0.851788651916954,-0.554704287905206
-0.797888212491328,-0.579728678298036
-0.81722232360435,-0.603854781363712
-0.814593457762143,-0.568417056357614
-0.859500816344474,-0.536557611444605
-0.811263012341921,-0.530612270931164
-0.879861812666499,-0.532799980506536
-0.833651394913425,-0.583612840758857
-0.795273916772441,-0.550428473191031
-0.857656802157779,-0.630658654460193
-0.838725792379141,-0.597519765454234
-0.862110243101928,-0.611964463231544
-0.84286532145225,-0.632193494074076
-0.87124121617746,-0.606905219851289
-0.844942731953006,-0.615031389046558
-0.809103456874009,-0.583462425092648
-0.836576847438637,-0.630220743752507
-0.85545334793423,-0.639351615861707
-0.84916101960842,-0.624698666642334
-0.825513343410877,-0.639846900718736
-0.853111546056916,-0.639123751272102
-0.854340020727583,-0.642888751705686
-0.867160300260747,-0.65807683912596
-0.860211745737787,-0.667589110894365
-0.857800480560889,-0.653759751968407
-0.8588794834674,-0.657242959138109
-0.859921496699104,-0.660656373562945
-0.860926671562492,-0.664000257471358
-0.861895159364057,-0.667274873091789
-0.862827111410292,-0.670480482652679
-0.863722679007688,-0.673617348382471
-0.864582013462739,-0.676685732509606
-0.865405266081936,-0.679685897262526
-0.866192588171772,-0.682618104869673
-0.86694413103874,-0.68548261755949
-0.867660045989332,-0.688279697560417
-0.868340484330041,-0.691009607100896
-0.868985597367358,-0.69367260840937
-0.869595536407776,-0.69626896371428
-0.870170452757788,-0.698798935244068
-0.870710497723887,-0.701262785227176
-0.871215822612563,-0.703660775892046
-0.871686578730311,-0.70599316946712
-0.872122917383622,-0.708260228180839
-0.872524989878989,-0.710462214261645
-0.872892947522904,-0.71259938993798
-0.87322694162186,-0.714672017438286
-0.873527123482349,-0.716680358991005
-0.873793644410863,-0.718624676824578
-0.874026655713895,-0.720505233167448
-0.874226308697938,-0.722322290248056
-0.874392754669484,-0.724076110294844
-0.874526144935025,-0.725766955536254
-0.874626630801053,-0.727395088200728
-0.874694363574062,-0.728960770516708
-0.874729494560543,-0.730464264712635
-0.874732175066989,-0.731905833016951
-0.874702556399893,-0.733285737658098
-0.874640789865746,-0.734604240864518
-0.874547026771042,-0.735861604864654
-0.874421418422272,-0.737058091886945
-0.874264116125929,-0.738193964159835
-0.874075271188506,-0.739269483911766
-0.873855034916495,-0.740284913371178
-0.873603558616388,-0.741240514766515
-0.873320993594678,-0.742136550326217
-0.873007491157857,-0.742973282278727
-0.872663202612418,-0.743750972852487
-0.872288279264853,-0.744469884275938
-0.871882872421654,-0.745130278777521
-0.871447133389315,-0.745732418585681
-0.870981213474327,-0.746276565928856
-0.870485263983182,-0.746762983035491
-0.869959436222374,-0.747191932134026
-0.869403881498395,-0.747563675452903
-0.868818751117737,-0.747878475220564
-0.868204196386892,-0.748136593665452
-0.867560368612352,-0.748338293016007
-0.866887419100612,-0.748483835500672
-0.866185499158163,-0.748573483347889
-0.865454760091496,-0.748607498786098
-0.864695353207105,-0.748586144043743
-0.863907429811482,-0.748509681349266
-0.86309114121112,-0.748378372931107
-0.86224663871251,-0.748192481017708
-0.861374073622146,-0.747952267837512
-0.86047359724652,-0.747657995618961
-0.859545360892124,-0.747309926590496
-0.858589515865451,-0.746908322980558
-0.857606213472992,-0.746453447017591
-0.856595605021242,-0.745945560930036
-0.855557841816691,-0.745384926946334
-0.854493075165833,-0.744771807294927
-0.853401456375159,-0.744106464204257
-0.852283136751163,-0.743389159902767
-0.851138267600336,-0.742620156618897
-0.849967000229171,-0.741799716581091
-0.848769485944161,-0.740928102017788
-0.847545876051798,-0.740005575157433
-0.846296321858574,-0.739032398228465
-0.845020974670982,-0.738008833459328
-0.843719985795514,-0.736935143078462
-0.842393506538663,-0.73581158931431
-0.841041688206921,-0.734638434395314
-0.83966468210678,-0.733415940549915
-0.838262639544733,-0.732144370006556
-0.836835711827273,-0.730823984993677
-0.835384050260891,-0.729455047739722
-0.833907806152081,-0.728037820473131
-0.832407130807334,-0.726572565422347
-0.830882175533143,-0.725059544815811
-0.829333091636001,-0.723499020881966
-0.8277600304224,-0.721891255849253
-0.826163143198832,-0.720236511946113
-0.82454258127179,-0.71853505140099
-0.822898495947766,-0.716787136442324
-0.821231038533252,-0.714993029298557
-0.819540360334742,-0.713152992198132
-0.817826612658727,-0.71126728736949
-0.816089946811701,-0.709336177041073
-0.814330514100154,-0.707359923441323
-0.81254846583058,-0.705338788798681
-0.810743953309472,-0.70327303534159
-0.808917127843321,-0.701162925298492
-0.80706814073862,-0.699008720897827
-0.805197143301862,-0.696810684368038
-0.803304286839539,-0.694569077937567
-0.801389722658143,-0.692284163834856
-0.799453602064166,-0.689956204288346
-0.797496076364102,-0.68758546152648
-0.795517296864443,-0.685172197777699
-0.79351741487168,-0.682716675270445
-0.791496581692307,-0.680219156233159
-0.789454948632816,-0.677679902894285
-0.787392666999699,-0.675099177482263
-0.78530988809945,-0.672477242225535
-0.783206763238559,-0.669814359352543
-0.78108344372352,-0.66711079109173
-0.778940080860825,-0.664366799671536
-0.776776825956966,-0.661582647320404
-0.774593830318437,-0.658758596266776
-0.772391245251728,-0.655894908739092
-0.770169222063334,-0.652991846965796
-0.767927912059745,-0.65004967317533
-0.765667466547456,-0.647068649596134
-0.763388036832957,-0.64404903845665
-0.761089774222742,-0.640991101985322
-0.758772830023302,-0.63789510241059
-0.756437355541131,-0.634761301960895
-0.754083502082721,-0.631589962864681
-0.751711420954564,-0.628381347350389
-0.749321263463153,-0.625135717646461
-0.746913180914979,-0.621853335981338
-0.744487324616536,-0.618534464583462
-0.742043845874316,-0.615179365681276
-0.739582895994811,-0.611788301503221
-0.737104626284514,-0.608361534277739
-0.734609188049918,-0.604899326233271
-0.732096732597514,-0.601401939598261
-0.729567411233794,-0.597869636601148
-0.727021375265253,-0.594302679470376
-0.724458775998381,-0.590701330434386
-0.721879764739672,-0.58706585172162
-0.719284492795617,-0.583396505560519
-0.716673111472709,-0.579693554179527
-0.714045772077441,-0.575957259807083
-0.711402625916306,-0.572187884671631
-0.708743824295794,-0.568385691001612
-0.7060695185224,-0.564550941025469
-0.703379859902615,-0.560683896971641
-0.700674999742931,-0.556784821068573
-0.697955089349842,-0.552853975544705
-0.695220280029839,-0.548891622628479
-0.692470723089416,-0.544898024548337
-0.689706569835063,-0.540873443532722
-0.686927971573275,-0.536818141810073
-0.684135079610543,-0.532732381608835
-0.68132804525336,-0.528616425157448
-0.678507019808218,-0.524470534684355
-0.675672154581609,-0.520294972417997
-0.672823600880027,-0.516090000586816
-0.669961510009963,-0.511855881419253
-0.66708603327791,-0.507592877143751
-0.66419732199036,-0.503301249988752
-0.661295527453806,-0.498981262182697
-0.65838080097474,-0.494633175954028
-0.655453293859655,-0.490257253531187
-0.652513157415042,-0.485853757142616
-0.649560542947396,-0.481422949016757
-0.646595601763207,-0.476965091382051
-0.643618485168968,-0.472480446466941
-0.640629344471172,-0.467969276499867
-0.637628330976312,-0.463431843709273
-0.634615595990878,-0.4588684103236
-0.631591290821365,-0.454279238571289
-0.628555566774264,-0.449664590680783
-0.625508575156069,-0.445024728880523
-0.62245046727327,-0.440359915398951
-0.619381394432361,-0.43567041246451
-0.616301507939835,-0.43095648230564
-0.613210959102183,-0.426218387150784
-0.610109899225898,-0.421456389228384
-0.606998479617472,-0.416670750766881
-0.603876851583398,-0.411861733994717
-0.600745166430169,-0.407029601140334
-0.597603575464276,-0.402174614432175
-0.594452229992213,-0.39729703609868
-0.591291281320471,-0.392397128368291
-0.588120880755543,-0.387475153469451
-0.584941179603921,-0.382531373630601
-0.581752329172099,-0.377566051080183
-0.578554480766567,-0.372579448046639
-0.57534778569382,-0.367571826758411
-0.572132395260348,-0.362543449443941
-0.568908460772645,-0.35749457833167
-0.565676133537203,-0.35242547565004
-0.562435564860515,-0.347336403627493
-0.559186906049072,-0.342227624492471
-0.555930308409368,-0.337099400473416
-0.552665923247895,-0.331951993798769
-0.549393901871144,-0.326785666696974
-0.546114395585609,-0.32160068139647
-0.542827555697782,-0.3163973001257
-0.539533533514156,-0.311175785113107
-0.536232480341222,-0.305936398587131
-0.532924547485474,-0.300679402776214
-0.529609886253404,-0.2954050599088
-0.526288647951503,-0.290113632213328
-0.522960983886265,-0.284805381918242
-0.519627045364182,-0.279480571251982
-0.516286983691747,-0.274139462442992
-0.512940950175451,-0.268782317719712
-0.509589096121788,-0.263409399310584
-0.506231572837249,-0.258020969444051
-0.502868531628328,-0.252617290348554
-0.499500123801516,-0.247198624252535
-0.496126500663306,-0.241765233384436
-0.492747813520191,-0.236317379972698
-0.489364213678662,-0.230855326245764
-0.485975852445213,-0.225379334432075
-0.482582881126335,-0.219889666760074
-0.479185451028521,-0.214386585458201
-0.475783713458265,-0.2088703527549
-0.472377819722056,-0.203341230878611
-0.46896792112639,-0.197799482057776
-0.465554168977757,-0.192245368520838
-0.462136714582651,-0.186679152496238
-0.458715709247563,-0.181101096212418
-0.455291304278986,-0.17551146189782
-0.451863650983413,-0.169910511780885
-0.448432900667336,-0.164298508090057
-0.444999204637248,-0.158675713053775
-0.44156271419964,-0.153042388900483
-0.438123580661005,-0.147398797858622
-0.434681955327836,-0.141745202156633
-0.431237989506626,-0.13608186402296
-0.427791834503866,-0.130409045686043
-0.424343641626048,-0.124727009374324
-0.420893562179667,-0.119036017316245
-0.417441747471213,-0.113336331740249
-0.413988348807179,-0.107628214874776
-0.410533517494058,-0.101911928948269
-0.407077404838342,-0.0961877361891703
-0.403620162146524,-0.0904558988259203
-0.400161940725096,-0.0847166790869618
-0.39670289188055,-0.0789703392007362
-0.393243166919379,-0.0732171413956857
-0.389782917148075,-0.0674573479002517
-0.386322293873131,-0.0616912209428766
-0.382861448401039,-0.0559190227520016
-0.379400532038291,-0.0501410155560692
-0.375939696091381,-0.0443574615835205
-0.3724790918668,-0.0385686230627981
-0.36901887067104,-0.0327747622223432
-0.365559183810595,-0.0269761412905981
-0.362100182591957,-0.0211730224960043
-0.358642018321618,-0.0153656680670039
-0.35518484230607,-0.0095543402320384
-0.351728805851806,-0.00373930121955011
-0.348274060265319,0.00207918674201964
-0.3448207568531,0.00790086142422852
-0.341369046921643,0.0137254605986352
-0.33791908177744,0.0195527220367973
-0.334471012726982,0.0253823835102735
-0.331024991076763,0.0312141827906216
-0.327581168133275,0.0370478576494001
-0.324139695203011,0.0428831458581667
-0.320700723592462,0.04871978518848
-0.317264404608122,0.0545575134118978
-0.313830889556482,0.0603960682999787
-0.310400329744035,0.0662351876242803
-0.306972876477274,0.0720746091563614
-0.303548681062691,0.0779140706677796
-0.300127894806778,0.0837533099300935
-0.296710669016028,0.0895920647148609
-0.293297154996933,0.0954300727936403
-0.289887504055986,0.101267071937989
-0.286481867499679,0.107102799919467
-0.283080396634504,0.112936994509631
-0.279683242766955,0.118769393480039
-0.276290557203523,0.12459973460225
-0.272902491250701,0.130427755647822
-0.26951919621498,0.136253194388312
-0.266140823402855,0.14207578859528
-0.262767524120817,0.147895276040283
-0.259399449675358,0.15371139449488
-0.256036751372971,0.159523881730628
-0.252679580520149,0.165332475519086
-0.249328088423383,0.171136913631812
-0.245982426389167,0.176936933840365
-0.242642745723992,0.182732273916301
-0.239309197734351,0.18852267163118
-0.235981933726737,0.194307864756559
-0.232661105007642,0.200087591063998
-0.229346862883558,0.205861588325053
-0.226039358660978,0.211629594311283
-0.222738743646394,0.217391346794247
-0.219445169146299,0.223146583545502
-0.216158786467185,0.228895042336606
-0.212879746915545,0.234636460939119
-0.20960820179787,0.240370577124597
-0.206344302420654,0.246097128664599
-0.203088200090389,0.251815853330684
-0.199840046113566,0.257526488894409
-0.19659999179668,0.263228773127333
-0.193368188446222,0.268922443801013
-0.190144787368684,0.274607238687008
-0.186929939870559,0.280282895556877
-0.183723797258339,0.285949152182176
-0.180526510838517,0.291605746334465
-0.177338231917586,0.297252415785302
-0.174159111802037,0.302888898306244
-0.170989301798363,0.30851493166885
-0.167828953213057,0.314130253644678
-0.16467821735261,0.319734602005287
-0.161537245523516,0.325327714522234
-0.158406189032267,0.330909328967077
-0.155285199185355,0.336479183111375
-0.152174427289273,0.342037014726686
-0.149074024650512,0.347582561584568
-0.145984142575566,0.353115561456579
-0.142904932370928,0.358635752114277
-0.139836545343088,0.364142871329221
-0.13677913279854,0.369636656872969
-0.133732846043777,0.375116846517079
-0.13069783638529,0.380583178033108
-0.127674255129572,0.386035389192616
-0.124662253583116,0.39147321776716
-0.121661983052414,0.396896401528299
-0.118673594843957,0.40230467824759
-0.11569724026424,0.407697785696592
-0.112733070619754,0.413075461646863
-0.109781237216992,0.418437443869961
-0.106841891362446,0.423783470137445
