0.789616694765943,-0.0568864688596087
0.81020538447233,-0.0938680520123859
0.785771815853842,-0.101518138050844
0.71579287526779,-0.122675658097899
0.713101474573373,-0.140492613382521
0.703894724638829,-0.153036231777202
0.635951681068306,-0.166716931673046
0.618390784250553,-0.216506763072622
0.523259464375465,-0.147784813181678
0.534301081288002,-0.198776771279869
0.504222462628067,-0.238331767121012
0.477580627328287,-0.19961407136608
0.440104765220944,-0.233357188486362
0.409523734407567,-0.249471429070236
0.365528508470261,-0.270077446303686
0.344922726127725,-0.249495672624398
0.315849127718703,-0.257397848917066
0.278983599792661,-0.289526078354349
0.233226297850722,-0.249807839047136
0.24959174373267,-0.252198212338244
0.171853460326701,-0.291635778331372
0.184671298230637,-0.30064768522547
0.156735427716432,-0.256081306379606
0.137124623677746,-0.340432410801626
0.109199364833461,-0.320102463797549
0.110420928861155,-0.339254751186052
0.0825231138387363,-0.359448972474835
0.0534792604979078,-0.371409474161934
0.0777622232447827,-0.356374386796365
0.0221243888341776,-0.412697666851108
0.0266353736681802,-0.426227427323433
0.0167400847717589,-0.446510610027682
0.0431835602693118,-0.502953807497328
-0.0103363416065451,-0.518595460923468
-0.00222288585730181,-0.517599462839871
-0.000652098072468503,-0.52111843504905
0.0193822586479424,-0.616274654519048
-0.00386914667762636,-0.606182367794127
-0.000295883500586264,-0.640072035497762
-0.00498488928411681,-0.682237908944318
