0.448690859991837,-0.752627872171808
0.446157012524306,-0.753937113331776
0.443640205564174,-0.755238011723398
0.441140276502143,-0.756530433588754
0.438657062728917,-0.757814245169923
0.436190401635199,-0.759089312708983
0.433740130611692,-0.760355502448013
0.4313060870491,-0.761612680629091
0.428888108338124,-0.762860713494297
0.426486031869469,-0.764099467285709
0.424099695033837,-0.765328808245406
0.421728935221932,-0.766548602615465
0.419373589824456,-0.767758716637968
0.417033496232113,-0.768959016554991
0.414708491835606,-0.770149368608614
0.412398414025637,-0.771329639040916
0.410103100192911,-0.772499694093974
0.40782238772813,-0.773659400009869
0.405556114021996,-0.774808623030678
0.403304116465215,-0.775947229398481
0.401066232448487,-0.777075085355356
0.398842299362517,-0.778192057143382
0.396632154598008,-0.779298011004636
0.394435635545662,-0.7803928131812
0.392252579596183,-0.781476329915151
0.390082824140274,-0.782548427448567
0.387926206568638,-0.783608972023528
0.385782564271978,-0.784657829882112
0.383651734640997,-0.785694867266398
0.381533555066398,-0.786719950418465
0.379427862938885,-0.787732945580391
0.37733449564916,-0.788733718994255
0.375253290587927,-0.789722136902137
0.373184085145888,-0.790698065546113
0.371126716713747,-0.791661371168265
0.369081022682207,-0.792611920010669
0.367046840441971,-0.793549578315405
0.365024007383742,-0.794474212324552
0.363012360898223,-0.795385688280188
0.361011738376117,-0.796283872424392
0.359021977208127,-0.797168630999243
0.357042914784957,-0.79803983024682
0.355074388497309,-0.7988973364092
0.353116235735887,-0.799741015728464
0.351168293891394,-0.800570734446689
0.349230400354533,-0.801386358805955
0.347302392516006,-0.80218775504834
0.345384107766517,-0.802974789415922
0.34347538349677,-0.803747328150782
0.341576057097467,-0.804505237494997
0.33968596595931,-0.805248383690645
0.337804947473005,-0.805976632979807
0.335932839029253,-0.80668985160456
0.334069478018757,-0.807387905806984
0.332214701832221,-0.808070661829156
0.330368347860348,-0.808737985913156
0.32853025349384,-0.809389744301063
0.326700256123402,-0.810025803234955
0.324878193139736,-0.810646028956911
0.323063901933545,-0.81125028770901
0.321257219895532,-0.811838445733329
0.3194579844164,-0.81241036927195
0.317666032886853,-0.812965924566949
0.315881202697594,-0.813504977860405
0.314103331239325,-0.814027395394398
0.31233225590275,-0.814533043411007
0.310567814078571,-0.815021788152308
0.308809843157493,-0.815493495860382
0.307058180530217,-0.815948032777308
0.305312663587448,-0.816385265145164
0.303573129719888,-0.816805059206028
0.30183941631824,-0.81720728120198
0.300111360773208,-0.817591797375098
0.298388800475494,-0.817958473967461
0.296671572815802,-0.818307177221148
0.294959515184835,-0.818637773378237
0.293252464973295,-0.818950128680807
0.291550259571886,-0.819244109370937
0.289852736371311,-0.819519581690706
0.288159732762274,-0.819776411882192
0.286471086135476,-0.820014466187474
0.284786633881622,-0.820233610848631
0.283106213391414,-0.820433712107741
0.281429662055556,-0.820614636206884
0.27975681726475,-0.820776249388137
0.2780875164097,-0.820918417893581
0.276421596881109,-0.821041007965292
0.274758896069679,-0.821143885845351
0.273099251366115,-0.821226917775836
0.271442500161118,-0.821289969998826
0.269788479845393,-0.821332908756399
0.268137027809642,-0.821355600290634
0.266487981444568,-0.82135791084361
0.264841178140875,-0.821339706657405
0.263196455289265,-0.821300853974099
0.261553650280442,-0.82124121903577
0.259912600505109,-0.821160668084497
0.258273143353969,-0.821059067362358
0.256635116217724,-0.820936283111432
0.254998356487078,-0.820792181573799
0.253362701552735,-0.820626628991536
0.251727988805397,-0.820439491606722
0.250094055635767,-0.820230635661437
0.248460739434549,-0.819999927397758
0.246827877592445,-0.819747233057766
0.245195307500159,-0.819472418883537
0.243562866548393,-0.819175351117152
0.241930392127851,-0.818855896000688
0.240297721629236,-0.818513919776226
0.238664692443252,-0.818149288685842
0.2370311419606,-0.817761868971617
0.235396907571984,-0.817351526875628
0.233761826668108,-0.816918128639955
0.232125736639674,-0.816461540506676
0.230488474877385,-0.815981628717869
0.228849878771946,-0.815478259515615
0.227209785714057,-0.814951299141991
0.225568033094424,-0.814400613839076
0.223924458303749,-0.813826069848949
0.222278898732734,-0.813227533413689
0.220631191772083,-0.812604870775374
0.2189811748125,-0.811957948176083
0.217328685244687,-0.811286631857895
0.215673560459347,-0.810590788062889
0.214015637847184,-0.809870283033143
0.2123547547989,-0.809124983010736
0.210690748705199,-0.808354754237746
0.209023456956784,-0.807559462956253
0.207352716944357,-0.806738975408336
0.205678366058623,-0.805893157836072
0.204000241690283,-0.805021876481541
0.202318181230042,-0.804124997586821
0.200632022068602,-0.803202387393992
0.198941601596666,-0.802253912145131
0.197246757204938,-0.801279438082318
0.19554732628412,-0.800278831447631
0.193843146224915,-0.79925195848315
0.192134054418028,-0.798198685430952
0.19041988825416,-0.797118878533117
0.188700485124015,-0.796012404031723
0.186975682418296,-0.794879128168849
0.185245317527706,-0.793718917186574
0.183509227842949,-0.792531637326976
0.181767250754726,-0.791317154832134
0.180019223653743,-0.790075335944128
0.1782649839307,-0.788806046905035
0.176504368976302,-0.787509153956934
0.174737216181252,-0.786184523341905
0.172963362936253,-0.784832021302026
0.171182646632007,-0.783451514079375
0.169394904659219,-0.782042867916031
0.16759997440859,-0.780605949054073
0.165797693270825,-0.779140623735581
0.163987898636626,-0.777646758202632
0.162170427896696,-0.776124218697305
0.160345118441739,-0.774572871461678
0.158511807662457,-0.772992582737832
0.156670332949554,-0.771383218767845
0.154820531693733,-0.769744645793794
0.152962241285696,-0.768076730057759
0.151095299116148,-0.766379337801819
0.149219542575791,-0.764652335268053
0.147334809055327,-0.762895588698538
0.145440935945461,-0.761108964335354
0.143537760636895,-0.75929232842058
0.141625120520333,-0.757445547196295
0.139702852986477,-0.755568486904576
0.137770795426031,-0.753661013787503
0.135828785229697,-0.751722994087155
0.13387665978818,-0.74975429404561
0.131914256492181,-0.747754779904946
0.129941412732404,-0.745724317907244
0.127957965899552,-0.743662774294581
0.125963753384329,-0.741570015309036
0.123958612577437,-0.739445907192688
0.121942380869579,-0.737290316187616
0.119914895651458,-0.735103108535898
0.117875994313779,-0.732884150479613
0.115825514247243,-0.73063330826084
0.113763292842553,-0.728350448121657
0.111689167490414,-0.726035436304144
0.109602975581528,-0.72368813905038
0.107504554506597,-0.721308422602441
0.105393741656326,-0.718896153202408
0.103270374421417,-0.716451197092359
0.101134290192573,-0.713973420514374
0.0989853263604983,-0.71146268971053
0.0968233203158946,-0.708918870922906
0.0946481094494658,-0.706341830393582
0.0924595311519146,-0.703731434364636
0.0902574228139443,-0.701087549078146
0.0880416218262579,-0.698410040776192
0.0858119655795585,-0.695698775700851
0.0835682914645494,-0.692953620094204
0.0813104368719333,-0.690174440198328
0.0790382391924137,-0.687361102255302
0.0767515358166935,-0.684513472507206
0.0744501641354758,-0.681631417196117
0.0721339615394637,-0.678714802564114
0.0698027654193603,-0.675763494853277
0.0674564131658687,-0.672777360305684
0.065094742169692,-0.669756265163413
0.0627175898215334,-0.666700075668544
0.0603247935120958,-0.663608658063155
0.0579161906320825,-0.660481878589325
0.0554916185721964,-0.657319603489132
0.0530509147231409,-0.654121699004656
0.0505939164756187,-0.650888031377975
0.0481204612203331,-0.647618466851168
0.0456303863479872,-0.644312871666313
0.0431235292492841,-0.64097111206549
0.0405997273149268,-0.637593054290776
0.0380588179356186,-0.634178564584252
0.0355006385020624,-0.630727509187994
0.0329250264049614,-0.627239754344084
0.0303318190350186,-0.623715166294597
0.0277208537829373,-0.620153611281615
0.0250919680394203,-0.616554955547215
0.022444999195171,-0.612919065333476
0.0197797846408922,-0.609245806882477
0.0170961617672873,-0.605535046436297
0.0143939679650592,-0.601786650237014
0.011673040624911,-0.598000484526707
0.00893321713754583,-0.594176415547454
0.00617433489366689,-0.590314309541336
0.00339623128397706,-0.586414032750429
0.000598743699179699,-0.582475451416814
-0.00221829047002238,-0.578498431782568
-0.00505503383292578,-0.574482840089771
-0.00791164899882772,-0.570428542580501
-0.0107882985770248,-0.566335405496837
-0.0136851451768142,-0.562203295080857
-0.0166023514074925,-0.558032077574641
-0.019540079878357,-0.553821619220267
-0.0224984931987042,-0.549571786259814
-0.0254777539778314,-0.545282444935361
-0.0284780248250352,-0.540953461488986
-0.0314994683496126,-0.536584702162767
-0.0345422471608604,-0.532176033198785
-0.0376065238680758,-0.527727320839117
-0.0406924610805554,-0.523238431325843
-0.0438002214075963,-0.51870923090104
-0.0469299674584953,-0.514139585806788
-0.0500818618425493,-0.509529362285166
-0.0532560671690551,-0.504878426578251
-0.05645274604731,-0.500186644928124
-0.0596720610866103,-0.495453883576862
-0.0629141748962535,-0.490680008766545
-0.0661792500855361,-0.485864886739251
-0.0694674492637553,-0.481008383737058
-0.0727789350402076,-0.476110366002047
-0.0761138700241904,-0.471170699776294
-0.0794724168250002,-0.46618925130188
-0.0828547380519341,-0.461165886820882
-0.0862609963142889,-0.45610047257538
-0.0896913542213616,-0.450992874807452
-0.0931459743824491,-0.445842959759177
-0.0966250194068482,-0.440650593672633
-0.100128651903856,-0.4354156427899
-0.103657034482769,-0.430137973353057
-0.107210329752885,-0.424817451604181
-0.110788700323499,-0.419453943785352
-0.114392308803911,-0.414047316138648
-0.118021317803415,-0.408597434906148
-0.121675889931309,-0.403104166329931
-0.12535618779689,-0.397567376652076
-0.129062374009454,-0.391986932114661
-0.1327946111783,-0.386362698959765
-0.136553061912723,-0.380694543429467
-0.140337888822021,-0.374982331765845
-0.144149254515489,-0.369225930210978
-0.147987321602427,-0.363425205006945
-0.151852252692129,-0.357580022395826
-0.155744210393894,-0.351690248619697
-0.159663357317018,-0.345755749920639
-0.163609856070797,-0.339776392540729
-0.16758386926453,-0.333752042722047
-0.171585559507512,-0.327682566706672
-0.17561508940904,-0.321567830736681
-0.179672621578413,-0.315407701054155
-0.183758318624925,-0.309202043901171
-0.187872343157876,-0.302950725519808
-0.19201485778656,-0.296653612152145
-0.196186025120275,-0.290310570040261
-0.200386007768319,-0.283921465426235
-0.204614968339987,-0.277486164552144
-0.208873069444578,-0.271004533660069
-0.213160473691387,-0.264476438992087
-0.217477343689711,-0.257901746790278
-0.221823842048849,-0.251280323296719
-0.226200131378096,-0.244612034753491
-0.230606374286749,-0.237896747402671
-0.235042733384105,-0.231134327486339
-0.239509371279462,-0.224324641246573
-0.244006450582115,-0.217467554925451
-0.248534133901363,-0.210562934765053
-0.253092583846502,-0.203610647007457
-0.257681963026828,-0.196610557894742
-0.262302434051639,-0.189562533668988
-0.266954159530232,-0.182466440572271
-0.271637302071903,-0.175322144846672
-0.27635202428595,-0.168129512734268
-0.281098488781668,-0.160888410477139
-0.285876858168357,-0.153598704317364
-0.290687295055311,-0.146260260497021
-0.295529962051828,-0.138872945258188
-0.300405021767205,-0.131436624842946
-0.305312636810739,-0.123951165493371
-0.310252969791727,-0.116416433451544
-0.315226183319465,-0.108832294959542
-0.320232440003251,-0.101198616259445
-0.325271902452381,-0.0935152635933307
-0.330344733276153,-0.0857821032032789
-0.335451095083863,-0.0779990013313676
-0.340591150484808,-0.070165824219676
-0.345765062088285,-0.0622824381102822
-0.350972992503591,-0.0543487092452657
-0.356215104340023,-0.0463645038667046
-0.361491560206877,-0.0383296882166781
-0.366802522713452,-0.0302441285372644
-0.372148154469042,-0.0221076910705429
-0.377528618082947,-0.0139202420585915
-0.382944076164461,-0.00568164774348995
-0.388394691322883,0.00260822563268401
-0.39388062616751,0.0109495118278508
-0.399402043307637,0.0193423445999325
-0.404959105352562,0.0277868577068495
-0.410551974911582,0.036283184906524
-0.416180814593994,0.0448314599568764
-0.421845787009095,0.0534318166158288
-0.427547054766181,0.0620843886413016
-0.433284780474549,0.0707893097912169
-0.439059126743497,0.0795467138234951
-0.444870256182322,0.0883567344960584
-0.450718331400319,0.0972195055668271
-0.456603515006787,0.106135160793723
-0.462525969611022,0.115103833934668
-0.468485857822321,0.124125658747582
-0.47448334224998,0.133200768990388
-0.480518585503297,0.142329298421005
-0.486591750191569,0.151511380797356
-0.492702998924092,0.160747149877362
-0.498852494310164,0.170036739418944
-0.505040398959081,0.179380283180023
-0.51126687548014,0.188777914918521
-0.517532086482639,0.198229768392359
-0.523836194575873,0.207735977359457
-0.530179362369141,0.217296675577738
-0.536561752471738,0.226911996805123
-0.542983527492962,0.236582074799533
-0.54944485004211,0.246307043318888
-0.555945882728478,0.256087036121112
-0.562486788161364,0.265922186964124
-0.569067728950064,0.275812629605846
-0.575688867703876,0.285758497804199
-0.582350367032095,0.295759925317105
-0.58905238954402,0.305817045902484
-0.595795097848947,0.315929993318259
-0.602578654556172,0.32609890132235
-0.609403222274993,0.336323903672679
-0.616268963614707,0.346605134127166
-0.623176041184611,0.356942726443734
-0.630124617594001,0.367336814380303
-0.637114855452174,0.377787531694794
-0.644146917368428,0.38829501214513
-0.651220965952059,0.398859389489231
-0.658337163812364,0.409480797485018
-0.665495673558641,0.420159369890413
-0.672696657800184,0.430895240463337
-0.679940279146294,0.441688542961711
-0.687226700206264,0.452539411143457
-0.694556083589393,0.463447978766495
-0.701928591904978,0.474414379588748
-0.709344387762315,0.485438747368136
-0.716803633770701,0.49652121586258
-0.724306492539434,0.507661918830003
-0.73185312667781,0.518860990028324
-0.739443698795126,0.530118563215467
-0.747078371500679,0.54143477214935
-0.754757307403766,0.552809750587897
-0.762480669113683,0.564243632289028
-0.770248619239728,0.575736551010664
-0.778061320391198,0.587288640510727
-0.785918935177389,0.598900034547138
-0.793821626207598,0.610570866877818
-0.801769556091123,0.62230127126069
-0.80976288743726,0.634091381453672
-0.817801782855306,0.645941331214688
-0.825886404954558,0.657851254301658
-0.834016916344313,0.669821284472504
-0.842193479633867,0.681851555485147
-0.850416257432519,0.693942201097508
-0.858685412349564,0.706093355067508
-0.867001106994299,0.718305151153069
-0.875363503976022,0.730577723112112
-0.88377276590403,0.742911204702558
-0.892229055387618,0.755305729682328
-0.900732535036084,0.767761431809345
-0.909283367458726,0.780278444841528
-0.917881715264839,0.7928569025368
