0.189615092884258,-0.388978737592064
0.187108189162877,-0.384243673719459
0.181811772303551,-0.389559983212956
0.213460778519761,-0.400925481918274
0.174127586241896,-0.390192798066218
0.170330042373838,-0.390528372695142
0.166562130597292,-0.390876634120343
0.174628620452484,-0.378301224517596
0.159115001267738,-0.391610943343826
0.135111283131805,-0.470695248896351
0.155718131310253,-0.402824397003761
0.133761675400815,-0.351582962531049
0.139833167922287,-0.406946818289078
0.117554188905144,-0.414906104472856
0.160300136770678,-0.400734778709093
0.133976034122677,-0.394570589629841
0.12675388029948,-0.380558813628299
0.104779053567501,-0.388126635464079
0.121022997426481,-0.40368834085183
0.121821944953668,-0.364207686736761
0.123796931462792,-0.392201058977545
0.113564956260531,-0.397576388373682
0.110264288214169,-0.398118322003725
0.139068121898195,-0.390028826512702
0.104544668509413,-0.384210689621262
0.100534722272646,-0.399812982254069
0.0990022588877006,-0.405315019882616
0.0941915383487642,-0.400999453515093
0.0883296595825595,-0.394991014331735
0.103921273749392,-0.426999881537908
0.0446339026378281,-0.380728700588303
0.107558870288174,-0.408523963399584
0.0758448696333479,-0.404824988203416
0.0728861482426024,-0.405500667325467
0.0432707140244407,-0.390207970619595
0.0665964458553973,-0.402898681469046
0.0641787853499179,-0.407591631768281
0.0667125335591568,-0.432508737568564
0.00681856975161434,-0.427259148980915
0.0938289887578914,-0.426065929427354
0.0860405922339659,-0.4011156234223
0.0674552643177324,-0.391938227513695
0.0475191191750232,-0.412055067144436
0.0203034836081925,-0.416896218447252
0.0170897793098365,-0.449340519283873
0.024179826794309,-0.388068612418218
0.0255119240220551,-0.388150326102652
0.0343986237555307,-0.416052524859511
0.0506022932164861,-0.386210063622347
0.0124306393093026,-0.43290418814749
0.0268562511249202,-0.418568441043263
-0.00918279470858114,-0.436748604233943
0.0453999584503829,-0.422852472043279
-0.0373000181684399,-0.419043508171459
0.0148311266706995,-0.422951433599381
0.0125074716546238,-0.423855885412641
0.00762892574159354,-0.435448619672821
0.00569833712643084,-0.426623714385602
0.00078843476146141,-0.415618883728247
0.00642321021484251,-0.381207891811465
-0.00087642933790136,-0.394911624067367
-0.00454112896984131,-0.389732582505391
-0.0114890454933496,-0.40851253458712
-0.0157403700226887,-0.444771193311425
0.0170865691997439,-0.440654327810112
-0.0132844117613693,-0.435401433181585
-0.0037477330887543,-0.450542162915351
-0.031644976920474,-0.43239185091157
-0.0210326189958866,-0.439521476189339
-0.0229040514613813,-0.440571729522316
-0.0247493372151224,-0.441629942879833
-0.0414756577846146,-0.407892780241905
-0.0201133808620844,-0.405853168657376
-0.0742827495051469,-0.44708997170971
-0.0515015065971626,-0.48399090029832
-0.0501678354893369,-0.432770310032335
-0.0334863107053967,-0.445277557312684
-0.0401886415736523,-0.451500761051947
-0.0417752384111146,-0.452634806938254
-0.0451551809271866,-0.446253710056452
-0.0520009983797353,-0.450524262467826
-0.0463816845454894,-0.456079909468735
-0.0638887480443361,-0.432018294440234
-0.0663625083495131,-0.459933007141802
-0.0384568924346121,-0.456075047563174
-0.0535509776077471,-0.461960853021772
-0.0549090732606948,-0.463157291097271
-0.0500227149446434,-0.437498794266811
-0.0723492249395803,-0.502853180876157
-0.0588327435300326,-0.466785870982662
-0.0600905964324771,-0.46800825781763
-0.042347223627356,-0.453049581456895
-0.062531549532865,-0.470471910773692
-0.0711194030392997,-0.480935558825183
-0.0620447798378147,-0.484342810627968
-0.0806868271468606,-0.489497970652002
-0.0671158592726396,-0.475472815720052
-0.0692600241160284,-0.478008971647338
-0.0529544725681817,-0.4922559612744
-0.0405868408756402,-0.490468745704943
-0.0521486329657603,-0.475975559599153
-0.0768595123596176,-0.488378830982052
-0.0777003500983222,-0.489699272091788
-0.0800786112314473,-0.493691229583669
-0.0815444137118746,-0.496377378007772
-0.0935883737550734,-0.495480276914678
-0.0731687332499699,-0.509317186756634
-0.11890970316492,-0.481925598190954
-0.105986413874894,-0.493991357167341
-0.108899336201502,-0.505830539519209
-0.0935141790990323,-0.523047811263127
-0.108819884167893,-0.466875820032735
-0.0874521206391774,-0.510085690100992
-0.104887075994026,-0.553792558327647
-0.0718341005450516,-0.498371246084282
-0.0895510404643327,-0.482869747191112
-0.0895283921404606,-0.517098770293668
-0.0543062959302345,-0.533555484160589
-0.068611876609271,-0.482329894270854
-0.0862188595981132,-0.488155134183898
-0.0745347426886657,-0.555735648239344
-0.0893898316586799,-0.500669560502084
-0.0916536506377484,-0.528512763181119
-0.0918168015720575,-0.529954781221006
-0.114497184917955,-0.517904418542597
-0.086700093984682,-0.536711872104696
-0.114017866140098,-0.556446692735047
-0.117375284259343,-0.550487581544365
-0.0922944042099388,-0.537210972574618
-0.0923226479200331,-0.538670951548608
-0.0493970619301167,-0.533578195394636
-0.1145501458048,-0.514452946430744
-0.107800551162027,-0.552374725919352
-0.0803470230938939,-0.543405267392546
-0.128086642511288,-0.551369936108458
-0.0926770965182872,-0.540488999103935
-0.114551008964447,-0.513404460418217
-0.0577958755862931,-0.585322431217547
-0.108956988274371,-0.581885725270258
-0.0906781982026351,-0.55787633177319
-0.110666818862903,-0.539709171536173
-0.0897750429384951,-0.562358539086176
-0.0891677449722321,-0.57752434509981
-0.0824975563262782,-0.555824834533666
-0.0886783918256811,-0.566855665359155
-0.0882700781034272,-0.568357703089546
-0.0873896087084465,-0.571365860985796
-0.113552955609627,-0.590648984288315
-0.0628286027510913,-0.603218578454525
-0.0853747164735968,-0.577396588409894
-0.0925116720597807,-0.586926386312609
-0.0919436218924619,-0.580537843087019
-0.0989041021110674,-0.566971733313201
-0.0554265616943316,-0.627350707532281
-0.0823939866153516,-0.592608058422166
-0.0796179608807679,-0.591015944416228
-0.0788749488846731,-0.592531900017527
-0.0771349608313794,-0.563743938367676
-0.0594197147113555,-0.615198579902761
-0.0756985131904058,-0.598597913217912
-0.0875631687637396,-0.612977740519634
-0.0484126712233618,-0.610649438734844
-0.0587138083347612,-0.619390275316185
-0.0928450833520192,-0.618116101842765
-0.0978006570269958,-0.610354142398066
-0.0750234491143545,-0.630410918293586
-0.0683750874464353,-0.610726206616417
-0.0917533327338366,-0.55748068081271
-0.0666578815315977,-0.637125581518937
-0.0527538655069257,-0.623341953444069
-0.0468372831337071,-0.622901472996481
-0.0586164620581874,-0.624327903358453
-0.0692355669654034,-0.620851426862824
-0.0523142709950462,-0.602540619597267
-0.00815101295298029,-0.627420330615769
-0.0521019149971031,-0.631332079790819
-0.0573174692243131,-0.654199533393766
-0.0472841268750573,-0.637836369161547
-0.0459294355118659,-0.639329385518727
-0.0682092318915411,-0.607106717862289
-0.0196546394980835,-0.60615504059892
-0.02012457877774,-0.637296704361223
-0.0575795562851134,-0.634990987311078
-0.0328917222913396,-0.652675690522471
-0.0462373419664002,-0.670359042803706
-0.0352722611416316,-0.618009655340294
-0.0132738884054998,-0.617142628826764
-0.0226014139332056,-0.646873966403732
-0.0499824903077499,-0.636426513620078
-0.0320817397304544,-0.670996518173118
-0.00249283507878682,-0.693092061643592
0.000884642884881132,-0.646969761216517
0.0302342290877252,-0.662053096654646
-0.0308791858769866,-0.678321733583495
0.00272114858060158,-0.71843522934974
0.000622011057938002,-0.686254665570489
0.00520145419492319,-0.684362437897878
-0.0148653335520529,-0.666977771049544
0.0519224428857627,-0.747237996244212
0.0195317384495614,-0.717854073644155
0.0467167255942242,-0.689450695103551
0.0384026614197849,-0.683201604040209
0.0338505993666224,-0.703574931828819
0.0382129722428234,-0.706245258617413
0.0426415422759394,-0.708895362511105
0.021416394732439,-0.703448930270467
0.0939924398186252,-0.736200106689941
0.0539999280008505,-0.715428550623376
0.0563203942967667,-0.716718856507703
0.0586570057799106,-0.718003558636799
0.0309661475697343,-0.722596632130661
0.0633784622568811,-0.720555877613542
0.0657632062252073,-0.721823357453313
0.0985101360168489,-0.729055286330712
0.0969287770361903,-0.75340861467248
0.0879372815403509,-0.732957955844364
0.0816806938869345,-0.724641294800532
0.0795449323648285,-0.711369733986948
0.112613370422784,-0.744872301161476
0.105858827468312,-0.72887208293953
0.108450912505777,-0.739697039084489
0.124910385289148,-0.749214477005332
0.154133159941345,-0.731820696494877
0.144492028808795,-0.756806663936272
0.137299364799041,-0.740333681033194
0.150217391574884,-0.758905491759143
0.148466622554065,-0.7544981658777
0.174403156857039,-0.771627734192709
0.181097145837547,-0.737563959982558
0.179695727058687,-0.768904476422896
0.144836376570706,-0.732972499780101
0.178299747981178,-0.750961581701787
0.188811047248033,-0.771736567491597
0.188308248643151,-0.789063134917619
0.207409415469194,-0.777156967921127
0.217540757305737,-0.809263820195125
0.232953905169086,-0.783856808590733
0.270123865482761,-0.803558038491403
0.249769591158951,-0.762913328018629
0.285413372455166,-0.80780637296507
0.355904116278609,-0.81110833810564
0.30740121391851,-0.7989024382649
0.331124435647838,-0.816459321065852
0.33953121018104,-0.792013980063136
0.361989552377056,-0.829960929676444
0.394041758817397,-0.83143263419453
0.432088211396171,-0.794191620377803
0.414933354657414,-0.803925979467129
0.46550581611889,-0.823360292843463
0.440351050732153,-0.829499513837905
0.460038040423305,-0.805467099636158
0.440994160956939,-0.815708430468355
0.460431843228734,-0.821325110555595
