0.0398951233679617,0.298656579354041
0.0278445700496748,0.268805780144434
-0.00165965773342296,0.234455522861725
-0.0474145013621798,0.189342664813199
0.0102823510842526,0.148040286586263
-0.0490936108667495,0.147144257924346
-0.0590533184758194,0.129494781308318
-0.0766547662298377,0.138975749591756
-0.0692169399298714,0.106975010269579
-0.0437397832113425,0.115206156130995
-0.113459188063547,0.104508543966701
-0.0630171978006339,0.099700660908744
-0.0560170533014451,0.102892586831467
-0.0679641316631599,0.123349901990693
-0.201980122506009,-0.0338814541342827
-0.100679442462998,0.0233586444386328
0.0860058769111037,0.0427622602028863
-0.057982231324208,0.205312274627753
-0.115238754638213,0.105435026478449
-0.0584935920582119,0.051483098199796
0.0799366398116988,0.15803143889831
0.113118246218668,0.202386628256936
0.0632976638678641,0.209493969509647
0.218252922233493,0.108120490077849
0.138738135039745,0.209304571448928
0.0626338948792049,0.308273581023828
0.0965775232571577,0.117342933660273
0.286901915330989,0.112613452917405
0.114895755923286,0.297587407034232
0.125896819681532,0.297479952386034
0.128931990478171,0.283416171958489
0.169617308147397,0.0617706477944603
0.154275450806746,0.0361406938738782
0.282959469374443,0.120179728969511
0.39838930732,0.197239424632458
0.298240320578848,0.050110174823507
0.198799073924178,-0.10557571159105
0.199698282480862,-0.146454296395937
0.408111014678554,-0.220700347034995
0.407033378543786,-0.263981628908922
