0.530153239942085,0.227074008906893
0.519953824958198,0.236578238536668
0.466949529041017,0.242220717145407
0.457366763663944,0.266302834285204
0.437349454791026,0.298891037642429
0.453536303649869,0.312888365647367
0.405069972796525,0.366918358032506
0.400794198965795,0.338447004588218
0.363109469648179,0.359691629112152
0.344552005124346,0.371793283188051
0.346277202923035,0.346912433643067
0.307467158019742,0.392461377236734
0.260540369986909,0.425429081966917
0.286429438801326,0.396395350360096
0.303823920001752,0.410100621011488
0.233525966898034,0.42038862270851
0.197443911097431,0.463576084727068
0.196731437346781,0.428066010581249
0.201993299623944,0.460977643793722
0.16595646247622,0.41759825244835
0.141846652124507,0.432312443818737
0.147450268536812,0.471460955575125
0.130451263900978,0.437535252893491
0.086503600920477,0.480000998163597
0.0694022851296029,0.425502214815346
0.0356307236039768,0.403509121124878
0.0350552204646178,0.405763865759389
0.0157557390035716,0.411955330306371
0.000300729238411606,0.403566348662357
-0.019623660151976,0.39929749789744
-0.03280092058818,0.405877357216024
-0.0720751089001522,0.39553335605143
-0.0818272333817977,0.374651513567476
-0.0782658364809971,0.379481882098848
-0.0819134914582777,0.377402976981243
-0.12357404639976,0.346216736009546
-0.125075661411935,0.365033219196359
-0.164071534571991,0.315197867291576
-0.170299794071029,0.31383007843394
-0.190742055553306,0.300331356448261
-0.215762568808606,0.264890094183249
-0.253429771114512,0.284134914690722
-0.252380760815311,0.2710331016567
-0.255915798523561,0.247999183009837
-0.257556312688451,0.235298682596609
-0.287677552107638,0.219938344148755
-0.310353629924289,0.202922885330209
-0.311352961460138,0.21938082757893
-0.331093275281059,0.149030453135819
-0.349396287309062,0.161072753266965
-0.364427440425674,0.145937189010529
-0.374548133802193,0.115470264493482
-0.414018433155711,0.0783178651252474
-0.370951706697836,0.0894697502889221
-0.418937878685632,0.0735388200656024
-0.436998851700481,0.0690513574175569
-0.477494483219338,0.080392622941873
-0.468436665326283,0.054279340956117
-0.466827782878039,0.0416179969880724
-0.486550540374284,-0.0186658623412059
-0.504908860417588,-0.00745167836730422
-0.507613418980327,-0.0292900836720511
-0.530659495873033,-0.0372137960680979
-0.543216495406136,-0.0518104893889796
-0.555556131604005,-0.066182752652714
-0.567674541062524,-0.0803044460811985
-0.579567860377578,-0.09414942989633
-0.59123222614505,-0.107691564320006
-0.587036419328192,-0.140546997091192
-0.60845608872112,-0.127318192416007
-0.642637927128621,-0.142995586063544
-0.611788832381993,-0.142642408716705
-0.645984532624636,-0.169944603332948
-0.677340888938745,-0.204776084704163
-0.665116697543846,-0.21281009820016
-0.675841216078002,-0.201989288244662
-0.698500341618436,-0.206880645272975
-0.719168152005545,-0.237238918887816
-0.719318694380349,-0.19898090767807
-0.692367815070972,-0.282814383008837
-0.720276359419602,-0.244286418168519
-0.752753267107686,-0.2528167899319
-0.731703214503261,-0.269926020443096
-0.741329819084693,-0.262462453117376
-0.750752912823937,-0.266242447648099
-0.766966444984633,-0.259130943039805
-0.751229308196599,-0.265224594071403
-0.767926120332438,-0.265900276658926
-0.782937137678409,-0.288726212598774
-0.787278570045101,-0.249683709975938
-0.761393555801747,-0.267671479841017
-0.779850834574442,-0.289340064431404
-0.79713101032927,-0.271360021737939
-0.802715951609811,-0.247736826711995
-0.805508782242005,-0.263337374601157
-0.775547681661875,-0.261912785465935
-0.806581123668176,-0.2465883406461
-0.815396985852247,-0.23215222357932
-0.827191587190367,-0.240916067435824
-0.825936106089486,-0.221067729503564
-0.788807216700453,-0.226184514606256
-0.821394126192614,-0.197514130658892
-0.83996921499033,-0.219278294732002
-0.813357477301882,-0.17175133332588
-0.803896043867615,-0.169797844298086
-0.818005451132285,-0.16548670142413
-0.864451687183154,-0.128357147761009
-0.847297422964084,-0.137820029989248
-0.803797813812906,-0.140364334715363
-0.772967446698631,-0.118153590419477
-0.789854639435538,-0.125726511101344
-0.793391600654244,-0.113662626087186
-0.807204188986387,-0.079695818106533
-0.737891664901363,-0.0903772356134367
-0.752221614195207,-0.101143588584835
-0.740942361769226,-0.0959151849224177
-0.686479001993881,-0.118513741189991
-0.720281352723197,-0.0718387666463642
-0.693456489269162,-0.0743341422176807
-0.689161969525945,-0.0783606403488791
-0.680282744565838,-0.118759433825907
-0.659656691445334,-0.0714540324721259
-0.644096018806446,-0.0684322002273375
-0.662659686138195,-0.0969181653218407
-0.635782890542415,-0.044725055096731
-0.583627827550369,-0.0531586141026443
-0.565247742792683,-0.0516556871324974
-0.554865520319344,-0.05384922433085
-0.527049650460042,-0.063303539079543
-0.52264100025832,-0.0543683285563808
-0.537829548030894,-0.039209972055753
-0.502029102999951,-0.0465865223743345
-0.466019639806706,-0.0251960768554385
-0.486345606697178,-0.0576640542915765
-0.426018025028578,-0.0505736500772865
-0.406062085094548,-0.0503053724197966
-0.356065061551812,-0.0760728887294561
-0.3657376875182,-0.0501767450656243
-0.320465517134609,-0.0246142882349407
-0.322402475977646,-0.0505925389290398
-0.339213788439686,-0.0244162135516677
-0.280464195335168,-0.074627290444652
-0.263796832161137,-0.0517521643326933
-0.277741179382663,-0.0607854349620911
-0.223142966798798,-0.0529239606470265
-0.206672338235879,0.00056513797375872
-0.18288732893786,-0.0542811639065089
-0.135782055909981,-0.0369663796787963
-0.125812007646062,-0.0492572256275721
-0.132203942344182,-0.0271364903045145
-0.104446044439369,-0.0572208709508346
-0.085426532971553,-0.0579424113065067
-0.101101559048187,-0.0599963670463398
-0.0395548591721655,-0.0459292619454496
-0.0302235961040321,-0.0599094448454972
-0.00286539674172042,-0.0517435146772957
0.00475849655296379,-0.0609527316679005
0.0136890921631102,-0.0848430584801219
0.0302434591913857,-0.0288460039967639
0.0374985996344298,-0.0621263613766673
0.0621217979177131,-0.0395833303465288
0.0971774660703868,-0.0807689107111085
0.0985623223237101,-0.0618858307051391
0.143160540590125,-0.0231726413164373
0.115745684719458,-0.0458131030314044
0.151901164529453,-0.0834755530826338
0.16096102472184,-0.0610479952095352
0.138998340318364,-0.0661304191387124
0.176815179633012,-0.0860178147079525
0.187628526376714,-0.0497840495154443
0.190104341164437,-0.0244550205229277
0.231374129629528,-0.0869963842948228
0.174583910822816,-0.0390325573399532
0.210929096002158,-0.0489145465892599
0.231199770367762,-0.032341466126475
0.220819730763217,-0.0436633580919079
0.213757324695133,-0.0554368325272565
0.209867374714546,-0.0424168687891548
0.228480957933175,-0.0337040173408356
0.184410458368483,-0.0505373133731589
0.228486169761522,-0.0255554368070387
0.229734528227002,0.00957533427812171
0.224154264852142,-0.0161031218230009
0.220293510127118,-0.0108622107629161
0.215266416025239,-0.0052643423112005
0.217703548944055,-0.0204138777087773
0.181943808987627,-0.026789857275758
0.192913563483723,0.0137744199906336
0.208204266014361,0.00457414892235895
0.166772476813266,0.0418268494722853
0.182695548903124,0.0516637251825311
0.123068632209733,0.0712479875915997
0.0989746596781512,0.0646193574108332
0.121062948402231,0.0532290677667836
0.120376638751838,0.0812368018085359
0.075166910354401,0.0828289987767075
0.029386626489151,0.0803033990431249
0.0284024202006859,0.129055182830992
0.00710356144338992,0.116377447560575
-0.036640573164104,0.121370169566384
