-0.322764430856112,0.610492718619718
-0.20587797007175,0.710930241457542
-0.288715400547693,0.63935918778376
-0.297297325407321,0.611399535758428
-0.253703743156223,0.634018861064564
-0.149111351501675,0.741582417420684
-0.201155435073269,0.620071380270517
-0.337373537282518,0.53759720879237
-0.181525095838537,0.664665475140027
-0.214230969146071,0.644873690261778
-0.174997465934052,0.628607812285453
-0.161906640897987,0.629276057462763
-0.176676397975219,0.634436532640545
-0.136613947533696,0.630018181215205
-0.159557096175784,0.632765033470471
-0.136149769396994,0.593346670028581
-0.126347998923382,0.623019575754753
-0.0895184593943856,0.629187923642317
-0.0675706728499585,0.626876472910311
-0.0657600009100194,0.612934899544211
-0.062165057728085,0.570738452453435
-0.0398431401944906,0.648815863450949
-0.114238157085607,0.540731854870597
-0.0273174240496856,0.622426108864028
0.0247726064687092,0.65261884746561
-0.0145856080488488,0.593993947333426
-0.112162819082835,0.516090741882268
0.00237083965310226,0.606332516725806
0.0171018463722043,0.612043722272059
0.128921229970748,0.701963318893287
0.151598455499629,0.700340934168908
0.0269589652124604,0.625070168619266
0.0479957690045313,0.600832707360322
0.0556083851670409,0.617317309916437
0.0619473665139344,0.59430830097557
0.071263233591609,0.600156823685447
0.0749271703396232,0.587195280573826
-0.0619714684438356,0.48240635066556
0.0869540171221921,0.579511635106789
0.0926159680724924,0.575461449521192
0.0980467435022355,0.571275353526158
0.0233200316991124,0.440562922787099
0.108224186120348,0.56250442478363
-0.00567643279462014,0.467834067944704
0.137042998749426,0.562730979933725
0.114652180561467,0.52538392627922
0.146890914858954,0.541376261758822
0.132077736623336,0.546185313028483
0.108827535714037,0.492800896120214
0.275205309038593,0.659733345339905
0.140157851785374,0.522434017228522
0.0505838756702623,0.410087943093833
0.173161590614082,0.52216561061804
0.14868118565201,0.505511379959849
0.236688585291355,0.605272747391017
0.171292193621995,0.517601190328155
0.148428180011772,0.530144716580622
0.157281659254635,0.481496340741274
0.215842769008577,0.509299776962599
0.0512065123524254,0.383392416425399
0.177979634228269,0.456020509752239
0.162648727080638,0.479295789160476
0.168054684787968,0.426180943137522
0.17705691446772,0.45296750379171
0.161527975169942,0.432777129958703
0.193999827627655,0.435927123527052
0.165817901283438,0.422098779663565
0.27380150679632,0.518690383836679
0.290944207818312,0.519724294001067
0.153449408560102,0.360141634523429
0.133578282529822,0.378180422701416
0.164584312513356,0.386363279657909
0.163860689564504,0.379015321372999
0.135080440380713,0.362978212789348
0.16195537511256,0.364136535471099
0.203840186074921,0.396782584459409
0.159774542402649,0.32694446061755
0.177673308279284,0.325384392605193
0.156378400233787,0.333710447669923
0.151222979237967,0.341205175842431
0.0776520749427937,0.188402413909103
0.150724285619025,0.310376761818647
0.171201265648298,0.2820432684537
0.146289535788544,0.294609881487758
0.127004162923549,0.243468759049574
0.141344489968912,0.278695116456487
0.12694590729891,0.260735081716435
0.149154259401769,0.255098050789795
0.0101869924741115,0.132752851607033
0.0240469075808238,0.104404582001358
0.126872945921197,0.238379260809654
0.101927928042892,0.256563147503335
0.120290202684217,0.222088562321667
0.0943661491854785,0.193725604695516
0.113281928340761,0.20573092941594
0.10962410345429,0.197532634103829
0.101699276111484,0.231709917358479
0.0878192773608526,0.158508066463506
-0.00125490575979202,0.0677123803294166
0.164593607739123,0.291271085688609
0.0898922850774791,0.156436313709299
0.0515523560116468,0.181666993600997
0.0966800285961023,0.146770406262021
0.115778756018623,0.163445327456792
0.101076191642477,0.100442896174833
0.0535918634037845,0.114582670407672
0.0633509809173095,0.107186890504135
0.0329400177443681,0.0977987162286596
0.053891414765163,0.0908644073217776
0.0634918097756882,0.0857580245625799
0.0592364121635236,0.0531834668861651
0.0445639055940298,0.0367781267482057
0.0574791443061481,0.0532925743884179
0.0915088236038243,0.0366266389256289
0.00743705570245286,0.0452489697375437
0.0187421995804986,0.0344599640963366
-0.000477122809279962,0.0486005642925532
0.0564691830228881,0.00919928998262804
0.00763495567592637,-0.00705264540430697
0.0806287180514502,0.137899499129367
-0.115604821628435,-0.112178179398412
-0.130614876452527,-0.155059665101973
-0.0189661599147621,-0.0202302321759244
-0.0416408546060205,-0.0292636415006011
-0.025701803271742,-0.0117289174804239
-0.0106885790329683,-0.0378501584976157
-0.0260504130826008,-0.0864497709861411
-0.0470201552445633,-0.0578178815309209
-0.0527122900528763,-0.0651585017000342
-0.0584260427551334,-0.0724349051909403
-0.0757558433675489,-0.0709685946368418
-0.0680481883197958,-0.0994425614625152
-0.0932021573739863,-0.104913756146312
-0.0947871175452484,-0.0939625328759025
-0.156943096405907,-0.182551891404829
-0.0930306782573437,-0.114618853232135
-0.0988298279751298,-0.121382778644646
-0.0820493716413781,-0.129380415029343
-0.105081771501435,-0.174314633768945
-0.101220639692597,-0.106580208968923
-0.122030693579029,-0.147593937806011
-0.103027380311217,-0.0895962020056359
-0.0177368057089947,-0.0506354705113576
-0.163968789494472,-0.199097947229775
-0.15676146779749,-0.187312659278301
-0.164914554858596,-0.171228362731147
-0.148007247658311,-0.215371884251504
-0.196815489867369,-0.189804273817951
-0.0489060797218106,-0.0936746270592374
-0.108267962122128,-0.0923144592254761
-0.179238621692056,-0.206423021651867
-0.199614943885659,-0.230622241158883
-0.286361442409445,-0.309961371860511
-0.199830243391784,-0.214200480588506
-0.201408529126095,-0.226897361581524
-0.184496839873161,-0.206054921009937
-0.369778022888218,-0.339655700755845
-0.218591794112181,-0.245975364252578
-0.222944817552331,-0.245408809171551
-0.320411217091133,-0.367092198788438
-0.281611746246957,-0.232438051731052
-0.211621896607843,-0.229390240912972
-0.233951994798443,-0.267827133519547
-0.235597769134387,-0.260290062628662
-0.16275273732306,-0.174969176894755
-0.278202522746835,-0.272177824947795
-0.303917972211968,-0.255802465187222
-0.270076610674724,-0.244088331102078
-0.289850988441811,-0.244124600945828
-0.299985143363027,-0.288011192928387
-0.294226455027606,-0.311517577667075
-0.388988870132651,-0.405461887968171
-0.291156445369061,-0.292663374640915
-0.329746248079049,-0.273417479178641
-0.299739918684148,-0.296947443863643
-0.326735737917887,-0.294564128149835
-0.339555907212902,-0.298387366148565
-0.325704575583186,-0.304405826832483
-0.293170191665403,-0.293179074498559
-0.299512792192765,-0.275455833249343
-0.303633335494011,-0.293943027765663
-0.32692763696463,-0.306542559407782
-0.36058134125681,-0.296808736305258
-0.334283986144081,-0.294878901049262
-0.337078985079273,-0.307948821914959
-0.340245430043819,-0.308040295562443
-0.343299281838075,-0.307939381250869
-0.315484189617035,-0.302003938441657
-0.341814981429898,-0.301462380757868
-0.32923482820531,-0.248514671347853
-0.369017515361703,-0.299335185489017
-0.459265570893353,-0.412999727509845
-0.359126079543336,-0.303167825579327
-0.361325850903474,-0.301657234223406
-0.390139966442703,-0.264444892440572
-0.41209497949924,-0.318139666076024
-0.367127167798278,-0.295854204215254
-0.463070172050445,-0.391774229411512
-0.370306168939397,-0.290903651403209
-0.342904677437289,-0.28350480575351
-0.387096023890319,-0.29851590929917
-0.384802096532209,-0.236079174958116
-0.508277975182214,-0.378575152891616
-0.387458341649112,-0.292634612949518
-0.378680872103497,-0.264496879065306
-0.409389131503333,-0.253157712218171
-0.378323124466396,-0.269652140138417
-0.371554895765609,-0.275692861412306
-0.404848487403287,-0.274689015649007
-0.369129050212222,-0.257372992724898
-0.380862856742201,-0.259626657767114
-0.277788617468422,-0.152323364067229
-0.381715572651933,-0.254968816773714
-0.366644034215612,-0.264208314846016
-0.382540932454502,-0.250662950092206
-0.39928298178967,-0.292113272264554
-0.382624114716682,-0.246314567373509
-0.38269068726129,-0.244281749841804
-0.390430812917241,-0.236780263004035
-0.382637703657396,-0.240364544195773
-0.382520018043975,-0.238477737691553
-0.381711125308544,-0.278728662416731
-0.275107174905077,-0.124198890364714
-0.387979769698587,-0.241481755373554
-0.381463139756411,-0.231380939251191
-0.392230789452914,-0.240380389776481
-0.38059611285787,-0.228085867847653
-0.3651969302803,-0.246526007988115
-0.379513336976589,-0.224946783575769
-0.370331244101968,-0.230639128219367
-0.336690027477787,-0.244686985108681
-0.379956584576637,-0.226840453218548
-0.376730466827107,-0.219097882188634
-0.386098283056162,-0.214035478930203
-0.375045336839555,-0.216368717954219
-0.389949103264339,-0.2177411587266
-0.373174386430562,-0.213756846613131
-0.368239594911903,-0.229506452341926
-0.386662732102577,-0.195422839376885
-0.254213527163676,-0.108368269195458
-0.350879984474295,-0.18438800278282
-0.366203459807799,-0.198771702659444
-0.381214639659854,-0.205730687778929
-0.362572700940278,-0.207323199584252
-0.363982023386683,-0.204288818990408
-0.339313935006839,-0.198989126246252
-0.360044816469445,-0.187885157588457
-0.360895977433807,-0.20627296812754
-0.358465454984545,-0.200007049989879
-0.357000571315679,-0.198970616962275
-0.211562724029448,-0.139356070608544
-0.236861086481654,-0.0896812251268509
-0.387088907266656,-0.213794912714523
-0.350826128393112,-0.194924645893541
-0.351206057660867,-0.205564592197973
-0.343790153453869,-0.160182355771744
-0.345890830032863,-0.191961059227219
-0.344192725117125,-0.190980251134006
-0.364724095834842,-0.194414521991912
-0.237179987941362,-0.0980768766411539
-0.302955740963976,-0.184879844263636
-0.341679829000488,-0.162996286784999
-0.437964660335083,-0.286993087189521
-0.35311279662266,-0.193802469122191
-0.352215359522731,-0.208001348923871
-0.375904517433363,-0.19470453790939
-0.320172605709463,-0.173430734003933
-0.335803509224261,-0.188244765322294
-0.338834253786969,-0.195428610484548
-0.321604711603234,-0.153424947149618
-0.412803669407049,-0.271514578903845
-0.345942840295598,-0.151313952946032
-0.393227097404647,-0.295176189201238
-0.330648481179663,-0.136493070140504
-0.312775343313523,-0.178012739906844
-0.326171784718332,-0.181256835149925
-0.273764257106378,-0.191584336540606
-0.30623630272684,-0.170073325291435
-0.299654080486122,-0.126391832188589
-0.31527549141998,-0.182828447507002
-0.343179549640912,-0.153602353452245
-0.308488316163003,-0.170665440457939
-0.290029854505437,-0.179321096605514
-0.295479113330833,-0.164959924832924
-0.291979015027062,-0.161108547512411
-0.267716269666118,-0.131026125755452
-0.320418864893615,-0.137618119768562
-0.314094292982912,-0.154272665201966
-0.285466867703607,-0.158997161819238
-0.285099090883302,-0.135144558066033
-0.279758346830065,-0.152225847369452
-0.39442574420957,-0.29226205551081
-0.275722173592608,-0.148970711851316
-0.273715304958101,-0.147282533564268
-0.271717162003129,-0.145552335998637
-0.241842207573416,-0.15925415211036
-0.263273143085029,-0.139258087013752
-0.280416435596371,-0.156467500735601
-0.263344835128728,-0.162897473577236
-0.221004446819782,-0.141457488420871
-0.268928458049793,-0.138754120992917
-0.225388035019266,-0.140378152576083
-0.262232090774591,-0.12982617687642
-0.254280850131672,-0.12789017320531
-0.252421403686786,-0.125673277131717
-0.261855768579524,-0.0976795684162923
-0.265105595012863,-0.137467053750504
-0.248726877029265,-0.127571957434082
-0.268774347336957,-0.105933305915751
-0.259606933990614,-0.0738250509729343
-0.243026255387,-0.0814759169813686
-0.239990034984355,-0.108538317855249
-0.255283756518823,-0.0949445518835956
-0.240630766447471,-0.108538956771132
-0.244446756409811,-0.104417353390584
-0.277004607816028,-0.10522877541374
-0.350343773809207,-0.221228935287127
-0.230319276933907,-0.0913793227202472
-0.210391767812592,-0.0843992671981355
-0.131560661933145,0.00986852103244623
-0.24315517662024,-0.0571010547357107
-0.250705289349306,-0.088815863696484
-0.229092655994081,-0.10026989983162
-0.22177071450181,-0.0716628891214033
-0.220469241339277,-0.0681098375475709
-0.204145154051089,-0.0766476759415813
-0.217980387201633,-0.0607640122390695
-0.216794876761604,-0.056968820114505
-0.218900462633131,-0.0537239977257967
-0.214546365476833,-0.04912783095001
-0.213485235167172,-0.045079615520184
-0.208746745998209,-0.0629937761972216
-0.287799012551437,-0.150944010024867
-0.210565568779578,-0.0324095755010193
-0.157757143162783,-0.0192282373410355
-0.194274414372594,-0.0339241325935391
-0.208061129822419,-0.0189260517934228
-0.330622095914184,-0.122949506741582
-0.318270689093053,-0.076980634071664
-0.201322945115026,-0.00337005023010886
-0.205411433034332,0.000373827985160238
-0.318862265137674,-0.0984047868400981
-0.185810122110792,0.0383618319769577
-0.166698334430302,0.0179459275875841
-0.207842488132242,0.0246487573049561
-0.231158332559428,0.0299004139540371
-0.215037315612488,0.0502991828577661
-0.169239478818845,0.0554378249296609
-0.224085215776783,0.05250783183869
-0.211767466461828,0.0506045990440518
-0.202605956295847,0.0557124156031504
-0.203634023519036,0.0535148649325744
-0.213484343967308,0.070975664559507
-0.202931459223521,0.0744223696351972
-0.110836440599551,0.180921506138799
-0.215406306824076,0.0930212918698795
-0.300290747313892,-0.0193448819969934
-0.204277611956541,0.100978611577271
-0.204783268976279,0.107913168463514
-0.187245543100243,0.146547929423319
-0.207013898785128,0.140350934909004
-0.199184897568109,0.121598136775194
-0.203969767663424,0.0986140318860452
-0.19532277469627,0.143126119369721
-0.209309824921789,0.152095787558036
-0.240872361533957,0.186971410832908
-0.209569996814034,0.158573929628725
-0.237122624978574,0.194658366421747
-0.177327670897219,0.186440073870301
-0.231024642370096,0.195601989450855
-0.13975562321424,0.287239121827505
-0.218023391958019,0.209478697412514
-0.322631727441741,0.114453814904681
-0.199207968144677,0.263508432247974
-0.118457239418115,0.398147792201408
-0.224778881285133,0.245241731985348
-0.219216635618921,0.227088784922779
-0.32522489429406,0.15819089091959
-0.232641755394384,0.223574574887112
-0.172158202291709,0.282630300007803
-0.229034298747805,0.27684585607479
-0.235171981250313,0.265796753324881
-0.243715977595626,0.307893556632525
-0.24244976271946,0.323621506293907
-0.243506245078234,0.331576393732308
-0.247777775309124,0.344700734210875
-0.256312623703676,0.326544317585522
-0.214575911933293,0.368033274526797
-0.256482909562001,0.377472088177
-0.352251394855384,0.287585109720376
-0.26277265409748,0.400102106155922
-0.255926810727841,0.412538464467819
-0.237794029809289,0.399697356776322
-0.196961036246393,0.544693785697091
-0.267537074268504,0.462186556827333
-0.304528802984204,0.461031593658164
-0.284058535408582,0.47185432285531
-0.242109149595877,0.526669659256805
-0.291984318881587,0.49709136120792
-0.266918907300792,0.492699451354325
