0.644061949590597,0.182873015720952
-0.54718002574941,-0.46007160374715
-0.0162284533325181,-0.00969998837170261
-0.602631102386711,-0.189194851352569
-1.1890337514409,-0.368689714333436
0.884818964009965,-0.00946548726325114
0.780187763218646,-0.2670707581999
