0.54517692468456,0.611711019482622
0.534533158968591,0.601746887816265
0.523974852316204,0.591839176563202
0.513501653228484,0.581987699934205
0.503113210206512,0.57219227214005
0.492809171751372,0.562452707391511
0.482589186364145,0.552768819899362
0.472452902545913,0.543140423874378
0.462399968797761,0.533567333527333
0.45243003362077,0.524049363069002
0.442542745516022,0.514586326710159
0.4327377529846,0.505178038661578
0.423014704527587,0.495824313134034
0.413373248646065,0.486524964338301
0.403813033841116,0.477279806485153
0.394333708613824,0.468088653785365
0.38493492146527,0.458951320449712
0.375616320896537,0.449867620688967
0.366377555408708,0.440837368713906
0.357218273502865,0.431860378735302
0.34813812368009,0.422936464963929
0.339136754441467,0.414065441610564
0.330213814288078,0.405247122885978
0.321368951721004,0.396481323000948
0.312601815241329,0.387767856166248
0.303912053350135,0.379106536592651
0.295299314548505,0.370497178490932
0.286763247337521,0.361939596071866
0.278303500218266,0.353433603546227
0.269919721691822,0.34497901512479
0.261611560259272,0.336575645018328
0.253378664421697,0.328223307437617
0.245220682680182,0.31992181659343
0.237137263535808,0.311670986696542
0.229128055489657,0.303470631957728
0.221192707042812,0.295320566587761
0.213330866696357,0.287220604797417
0.205542182951372,0.279170560797469
0.197826304308942,0.271170248798692
0.190182879270147,0.26321948301186
0.182611556336071,0.255318077647749
0.175111984007797,0.247465846917131
0.167683810786406,0.239662605030782
0.160326685172981,0.231908166199476
0.153040255668606,0.224202344633988
0.145824170774361,0.216544954545091
0.13867807899133,0.20893581014356
0.131601628820596,0.20137472564017
0.12459446876324,0.193861515245694
0.117656247320346,0.186395993170908
0.110786612992995,0.178977973626586
0.103985214282271,0.171607270823501
0.097251699689255,0.16428369897243
0.0905857177150309,0.157007072284145
0.0839869168606804,0.149777204969421
0.0774549456272863,0.142593911239033
0.0709894525159311,0.135457005303756
0.0645900860276972,0.128366301374362
0.0582564946636671,0.121321613661628
0.0519883269249233,0.114322756376327
0.0457852313125484,0.107369543729233
0.0396468563276249,0.100461789931122
0.0335728504712352,0.0935993091927664
0.0275628622444618,0.0867819157249421
0.0216165401483875,0.0800094237384231
0.0157335326840945,0.0732816474439837
0.00991348835266526,0.0665984010523983
0.00415605565518239,0.0599594987744412
-0.00153911690727145,0.0533647548208871
-0.00717238083361388,0.0468139834025101
-0.0127440876227625,0.0403069987300846
-0.0182545887736347,0.0338436150143853
-0.0237042357851479,0.0274236464661862
-0.0290933801562197,0.021046907296262
-0.0344223733857676,0.0147132117153868
-0.0396915669727091,0.00842237393433529
-0.0449013124159616,0.00217420816388178
-0.0500519612144427,-0.00403147138519938
-0.0551438648670698,-0.010194850502134
-0.0601773748727604,-0.0163161149761473
-0.0651528427304321,-0.0223954505964651
-0.0700706199390024,-0.028433043152313
-0.0749310579973886,-0.0344290784329165
-0.0797345084045083,-0.0403837422275014
-0.0844813226592791,-0.0462972203252932
-0.0891718522606184,-0.0521696985155174
-0.0938064487074437,-0.0580013625873997
-0.0983854634986725,-0.0637923983301658
-0.102909248133222,-0.0695429915330412
-0.107378154110011,-0.0752533279852514
-0.111792532927955,-0.0809235934760222
-0.116152736085972,-0.0865539737945792
-0.120459115082981,-0.0921446547301478
-0.124712021417898,-0.0976958220719538
-0.128911806589641,-0.103207661609223
-0.133058822097128,-0.10868035913118
-0.137153419439275,-0.114114100427052
-0.141195950115001,-0.119509071286064
-0.145186765623223,-0.12486545749744
-0.149126217462858,-0.130183444850408
-0.153014657132825,-0.135463219134193
-0.156852436132039,-0.140704966138019
-0.16063990595942,-0.145908871651114
-0.164377418113884,-0.151075121462701
-0.168065324094349,-0.156203901362008
-0.171703975399732,-0.16129539713826
-0.175293723528951,-0.166349794580681
-0.178834919980923,-0.171367279478499
-0.182327916254567,-0.176348037620938
-0.185773063848798,-0.181292254797223
-0.189170714262536,-0.186200116796582
-0.192521218994697,-0.191071809408239
-0.195824929544199,-0.19590751842142
-0.199082197409959,-0.20070742962535
-0.202293374090895,-0.205471728809255
-0.205458811085924,-0.210200601762361
-0.208578859893964,-0.214894234273893
-0.211653872013933,-0.219552812133077
-0.214684198944747,-0.224176521129139
-0.217670192185325,-0.228765547051303
-0.220612203234583,-0.233320075688797
-0.22351058359144,-0.237840292830844
-0.226365684754812,-0.242326384266672
-0.229177858223618,-0.246778535785505
-0.231947455496775,-0.251196933176569
-0.2346748280732,-0.25558176222909
-0.23736032745181,-0.259933208732293
-0.240004305131524,-0.264251458475405
-0.242607112611259,-0.268536697247649
-0.245169101389932,-0.272789110838253
-0.24769062296646,-0.277008885036442
-0.250172028839762,-0.281196205631441
-0.252613670508755,-0.285351258412476
-0.255015899472356,-0.289474229168773
-0.257379067229482,-0.293565303689557
-0.259703525279052,-0.297624667764053
-0.261989625119983,-0.301652507181488
-0.264237718251191,-0.305649007731087
-0.266448156171596,-0.309614355202076
-0.268621290380113,-0.31354873538368
-0.270757472375662,-0.317452334065124
-0.272857053657158,-0.321325337035635
-0.27492038572352,-0.325167930084438
-0.276947820073666,-0.328980299000759
-0.278939708206512,-0.332762629573823
-0.280896401620976,-0.336515107592856
-0.282818251815976,-0.340237918847083
-0.284705610290429,-0.343931249125731
-0.286558828543253,-0.347595284218024
-0.288378258073364,-0.351230209913188
-0.290164250379682,-0.354836212000449
-0.291917156961122,-0.358413476269033
-0.293637329316603,-0.361962188508165
-0.295325118945043,-0.36548253450707
-0.296980877345358,-0.368974700054975
-0.298604956016466,-0.372438870941104
-0.300197706457284,-0.375875232954685
-0.301759480166731,-0.379283971884941
-0.303290628643723,-0.382665273521099
-0.304791503387179,-0.386019323652384
-0.306262455896015,-0.389346308068023
-0.307703837669149,-0.392646412557239
-0.309116000205498,-0.39591982290926
-0.310499295003981,-0.399166724913311
-0.311854073563514,-0.402387304358617
-0.313180687383015,-0.405581747034404
-0.314479487961402,-0.408750238729898
-0.315750826797592,-0.411892965234324
-0.316995055390502,-0.415010112336907
-0.318212525239051,-0.418101865826874
-0.319403587842155,-0.42116841149345
-0.320568594698731,-0.424209935125861
-0.321707897307699,-0.427226622513332
-0.322821847167974,-0.430218659445089
-0.323910795778475,-0.433186231710357
-0.324975094638119,-0.436129525098362
-0.326015095245824,-0.439048725398329
-0.327031149100506,-0.441944018399485
-0.328023607701084,-0.444815589891055
-0.328992822546475,-0.447663625662264
-0.329939145135596,-0.450488311502339
-0.330862926967365,-0.453289833200504
-0.3317645195407,-0.456068376545985
-0.332644274354517,-0.458824127328008
-0.333502542907736,-0.461557271335799
-0.334339676699272,-0.464267994358582
-0.335156027228043,-0.466956482185585
-0.335951945992967,-0.469622920606031
-0.336727784492962,-0.472267495409148
-0.337483894226945,-0.47489039238416
-0.338220626693833,-0.477491797320293
-0.338938333392544,-0.480071896006773
-0.339637365821995,-0.482630874232825
-0.340318075481105,-0.485168917787676
-0.340980813868789,-0.487686212460549
-0.341625932483967,-0.490182944040672
-0.342253782825555,-0.49265929831727
-0.34286471639247,-0.495115461079568
-0.343459084683632,-0.497551618116792
-0.344037239197955,-0.499967955218167
-0.34459953143436,-0.50236465817292
-0.345146312891762,-0.504741912770275
-0.345677935069079,-0.507099904799459
-0.34619474946523,-0.509438820049697
-0.34669710757913,-0.511758844310214
-0.347185360909699,-0.514060163370237
-0.347659860955853,-0.51634296301899
-0.348120959216509,-0.5186074290457
-0.348569007190586,-0.520853747239592
-0.349004356377001,-0.523082103389892
-0.349427358274671,-0.525292683285824
-0.349838364382514,-0.527485672716616
-0.350237726199447,-0.529661257471492
-0.350625795224387,-0.531819623339678
-0.351002922956254,-0.5339609561104
-0.351369460893962,-0.536085441572883
-0.351725760536431,-0.538193265516353
-0.352072173382578,-0.540284613730035
-0.35240905093132,-0.542359672003156
-0.352736744681575,-0.54441862612494
-0.35305560613226,-0.546461661884613
-0.353365986782293,-0.548488965071401
-0.353668238130591,-0.55050072147453
-0.353962711676072,-0.552497116883225
-0.354249758917653,-0.554478337086712
-0.354529731354251,-0.556444567874216
-0.354802980484785,-0.558395995034962
-0.355069857808172,-0.560332804358178
-0.355330714823329,-0.562255181633087
-0.355585903029173,-0.564163312648917
-0.355835773924623,-0.566057383194891
-0.356080679008595,-0.567937579060237
-0.356320969780007,-0.569804086034179
-0.356556997737777,-0.571657089905943
-0.356789114380822,-0.573496776464756
-0.35701767120806,-0.575323331499841
-0.357243019718408,-0.577136940800425
-0.357465511410784,-0.578937790155735
-0.357685497784105,-0.580726065354994
-0.357903330337288,-0.582501952187429
-0.358119360569252,-0.584265636442265
-0.358333939978913,-0.586017303908729
-0.358547420065189,-0.587757140376045
-0.358760152326998,-0.589485331633439
-0.358972488263257,-0.591202063470137
-0.359184779372883,-0.592907521675365
-0.359397377154795,-0.594601892038348
-0.359610633107909,-0.596285360348311
-0.359824898731143,-0.59795811239448
-0.360040525523415,-0.599620333966082
-0.360257864983642,-0.601272210852341
-0.360477268610742,-0.602913928842483
-0.360699087903631,-0.604545673725734
-0.360923674361228,-0.606167631291318
-0.36115137948245,-0.607779987328463
-0.361382554766215,-0.609382927626394
-0.361617551711439,-0.610976637974335
-0.361856721817042,-0.612561304161513
-0.362100416581939,-0.614137111977154
-0.362348987505048,-0.615704247210482
-0.362602786085288,-0.617262895650724
-0.362862163821575,-0.618813243087105
-0.363127472212827,-0.620355475308851
-0.363399062757962,-0.621889778105187
-0.363677286955897,-0.623416337265339
-0.363962496305549,-0.624935338578533
-0.364255042305836,-0.626446967833993
-0.364555276455675,-0.627951410820947
-0.364863550253985,-0.629448853328619
-0.365180215199682,-0.630939481146235
-0.365505622791684,-0.63242348006302
-0.365840124528908,-0.633901035868201
-0.366184071910272,-0.635372334351002
-0.366537816434694,-0.63683756130065
-0.366901709601091,-0.63829690250637
-0.36727610290838,-0.639750543757388
-0.367661347855479,-0.641198670842929
-0.368057795941305,-0.642641469552218
-0.368465798664776,-0.644079125674482
-0.36888570752481,-0.645511824998946
-0.369317874020323,-0.646939753314836
-0.369762649650234,-0.648363096411377
-0.37022038591346,-0.649782040077795
-0.370691434308918,-0.651196770103315
-0.371176146335526,-0.652607472277163
-0.371674873492202,-0.654014332388565
-0.372187967277862,-0.655417536226746
-0.372715779191425,-0.656817269580933
-0.373258660731807,-0.658213718240349
-0.373816963397927,-0.659607067994222
-0.374391038688701,-0.660997504631777
-0.374981238103048,-0.662385213942238
-0.375587913139885,-0.663770381714833
-0.376211415298129,-0.665153193738786
-0.376852096076698,-0.666533835803324
-0.377510306974509,-0.667912493697671
-0.37818639949048,-0.669289353211053
-0.378880725123529,-0.670664600132697
-0.379593635372572,-0.672038420251826
-0.380325481736527,-0.673410999357669
-0.381076615714312,-0.674782523239448
-0.381847388804844,-0.676153177686392
-0.382638152507042,-0.677523148487724
-0.383449258319821,-0.678892621432671
-0.3842810577421,-0.680261782310458
-0.385133902272797,-0.68163081691031
-0.386008143410828,-0.682999911021454
-0.386904132655111,-0.684369250433115
-0.387822221504564,-0.685739020934519
-0.388762761458104,-0.687109408314891
-0.389726104014649,-0.688480598363457
-0.390712600673117,-0.689852776869442
-0.391722602932424,-0.691226129622072
-0.392756462291488,-0.692600842410573
-0.393814530249227,-0.693977101024171
-0.394897158304558,-0.695355091252089
-0.396004697956398,-0.696734998883556
-0.397137500703666,-0.698117009707796
-0.398295918045279,-0.699501309514034
-0.399480301480154,-0.700888084091496
-0.400691002507208,-0.702277519229409
-0.40192837262536,-0.703669800716996
-0.403192763333526,-0.705065114343485
-0.404484526130624,-0.706463645898101
-0.405804012515572,-0.707865581170069
-0.407151573987287,-0.709271105948615
-0.408527562044687,-0.710680406022964
-0.409932328186689,-0.712093667182342
-0.41136622391221,-0.713511075215976
-0.412829600720169,-0.714932815913089
-0.414322810109482,-0.716359075062909
-0.415846203579067,-0.717790038454659
-0.417400132627842,-0.719225891877568
-0.418984948754724,-0.720666821120859
-0.42060100345863,-0.722113011973758
-0.422248648238479,-0.723564650225491
-0.423928234593187,-0.725021921665284
-0.425640114021672,-0.726485012082362
-0.427384638022852,-0.727954107265951
-0.429162158095644,-0.729429393005276
-0.430973025738965,-0.730911055089563
-0.432817592451734,-0.732399279308038
-0.434696209732867,-0.733894251449926
-0.436609229081282,-0.735396157304453
-0.438557001995896,-0.736905182660844
-0.440539879975628,-0.738421513308325
-0.442558214519394,-0.739945335036122
-0.444612357126112,-0.74147683363346
-0.446702659294699,-0.743016194889565
-0.448829472524074,-0.744563604593663
-0.450993148313153,-0.746119248534978
-0.453194038160854,-0.747683312502738
-0.455432493566094,-0.749255982286166
-0.457708866027792,-0.750837443674489
-0.460023507044864,-0.752427882456933
-0.462376768116228,-0.754027484422723
-0.464769000740801,-0.755636435361085
-0.467200556417501,-0.757254921061243
-0.469671786645246,-0.758883127312425
-0.472183042922952,-0.760521239903855
-0.474734676749539,-0.76216944462476
-0.477327039623922,-0.763827927264364
-0.479960483045019,-0.765496873611893
-0.482635358511748,-0.767176469456574
-0.485352017523027,-0.768866900587631
-0.488110811577773,-0.77056835279429
-0.490912092174903,-0.772281011865777
-0.493756210813335,-0.774005063591317
-0.496643518991986,-0.775740693760136
-0.499574368209774,-0.77748808816146
-0.502549109965617,-0.779247432584514
-0.505568095758431,-0.781018912818523
-0.508631677087135,-0.782802714652714
-0.511740205450645,-0.784599023876312
-0.51489403234788,-0.786408026278543
-0.518093509277757,-0.788229907648632
-0.521338987739193,-0.790064853775804
-0.524630819231106,-0.791913050449287
-0.527969355252414,-0.793774683458304
-0.531354947302033,-0.795649938592081
-0.534787946878881,-0.797539001639845
-0.538268705481877,-0.799442058390821
-0.541797574609936,-0.801359294634234
-0.545374905761977,-0.803290896159311
-0.549001050436918,-0.805237048755276
-0.552676360133676,-0.807197938211355
-0.556401186351167,-0.809173750316774
-0.560175880588311,-0.811164670860759
-0.564000794344024,-0.813170885632534
-0.567876279117223,-0.815192580421327
-0.571802686406827,-0.817229941016361
-0.575780367711753,-0.819283153206864
-0.579809674530917,-0.82135240278206
-0.583890958363239,-0.823437875531175
-0.588024570707635,-0.825539757243435
-0.592210863063022,-0.827658233708065
-0.596450186928319,-0.829793490714291
-0.600742893802443,-0.831945714051339
-0.60508933518431,-0.834115089508434
-0.60948986257284,-0.836301802874801
