0.645239980100582,0.862706096994854
-0.780433784121369,0.690187951763032
-0.0759515934605708,-0.29361419933201
0.650468991004109,0.0574765195220821
1.37688957546879,0.408567238376174
0.751469504280525,0.673100703783486
0.145440585864699,-0.262764141812586
