-0.621379495684518,-0.0319375077660591
-0.609926851912084,-0.0309193633870343
-0.598537194204725,-0.0299461638446545
-0.587210375820761,-0.0290176173012361
-0.575946250018513,-0.0281334319190954
-0.5647446700563,-0.0272933158605486
-0.553605489192442,-0.026496977287912
-0.542528560685258,-0.0257441243635021
-0.53151373779307,-0.025034465249635
-0.520560873774197,-0.0243677081086271
-0.509669821886959,-0.0237435611027946
-0.498840435389675,-0.023161732394454
-0.488072567540667,-0.0226219301459214
-0.477366071598253,-0.0221238625195133
-0.466720800820753,-0.0216672376775458
-0.456136608466489,-0.0212517637823353
-0.445613347793779,-0.0208771489961981
-0.435150872060944,-0.0205431014814506
-0.424749034526303,-0.0202493294004089
-0.414407688448176,-0.0199955409153895
-0.404126687084885,-0.0197814441887085
-0.393905883694747,-0.0196067473826824
-0.383745131536084,-0.0194711586596275
-0.373644283867215,-0.0193743861818599
-0.363603193946461,-0.0193161381116961
-0.353621715032141,-0.0192961226114524
-0.343699700382575,-0.0193140478434449
-0.333837003256082,-0.0193696219699901
-0.324033476910985,-0.0194625531534043
-0.314288974605601,-0.0195925495560038
-0.304603349598251,-0.0197593193401047
-0.294976455147255,-0.0199625706680236
-0.285408144510933,-0.0202020117020766
-0.275898270947605,-0.0204773506045801
-0.266446687715591,-0.0207882955378504
-0.257053248073211,-0.0211345546642037
-0.247717805278784,-0.0215158361459564
-0.238440212590631,-0.0219318481454249
-0.229220323267071,-0.0223822988249253
-0.220057990566426,-0.022866896346774
-0.210953067747013,-0.0233853488732873
-0.201905408067155,-0.0239373645667815
-0.192914864785169,-0.0245226515895729
-0.183981291159378,-0.0251409181039778
-0.175104540448099,-0.0257918722723125
-0.166284465909654,-0.0264752222568934
-0.157520920802362,-0.0271906762200366
-0.148813758384544,-0.0279379423240586
-0.140162831914518,-0.0287167287312757
-0.131567994650606,-0.029526743604004
-0.123029099851127,-0.03036769510456
-0.114546000774401,-0.03123929139526
-0.106118550678748,-0.0321412406384202
-0.097746602822488,-0.0330732509963569
-0.0894300104639408,-0.0340350306313865
-0.0811686268614266,-0.0350262877058253
-0.0729623052732652,-0.0360467303819895
-0.0648108989577766,-0.0370960668221955
-0.0567142611732808,-0.0381740051887596
-0.0486722451780976,-0.039280253643998
-0.0406847042305472,-0.0404145203502271
-0.0327514915889494,-0.0415765134697632
-0.0248724605116241,-0.0427659411649226
-0.0170474642568912,-0.0439825115980215
-0.00927635608307106,-0.0452259329313764
-0.00155898924848333,-0.0464959133273035
0.00610478298855213,-0.047792160948119
0.0137151073697152,-0.0491143839561394
0.021272130636686,-0.0504622905136809
0.0287759995311444,-0.0518355887830598
0.0362268607947707,-0.0532339869265924
0.0436248611692449,-0.054657193106595
0.0509701473962469,-0.056104915485384
0.0582628662174569,-0.0575768622252756
0.0655031643745546,-0.0590727414885861
0.0726911886092205,-0.0605922614376319
0.0798270856631344,-0.0621351302347292
0.0869110022779764,-0.0637010560421943
0.0939430851954266,-0.0652897470223436
0.100923481157165,-0.0669009113374934
0.107852336904872,-0.0685342571499599
0.114729799180226,-0.0701894926220595
0.12155601472491,-0.0718663259161084
0.128331130280601,-0.073564465194423
0.135055292588981,-0.0752836186193196
0.141728648391729,-0.0770234943531145
0.148351344430526,-0.0787838005581239
0.154923527447052,-0.0805642453966642
0.161445344182986,-0.0823645370310518
0.167916941380008,-0.0841843836236028
0.1743384657798,-0.0860234933366336
0.18071006412404,-0.0878815743324605
0.187031883154409,-0.0897583347733998
0.193304069612586,-0.0916534828217679
0.199526770240253,-0.0935667266398809
0.205700131779088,-0.0954977743900553
0.211824300970772,-0.0974463342346073
0.217899424556986,-0.0994121143358532
0.223925649279408,-0.101394822856109
0.229903121879719,-0.103394167957692
0.2358319890996,-0.105409857802918
0.24171239768073,-0.107441600554102
0.247544494364789,-0.109489104373562
0.253328425893457,-0.111552077423614
0.259064339008414,-0.113630227866574
0.264752380451341,-0.115723263864758
0.270392696963917,-0.117830893580483
0.275985435287823,-0.119952825176065
0.281530742164738,-0.12208876681382
0.287028764336343,-0.124238426656065
0.292479648544317,-0.126401512865116
0.297883541530341,-0.128577733603288
0.303240590036094,-0.1307667970329
0.308550940803258,-0.132968411316266
0.313814740573511,-0.135182284615703
0.319032136088533,-0.137408125093527
0.324203274090006,-0.139645640912056
0.329328301319609,-0.141894540233604
0.334407364519021,-0.144154531220488
0.339440610429923,-0.146425322035026
0.344428185793996,-0.148706620839532
0.349370237352918,-0.150998135796323
0.354266911848371,-0.153299575067716
0.359118356022033,-0.155610646816027
0.363924716615586,-0.157931059203571
0.368686140370709,-0.160260520392667
0.373402774029083,-0.162598738545629
0.378074764332387,-0.164945421824774
0.382702258022301,-0.167300278392418
0.387285401840505,-0.169663016410878
0.39182434252868,-0.17203334404247
0.396319226828506,-0.17441096944951
0.400770201481662,-0.176795600794315
0.405177413229829,-0.179186946239201
0.409541008814686,-0.181584713946484
0.413861134977914,-0.18398861207848
0.418137938461193,-0.186398348797506
0.422371566006202,-0.188813632265878
0.426562164354623,-0.191234170645913
0.430709880248134,-0.193659672099926
0.434814860428416,-0.196089844790234
0.438877251637149,-0.198524396879154
0.442897200616013,-0.200963036529001
0.446874854106688,-0.203405471902092
0.450810358850854,-0.205851411160744
0.454703861590191,-0.208300562467271
0.45855550906638,-0.210752633983992
0.4623654480211,-0.213207333873222
0.466133825196031,-0.215664370297277
0.469860787332853,-0.218123451418474
0.473546481173247,-0.220584285399129
0.477191053458892,-0.223046580401558
0.480794650931468,-0.225510044588078
0.484357420332656,-0.227974386121005
0.487879508404136,-0.230439313162655
0.491361061887587,-0.232904533875345
0.49480222752469,-0.235369756421391
0.498203152057124,-0.237834688963108
0.50156398222657,-0.240299039662814
0.504884864774708,-0.242762516682826
0.508165946443218,-0.245224828185458
0.511407373973779,-0.247685682333027
0.514609294108073,-0.25014478728785
0.517771853587778,-0.252601851212243
0.520895199154575,-0.255056582268523
0.523979477550145,-0.257508688619005
0.527024835516166,-0.259957878426005
0.53003141979432,-0.262403859851842
0.532999377126286,-0.264846341058829
0.535928854253743,-0.267285030209285
0.538819997918374,-0.269719635465524
0.541672954861856,-0.272149864989864
0.544487871825871,-0.274575426944621
0.547264895552098,-0.276996029492111
0.550004172782218,-0.27941138079465
0.55270585025791,-0.281821189014554
0.555370074720854,-0.284225162314141
0.557996992912732,-0.286623008855726
0.560586751575221,-0.289014436801625
0.563139497450004,-0.291399154314155
0.565655377278759,-0.293776869555633
0.568134537803167,-0.296147290688374
0.570577125764907,-0.298510125874694
0.572983287905661,-0.300865083276911
0.575353170967107,-0.30321187105734
0.577686921690927,-0.305550197378298
0.579984686818799,-0.307879770402101
0.582246613092404,-0.310200298291065
0.584472847253422,-0.312511489207506
0.586663536043534,-0.314813051313742
0.588818826204418,-0.317104692772087
0.590938864477756,-0.31938612174486
0.593023797605227,-0.321657046394375
0.595073772328511,-0.323917174882949
0.597088935389289,-0.326166215372898
0.59906943352924,-0.328403876026539
0.601015413490044,-0.330629865006189
0.602927022013382,-0.332843890474162
0.604804405840933,-0.335045660592776
0.606647711714378,-0.337234883524348
0.608457086375397,-0.339411267431192
0.610232676565669,-0.341574520475626
0.611974629026874,-0.343724350819966
0.613683090500694,-0.345860466626528
0.615358207728807,-0.347982576057628
0.617000127452894,-0.350090387275583
0.618608996414635,-0.352183608442709
0.62018496135571,-0.354261947721323
0.621728169017799,-0.35632511327374
0.623238766142582,-0.358372813262277
0.624716899471738,-0.360404755849251
0.626162715746949,-0.362420649196977
0.627576361709894,-0.364420201467771
0.628957984102253,-0.366403120823952
0.630307729665707,-0.368369115427833
0.631625745141934,-0.370317893441733
0.632912177272616,-0.372249163027966
0.634167172799433,-0.37416263234885
0.635390878464064,-0.376058009566701
0.636583441008189,-0.377935002843834
0.637745007173488,-0.379793320342567
0.638875723701642,-0.381632670225216
0.639975737334331,-0.383452760654096
0.641045194813235,-0.385253299791525
0.642084242880033,-0.387033995799818
0.643093028276405,-0.388794556841292
0.644071697744033,-0.390534691078263
0.645020398024595,-0.392254106673048
0.645939275859772,-0.393952511787962
0.646828477991244,-0.395629614585323
0.647688151160691,-0.397285123227445
0.648518442109793,-0.398918745876647
0.64931949758023,-0.400530190695243
0.650091464313682,-0.402119165845551
0.650834489051829,-0.403685379489886
0.651548718536351,-0.405228539790566
0.652234299508929,-0.406748354909905
0.652891378711241,-0.408244533010221
0.653520102884969,-0.409716782253829
0.654120618771793,-0.411164810803047
0.654693073113391,-0.41258832682019
0.655237612651445,-0.413987038467575
0.655754384127635,-0.415360653907517
0.65624353428364,-0.416708881302335
0.65670520986114,-0.418031428814342
0.657139557601817,-0.419328004605857
0.657546724247349,-0.420598316839195
0.657926856539416,-0.421842073676672
0.658280101219699,-0.423058983280605
0.658606605029879,-0.42424875381331
0.658906514711634,-0.425411093437104
0.659179977006644,-0.426545710314303
0.659427138656591,-0.427652312607222
0.659648146403154,-0.428730608478179
0.659843146988012,-0.42978030608949
0.660012287152847,-0.43080111360347
0.660155713639338,-0.431792739182437
0.660273573189164,-0.432754890988706
0.660366012544008,-0.433687277184594
0.660433178445547,-0.434589605932417
0.660475217635463,-0.435461585394492
0.660492276855434,-0.436302923733135
0.660484502847143,-0.437113329110661
0.660452042352267,-0.437892509689389
0.660395042112488,-0.438640173631632
0.660313648869486,-0.439356029099709
0.66020800936494,-0.440039784255935
0.660078270340531,-0.440691147262627
0.659924578537938,-0.4413098262821
0.659747080698842,-0.441895529476672
0.659545923564923,-0.442447965008658
0.659321253877861,-0.442966841040375
0.659073218379335,-0.443451865734139
0.658801963811026,-0.443902747252267
0.658507636914614,-0.444319193757075
0.658190384431779,-0.444700913410878
0.657850353104201,-0.445047614375994
0.65748768967356,-0.445359004814738
0.657102540881536,-0.445634792889427
0.656695053469809,-0.445874686762378
0.65626537418006,-0.446078394595906
0.655813649753967,-0.446245624552328
0.655340026933212,-0.44637608479396
0.654844652459474,-0.446469483483119
0.654327673074434,-0.44652552878212
0.653789235519771,-0.446543928853281
0.653229486537165,-0.446524391858916
0.652648572868297,-0.446466625961344
0.652046641254846,-0.446370339322879
0.651423838438493,-0.446235240105839
0.650780311160918,-0.44606103647254
0.6501162061638,-0.445847436585297
0.64943167018882,-0.445594148606427
0.648726849977657,-0.445300880698247
0.648001892271992,-0.444967341023073
0.647256943813506,-0.444593237743221
0.646492151343877,-0.444178279021007
0.645707661604786,-0.443722173018748
0.644903621337913,-0.44322462789876
0.644080177284938,-0.44268535182336
0.643237476187541,-0.442104052954863
0.642375664787402,-0.441480439455586
0.641494889826201,-0.440814219487845
0.640595298045618,-0.440105101213957
0.639677036187334,-0.439352792796238
0.638740250993028,-0.438557002397003
0.63778508920438,-0.437717438178571
0.636811697563071,-0.436833808303256
0.63582022281078,-0.435905820933375
0.634810811689188,-0.434933184231244
0.633783610939974,-0.43391560635918
0.632738767304818,-0.432852795479499
0.631676427525402,-0.431744459754518
0.630596738343404,-0.430590307346551
0.629499846500504,-0.429390046417917
0.628385898738383,-0.428143385130931
0.627255041798721,-0.42685003164791
0.626107422423198,-0.425509694131169
0.624943187353494,-0.424122080743026
0.623762483331288,-0.422686899645795
0.622565457098262,-0.421203859001795
0.621352255396095,-0.41967266697334
0.620123024966466,-0.418093031722748
0.618877912551057,-0.416464661412335
0.617617064891547,-0.414787264204416
0.616340628729615,-0.413060548261309
0.615048750806944,-0.411284221745329
0.613741577865211,-0.409457992818793
0.612419256646098,-0.407581569644018
0.611081933891284,-0.405654660383318
0.60972975634245,-0.403676973199012
0.608362870741274,-0.401648216253414
0.606981423829439,-0.399568097708842
0.605585562348623,-0.397436325727611
0.604175433040506,-0.395252608472039
0.60275118264677,-0.39301665410444
0.601312957909092,-0.390728170787133
0.599860905569155,-0.388386866682432
0.598395172368637,-0.385992449952654
0.596915905049219,-0.383544628760116
0.595423250352581,-0.381043111267134
0.593917355020403,-0.378487605636024
0.592398365794365,-0.375877820029102
0.590866429416147,-0.373213462608685
0.589321692627428,-0.370494241537089
0.58776430216989,-0.36771986497663
0.586194404785212,-0.364890041089625
0.584612147215074,-0.362004478038389
0.583017676201156,-0.35906288398524
0.581411138485139,-0.356064967092494
0.579792680808702,-0.353010435522466
0.578162449913525,-0.349898997437473
0.576520592541289,-0.346730360999832
0.574867255433672,-0.343504234371859
0.573202585332357,-0.34022032571587
0.571526728979022,-0.336878343194181
0.569839833115347,-0.333477994969108
0.568142044483014,-0.330018989202969
0.5664335098237,-0.326501034058079
0.564714375879088,-0.322923837696754
0.562984789390856,-0.319287108281312
0.561244897100685,-0.315590553974067
0.559494845750255,-0.311833882937337
0.557734782081245,-0.308016803333438
0.555964852835337,-0.304139023324686
0.554185204754209,-0.300200251073397
0.552395984579543,-0.296200194741888
0.550597339053017,-0.292138562492475
0.548789414916313,-0.288015062487474
0.54697235891111,-0.283829402889202
0.545146317779088,-0.279581291859975
0.543311438261927,-0.275270437562109
0.541467867101308,-0.270896548157921
0.53961575103891,-0.266459331809726
0.537755236816413,-0.261958496679841
0.535886471175497,-0.257393750930583
0.534009600857844,-0.252764802724268
0.532124772605131,-0.248071360223212
0.53023213315904,-0.243313131589731
0.528331829261251,-0.238489824986141
0.526424007653443,-0.23360114857476
0.524508815077297,-0.228646810517903
0.522586398274493,-0.223626518977886
0.52065690398671,-0.218539982117027
0.51872047895563,-0.21338690809764
0.516777269922931,-0.208167005082043
0.514827423630294,-0.202879981232552
0.512871086819399,-0.197525544711482
0.510908406231926,-0.192103403681152
0.508939528609555,-0.186613266303876
0.506964600693966,-0.181054840741971
0.504983769226839,-0.175427835157753
0.502997180949854,-0.169731957713539
0.501004982604692,-0.163966916571644
0.499007320933032,-0.158132419894386
0.497004342676554,-0.15222817584408
0.494996194576938,-0.146253892583044
0.492983023375865,-0.140209278273592
0.490964975815015,-0.134094041078042
0.488942198636066,-0.127907889158709
