0.649392574971659,-0.27631234150737
0.641824716281528,-0.284246262358694
0.655534886590818,-0.250875811105317
0.634613991590202,-0.34115649579272
0.658089216323414,-0.264888781694983
0.579736572560563,-0.283556562329396
0.565645799445656,-0.324298967056857
0.631854814568348,-0.299636557066111
0.615151619664224,-0.311228306480338
0.617762134626061,-0.384444341063268
0.602700859240144,-0.317029732074466
0.56656443483782,-0.355550181244907
0.59087549852268,-0.354150405493281
0.534576475511632,-0.377775494958963
0.522676635070012,-0.408183301165244
0.536690699083487,-0.380181099396966
0.542908546835869,-0.384926836851183
0.542278947911526,-0.416430137696807
0.514379192636338,-0.397280312972007
0.526234752300166,-0.437325834472383
0.499551386035873,-0.408046948092599
0.488188043703093,-0.429778180049762
0.467560022252862,-0.369339158579603
0.45952411091232,-0.451660686012563
0.477931067490217,-0.41535850148639
0.439014072943114,-0.412978791666493
0.476408392005407,-0.459510484776692
0.447962887615051,-0.441923314407962
0.469469575939283,-0.449404718048068
0.433315658714162,-0.450561756006536
0.401573492501877,-0.408960558001901
0.461704340938028,-0.49843885959612
0.437094337926806,-0.416440676866908
0.369846865158386,-0.49662231479973
0.392229799371083,-0.519692942716488
0.376928672897159,-0.461816356987614
0.362130217419867,-0.501056218679333
0.366686783953114,-0.495358373964107
0.367947968161465,-0.4841362600616
0.383872637318785,-0.523675612519405
0.311066642705875,-0.540355247150217
0.346367314222728,-0.493521066371171
0.3139652339879,-0.478581473172777
0.322583288599702,-0.457165338650754
0.365755753869606,-0.507482338273795
0.314431775226041,-0.551009434940874
0.27363823156875,-0.517005203629568
0.301886736941594,-0.464753762769792
0.301137118221829,-0.486630610910703
0.318584175436431,-0.525473258523718
0.23618920038554,-0.492844808537689
0.275244308529247,-0.518960678012114
0.248576434200063,-0.493919090802002
0.268299593975271,-0.527978392456338
0.254164100602009,-0.524988242428929
0.247164853614689,-0.526846221254906
0.283412120718247,-0.522412212348046
0.19889487511008,-0.514970028498196
0.233286073006137,-0.494833220476954
0.180739521927804,-0.508562189658091
0.19729888616637,-0.485810829966618
0.16033342855926,-0.573311517104513
0.245639185130711,-0.502635761282367
0.191683598577192,-0.539194043256552
0.227834433063201,-0.513595346420485
0.225997549700568,-0.583309938257449
0.199283669879526,-0.509370444390432
0.201526391716802,-0.58918929157741
0.132956516901596,-0.502250180182202
0.133202677381668,-0.499298571277585
0.143920060976683,-0.546729295287872
0.166423779207368,-0.513557148159178
0.172984770446767,-0.574965180122188
0.159221170937893,-0.566106373291096
0.116971879416353,-0.549864339190711
0.086477086063021,-0.521936215845879
0.10515285413775,-0.582231259444577
0.0969316279444709,-0.551726839560166
0.111681910316814,-0.550069738915011
0.108078135229289,-0.515972480565475
0.0770415822106432,-0.5532132499156
0.0704455267295171,-0.553631812592027
0.0638666585267689,-0.554014303017651
0.0781378852705297,-0.543931105090929
0.0981431749681737,-0.510964221532058
0.0875364054229909,-0.597348105847448
0.0583570518206916,-0.536627562101434
0.0312344820180627,-0.555435682258358
0.0703965652830126,-0.572527386978513
0.0255723465822241,-0.585731272594424
0.0241408055703491,-0.604012284515914
0.0420806031478556,-0.557221571273271
-0.00832286884122727,-0.509263917409461
-0.00226046139298509,-0.601787834109745
-0.0136938567673304,-0.556310665658791
-0.0370671661678179,-0.562233215476196
-0.00727606240067162,-0.55823573450797
-0.00592268356086871,-0.530091277035963
-0.0565253929058348,-0.580561047670775
0.00212381011905005,-0.598481408706867
-0.0514720852207443,-0.556359701422884
-0.0807035436942647,-0.515211536558123
-0.0487200791970523,-0.602012800231911
-0.0259976705620353,-0.530294727109073
-0.030590509211303,-0.60578603234785
-0.0347966632101349,-0.551749198901829
-0.0885464560729581,-0.556087491536933
-0.140680717246257,-0.581056419028182
-0.11928920653108,-0.567383557849347
-0.133462794444595,-0.56761070474492
-0.0634132907627892,-0.5281062563097
-0.118884704530046,-0.555837921448344
-0.163209449847045,-0.57883131329914
-0.130874432053918,-0.555775650730258
-0.18505485743948,-0.566683044161329
-0.121568153341574,-0.561036993106637
-0.103984994788194,-0.581078818189404
-0.170113429662642,-0.556971634875535
-0.164444453780765,-0.596188704585665
-0.187725325563627,-0.542991791794323
-0.134599729768995,-0.601432065784019
-0.178797775238878,-0.522002539172259
-0.204081662512148,-0.534332957472447
-0.196075032996026,-0.593654634542411
-0.23852022889804,-0.550348212338639
-0.191254687064313,-0.512187573644027
-0.206699168235307,-0.556822784226449
-0.259224079319699,-0.552999736510953
-0.218029551538789,-0.557328704847736
-0.216012978419658,-0.590830943000574
-0.189483532855431,-0.57245500560733
-0.239571879154137,-0.524104764379701
-0.240412892279593,-0.558724999660677
-0.260388722363609,-0.59676687324478
-0.251463858709205,-0.559638235966457
-0.256953730405877,-0.560153627431641
-0.283316827196201,-0.585552860717949
-0.267861628573044,-0.561309101397256
-0.227564168011362,-0.531947325476296
-0.278672903518762,-0.562640355957424
-0.313654777316591,-0.566130002902414
-0.27964707964827,-0.605958002959831
-0.270473281472805,-0.603171521441657
-0.300001601730431,-0.56587593108967
-0.353903172644426,-0.614381843384317
-0.310517033988673,-0.567803113775874
-0.315737085372959,-0.568849054986461
-0.320931861010047,-0.569951801284883
-0.308534807313299,-0.576129472274984
-0.331245087290697,-0.57233342467376
-0.316125323262193,-0.590488500905404
-0.313904963999092,-0.583114783546096
-0.333950287646909,-0.533792649090236
-0.302015907173029,-0.576294092079475
-0.356577116757609,-0.579381593932352
-0.361565206649758,-0.580990220690231
-0.36652690085287,-0.58266851247514
-0.391440890449444,-0.617539622827112
-0.345601987312383,-0.559912456303672
-0.333743177942095,-0.627752342840346
-0.386107232015326,-0.590106907527735
-0.389366239114055,-0.582667957325113
-0.395735788074812,-0.594281246151668
-0.400509228191182,-0.59648720182551
-0.36057706031882,-0.557108147711095
-0.403752204736905,-0.643055144749969
-0.414664703631022,-0.603597360880124
-0.465711773083886,-0.583971371022129
-0.440742692222824,-0.658295508803665
-0.421584337893274,-0.632166151949181
-0.383903677303155,-0.595053529516486
-0.437700213387606,-0.617174332342762
-0.442222653000614,-0.620161592530227
-0.446716581478894,-0.623242808740981
-0.4053378797487,-0.646106620164818
-0.455618407279346,-0.62969282476089
-0.421350674059183,-0.611005960804526
-0.429804293513275,-0.647009519603358
-0.468754201520021,-0.640108241018747
-0.466001369471563,-0.593787274853379
-0.477365316264014,-0.64756211696753
-0.448084318688724,-0.675154147973775
-0.473267739570923,-0.615104219035563
-0.458516820903524,-0.616963779673202
-0.494232470585159,-0.663745944886389
-0.483024583370995,-0.676331342824511
-0.503208108683327,-0.651636791410006
-0.506568225758602,-0.677045392131352
-0.510619554658149,-0.681707414547394
-0.498514520669257,-0.687807504434203
-0.518630581591948,-0.691383342673859
-0.522590030750237,-0.696400106148548
-0.563013236192278,-0.73808536393735
-0.510711923583529,-0.706713138042002
-0.488623221034985,-0.733101649168229
-0.538117828439748,-0.717692496706773
-0.543937547054353,-0.703998654003378
-0.545693985786569,-0.72909389833143
-0.520085003339144,-0.76403239787735
-0.553143654796295,-0.741014012262534
-0.505924237408484,-0.768524231017855
-0.527008249882374,-0.708176071057261
-0.513863334414128,-0.763182700365752
-0.594532986755045,-0.776938124643117
-0.568391124693937,-0.76597093877284
-0.607744345376943,-0.787853165419789
-0.613750930265902,-0.760320312296019
-0.530919696965062,-0.807501584354738
-0.529328582779908,-0.809331234762003
-0.571322939447344,-0.803101516103194
-0.586537165885173,-0.781608053001578
-0.542015431801559,-0.769934998448456
-0.630008466914874,-0.841327599553374
-0.589236469282681,-0.796116866698385
-0.589722967344313,-0.843526636593315
-0.54362065575928,-0.790988660743745
-0.604067712867501,-0.79052015283859
-0.594486103713875,-0.801543974527896
-0.634613121618065,-0.784933883304509
-0.548963422786195,-0.770374326971899
-0.636212019880541,-0.775597975007434
-0.561207734826395,-0.833950527331758
-0.597688536778817,-0.801911076564839
-0.597889584830764,-0.801164575516089
-0.622839583312065,-0.788863494786831
-0.613884219758485,-0.758828362734152
-0.556090669856613,-0.824771448841464
-0.59725734662008,-0.795564331724585
-0.550906521548178,-0.765867897073833
-0.584515885038567,-0.785271952963143
-0.625037723038968,-0.784804509940359
-0.564199225722738,-0.770780329628502
-0.588492460467475,-0.788294514234557
-0.592093301839129,-0.779713392596882
-0.590751717946953,-0.776248086131603
-0.604356032834831,-0.765698474568134
-0.540143410644077,-0.776203488385847
-0.579101673938738,-0.799836730469915
-0.618393701867149,-0.756440241612421
-0.55456634466679,-0.712437542798111
-0.62523536783584,-0.760264241544961
-0.546908912525071,-0.768972174749589
-0.57522571623921,-0.74069721308909
-0.613108637198108,-0.69029289893431
-0.580953026486029,-0.693278024910316
-0.555030386473481,-0.763720548885496
-0.564355659800974,-0.718073584623727
-0.59859222630091,-0.680009630520541
-0.558167694105162,-0.705649541221144
-0.566213158378421,-0.705398170309477
-0.551486846822754,-0.692522037920961
-0.507401599139715,-0.638579114187099
-0.562251273124457,-0.672089434524582
-0.536551896911868,-0.666819994367139
-0.513433803095713,-0.648225261605493
-0.532673046211745,-0.656812802898734
-0.485344104206184,-0.674020023295074
-0.55234018640072,-0.67727944502171
-0.519970792795145,-0.633547818979221
-0.531565695743746,-0.610397674808824
-0.510927650805746,-0.617330811117285
-0.506236140728196,-0.609020896484795
-0.524595864921045,-0.636774617494418
-0.50712056906498,-0.578824596984867
-0.469026690157678,-0.542031193024194
-0.506363423719736,-0.560804970012322
-0.465431418327696,-0.54441434411235
-0.475761542546642,-0.556566251204827
-0.509757424485922,-0.518247176715806
-0.505493524746339,-0.581196700375371
-0.459067547383734,-0.528831036136098
-0.452072529585766,-0.524903753966982
-0.447725978471457,-0.504514289339967
-0.441433055473868,-0.500218897926081
-0.387154414287019,-0.458906802134857
-0.384562276224439,-0.471619692413268
-0.374562401172616,-0.434378176149893
-0.38157598294497,-0.480696172581885
-0.459390692693826,-0.430973354648512
-0.358348903030954,-0.43356145402983
-0.396757480106641,-0.430587670696157
-0.389984486693574,-0.420364687549103
-0.383116354021005,-0.410083483032369
-0.361399548934848,-0.397632504068467
-0.385463520997462,-0.420773991089872
-0.361949629881789,-0.378926190841265
-0.313905594325688,-0.396284870647197
-0.347378384789886,-0.357928913423633
-0.339957286374856,-0.347373244800905
-0.332447005305174,-0.336784309512527
-0.324848392524389,-0.326165672516218
-0.317162298976053,-0.315520898769697
-0.296433989279513,-0.271804864099787
-0.301531073350922,-0.294167200856891
-0.293587643161227,-0.283465406606045
-0.28556013597818,-0.272751735435861
-0.277449402745331,-0.262029752304059
-0.243728684846631,-0.295100316051794
-0.253032835607049,-0.223681023700037
-0.252626356183464,-0.229849580716128
-0.286543990246833,-0.23929689271286
-0.2489604941205,-0.251591619848828
-0.199250243725505,-0.244697479385664
-0.245585450721722,-0.174410998658787
-0.170771367463094,-0.173942971954405
-0.170365267517508,-0.148236256532196
-0.236355855659707,-0.162140958018469
-0.155242429107719,-0.172000294135135
-0.128461644396983,-0.108353013447547
-0.187045375558134,-0.148587934161144
-0.145659472935578,-0.0665324333991802
-0.100605374461277,-0.0664107516777312
-0.105913020615836,-0.0459522136894934
-0.0914132045952998,-0.0825173685088736
-0.118194625684679,-0.0716767622942171
-0.0855583141769821,-0.101444430380853
-0.0990677206966413,-0.051334612614989
-0.0437865223191805,-0.059942610335041
-0.0554304760727123,-0.0232553613779467
-0.0698893188090525,-0.0213294416190083
-0.0210596774695998,-0.0569332579239736
-0.0501216156217204,-0.00170628781031434
-0.0401456862800223,0.00798050616428847
-0.0301095063643693,0.0175793582421035
-0.0566217293287529,0.0104598870045819
0.000427576223671282,0.0204450866832103
-0.00256831010338381,0.00440249334434424
0.0106207001667923,0.0550240484311102
0.0631640500239797,0.0355527447693987
0.0313251823438041,0.073126053244199
0.041759289857743,0.0820094932283742
0.0556008316095631,0.0468901837583219
0.0295937128317133,0.0629773449891301
0.0901858024198823,0.103713993865824
0.0840216407335539,0.116342988002508
0.0947144539397708,0.124608470616807
0.117233749195489,0.101739601824002
0.102039050824933,0.132526206853118
0.127084619631057,0.148584940546036
0.171782905217747,0.155294758871363
0.148899325716944,0.163850289326948
0.159874504616747,0.171256579492675
0.123289363389596,0.149999790865762
0.194040163787237,0.169603919988469
0.193061133420995,0.192527133598316
0.204207537245523,0.199289329643954
0.258770065737572,0.233952652195103
0.207415980127113,0.165616647907671
0.209856329889613,0.229789803470558
0.224857763748346,0.189586426725215
0.265467818694382,0.277560632503719
0.251100806221971,0.238638101859475
0.2559159578472,0.249539619871463
0.28683305563588,0.229566993916893
0.306253607694088,0.252074182534077
0.355695889087963,0.289374521586005
0.333492760199683,0.222005474663181
0.340893965324505,0.266161102187143
0.388691695304355,0.275714072031772
0.353551890938698,0.250932941323019
0.37580853090229,0.27833358308771
0.37863453673484,0.26387846563857
0.438113271621947,0.253558742308584
0.455969558515145,0.248406220427278
0.400996203029597,0.268519524489612
0.409451363520083,0.259313993086255
0.460694322692161,0.247135644329706
0.467192657346465,0.338403989747129
0.474929389040282,0.310466865758594
0.528719772251619,0.315131065276916
0.467309218554331,0.288358031154021
0.505803310979365,0.305031416067126
0.517749363170149,0.305954041996861
0.482208300223687,0.354896151814251
0.502415273621376,0.324740372844801
0.553690336347054,0.307110521258838
0.565377942733131,0.313191762717766
0.549049529881299,0.339593096629956
0.590236774903597,0.318715518397145
0.57945057349132,0.345569343494502
0.569984981394761,0.332553265146435
0.616543041781084,0.272634399282273
0.638043166197482,0.299951645220708
0.650137153854066,0.297750110865929
0.625368177499157,0.288456729116934
0.627527904632489,0.316466684592927
0.686465771154075,0.289298822064927
0.698588025218998,0.285854280693308
0.687449347907192,0.320923385789177
0.766414780809193,0.280940253040425
0.780431761338608,0.272453930747723
0.745791346149938,0.230030289713257
0.748354950563873,0.251455482086173
0.803498157448973,0.281933235443243
0.783534449644537,0.252592257301529
0.824725808557482,0.262442631918748
0.759547239260659,0.203743812088596
0.81994181855903,0.233239120785639
0.789856930655866,0.217587131228737
0.874566898169325,0.263577616903141
