-0.488729817706279,-0.282296970824888
-0.551711563066054,-0.280043830507829
-0.481584037381025,-0.299146108484731
-0.493184319903763,-0.261497050947168
-0.483051995442121,-0.258490092975956
-0.508924727088792,-0.296324553896811
-0.477051187258078,-0.297903784723923
-0.453210162154916,-0.249596850015022
-0.431146973616282,-0.216935605016408
-0.47126301948173,-0.256845969314218
-0.422546407243307,-0.270163783857061
-0.41470088359934,-0.238037164758747
-0.393878484913037,-0.250569785892403
-0.395987273447253,-0.232385104688705
-0.41302375555312,-0.231960077583261
-0.377629922407352,-0.226818280553201
-0.320195841688782,-0.175165072498795
-0.359625510250928,-0.221336728024095
-0.350754618682548,-0.218627939759395
-0.337207081749188,-0.173909955874007
-0.372250856789617,-0.243931037715891
-0.306106659183504,-0.241091670874063
-0.346470768758917,-0.212670498477429
-0.307696704795412,-0.205404056793725
-0.34454544890132,-0.217589761673282
-0.301290040661764,-0.173528178751185
-0.282884250597746,-0.197725934223941
-0.248872885149353,-0.151879544776895
-0.264815402380941,-0.145382367031428
-0.263794511286572,-0.15093348937145
-0.244236176258162,-0.202150535350713
-0.208078104212611,-0.154288252671022
-0.217511864015977,-0.146757821212561
-0.18835296157618,-0.175195544665639
-0.220368724522058,-0.178191413514261
-0.187965031543621,-0.224996974136652
-0.222441273357776,-0.145754278675941
-0.219661286852408,-0.179167927946044
-0.191052622663425,-0.168937673406229
-0.199029384929857,-0.177931018816707
-0.216131542405198,-0.137108750649854
-0.198489268424943,-0.211145687155346
-0.154170939056515,-0.170384574923735
-0.156174886550572,-0.157852492022796
-0.17401118181972,-0.140053916361739
-0.142762994748233,-0.153568487528242
-0.136170932156166,-0.151458660558069
-0.17455861158626,-0.162728645663996
-0.123212498447293,-0.147303379466842
-0.116845297273309,-0.145257934263752
-0.149930664964474,-0.131143736197382
-0.0838042698550095,-0.130624987855089
-0.0946536789923985,-0.173188404839517
-0.105319938302224,-0.101971271901057
-0.0922430335089002,-0.178642437136231
-0.0801841629546522,-0.133436278756422
-0.0743271124222551,-0.131541213740902
-0.0589111819353277,-0.129554222869896
-0.108690161929121,-0.147218375256952
-0.0113468124751668,-0.0947712769069357
-0.0195682770678429,-0.0797965427751511
-0.0461018374194226,-0.122388488640949
-0.0406658727505653,-0.120622494829363
-0.0753405583782574,-0.0930030785689816
-0.00572095614103539,-0.152692327504773
0.0146125001785245,-0.102075396052112
0.0254496201234936,-0.147494961753558
-0.0622160900929761,-0.137841339121059
0.0162083754053857,-0.150364831669564
0.0230459018557762,-0.128058835964716
0.0238172416859346,-0.151255161119406
0.0242183664267427,-0.146108419914012
0.00998219290938557,-0.104147303502353
-0.0201331876021404,-0.118074368730817
0.0671750023508213,-0.150214824058263
0.0238984560260757,-0.0996251984603995
0.0651229067456478,-0.116454577470899
0.0732210519413831,-0.112314891015105
0.0372447220928917,-0.0952973623831958
0.067605300627821,-0.111180987639506
0.0773303214304579,-0.068740749134368
0.0474726142462069,-0.0526950945367787
0.0949661449970623,-0.0452146540796785
0.0583956101975515,-0.0837506966943407
0.0622720861644909,-0.0872249786931105
0.025918028422529,-0.0410232233284588
0.090821806142096,-0.0509861852476952
0.0739755957130687,-0.0834806718652646
0.0721152173654615,-0.0801876463899578
0.109549842331196,-0.0662161407403472
0.0576683639977187,-0.0484210732457434
0.0887652746365887,-0.0787912288464429
0.0923199254256945,-0.0776729989048874
0.0958182986952682,-0.0765764302065561
0.0996144022263904,-0.101342834417195
0.0542825228949157,-0.110161946911682
0.129501686932645,-0.102286897015757
0.0807359416175349,-0.117314251909774
0.143632865555424,-0.0451458046685127
0.138145928320876,-0.108715996507571
0.12009992446601,-0.0655463997373703
0.121829097579357,-0.0685842204538363
0.144581177270159,-0.0558443952948419
0.127798074106274,-0.0668030925766489
0.179034157794887,-0.103153576554692
0.108992644906726,-0.021146316118545
0.177549115869859,-0.0514313747182139
0.113121817936841,-0.0583951391048946
0.191593660421329,-0.0385883500718654
0.175251688453955,-0.0743149397842673
0.144219839577096,-0.0261907580823188
0.151317388502541,-0.0966490404905635
0.152146650129163,-0.0598631915971214
0.170981849987922,-0.0995187158594845
0.12952259545561,-0.0637113020720203
0.109883220891049,-0.0562514628595577
0.184719872648168,-0.0969703873802161
0.163975075636266,-0.056768747767456
0.149398692026428,-0.0970661414039491
0.125893604672914,-0.0222037539796249
0.138550962509419,-0.0925051732773944
0.172609093383795,-0.0546850748698322
0.147085635097053,-0.0512016458646619
0.176658992000461,-0.0537739639073303
0.178618616344581,-0.0533511054040944
0.192120142822323,-0.0230653691884269
0.16437954698607,-0.006153804651827
0.178546070693776,-0.0716950142759159
0.159564254045232,-0.0589711378285458
0.234711430315189,-0.0306257130009152
0.160363782745989,-0.0362458850615285
0.219169373605264,-0.0913145891164414
0.164964859125774,-0.0725275853025515
0.216778813950425,-0.0538389165997968
0.195918526244936,-0.0503224722896972
0.221319234280181,-0.0867992583845116
0.179910278997662,-0.0202717186828308
0.200332112197597,-0.0498397256209396
0.195689794028005,-0.0412343080534724
0.246484868260679,-0.0676069709667832
0.20440728705293,-0.0495537360289687
0.215717927007843,-0.0800464855920484
0.223478016974392,-0.0747014389811871
0.208155256582833,-0.0494646239063024
0.209333804265008,-0.0494786912227314
0.210477655914269,-0.0495146516494561
0.211587226559203,-0.0495725096454587
0.20658342267002,-0.000930972745765993
0.213705184950448,-0.0497539361812262
0.237867464137879,-0.052846462502342
0.215690999667454,-0.0500230065018911
0.245531638987776,-0.0494720818595617
0.193651417616985,-0.0677712308566782
0.21842921535407,-0.0505910221117584
0.20185269757128,-0.018141892899609
0.171552689080058,-0.0616205672455121
0.206897120222652,-0.0530140916035309
0.181347738659588,-0.0694171640918878
0.222379226367297,-0.0519764390706671
0.223080911557572,-0.0523193712346576
0.253771955131297,-0.0372538343612833
0.224399285154461,-0.0530711200067045
0.238078317797652,-0.0620897226346616
0.225607096563729,-0.0539107444307203
0.200872544098666,-0.0816648627695246
0.191399967586856,-0.0608539156399389
0.210212633064025,-0.0682924236004668
0.26547514608749,-0.0592004642223787
0.228164704516965,-0.0563944955646861
0.228600359952906,-0.0569572283331523
0.266696557703094,-0.0917892345100705
0.22939912489879,-0.058148712083615
0.19445612342189,-0.0647353404365323
0.21139761259651,-0.0872322274706126
0.232809138966201,-0.0213626143351049
0.275853829041035,-0.0421667522602631
0.280708748860878,-0.0283678891633295
0.223535151103092,-0.087170463348343
0.271380904861322,-0.10273536536503
0.279017544126653,-0.0695931081903896
0.193451186620475,-0.0569117809724616
0.265578041212598,-0.0300298458662208
0.220108100989319,-0.0942938040539257
0.244893757892477,-0.0180135925434592
0.269170072744723,-0.104448318149785
0.196993124429516,-0.0713956731337028
0.262729176803973,-0.0311978777402976
0.243921978508322,-0.0309181130856143
0.23288548188521,-0.115069395295973
0.273943682245813,-0.0762107047932858
0.241074345236558,-0.105653523537652
0.282490664215717,-0.0898328520366705
0.225208945438216,-0.0947287252522696
0.272351528448294,-0.0393467992005051
0.188782788917406,-0.0870312438383242
0.232604928223098,-0.0793249321181756
0.232529610102438,-0.0804833537803075
0.241453831983185,-0.0451204449603065
0.238493063644964,-0.109052147562405
0.228062705695348,-0.0925125292758643
0.230875838484852,-0.0543665173664285
0.223611026682,-0.114039278760331
0.19120415149211,-0.0658341343526754
0.250951982623336,-0.135031707372306
0.227470237937142,-0.0504138910377613
0.187178838384746,-0.138230732815608
0.24001671429856,-0.1268131088744
0.230926857009055,-0.0946872215460698
0.230721556219682,-0.0961114372294303
0.272724318733095,-0.108466801072742
0.230286967059829,-0.0990264085105928
0.230058508746525,-0.100517173026359
0.229823161315757,-0.102030129404224
0.245030877387983,-0.07579890309655
0.200179924391073,-0.124194531785887
0.208651556350715,-0.145508211038436
0.212994376311119,-0.145114258671086
0.253948652539999,-0.133794088010673
0.188224787901128,-0.158145600858766
0.245244840046854,-0.157108885379546
0.227742177071492,-0.114933222540585
0.273952135525523,-0.126469296542915
0.27029898086272,-0.160188699260516
0.22689835600095,-0.120138587728201
0.217568133444451,-0.129161137417301
0.226325573034273,-0.1237200506044
0.261893008762152,-0.111632449403173
0.196823505075054,-0.136460839587518
0.206573391400407,-0.138754771070086
0.225170382722957,-0.131150063482849
0.237094937653634,-0.15428244975365
0.224594615835739,-0.134998684828813
0.273677131343302,-0.17404329476786
0.22402449476576,-0.138936430341747
0.263795146207771,-0.18525489843171
0.256737002935881,-0.103596315602641
0.272596072158776,-0.187673775599509
0.185722303249663,-0.105100737222443
0.200643554872468,-0.116715215108434
0.265711529025417,-0.198444275948744
0.178251708697275,-0.129697205006452
0.256652805927676,-0.199485523122487
0.2216178405715,-0.157760153167862
0.221374784679332,-0.159963268925954
0.173540786156652,-0.203891229605838
0.193879045510358,-0.115470186959791
0.250153072318764,-0.137678246902232
0.194349737957032,-0.194906729131656
0.173227963740677,-0.144935228688122
0.2678360372289,-0.124603138585637
0.173408259118203,-0.159422430845649
0.217238865051408,-0.206764972670762
0.219524715962376,-0.180796900555398
0.237798995698007,-0.219587389402564
0.252073636155327,-0.140590617010248
0.178104764601575,-0.18757284733165
0.177429099949773,-0.169341690263146
0.218831978921315,-0.193154046076558
0.196389906373268,-0.243938668087326
0.2186373942881,-0.198253651899093
0.218559442839392,-0.200837061420733
0.218494938674069,-0.203442881294598
0.213030803247246,-0.193037555861668
0.22710331471481,-0.170562138125408
0.218386260164299,-0.21139484761936
0.218379695418404,-0.214090353491944
0.26619498500693,-0.17646195433392
0.174548856536998,-0.268288118583336
0.218454795853049,-0.222311484828436
0.218512810984003,-0.225096748043454
0.218588008655641,-0.227904461741536
0.249691269567087,-0.272806282908254
0.218791611735324,-0.23358725842282
0.229394586554547,-0.259420432484157
0.173313976049994,-0.27452894294802
0.219236261124701,-0.242279943542277
0.247805044979049,-0.287025643707515
0.237217765846694,-0.242217707186581
0.258011521070818,-0.220733012474625
0.183994097374083,-0.28803861839015
0.252939575035249,-0.306088067387192
0.220667928905208,-0.26027231957154
0.246519484759681,-0.235002391427032
0.242775654583344,-0.227824204580014
0.237905981799744,-0.235620952496626
0.222060098052688,-0.272717257288277
0.222466660263349,-0.275884785136952
0.20740851268689,-0.254035901882063
0.180205111519912,-0.247051893397964
0.232762747114934,-0.260350229999119
0.190069313964759,-0.329935563864964
0.174932820384186,-0.314219215572676
0.26984445085459,-0.303973404404864
0.231036177141378,-0.31885897109136
0.217173584337543,-0.335266301195765
0.190920865075712,-0.318879340191962
0.255233890617088,-0.345406494359045
0.188085897356038,-0.309334941822908
0.206881565958814,-0.2756554591986
0.188676561592411,-0.307013888550329
0.211113944292322,-0.334311416637229
0.181902722167918,-0.306114935242067
0.232550246704623,-0.329631837686995
0.208008235054605,-0.308729429229475
0.240276230678162,-0.302116956896265
0.235269699928904,-0.340352891795858
0.225468062840732,-0.390340492849965
0.249005842851407,-0.364928890213004
0.279778676945162,-0.378564098055232
0.239347304339689,-0.354964205506154
0.240450127081503,-0.358673594892147
0.272371572634219,-0.367798909855472
0.226548948588286,-0.381964979817977
0.243965447698247,-0.369937580694043
0.286127872489714,-0.37715414184788
0.270706257062274,-0.372621554779132
0.213438719269565,-0.373763277694217
0.208420169342388,-0.348461219211365
0.250538725079159,-0.389163883382529
0.259088820096215,-0.383327339415871
0.204409294614294,-0.423434709332221
0.254929598577415,-0.40097165700203
0.256470197759985,-0.404952940296825
0.239730727155902,-0.448987375672545
0.303088001315593,-0.383193531735629
0.24831941476815,-0.376432185776285
0.263028535335053,-0.421104986157
0.264769180082962,-0.425199748087203
0.25074324819974,-0.395710477448539
0.246638144208471,-0.463668691584397
0.270240299634047,-0.437620306337912
0.272148451348825,-0.441805931438121
0.274099517376792,-0.446014283478287
0.296802543485712,-0.465309273663321
0.278132052486648,-0.454499186214417
0.280214351625716,-0.458775745828347
0.282341225192328,-0.463075050218161
0.31772531114736,-0.459595617686822
0.27199273798992,-0.472369449726228
0.288993442743318,-0.476109476632738
0.269545749854748,-0.497934607730362
0.323929855380776,-0.458738990010652
0.309129548132377,-0.488543811520369
0.298512286531315,-0.493807409226151
0.301010696547479,-0.498288832346406
0.336107610554854,-0.549998681680251
0.306152860662926,-0.50732003776607
0.345681266061063,-0.52636911644459
0.332598523956128,-0.536189174630149
0.363618795147967,-0.491940807254101
0.317030186026786,-0.525656010173524
0.277812739191902,-0.531756745020128
0.354698572615938,-0.520124594052715
0.325720125941571,-0.539647496309161
0.33157040475625,-0.57574583588652
0.361912363901401,-0.503495137382848
0.31072148999007,-0.530092447001342
0.338037278484698,-0.558622382491154
0.377970153119113,-0.595937248215609
0.305011392383451,-0.56160538691383
0.347837593385209,-0.573093381692883
0.35121371193179,-0.577962754649028
0.340044272199186,-0.621840153374698
0.339305589518454,-0.567965079563279
0.361675918711005,-0.592708055609918
0.365275988112531,-0.59766889815764
0.350963194477412,-0.60342963566064
0.369090611320783,-0.641924897552925
0.399577852283348,-0.600601593009268
0.359584049510743,-0.628637401888798
0.420048217793958,-0.61738933268103
0.348195201488047,-0.66461044374157
0.392096423510013,-0.633035644964485
0.362377389204354,-0.594335728546726
0.393856315064266,-0.647483209800963
0.397272627446985,-0.647256494529236
0.391209912799089,-0.684885272409735
0.422807384896084,-0.67873733638659
0.420904860257495,-0.693654938696479
0.421853452688653,-0.66952496992434
0.394066933314131,-0.695663721792247
0.430914756765638,-0.680156893196606
0.435540699903779,-0.685507277436844
0.461983275802589,-0.686874282908238
0.404414272773392,-0.742607230675843
0.479032794264863,-0.693631072680062
0.412680222858839,-0.693773531721996
0.423297609722296,-0.668180119990756
0.464656580928805,-0.718091780251617
0.469739805065835,-0.723602938566803
0.447058569424192,-0.744015105525878
0.500618631765792,-0.730108955167176
0.485393053419314,-0.740274344713816
0.454481806278031,-0.709744918012253
0.523474507259699,-0.724199026884911
0.501660381286744,-0.757152741301638
0.507221222823513,-0.762824892181897
0.534463175048849,-0.777791517950031
0.518552994440022,-0.774238248722785
0.556277252000191,-0.735886370394863
