0.749278694607756,-0.372864817989441
0.330831003593004,0.0217084022199812
0.617100120314653,0.465645051026538
0.137467994783475,0.193338902699475
-0.342164130747704,-0.0789672456275885
0.922313243416627,-0.74682647420982
-0.373549881061016,-0.247967716326728
