-0.755215435449124,-0.420839746888207
0.15802863511082,-0.894223661093435
0.597680596452851,0.462155634964905
0.71688690577757,0.797105228246002
0.836093215102288,1.1320548215271
0.406164540445453,-0.492482990026632
-0.946564806136071,0.0866253334328997
