0.306358041060228,0.523324734339785
0.329645046790728,0.427293974284992
0.352848824462631,0.338678449268243
0.375847077113284,0.257162737523902
0.398517507780034,0.182431417286335
0.420737819500229,0.114169066789905
0.442385715311217,0.052060264268977
0.463338898250344,-0.00421041204208358
0.483475071354958,-0.0549583839089125
0.502671937662408,-0.100499073097145
0.520807200210039,-0.141147901372417
0.5377585620352,-0.177220290500362
0.553403726175238,-0.209031662246618
0.5676203956675,-0.236897438376819
0.580286273549335,-0.261133040656599
0.591279062858089,-0.282053890851596
0.60047646663111,-0.299975410727444
0.607756187905745,-0.315213022049778
0.568006735099822,-0.362315942897482
0.616073395109248,-0.338898206096446
0.61619619353245,-0.328332912746246
0.633640100813419,-0.309059056226872
0.625638908165902,-0.319091732288144
0.555361295077334,-0.382770532159037
0.596033848247979,-0.354264740939345
0.582281752642637,-0.3783438165782
0.548698696640666,-0.415804779857075
0.559293190488986,-0.421614761562216
0.569512872141829,-0.444030997382115
0.501017513921759,-0.403533013434988
0.472238339116,-0.41258319423446
0.439829324334718,-0.423365371199315
0.383916957004309,-0.398397609953237
0.388809779589902,-0.403443239009436
0.354006831407213,-0.503417761950171
0.27144892620133,-0.49012247602525
0.219056257102655,-0.514295960301539
0.179355276293716,-0.513153427726642
0.110064697065004,-0.525730575170027
0.037338334945462,-0.601001477950565
-0.0280991541126969,-0.646118295301452
-0.0969715736519579,-0.687086034692807
-0.15818496396147,-0.75344422016097
-0.212205435410797,-0.75864949772219
-0.22464526053357,-0.757932568104891
-0.304317934674537,-0.820145929775832
-0.340454925543822,-0.84546406833389
-0.335586925236644,-0.820726014092707
-0.407230632202264,-0.928022257705619
-0.422156209503316,-0.9281724374083
-0.425874152478391,-0.94853089227681
-0.418247851078918,-0.935183257605983
-0.451484245139639,-0.95357866242716
-0.399007664690804,-0.953198658163927
-0.477054462914596,-0.960338751866348
-0.452007875498435,-0.92055299744988
-0.429926292085862,-0.910391251669648
-0.417562986072913,-0.896984643573504
-0.357979381323331,-0.915201856713955
-0.363886209089068,-0.901019985772801
-0.364708199821809,-0.833689673464164
-0.378604404647316,-0.822217051304005
-0.295435905072906,-0.754213916926216
-0.300012022053778,-0.772443535896072
-0.267427642224582,-0.693631986781918
-0.265252003372493,-0.654638062473733
-0.260396637315714,-0.62884708002157
-0.194540185089409,-0.562574608529442
-0.155188361979064,-0.487094100844038
-0.126795586349773,-0.424705993837726
-0.0988041204522211,-0.357918804785837
-0.0714812102658583,-0.286683719769952
-0.0450941017701364,-0.21095192487165
-0.0199100409445064,-0.130674606172512
0.00380372623158012,-0.0458029497541175
0.025779953778672,0.043711858301953
0.0457513957173181,0.13791863191412
0.0634508060680669,0.236866185000802
0.0786109388514672,0.340603331480421
0.0909645480880678,0.449178885271395
