-0.953848244116821,0.405552580889039
-0.93992083410134,0.402599700920594
-0.926104076121305,0.399627758773977
-0.912397601086608,0.396636920824433
-0.898801039907137,0.393627353447209
-0.885314023492782,0.390599223017551
-0.871936182753432,0.387552695910708
-0.858667148598976,0.384487938501924
-0.845506551939305,0.381405117166446
-0.832454023684306,0.378304398279522
-0.81950919474387,0.375185948216397
-0.806671696027886,0.372049933352319
-0.793941158446244,0.368896520062534
-0.781317212908832,0.365725874722288
-0.76879949032554,0.362538163706828
-0.756387621606258,0.359333553391401
-0.744081237660874,0.356112210151254
-0.731879969399279,0.352874300361632
-0.719783447731361,0.349619990397783
-0.70779130356701,0.346349446634953
-0.695903167816116,0.343062835448388
-0.684118671388567,0.339760323213336
-0.672437445194253,0.336442076305043
-0.660859120143064,0.333108261098755
-0.649383327144888,0.32975904396972
-0.638009697109616,0.326394591293183
-0.626737860947135,0.323015069444391
-0.615567449567337,0.319620644798592
-0.60449809388011,0.316211483731031
-0.593529424795344,0.312787752616954
-0.582661073222927,0.30934961783161
-0.57189267007275,0.305897245750244
-0.561223846254702,0.302430802748102
-0.550654232678672,0.298950455200433
-0.540183460254549,0.295456369482481
-0.529811159892223,0.291948711969494
-0.519536962501583,0.288427649036718
-0.509360498992519,0.2848933470594
-0.49928140027492,0.281345972412786
-0.489299297258675,0.277785691472124
-0.479413820853674,0.274212670612659
-0.469624601969806,0.270627076209639
-0.45993127151696,0.267029074638309
-0.450333460405026,0.263418832273917
-0.440830799543893,0.259796515491709
-0.431422919843451,0.256162290666931
-0.422109452213588,0.252516324174831
-0.412890027564195,0.248858782390654
-0.40376427680516,0.245189831689648
-0.394731830846374,0.241509638447059
-0.385792320597725,0.237818369038134
-0.376945376969102,0.234116189838118
-0.368190630870396,0.23040326722226
-0.359527713211495,0.226679767565805
-0.350956254902289,0.222945857244001
-0.342475886852667,0.219201702632092
-0.334086239972519,0.215447470105327
-0.325786945171734,0.211683326038952
-0.317577633360201,0.207909436808213
-0.309457935447809,0.204125968788357
-0.301427482344449,0.200333088354631
-0.293485904960009,0.196530961882281
-0.285632834204379,0.192719755746554
-0.277867900987448,0.188899636322696
-0.270190736219106,0.185070769985954
-0.262600970809242,0.181233323111575
-0.255098235667744,0.177387462074805
-0.247682161704504,0.173533353250891
-0.240352379829409,0.169671163015079
-0.23310852095235,0.165801057742616
-0.225950215983216,0.161923203808749
-0.218877095831896,0.158037767588724
-0.211888791408279,0.154144915457787
-0.204984933622255,0.150244813791186
-0.198165153383713,0.146337628964167
-0.191429081602543,0.142423527351977
-0.184776349188634,0.138502675329862
-0.178206587051875,0.134575239273068
-0.171719426102156,0.130641385556843
-0.165314497249366,0.126701280556433
-0.158991431403395,0.122755090647084
-0.152749859474131,0.118802982204044
-0.146589412371464,0.114845121602558
-0.140509721005284,0.110881675217873
-0.13451041628548,0.106912809425237
-0.128591129121941,0.102938690599895
-0.122751490424557,0.0989594851170944
-0.116991131103217,0.0949753593520814
-0.11130968206781,0.0909864796801027
-0.105706774228227,0.086993012476405
-0.100182038494355,0.0829951241162348
-0.0947351057760842,0.0789929809748386
-0.0893656069833047,0.0749867494274633
-0.0840731730259056,0.0709765958493553
-0.0788574348137759,0.0669626866157611
-0.0737180232568053,0.0629451881019275
-0.068654569264883,0.058924266683101
-0.0636667037478984,0.0549000887345283
-0.0587540576157409,0.0508728206314558
-0.0539162617782998,0.0468426287491302
-0.0491529471454647,0.0428096794627982
-0.0444637446271247,0.0387741391477062
-0.0398482851331693,0.034736174179101
-0.0353061995734877,0.030695950932229
-0.0308371188579695,0.026653635782337
-0.026440673896504,0.0226093951046714
-0.0221164955989805,0.0185633952744789
-0.0178642148752884,0.0145158026670061
-0.0136834626353171,0.0104667836574996
-0.00957386978895602,0.00641650462120606
-0.00553506724609436,0.00236513193337191
-0.00156668591662151,-0.00168716803075623
0.00233164328957297,-0.00574022889593154
0.00616028946259979,-0.00979388428690765
0.00991962169256973,-0.013847967828438
0.0136100090695932,-0.0179023131452757
0.017231820683781,-0.0219567538621744
0.0207854256252436,-0.0260111236038875
0.0242711929840918,-0.0300652559951683
0.0276894918504362,-0.0341189846607702
0.0310406913143874,-0.0381721432254467
0.0343251604660559,-0.042224565313951
0.0375432683955526,-0.0462760845510369
0.0406953841929878,-0.0503265345614574
0.0437818769484725,-0.0543757489699661
0.046803115752117,-0.0584235614013163
0.0497594696940323,-0.0624698054802615
0.0526513078643286,-0.0665143148315551
0.0554789993531168,-0.0705569230799504
0.0582429132505074,-0.0745974638502009
0.0609434186466111,-0.07863577076706
0.0635808846315387,-0.082671677455281
0.0661556802954005,-0.0867050175396174
0.0686681747283074,-0.0907356246448226
0.0711187370203697,-0.0947633323956499
0.0735077362616985,-0.0987879744168529
0.0758355415424041,-0.102809384333185
0.0781025219525972,-0.106827395769399
0.0803090465823884,-0.110841842350249
0.0824554845218885,-0.114852557700489
0.0845422048612079,-0.118859375444871
0.0865695766904574,-0.122862129208148
0.0885379690997475,-0.126860652615076
0.0904477511791889,-0.130854779290406
0.0922992920188924,-0.134844342858892
0.0940929607089682,-0.138829176945288
0.0958291263395274,-0.142809115174347
0.0975081580006803,-0.146783991170822
0.0991304247825377,-0.150753638559467
0.10069629577521,-0.154717890965036
0.102206140068808,-0.158676582012281
0.103660326753443,-0.162629545325956
0.105059224919224,-0.166576614530814
0.106403203656264,-0.17051762325161
0.107692632054671,-0.174452405113095
0.108927879204557,-0.178380793740024
0.110109314196033,-0.18230262275715
0.111237306119209,-0.186217725789227
0.112312224064195,-0.190125936461007
0.113334437121103,-0.194027088397245
0.114304314380043,-0.197921015222693
0.115222224931126,-0.201807550562106
0.116088537864462,-0.205686528040236
0.116903622270162,-0.209557781281836
0.117667847238336,-0.213421143911661
0.118381581859096,-0.217276449554464
0.119045195222551,-0.221123531834997
0.119659056418813,-0.224962224378016
0.120223534537992,-0.228792360808272
0.120738998670199,-0.232613774750519
0.121205817905544,-0.236426299829511
0.121624361334138,-0.240229769670001
0.121994998046091,-0.244024017896742
0.122318097131515,-0.247808878134489
0.122594027680519,-0.251584184007993
0.122823158783215,-0.25534976914201
0.123005859529714,-0.259105467161291
0.123142499010124,-0.262851111690591
0.123233446314559,-0.266586536354663
0.123279070533127,-0.27031157477826
0.12327974075594,-0.274026060586135
0.123235826073108,-0.277729827403043
0.123147695574742,-0.281422708853737
0.123015718350953,-0.285104538562969
0.122840263491851,-0.288775150155493
0.122621700087546,-0.292434377256064
0.12236039722815,-0.296082053489433
0.122056724003773,-0.299718012480355
0.121711049504526,-0.303342087853583
0.121323742820519,-0.30695411323387
0.120895173041863,-0.31055392224597
0.120425709258669,-0.314141348514636
0.119915720561047,-0.317716225664621
0.119365576039107,-0.32127838732068
0.118775644782961,-0.324827667107564
0.11814629588272,-0.328363898650029
0.117477898428493,-0.331886915572827
0.116770821510391,-0.335396551500711
0.116025434218525,-0.338892640058435
0.115242105643006,-0.342375014870752
0.114421204873944,-0.345843509562416
0.11356310100145,-0.349297957758181
0.112668163115635,-0.352738193082799
0.111736760306609,-0.356164049161024
0.110769261664482,-0.359575359617609
0.109766036279366,-0.362971958077308
0.108727453241371,-0.366353678164874
0.107653881640608,-0.369720353505061
0.106545690567187,-0.373071817722621
0.105403249111218,-0.376407904442309
0.104226926362814,-0.379728447288878
0.103017091412083,-0.383033279887081
0.101774113349138,-0.386322235861671
0.100498361264088,-0.389595148837403
0.0991902042470438,-0.392851852439029
0.0978500113881165,-0.396092180291303
0.0964781517774165,-0.399315966018977
0.0950749945050545,-0.402523043246807
0.0936409086611411,-0.405713245599544
0.092176263335787,-0.408886406701943
0.0906814276191028,-0.412042360178757
0.089156770601199,-0.415180939654739
0.0876026613721863,-0.418301978754642
0.0860194690221754,-0.42140531110322
0.084407562641277,-0.424490770325227
0.0827673113196015,-0.427558190045416
0.0810990841472598,-0.43060740388854
0.0794032502143622,-0.433638245479352
0.0776801786110197,-0.436650548442607
0.0759302384273425,-0.439644146403057
0.0741537987534417,-0.442618872985455
0.0723512286794276,-0.445574561814556
0.070522897295411,-0.448511046515113
0.0686691736915025,-0.451428160711879
0.0667904269578126,-0.454325738029606
0.0648870261844521,-0.45720361209305
0.0629593404615316,-0.460061616526963
0.0610077388791616,-0.462899584956099
0.0590325905274529,-0.465717351005211
0.057034264496516,-0.468514748299052
0.0550131298764616,-0.471291610462376
0.0529695557574003,-0.474047771119937
0.0509039112294428,-0.476783063896487
0.0488165653826996,-0.47949732241678
0.0467078873072815,-0.482190380305569
0.0445782460932989,-0.484862071187608
0.0424280108308627,-0.487512228687651
0.0402575506100834,-0.49014068643045
0.0380672345210716,-0.492747278040759
0.035857431653938,-0.495331837143332
0.0336285110987932,-0.497894197362922
0.0313808419457477,-0.500434192324282
0.0291147932849124,-0.502951655652165
0.0268307342063977,-0.505446420971326
0.0245290338003144,-0.507918321906517
0.0222100611567729,-0.510367192082492
0.0198741853658842,-0.512792865124005
0.0175217755177585,-0.515195174655808
0.0151532007025068,-0.517573954302655
0.0127688300102394,-0.5199290376893
0.0103690325310672,-0.522260258440495
0.00795417735510072,-0.524567450180995
0.00552463357245066,-0.526850446535552
0.00308077027322751,-0.529109081128921
0.000622956547542089,-0.531343187585854
-0.00184843851449519,-0.533552599531105
-0.00433304582277347,-0.535737150589427
-0.00683049628718235,-0.537896674385574
-0.00934042081761097,-0.5400310045443
-0.0118624503239489,-0.542139974690356
-0.0143962157160854,-0.544223418448498
-0.0169413479039099,-0.546281169443478
-0.0194974777973115,-0.548313061300049
-0.0220642363061801,-0.550318927642966
-0.0246412543404046,-0.552298602096981
-0.0272281628098746,-0.554251918286849
-0.0298245926244794,-0.556178709837321
-0.0324301746941083,-0.558078810373153
-0.0350445399286508,-0.559952053519096
-0.0376673192379962,-0.561798272899905
-0.0402981435320339,-0.563617302140333
-0.0429366437206533,-0.565408974865133
-0.0455824507137436,-0.567173124699059
-0.0482351954211944,-0.568909585266865
-0.0508945087528948,-0.570618190193302
-0.0535600216187345,-0.572298773103126
-0.0562313649286026,-0.573951167621089
-0.0589081695923886,-0.575575207371945
-0.0615900665199818,-0.577170725980447
-0.0642766866212717,-0.578737557071348
-0.0669676608061475,-0.580275534269403
-0.0696626199844987,-0.581784491199364
-0.0723611950662145,-0.583264261485985
-0.0750630169611845,-0.584714678754018
-0.0777677165792978,-0.586135576628219
-0.0804749248304441,-0.587526788733339
-0.0831842726245125,-0.588888148694133
-0.0858953908713925,-0.590219490135354
-0.0886079104809733,-0.591520646681755
-0.0913214623631446,-0.592791451958089
-0.0940356774277954,-0.59403173958911
-0.0967501865848153,-0.595241343199572
-0.0994646207440936,-0.596420096414228
-0.10217861081552,-0.597567832857831
-0.104891787708983,-0.598684386155134
-0.107603782334373,-0.599769589930891
-0.110314225601578,-0.600823277809856
-0.113022748420489,-0.601845283416782
-0.115728981700994,-0.602835440376422
-0.118432556352984,-0.603793582313529
-0.121133103286347,-0.604719542852858
-0.123830253410972,-0.605613155619161
-0.12652363763675,-0.606474254237191
-0.129212886873569,-0.607302672331703
-0.131897632031319,-0.60809824352745
-0.134577504019889,-0.608860801449184
-0.137252133749169,-0.60959017972166
-0.139921152129048,-0.610286211969631
-0.142584190069415,-0.61094873181785
-0.145240878480159,-0.611577572891071
-0.147890848271171,-0.612172568814047
-0.150533730352339,-0.612733553211531
-0.153169155633553,-0.613260359708277
-0.155796755024702,-0.613752821929039
-0.158416159435676,-0.614210773498569
-0.161026999776363,-0.614634048041621
-0.163628906956654,-0.615022479182949
-0.166221511886437,-0.615375900547305
-0.168804445475603,-0.615694145759444
-0.171377338634039,-0.615977048444118
-0.173939822271637,-0.616224442226082
-0.176491527298285,-0.616436160730087
-0.179032084623872,-0.616612037580889
-0.181561125158288,-0.61675190640324
-0.184078279811422,-0.616855600821894
-0.186583179493163,-0.616922954461604
-0.189075455113402,-0.616953800947123
-0.191554737582027,-0.616947973903205
-0.194020657808928,-0.616905306954604
-0.196472846703994,-0.616825633726072
-0.198910935177114,-0.616708787842363
-0.201334554138178,-0.616554602928231
-0.203743334497075,-0.616362912608429
-0.206136907163695,-0.61613355050771
-0.208514903047927,-0.615866350250827
-0.21087695305966,-0.615561145462535
-0.213222688108783,-0.615217769767586
-0.215551739105187,-0.614836056790735
-0.21786373695876,-0.614415840156733
-0.220158312579392,-0.613956953490336
-0.222435096876971,-0.613459230416295
-0.224693720761389,-0.612922504559365
-0.226933815142533,-0.612346609544299
-0.229155010930294,-0.61173137899585
-0.23135693903456,-0.611076646538772
-0.233539230365221,-0.610382245797818
-0.235701515832166,-0.609648010397741
-0.237843426345285,-0.608873773963296
-0.239964592814467,-0.608059370119235
-0.242064646149602,-0.607204632490311
-0.244143217260578,-0.606309394701279
-0.246199937057286,-0.605373490376891
-0.248234436449614,-0.604396753141901
-0.250246346347452,-0.603379016621063
-0.25223529766069,-0.602320114439129
-0.254200921299216,-0.601219880220854
-0.25614284817292,-0.60007814759099
-0.258060709191691,-0.598894750174291
-0.25995413526542,-0.59766952159551
-0.261822757303994,-0.596402295479401
-0.263666206217304,-0.595092905450718
-0.265484112915239,-0.593741185134213
-0.267276108307688,-0.59234696815464
-0.26904182330454,-0.590910088136752
-0.270780888815686,-0.589430378705303
-0.272492935751014,-0.587907673485046
-0.274177595020414,-0.586341806100735
-0.275834497533775,-0.584732610177123
-0.277463274200986,-0.583079919338963
-0.279063555931937,-0.581383567211009
-0.280634973636517,-0.579643387418014
-0.282177158224616,-0.577859213584732
-0.283689740606123,-0.576030879335915
-0.285172351690927,-0.574158218296319
-0.286624622388918,-0.572241064090695
-0.288046183609985,-0.570279250343797
-0.289436666264017,-0.568272610680379
-0.290795701260904,-0.566220978725194
-0.292122919510536,-0.564124188102995
-0.2934179519228,-0.561982072438536
-0.294680429407588,-0.55979446535657
-0.295909982874788,-0.557561200481851
-0.29710624323429,-0.555282111439132
-0.298268841395982,-0.552957031853166
-0.299397408269755,-0.550585795348707
-0.300491574765498,-0.548168235550509
-0.301550971793099,-0.545704186083324
-0.30257523026245,-0.543193480571906
-0.303563981083438,-0.540635952641009
-0.304516855165953,-0.538031435915385
-0.304516855165953,-0.538031435915385
-0.305434886572182,-0.535411680610317
-0.306319473698365,-0.53280843746471
-0.307170793955473,-0.530221540888753
-0.307989024754478,-0.527650825292635
-0.308774343506351,-0.525096125086543
-0.309526927622064,-0.522557274680668
-0.310246954512588,-0.520034108485197
-0.310934601588894,-0.51752646091032
-0.311590046261954,-0.515034166366225
-0.312213465942739,-0.512557059263101
-0.31280503804222,-0.510094974011137
-0.313364939971369,-0.507647745020521
-0.313893349141157,-0.505215206701442
-0.314390442962555,-0.502797193464089
-0.314856398846536,-0.500393539718651
-0.315291394204069,-0.498004079875316
-0.315695606446127,-0.495628648344274
-0.316069212983681,-0.493267079535712
-0.316412391227702,-0.49091920785982
-0.316725318589162,-0.488584867726786
-0.317008172479032,-0.4862638935468
-0.317261130308283,-0.483956119730049
-0.317484369487887,-0.481661380686722
-0.317678067428815,-0.479379510827009
-0.317842401542039,-0.477110344561099
-0.317977549238529,-0.474853716299178
-0.318083687929258,-0.472609460451438
-0.318160995025196,-0.470377411428065
-0.318209647937315,-0.46815740363925
-0.318229824076586,-0.46594927149518
-0.31822170085398,-0.463752849406045
-0.31818545568047,-0.461567971782033
-0.318121265967026,-0.459394473033334
-0.31802930912462,-0.457232187570134
-0.317909762564223,-0.455080949802624
-0.317762803696806,-0.452940594140993
-0.317588609933341,-0.450810954995428
-0.317387358684799,-0.448691866776119
-0.317159227362152,-0.446583163893254
-0.31690439337637,-0.444484680757023
-0.316623034138426,-0.442396251777613
-0.316315327059291,-0.440317711365214
-0.315981449549935,-0.438248893930015
-0.315621579021331,-0.436189633882203
-0.315235892884449,-0.434139765631969
-0.314824568550261,-0.432099123589499
-0.314387783429739,-0.430067542164985
-0.313925714933854,-0.428044855768613
-0.313438540473577,-0.426030898810573
-0.312926437459879,-0.424025505701054
-0.312389583303732,-0.422028510850243
-0.311828155416107,-0.420039748668331
-0.311242331207976,-0.418059053565506
-0.31063228809031,-0.416086259951956
-0.309998203474079,-0.414121202237871
-0.309340254770257,-0.412163714833438
-0.308658619389814,-0.410213632148847
-0.307953474743721,-0.408270788594286
-0.30722499824295,-0.406335018579945
-0.306473367298472,-0.404406156516012
-0.305698759321258,-0.402484036812675
-0.304901351722281,-0.400568493880124
-0.30408132191251,-0.398659362128547
-0.303238847302918,-0.396756475968133
-0.302374105304476,-0.39485966980907
-0.301487273328155,-0.392968778061548
-0.300578528784927,-0.391083635135754
-0.299648049085763,-0.389204075441879
-0.298696011641634,-0.387329933390111
-0.297722593863512,-0.385461043390637
-0.296727973162368,-0.383597239853648
-0.295712326949173,-0.381738357189331
-0.2946758326349,-0.379884229807876
-0.293618667630518,-0.378034692119472
-0.292541009347,-0.376189578534306
-0.291443035195317,-0.374348723462568
-0.29032492258644,-0.372511961314447
-0.289186848931341,-0.370679126500131
-0.28802899164099,-0.368850053429808
-0.28685152812636,-0.367024576513669
-0.285654635798422,-0.365202530161901
-0.284438492068147,-0.363383748784693
-0.283203274346506,-0.361568066792234
-0.281949160044471,-0.359755318594713
-0.280676326573013,-0.357945338602319
-0.279384951343104,-0.356137961225239
-0.278075211765715,-0.354333020873663
-0.276747285251816,-0.35253035195778
-0.275401349212381,-0.350729788887779
-0.274037581058379,-0.348931166073847
-0.272656158200783,-0.347134317926174
-0.271257258050563,-0.345339078854949
-0.269841058018692,-0.343545283270361
-0.268407735516139,-0.341752765582597
-0.266957467953878,-0.339961360201847
-0.265490432742879,-0.3381709015383
-0.264006807294113,-0.336381224002144
-0.262506769018552,-0.334592162003568
-0.260990495327167,-0.332803549952761
-0.25945816363093,-0.331015222259911
-0.257909951340812,-0.329227013335208
-0.256346035867784,-0.327438757588839
-0.254766594622818,-0.325650289430994
-0.253171805016884,-0.323861443271862
-0.251561844460956,-0.322072053521631
-0.249936890366002,-0.32028195459049
-0.248297120142996,-0.318490980888628
-0.246642711202909,-0.316698966826233
-0.244973840956711,-0.314905746813494
-0.243290686815375,-0.3131111552606
-0.241593426189871,-0.31131502657774
-0.239882236491171,-0.309517195175102
-0.238157295130246,-0.307717495462875
-0.236418779518068,-0.305915761851248
-0.234666867065608,-0.30411182875041
-0.232901735183837,-0.302305530570549
-0.231123561283727,-0.300496701721855
-0.229332522776249,-0.298685176614515
-0.227528797072374,-0.296870789658718
-0.225712561583075,-0.295053375264654
-0.223883993719321,-0.293232767842511
-0.222043270892085,-0.291408801802478
-0.220190570512338,-0.289581311554743
-0.218326069991052,-0.287750131509495
-0.216449946739196,-0.285915096076924
-0.214562378167744,-0.284076039667217
-0.212663541687666,-0.282232796690564
-0.210753614709934,-0.280385201557153
-0.208832774645519,-0.278533088677173
-0.206901198905392,-0.276676292460812
-0.204959064900525,-0.27481464731826
-0.20300655004189,-0.272947987659706
-0.201043831740457,-0.271076147895337
-0.199071087407197,-0.269198962435343
-0.197088494453083,-0.267316265689912
-0.195096230289086,-0.265427892069233
-0.193094472326176,-0.263533675983495
-0.191083397975326,-0.261633451842887
-0.189063184647506,-0.259727054057597
-0.187034009753689,-0.257814317037815
-0.184996050704845,-0.255895075193728
-0.182949484911946,-0.253969162935526
-0.180894489785962,-0.252036414673396
-0.178831242737867,-0.25009666481753
-0.17675992117863,-0.248149747778114
-0.174680702519223,-0.246195497965337
-0.172593764170618,-0.244233749789388
-0.170499283543786,-0.242264337660457
-0.168397438049698,-0.240287095988732
-0.166288405099326,-0.238301859184401
-0.164172362103641,-0.236308461657653
-0.162049486473614,-0.234306737818677
-0.159919955620217,-0.232296522077662
-0.157783946954422,-0.230277648844796
-0.155641637887198,-0.228249952530268
-0.153493205829519,-0.226213267544268
-0.151338828192354,-0.224167428296983
-0.149178682386677,-0.222112269198602
-0.147012945823457,-0.220047624659315
-0.144841795913666,-0.217973329089309
-0.142665410068276,-0.215889216898774
-0.140483965698258,-0.213795122497899
-0.138297640214584,-0.211690880296871
-0.136106611028224,-0.209576324705881
-0.13391105555015,-0.207451290135116
-0.131711151191334,-0.205315610994765
-0.129507075362746,-0.203169121695018
-0.127299005475359,-0.201011656646062
-0.125087118940143,-0.198843050258087
-0.12287159316807,-0.196663136941281
-0.120652605570112,-0.194471751105833
-0.118430333557239,-0.192268727161932
-0.116204954540423,-0.190053899519766
-0.113976645930635,-0.187827102589525
-0.111745585138847,-0.185588170781396
-0.10951194957603,-0.183336938505569
-0.107275916653156,-0.181073240172233
-0.105037663781195,-0.178796910191576
-0.10279736837112,-0.176507782973787
-0.100555207833901,-0.174205692929054
-0.0983113595805095,-0.171890474467567
-0.0960660010219176,-0.169561961999514
-0.0938193095690963,-0.167219989935084
-0.091571462633017,-0.164864392684466
-0.089322637624651,-0.162495004657848
-0.0870730119549697,-0.160111660265419
-0.0848227630349444,-0.157714193917368
-0.0825720682755466,-0.155302440023884
-0.0803211050877476,-0.152876232995155
-0.0780700508825186,-0.15043540724137
-0.0758190830708311,-0.147979797172717
-0.0735683790636566,-0.145509237199387
-0.0713181162719663,-0.143023561731566
-0.0690684721067315,-0.140522605179445
-0.0668196239789236,-0.138006201953211
-0.0645717492995141,-0.135474186463054
-0.0623250254794743,-0.132926393119163
-0.0600796299297754,-0.130362656331725
-0.0578357400613889,-0.12778281051093
-0.0555935332852863,-0.125186690066966
-0.0533531870124386,-0.122574129410023
-0.0511148786538176,-0.119944962950288
-0.0488787856203942,-0.117299025097951
-0.0466450853231402,-0.114636150263201
-0.0444139551730266,-0.111956172856226
-0.0421855725810251,-0.109258927287215
-0.0399601149581067,-0.106544247966356
-0.0377377597152431,-0.103811969303839
-0.0355186842634054,-0.101061925709852
-0.0333030660135652,-0.0982939515945833
-0.0310910823766936,-0.0955078813682226
-0.0288829107637622,-0.0927035494409584
-0.0266787285857421,-0.089880790222979
-0.024478713253605,-0.0870394381244737
-0.0222830421783219,-0.0841793275556308
-0.0200918927708645,-0.0813002929266393
-0.0179054424422038,-0.0784021686476877
-0.0157238686033116,-0.0754847891289651
-0.0135473486651588,-0.0725479887806598
-0.0113760600387172,-0.0695916020129609
-0.00921018013495778,-0.0666154632360569
-0.0070498863648522,-0.0636194068601367
-0.00489535613937157,-0.0606032672953889
-0.00274676686948749,-0.0575668789520025
-0.000604295966171092,-0.0545100762401659
0.00153187915960605,-0.0514326935700681
0.00366158109687276,-0.0483345653518976
0.00578463243465752,-0.0452155259958434
0.00790085576198907,-0.042075409912094
0.010010073667896,-0.0389140515108384
0.012112108741407,-0.035731285202265
0.0142067835715506,-0.032526945396563
0.0162939207473556,-0.0293008665039206
0.0183733428578505,-0.026052882934527
0.020444872492064,-0.0227828290985706
0.0225083322390247,-0.0194905394062404
0.0245635446877613,-0.016175848267725
0.0266103324273024,-0.0128385900932133
0.0286485180466767,-0.00947859929289369
0.0306779241349126,-0.00609571027695531
0.0326983732810391,-0.00268975745558656
0.0347096880740845,0.000739424761023483
0.0367116911030777,0.00419200196268647
0.0387042049570471,0.00766813973921326
0.0406870522250217,0.0111680036804154
0.0426600554960297,0.014691759376104
0.0446230373591001,0.0182395724160905
0.0465758204032613,0.0218116083901858
0.048518227217542,0.0254080328882016
0.0504500803909709,0.0290290114999488
0.0523712025125766,0.032674709815239
0.0542814161713877,0.0363452934238831
0.056180543956433,0.0400409279156927
0.0580684084567408,0.0437617788804787
0.0599448322613401,0.0475080119080527
0.0618096379592594,0.0512797925882258
0.0636626481395273,0.0550772865108092
0.0655036853911724,0.0589006592656143
0.0673325723032235,0.0627500764424523
0.0691491314647091,0.0666257036311344
0.0709531854646579,0.070527706421472
0.0727445568920985,0.0744562504032763
0.0745230683360596,0.0784115011663585
0.0762885423855697,0.0823936243005298
0.0780408016296577,0.0864027853956017
0.0797796686573519,0.0904391500413852
0.0815049660576812,0.0945028838276918
0.0832165164196741,0.0985941523443326
0.0849141423323594,0.102713121181119
0.0865976663847655,0.106859955927862
0.0882669111659212,0.111034822174373
0.0899216992648551,0.115237885510463
0.0915618532705959,0.119469311525944
0.0931871957721721,0.123729265810627
0.0947975493586125,0.128017913954323
0.0963927366189456,0.132335421546843
0.0979725801422001,0.136681954177999
0.0995369025174046,0.141057677437601
0.101085526333588,0.145462756915462
0.102618274179778,0.149897358201392
0.104134968645005,0.154361646885202
0.105635432318296,0.158855788556705
0.10711948778868,0.163379948805711
0.108586957645186,0.167934293222031
0.110037664476843,0.172518987395477
0.111471430872679,0.177134196915859
0.112888079421722,0.18178008737299
0.114287432713002,0.18645682435668
0.115669313335547,0.191164573456742
0.117033543878386,0.195903500262984
0.118379946930547,0.200673770365221
0.119708345081059,0.205475549353261
0.12101856091895,0.210309002816918
0.12231041703325,0.215174296346001
0.123583736012987,0.220071595530323
0.124838340447189,0.225001065959695
0.126074052924886,0.229962873223927
0.127290696035105,0.234957182912831
0.128488092366875,0.239984160616219
0.129666064509226,0.2450439719239
0.130824435051186,0.250136782425688
0.131963026581782,0.255262757711393
0.133081661690045,0.260422063370827
0.134180162965003,0.2656148649938
0.135258352995683,0.270841328170124
0.136316054371116,0.27610161848961
0.137353089680329,0.281395901542069
0.138369281512351,0.286724342917313
0.139364452456211,0.292087108205153
0.140338425100938,0.2974843629954
0.141291022035559,0.302916272877866
0.142222065849105,0.308383003442361
0.143131379130603,0.313884720278697
0.144018784469081,0.319421588976686
0.14488410445357,0.324993775126138
0.145727161673096,0.330601444316865
0.14654777871669,0.336244762138677
0.147345778173379,0.341923894181387
0.148120982632193,0.347639006034806
0.148873214682159,0.353390263288744
0.149602296912306,0.359177831533013
0.150308051911664,0.365001876357425
0.150990302269261,0.37086256335179
0.151648870574125,0.37676005810592
0.152283579415285,0.382694526209627
0.152894251381769,0.38866613325272
0.153480709062607,0.394675044825012
0.154042775046827,0.400721426516314
0.154580271923458,0.406805443916437
0.155093022281527,0.412927262615193
0.155580848710065,0.419087048202392
0.156043573798099,0.425284966267846
0.156481020134658,0.431521182401366
0.156893010308771,0.437795862192764
0.157279366909467,0.44410917123185
0.157639912525773,0.450461275108436
0.157974469746719,0.456852339412334
0.158282861161333,0.463282529733354
0.158564909358645,0.469752011661308
0.158820436927682,0.476260950786006
0.159049266457473,0.482809512697261
0.159251220537047,0.489397862984884
0.159426121755433,0.496026167238685
0.159573792701659,0.502694591048476
0.159694055964753,0.509403300004069
0.159786734133745,0.516152459695274
0.159851649797663,0.522942235711903
0.159888625545536,0.529772793643767
0.159897483966392,0.536644299080677
0.159878047649261,0.543556917612445
0.159830139183169,0.550510814828882
0.159753581157147,0.557506156319799
0.159648196160223,0.564543107675007
0.159513806781426,0.571621834484318
0.159350235609783,0.578742502337543
0.159157305234325,0.585905276824493
0.158934838244079,0.59311032353498
0.158682657228074,0.600357808058814
0.158400584775339,0.607647895985807
0.158088443474902,0.61498075290577
0.157746055915792,0.622356544408515
0.157373244687038,0.629775436083852
0.156969832377668,0.637237593521594
0.156535641576711,0.644743182311551
0.156070494873195,0.652292368043534
0.15557421485615,0.659885316307355
0.155046624114603,0.667522192692825
0.154487545237584,0.675203162789755
0.153896800814122,0.682928392187957
0.153274213433243,0.690698046477242
0.152619605683979,0.698512291247421
0.151932800155356,0.706371292088305
0.151213619436404,0.714275214589705
0.150461886116151,0.722224224341434
0.149677422783627,0.730218486933302
0.148860052027858,0.738258167955119
0.148009596437875,0.746343432996699
0.147125878602706,0.754474447647851
0.14620872111138,0.762651377498388
0.145257946552924,0.77087438813812
0.144273377516368,0.779143645156859
0.143254836590741,0.787459314144416
0.142202146365071,0.795821560690602
0.141115129428386,0.804230550385228
0.139993608369716,0.812686448818106
0.138837405778089,0.821189421579047
0.137646344242533,0.829739634257862
0.136420246352078,0.838337252444363
0.135158934695751,0.846982441728361
0.133862231862582,0.855675367699666
0.132529960441599,0.864416195948091
0.131161943021831,0.873205092063446
0.129758002192306,0.882042221635543
0.128317960542054,0.890927750254193
0.126841640660102,0.899861843509208
0.125328865135479,0.908844666990398
0.123779456557215,0.917876386287575
0.122193237514337,0.92695716699055
0.120570030595874,0.936087174689135
