0.0625704465304948,0.0936389103627111
0.057078073427887,0.0992590827544222
0.0516598313909427,0.104793644918485
0.0463154410422308,0.11024310104167
0.0410446230043199,0.115607955310747
0.0358470978997787,0.120888711912485
0.0307225863511759,0.126085875033654
0.0256708089810801,0.131199948861025
0.0206914864120602,0.136231437581366
0.0157843392666847,0.141180845381448
0.0109490881675223,0.146048676448041
0.00618545373714178,0.150835434967914
0.0014931565981118,0.155541625127838
-0.00312808262699898,0.160167751114582
-0.00767854331562186,0.164714317114915
-0.0121585048451882,0.169181827315608
-0.0165682465931292,0.173570785903431
-0.0209080479368762,0.177881697065154
-0.0251781882538606,0.182115064987545
-0.0293789469215136,0.186271393857376
-0.0335106033172666,0.190351187861416
-0.0375734368185508,0.194354951186434
-0.0415677268027977,0.198283188019201
-0.0454937526474384,0.202136402546486
-0.0493517937299044,0.20591509895506
-0.0531421294276268,0.209619781431692
-0.0568650391180371,0.213250954163151
-0.0605208021785665,0.216809121336208
-0.0641096979866464,0.220294787137633
-0.0676320059197081,0.223708455754195
-0.0710880053551828,0.227050631372665
-0.0744779756705019,0.230321818179811
-0.0778021962430967,0.233522520362404
-0.0810609464503985,0.236653242107214
-0.0842545056698386,0.239714487601011
-0.0873831532788483,0.242706761030564
-0.090447168654859,0.245630566582643
-0.0934468311753019,0.248486408444018
-0.0963824202176084,0.251274790801458
-0.0992542151592097,0.253996217841735
-0.102062495377537,0.256651193751617
-0.104807540250022,0.259240222717874
-0.107489629154096,0.261763808927277
-0.11010904146719,0.264222456566594
-0.112666056566735,0.266616669822596
-0.115160953830164,0.268946952882053
-0.117594012634906,0.271213809931735
-0.119965512358393,0.27341774515841
-0.122275732378057,0.27555926274885
-0.12452495207133,0.277638866889824
-0.126713450815641,0.279657061768101
-0.128841507988423,0.281614351570453
-0.130909402967107,0.283511240483647
-0.132917415129124,0.285348232694455
-0.134865823851906,0.287125832389646
-0.136754908512884,0.28884454375599
-0.138584948489488,0.290504870980257
-0.140356223159152,0.292107318249216
-0.142069011899305,0.293652389749638
-0.143723594087379,0.295140589668291
-0.145320249100805,0.296572422191948
-0.146859256317015,0.297948391507376
-0.14834089511344,0.299269001801345
-0.149765444867512,0.300534757260626
-0.151133184956661,0.301746162071989
-0.152444394758319,0.302903720422203
-0.153699353649918,0.304007936498038
-0.154898341008888,0.305059314486263
-0.156041636212661,0.30605835857365
-0.157129518638668,0.307005572946967
-0.15816226766434,0.307901461792984
-0.15914016266711,0.308746529298472
-0.160063483024407,0.3095412796502
-0.160932508113664,0.310286217034937
-0.161747517312312,0.310981845639454
-0.162508789997782,0.311628669650521
-0.163216605547505,0.312227193254907
-0.163871243338913,0.312777920639382
-0.164472982749437,0.313281355990716
-0.165022103156508,0.313738003495679
-0.165518883937558,0.314148367341041
-0.165963604470017,0.314512951713572
-0.166356544131318,0.31483226080004
-0.166697982298892,0.315106798787217
-0.166988198350169,0.315337069861871
-0.167227471662582,0.315523578210774
-0.167416081613561,0.315666828020694
-0.167554307580538,0.315767323478401
-0.167642428940944,0.315825568770666
-0.16768072507221,0.315842068084258
-0.167669475351768,0.315817325605947
-0.167608959157049,0.315751845522503
-0.167499455865485,0.315646132020695
-0.167341244854506,0.315500689287294
-0.167134605501544,0.315316021509069
-0.16687981718403,0.31509263287279
-0.166577159279396,0.314831027565228
-0.166226911165073,0.31453170977315
-0.165829352218492,0.314195183683329
-0.165384761817085,0.313821953482533
-0.164893419338283,0.313412523357532
-0.164355604159516,0.312967397495096
-0.163771595658217,0.312487080081995
-0.163141673211817,0.311972075304999
-0.162466116197747,0.311422887350877
-0.161745203993439,0.3108400204064
-0.160979215976323,0.310223978658337
-0.160168431523831,0.309575266293458
-0.159313130013394,0.308894387498533
-0.158413590822444,0.308181846460331
-0.157470093328412,0.307438147365624
-0.156482916908729,0.306663794401179
-0.155452340940827,0.305859291753768
-0.154378644802137,0.30502514361016
-0.15326210787009,0.304161854157124
-0.152103009522117,0.303269927581431
-0.150901629135651,0.302349868069851
-0.149658246088121,0.301402179809153
-0.14837313975696,0.300427366986108
-0.147046589519598,0.299425933787484
-0.145678874753468,0.298398384400052
-0.144270274836,0.297345223010582
-0.142821069144625,0.296266953805843
-0.141331537056776,0.295164080972606
-0.139801957949883,0.29403710869764
-0.138232611201378,0.292886541167714
-0.136623776188691,0.2917128825696
-0.134975732289255,0.290516637090066
-0.1332887588805,0.289298308915883
-0.131563135339858,0.28805840223382
-0.12979914104476,0.286797421230647
-0.127997055372638,0.285515870093134
-0.126157157700923,0.28421425300805
-0.124279727407045,0.282893074162167
-0.122365043868437,0.281552837742253
-0.12041338646253,0.280194047935078
-0.118425034566755,0.278817208927412
-0.116400267558543,0.277422824906025
-0.114339364815326,0.276011400057687
-0.112242605714535,0.274583438569167
-0.110110269633601,0.273139444627236
-0.107942635949956,0.271679922418663
-0.10573998404103,0.270205376130218
-0.103502593284256,0.268716309948671
-0.101230743057064,0.267213228060792
-0.0989247127368864,0.265696634653351
-0.0965847817011536,0.264167033913116
-0.0942112293272973,0.262624930026859
-0.0918043349927488,0.261070827181349
-0.0893643780749394,0.259505229563356
-0.0868916379513003,0.25792864135965
-0.084386393999263,0.256341566757
-0.0818489255962586,0.254744509942176
-0.0792795121197187,0.253137975101949
-0.0766784329470742,0.251522466423088
-0.0740459674557568,0.249898488092362
-0.0713823950231976,0.248266544296542
-0.068687995026828,0.246627139222398
-0.0659630468440792,0.244980777056699
-0.0632078298523827,0.243327961986216
-0.0604226234291696,0.241669198197717
-0.0576077069518714,0.240004989877973
-0.0547633597979192,0.238335841213754
-0.0518898613447445,0.236662256391829
-0.0489874909697785,0.234984739598968
-0.0460565280504526,0.233303795021942
-0.0430972519641981,0.23161992684752
-0.0401099420884461,0.229933639262471
-0.0370948778006283,0.228245436453566
-0.0340523384781758,0.226555822607575
-0.0309826034985197,0.224865301911267
-0.0278859522390916,0.223174378551411
-0.0247626640773229,0.221483556714779
-0.0216130183906446,0.21979334058814
-0.0184372945564881,0.218104234358263
-0.0152357719522847,0.216416742211919
-0.012008729955466,0.214731368335877
-0.00875644794346296,0.213048616916907
-0.00547920529370703,0.211368992141779
-0.00217728138362942,0.209692998197263
0.00114904440933834,0.208021139270128
0.00449949270776512,0.206353919547145
0.0078737841342196,0.204691843215083
0.0112716393112704,0.203035414460712
0.0146927788614862,0.201385137470802
0.0181369234074358,0.199741516432122
0.0216037935716877,0.198105055531444
0.0250931099768109,0.196476258955535
0.0286045932453737,0.194855630891167
0.0321379639999451,0.193243675525109
0.0356929428630937,0.191640897044131
0.0392692504573881,0.190047799635002
0.0428666074053971,0.188464887484493
0.0464847343296892,0.186892664779373
0.0501233518528334,0.185331635706413
0.0537821805973981,0.183782304452381
0.0574609411859522,0.182245175204049
0.0611593542410642,0.180720752148185
0.064877140385303,0.179209539471559
0.0686140202412371,0.177712041360942
0.0723697144314353,0.176228762003103
0.0761439435784663,0.174760205584812
0.0799364283048986,0.173306876292839
0.0837468892333011,0.171869278313953
0.0875750469862424,0.170447915834925
0.0914206221862913,0.169043293042525
0.0952833354560163,0.167655914123521
0.0991629074179863,0.166286283264685
0.10305905869477,0.164934904652785
0.106971509908936,0.163602282474592
0.110899981683052,0.162288920916875
0.114844194639689,0.160995324166405
0.118803869401413,0.15972199640995
0.122778726590795,0.158469441834282
0.126768486830402,0.157238164626169
0.130772870742804,0.156028668972382
0.134791598950569,0.154841459059691
0.138824392076266,0.153677039074864
0.142870970742463,0.152535913204673
0.146931055571729,0.151418585635887
0.151004367186633,0.150325560555275
0.155090626209744,0.149257342149608
0.15918955326363,0.148214434605656
0.16330086897086,0.147197342110187
0.167424293954002,0.146206568849973
0.171559548835626,0.145242619011783
0.1757063542383,0.144305996782386
0.179864430784592,0.143397206348553
0.184033499097072,0.142516751897053
0.188213279798308,0.141665137614657
0.192403493510868,0.140842867688133
0.196603860857322,0.140050446304253
0.200814102460238,0.139288377649785
0.205033938942185,0.1385571659115
0.209263090925731,0.137857315276167
0.213501279033446,0.137189329930556
0.217748223887897,0.136553714061437
0.222003646111654,0.13595097185558
0.226267266327285,0.135381607499755
0.230538805157359,0.134846125180731
0.234817983224445,0.134345029085278
0.239104521151111,0.133878823400167
0.243398139559926,0.133448012312167
0.247698559073459,0.133053100008047
0.252005500314278,0.132694590674578
0.256318683904953,0.13237298849853
0.26063783046805,0.132088797666672
0.264962660626141,0.131842522365774
0.269292895001792,0.131634666782606
0.273628254217574,0.131465735103938
0.277968458896054,0.131336231516539
0.282313229659801,0.13124666020718
0.286662287131384,0.13119752536263
0.291015351933371,0.13118933116966
0.295372144688332,0.131222581815038
0.299732386018835,0.131297781485535
0.304095796547448,0.131415434367921
0.308462096896741,0.131576044648965
0.312831007689282,0.131780116515437
0.31720224954764,0.132028154154107
0.321575543094383,0.132320661751746
0.32595060895208,0.132658143495122
0.3303271677433,0.133041103571005
0.334704940090611,0.133470046166166
0.339083646616582,0.133945475467375
0.343463007943783,0.1344678956614
0.347842744694781,0.135037810935012
0.352222577492145,0.135655725474981
0.356602226958444,0.136322143468076
0.360981413716246,0.137037569101068
0.365359858388121,0.137802506560726
0.369737281596637,0.13861746003382
0.374113403964363,0.13948293370712
0.378487946113867,0.140399431767396
0.382860628667718,0.141367458401417
0.387231172248484,0.142387517795954
0.391599297478736,0.143460114137775
0.39596472498104,0.144585751613652
0.400327175377966,0.145764934410353
0.404686369292083,0.14699816671465
0.409042027345958,0.14828595271331
0.413393870162162,0.149628796593105
0.417741618363262,0.151027202540805
0.422084992571828,0.152481674743178
0.426423713410427,0.153992717386995
0.430757501501629,0.155560834659026
0.435086077468003,0.15718653074604
0.439409161932116,0.158870309834807
0.443726475516538,0.160612676112098
0.448037738843838,0.162414133764681
0.452342672536583,0.164275186979327
0.456640997217343,0.166196339942806
0.460932433508687,0.168178096841888
0.465216702033183,0.170220961863341
0.4694935234134,0.172325439193937
0.473762618271906,0.174492033020445
0.478023707231271,0.176721247529634
0.482276510914062,0.179013586908275
0.486520749942849,0.181369555343138
0.4907561449402,0.183789657020992
0.494982416528684,0.186274396128606
0.49919928533087,0.188824276852752
0.503406471969326,0.191439803380199
0.507603697066622,0.194121479897716
0.511790681245325,0.196869810592073
0.515967145128004,0.199685299650041
0.520132809337229,0.202568451258388
0.524287394495567,0.205519769603886
0.528430621225588,0.208539758873303
0.532562210149859,0.21162892325341
0.536681881890951,0.214787766930976
0.540789357071432,0.218016794092772
0.544884356313869,0.221316508925566
0.548966600240833,0.22468741561613
0.553035809474891,0.228130018351232
0.557091704638612,0.231644821317642
0.561134006354566,0.235232328702131
0.56516243524532,0.238893044691468
0.569176711933443,0.242627473472423
0.573176557041505,0.246436119231766
0.577161691192073,0.250319486156267
0.581131835007717,0.254278078432695
0.585086709111004,0.25831240024782
0.589026034124505,0.262422955788413
0.592949530670787,0.266610249241242
0.59685691937242,0.270874784793079
0.600747920851971,0.275217066630691
0.60462225573201,0.279637598940851
0.608479644635105,0.284136885910327
0.612319808183825,0.288715431725889
0.616142467000739,0.293373740574306
0.619947341708414,0.29811231664235
0.623734152929421,0.302931664116789
0.627502621286328,0.307832287184394
0.631252467401703,0.312814690031934
0.634983411898115,0.317879376846179
0.638695175398133,0.323026851813899
0.642387478524326,0.328257619121864
0.646060041899261,0.333572182956843
0.649712586145509,0.338971047505607
0.653344831885637,0.344454716954925
0.656956499742214,0.350023695491567
0.660547310337809,0.355678487302303
0.664116984294991,0.361419596573903
0.667665242236328,0.367247527493136
0.671191804784389,0.373162784246773
0.674696392561742,0.379165871021583
0.678178726190957,0.385257292004336
0.681638526294602,0.391437551381802
0.685075513495246,0.39770715334075
0.688489408415457,0.404066602067951
0.691879931677804,0.410516401750175
0.695246803904856,0.417057056574191
0.698589745719182,0.423689070726768
0.701908477743349,0.430412948394678
0.705202720599928,0.437229193764689
0.708472194911486,0.444138311023572
0.711716621300592,0.451140804358096
0.714935720389816,0.458237177955031
0.718129212801724,0.465427936001148
0.721296819158888,0.472713582683215
0.724438260083874,0.480094622188003
0.727553256199252,0.487571558702281
0.73064152812759,0.49514489641282
0.733702796491457,0.502815139506388
0.736736781913423,0.510582792169757
0.739743205016054,0.518448358589696
0.742721786421921,0.526412342952974
0.745672246753591,0.534475249446361
0.748594306633634,0.542637582256629
0.751487686684618,0.550899845570544
0.754352107529113,0.55926254357488
0.757187289789685,0.567726180456403
0.759992954088905,0.576291260401886
0.762768821049341,0.584958287598097
0.765514611293562,0.593727766231806
0.768230045444136,0.602600200489783
0.770914844123631,0.611576094558798
0.773568727954618,0.620655952625621
0.776191417559664,0.629840278877022
0.778782633561338,0.639129577499769
0.781342096582209,0.648524352680635
0.783869527244845,0.658025108606387
0.786364646171816,0.667632349463796
0.788827173985689,0.677346579439632
0.791256831309034,0.687168302720665
0.793653338764419,0.697098023493663
0.796016416974413,0.707136245945398
0.798345786561585,0.717283474262639
0.800641168148503,0.727540212632157
0.802902282357736,0.737906965240719
0.805128849811852,0.748384236275097
0.807320591133421,0.758972529922061
0.809477226945011,0.76967235036838
0.811598477869191,0.780484201800823
0.813684064528529,0.791408588406162
0.815733707545594,0.802446014371165
0.817747127542956,0.813596983882604
0.819724045143181,0.824862001127246
0.82166418096884,0.836241570291862
