0.956214987610306,-0.0606640727950283
0.970740662914149,-0.0321056179857574
0.957459792583238,-0.0522883053213735
0.966155819396552,-0.0899906641409511
0.971748538516618,-0.0439266802851718
0.923909908723281,-0.0324945232108321
0.922237635510002,-0.0311543145226007
0.893289118200203,-0.0548913070874794
0.888510207959762,-0.0303724837067112
0.849279700121295,0.00556523577510641
0.868739916682,-0.0350093497968306
0.831338429472648,-0.00518424131414956
0.829923940112173,0.0198741558391684
0.792397115532354,-0.00246561884345521
0.85554468673171,0.0015787115011251
0.807597302310857,0.0351357018344637
0.792423802380355,0.012667128325848
0.799817603729279,0.0409333944849742
0.789223306754061,0.027202958824098
0.780669909925656,0.0522932721036279
0.771256877439045,0.0578806311723716
0.753489341215741,0.0330811727090946
0.762357844840391,0.0546213151254837
0.715574053443019,0.0841420017588077
0.733621517020964,0.0916135023152429
0.717000004094029,0.0901212971933512
0.703127094036023,0.119909367934599
0.678613971642937,0.0822050192908359
0.687140951516008,0.0941125633633303
0.668610784937845,0.135724761610244
0.674642295413047,0.115329809117785
0.680541718321337,0.150504847564071
0.650839984470521,0.154677168250292
0.625882058715623,0.132524538932477
0.639138044899673,0.124063426598418
0.665245139006414,0.0999491532652976
0.680326425731672,0.131240120075265
0.603658687655531,0.173912276758325
0.612715923029413,0.165808942497648
0.586463923160519,0.193972634457607
0.580752865744356,0.173687061161032
0.576217827736642,0.174002499706282
0.569325880804134,0.178113677790084
0.577668637192348,0.181853334811801
0.555825418641701,0.186166910002469
0.578119469228869,0.212628038138439
0.549373418383327,0.200329549393902
0.556758892691714,0.186035531824435
0.514364098528508,0.202778093018481
0.523705333176133,0.205322788184787
0.490314501555126,0.203655854473831
0.511499700220059,0.212598467843818
0.49655799211725,0.219130786475142
0.486871294391849,0.20988890933564
0.493867601215811,0.223102707419333
0.488789078696691,0.243722027146793
0.496851355583256,0.233357971559366
0.476534190307867,0.196091825144863
0.471600603187124,0.236352789666818
0.474204374122335,0.27796702250134
0.476544325194702,0.266169414542766
0.473246371117744,0.233469525007178
0.463433609574958,0.230146903733126
0.445720706345466,0.251719122678789
0.420389636085548,0.247383221988692
0.472263528237733,0.2370456359053
0.424663983923829,0.296662146960111
0.444221055316885,0.253528136043328
0.387834152520124,0.252699053821395
0.408687744693512,0.273599607264561
0.404427192545314,0.276104734527762
0.390868663293568,0.282217518621921
0.382110875290145,0.297002094615989
0.427249844278638,0.31078439280189
0.386720233300606,0.326973916533936
0.380020924109635,0.313486493871996
0.332351630433429,0.334776126596307
0.348431455811546,0.288529492209079
0.362756699567168,0.300376974602057
0.378401076237237,0.350260200617276
0.352675964628564,0.298668170539005
0.333742602080489,0.300461345719597
0.34988902634313,0.307742514853277
0.346979307119799,0.28354485798728
0.348705893596953,0.293591353086765
0.344070842245602,0.308665851631037
0.349626849413381,0.340122155161217
0.332772482360021,0.317372189619012
0.361065328760516,0.338528654601219
0.325891496511955,0.30837219156969
0.320445929759198,0.324124063673842
0.329399475041018,0.331424203593284
0.303923966867673,0.320568300337889
0.309816837143924,0.329745522771963
0.291978648483219,0.346256572167587
0.306027119899032,0.331683202657415
0.286956792457952,0.337328037376106
0.290470312733648,0.341223104826871
0.291610395534682,0.378762224542784
0.324165951480603,0.331245657007997
0.313229373829884,0.358169269472879
0.23597563730446,0.343035192540149
0.313286828270382,0.362721687405061
0.288577843144309,0.339685073172111
0.287517489089253,0.340077965419001
0.284684611772499,0.341010197635277
0.283854789402728,0.341239461679487
0.287310146585628,0.321955420926081
0.281702048003482,0.341685619945507
0.287231225225766,0.351819599059169
0.285735559547847,0.376498288442626
0.28004436842329,0.341773536737175
0.310713752993349,0.345375205603536
0.278868859131514,0.341508624044501
0.271568011012967,0.349954576506889
0.277946152474531,0.340297736601397
0.257496053386309,0.345921381995892
0.3131056842532,0.325356048760827
0.284953195113391,0.328259515101923
0.278730694235792,0.337028918230506
0.279032241403139,0.336415554165235
0.286914042155072,0.337401326963186
0.268492977447015,0.352045177715684
0.280693005940822,0.333604140636404
0.266190141302281,0.343067289302381
0.295882990940297,0.328166244558482
0.292201080795841,0.334106864327151
0.32126295614683,0.367436507553933
0.253846613402789,0.332487996174651
0.267438867642376,0.305385117608114
0.286958647281456,0.325239131412524
0.289779487420342,0.321842551856005
0.275851831380415,0.311961819293173
0.265579064695757,0.330241538809714
0.296442258052298,0.31416949996017
0.343419208064228,0.329194015948713
0.286466296070665,0.307914505561131
0.283014195533091,0.2986162944863
0.304380538952243,0.305359337620655
0.290734639671815,0.287967331300021
0.248415093425229,0.315218877503214
0.303476223789075,0.282637571752492
0.287593598517545,0.283955022739207
0.361666303749135,0.291538122353557
0.318453940268472,0.290106721854606
0.317530401010603,0.263833785268428
0.332182974878519,0.290372165704205
0.323671102575678,0.284500865290811
0.312888625817872,0.296084654090235
0.317933030239867,0.269844169594132
0.362996966250366,0.26533676549864
0.296110301665509,0.260738830905624
0.375765420365062,0.273951985061725
0.306631355418396,0.240916489764341
0.348904279669639,0.257368553041109
0.351495121268285,0.249062444818058
0.353122009246463,0.252802737208818
0.367502493896588,0.284817841579538
0.328099449082748,0.21165787293145
0.359594968893103,0.245767226469866
0.361789742993967,0.243373048135708
0.366232107739082,0.238512382000079
0.367068339785178,0.225063586812384
0.362112711644637,0.224925115616987
0.380189843581692,0.216533796398091
0.309252576494651,0.194181532466117
0.415656366305905,0.234567169024707
0.382900952110241,0.193175982534774
0.386999684166666,0.215485966105781
0.389376121667025,0.212814977434976
0.391921098426736,0.219093427085544
0.396575734911651,0.204672225349432
0.395781375174729,0.171565442179774
0.43703215503352,0.243043574793009
0.39713616863356,0.177828128610777
0.438706014555092,0.181135153117943
0.421191206339183,0.176184503974623
0.465892506953307,0.178737082924546
0.471827178816907,0.155472362147366
0.446926651065466,0.158734252615199
0.453991234286903,0.136316181720127
0.456525029588684,0.133127903597003
0.478503983797373,0.109861468749078
0.461589573436202,0.126702489840139
0.462127217394524,0.117546802229203
0.494069973772347,0.136856826380688
0.475036859922142,0.0828282303502595
0.479233352233794,0.103721584457443
0.487732965963813,0.105800972243305
0.49662460426251,0.0800277949849108
0.517617297044944,0.0725238234390109
0.493345782401914,0.0712812992354481
0.513599559336834,0.0556898737400403
0.487818053889492,0.0767242861774314
0.517371368426867,0.0326946909114426
0.548905497865292,0.0300247810835747
0.493255021772544,0.0558947431066079
0.529994447271251,0.0307765730403293
0.54270287270331,0.0242514267913064
0.552846071278455,0.0492629548398075
0.548477183114422,0.0113685538146212
0.533467697334268,0.00168870060315592
0.53251650151461,-0.0221263419672411
0.599831883415412,0.00485964605285703
0.548271722991837,0.000570878693761837
0.53800133588067,-0.0511358308295974
0.56638913596663,-0.0317000784438857
0.579940721307189,-0.0419389563344594
0.579551905768063,-0.0580641523334736
0.581329563199063,-0.0618541668422069
0.61155438214978,-0.0966488663387685
0.607507323769585,-0.117479246721539
0.598989033741058,-0.103851891755275
0.611175477420265,-0.11324829717639
0.603027772775028,-0.122439453865147
0.605759500489509,-0.123082735948002
0.607011234550832,-0.126936069929702
0.610553123804304,-0.138506794167771
0.614052530051517,-0.138947994809894
0.654623010825566,-0.145745444020644
0.573871408635509,-0.152967217994137
0.618349833308737,-0.169405410793991
0.618487388136904,-0.158927679790548
0.621922500932521,-0.188714323903087
0.634050352960185,-0.191784776391821
0.649139345717021,-0.208001898362441
0.624011780933682,-0.204139501369204
0.619467246028495,-0.254084920797505
0.625384530892631,-0.219531267582914
0.62604629521993,-0.238704447479106
0.625481051934287,-0.257780322376687
0.633198019337486,-0.245250328629276
0.606062746711167,-0.29269611596575
0.631723048826684,-0.249377438439855
0.61109048714746,-0.32893944666031
0.616188866218655,-0.351663648451829
0.644520114706142,-0.353401793293693
0.602160815884459,-0.35082317906018
0.594945983348113,-0.365216896137593
0.532584880993344,-0.397703531418773
