0.241726745797737,-0.202881901372131
0.24584698892299,-0.205591572740399
0.249880579341427,-0.208286369244571
0.253827946012436,-0.210966288457565
0.257689517895401,-0.213631327952298
0.261465723949711,-0.216281485301689
0.265156993134749,-0.218916758078655
0.268763754409904,-0.221537143856115
0.272286436734561,-0.224142640206986
0.275725469068106,-0.226733244704185
0.279081280369926,-0.229308954920632
0.282354299599407,-0.231869768429244
0.285544955715936,-0.234415682802938
0.288653677678898,-0.236946695614633
0.29168089444768,-0.239462804437246
0.294627034981668,-0.241964006843696
0.297492528240248,-0.2444503004069
0.300277803182808,-0.246921682699776
0.302983288768732,-0.249378151295243
0.305609413957407,-0.251819703766217
0.30815660770822,-0.254246337685617
0.310625298980556,-0.256658050626361
0.313015916733803,-0.259054840161367
0.315328889927345,-0.261436703863552
0.317564647520571,-0.263803639305835
0.319723618472865,-0.266155644061133
0.321806231743615,-0.268492715702364
0.323812916292206,-0.270814851802447
0.325744101078024,-0.273122049934298
0.327600215060457,-0.275414307670837
0.329381687198889,-0.27769162258498
0.331088946452708,-0.279953992249646
0.3327224217813,-0.282201414237752
0.334282542144052,-0.284433886122217
0.335769736500348,-0.286651405475959
0.337184433809576,-0.288853969871894
0.338527063031121,-0.291041576882942
0.339798053124371,-0.29321422408202
0.340997833048712,-0.295371909042046
0.342126831763528,-0.297514629335938
0.343185478228209,-0.299642382536613
0.344174201402138,-0.30175516621699
0.345093430244702,-0.303852977949987
0.345943593715288,-0.305935815308521
0.346725120773283,-0.30800367586551
0.347438440378072,-0.310056557193873
0.348083981489041,-0.312094456866527
0.348662173065577,-0.31411737245639
0.349173444067067,-0.316125301536379
0.349618223452895,-0.318118241679414
0.34999694018245,-0.320096190458411
0.350310023215116,-0.322059145446288
0.350557901510281,-0.324007104215965
0.35074100402733,-0.325940064340357
0.35085975972565,-0.327858023392384
0.350914597564626,-0.329760978944963
0.350905946503647,-0.331648928571012
0.350834235502097,-0.333521869843449
0.350699893519362,-0.335379800335191
0.35050334951483,-0.337222717619158
0.350245032447886,-0.339050619268266
0.349925371277917,-0.340863502855434
0.349544794964309,-0.342661365953579
0.349103732466448,-0.344444206135619
0.34860261274372,-0.346212020974472
0.348041864755513,-0.347964808043057
0.347421917461211,-0.34970256491429
0.346743199820202,-0.351425289161091
0.346006140791871,-0.353132978356376
0.345211169335605,-0.354825630073064
0.344358714410791,-0.356503241884072
0.343449204976813,-0.358165811362319
0.342483069993059,-0.359813336080722
0.341460738418916,-0.3614458136122
0.340382639213768,-0.363063241529669
0.339249201337003,-0.364665617406049
0.338060853748007,-0.366252938814256
0.336818025406166,-0.367825203327209
0.335521145270866,-0.369382408517826
0.334170642301494,-0.370924551959025
0.332766945457436,-0.372451631223723
0.331310483698077,-0.373963643884838
0.329801685982805,-0.375460587515289
0.328240981271006,-0.376942459687993
0.326628798522066,-0.378409257975868
0.324965566695371,-0.379860979951832
0.323251714750308,-0.381297623188802
0.321487671646262,-0.382719185259698
0.31967386634262,-0.384125663737436
0.317810727798769,-0.385517056194935
0.315898684974094,-0.386893360205112
0.313938166827982,-0.388254573340885
0.31192960231982,-0.389600693175172
0.309873420408992,-0.390931717280892
0.307770050054887,-0.392247643230962
0.305619920216889,-0.393548468598299
0.303423459854385,-0.394834190955823
0.301181097926762,-0.39610480787645
0.298893263393406,-0.397360316933098
0.296560385213703,-0.398600715698686
0.294182892347039,-0.399826001746131
0.291761213752801,-0.401036172648352
0.289295778390375,-0.402231225978266
0.286787015219146,-0.403411159308791
0.284235353198503,-0.404575970212844
0.28164122128783,-0.405725656263345
0.279005048446513,-0.40686021503321
0.27632726363394,-0.407979644095358
0.273608295809497,-0.409083941022706
0.27084857393257,-0.410173103388173
0.268048526962544,-0.411247128764676
0.265208583858806,-0.412306014725133
0.262329173580744,-0.413349758842463
0.259410725087742,-0.414378358689582
0.256453667339187,-0.415391811839409
0.253458429294466,-0.416390115864862
0.250425439912964,-0.417373268338858
0.247355128154069,-0.418341266834317
0.244247922977165,-0.419294108924154
0.24110425334164,-0.420231792181289
0.23792454820688,-0.421154314178639
0.234709236532271,-0.422061672489122
0.2314587472772,-0.422953864685656
0.228173509401051,-0.423830888341159
0.224853951863213,-0.424692741028549
0.221500503623071,-0.425539420320744
0.218113593640011,-0.426370923790661
0.21469365087342,-0.427187249011219
0.211241104282684,-0.427988393555335
0.20775638282719,-0.428774354995927
0.204239915466322,-0.429545130905913
0.200692131159469,-0.430300718858212
0.197113458866015,-0.43104111642574
0.193504327545348,-0.431766321181417
0.189865166156853,-0.432476330698158
0.186196403659918,-0.433171142548884
0.182498469013927,-0.433850754306511
0.178771791178268,-0.434515163543958
0.175016799112327,-0.435164367834141
0.171233921775489,-0.43579836474998
0.167423588127142,-0.436417151864393
0.163586227126671,-0.437020726750296
0.159722267733463,-0.437609086980608
0.155832138906904,-0.438182230128246
0.151916269606381,-0.43874015376613
0.147975088791279,-0.439282855467176
0.144009025420984,-0.439810332804302
0.140018508454884,-0.440322583350427
0.136003966852365,-0.440819604678468
0.131965829572812,-0.441301394361343
0.127904525575612,-0.44176794997197
0.123820483820151,-0.442219269083267
0.119714133265816,-0.442655349268152
0.115585902871993,-0.443076188099543
0.111436221598068,-0.443481783150357
0.107265518403427,-0.443872131993513
0.103074222247456,-0.444247232201928
0.0988627620895428,-0.44460708134852
0.0946315668890724,-0.444951677006208
0.0903810656054314,-0.445281016747908
0.0861116871980061,-0.44559509814654
0.0818238606261829,-0.44589391877502
0.0775180148493478,-0.446177476206267
0.0731945788268872,-0.446445768013199
0.0688539815181874,-0.446698791768733
0.0644966518826348,-0.446936545045788
0.0601230188796153,-0.447159025417281
0.0557335114685155,-0.44736623045613
0.0513285586087217,-0.447558157735254
0.04690858925962,-0.447734804827569
0.0424740323805966,-0.447896169305994
0.0380253169310379,-0.448042248743447
0.0335628718703303,-0.448173040712846
0.0290871261578599,-0.448288542787109
0.0245985087530129,-0.448388752539152
0.0200974486151757,-0.448473667541895
0.0155843747037347,-0.448543285368256
0.011059715978076,-0.448597603591151
0.0065239013975858,-0.4486366197835
0.00197735992165052,-0.448660331518219
-0.00257947949034357,-0.448668736368228
-0.00714618787901025,-0.448661831906443
-0.0117223362849633,-0.448639615705782
-0.0163074957488164,-0.448602085339164
-0.0209012373111832,-0.448549238379507
-0.0255031320126775,-0.448481072399728
-0.0301127508939129,-0.448397584972745
-0.0347296649955034,-0.448298773671476
-0.0393534453580625,-0.448184636068839
-0.0439836630222039,-0.448055169737752
-0.0486198890285416,-0.447910372251133
-0.0532616944176892,-0.447750241181899
-0.0579086502302602,-0.447574774102969
-0.0625603275068685,-0.447383968587261
-0.0672162972881279,-0.447177822207691
-0.071876130614652,-0.446956332537179
-0.0765393985270547,-0.446719497148642
-0.0812056720659494,-0.446467313614999
-0.0858745222719503,-0.446199779509165
-0.0905455201856708,-0.445916892404061
-0.0952182368477246,-0.445618649872604
-0.0998922432987256,-0.445305049487711
-0.104567110579287,-0.4449760888223
-0.109242409730024,-0.44463176544929
-0.113917711791548,-0.444272076941598
-0.118592587804475,-0.443897020872143
-0.123266608809418,-0.443506594813841
-0.12793934584699,-0.443100796339612
-0.132610369957805,-0.442679623022372
-0.137279252182477,-0.44224307243504
-0.14194556356162,-0.441791142150533
-0.146608875135847,-0.44132382974177
-0.151268757945772,-0.440841132781669
-0.155924783032009,-0.440343048843147
-0.160576521435172,-0.439829575499122
-0.165223544195874,-0.439300710322512
-0.169865422354729,-0.438756450886235
-0.174501726952351,-0.438196794763209
-0.179132029029353,-0.437621739526352
-0.18375589962635,-0.437031282748581
-0.188372909783954,-0.436425422002815
-0.19298263054278,-0.435804154861972
-0.197584632943442,-0.435167478898968
-0.202178488026552,-0.434515391686724
-0.206763766832726,-0.433847890798155
-0.211340040402576,-0.43316497380618
-0.215906879776716,-0.432466638283717
-0.22046385599576,-0.431752881803684
-0.225010540100322,-0.431023701938999
-0.229546503131016,-0.430279096262579
-0.234071316128455,-0.429519062347343
-0.238584550133253,-0.428743597766208
-0.243085776186023,-0.427952700092093
-0.24757456532738,-0.427146366897914
-0.252050488597936,-0.426324595756591
-0.256513117038307,-0.42548738424104
-0.260962021689106,-0.424634729924181
-0.265396773590945,-0.42376663037893
-0.26981694378444,-0.422883083178206
-0.274222103310203,-0.421984085894927
-0.278611823208849,-0.42106963610201
-0.282985674520991,-0.420139731372373
-0.287343228287243,-0.419194369278934
-0.291684055548219,-0.418233547394612
-0.296007727344532,-0.417257263292323
-0.300313814716796,-0.416265514544987
-0.304601888705625,-0.41525829872552
-0.308871520351633,-0.414235613406841
-0.313122280695432,-0.413197456161867
-0.317353740777638,-0.412143824563518
-0.321565471638864,-0.411074716184709
-0.325757044319723,-0.409990128598359
-0.329928029860829,-0.408890059377387
-0.334077999302797,-0.40777450609471
-0.338206523686239,-0.406643466323246
-0.342313174051769,-0.405496937635912
-0.346397521440001,-0.404334917605628
-0.35045913689155,-0.40315740380531
-0.354497591447027,-0.401964393807876
-0.358512456147049,-0.400755885186245
-0.362503302032227,-0.399531875513334
-0.366469700143176,-0.398292362362061
-0.370411221520509,-0.397037343305345
-0.374327437204841,-0.395766815916102
-0.378217918236784,-0.394480777767251
-0.382082235656953,-0.393179226431711
-0.385919960505962,-0.391862159482397
-0.389730663824424,-0.390529574492229
-0.393513916652952,-0.389181469034125
-0.397269290032161,-0.387817840681002
-0.400996355002664,-0.386438687005779
-0.404694682605076,-0.385044005581372
-0.408363843880009,-0.3836337939807
-0.412003409868078,-0.382208049776682
-0.415612951609895,-0.380766770542234
-0.419192040146076,-0.379309953850275
-0.422740246517234,-0.377837597273722
-0.426257141763981,-0.376349698385494
-0.429742296926933,-0.374846254758509
-0.433195283046703,-0.373327263965683
-0.436615671163904,-0.371792723579936
-0.440003032319151,-0.370242631174185
-0.443356937553056,-0.368676984321348
-0.446676957906235,-0.367095780594342
-0.4499626644193,-0.365499017566087
-0.453213628132865,-0.363886692809498
-0.456429420087544,-0.362258803897496
-0.45960961132395,-0.360615348402997
-0.462753772882698,-0.358956323898919
-0.465861475804401,-0.357281727958181
-0.468932291129673,-0.355591558153699
-0.471965789899128,-0.353885812058393
-0.474961543153379,-0.35216448724518
-0.477919121933039,-0.350427581286977
-0.480838097278724,-0.348675091756703
-0.483718040231046,-0.346907016227275
-0.486558521830619,-0.345123352271612
-0.489359113118058,-0.343324097462631
-0.492119385133974,-0.341509249373251
-0.494838908918984,-0.339678805576389
-0.497517255513699,-0.337832763644963
-0.500153995958734,-0.33597112115189
-0.502748701294703,-0.33409387567009
-0.505300942562219,-0.332201024772479
-0.507810290801896,-0.330292566031976
-0.510276317054348,-0.328368497021498
-0.512698592360188,-0.326428815313964
-0.51507668776003,-0.324473518482291
-0.517410174294488,-0.322502604099397
-0.519698623004177,-0.3205160697382
-0.521941604929708,-0.318513912971619
-0.524138691111696,-0.31649613137257
-0.526289452590756,-0.314462722513972
-0.5283934604075,-0.312413683968742
-0.530450285602542,-0.310349013309799
-0.532459499216496,-0.308268708110061
-0.534420672289976,-0.306172765942445
-0.536333375863595,-0.304061184379869
-0.538197180977968,-0.301933960995251
-0.540011658673707,-0.299791093361509
-0.541776379991428,-0.297632579051561
-0.543490915971742,-0.295458415638325
-0.545154837655265,-0.293268600694719
-0.546767716082609,-0.29106313179366
-0.548329122294389,-0.288842006508067
-0.549838627331219,-0.286605222410857
-0.551295802233711,-0.284352777074948
-0.55270021804248,-0.282084668073258
-0.55405144579814,-0.279800892978706
-0.555349056541303,-0.277501449364208
-0.556592621312585,-0.275186334802684
-0.557781711152598,-0.27285554686705
-0.558915897101957,-0.270509083130224
-0.559994750201275,-0.268146941165126
-0.561017841491166,-0.265769118544671
-0.561984742012243,-0.263375612841779
-0.56289502280512,-0.260966421629367
-0.563748254910412,-0.258541542480353
-0.564544009368731,-0.256100972967656
-0.565281857220692,-0.253644710664192
-0.565961369506908,-0.25117275314288
-0.566582117267992,-0.248685097976637
-0.56714367154456,-0.246181742738382
-0.567645603377224,-0.243662685001033
-0.568087483806598,-0.241127922337506
-0.568468883873295,-0.238577452320721
-0.568789374617931,-0.236011272523596
-0.569048527081117,-0.233429380519047
-0.569245912303469,-0.230831773879993
-0.569381101325599,-0.228218450179352
-0.569453665188122,-0.225589406990042
-0.569463174931651,-0.22294464188498
-0.5694092015968,-0.220284152437085
-0.569291316224183,-0.217607936219274
-0.569109089854413,-0.214915990804466
-0.568862093528104,-0.212208313765577
-0.56854989828587,-0.209484902675527
-0.568172075168324,-0.206745755107233
-0.567728195216081,-0.203990868633612
-0.567217829469754,-0.201220240827583
-0.566640548969956,-0.198433869262064
-0.565995924757302,-0.195631751509973
-0.565283527872405,-0.192813885144227
-0.564502929355879,-0.189980267737744
-0.563653700248338,-0.187130896863442
-0.562735411590395,-0.18426577009424
-0.561747634422664,-0.181384885003054
-0.560689939785759,-0.178488239162804
-0.559561898720294,-0.175575830146406
-0.558363082266881,-0.172647655526779
-0.557093061466136,-0.16970371287684
-0.555751407358672,-0.166743999769508
-0.554337690985102,-0.163768513777701
-0.55285148338604,-0.160777252474335
-0.5512923556021,-0.15777021343233
-0.549659878673896,-0.154747394224603
-0.547953623642041,-0.151708792424071
-0.546173161547149,-0.148654405603654
-0.544318063429835,-0.145584231336268
-0.54238790033071,-0.142498267194832
-0.54038224329039,-0.139396510752263
-0.538300663349488,-0.13627895958148
-0.536142731548618,-0.1331456112554
-0.533908018928393,-0.129996463346941
-0.531596096529427,-0.126831513429022
-0.529206535392334,-0.123650759074559
-0.526738906557728,-0.120454197856471
-0.524192781066222,-0.117241827347676
-0.521567729958431,-0.114013645121092
-0.518863324274967,-0.110769648749636
-0.516079135056445,-0.107509835806227
-0.513214733343477,-0.104234203863782
-0.51026969017668,-0.100942750495219
-0.507243576596664,-0.097635473273456
-0.504135963644045,-0.0943123697714114
-0.500946422359437,-0.0909734375620026
-0.497674523783452,-0.0876186742181477
-0.494319838956705,-0.0842480773127643
-0.490881938919809,-0.0808616444187707
-0.487360394713379,-0.0774593731090845
