-0.0377863380987405,-0.371580045092621
-0.148411583633802,-0.468971506812195
-0.268412867563579,-0.586536679024977
-0.151575560312334,-0.469003049121021
-0.153134571745858,-0.469028476193085
-0.0353809563734455,-0.353921590774538
-0.156206382508828,-0.469097758811568
-0.0469577904231101,-0.360703879166537
-0.0593413228449071,-0.360614821783779
-0.1606977935153,-0.469245103842346
-0.162163709179919,-0.469305091124663
-0.163613928078237,-0.46937022008936
-0.0578610467367429,-0.37915353819763
-0.166467068941894,-0.469515196377139
-0.284447012329117,-0.570925382933441
-0.169256802838117,-0.469678619328171
-0.170627763027144,-0.469766806621934
-0.171982716498755,-0.469859075564943
-0.173321611594432,-0.469955249485008
-0.174644396655655,-0.470055151709942
-0.175951020023906,-0.470158605567554
-0.177241430040664,-0.470265434385655
-0.178515575047412,-0.470375461492056
-0.17977340338563,-0.470488510214569
-0.181014863396798,-0.470604403881005
-0.182239903422399,-0.470722965819173
-0.0885874664276454,-0.361980569528911
-0.18464051688282,-0.470967387821953
-0.185815987000601,-0.471092894542186
-0.186974830498739,-0.471220362845396
-0.188116995718712,-0.471349616059394
-0.189242431002004,-0.47148047751199
-0.190351084690093,-0.471612770530996
-0.0893469523396163,-0.372062466218987
-0.192517840646591,-0.47188094457948
-0.193575839597961,-0.47201647226458
-0.194616850320053,-0.472152724827333
-0.195640821154348,-0.47228952559555
-0.196647700442327,-0.472426697897042
-0.19763743652547,-0.47256406505962
-0.198609977745259,-0.472701450411095
-0.199565272443175,-0.472838677279278
-0.200503268960699,-0.472975568991979
-0.20142391563931,-0.47311194887701
-0.202327160820491,-0.473247640262181
-0.203212952845723,-0.473382466475303
-0.204081240056485,-0.473516250844188
-0.20493197079426,-0.473648816696646
-0.205765093400528,-0.473779987360488
-0.10827085283,-0.354608718101131
-0.312020989976294,-0.583089432204999
-0.208158295845099,-0.474163361498428
-0.208920469340148,-0.474287184685916
-0.209664776411095,-0.474408729323842
-0.21039116539942,-0.474527818740018
-0.211099584646605,-0.474644276262254
-0.21178998249413,-0.474757925218362
-0.10711934591566,-0.356535934484206
-0.213116507356125,-0.474976090743436
-0.213752531053557,-0.475080253968023
-0.214370326717253,-0.475180901937725
-0.214969842688694,-0.475277857980354
-0.215551027309361,-0.475370945423719
-0.216113828920735,-0.475459987595632
-0.216658195864297,-0.475544807823904
-0.217184076481527,-0.475625229436345
-0.217691419113907,-0.475701075760767
-0.218180172102917,-0.47577217012498
-0.218650283790039,-0.475838335856796
-0.219101702516753,-0.475899396284024
-0.21953437662454,-0.475955174734477
-0.122800636475081,-0.362611612646309
-0.220343284349259,-0.476050179016299
-0.220719414649151,-0.47608905150329
-0.332951026508278,-0.572926551376052
-0.221414769831409,-0.476148653808486
-0.221733891396735,-0.476169030282313
-0.222033906733501,-0.47618288807404
-0.222314764183188,-0.476190050511479
-0.222576412087276,-0.47619034092244
-0.222818798787247,-0.476183582634735
-0.223041872624581,-0.476169598976174
-0.22324558194076,-0.476148213274568
-0.223429875077264,-0.476119248857727
-0.223594700375573,-0.476082529053464
-0.22374000617717,-0.476037877189589
-0.223865740823535,-0.475985116593912
-0.223971852656149,-0.475924070594245
-0.224058290016493,-0.475854562518398
-0.224125001246048,-0.475776415694183
-0.224171934686294,-0.47568945344941
-0.224199038678712,-0.475593499111891
-0.224206261564785,-0.475488376009436
-0.224193551685992,-0.475373907469856
-0.224160857383814,-0.475249916820961
-0.224108126999732,-0.475116227390564
-0.224035308875228,-0.474972662506475
-0.223942351351781,-0.474819045496504
-0.223829202770874,-0.474655199688463
-0.318501080569539,-0.575776258520986
-0.2235421258026,-0.474296114989414
-0.223368094098196,-0.474100522754028
-0.223173664702254,-0.473893995031815
-0.222958785956255,-0.473676355150586
-0.13052277073837,-0.361956672139977
-0.317661527823276,-0.587917878885421
-0.222190937032731,-0.472954995830914
-0.221893744301317,-0.472691140591731
-0.221575843927251,-0.472415289832587
-0.221237184252013,-0.472127266881292
-0.220877713617086,-0.471826895065658
-0.22049738036395,-0.471513997713496
-0.337169863050783,-0.570775822808326
-0.219673919368975,-0.47084991971083
-0.219230688310097,-0.470498385715947
-0.218766387998934,-0.47013361949578
-0.218280966776967,-0.469755444378139
-0.217774372985676,-0.469363683690835
-0.217246554966543,-0.468958160761679
-0.216697461061048,-0.468538698918482
-0.216127039610672,-0.468105121489054
-0.215535238956897,-0.467657251801207
-0.214922007441202,-0.467194913182751
-0.21428729340507,-0.466717928961498
-0.213631045189981,-0.466226122465259
-0.212953211137415,-0.465719317021843
-0.329947501381638,-0.58323400892109
-0.211532578885779,-0.464660002604729
-0.324938337972361,-0.55868764291747
-0.21002498338201,-0.463538572332643
-0.209238445264278,-0.462954122070512
-0.208430011357955,-0.462353612828071
-0.207599630004522,-0.461736867933132
-0.206747249545461,-0.461103710713503
-0.205872818322252,-0.460453964496997
-0.0940290522630984,-0.367668132272592
-0.204057596949313,-0.459103998384596
-0.203116703482546,-0.458403425144323
-0.202153552617555,-0.457685556218416
-0.20116809269582,-0.456950214934686
-0.200160272058823,-0.456197224620944
-0.199130039048044,-0.455426408605001
-0.198077342004966,-0.454637590214668
-0.197002129271067,-0.453830592777755
-0.19590434918783,-0.453005239622074
-0.194783950096735,-0.452161354075436
-0.193640880339264,-0.45129875946565
-0.192475088256896,-0.450417279120529
-0.191286522191114,-0.449516736367884
-0.190075130483397,-0.448596954535525
-0.188840861475227,-0.447657756951262
-0.187583663508086,-0.446698966942907
-0.186303484923452,-0.445720407838272
-0.185000274062809,-0.444721902965166
-0.196435128638539,-0.442823790060151
-0.182324548879414,-0.442664349224788
-0.0912999773654081,-0.292551629968758
-0.17955607468975,-0.440524892344259
-0.178136927571268,-0.439424008545966
-0.160079370203802,-0.422774779214787
-0.175228554994411,-0.437159046872376
-0.127534819174871,-0.467779555363862
-0.130165297346572,-0.391742336118484
-0.134811056417893,-0.42771904840457
-0.217117052776226,-0.434877127252548
-0.13624587473876,-0.432964233669983
-0.120414571943746,-0.452823279416513
-0.196119762311758,-0.455849161242278
-0.132014029116276,-0.419774390746582
-0.0565481120071293,-0.327363389419975
-0.197376760354198,-0.435232151255067
-0.184181137085761,-0.400544598234264
-0.155794429438237,-0.421725640355328
-0.147296120653476,-0.453359472468078
-0.118750942853778,-0.41962941966715
-0.115096317188358,-0.440728529289581
-0.148550701495263,-0.415844912751051
-0.101588455333064,-0.433575946805392
-0.190856591304872,-0.391115948381972
-0.136823286156939,-0.362328449551249
-0.140918620264798,-0.40957721073064
-0.254579154316818,-0.513993278809607
-0.172650840452923,-0.381217187109071
-0.102931429718151,-0.355082269889966
-0.132894879601618,-0.402911227273994
-0.162985694699254,-0.406713221581357
-0.103843993547107,-0.423003808473076
-0.126618058748531,-0.397643565609701
-0.21653051946999,-0.495012223041064
-0.12230939598978,-0.394001439145045
0.0288106740234928,-0.300235697460308
-0.139244075219964,-0.433277863570331
-0.0667474443978002,-0.420466717028672
-0.0731618607409806,-0.385294617264164
-0.111100321347534,-0.384429585029434
-0.0991114557090421,-0.393915787504424
-0.150676261421447,-0.374244821745219
-0.105997326066671,-0.356420105258631
-0.129636848799215,-0.411661357933826
-0.0992611983599941,-0.374173580903524
-0.142170885403835,-0.335091912145619
-0.1036889769993,-0.335899869420115
-0.145105342710377,-0.519924266764045
-0.0893319258457487,-0.365461349131498
-0.0867855697122764,-0.36321134274368
-0.0842134950598015,-0.360932203633559
-0.0816156502298051,-0.358623755128946
-0.078991983563768,-0.356285820557652
-0.0763424434031711,-0.353918223247488
0.0168835535009322,-0.233318246601762
-0.0709655359642218,-0.349093333721794
0.0280587089381896,-0.245828922465179
0.0357178363949618,-0.24898833124778
-0.0627048321336223,-0.341629112086999
-0.0598989661767662,-0.339079828227644
-0.0570668651157166,-0.336499644924095
-0.0542084772919548,-0.333888385504163
-0.0513237510469613,-0.331245873295659
-0.0484126347222174,-0.328571931626395
0.0656905636015257,-0.210095602973555
-0.0425110251994014,-0.323129053216826
-0.135457479541853,-0.411966839367281
0.0670964793989545,-0.222627482470313
-0.0334593938540712,-0.314724597842038
-0.132021000148623,-0.41334373487929
-0.0272915589003909,-0.308959474576351
-0.0241674622309555,-0.306027737022191
-0.0210165105550978,-0.303062979957569
-0.0178386522142988,-0.300065026710295
-0.0146338355500392,-0.297033700608179
-0.106419492454756,-0.385402630523895
-0.00814312061706249,-0.290870223150669
-0.00485711903130724,-0.287737718450897
-0.00154395248801502,-0.284571134207527
0.00179643067133288,-0.28137029374837
0.0051640821052558,-0.278135020401239
0.00855905347227266,-0.274865137493942
0.0119813964309027,-0.271560468354292
0.0154311626396648,-0.268220836310099
0.0189084037570783,-0.264846064689174
0.0224131714416619,-0.261435976819329
0.0259455173519352,-0.257990396028373
0.0295054931464168,-0.254509145644119
0.0330931504836261,-0.250992048994376
0.0367085410220819,-0.247438929406956
0.0403517164203035,-0.243849610209669
0.0440227283368098,-0.240223914730327
0.148152354121281,-0.124244770726882
0.0514484683587534,-0.23286268823672
0.0552032997812288,-0.229126803878077
0.0589861743560652,-0.225353836548623
0.0627971437417819,-0.221543609576167
0.0666362595968978,-0.217695946288521
-0.0214248970417088,-0.318533450157826
0.0743991373494039,-0.209887604078904
0.0783230025638323,-0.205926571812554
0.0822752208817361,-0.201927396542257
0.0862558439616348,-0.197889901595825
0.0902649234620471,-0.193813910301069
0.0943025110414924,-0.189699245985799
0.0983686583584895,-0.185545731977826
0.102463417071558,-0.181353191604962
0.106586838839216,-0.177121448195016
0.110738975319983,-0.172850325075801
0.114919878172379,-0.168539645575127
0.119129599054922,-0.164189233020804
0.123368189626131,-0.159798910740644
0.127635701544527,-0.155368502062458
0.131932186468626,-0.150897830314057
0.136257696056949,-0.14638671882325
0.140612281968015,-0.141834990917851
0.0545230807713242,-0.24877195840926
0.149408889392451,-0.132608979174515
0.15385101422286,-0.1279343419922
0.158322422010087,-0.123218381706535
0.162823164412653,-0.118460921645331
0.167353293089076,-0.113661785136399
0.171912859697875,-0.10882079550755
0.17650191589757,-0.103937776086594
0.181120513346679,-0.0990125502013433
0.185768703703721,-0.094044941179608
0.0910884152089367,-0.197029402849797
0.301591660831458,0.0337958811832759
0.291334611162888,0.0382201657161575
0.204658427381609,-0.0737471402840401
0.209455357156105,-0.068564965497046
0.21428218978965,-0.0633393475404332
0.219138976940761,-0.0580701097420118
0.224025770267959,-0.0527570754295936
0.324170211536019,0.0439097487195241
0.233889582084689,-0.0419989105740091
0.23886670389126,-0.0365534266864645
0.243874038507993,-0.0310634395961667
0.248911637593408,-0.025528772630926
0.253979552806024,-0.0199492491185539
0.362352531105835,0.0962233741559679
0.264206538246933,-0.00865492576365787
0.269365711792265,-0.00293977257675571
0.274555408098873,0.00282094384603412
0.186906538529498,-0.0892174380475035
0.285026575629998,0.0144797730880347
0.192941642129107,-0.0901080575571207
0.29562045410846,0.0263229753398568
0.30096353909924,0.0323141580249236
0.306337456802412,0.0383519639790127
0.311742258876494,0.0444365698743139
0.317177996980005,0.0505681523830156
0.322644722771465,0.0567468881773073
0.328142487909393,0.0629729539293778
0.333671344052308,0.0692465263114165
0.339231342858729,0.0755677819956122
0.344822535987175,0.0819368976541543
0.232778769433902,-0.0092512470825632
0.356098711844218,0.0948194155830334
0.361783797889853,0.101333171197748
0.36750028489159,0.107895493475566
0.373248224507947,0.114506559088676
0.379027668397444,0.121166544709266
0.384838668218599,0.127875627009526
0.390681275629931,0.134633982661645
0.300694438215459,0.046259777172012
0.402461519857206,0.148299220710216
0.408399259990187,0.155206456451046
0.504888237172519,0.270668736868335
0.420370234587428,0.169171044726742
0.426403572368728,0.176228750605985
0.432468879349838,0.183336966542411
0.438566207189279,0.190495869208209
0.547771177692093,0.310575275118122
0.450857132077228,0.204966441416675
0.457050832442774,0.212278464303722
0.463276760300727,0.219641880608898
0.469534967309606,0.22705686700439
0.377121913675279,0.11858323042442
0.482148425414216,0.242042256755082
0.488503779826987,0.24961301345466
0.600928557497889,0.365663972341373
0.501311997666052,0.264911533863225
0.507764964409385,0.27263965091659
0.514250571913278,0.280420574765597
0.520768871836249,0.288254482082432
0.527319915836818,0.296141549539288
0.533903755573503,0.30408195380835
0.540520442704823,0.31207587156181
0.547170028889298,0.320123479471856
0.553852565785447,0.328224954210678
0.668461791546863,0.435212347057663
0.567316698346843,0.344590210863403
0.574098397329127,0.352854346121684
0.580913253657162,0.361173054897497
0.587761318989465,0.369546513863031
0.594642644984558,0.377974899690475
0.484996211376421,0.29586909743915
0.608505285597183,0.394997158619848
0.615486703531754,0.403591385066155
0.62250158876319,0.412241245063129
0.629549992950009,0.420946915282957
0.636631967750731,0.429708572397831
0.643747564823874,0.438526393079937
0.650896835827959,0.447400554001466
0.658079832421504,0.456331231834606
0.574569330162115,0.349776541567874
0.672547209011049,0.474362844924478
0.56203223616348,0.386353394609238
0.687150107860663,0.492622645727066
0.694502507279293,0.501838558201101
0.701888942238498,0.511112047619881
0.709309464396797,0.520443290655598
0.612896269498526,0.424294423651983
0.72425297694475,0.539279744266591
0.628454259589852,0.456904326851664
0.739333458191307,0.558349332411595
0.650823327427212,0.448246718673371
0.754551321404619,0.577653468468121
0.762211900395106,0.587393933643678
0.769906979852839,0.597193565813683
0.777636611436337,0.607052541650324
0.78540084680412,0.616971037825792
0.884099716148875,0.719784608370764
0.801033335526615,0.636987297881962
0.808901692198365,0.647085415107043
0.816804859288476,0.657243759359706
0.824742888455466,0.66746250731214
0.735689509930798,0.565699434871297
0.840723739654162,0.68808192100508
0.848766665002906,0.698482940089964
0.856844659062606,0.708945069563375
0.864957773491781,0.719468486097503
0.873106059948951,0.730053366364537
0.881289570092633,0.740699887036667
0.889508355581348,0.751408224786081
0.897762468073614,0.762178556284968
0.906051959227951,0.773011058205518
0.914376880702878,0.783905907219919
0.922737284156912,0.79486328000036
0.931133221248575,0.805883353219032
0.939564743636385,0.816966303548121
0.948031902978861,0.82811230765982
0.956534750934521,0.839321542226314
0.965073339161886,0.850594183919795
