0.924600912310679,-0.170093129568621
0.916369728665133,-0.166128219629572
0.908222341965662,-0.162159894125308
0.90015831945032,-0.158188367512547
0.892177228357164,-0.154213854248004
0.884278635924248,-0.150236568788399
0.876462109389629,-0.146256725590447
0.86872721599136,-0.142274539110867
0.861073522967497,-0.138290223806375
0.853500597556097,-0.13430399413369
0.846008006995213,-0.130316064549527
0.838595318522901,-0.126326649510605
0.831262099377217,-0.122335963473641
0.824007916796216,-0.118344220895352
0.816832338017953,-0.114351636232456
0.809734930280483,-0.110358423941669
0.802715260821862,-0.10636479847971
0.795772896880146,-0.102370974303295
0.788907405693388,-0.0983771658691413
0.782118354499645,-0.0943835876339669
0.775405310536972,-0.090390454054489
0.768767841043424,-0.0863979795874245
0.762205513257056,-0.0824063786894911
0.755717894415925,-0.0784158658174059
0.749304551758084,-0.0744266554278863
0.74296505252159,-0.0704389619776496
0.736698963944497,-0.0664529999234131
0.730505853264861,-0.062468983721894
0.724385287720738,-0.0584871278298098
0.718336834550182,-0.0545076467038777
0.712360060991249,-0.050530754800815
0.706454534281994,-0.0465566665773391
0.700619821660473,-0.0425855964901672
0.69485549036474,-0.0386177589960167
0.689161107632851,-0.0346533685516048
0.683536240702861,-0.0306926396136489
0.677980456812827,-0.0267357866388664
0.672493323200802,-0.0227830240839743
0.667074407104842,-0.0188345664056902
0.661723275763002,-0.0148906280607313
0.656439496413339,-0.010951423505815
0.651222636293906,-0.00701716719765841
0.64607226264276,-0.003088073592979
0.640987942697955,0.000835642851505981
0.635969243697548,0.00475376767907916
0.631015732879592,0.00866608643302328
0.626126977482144,0.012572384656621
0.621302544743259,0.0164724478931551
0.616542001900993,0.0203660616859082
0.611844916193399,0.024253011578163
0.607210854858534,0.0281330831132021
0.602639385134453,0.0320060618343083
0.598130074259211,0.0358717332847644
0.593682489470865,0.0397298830078528
0.589296198007467,0.0435802965468564
0.584970767107075,0.0474227594450579
0.580705764007744,0.0512570572457398
0.576500755947528,0.055082975492185
0.572355310164483,0.0589002997276761
0.568268993896665,0.0627088154954958
0.564241374382128,0.0665083083389268
0.560272018858929,0.0702985638012518
0.556360494565121,0.0740793674257535
0.552506368738761,0.0778505047557145
0.548709208617904,0.0816117613344175
0.544968581440605,0.0853629227051454
0.541284054444919,0.0891037744111806
0.537655194868901,0.092834101995806
0.534081569950609,0.0965536910023042
0.530562746928095,0.100262326973958
0.527098293039415,0.10395979545405
0.523687775522626,0.107645881985863
0.520330761615782,0.111320372112679
0.517026818556938,0.114983051377782
0.51377551358415,0.118633705324453
0.510576413935473,0.122272119495977
0.507429086848962,0.125898079435634
0.504333099562673,0.129511370686709
0.501288019314661,0.133111778792483
0.498293413342981,0.13669908929624
0.495348848885689,0.140273087741262
0.492453893180839,0.143833559670832
0.489608113466488,0.147380290628232
0.48681107698069,0.150913066156745
0.4840623509615,0.154431671799654
0.481361502646975,0.157935893100242
0.478708099275168,0.161425515601791
0.476101708084137,0.164900324847584
0.473541896311935,0.168360106380904
0.471028231196618,0.171804645745033
0.468560279976242,0.175233728483254
0.466137609888862,0.178647140138849
0.463759788172532,0.182044666255102
0.461426382065309,0.185426092375295
0.459136958805248,0.188791204042711
0.456891085630403,0.192139786800633
0.454688329778831,0.195471626192342
0.452528258488586,0.198786507761123
0.450410438997724,0.202084217050256
0.448334438544299,0.205364539603027
0.446299824366369,0.208627260962716
0.444306163701987,0.211872166672606
0.442353023789209,0.215099042275981
0.44043997186609,0.218307673316123
0.438566575170686,0.221497845336315
0.436732400941052,0.224669343879839
0.434937016415242,0.227821954489978
0.433179988831313,0.230955462710015
0.43146088542732,0.234069654083232
0.429779273441318,0.237164314152913
0.428134720111363,0.240239228462339
0.426526792675508,0.243294182554794
0.424955058371811,0.24632896197356
0.423419084438326,0.249343352261919
0.421918438113109,0.252337138963156
0.420452686634214,0.255310107620552
0.419021397239697,0.258262043777389
0.417624137167614,0.261192732976952
0.416260473656019,0.264101960762521
0.414929973942968,0.266989512677381
0.413632205266517,0.269855174264814
0.41236673486472,0.272698731068102
0.411133129975633,0.275519968630528
0.409930957837311,0.278318672495374
0.408759785687809,0.281094628205925
0.407619180765183,0.283847621305461
0.406508710307489,0.286577437337267
0.40542794155278,0.289283861844624
0.404376441739113,0.291966680370815
0.403353778104543,0.294625678459123
0.402359517887125,0.297260641652831
0.401393228324915,0.299871355495221
0.400454476655967,0.302457605529576
0.399542830118338,0.305019177299179
0.398657855950081,0.307555856347312
0.397799121389254,0.310067428217259
0.39696619367391,0.312553678452301
0.396158640042106,0.315014392595722
0.395376027731896,0.317449356190803
0.394617923981336,0.319858354780829
0.393883896028481,0.322241173909081
0.393173511111387,0.324597599118843
0.392486336468108,0.326927415953396
0.3918219393367,0.329230409956024
0.391179886955219,0.33150636667001
0.390559746561719,0.333755071638635
0.389961085394256,0.335976310405183
0.389383470690885,0.338169868512936
0.388826469689662,0.340335531505178
0.388289649628641,0.34247308492519
0.387772577745878,0.344582314316256
0.387274821279429,0.346663005221657
0.386795947467349,0.348714943184678
0.386335523547692,0.3507379137486
0.385893116758515,0.352731702456707
0.385468294337872,0.35469609485228
0.385060623523819,0.356630876478603
0.384669671554411,0.358535832878958
0.384295005667703,0.360410749596628
0.383936193101751,0.362255412174896
0.383592801094611,0.364069606157044
0.383264396884336,0.365853117086356
0.382950547708983,0.367605730506113
0.382650820806607,0.369327231959598
0.382364783415263,0.371017406990095
0.382092002773006,0.372676041140885
0.381832046117893,0.374302919955252
0.381584480687977,0.375897828976478
0.381348873721315,0.377460553747846
0.381124792455961,0.378990879812638
0.380911804129971,0.380488592714138
0.3807094759814,0.381953477995628
0.380517375248304,0.38338532120039
0.380335069168738,0.384783907871708
0.380162124980757,0.386149023552864
0.379998109922416,0.38748045378714
0.379842591231771,0.38877798411782
0.379695136146877,0.390041400088186
0.379555311905789,0.391270487241521
0.379422685746563,0.392465031121107
0.379296824907253,0.393624817270228
0.379177296625916,0.394749631232165
0.379063668140606,0.395839258550202
0.378955506689379,0.396893484767621
0.37885237951029,0.397912095427705
0.378753853841394,0.398894876073737
0.378659496920747,0.399841612248999
0.378568875986404,0.400752089496774
0.37848155827642,0.401626093360345
0.378397111028851,0.402463409382994
0.378315101481751,0.403263823108004
0.378235096873176,0.404027120078658
0.378156664441182,0.404753085838238
0.378079371423824,0.405441505930028
0.378002785059156,0.40609216589731
0.377926472585235,0.406704851283366
0.377850001240115,0.407279347631479
0.377772938261852,0.407815440484932
0.377694850888502,0.408312915387008
0.377615306358118,0.408771557880989
0.377533871908758,0.409191153510158
0.377450114778475,0.409571487817797
0.377363602205326,0.40991234634719
0.377273901427365,0.410213514641619
0.377180579682649,0.410474778244367
0.377083204209231,0.410695922698717
0.376981342245168,0.41087673354795
0.376874561028515,0.41101699633535
0.376762427797327,0.4111164966042
0.376644509789659,0.411175019897782
0.376520374243567,0.411192351759379
0.376389588397106,0.411168277732273
0.376251719488331,0.411102583359748
0.376106334755298,0.410995054185086
0.375953001436061,0.410845475751569
0.375791286768677,0.410653633602481
0.3756207579912,0.410419313281104
0.375440982341686,0.41014230033072
0.37525152705819,0.409822380294613
0.375051959378767,0.409459338716065
0.374841846541473,0.409052961138359
0.374620755784362,0.408603033104777
0.374388254345491,0.408109340158603
0.374143909462914,0.407571667843118
0.373887288374688,0.406989801701606
0.373617958318866,0.406363527277349
0.373335486533504,0.40569263011363
0.373039440256658,0.404976895753732
0.372729386726384,0.404216109740937
0.372404893180735,0.403410057618528
0.372065526857768,0.402558524929788
0.371710854995538,0.401661297217999
0.371340444832099,0.400718160026445
0.370953863605509,0.399728898898407
0.370550678553821,0.398693299377168
0.370130456915091,0.397611147006012
0.369692765927374,0.396482227328221
0.369237172828726,0.395306325887077
0.368763244857202,0.394083228225863
0.368270549250857,0.392812719887862
0.367758653247746,0.391494586416357
0.367227124085926,0.390128613354631
0.36667552900345,0.388714586245965
0.366103435238374,0.387252290633643
0.365510410028755,0.385741512060947
0.364896020612646,0.38418203607116
0.364259834228103,0.382573648207565
0.363601418113182,0.380916134013445
0.362920339505938,0.379209279032082
0.362216165644426,0.377452868806758
0.361488463766702,0.375646688880757
0.36073680111082,0.373790524797361
0.359960744914836,0.371884162099854
0.359159862416805,0.369927386331516
0.358333720854783,0.367919983035632
0.357481887466825,0.365861737755484
0.356603929490986,0.363752436034355
0.355699414165321,0.361591863415527
0.354767908727886,0.359379805442283
0.353808980416737,0.357116047657906
0.352822196469927,0.354800375605678
0.351807124125513,0.352432574828883
0.350763330621551,0.350012430870802
0.349690383196094,0.347539729274719
0.348587849087199,0.345014255583915
0.347455295532921,0.342435795341675
0.346292289771315,0.339804134091281
0.345098399040436,0.337119057376014
0.34387319057834,0.334380350739159
0.342616231623082,0.331587799723997
0.341327089412717,0.328741189873811
0.340005331185301,0.325840306731885
0.338650524178888,0.3228849358415
0.337262235631535,0.31987486274594
0.335840032781296,0.316809872988487
0.334383482866227,0.313689752112423
0.332892153124383,0.310514285661033
0.33136561079382,0.307283259177597
0.329803423112592,0.303996458205399
0.328205157318755,0.300653668287721
0.326570380650364,0.297254674967847
0.324898660345475,0.293799263789059
0.323189563642142,0.29028722029464
0.321442657778422,0.286718330027871
0.319657509992369,0.283092378532037
0.317833687522038,0.27940915135042
0.315970757605486,0.275668434026302
0.314068287480767,0.271870012102965
0.312125844385936,0.268013671123694
0.31014299555905,0.26409919663177
0.308119308238162,0.260126374170477
0.306054349661329,0.256094989283096
0.303947687066606,0.25200482751291
0.301798887692047,0.247855674403203
0.29960751877571,0.243647315497257
0.297373147555647,0.239379536338354
0.295095341269916,0.235052122469778
0.29277366715657,0.230664859434811
0.290407692453667,0.226217532776735
0.28799698439926,0.221709928038834
0.285541110231405,0.21714183076439
0.283039637188158,0.212513026496685
0.280492132507573,0.207823300779004
0.277898163427706,0.203072439154626
0.275257297186612,0.198260227166837
0.272569101022347,0.193386450358919
0.269833142172966,0.188450894274154
0.267048987876524,0.183453344455824
0.264216205371077,0.178393586447213
0.261334361894679,0.173271405791604
0.258403024685386,0.168086588032278
0.255421760981253,0.162838918712519
0.252390138020337,0.157528183375609
0.249307723040691,0.152154167564832
0.246174083280371,0.146716656823469
0.242988785977433,0.141215436694803
0.239751398369931,0.135650292722118
0.236461487695922,0.130021010448695
0.23311862119346,0.124327375417818
0.2297223661006,0.118569173172769
0.226272289655399,0.112746189256832
0.222767959095911,0.106858209213287
0.219208941660191,0.100905018585419
0.215594804586295,0.0948864029165095
0.211925115112278,0.0888021477498419
0.208199440476196,0.0826520386286985
0.204417347916104,0.0764358610963624
0.200578404670056,0.0701534006961156
0.196682177976109,0.0638044429712416
0.192728235072317,0.0573887734650223
0.188716143196737,0.0509061777207411
0.184645469587422,0.0443564412816802
0.180515781482429,0.0377393496911226
0.176326646119813,0.0310546884923505
0.172077630737629,0.0243022432286474
0.167768302573932,0.0174817994432952
0.163398228866778,0.0105931426795772
0.158966976854222,0.00363605848077546
0.154474113774319,-0.00338966760982663
0.149919206865124,-0.010484250048947
0.145301823364694,-0.0176479032933024
0.140621530511082,-0.0248808417996108
0.135877895542345,-0.0321832800245888
0.131070485696538,-0.0395554324249543
0.126198868211715,-0.0469975134574241
0.121262610325933,-0.054509737578716
0.116261279277247,-0.0620923192455468
0.111194442303711,-0.0697454729146344
0.106061666643382,-0.0774694130426955
0.100862519534314,-0.085264354086448
0.095596568214563,-0.0931305105026085
0.0902633799221838,-0.101068096747895
0.0848625218952322,-0.109077327279024
0.079393561371763,-0.117158416552715
0.073856065589832,-0.125311579025682
0.0682496017874939,-0.133537029154644
0.0625737372028047,-0.141834981396319
0.056828039073819,-0.150205650207423
0.0510120746385927,-0.158649250044674
0.0451254111351805,-0.16716599536479
0.0391676158016383,-0.175756100624487
0.0331382558760209,-0.184419780280482
0.0270368985963839,-0.193157248789494
0.0208631112007823,-0.201968720608239
0.0146164609272719,-0.210854410193435
0.00829651501390731,-0.219814532001799
0.00190284069874448,-0.228849300490048
-0.00456499478016187,-0.237958930114901
-0.0111074241847558,-0.247143635333072
-0.0177248802769828,-0.256403630601282
-0.0244177958187868,-0.265739130376246
-0.0311866035721132,-0.275150349114682
-0.0380317362989061,-0.284637501273306
-0.0449536267611108,-0.294200801308838
-0.0519527077206713,-0.303840463677993
-0.059029411939533,-0.31355670283749
-0.06618417217964,-0.323349733244044
-0.0734174212029376,-0.333219769354375
-0.08072959177137,-0.343167025625199
-0.0881211166468824,-0.353191716513233
-0.0955924285914189,-0.363294056475195
-0.103143960366925,-0.373474259967802
-0.110776144735344,-0.383732541447771
-0.118489414458623,-0.39406911537182
-0.126284202298704,-0.404484196196665
-0.134160941017533,-0.414977998379026
-0.142120063377055,-0.425550736375617
-0.150162002139215,-0.436202624643157
-0.158287190065956,-0.446933877638364
-0.166496059919225,-0.457744709817954
-0.174789044460964,-0.468635335638644
-0.18316657645312,-0.479605969557154
-0.191629088657637,-0.490656826030197
-0.20017701383646,-0.501788119514495
-0.208810784751532,-0.513000064466761
-0.2175308341648,-0.524292875343716
-0.226337594838208,-0.535666766602074
-0.2352314995337,-0.547121952698556
-0.244212981013221,-0.558658648089875
-0.253282472038716,-0.570277067232752
