0.818174990748096,0.256430660669479
0.289045258695556,0.434741306397057
0.775217893766786,0.640481285715903
0.213473429274036,0.888919851327423
-0.348271035218715,1.13735841693894
0.582162013764519,0.455870959145974
-0.732641070726687,-0.0315680028499581
