0.524594679057618,-0.569704280192153
0.513629336344586,-0.565805333988775
0.502778540035763,-0.561905602995713
0.492041802600722,-0.558005206044246
0.481418636509035,-0.554104261965651
0.470908554230274,-0.550202889591204
0.460511068234012,-0.546301207752182
0.450225690989821,-0.542399335279865
0.440051934967275,-0.538497391005528
0.429989312635945,-0.534595493760449
0.420037336465404,-0.530693762375906
0.410195518925225,-0.526792315683175
0.400463372484979,-0.522891272513535
0.390840409614241,-0.518990751698261
0.381326142782581,-0.515090872068633
0.371920084459572,-0.511191752455926
0.362621747114788,-0.507293511691419
0.353430643217801,-0.503396268606389
0.344346285238182,-0.499500142032112
0.335368185645505,-0.495605250799867
0.326495856909342,-0.49171171374093
0.317728811499265,-0.48781964968658
0.309066561884848,-0.483929177468093
0.300508620535661,-0.480040415916746
0.29205449992128,-0.476153483863818
0.283703712511274,-0.472268500140585
0.275455770775218,-0.468385583578324
0.267310187182683,-0.464504853008313
0.259266474203243,-0.46062642726183
0.251324144306469,-0.456750425170152
0.243482709961934,-0.452876965564555
0.23574168363921,-0.449006167276317
0.228100577807871,-0.445138149136717
0.220558904937488,-0.44127302997703
0.213116177497634,-0.437410928628534
0.205771907957882,-0.433551963922507
0.198525608787804,-0.429696254690226
0.191376792456973,-0.425843919762969
0.184324971434961,-0.421995077972011
0.17736965819134,-0.418149848148632
0.170510365195683,-0.414308349124108
0.163746604917563,-0.410470699729717
0.157077889826553,-0.406637018796735
0.150503732392223,-0.402807425156441
0.144023645084148,-0.398982037640111
0.1376371403719,-0.395160975079023
0.13134373072505,-0.391344356304455
0.125142928613173,-0.387532300147682
0.119034246505839,-0.383724925439984
0.113017196872622,-0.379922351012637
0.107091292183094,-0.376124695696919
0.101256044906828,-0.372332078324106
0.095510967513396,-0.368544617725477
0.0898555724723706,-0.364762432732308
0.0842893722533243,-0.360985642175876
0.0788118793258297,-0.35721436488746
0.0734226061594593,-0.353448719698337
0.0681210652237856,-0.349688825439784
0.0629067689883809,-0.345934800943077
0.0577792299228179,-0.342186765039495
0.0527379604966692,-0.338444836560315
0.0477824731795071,-0.334709134336814
0.0429122804409041,-0.330979777200269
0.0381268947504328,-0.327256883981959
0.0334258285776659,-0.323540573513159
0.0288085943921755,-0.319830964625148
0.0242747046635343,-0.316128176149202
0.0198236718613148,-0.3124323269166
0.0154550084550895,-0.308743535758618
0.0111682269144309,-0.305061921506534
0.00696283970891153,-0.301387602991625
0.00283835930810378,-0.297720699045169
-0.00120570181841965,-0.294061328498442
-0.00516983120108636,-0.290409610182723
-0.00905451637032392,-0.286765662929287
-0.0128602448565598,-0.283129605569414
-0.0165875041902214,-0.279501556934379
-0.0202367819017362,-0.275881635855461
-0.0238085655215319,-0.272269961163937
-0.0273033425800359,-0.268666651691084
-0.0307216006076756,-0.265071826268179
-0.0340638271348785,-0.2614856037265
-0.0373305096920723,-0.257908102897324
-0.0405221358096842,-0.254339442611928
-0.0436391930181419,-0.25077974170159
-0.0466821688478728,-0.247229118997587
-0.0496515508293046,-0.243687693331196
-0.0525478264928645,-0.240155583533695
-0.0553714833689802,-0.236632908436361
-0.0581230089880792,-0.233119786870472
-0.0608028908805888,-0.229616337667304
-0.0634116165769367,-0.226122679658135
-0.0659496736075504,-0.222638931674242
-0.0684175495028572,-0.219165212546903
-0.0708157317932848,-0.215701641107395
-0.0731447080092606,-0.212248336186995
-0.0754049656812121,-0.208805416616982
-0.0775969923395668,-0.205373001228631
-0.0797212755147522,-0.20195120885322
-0.0817783027371958,-0.198540158322027
-0.0837685615373251,-0.195139968466328
-0.0856925394455677,-0.191750758117403
-0.0875507239923509,-0.188372646106526
-0.0893436027081023,-0.185005751264977
-0.0910716631232494,-0.181650192424032
-0.0927353927682197,-0.178306088414969
-0.0943352791734406,-0.174973558069064
-0.0958718098693397,-0.171652720217596
-0.0973454723863446,-0.168343693691841
-0.0987567542548826,-0.165046597323077
-0.100106143005381,-0.161761549942582
-0.101394126168268,-0.158488670381632
-0.102621191273971,-0.155228077471505
-0.103787825852916,-0.151979890043478
-0.104894517435533,-0.148744226928829
-0.105941753552247,-0.145521206958834
-0.106930021733487,-0.142310948964772
-0.10785980950968,-0.13911357177792
-0.108731604411254,-0.135929194229554
-0.109545893968636,-0.132757935150952
-0.110303165712254,-0.129599913373392
-0.111003907172535,-0.126455247728151
-0.111648605879906,-0.123324057046506
-0.112237749364796,-0.120206460159735
-0.112771825157631,-0.117102575899114
-0.113251320788839,-0.114012523095922
-0.113676723788848,-0.110936420581435
-0.114048521688085,-0.10787438718693
-0.114367202016978,-0.104826541743687
-0.114633252305954,-0.10179300308298
-0.11484716008544,-0.0987738900360884
-0.115009412885865,-0.0957693214342888
-0.115120498237655,-0.0927794161088588
-0.115180903671238,-0.0898042928910756
-0.115191116717042,-0.0868440706122164
-0.115151624905494,-0.0838988681035587
-0.115062915767021,-0.0809688041963798
-0.114925476832052,-0.0780539977219571
-0.114739795631013,-0.0751545675115677
-0.114506359694332,-0.0722706323964891
-0.114225656552437,-0.0694023112079987
-0.113898173735754,-0.0665497227773737
-0.113524398774713,-0.0637129859358914
-0.113104819199739,-0.0608922195148291
-0.112639922541261,-0.0580875423454644
-0.112130196329706,-0.0552990732590744
-0.111576128095502,-0.0525269310869364
-0.110978205369076,-0.0497712346603278
-0.110336915680855,-0.047032102810526
-0.109652746561267,-0.0443096543688082
-0.10892618554074,-0.0416040081664518
-0.108157720149701,-0.038915283034734
-0.107347837918577,-0.0362435978049324
-0.106497026377797,-0.0335890713083242
-0.105605773057787,-0.0309518223761866
-0.104674565488975,-0.028331969839797
-0.103703891201788,-0.0257296325304328
-0.102694237726655,-0.0231449292793713
-0.101646092594002,-0.0205779789178898
-0.100559943334257,-0.0180289002772656
-0.0994362774778473,-0.0154978121887762
-0.0982755825552008,-0.0129848334836987
-0.0970783460967449,-0.0104900829933105
-0.0958450556329069,-0.00801367954888897
-0.0945761986941145,-0.00555574198171147
-0.0932722628107951,-0.00311638912305531
-0.0919337355133761,-0.000695739804197709
-0.0905611043322851,0.00170608714358393
-0.0891548567979496,0.00408897288901218
-0.0877154804407971,0.00645279860080986
-0.0862434627912551,0.00879744544769957
-0.084739291379751,0.011122794598404
-0.0832034537367125,0.0134287272216458
-0.0816364373925669,0.0157151244861477
-0.0800387298777417,0.0179818675606323
-0.0784108187226645,0.0202288376138223
-0.0767531914577628,0.0224559158144404
-0.0750663356134641,0.0246629833312092
-0.0733507387201958,0.0268499213328515
-0.0716068883083854,0.0290166109880898
-0.0698352719084604,0.0311629334656469
-0.0680363770508484,0.0332887699342454
-0.0662106912659769,0.035394001562608
-0.0643587020842732,0.0374785095194574
-0.0624808970361651,0.0395421749735162
-0.0605777636520799,0.0415848790935072
-0.058649789462445,0.0436065030481529
-0.0566974619976881,0.0456069280061761
-0.0547212687882367,0.0475860351362995
-0.0527216973645181,0.0495437056072456
-0.0506992352569599,0.0514798205877372
-0.0486543699959897,0.0533942612464969
-0.0465875891120349,0.0552869087522475
-0.044499380135523,0.0571576442737115
-0.0423902305968814,0.0590063489796118
-0.0402606280265378,0.0608329040386708
-0.0381110599549195,0.0626371906196113
-0.0359420139124543,0.064419089891156
-0.0337539774295693,0.0661784830220276
-0.0315474380366922,0.0679152511809487
-0.0293228832642505,0.0696292755366419
-0.0270808006426716,0.0713204372578301
-0.0248216777023833,0.0729886175132357
-0.0225460019738126,0.0746336974715816
-0.0202542609873875,0.0762555583015903
-0.0179469422735351,0.0778540811719846
-0.0156245333626832,0.0794291472514871
-0.013287521785259,0.0809806377088205
-0.0109363950716904,0.0825084337127074
-0.00857164075240439,0.0840124164318706
-0.00619374635782889,0.0854924670350326
-0.00380319941839113,0.0869484666909163
-0.00140048746451882,0.0883802965682441
0.00101390197336075,0.089787837835739
0.00343948136481988,0.0911709716621233
0.00587576317943128,0.09252957921612
0.00832225988676728,0.0938635416664516
0.0107784839564005,0.0951727401818408
0.0132439478579033,0.0964570559310102
0.0157181640608484,0.0977163700826826
0.0182006450348081,0.0989505638055806
0.0206909032493551,0.100159518268427
0.0231884511740616,0.101343114639944
0.0256928012785005,0.102501234088855
0.0282034660322439,0.103633757783882
0.0307199579048646,0.104740566893749
0.033241789365935,0.105821542587176
0.0357684728850276,0.106876566032888
0.0382995209317149,0.107905518399608
0.0408344459755695,0.108908280856056
0.0433727604861637,0.109884734570957
0.0459139769330702,0.110834760713034
0.0484576077858613,0.111758240451007
0.0510031655141097,0.112655054953601
0.0535501625873878,0.113525085389539
0.0560981114752682,0.114368212927541
0.0586465246473232,0.115184318736333
0.0611949145731256,0.115973283984635
0.0637427937222476,0.116734989841171
0.066289674564262,0.117469317474663
0.068835069568741,0.118176148053834
0.0713784912052573,0.118855362747408
0.0739194519433833,0.119506842724105
0.0764574642526917,0.12013046915265
0.0789920406027547,0.120726123201764
0.0815226934631451,0.12129368604017
0.0840489353034351,0.121833038836592
0.0865702785931975,0.122344062759752
0.0890862358020047,0.122826638978371
0.0915963193994291,0.123280648661174
0.0941000418550433,0.123705972976883
0.0965969156384198,0.12410249309422
0.099086453219131,0.124470090181909
0.10156816706675,0.124808645408671
0.104041569650848,0.125118039943229
0.106506173440999,0.125398154954307
0.108961490906774,0.125648871610626
0.111407034517747,0.12587007108091
0.113842316743489,0.126061634533881
0.116266850053574,0.126223443138262
0.118680146917574,0.126355378062775
0.121081719805061,0.126457320476143
0.123471081185607,0.12652915154709
0.125847743528787,0.126570752444336
0.128211219304171,0.126582004336606
0.130561020981332,0.126562788392622
0.132896661029843,0.126512985781106
0.135217651919276,0.126432477670781
0.137523506119205,0.126321145230371
0.1398137360992,0.126178869628596
0.142087854328836,0.126005532034181
0.144345373277683,0.125801013615848
0.146585805415316,0.125565195542319
0.148808663211306,0.125297958982318
0.151013459135226,0.124999185104566
0.153199705656648,0.124668755077787
0.155366915245145,0.124306550070704
0.157514600370289,0.123912451252038
0.159642273501654,0.123486339790512
0.16174944710881,0.12302809685485
0.163835633661332,0.122537603613774
0.165900345628791,0.122014741236006
0.16794309548076,0.12145939089027
0.169963395686811,0.120871433745287
0.171960758716517,0.120250750969781
0.17393469703945,0.119597223732475
0.175884723125184,0.11891073320209
0.177810349443289,0.11819116054735
0.17971108846334,0.117438386936977
0.181586452654908,0.116652293539694
0.183435954487566,0.115832761524224
0.185259106430886,0.114979672059289
0.187055420954442,0.114092906313612
0.188824410527804,0.113172345455915
0.190565587620547,0.112217870654922
0.192278464702242,0.111229363079355
0.193962554242462,0.110206703897936
0.195617368710779,0.109149774279389
0.197242420576767,0.108058455392436
0.198837222309997,0.1069326284058
0.200401286380041,0.105772174488202
0.201934125256473,0.104576974808367
0.203435251408865,0.103346910535017
0.20490417730679,0.102081862836873
0.206340415419819,0.10078171288266
0.207743478217526,0.0994463418410999
0.209112878169483,0.0980756308809148
0.210448127745263,0.0966694611708277
0.211748739414437,0.0952277138795614
0.213014225646579,0.0937502701758384
0.21424409891126,0.0922370112283814
0.215437871678055,0.0906878182059132
0.216595056416534,0.0891025722771564
0.217715165596271,0.0874811546108336
0.218797711686837,0.0858234463756676
0.219842207157806,0.0841293287403809
0.220848164478751,0.0823986828736964
0.221815096119242,0.0806313899443365
0.222742514548854,0.0788273311210242
0.223629932237158,0.0769863875724818
0.224476861653727,0.0751084404674323
0.225282815268134,0.0731933709745981
0.22604730554995,0.0712410602627022
0.22676984496875,0.0692513895004669
0.227449945994104,0.0672242398566152
0.228087121095585,0.0651594924998694
0.228680882742767,0.0630570285989526
0.229230743405221,0.0609167293225871
0.229736215552521,0.0587384758394959
0.230196811654237,0.0565221493184014
0.230612044179944,0.0542676309280264
0.230981425599214,0.0519748018370935
0.231304468381618,0.0496435432143255
0.23158068499673,0.0472737362284449
0.231809587914122,0.0448652620481745
0.231990689603367,0.0424180018422369
0.232123502534036,0.0399318367793549
0.232207539175703,0.037406648028251
0.232242311997941,0.034842316757648
0.23222733347032,0.0322387241362684
0.232162116062415,0.0295957513328352
0.232046172243798,0.0269132795160706
0.23187901448404,0.0241911898546977
0.231660155252715,0.021429363517439
0.231389107019395,0.0186276816730172
0.231065382253653,0.0157860254901548
0.230688493425061,0.0129042761375748
0.230257953003191,0.0099823147839995
0.229773273457617,0.00702002259815193
0.22923396725791,0.00401728074875447
0.228639546873643,0.000973970404530025
0.227989524774389,-0.00211002726579896
0.22728341342972,-0.00523483109350956
0.226520725309208,-0.00840055990987941
0.225700972882427,-0.0116073325461855
0.224823668618948,-0.0148552678337055
0.223888324988345,-0.0181444846037164
0.222894454460188,-0.0214751016874958
0.221841569504053,-0.0248472379163208
0.220729182589509,-0.0282610121214691
0.219556806186131,-0.0317165431342175
0.218323952763491,-0.0352139497858439
0.21703013479116,-0.038753350907625
0.215674864738713,-0.0423348653308388
0.21425765507572,-0.045958611886762
0.212778018271755,-0.0496247094066725
0.21123546679639,-0.0533332767218471
0.209629513119198,-0.0570844326635636
0.207959669709751,-0.0608782960630989
0.206225449037622,-0.0647149857517308
0.204426363572383,-0.0685946205607361
0.202561925783606,-0.0725173193213926
0.200631648140865,-0.0764832008649772
0.198635043113731,-0.0804923840227677
0.196571623171778,-0.084544987626041
0.194440900784577,-0.0886411305060748
0.192242388421701,-0.092780931494146
0.189975598552723,-0.0969645094215324
0.187640043647216,-0.101191983119511
0.18523523617475,-0.105463471419359
0.182760688604901,-0.109779093152354
0.180215913407238,-0.114138967149774
0.177600423051336,-0.118543212242895
0.174913730006767,-0.122991947262995
0.172155346743103,-0.127485291041351
0.169324785729917,-0.132023362409241
0.166421559436781,-0.136606280197942
0.163445180333267,-0.141234163238731
0.160395160888949,-0.145907130362885
0.157271013573399,-0.150625300401683
0.154072250856188,-0.1553887921864
0.150798385206891,-0.160197724548316
0.147448929095079,-0.165052216318706
0.144023394990324,-0.169952386328849
0.1405212953622,-0.17489835341002
0.136942142680278,-0.179890236393499
0.133285449414132,-0.184928154110562
0.129550728033333,-0.190012225392487
0.125737491007455,-0.19514256907055
0.121845250806069,-0.20031930397603
