-0.966913564382987,0.372870051005062
-0.966077760348181,0.374587741894294
-0.965231209615604,0.376294250890151
-0.964373842514457,0.377989543250127
-0.963505589373941,0.379673584231716
-0.962626380523257,0.381346339092412
-0.961736146291606,0.38300777308971
-0.96083481700819,0.384657851481103
-0.959922323002211,0.386296539524085
-0.958998594602869,0.387923802476151
-0.958063562139366,0.389539605594796
-0.957117155940902,0.391143914137512
-0.95615930633668,0.392736693361794
-0.955189943655901,0.394317908525137
-0.954208998227766,0.395887524885034
-0.953216400381475,0.397445507698979
-0.952212080446231,0.398991822224467
-0.951195968751235,0.400526433718993
-0.950167995625688,0.402049307440049
-0.949128091398792,0.40356040864513
-0.948076186399747,0.405059702591731
-0.947012210957755,0.406547154537345
-0.945936095402017,0.408022729739466
-0.944847770061735,0.409486393455589
-0.94374716526611,0.410938110943209
-0.942634211344343,0.412377847459818
-0.941508838625635,0.413805568262911
-0.940370977439188,0.415221238609982
-0.939220558114203,0.416624823758526
-0.938057510979881,0.418016288966037
-0.936881766365424,0.419395599490008
-0.935693254600033,0.420762720587933
-0.934491906012909,0.422117617517308
-0.933277650933254,0.423460255535626
-0.932050419690268,0.424790599900381
-0.930810142613154,0.426108615869068
-0.929556750031112,0.42741426869918
-0.928290172273343,0.428707523648212
-0.92701033966905,0.429988345973658
-0.925717182547432,0.431256700933011
-0.924410631237693,0.432512553783767
-0.923090616069032,0.433755869783419
-0.921757067370651,0.434986614189461
-0.920409915471752,0.436204752259388
-0.919049090701536,0.437410249250693
-0.917674523389203,0.438603070420871
-0.916286143863956,0.439783181027416
-0.914883882454995,0.440950546327823
-0.913467669491523,0.442105131579584
-0.912037435302739,0.443246902040195
-0.910593110217846,0.444375822967149
-0.909134624566045,0.445491859617941
-0.907661908676537,0.446594977250065
-0.906174892878524,0.447685141121014
-0.904673507501206,0.448762316488284
-0.903157682873784,0.449826468609368
-0.901627349325462,0.45087756274176
-0.900082437185439,0.451915564142955
-0.898522876782916,0.452940438070446
-0.896948598447096,0.453952149781728
-0.895359532507179,0.454950664534295
-0.893755609292368,0.455935947585641
-0.892136759131862,0.45690796419326
-0.890502912354863,0.457866679614647
-0.888853999290573,0.458812059107295
-0.887189950268193,0.459744067928699
-0.885510695616924,0.460662671336352
-0.883816165665968,0.461567834587749
-0.882106290744525,0.462459522940384
-0.880381001181798,0.463337701651752
-0.878640227306986,0.464202335979346
-0.876883899449293,0.46505339118066
-0.875111947937919,0.465890832513189
-0.873324303102065,0.466714625234426
-0.871520895270932,0.467524734601866
-0.869701654773722,0.468321125873004
-0.867866511939637,0.469103764305332
-0.866015397097877,0.469872615156346
-0.864148240577643,0.470627643683539
-0.862264972708138,0.471368815144406
-0.860365523818562,0.472096094796441
-0.858449824238117,0.472809447897137
-0.856517804296003,0.47350883970399
-0.854569394321423,0.474194235474492
-0.852604524643577,0.474865600466139
-0.850623125591667,0.475522899936425
-0.848625127494894,0.476166099142842
-0.84661046068246,0.476795163342887
-0.844579055483565,0.477410057794052
-0.842530842227411,0.478010747753833
-0.8404657512432,0.478597198479722
-0.838383712860132,0.479169375229215
-0.836284657407409,0.479727243259805
-0.834168515214232,0.480270767828987
-0.832035216609803,0.480799914194254
-0.829884691923322,0.481314647613101
-0.827716871483991,0.481814933343022
-0.825531685621012,0.482300736641512
-0.823329064663585,0.482772022766063
-0.821108938940912,0.483228756974171
-0.818871238782195,0.483670904523329
-0.816615894516634,0.484098430671032
-0.814342836473431,0.484511300674774
-0.812051994981786,0.484909479792049
-0.809743300370903,0.485292933280351
-0.807416682969981,0.485661626397174
-0.805072073108222,0.486015524400013
-0.802709401114827,0.486354592546361
-0.800328597318998,0.486678796093713
-0.797929592049935,0.486988100299562
-0.795512315636841,0.487282470421403
-0.793076698408916,0.487561871716731
-0.790622670695362,0.487826269443039
-0.788150162825381,0.488075628857821
-0.785659105128172,0.488309915218571
-0.783149427932938,0.488529093782785
-0.78062106156888,0.488733129807955
-0.778073936365199,0.488921988551576
-0.775507982651097,0.489095635271142
-0.772923130755774,0.489254035224147
-0.770319311008433,0.489397153668085
-0.767696453738274,0.489524955860451
-0.765054489274499,0.489637407058739
-0.762393347946308,0.489734472520442
-0.759712960082905,0.489816117503056
-0.757013256013488,0.489882307264073
-0.754294166067261,0.489933007060988
-0.751555620573423,0.489968182151296
-0.748797549861177,0.489987797792491
-0.746019884259724,0.489991819242066
-0.743222554098265,0.489980211757515
-0.740405489706001,0.489952940596334
-0.737568621412134,0.489909971016016
-0.734711879545865,0.489851268274054
-0.731835194436395,0.489776797627944
-0.728938496412926,0.48968652433518
-0.726021715804658,0.489580413653255
-0.723084782940794,0.489458430839664
-0.720127628150534,0.489320541151901
-0.717150181763079,0.489166709847459
-0.714152374107632,0.488996902183834
-0.711134135513393,0.488811083418519
-0.708095396309563,0.488609218809009
-0.705036086825344,0.488391273612797
-0.701956137389938,0.488157213087378
-0.698855478332545,0.487907002490246
-0.695734039982366,0.487640607078895
-0.692591752668604,0.487357992110819
-0.68942854672046,0.487059122843512
-0.686244352467133,0.486743964534469
-0.683039100237827,0.486412482441183
-0.679812720361742,0.486064641821148
-0.676565143168079,0.48570040793186
-0.673296298986041,0.485319746030812
-0.670006118144827,0.484922621375498
-0.66669453097364,0.484508999223412
-0.66336146780168,0.484078844832048
-0.66000685895815,0.483632123458902
-0.65663063477225,0.483168800361465
-0.653232725573181,0.482688840797234
-0.649813061690145,0.482192210023701
-0.646371573452344,0.481678873298362
-0.642908191188978,0.48114879587871
-0.639422845229248,0.480601943022239
-0.635915465902357,0.480038279986444
-0.632385983537505,0.479457772028818
-0.628834328463894,0.478860384406857
-0.625260431010725,0.478246082378053
-0.621664221507199,0.477614831199901
-0.618045630282517,0.476966596129896
-0.614404587665881,0.476301342425531
-0.610741023986493,0.4756190353443
-0.607054869573552,0.474919640143698
-0.603346054756262,0.474203122081219
-0.599614509863823,0.473469446414357
-0.595860165225435,0.472718578400606
-0.592082951170302,0.47195048329746
-0.588282798027623,0.471165126362414
-0.584459636126601,0.470362472852961
-0.580613395796435,0.469542488026595
-0.576744007366329,0.468705137140812
-0.572851401165483,0.467850385453104
-0.568935507523098,0.466978198220966
-0.564996256768376,0.466088540701893
-0.561033579230518,0.465181378153378
-0.557047405238725,0.464256675832916
-0.553037665122198,0.463314398997999
-0.549004289210139,0.462354512906124
-0.54494720783175,0.461376982814784
-0.540866351316231,0.460381773981473
-0.536761649992783,0.459368851663685
-0.532633034190609,0.458338181118914
-0.528480434238909,0.457289727604655
-0.524303780466884,0.456223456378401
-0.520103003203736,0.455139332697647
-0.515878032778667,0.454037321819887
-0.511628799520877,0.452917389002615
-0.507355233759568,0.451779499503325
-0.503057265823941,0.450623618579512
-0.498734826043197,0.449449711488669
-0.494387844746538,0.44825774348829
-0.490016252263165,0.447047679835871
-0.485619978922279,0.445819485788904
-0.481198955053081,0.444573126604884
-0.476753110984774,0.443308567541305
-0.472282377046557,0.442025773855662
-0.467786683567633,0.440724710805448
-0.463265960877203,0.439405343648158
-0.458720139304468,0.438067637641285
-0.454149149178629,0.436711558042324
-0.449552920828887,0.43533707010877
-0.444931384584445,0.433944139098115
-0.440284470774503,0.432532730267855
-0.435612109728262,0.431102808875483
-0.430914231774924,0.429654340178493
-0.42619076724369,0.428187289434381
-0.421441646463761,0.426701621900639
-0.416666799764339,0.425197302834762
-0.411866157474625,0.423674297494244
-0.40703964992382,0.42213257113658
-0.402187207441126,0.420572089019263
-0.397308760355744,0.418992816399787
-0.392404238996875,0.417394718535648
-0.38747357369372,0.415777760684338
-0.382516694775481,0.414141908103352
-0.377533532571358,0.412487126050184
-0.372524017410555,0.410813379782328
-0.367488079622271,0.409120634557279
-0.362425649535707,0.40740885563253
-0.357336657480066,0.405678008265576
-0.352221033784549,0.403928057713911
-0.347078708778356,0.402158969235029
-0.341909612790689,0.400370708086423
-0.33671367615075,0.398563239525589
-0.331490829187739,0.396736528810021
-0.326241002230858,0.394890541197212
-0.320964125609309,0.393025241944656
-0.315660129652292,0.391140596309849
-0.310328944689009,0.389236569550283
-0.304970501048661,0.387313126923453
-0.299584729060449,0.385370233686854
-0.294171559053575,0.383407855097979
-0.288730921357241,0.381425956414323
-0.283262746300646,0.379424502893379
-0.277766964212993,0.377403459792642
-0.272243505423483,0.375362792369605
-0.266692300261318,0.373302465881764
-0.261113279055697,0.371222445586613
-0.255506372135824,0.369122696741644
-0.249871509830898,0.367003184604353
-0.244208622470122,0.364863874432233
-0.238517640382697,0.36270473148278
-0.232798493897824,0.360525721013486
-0.227051113344703,0.358326808281846
-0.221275429052538,0.356107958545355
-0.215471371350528,0.353869137061505
-0.209638870567875,0.351610309087793
-0.203777857033781,0.349331439881711
-0.197888261077447,0.347032494700753
-0.191970013028073,0.344713438802415
-0.186023043214862,0.342374237444189
-0.180047281967014,0.340014855883571
-0.174042659613732,0.337635259378054
-0.168009106484215,0.335235413185133
-0.161946552907666,0.332815282562301
-0.155854929213286,0.330374832767053
-0.149734165730276,0.327914029056882
-0.143584192787837,0.325432836689284
-0.137404940715172,0.322931220921752
-0.131196339841479,0.32040914701178
-0.124958320495963,0.317866580216863
-0.118690813007822,0.315303485794494
-0.11239374770626,0.312719829002168
-0.106067054920477,0.310115575097379
-0.0997106649796742,0.30749068933762
-0.0933245082130529,0.304845136980387
-0.0869085149498151,0.302178883283173
-0.0804626155191612,0.299491893503473
-0.0739867402502932,0.29678413289878
-0.067480819472412,0.294055566726589
-0.060944783514719,0.291306160244394
-0.0543785627064154,0.288535878709689
-0.0477820873767028,0.285744687379967
-0.0411552878547821,0.282932551512725
-0.034498094469855,0.280099436365454
-0.0278104375511223,0.27724530719565
-0.021092247427786,0.274370129260807
-0.0143434544290463,0.271473867818418
-0.0075639888841057,0.268556488125979
-0.000753781122164704,0.265617955440983
0.0060872385275749,0.262658235020924
0.0129591397359124,0.259677292123296
0.0198619921736459,0.256675092005594
0.0267958655115745,0.253651599925311
0.0337608294204966,0.250606781139943
0.0407569535712113,0.247540600906982
0.0477843076345169,0.244453024483923
0.0548429612812126,0.241344017128261
0.0619329841820964,0.238213544097489
0.0690544460079677,0.235061570649101
0.0762074164296247,0.231888062040593
0.0833919651178665,0.228692983529457
0.0906081617434914,0.225476300373188
0.0978560759772986,0.22223797782928
0.105135777490086,0.218977981155227
0.112447335952654,0.215696275608523
0.119790821035799,0.212392826446663
0.127166302410321,0.209067598927141
0.134573849747019,0.205720558307451
0.142013532716691,0.202351669845086
0.149485420990136,0.198960898797542
0.156989584238153,0.195548210422311
0.16452609213154,0.192113569976889
0.172095014341096,0.18865694271877
0.17969642053762,0.185178293905447
0.18733038039191,0.181677588794415
0.194996963574766,0.178154792643168
0.202696239756985,0.1746098707092
0.210428278609367,0.171042788250005
0.218193149802711,0.167453510523077
0.225990923007814,0.163842002785911
0.233821667895477,0.160208230296
0.241685454136496,0.15655215831084
0.249582351401672,0.152873752087923
0.257512429361802,0.149172976884744
0.265475757687687,0.145449797958797
0.273472406050123,0.141704180567577
0.28150244411991,0.137936089968577
0.289565941567847,0.134145491419292
0.297662968064733,0.130332350177215
0.305793593281365,0.126496631499842
0.313957886888544,0.122638300644665
0.322155918557066,0.11875732286918
0.330387757957732,0.114853663430879
0.33865347476134,0.110927287587259
0.346953138638689,0.106978160595811
0.355286819260576,0.103006247714032
0.363654586297802,0.0990115141994143
0.372056509421165,0.0949939253094527
0.380492658301463,0.0909534463016412
0.388963102609495,0.0868900424334741
0.39746791201606,0.0828036789624453
0.406007156191956,0.0786943211460492
0.414580904807983,0.0745619342417797
0.423189227534938,0.0704064835071311
0.431832194043622,0.0662279341995974
0.440509874004832,0.062026251576673
0.449222337089367,0.0578014008958517
0.457969652968025,0.0535533474146279
0.466751891311606,0.0492820563904956
0.475569121790908,0.044987493080949
0.48442141407673,0.0406696227434822
0.493308837839871,0.0363284106355895
0.502231462751129,0.0319638220147647
0.511189358481303,0.0275758221385024
0.520182594701192,0.0231643762642963
0.529211241081594,0.0187294496496409
0.538275367293309,0.01427100755203
0.547375043007133,0.00978901522895808
0.556510337893868,0.00528343793791897
0.565681321624311,0.000754240936407101
0.574888063869261,-0.00379861051808371
0.584130634299517,-0.00837515116805891
0.593409102585877,-0.0129754157560249
0.60272353839914,-0.0175994390244869
0.612074011410105,-0.0222472557159513
0.62146059128957,-0.0269189005729236
0.630883347708334,-0.0316144083379101
0.640342350337197,-0.0363338137534161
0.649837668846956,-0.041077151561948
0.65936937290841,-0.0458444565060111
0.668937532192358,-0.0506357633281118
0.678542216369599,-0.0554511067707555
0.688183495110931,-0.0602905215764485
0.697861438087154,-0.0651540424876962
0.707576114969065,-0.0700417042470049
0.717327595427464,-0.07495354159688
0.727115949133149,-0.0798895892798279
0.736941245756919,-0.084849882038354
0.746803554969573,-0.0898344546149645
0.756702946441909,-0.0948433417521648
0.766639489844726,-0.0998765781924613
0.776613254848823,-0.104934198678359
0.786624311124999,-0.110016237952365
0.796672728344051,-0.115122730756985
0.80675857617678,-0.120253711834724
0.816881924293983,-0.125409215928088
0.827042842366459,-0.130589277779583
0.837241400065007,-0.135793932131715
0.847477667060427,-0.14102321372699
0.857751713023515,-0.146277157307914
0.868063607625072,-0.151555797616992
0.878413420535895,-0.15685916939673
0.888801221426784,-0.162187307389635
0.899227079968537,-0.167540246338212
0.909691065831954,-0.172918020984967
0.920193248687831,-0.178320666072406
0.93073369820697,-0.183748216343034
0.941312484060167,-0.189200706539358
0.951929675918222,-0.194678171403884
