0.919391202719126,-0.206632717996252
0.814061611671316,-0.307478052336938
0.780920661567608,-0.109890072225292
0.775932278603717,-0.0939219399492211
0.982735641579306,-0.0937609789002447
0.964052604495472,-0.098877709431842
0.765876890664531,-0.330612043874298
0.955593437104666,-0.306010915308433
0.839631186970778,-0.216012746323942
0.732009909042859,-0.320430139962225
0.702215680789656,-0.316743323910493
0.810436261295136,-0.218921598682709
0.90762179868229,-0.327835272399627
0.69768696967445,-0.32438233787362
0.884044664988042,-0.131323086418785
0.674102698931244,-0.336644824852066
0.762628692403879,-0.223081621738795
0.753193414303446,-0.223814610441787
0.853137938365642,-0.13205759435282
0.842758820379781,-0.120575986331616
0.626635569956807,-0.340213063645588
0.825707762720578,-0.114168620270997
0.706639888589587,-0.227010102723171
0.697452698309828,-0.22755857271733
0.68830632695286,-0.228077920485648
0.679200623362302,-0.228568611997355
0.670135436381777,-0.229031113221678
0.661110614854907,-0.229465890127845
0.652126007625314,-0.229873408685085
0.64318146353662,-0.230254134862626
0.634276831432447,-0.230608534629696
0.625411960156416,-0.230937073955523
0.61658669855215,-0.231240218809335
0.60780089546327,-0.231518435160361
0.599054399733399,-0.231772188977829
0.590347060206159,-0.232001946230966
0.58167872572517,-0.232208172889002
0.573049245134057,-0.232391334921164
0.564458467276439,-0.232551898296681
0.555906240995939,-0.232690328984781
0.54739241513618,-0.232807092954691
0.538916838540782,-0.23290265617564
0.530479360053369,-0.232977484616857
0.522079828517561,-0.23303204424757
0.513718092776981,-0.233066801037005
0.505394001675251,-0.233082220954393
0.497107404055993,-0.233078769968961
0.488858148762828,-0.233056914049938
0.480646084639379,-0.23301711916655
0.472471060529267,-0.232959851288028
0.464332925276115,-0.232885576383598
0.456231527723544,-0.232794760422489
0.448166716715177,-0.23268786937393
0.440138341094634,-0.232565369207148
0.432146249705539,-0.232427725891372
0.424190291391513,-0.232275405395829
0.416270314996178,-0.232108873689748
0.408386169363156,-0.231928596742358
0.400537703336069,-0.231735040522886
0.392724765758538,-0.231528671000561
0.384947205474187,-0.23130995414461
0.377204871326636,-0.231079355924263
0.369497612159507,-0.230837342308747
0.361825276816424,-0.23058437926729
0.354187714141006,-0.23032093276912
0.346584772976878,-0.230047468783466
0.339016302167659,-0.229764453279557
0.331482150556973,-0.229472352226619
0.323982166988441,-0.229171631593882
0.316516200305685,-0.228862757350573
0.309084099352328,-0.228546195465921
0.30168571297199,-0.228222411909154
0.294320890008294,-0.2278918726495
0.286989479304863,-0.227555043656188
0.279691329705317,-0.227212390898444
0.272426290053279,-0.226864380345499
0.26519420919237,-0.226511477966579
0.257994935966213,-0.226154149730914
0.25082831921843,-0.22579286160773
0.243694207792642,-0.225428079566258
0.236592450532472,-0.225060269575724
0.229522896281541,-0.224689897605356
0.222485393883471,-0.224317429624384
0.215479792181885,-0.223943331602035
0.208505940020404,-0.223568069507537
0.201563686242649,-0.223192109310119
0.194652879692244,-0.222815916979009
0.18777336921281,-0.222439958483435
0.180925003647969,-0.222064699792625
0.174107631841342,-0.221690606875808
0.167321102636553,-0.22131814570221
0.160565264877222,-0.220947782241062
0.153839967406972,-0.220579982461591
0.147145059069424,-0.220215212333025
0.140480388708201,-0.219853937824592
0.133845805166924,-0.219496624905521
0.127241157289215,-0.21914373954504
0.120666293918697,-0.218795747712376
0.114121063898991,-0.218453115376759
0.10760531607372,-0.218116308507416
0.101118899286504,-0.217785793073575
0.0946616623809665,-0.217462035044466
0.0882334542007289,-0.217145500389315
0.0818341235894132,-0.216836655077351
0.0754635193906413,-0.216535965077802
0.0691214904480353,-0.216243896359897
0.0628078856052169,-0.215960914892864
0.0565225537058081,-0.21568748664593
0.050265343593431,-0.215424077588325
0.0440361041117074,-0.215171153689276
0.0378346841042592,-0.214929180918011
0.0316609324147084,-0.214698625243759
0.0255146978866768,-0.214479952635748
0.0193958293637866,-0.214273629063206
0.0133041756896594,-0.214080120495361
0.00723958570791745,-0.213899892901441
0.0012019082621825,-0.213733412250675
-0.00480900780392347,-0.213581144512291
-0.0107933136467785,-0.213443555655517
-0.0167511604227608,-0.213321111649581
-0.0226826992882482,-0.213214278463711
-0.0285880813996189,-0.213123522067136
-0.034467457913251,-0.213049308429084
-0.0403209799855225,-0.212992103518783
-0.0461487987728116,-0.21295237330546
-0.0519510654314961,-0.212930583758346
-0.0577279311179543,-0.212927200846666
-0.0634795469885641,-0.212942690539651
-0.0692060641997038,-0.212977518806527
-0.0749076339077512,-0.213032151616524
-0.0805844072690846,-0.213107054938868
-0.0862365354400818,-0.21320269474279
-0.0918641695771211,-0.213319536997516
-0.0974674608365805,-0.213458047672275
-0.103046560374838,-0.213618692736295
-0.108601619348272,-0.213801938158804
-0.11413278891326,-0.214008249909031
-0.11964022022618,-0.214238093956203
-0.125124064443411,-0.214491936269549
-0.13058447272133,-0.214770242818298
-0.136021596216316,-0.215073479571676
-0.141435586084747,-0.215402112498913
-0.146826593483,-0.215756607569237
-0.152194769567454,-0.216137430751875
-0.157540265494486,-0.216545048016057
-0.162863232420476,-0.216979925331009
-0.168163821501801,-0.217442528665961
-0.173442183894838,-0.217933323990141
-0.178698470755967,-0.218452777272776
-0.183932833241565,-0.219001354483096
-0.18914542250801,-0.219579521590327
-0.19433638971168,-0.220187744563699
-0.199505886008954,-0.22082648937244
-0.204654062556209,-0.221496221985777
-0.209781070509823,-0.222197408372939
-0.214887061026175,-0.222930514503155
-0.219972185261643,-0.223696006345651
-0.225036594372604,-0.224494349869658
-0.230080439515438,-0.225326011044402
-0.23510387184652,-0.226191455839111
-0.240107042522231,-0.227091150223015
-0.245090102698948,-0.228025560165342
-0.250053203533049,-0.228995151635318
-0.254996496180912,-0.230000390602174
-0.259920131798915,-0.231041743035136
-0.264824261543436,-0.232119674903434
-0.269709036570853,-0.233234652176294
-0.274574608037545,-0.234387140822946
-0.27942112709989,-0.235577606812618
-0.284248744914264,-0.236806516114538
-0.289057612637048,-0.238074334697933
-0.293847881424617,-0.239381528532033
-0.298619702433352,-0.240728563586065
-0.303373226819629,-0.242115905829258
-0.308108605739827,-0.24354402123084
-0.312825990350324,-0.245013375760039
-0.317525531807498,-0.246524435386083
-0.322207381267727,-0.2480776660782
-0.326871689887389,-0.249673533805619
-0.331518608822862,-0.251312504537568
-0.336148289230525,-0.252995044243274
-0.340760882266754,-0.254721618891967
-0.345356539087929,-0.256492694452874
-0.349935410850428,-0.258308736895224
-0.354497648710628,-0.260170212188244
-0.359043403824907,-0.262077586301164
-0.363572827349644,-0.26403132520321
-0.368086070441217,-0.266031894863612
-0.372583284256003,-0.268079761251597
-0.377064619950381,-0.270175390336394
-0.381530228680729,-0.272319248087231
-0.385980261603426,-0.274511800473336
-0.390414869874848,-0.276753513463938
-0.394834204651374,-0.279044853028263
-0.399238417089382,-0.281386285135542
-0.40362765834525,-0.283778275755001
-0.408002079575357,-0.28622129085587
-0.41236183193608,-0.288715796407375
-0.416707066583798,-0.291262258378746
-0.421037934674888,-0.293861142739211
-0.423198028498065,-0.295180388930737
-0.427403793081092,-0.297738247996931
-0.431389407271085,-0.300109645200995
-0.435157290907387,-0.30229657046136
-0.438709863829343,-0.304301013696457
-0.442049545876296,-0.306124964824718
-0.445178756887589,-0.307770413764573
-0.448099916702567,-0.309239350434453
-0.450815445160573,-0.310533764752789
-0.453327762100951,-0.311655646638013
-0.455639287363044,-0.312606986008554
-0.457752440786196,-0.313389772782845
-0.45966964220975,-0.314005996879316
-0.461393311473051,-0.314457648216398
-0.462925868415442,-0.314746716712522
-0.464269732876266,-0.314875192286119
-0.465427324694868,-0.31484506485562
-0.46640106371059,-0.314658324339457
-0.467193369762777,-0.314316960656059
-0.467806662690772,-0.313822963723858
-0.468243362333919,-0.313178323461285
-0.468505888531561,-0.312385029786771
-0.468596661123043,-0.311445072618748
-0.468518099947707,-0.310360441875645
-0.468272624844898,-0.309133127475894
-0.467862655653958,-0.307765119337925
-0.467290612214233,-0.306258407380171
-0.466558914365065,-0.304614981521062
-0.465669981945797,-0.302836831679028
-0.464626234795775,-0.300925947772501
-0.463430092754341,-0.298884319719912
-0.462083975660838,-0.296713937439692
-0.460590303354612,-0.294416790850272
-0.458951495675004,-0.291994869870082
-0.45716997246136,-0.289450164417554
-0.455248153553022,-0.286784664411119
-0.453188458789334,-0.284000359769207
-0.450993308009641,-0.28109924041025
-0.448665121053284,-0.278083296252679
-0.446206317759609,-0.274954517214924
-0.443619317967959,-0.271714893215417
-0.440906541517677,-0.268366414172589
-0.438070408248107,-0.26491107000487
-0.435113337998593,-0.261350850630692
-0.432037750608479,-0.257687745968485
-0.428846065917108,-0.253923745936681
-0.425540703763823,-0.25006084045371
-0.422124083987969,-0.246101019438004
-0.418598626428888,-0.242046272807993
-0.414966750925926,-0.237898590482109
-0.411230877318424,-0.233659962378782
-0.407393425445728,-0.229332378416444
-0.40345681514718,-0.224917828513525
-0.399423466262125,-0.220418302588457
-0.395295798629905,-0.215835790559669
-0.391076232089865,-0.211172282345594
-0.386767186481349,-0.206429767864663
-0.382371081643699,-0.201610237035306
-0.377890337416259,-0.196715679775954
-0.373327373638374,-0.191748086005038
-0.368684610149387,-0.18670944564099
-0.363964466788641,-0.18160174860224
-0.359169363395481,-0.176426984807219
-0.354301719809249,-0.171187144174358
-0.349363955869289,-0.165884216622088
-0.344358491414946,-0.160520192068841
-0.339287746285562,-0.155097060433047
-0.334154140320482,-0.149616811633137
-0.328960093359048,-0.144081435587542
-0.323708025240606,-0.138492922214693
-0.318400355804497,-0.132853261433021
-0.313039504890067,-0.127164443160957
-0.307627892336658,-0.121428457316933
-0.302167937983615,-0.115647293819378
-0.296662061670281,-0.109822942586724
-0.291112683235999,-0.103957393537403
-0.285522222520113,-0.0980526365898441
-0.279893099361967,-0.0921106616624794
-0.274227733600905,-0.0861334586737395
-0.26852854507627,-0.0801230175420557
-0.262797953627406,-0.0740813281858587
-0.257038379093656,-0.0680103805235796
-0.251252241314364,-0.0619121644736494
-0.245441960128874,-0.055788669954499
-0.23960995537653,-0.0496418868845594
-0.233758646896675,-0.0434738051822617
-0.227890454528652,-0.0372864147660367
-0.222007798111806,-0.0310817055543155
-0.216113097485479,-0.0248616674655291
-0.210208772489017,-0.0186282904181084
-0.204297242961762,-0.0123835643304845
-0.198380928743058,-0.00612947912108822
-0.192462249672248,0.000131975291649405
-0.186543625588677,0.00639880898929733
-0.180627476331687,0.0126690320534246
-0.174716221740624,0.0189406545656002
-0.168812281654829,0.0252116866073932
-0.162918075913647,0.0314801382603727
-0.157036024356422,0.0377440196061075
-0.151168546822497,0.0440013407261668
-0.145318063151216,0.0502501117021196
-0.139486993181923,0.0564883426155348
-0.13367775675396,0.0627140435479815
-0.127892773706673,0.0689252245810288
-0.122134463879403,0.0751198957962456
-0.116405247111496,0.0812960672752009
-0.110707543242295,0.0874517490994638
-0.105043772111143,0.0935849513506033
-0.0994163535573837,0.0996936841101883
-0.0938277074203614,0.105775957459788
-0.0882802535394195,0.111829781480971
-0.0827764117539014,0.117853166255307
-0.0773186019031511,0.123844121864365
-0.0719092438265121,0.129800658389713
-0.066550757363328,0.135720785912922
-0.0612455623529424,0.141602514515558
-0.0559960786346992,0.147443854279193
-0.0508047260479418,0.153242815285394
-0.0456739244320139,0.158997407615731
-0.0406060936262592,0.164705641351773
-0.0356036534700214,0.170365526575089
-0.0306690238026441,0.175975073367248
-0.0258046244634709,0.181532291809818
-0.0210128752918455,0.187035191984369
-0.0162961961271115,0.19248178397247
-0.0116570068086126,0.197870077855691
-0.00709772717569251,0.203198083715599
-0.00262077706769476,0.208463811633764
0.00177142367603692,0.213665271691754
0.00607645521615893,0.21880047397114
0.0102918977133276,0.22386742855349
0.0144153313281993,0.228864145520373
0.0184443362214303,0.233788634953358
0.022376492553677,0.238638906934014
0.0262093804855958,0.24341297154391
0.029940580177843,0.248108838864615
0.0335676717910749,0.252724518977699
0.037088235485948,0.257258021964729
0.0404998514231185,0.261707357907276
0.0438000997632428,0.266070536886907
0.0469865606669773,0.270345568985193
0.0500568142949782,0.274530464283702
0.0530084408079021,0.278623232864004
0.0558390203664051,0.282621884807666
0.0585461331311437,0.286524430196259
0.0611273592627742,0.290328879111351
0.0635802789219529,0.294033241634511
0.0659024722693363,0.297635527847309
0.0680915194655805,0.301133747831313
0.0701450006713421,0.304525911668092
0.0720604960472774,0.307810029439216
0.0738355857540426,0.310984111226253
0.0754678499522942,0.314046167110772
0.0769548688026885,0.316994207174343
0.0782942224658819,0.319826241498535
0.0794834911025306,0.322540280164915
0.0805202548732911,0.325134333255054
0.0814020939388198,0.327606410850521
0.0821265884597728,0.329954523032884
0.0826913185968067,0.332176679883713
0.0830938645105777,0.334270891484576
0.0833318063617422,0.336235167917043
0.0834027243109565,0.338067519262683
0.0833041985188771,0.339765955603063
0.0830338091461602,0.341328487019755
0.0825891363534622,0.342753123594326
0.0819677603014394,0.344037875408346
0.0811672611507483,0.345180752543384
0.0801852190620451,0.346179765081008
0.0790192141959862,0.347032923102788
0.0776668267132279,0.347738236690292
0.0761256367744266,0.348293715925091
0.0743932245402387,0.348697370888752
0.0724671701713205,0.348947211662845
0.0703450538283283,0.349041248328938
0.0680244556719185,0.348977490968602
0.0655029558627475,0.348753949663404
0.0627781345614716,0.348368634494914
0.0598475719287471,0.347819555544701
0.0567088481252304,0.347104722894334
0.0533595433115778,0.346222146625382
0.0497972376484458,0.345169836819414
0.0460195112964905,0.343945803557998
0.0420239444163685,0.342548056922705
0.037808117168736,0.340974606995102
0.0333696097142495,0.33922346385676
0.0287060022135651,0.337292637589247
0.0238148748273394,0.335180138274131
0.0186938077162286,0.332883975992983
0.0133403810408891,0.33040216082737
0.00775217496197717,0.327732702858863
0.0019267696401493,0.32487361216903
-0.00413825476393825,0.32182289883944
-0.0104453180896291,0.318578572951662
-0.0169968401762669,0.315138644587265
-0.0237952408631953,0.311501123827819
-0.030842939989758,0.307664020754891
-0.0381423573952986,0.303625345450052
-0.0456959129191607,0.29938310799487
-0.0535060264006881,0.294935318470914
