-0.0991167190755964,-0.637518920864855
-0.0983948648762632,-0.636513589572745
-0.0977088418235067,-0.635471737415757
-0.0970584616279146,-0.634393626982224
-0.0964435360000742,-0.633279520860478
-0.0958638766505733,-0.63212968163885
-0.0953192952899991,-0.63094437190567
-0.0948096036289394,-0.629723854249272
-0.0943346133779816,-0.628468391257986
-0.0938941362477132,-0.627178245520144
-0.0934879839487218,-0.625853679624078
-0.0931159681915949,-0.624494956158119
-0.0927779006869201,-0.623102337710598
-0.0924735931452847,-0.621676086869848
-0.0922028572772765,-0.6202164662242
-0.0919655047934829,-0.618723738361985
-0.0917613474044914,-0.617198165871535
-0.0915901968208895,-0.615640011341182
-0.0914518647532648,-0.614049537359257
-0.0913461629122048,-0.612427006514091
-0.0912729030082971,-0.610772681394016
-0.0912318967521292,-0.609086824587365
-0.0912229558542884,-0.607369698682467
-0.0912458920253626,-0.605621566267656
-0.091300516975939,-0.603842689931261
-0.0913866424166054,-0.602033332261616
-0.0915040800579491,-0.600193755847051
-0.0916526416105577,-0.598324223275899
-0.0918321387850188,-0.59642499713649
-0.0920423832919198,-0.594496340017156
-0.0922831868418483,-0.592538514506229
-0.0925543611453918,-0.590551783192041
-0.092855717913138,-0.588536408662922
-0.0931870688556742,-0.586492653507205
-0.0935482256835879,-0.58442078031322
-0.0939390001074668,-0.5823210516693
-0.0943592038378983,-0.580193730163777
-0.0948086485854701,-0.578039078384981
-0.0952871460607694,-0.575857358921244
-0.0957945079743841,-0.573648834360898
-0.0963305460369015,-0.571413767292275
-0.0968950719589092,-0.569152420303705
-0.0974878974509947,-0.566865055983521
-0.0981088342237455,-0.564551936920054
-0.0987576939877492,-0.562213325701636
-0.0994342884535932,-0.559849484916597
-0.100138429331865,-0.55746067715327
-0.100869928333153,-0.555047164999987
-0.101628597168043,-0.552609211045078
-0.102414247547124,-0.550147077876876
-0.103226691180983,-0.547661028083712
-0.104065739780207,-0.545151324253917
-0.104931205055385,-0.542618228975823
-0.105822898717103,-0.540062004837762
-0.106740632475949,-0.537482914428065
-0.107684218042511,-0.534881220335064
-0.108653467127376,-0.53225718514709
-0.109648191441131,-0.529611071452475
-0.110668202694365,-0.52694314183955
-0.111713312597665,-0.524253658896648
-0.112783332861618,-0.521542885212099
-0.113878075196812,-0.518811083374235
-0.114997351313834,-0.516058515971387
-0.116140972923272,-0.513285445591888
-0.117308751735713,-0.510492134824068
-0.118500499461745,-0.50767884625626
-0.119716027811956,-0.504845842476795
-0.120955148496933,-0.501993386074004
-0.122217673227263,-0.499121739636219
-0.123503413713534,-0.496231165751772
-0.124812181666334,-0.493321927008994
-0.126143788796249,-0.490394285996216
-0.127498046813869,-0.487448505301771
-0.128874767429779,-0.484484847513989
-0.130273762354568,-0.481503575221203
-0.131694843298823,-0.478504951011744
-0.133137821973132,-0.475489237473943
-0.134602510088082,-0.472456697196132
-0.136088719354261,-0.469407592766643
-0.137596261482256,-0.466342186773807
-0.139124948182655,-0.463260741805955
-0.140674591166046,-0.46016352045142
-0.142245002143015,-0.457050785298533
-0.14383599282415,-0.453922798935625
-0.14544737492004,-0.450779823951028
-0.14707896014127,-0.447622122933074
-0.14873056019843,-0.444449958470093
-0.150401986802106,-0.441263593150418
-0.152093051662887,-0.43806328956238
-0.153803566491358,-0.434849310294311
-0.155533342998109,-0.431621917934543
-0.157282192893727,-0.428381375071406
-0.159049927888798,-0.425127944293232
-0.160836359693911,-0.421861888188354
-0.162641300019654,-0.418583469345102
-0.164464560576613,-0.415292950351807
-0.166305953075376,-0.411990593796803
-0.168165289226531,-0.40867666226842
-0.170042380740665,-0.40535141835499
-0.171937039328366,-0.402015124644844
-0.173849076700222,-0.398668043726313
-0.175778304566819,-0.395310438187731
-0.177724534638745,-0.391942570617427
-0.179687578626589,-0.388564703603733
-0.181667248240937,-0.385177099734982
-0.183663355192377,-0.381780021599505
-0.185675711191496,-0.378373731785632
-0.187704127948882,-0.374958492881697
-0.189748417175123,-0.37153456747603
-0.191808390580806,-0.368102218156962
-0.193883859876518,-0.364661707512826
-0.195974636772848,-0.361213298131953
-0.198080532980382,-0.357757252602675
-0.200201360209709,-0.354293833513323
-0.202336930171415,-0.350823303452229
-0.204487054576088,-0.347345925007723
-0.206651545134316,-0.343861960768139
-0.208830213556686,-0.340371673321807
-0.211022871553786,-0.336875325257059
-0.213229330836204,-0.333373179162226
-0.215449403114526,-0.32986549762564
-0.21768290009934,-0.326352543235633
-0.219929633501235,-0.322834578580536
-0.222189415030797,-0.319311866248681
-0.224462056398613,-0.315784668828399
-0.226747369315273,-0.312253248908022
-0.229045165491362,-0.308717869075881
-0.231355256637469,-0.305178791920308
-0.233677454464181,-0.301636280029635
-0.236011570682085,-0.298090595992193
-0.23835741700177,-0.294542002396313
-0.240714805133822,-0.290990761830328
-0.243083546788829,-0.287437136882568
-0.245463453677379,-0.283881390141366
-0.247854337510059,-0.280323784195052
-0.250256009997457,-0.276764581631959
-0.25266828285016,-0.273204045040418
-0.255090967778756,-0.26964243700876
-0.257523876493833,-0.266080020125318
-0.259966820705977,-0.262517056978422
-0.262419612125776,-0.258953810156404
-0.264882062463819,-0.255390542247596
-0.267353983430691,-0.251827515840329
-0.269835186736982,-0.248264993522936
-0.272325484093278,-0.244703237883746
-0.274824687210167,-0.241142511511093
-0.277332607798237,-0.237583076993307
-0.279849057568075,-0.234025196918721
-0.282373848230268,-0.230469133875665
-0.284906791495404,-0.226915150452471
-0.287447699074071,-0.223363509237471
-0.289996382676856,-0.219814472818996
-0.292552654014347,-0.216268303785379
-0.295116324797131,-0.21272526472495
-0.297687206735796,-0.20918561822604
-0.300265111540929,-0.205649626876983
-0.302849850923118,-0.202117553266108
-0.30544123659295,-0.198589659981748
-0.308039080261013,-0.195066209612235
-0.310643193637894,-0.191547464745899
-0.313253388434181,-0.188033687971073
-0.315869476360462,-0.184525141876087
-0.318491269127323,-0.181022089049274
-0.321118578445353,-0.177524792078965
-0.323751216025139,-0.174033513553492
-0.326388993577269,-0.170548516061186
-0.329031722812329,-0.167070062190379
-0.331679215440908,-0.163598414529402
-0.334331283173593,-0.160133835666586
-0.336987737720972,-0.156676588190265
-0.339648390793632,-0.153226934688768
-0.34231305410216,-0.149785137750427
-0.344981539357145,-0.146351459963575
-0.347653658269174,-0.142926163916542
-0.350329222548833,-0.139509512197661
-0.353008043906712,-0.136101767395262
-0.355689934053397,-0.132703192097678
-0.358374704699475,-0.129314048893239
-0.361062167555535,-0.125934600370278
-0.363752134332164,-0.122565109117126
-0.366444416739949,-0.119205837722114
-0.369138826489479,-0.115857048773575
-0.371835175291339,-0.112519004859839
-0.374533274856119,-0.109191968569238
-0.377232936894405,-0.105876202490104
-0.379933973116785,-0.102571969210769
-0.382636195233847,-0.0992795313195633
-0.385339414956178,-0.095999151404819
-0.388043443994365,-0.0927310920548679
-0.390748094058997,-0.0894756158580414
-0.39345317686066,-0.0862329854026709
-0.396158504109942,-0.0830034632770881
-0.398863887517432,-0.0797873120696246
-0.401569138793715,-0.076584794368612
-0.40427406964938,-0.0733961727623816
-0.406978491795014,-0.0702217098392651
-0.409682216941206,-0.0670616681875942
-0.412385056798541,-0.0639163103957003
-0.415086823077609,-0.0607858990519149
-0.417787327488996,-0.0576706967445698
-0.42048638174329,-0.0545709660619963
-0.423183797551078,-0.051486969592526
-0.425879386622948,-0.0484189699244908
-0.428572960669488,-0.0453672296462218
-0.431264331401284,-0.0423320113460508
-0.433953310528926,-0.0393135776123093
-0.436639709762999,-0.0363121910333289
-0.439323340814092,-0.033328114197441
-0.442004015392792,-0.0303616096929774
-0.444681545209687,-0.0274129401082695
-0.447355741975364,-0.0244823680316489
-0.450026417400411,-0.0215701560514471
-0.452693383195415,-0.0186765667559959
-0.455356451070963,-0.0158018627336265
-0.458015432737644,-0.0129463065726707
-0.460670139906045,-0.0101101608614599
-0.463320384286753,-0.00729368818832588
-0.465965977590356,-0.00449715114159992
-0.468606731527442,-0.00172081230961388
-0.471242457808597,0.00103506571930095
-0.47387296814441,0.00377022035681283
-0.476498074245468,0.00648438901459031
-0.479117587822358,0.00917730910430173
-0.481731320585668,0.0118487180376157
-0.484339084245986,0.0144983532262004
-0.486940690513899,0.0171259520817246
-0.489535951099994,0.0197312520158564
-0.49212467771486,0.0223139904402645
-0.494706682069083,0.0248739047666172
-0.497281775873252,0.0274107324065831
-0.499849770837953,0.0299242107718304
-0.502410478673774,0.0324140772740278
-0.504963711091303,0.0348800693248435
-0.507509279801128,0.0373219243359461
-0.510046996513835,0.039739379719004
-0.512576672940013,0.0421321728856857
-0.515098120790248,0.0445000412476594
-0.517611151775129,0.0468427222165939
-0.520115577605243,0.0491599532041573
-0.522611209991177,0.0514514716220185
-0.525097860643519,0.0537170148818453
-0.527575341272857,0.0559563203953067
-0.530043463589777,0.0581691255740709
-0.532502039304869,0.0603551678298064
-0.534950880128718,0.0625141845741815
-0.537389797771913,0.0646459132188648
-0.539818603945041,0.0667500911755247
-0.542237110358689,0.0688264558558297
-0.544645128723446,0.0708747446714481
-0.547042470749899,0.0728946950340485
-0.549428948148635,0.0748860443552992
-0.551804372630241,0.0768485300468687
-0.554168555905306,0.0787818895204254
-0.556521309684416,0.0806858601876379
-0.55886244567816,0.0825601794601744
-0.561191775597125,0.0844045847497036
-0.563509111151898,0.0862188134678938
-0.565814264053067,0.0880026030264134
-0.56810704601122,0.0897556908369309
-0.570387268736943,0.0914778143111147
-0.572654743940825,0.0931687108606333
-0.574909283333453,0.0948281178971552
-0.577150698625415,0.0964557728323487
-0.579378801527297,0.0980514130778823
-0.581593403749689,0.0996147760454244
-0.583794317003176,0.101145599146644
-0.585981352998347,0.102643619793208
-0.588154323445789,0.104108575396787
-0.59031304005609,0.105540203369047
-0.592457314539837,0.106938241121659
-0.594586958607618,0.108302426066289
-0.59670178397002,0.109632495614608
-0.598801602337631,0.110928187178282
-0.600886225421038,0.112189238168981
-0.602955464930829,0.113415385998373
-0.605009132577591,0.114606368078126
-0.607047040071913,0.115761921819909
-0.60906899912438,0.116881784635391
-0.611074821445582,0.117965693936239
-0.613064318746105,0.119013387134122
-0.615037302736537,0.120024601640709
-0.616993585127466,0.120999074867668
-0.618932977629479,0.121936544226667
-0.620855291953164,0.122836747129376
-0.622760339809107,0.123699420987461
-0.624647932907897,0.124524303212593
-0.626517882960121,0.125311131216439
-0.628370001676368,0.126059642410667
-0.630204100767223,0.126769574206947
-0.632019991943275,0.127440664016946
-0.633817486915111,0.128072649252333
-0.635596397393319,0.128665267324777
-0.637356535088486,0.129218255645945
-0.639097711711201,0.129731351627507
-0.640819738972049,0.130204292681131
-0.64252242858162,0.130636816218485
-0.6442055922505,0.131028659651238
-0.645869041689277,0.131379560391058
-0.647512588608538,0.131689255849613
-0.649136044718871,0.131957483438572
-0.650739221730864,0.132183980569604
-0.652321931355104,0.132368484654377
-0.653883985302179,0.132510733104559
-0.655425195282675,0.132610463331818
-0.656945373007181,0.132667412747824
-0.658444330186285,0.132681318764245
-0.659921878530573,0.132651918792748
-0.661377829750633,0.132578950245004
-0.662811995557053,0.132462150532679
-0.664224187660421,0.132301257067442
-0.665614217771323,0.132096007260963
-0.666981897600347,0.131846138524908
-0.668327038858082,0.131551388270948
-0.669649453255113,0.131211493910749
-0.67094895250203,0.130826192855982
-0.672225348309419,0.130395222518313
-0.673478452387868,0.129918320309412
-0.674708076447964,0.129395223640946
-0.675914032200296,0.128825669924586
-0.67709613135545,0.128209396571997
-0.678254185624013,0.127546140994851
-0.679388006716575,0.126835640604814
-0.680497406343722,0.126077632813555
-0.681582196216041,0.125271855032742
-0.68264218804412,0.124418044674045
-0.683677193538548,0.123515939149131
-0.68468702440991,0.122565275869669
-0.685671492368795,0.121565792247328
-0.68663040912579,0.120517225693775
-0.687563586391484,0.11941931362068
-0.688470835876462,0.11827179343971
-0.689351969291313,0.117074402562534
-0.690206798346625,0.115826878400821
-0.691035134752984,0.114528958366239
-0.691836790220979,0.113180379870456
-0.692611576461197,0.111780880325141
-0.693359305184226,0.110330197141963
-0.694079788100652,0.108828067732589
-0.694772836921064,0.107274229508689
-0.695438263356049,0.10566841988193
-0.696075879116194,0.104010376263981
-0.696685495912088,0.102299836066511
-0.697266925454317,0.100536536701188
-0.697819979453469,0.09872021557968
-0.698344469620133,0.0968506101136561
-0.698840207664894,0.0949274577147845
-0.699307005298341,0.0929504957947337
-0.699744674231061,0.090919461765172
-0.700153026173642,0.0888340930377679
-0.700531872836671,0.0866941270241899
-0.700881025930737,0.0844993011361065
-0.701200297166425,0.082249352785186
-0.701489498254324,0.0799440193830969
-0.701748440905022,0.0775830383415076
-0.701976936829106,0.0751661470720867
-0.702174797737163,0.0726930829865024
-0.702341835339782,0.0701635834964233
-0.702477861347548,0.0675773860135178
-0.702582687471051,0.0649342279494544
-0.702656125420877,0.0622338467159014
-0.702697986907615,0.0594759797245274
-0.702708083641851,0.0566603643870007
-0.702686227334173,0.0537867381149899
-0.702632229695169,0.0508548383201632
-0.702545902435426,0.0478644024141893
-0.702427057265532,0.0448151678087365
-0.702275505896074,0.0417068719154734
-0.70209106003764,0.0385392521460681
-0.701873531400817,0.0353120459121895
-0.701622731696193,0.0320249906255056
-0.701338472634355,0.0286778236976852
-0.701020565925891,0.0252702825403964
-0.700668823281389,0.021802104565308
-0.700283056411436,0.0182730271840882
-0.699863077026619,0.0146827878084056
-0.699408696837526,0.0110311238499284
-0.698919727554744,0.0073177727203253
-0.698395980888862,0.0035424718312645
-0.697837268550466,-0.000295041405585249
-0.697243402250144,-0.00419502957855586
-0.696614193698484,-0.00815775527597854
-0.695949454606073,-0.0121834810861852
-0.695248996683498,-0.016272469597507
-0.694512631641348,-0.0204249833982759
-0.69374017119021,-0.0246412850768231
-0.692931427040671,-0.0289216372214806
-0.692086210903318,-0.0332663024205794
-0.69120433448874,-0.0376755432624516
-0.690285609507524,-0.0421496223354283
-0.689329847670257,-0.0466888022278415
-0.688336860687527,-0.0512933455280223
-0.687306460269921,-0.0559635148243027
-0.686238458128027,-0.0606995727050138
-0.685132665972433,-0.0655017817584876
-0.683988895513726,-0.0703704045730553
-0.682806958462493,-0.0753057037370488
-0.681586666529322,-0.0803079418387993
-0.680327831424801,-0.0853773814666387
-0.679030264859517,-0.0905142852088982
-0.677693778544057,-0.0957189156539098
-0.677693778544057,-0.0957189156539098
-0.676319412792715,-0.100923741553523
-0.674908556371267,-0.106061302407004
-0.673461543667528,-0.111131966923811
-0.671978709069312,-0.116136103813403
-0.670460386964432,-0.121074081785236
-0.668906911740703,-0.125946269548768
-0.667318617785939,-0.130753035813458
-0.665695839487954,-0.135494749288763
-0.664038911234561,-0.140171778684141
-0.662348167413575,-0.144784492709049
-0.660623942412811,-0.149333260072946
-0.658866570620081,-0.15381844948529
-0.6570763864232,-0.158240429655537
-0.655253724209983,-0.162599569293146
-0.653398918368242,-0.166896237107575
-0.651512303285793,-0.171130801808281
-0.64959421335045,-0.175303632104722
-0.647644982950025,-0.179415096706356
-0.645664946472334,-0.183465564322641
-0.64365443830519,-0.187455403663034
-0.641613792836408,-0.191384983436994
-0.639543344453801,-0.195254672353978
-0.637443427545183,-0.199064839123444
-0.63531437649837,-0.202815852454849
-0.633156525701174,-0.206508081057652
-0.630970209541409,-0.21014189364131
-0.62875576240689,-0.213717658915281
-0.626513518685432,-0.217235745589023
-0.624243812764847,-0.220696522371994
-0.621946979032949,-0.224100357973651
-0.619623351877554,-0.227447621103452
-0.617273265686475,-0.230738680470855
-0.614897054847526,-0.233973904785318
-0.612495053748521,-0.237153662756299
-0.610067596777274,-0.240278323093255
-0.607615018321599,-0.243348254505644
-0.605137652769311,-0.246363825702924
-0.602635834508222,-0.249325405394552
-0.600109897926148,-0.252233362289987
-0.597560177410903,-0.255088065098686
-0.5949870073503,-0.257889882530108
-0.592390722132153,-0.260639183293709
-0.589771656144277,-0.263336336098947
-0.587130143774486,-0.265981709655282
-0.584466519410593,-0.268575672672169
-0.581781117440412,-0.271118593859067
-0.579074272251759,-0.273610841925434
-0.576346318232446,-0.276052785580728
-0.573597589770288,-0.278444793534406
-0.570828421253099,-0.280787234495926
-0.568039147068693,-0.283080477174746
-0.565230101604884,-0.285324890280324
-0.562401619249486,-0.287520842522117
-0.559554034390313,-0.289668702609584
-0.556687681415179,-0.291768839252181
-0.553802894711898,-0.293821621159367
-0.550900008668284,-0.295827417040601
-0.547979357672152,-0.297786595605338
-0.545041276111315,-0.299699525563038
-0.542086098373587,-0.301566575623157
-0.539114158846783,-0.303388114495155
-0.536125791918716,-0.305164510888488
-0.5331213319772,-0.306896133512614
-0.530101113410051,-0.308583351076991
-0.52706547060508,-0.310226532291078
-0.524014737950104,-0.311826045864331
-0.520949249832935,-0.313382260506208
-0.517869340641388,-0.314895544926168
-0.514775344763276,-0.316366267833669
-0.511667596586415,-0.317794797938166
-0.508546430498617,-0.31918150394912
-0.505412180887697,-0.320526754575987
-0.50226518214147,-0.321830918528225
-0.499105768647748,-0.323094364515292
-0.495934274794346,-0.324317461246646
-0.492751034969079,-0.325500577431744
-0.48955638355976,-0.326644081780045
-0.486350654954203,-0.327748343001006
-0.483134183540222,-0.328813729804085
-0.479907303705632,-0.329840610898739
-0.476670349838246,-0.330829354994428
-0.473423656325878,-0.331780330800607
-0.470167557556343,-0.332693907026736
-0.466902387917454,-0.333570452382271
-0.463628481797026,-0.334410335576671
-0.460346173582873,-0.335213925319394
-0.457055797662808,-0.335981590319896
-0.453757688424646,-0.336713699287637
-0.450452180256201,-0.337410620932073
-0.447139607545286,-0.338072723962664
-0.443820304679716,-0.338700377088865
-0.440494606047306,-0.339293949020136
-0.437162846035868,-0.339853808465933
-0.433825359033217,-0.340380324135716
-0.430482479427167,-0.34087386473894
-0.427134541605533,-0.341334798985065
-0.423781879956128,-0.341763495583549
-0.420424828866765,-0.342160323243848
-0.41706372272526,-0.342525650675421
-0.413698895919427,-0.342859846587725
-0.410330682837079,-0.343163279690218
-0.40695941786603,-0.343436318692359
-0.403585435394094,-0.343679332303604
-0.400209069809086,-0.343892689233412
-0.39683065549882,-0.34407675819124
-0.393450526851109,-0.344231907886547
-0.390069018253768,-0.344358507028789
-0.386686464094611,-0.344456924327425
-0.383303198761451,-0.344527528491913
-0.379919556642103,-0.34457068823171
-0.376535872124381,-0.344586772256274
-0.373152479596099,-0.344576149275063
-0.369769713445071,-0.344539187997535
-0.36638790805911,-0.344476257133147
-0.363007397826032,-0.344387725391357
-0.35962851713365,-0.344273961481623
-0.356251600369778,-0.344135334113404
-0.35287698192223,-0.343972211996156
-0.34950499617882,-0.343784963839337
-0.346135977527363,-0.343573958352405
-0.342770260355672,-0.343339564244819
-0.339408179051562,-0.343082150226035
-0.336050068002845,-0.342802085005511
-0.332696261597338,-0.342499737292706
-0.329347094222853,-0.342175475797077
-0.326002900267204,-0.341829669228082
-0.322664014118206,-0.341462686295179
-0.319330770163672,-0.341074895707825
-0.316003502791418,-0.340666666175479
-0.312682546389256,-0.340238366407597
-0.309368235345001,-0.339790365113639
-0.306060904046467,-0.33932303100306
-0.302760886881468,-0.338836732785321
-0.299468518237817,-0.338331839169877
-0.29618413250333,-0.337808718866188
-0.29290806406582,-0.33726774058371
-0.289640647313101,-0.336709273031902
-0.286382216632987,-0.336133684920221
-0.283133106413292,-0.335541344958125
-0.27989365104183,-0.334932621855073
-0.276664184906416,-0.33430788432052
-0.273445042394863,-0.333667501063927
-0.270236557894986,-0.333011840794749
-0.267039065794598,-0.332341272222446
-0.263852900481513,-0.331656164056475
-0.260678396343546,-0.330956885006293
-0.257515887768511,-0.330243803781358
-0.254365709144221,-0.329517289091129
-0.251228194858491,-0.328777709645063
-0.248103679299135,-0.328025434152618
-0.244992496853966,-0.327260831323251
-0.2418949819108,-0.32648426986642
-0.238811468857449,-0.325696118491584
-0.235742292081728,-0.324896745908199
-0.232687785971451,-0.324086520825725
-0.229648284914432,-0.323265811953617
-0.226624123298486,-0.322434988001335
-0.223615635511425,-0.321594417678336
-0.220623155941065,-0.320744469694078
-0.217647018975218,-0.319885512758019
-0.214687559001701,-0.319017915579616
-0.211745110408325,-0.318142046868327
-0.208820007582906,-0.31725827533361
-0.205912584913257,-0.316366969684923
-0.203023176787193,-0.315468498631724
-0.200152117592527,-0.31456323088347
-0.197299741717074,-0.313651535149619
-0.194466383548647,-0.312733780139629
-0.191652377475061,-0.311810334562958
-0.18885805788413,-0.310881567129063
-0.186083759163667,-0.309947846547402
-0.183329815701488,-0.309009541527434
-0.180596561885405,-0.308067020778616
-0.177884332103233,-0.307120653010405
-0.175193460742786,-0.306170806932259
-0.172524282191878,-0.305217851253637
-0.169877130838324,-0.304262154683996
-0.167252341069936,-0.303304085932793
-0.164650247274529,-0.302344013709488
-0.162071183839918,-0.301382306723536
-0.159515485153916,-0.300419333684397
-0.156983485604337,-0.299455463301528
-0.154475519578995,-0.298491064284386
-0.151991921465705,-0.29752650534243
-0.149533025652281,-0.296562155185117
-0.147099166526536,-0.295598382521905
-0.144690678476284,-0.294635556062252
-0.14230789588934,-0.293674044515616
-0.139951153153518,-0.292714216591455
-0.137620784656631,-0.291756440999225
-0.135317124786494,-0.290801086448386
-0.133040507930921,-0.289848521648394
-0.130791268477726,-0.288899115308708
-0.128569740814722,-0.287953236138785
-0.126376259329725,-0.287011252848084
-0.124211158410547,-0.286073534146061
-0.122074772445004,-0.285140448742175
-0.119967435820909,-0.284212365345884
-0.117889482926075,-0.283289652666645
-0.115841248148318,-0.282372679413916
-0.113823065875451,-0.281461814297155
-0.111835270495289,-0.28055742602582
-0.109878196395645,-0.279659883309368
-0.107952177964333,-0.278769554857257
-0.106057549589167,-0.277886809378946
-0.104194645657963,-0.277012015583891
-0.102363800558532,-0.276145542181551
-0.10056534867869,-0.275287757881383
-0.098799624406251,-0.274439031392846
-0.0970669621290284,-0.273599731425396
-0.0953676962348365,-0.272770226688492
-0.0937021611114895,-0.271950885891592
-0.0920706911468012,-0.271142077744153
-0.0904736207285858,-0.270344170955633
-0.0889112842446572,-0.26955753423549
-0.0873840160828297,-0.268782536293182
-0.0858921506309171,-0.268019545838166
-0.0844360222767337,-0.2672689315799
-0.0830159654080933,-0.266531062227843
-0.0816323144128101,-0.265806306491451
-0.080285403678698,-0.265095033080183
-0.0789755675935713,-0.264397610703496
-0.0777031405452438,-0.263714408070849
-0.0764684569215297,-0.263045793891698
-0.075271851110243,-0.262392136875502
-0.0741136574991978,-0.261753805731719
-0.0729942104762079,-0.261131169169806
-0.0719138444290877,-0.260524595899222
-0.0708728937456511,-0.259934454629423
-0.0698716928137121,-0.259361114069868
-0.0689105760210848,-0.258804942930014
-0.0679898777555833,-0.25826630991932
-0.0671099324050215,-0.257745583747242
-0.0662710743572136,-0.25724313312324
-0.0654736379999735,-0.25675932675677
-0.0647179577211154,-0.25629453335729
-0.0640043679084532,-0.255849121634259
-0.0633332029498012,-0.255423460297134
-0.0627047972329731,-0.255017918055372
-0.0621194851457832,-0.254632863618433
-0.0615776010760455,-0.254268665695772
-0.0610794794115741,-0.253925692996848
-0.0606254545401828,-0.25360431423112
-0.060215860849686,-0.253304898108044
-0.0598510327278975,-0.253027813337079
-0.0595313045626314,-0.252773428627682
-0.0592570107417017,-0.252542112689311
-0.0590284856529227,-0.252334234231424
-0.0588460636841082,-0.252150161963478
-0.0587100792230722,-0.251990264594932
-0.058620866657629,-0.251854910835243
-0.0585787603755925,-0.251744469393869
-0.0585840947647767,-0.251659308980268
-0.0586372042129958,-0.251599798303898
-0.0587384231080637,-0.251566306074216
-0.0588880858377945,-0.25155920100068
-0.0590865267900023,-0.251578851792748
-0.059334080352501,-0.251625627159877
-0.0596310809131049,-0.251699895811526
-0.0599778628596278,-0.251802026457153
-0.060374760579884,-0.251932387806214
-0.0608221084616873,-0.252091348568169
-0.0613202408928518,-0.252279277452474
-0.0618694922611917,-0.252496543168587
-0.0624701969545209,-0.252743514425967
-0.0631226893606535,-0.253020559934071
-0.0638273038674036,-0.253328048402356
-0.0645843748625851,-0.253666348540281
-0.0653942367340122,-0.254035829057303
-0.0662572238694989,-0.254436858662881
-0.0671736706568592,-0.254869806066472
-0.0681439114839072,-0.255335039977533
-0.0691682807384569,-0.255832929105523
-0.0702471128083225,-0.256363842159899
-0.0713807420813179,-0.256928147850119
-0.0725695029452572,-0.257526214885641
-0.0738137297879543,-0.258158411975923
-0.0751137569972235,-0.258825107830422
-0.0764699189608787,-0.259526671158596
-0.077882550066734,-0.260263470669904
-0.0793519847026034,-0.261035875073802
-0.080878557256301,-0.261844253079749
-0.0824626021156409,-0.262688973397202
-0.0841044536684369,-0.263570404735619
-0.0858044463025034,-0.264488915804458
-0.0875629144056541,-0.265444875313177
-0.0893801923657034,-0.266438651971234
-0.091256614570465,-0.267470614488086
-0.0931925154077533,-0.268541131573191
-0.095188229265382,-0.269650571936007
-0.0972440905311655,-0.270799304285991
-0.0993604335929174,-0.271987697332602
-0.101537592838452,-0.273216119785297
-0.103775902655584,-0.274484940353535
-0.106075697432126,-0.275794527746772
-0.108437311555893,-0.277145250674466
-0.110861079414699,-0.278537477846077
-0.113347335396358,-0.27997157797106
-0.115896413888685,-0.281447919758874
-0.118508649279492,-0.282966871918977
-0.121184375956594,-0.284528803160826
-0.123923928307805,-0.28613408219388
-0.12672764072094,-0.287783077727596
-0.129595847583812,-0.289476158471432
-0.132528883284235,-0.291213693134846
-0.135527082210023,-0.292996050427295
-0.138590778748991,-0.294823599058237
-0.141720307288953,-0.29669670773713
-0.144916002217722,-0.298615745173432
-0.148178197923112,-0.300581080076601
-0.151507228792938,-0.302593081156094
-0.154903429215013,-0.304652117121369
-0.158367133577153,-0.306758556681885
-0.16189867626717,-0.308912768547098
-0.165498391672879,-0.311115121426466
-0.169166614182093,-0.313365984029448
-0.172903678182628,-0.315665725065501
-0.176709918062296,-0.318014713244083
-0.180585668208913,-0.320413317274652
-0.184531263010291,-0.322861905866665
-0.188547036854246,-0.32536084772958
-0.19263332412859,-0.327910511572856
-0.196790459221139,-0.330511266105949
-0.201018776519706,-0.333163480038318
-0.205318610412106,-0.33586752207942
-0.209690295286151,-0.338623760938714
-0.214134165529658,-0.341432565325656
-0.218650555530438,-0.344294303949705
-0.223239799676307,-0.347209345520319
-0.227902232355078,-0.350178058746955
-0.232638187954567,-0.353200812339072
-0.237448000862585,-0.356277975006126
-0.242332005466949,-0.359409915457576
-0.24729053615547,-0.362597002402879
-0.252323927315965,-0.365839604551494
-0.257432513336247,-0.369138090612878
-0.262616628604129,-0.372492829296488
-0.267876607507427,-0.375904189311784
-0.273212784433953,-0.379372539368221
-0.278625493771522,-0.382898248175259
-0.284115069907949,-0.386481684442355
-0.289681847231046,-0.390123216878967
-0.295326160128629,-0.393823214194552
-0.301048342988511,-0.397582045098568
-0.306848730198506,-0.401400078300474
-0.312727656146428,-0.405277682509727
-0.318685455220092,-0.409215226435784
-0.324722461807311,-0.413213078788104
-0.3308390102959,-0.417271608276144
-0.337035435073672,-0.421391183609363
-0.343312070528442,-0.425572173497216
-0.349669251048023,-0.429814946649164
-0.35610731102023,-0.434119871774664
-0.362626584832876,-0.438487317583172
-0.369227406873776,-0.442917652784147
-0.375910111530744,-0.447411246087047
-0.382675033191594,-0.45196846620133
-0.38952250624414,-0.456589681836453
-0.396452865076196,-0.461275261701875
-0.403466444075575,-0.466025574507052
-0.410563577630093,-0.470840988961443
-0.417744600127563,-0.475721873774505
-0.425009845955799,-0.480668597655697
-0.432359649502615,-0.485681529314476
-0.439794345155825,-0.4907610374603
-0.447314267303244,-0.495907490802626
-0.454919750332685,-0.501121258050913
-0.462611128631962,-0.506402707914618
-0.47038873658889,-0.511752209103199
-0.478252908591282,-0.517170130326114
-0.486203979026953,-0.52265684029282
-0.494242282283716,-0.528212707712776
-0.502368152749386,-0.533838101295439
-0.510581924811776,-0.539533389750267
-0.518883932858702,-0.545298941786718
-0.527274511277976,-0.551135126114249
-0.535753994457413,-0.557042311442319
-0.544322716784826,-0.563020866480384
-0.552981012648031,-0.569071159937904
-0.561729216434841,-0.575193560524335
-0.570567662533069,-0.581388436949136
-0.579496685330531,-0.587656157921763
-0.58851661921504,-0.593997092151676
-0.597627798574409,-0.600411608348332
-0.606830557796455,-0.606900075221188
-0.616125231268989,-0.613462861479703
-0.625512153379826,-0.620100335833334
-0.634991658516781,-0.626812866991539
-0.644564081067668,-0.633600823663775
-0.654229755420299,-0.640464574559502
-0.663989015962491,-0.647404488388175
-0.673842197082056,-0.654420933859253
-0.683789633166808,-0.661514279682195
-0.693831658604562,-0.668684894566457
-0.703968607783132,-0.675933147221498
-0.714200815090331,-0.683259406356775
-0.724528614913975,-0.690664040681745
-0.734952341641876,-0.698147418905868
-0.745472329661849,-0.705709909738601
