0.648490431903176,-0.479560506100464
0.530355097664876,-0.594710220354431
0.627104444890818,-0.482824641466363
0.616499818347447,-0.484447991373662
0.605953945922833,-0.486065470704591
0.595466709724636,-0.487677035414697
0.490228102169031,-0.599044515984576
0.574667674438138,-0.490882244794631
0.564355639565163,-0.492475801375555
0.554101769349252,-0.494063267157847
0.543905945898068,-0.495644598097054
0.533768051319271,-0.497219750148725
0.523687967720524,-0.498788679268407
0.513665577209489,-0.500351341411647
0.503700761893828,-0.501907692533994
0.493793403881202,-0.503457688590994
0.483943385279273,-0.505001285538197
0.474150588195704,-0.506538439331149
0.464414894738155,-0.508069105925397
0.551179320097361,-0.397180498217676
0.445114347131768,-0.511110801339976
0.435549257198253,-0.512621742071402
0.426040799321406,-0.514126019426315
0.41658885560889,-0.515623589360263
0.407193308168366,-0.517114407828795
0.397854039107495,-0.518598430787457
0.38857093053394,-0.520075614191797
0.379343864555363,-0.521545913997364
0.370172723279425,-0.523009286159704
0.361057388813788,-0.524465686634365
0.351997743266114,-0.525915071376895
0.342993668744064,-0.527357396342842
0.334045047355302,-0.528792617487753
0.325151761207488,-0.530220690767177
0.316313692408284,-0.531641572136659
0.307530723065353,-0.533055217551749
0.298802735286355,-0.534461582967994
0.290129611178954,-0.535860624340942
0.28151123285081,-0.53725229762614
0.272947482409585,-0.538636558779136
0.264438241962942,-0.540013363755477
0.255983393618542,-0.541382668510712
0.347066178896665,-0.445512054548246
0.239236401667119,-0.544098601180052
0.23094402227542,-0.545445141005253
0.129471215903543,-0.656873244742415
0.214520907198355,-0.548115147414454
0.206389935728313,-0.54943852590955
0.198312531114147,-0.550754095872372
0.190288575463518,-0.552061813258469
0.18231795088409,-0.553361634023389
0.083372974350282,-0.654531891709515
0.16653622336948,-0.555937409511885
0.158724884649621,-0.557213276146557
0.15096640543161,-0.558481069982242
0.143260667823108,-0.559740746974488
0.135607553931776,-0.560992263078842
0.128006945865278,-0.562235574250852
0.120458725731273,-0.563470636446066
0.0086371930036436,-0.680218846426939
0.105518977691395,-0.565915837728294
0.199477076683987,-0.468829205039408
0.090787366673436,-0.568327514569909
0.0834993178168312,-0.569520671214356
0.0762629495386919,-0.570705314615292
0.0690781439466799,-0.571881400728266
0.0619447831484568,-0.573048885508824
0.0548627492516848,-0.574207724912515
0.033923430046693,-0.57763193041786
0.0270455248323432,-0.578755747869558
0.0202183570577535,-0.579870699722127
0.013441808830586,-0.580976741931115
0.00671576225850204,-0.582073830452069
4.00994491638884e-05,-0.583161921240536
-0.00658529748976677,-0.584240970252066
-0.0131605464506282,-0.585310933442204
-0.0196857653257584,-0.5863717667665
-0.0261610720074956,-0.5874234261805
-0.032586584388178,-0.588465867639752
-0.0389624203601436,-0.589499047099805
-0.0452886978157308,-0.590522920516204
-0.0515655346472777,-0.591537443844499
-0.0577930487471223,-0.592542573040237
-0.063971358007603,-0.593538264058966
-0.0701005803210577,-0.594524472856233
-0.0761808335798247,-0.595501155387586
-0.0822122356762422,-0.596468267608572
-0.0881949045026484,-0.59742576547474
-0.100014513914779,-0.599311741964809
-0.10585169028518,-0.600240132499806
-0.111640604954922,-0.601158732502176
-0.117381375816344,-0.602067497927464
-0.0127440511019986,-0.51166760845863
-0.230899074368507,-0.706951688606951
-0.139865379025589,-0.605603332968769
-0.14536719923048,-0.60646226484187
-0.0467113924119126,-0.515495374486809
-0.161588512688757,-0.608978291220599
-0.166901294430511,-0.609796563451809
-0.172167111287326,-0.610604560661415
-0.28007520459601,-0.710103792029951
-0.18768395147152,-0.612966461716087
-0.192763087711961,-0.613732918394755
-0.28786779476128,-0.71093148952057
-0.202782351815436,-0.615234301976042
-0.207722715463148,-0.615969140789756
-0.212617057364625,-0.616693352226248
-0.217465495412207,-0.617406892241065
-0.222268147498232,-0.618109716789755
-0.337087673979529,-0.73846955265845
-0.231736565354962,-0.619483043310945
-0.119104095971095,-0.500928916682617
-0.245598744736832,-0.621461565985467
-0.250129156792614,-0.622099172803896
-0.254614608133207,-0.622725755845031
-0.259055216650947,-0.62334127106442
-0.263451100238173,-0.62394567441761
-0.267802376787224,-0.624538921860151
-0.272109164190437,-0.625120969347589
-0.276371580340151,-0.625691772835472
-0.284763770448433,-0.626799471634762
-0.288893780191678,-0.627336278857265
-0.292979890250776,-0.627861665902404
-0.297022218518066,-0.628375588725726
-0.301020882885885,-0.628878003282779
-0.304976001246572,-0.62936886552911
-0.308887691492465,-0.629848131420268
-0.312756071515902,-0.630315756911799
-0.316581259209222,-0.630771697959252
-0.320363372464762,-0.631215910518174
-0.32410252917486,-0.631648350544114
-0.327798847231855,-0.632068973992617
-0.331452444528086,-0.632477736819233
-0.335063438955889,-0.632874594979509
-0.338631948407603,-0.633259504428992
-0.342158090775567,-0.63363242112323
-0.345641983952119,-0.633993301017771
-0.349083745829596,-0.634342100068163
-0.355841347256681,-0.635003279458689
-0.264518343960244,-0.526262935216053
-0.362431838195526,-0.635615606939189
-0.365664711962705,-0.635903341102048
-0.368856161784838,-0.636178730154044
-0.372006305554264,-0.636441730050724
-0.483964260716989,-0.740904565236961
-0.378183146504348,-0.636930386200327
-0.381210079469682,-0.637155954364346
-0.384196177951661,-0.63736895719524
-0.390046343034909,-0.637757090679842
-0.392910645420854,-0.637932133244646
-0.292245543002857,-0.531821686821888
-0.398518279343077,-0.638243949796998
-0.505661510836707,-0.733920255060439
-0.409252964774322,-0.638713275348014
-0.411837202501355,-0.638798202402778
-0.416887182844857,-0.63892886300155
-0.419353161246001,-0.638974508456654
-0.325047906584694,-0.527649196306759
-0.424167683968768,-0.639026209456036
-0.428826413867759,-0.639024830277969
-0.431097651239183,-0.639004125511261
-0.433330294081679,-0.638970018566833
-0.435524460287584,-0.638922465400233
-0.437680267749235,-0.638861421967009
-0.443918716592053,-0.638596909623069
-0.333130611391623,-0.522119904896377
-0.555178641972696,-0.747784243701066
-0.455375843648509,-0.637697701735271
-0.457154547746229,-0.637499333190927
-0.458896189915416,-0.637286989890983
-0.462268760037542,-0.636820202846487
-0.463899923775158,-0.636565671013029
-0.557218222249866,-0.729950172244495
-0.467052598065187,-0.636014110501435
-0.468574344402276,-0.635716993734393
-0.470059854057199,-0.635405593900584
-0.471509244922293,-0.635079866955558
-0.472922634889899,-0.634739768854861
-0.474300141852352,-0.63438525555404
-0.476947978331157,-0.63363280717422
-0.364632460598301,-0.515166685038943
-0.479453697497413,-0.632822169460478
-0.480653557819181,-0.632394919492257
-0.481818242489826,-0.631952990057198
-0.482947869401686,-0.63149633711085
-0.485102421518407,-0.630538684506475
-0.488996019909314,-0.628444759206348
-0.489883543495152,-0.627883808436308
-0.490736952460911,-0.627307781799359
-0.491556364698929,-0.62671663525105
-0.492341898101544,-0.626110324746928
-0.493093670561094,-0.625488806242541
-0.494496404220353,-0.624199969055161
-0.495147601204739,-0.623532562283265
-0.496350244944711,-0.622151552160795
-0.497420674328541,-0.620708652970408
-0.390159842094346,-0.527234158093551
-0.498359832494933,-0.619203512356486
-0.498780479602436,-0.618427491404568
-0.499168662582594,-0.61763577796341
-0.499524499327745,-0.616828327988558
-0.500139605682379,-0.615166042259965
-0.500399111076539,-0.61431111841732
-0.500626741805044,-0.613440281863172
-0.500822615760234,-0.612553488553069
-0.600849498998011,-0.723332767325622
-0.607221898386219,-0.719138153853809
-0.50132976016828,-0.607878629107399
-0.501337569222676,-0.606895170328068
-0.501314446750123,-0.605895446481616
-0.501260510642959,-0.60487941352359
-0.606206789307265,-0.722674852674594
-0.500914999437186,-0.601733019535547
-0.500532751819818,-0.599553070504024
-0.500030079080122,-0.597306827959351
-0.499733878020248,-0.596158736508453
-0.499052335982136,-0.59381239302727
-0.498667230788574,-0.59261405290808
-0.49825272666846,-0.591398875143889
-0.387532255295927,-0.488793299478225
-0.394919567152297,-0.47488313541143
-0.380944697849133,-0.483593744493225
-0.49630307876924,-0.586368906748064
-0.495743348401435,-0.58506888009208
-0.495154926461107,-0.58375175152438
-0.609550779844481,-0.675818460208676
-0.374532121187142,-0.478000311289261
-0.491028473767075,-0.575487373482827
-0.390289479374477,-0.462656279515903
-0.489428801408206,-0.572593768826745
-0.488587460470381,-0.57112074105325
-0.487718606883415,-0.569630170923517
-0.486822358539645,-0.568122014393092
-0.485898833331409,-0.566596227417524
-0.484948149151045,-0.565052765952359
-0.483970423890893,-0.563491585953147
-0.477542811625336,-0.553749950253527
-0.50965409779528,-0.57522626161146
-0.481567030628962,-0.502113298252407
-0.564348204030774,-0.64002735122641
-0.57948031689628,-0.651915932692241
-0.439008897312152,-0.542893696523939
-0.468852898261936,-0.54156381913918
-0.467508976580238,-0.539749954995797
-0.482046387726439,-0.573463286204982
-0.437414432352265,-0.492628470697148
-0.45245749185637,-0.509161618012599
-0.424230934010606,-0.488970366802846
-0.354184095265896,-0.427714834002755
-0.455857689073257,-0.524573690884737
-0.46497248607886,-0.478040564291437
-0.332301937329412,-0.411325371733444
-0.487725792846361,-0.538231789936506
-0.482411358627504,-0.474606726146236
-0.463814969504448,-0.520789648612524
-0.456385102842341,-0.544776131255601
-0.342732763804273,-0.390051851806643
-0.431757495150402,-0.495117003305463
-0.426003828834027,-0.488315595564333
-0.418467728202781,-0.455707897728087
-0.451165287301681,-0.508673298645791
-0.429682335236552,-0.432661910738365
-0.453060940126644,-0.497754133762429
-0.265681082597138,-0.318797396870541
-0.407549991399232,-0.466854678684441
-0.395224596199324,-0.498625091556463
-0.401011709736177,-0.459344844504934
-0.504493319876084,-0.58123887545142
-0.428201801872324,-0.501942271309758
-0.49394025931495,-0.542225848340359
-0.394779591272079,-0.491291890121955
-0.335611512455717,-0.409822419888424
-0.388524923885001,-0.439258528168854
-0.423074112326964,-0.38778903340644
-0.296820595060082,-0.288230048317715
-0.370545314673524,-0.424706041044351
-0.395144078881103,-0.46110061762004
-0.385319517014392,-0.416674641947726
-0.481825841897561,-0.490622430088656
-0.387254941772316,-0.397218422762245
-0.321656665229265,-0.38610885957257
-0.36886706331253,-0.443255359596773
-0.455032033732289,-0.50924359876182
-0.319015423068607,-0.356404954918778
-0.342197776516298,-0.392683412286418
-0.336804024461185,-0.38658897702072
-0.299254263773462,-0.347305328193687
-0.316192781696068,-0.382416679437149
-0.416148196226458,-0.483879415025163
-0.320198249392761,-0.367796565769222
-0.207739686038364,-0.267674152080416
-0.314524628531276,-0.361361552348526
-0.311662405646304,-0.358111808124981
-0.308783398314962,-0.354840513500034
-0.30588772442959,-0.351547624429234
-0.300046848566104,-0.344896886772263
-0.297101882372667,-0.341538950097188
-0.291163482924096,-0.334757720831596
-0.288170285453639,-0.331334340152175
-0.176936493610202,-0.20944378775422
-0.28213648448207,-0.32442182647782
-0.279096116765635,-0.320932605393981
-0.276040261418551,-0.317421349419766
-0.269882559401787,-0.310332556622395
-0.263664321570483,-0.303155095730088
-0.351343438928024,-0.390626510249367
-0.254225523287184,-0.292221880935706
-0.251050011019078,-0.288532760238191
-0.244655824576387,-0.281087180927363
-0.336386721097409,-0.368310260326011
-0.234958408531224,-0.269749806504846
-0.231698105050555,-0.265925437397857
-0.127058235357342,-0.151287911555264
-0.215193156810319,-0.246462277616437
-0.211852306241261,-0.242501074499691
-0.208498443780655,-0.238516911559069
-0.205131687320839,-0.234509744750119
-0.201752154754151,-0.230479530028388
-0.19835996397293,-0.226426223349424
-0.191538079336239,-0.218250157941987
-0.298854496269174,-0.329548630780195
-0.181251252863307,-0.205851041614303
-0.174610325935312,-0.197755482476087
-0.171384236103232,-0.193789474639983
-0.0611921268850143,-0.0962775981776582
-0.045262126592006,-0.081913436106437
-0.273417288372368,-0.29480956705773
-0.156179791456991,-0.174765087674023
-0.150521874196093,-0.167525673533866
-0.14247805228118,-0.157055805175976
-0.13991315285609,-0.153668443305755
-0.134955256054978,-0.147045801171602
-0.132561372088705,-0.143809917651896
-0.130223606685121,-0.14062392365992
-0.127941516549099,-0.137487517567787
-0.125714658385515,-0.134400397747609
-0.226273172322369,-0.22423639807482
-0.119361042778133,-0.125431739639933
-0.117350679553044,-0.122538748628703
-0.219265335673636,-0.21629876425032
-0.111635909678136,-0.114145237878573
-0.109834948669536,-0.111441549630092
-0.108085229977243,-0.10878443300258
-0.106386310306134,-0.106173586368149
-0.104737746361082,-0.103608708098913
-0.10158991246865,-0.0986156501444731
-0.0986381819389421,-0.0938028461161614
-0.0958790084109561,-0.0891678829908786
-0.094570522284795,-0.0869163376971546
-0.093308845523688,-0.0847083477455257
-0.0909241469161343,-0.0804218273570036
-0.0887213662272916,-0.0763059088022133
-0.0876870868645732,-0.0743111711427491
-0.0866969570961562,-0.0723581790580557
-0.182178992018928,-0.18705521835795
-0.0839870324054594,-0.0667466599737263
-0.183535890900343,-0.172408235214155
-0.0823930368392022,-0.063208845280092
0.0321131238997814,0.0343614555579969
-0.08096500056714,-0.0598307738162438
-0.0796993772282694,-0.0566100325590824
-0.0785926204615869,-0.0535442084855089
-0.0780977088050026,-0.0520686363228491
-0.0772226024697206,-0.0492306636063466
-0.076841521200772,-0.0478676597967292
0.0194051346427088,0.0569900118650367
-0.0754831020379359,-0.0416004011194843
-0.0753177125758719,-0.0404543900629921
-0.0751867202153497,-0.0393434887677483
-0.0750896816612438,-0.0382673956058655
0.0301114485531248,0.0772098296835346
-0.0758892305454842,-0.0293545531866676
-0.0764122564867838,-0.0279595195144217
-0.0770480463072258,-0.0266880337254758
-0.0774071194343115,-0.026097867217522
-0.195869299982484,-0.115223768006368
-0.0791075898354926,-0.0240340057784613
-0.0795965354333703,-0.023590733427448
-0.0806479171603462,-0.0227893089407118
-0.0824020666519805,-0.0217954483305229
-0.0830322304756689,-0.0215184952475545
-0.0836843791373867,-0.0212682063449878
-0.0843580693420085,-0.0210442799949354
-0.0850528577944088,-0.0208464145695099
-0.0857683011994622,-0.0206743084408239
-0.201405454164633,-0.112620694244288
-0.0896398271851356,-0.0201896102724281
-0.0913175069185861,-0.020165489106188
-0.0921822313203486,-0.0201885987474723
-0.0948746231242789,-0.020394989034294
-0.096746966874514,-0.0206437840824421
-0.0986771059083368,-0.0209787251558549
-0.09966274041878,-0.021177746382317
-0.100661493864744,-0.0213973992314332
-0.102696584382732,-0.0218973932860779
-0.103732034864505,-0.0221771312358318
-0.104778831101297,-0.0224762942966901
-0.109070607696144,-0.0238611650934206
-0.11127304485042,-0.0246623088333407
-0.114637412512576,-0.0259931232426985
-0.118063995408612,-0.0274716171421321
-0.121540824570141,-0.0290896465786822
-0.122708864750175,-0.0296585900245281
-0.123880714668095,-0.030241830907393
-0.134525658438568,-0.0360846149176127
-0.0213057536837906,0.0754578724925463
-0.140438390726805,-0.0397395225375594
-0.146280130790161,-0.0436387556252118
-0.147435083489467,-0.0444446033921058
-0.0425701441317217,0.043967171227887
-0.150865171648395,-0.0469087196895418
-0.04933392746066,0.04991855762982
-0.154233795701206,-0.0494363612964739
-0.155340942984643,-0.0502916176374204
-0.156439487742454,-0.0511527258345391
-0.157528986679513,-0.0520193842599428
-0.160738775614928,-0.0546496446269891
-0.161787658317728,-0.0555354876866583
-0.166854271483538,-0.0600193017599766
-0.17248453155994,-0.065480181071762
-0.174236905058011,-0.0673094849965165
-0.175921178024046,-0.069139272626519
-0.18052993011989,-0.0746074075170235
-0.181228641128385,-0.0755125004893626
-0.184398108431275,-0.0799930269231935
-0.186986794115028,-0.0843710067542401
-0.189248565256196,-0.0894361345276415
-0.190200173062408,-0.0926685126642893
-0.190364481522657,-0.0934557955621144
-0.190498465996134,-0.0942341505496301
-0.190714042544674,-0.0965126317714462
-0.190722298119806,-0.0972522588388501
-0.190550048890303,-0.0994073172310336
-0.292538334011157,-0.198543491089075
-0.190266603156964,-0.100787820871926
-0.190072966530816,-0.10146030722254
-0.189279082072958,-0.103403084860411
-0.188156426548343,-0.105227506191685
-0.183464330001684,-0.109452064649963
-0.181886108118444,-0.11034955074734
-0.178218602529047,-0.111937247559768
-0.176122226100884,-0.112622632228621
-0.173846038769072,-0.113232490375102
-0.282080281088218,-0.230607663414238
-0.17138649417261,-0.113764408976112
-0.168740045950492,-0.114215975008551
-0.162872253185277,-0.11486839727532
-0.157954410534058,-0.115128841623601
-0.148737784262834,-0.115102837969654
-0.0388000017196102,-0.0214158983160127
-0.140414366329548,-0.114646248027633
-0.135926199231377,-0.114266054903479
-0.13359894961647,-0.11403692810551
-0.131215664897516,-0.113781378979763
-0.128775901779388,-0.113499105898352
-0.126279216966961,-0.113189807233388
-0.121113309078709,-0.112488926641252
-0.0980841507286575,-0.108544055353138
-0.0884407409421393,-0.106572355796822
-0.0816969007793945,-0.105102150269212
-0.172404299360622,-0.223193488679893
-0.0481297058529124,-0.0968747317013196
-0.0357325261981067,-0.093520924396035
-0.0182302092050906,-0.088551177423926
-0.00905418105920658,-0.0858474443937289
-0.0043583980409817,-0.0844398072949889
-0.114135733517463,-0.187509550737045
0.0358528357481683,-0.071800401616538
0.0466566121398748,-0.0682466269275739
0.0577678684313559,-0.0645304568846711
0.0634399097773257,-0.0626107195357742
0.0691901509836151,-0.0606494784647306
0.092981980314482,-0.0523834444013401
0.118060471020504,-0.04342922055261
0.124534459250318,-0.0410808727273127
0.158152758475513,-0.0286653010277693
0.0623688425196991,-0.132811948991421
0.2886533773017,0.0223805226760038
0.297140073864461,0.0258291423802836
0.305719599026682,0.0293292195269939
0.435828199511262,0.0839022426530686
0.466203855478284,0.0969957971358001
0.497486782650763,0.110601332318162
0.57407578939068,0.144384364027375
0.608469396464142,0.159755318979876
0.620146482591824,0.165000184274072
0.655821598416216,0.181102643877169
0.680145989784851,0.192147186325199
0.717452913968872,0.20918438662394
0.768745393920832,0.232791377096695
