-0.457278858481938,0.973076848961771
-0.431497912775798,0.931711648085899
-0.405898791349538,0.891147628775995
-0.380488030167568,0.851375422309207
-0.355272165194299,0.812385659962681
-0.330257732394139,0.774168973013565
-0.305451267731498,0.736715992739008
-0.280859307170787,0.700017350416156
-0.256488386676415,0.664063677322157
-0.232345042212791,0.628845604734159
-0.208435809744327,0.594353763929309
-0.18476722523543,0.560578786184756
-0.161345824650512,0.527511302777646
-0.138178143953982,0.495141944985126
-0.11527071911025,0.463461344084346
-0.0926300860837248,0.432460131352452
0.0351130667451924,0.514106494142855
-0.0481753393399369,0.372458395503912
-0.0263742975514935,0.343439134941562
0.0996048497428172,0.42288981239859
0.113306084130836,0.40326903079844
0.0372450699071176,0.260195358027962
0.0578351532097155,0.233687538238404
0.0781061569798276,0.207784156834913
0.0980515452530441,0.182475845094636
0.0213550949766891,0.0659841802383097
0.136939331451151,0.133606955712316
0.155868657447222,0.110027640624569
0.174446224088758,0.0870059203086259
0.19266549541135,0.0645324260416354
0.114128082083678,-0.0502149654122536
0.22800300824206,0.021192640763102
0.356312158937905,0.0943214936687313
0.261828908224075,-0.0200666649938507
0.278158663485797,-0.0399395598588653
0.294090907642116,-0.059320441012042
0.309619104728621,-0.0782186771762332
0.324736718780904,-0.0966436370742913
0.339437213834554,-0.114604689429069
0.242715555642238,-0.240135269008103
0.367560703088318,-0.149172546400191
0.492859808136447,-0.0713673777505472
0.495834402548659,-0.0909209454015532
0.406454145368974,-0.197779243353581
0.418514671178223,-0.213153593628575
0.430112326237971,-0.228129617420255
0.441240574583808,-0.242716683451474
0.451892880251324,-0.256924160445084
0.46206270727611,-0.270761417123938
0.471743519693756,-0.284237822210888
0.578584059595656,-0.181730111699567
0.489611956849987,-0.310145552500484
0.497786509659753,-0.322595615148836
0.50544590400474,-0.334722301096694
0.512583603920537,-0.346534979066909
0.519193073442736,-0.358043017782335
0.525267776606925,-0.369255785965823
0.530801177448696,-0.380182652340227
0.535786740003639,-0.390832985628399
0.540217928307344,-0.40121615455319
0.544088206395401,-0.411341527837454
0.664982948061901,-0.319223562688811
0.447599453872953,-0.526351548105129
0.552268219721586,-0.440264561075606
0.553829497302953,-0.449452439026284
0.554797184846624,-0.458429364950697
0.555164746388188,-0.467204707571697
0.554925645963235,-0.475787835612136
0.554073347607356,-0.484188117794867
0.552601315356142,-0.492414922842742
0.550503013245181,-0.500477619478614
0.547771905310065,-0.508385576425335
0.544401455586384,-0.516148162405758
0.540385128109727,-0.523774746142734
0.535716386915686,-0.531274696359117
0.53038869603985,-0.538657381777758
0.4224126980534,-0.645685464099481
0.517730321385155,-0.553108433113227
0.510386565677476,-0.560195536475759
0.399141227875028,-0.663496233842765
0.493637237679407,-0.574139742204681
0.484218593460197,-0.581015582016776
0.474095247808324,-0.587839738091096
0.463260664759378,-0.594621579150495
0.45170830834895,-0.601370473917824
0.439431642612629,-0.608095791115935
0.426424131586005,-0.614806899467683
0.412679239304669,-0.621513167695917
0.398190429804212,-0.628223964523492
0.382951167120223,-0.63494865867326
0.366954915288292,-0.641696618868073
0.35019513834401,-0.648477213830783
0.213834222443593,-0.763924431994562
0.314358865260753,-0.662173782951304
0.295269297192959,-0.669108494554821
0.275390060155174,-0.676113315817645
0.254714618182989,-0.683197615462628
0.233236435311994,-0.690370762212623
0.210948975577779,-0.697642124790483
0.187845703015935,-0.705021071919059
