0.211533906405768,-0.990251719548544
0.217136748088894,-0.979379558852385
0.22270862186357,-0.968542002840687
0.228249617313551,-0.957739132633652
0.233759824022592,-0.946971029351482
0.239239331574448,-0.936237774114379
0.244688229552873,-0.925539448042545
0.250106607541623,-0.914876132256181
0.255494555124451,-0.90424790787549
0.260852161885112,-0.893654856020674
0.266179517407361,-0.883097057811934
0.271476711274953,-0.872574594369472
0.276743833071642,-0.862087546813491
0.281980972381184,-0.851635996264193
0.287188218787332,-0.841220023841778
0.292365661873841,-0.830839710666449
0.297513391224466,-0.820495137858408
0.302631496422963,-0.810186386537857
0.307720067053084,-0.799913537824998
0.312779192698585,-0.789676672840033
0.317808962943222,-0.779475872703163
0.322809467370747,-0.769311218534591
0.327780795564917,-0.759182791454518
0.332723037109485,-0.749090672583146
0.337636281588207,-0.739034943040678
0.342520618584837,-0.729015683947316
0.347376137683129,-0.71903297642326
0.352202928466839,-0.709086901588713
0.357001080519721,-0.699177540563877
0.36177068342553,-0.689304974468954
0.366511826768021,-0.679469284424146
0.371224600130947,-0.669670551549654
0.375909093098064,-0.659908856965682
0.380565395253126,-0.650184281792429
0.385193596179889,-0.640496907150099
0.389793785462106,-0.630846814158894
0.394366052683533,-0.621234083939014
0.398910487427924,-0.611658797610663
0.403427179279033,-0.602121036294042
0.407916217820616,-0.592620881109353
0.412377692636428,-0.583158413176798
0.416811693310222,-0.573733713616579
0.421218309425753,-0.564346863548897
0.425597630566777,-0.554997944093955
0.429949746317047,-0.545687036371955
0.434274746260319,-0.536414221503099
0.438572719980347,-0.527179580607587
0.442843757060886,-0.517983194805623
0.44708794708569,-0.508825145217409
0.451305379638514,-0.499705512963145
0.455496144303114,-0.490624379163035
0.459660330663242,-0.481581824937279
0.463798028302655,-0.47257793140608
0.467909326805107,-0.463612779689641
0.471994315754352,-0.454686450908162
0.476053084734145,-0.445799026181845
0.480085723328242,-0.436950586630893
0.484092321120395,-0.428141213375508
0.488072967694361,-0.419370987535891
0.492027752633894,-0.410639990232245
0.495956765522748,-0.40194830258477
0.499860095944679,-0.39329600571367
0.50373783348344,-0.384683180739146
0.507590067722787,-0.3761099087814
0.511416888246474,-0.367576270960633
0.515218384638256,-0.359082348397049
0.518994646481888,-0.350628222210848
0.522745763361123,-0.342213973522233
0.526471824859718,-0.333839683451405
0.530172920561426,-0.325505433118567
0.533849140050002,-0.31721130364392
0.537500572909202,-0.308957376147667
0.541127308722778,-0.300743731750009
0.544729437074487,-0.292570451571147
0.548307047548083,-0.284437616731285
0.551860229727321,-0.276345308350624
0.555389073195955,-0.268293607549366
0.55889366753774,-0.260282595447712
0.56237410233643,-0.252312353165866
0.56583046717578,-0.244382961824027
0.569262851639546,-0.2364945025424
0.572671345311481,-0.228647056441185
0.57605603777534,-0.220840704640584
0.579417018614878,-0.213075528260799
0.58275437741385,-0.205351608422033
0.58606820375601,-0.197669026244487
0.589358587225113,-0.190027862848362
0.592625617404914,-0.182428199353862
0.595869383879167,-0.174870116881187
0.599089976231627,-0.167353696550541
0.602287484046049,-0.159879019482124
0.605461996906187,-0.152446166796138
0.608613604395795,-0.145055219612786
0.61174239609863,-0.13770625905227
0.614848461598445,-0.130399366234791
0.617931890478995,-0.123134622280551
0.620992772324034,-0.115912108309752
0.624031196717318,-0.108731905442596
0.6270472532426,-0.101594094799286
0.630041031483637,-0.094498757500022
0.633012621024182,-0.0874459746650072
0.63596211144799,-0.0804358274144431
0.638889592338815,-0.0734683968685316
0.641795153280413,-0.0665437641474746
0.644678883856537,-0.0596620103714742
0.647540873650944,-0.0528232166607322
0.650381212247387,-0.0460274641354504
0.65319998922962,-0.039274833915831
0.6559972941814,-0.0325654071220757
0.65877321668648,-0.0258992648743865
0.661527846328615,-0.0192764882929652
0.664261272691559,-0.0126971584980136
0.666973585359069,-0.00616135660973421
0.669664873914897,0.000330836251671573
0.672335227942798,0.0067793389660018
0.674984737026528,0.0131840704130545
0.677613490749842,0.0195449494726276
0.680221578696493,0.0258618950245194
0.682809090450236,0.0321348259485279
0.685376115594826,0.0383636611244512
0.687922743714018,0.0445483194320873
0.690449064391567,0.0506887197512343
0.692955167211227,0.0567847809616904
0.695441141756752,0.0628364219432538
0.697907077611898,0.0688435615757222
0.700353064360419,0.0748061187388938
0.702779191586069,0.080724012312567
0.705185548872604,0.0865971611765397
0.707572225803778,0.0924254842106098
0.709939311963346,0.0982089002945754
0.712286896935063,0.103947328308235
0.714615070302682,0.109640687131386
0.716923921649959,0.115288895643827
0.719213540560649,0.120891872725357
0.721484016618506,0.126449537255772
0.723735439407284,0.131961808114871
0.725967898510739,0.137428604182453
0.728181483512626,0.142849844338315
0.730376283996698,0.148225447462255
0.73255238954671,0.153555332434072
0.734709889746418,0.158839418133563
0.736848874179575,0.164077623440527
0.738969432429937,0.169269867234762
0.741071654081258,0.174416068396065
0.743155628717293,0.179516145804236
0.745221445921797,0.184570018339071
0.747269195278523,0.18957760488037
0.749298966371227,0.194538824307929
0.751310848783664,0.199453595501548
0.753304932099588,0.204321837341024
0.755281305902754,0.209143468706156
0.757240059776917,0.213918408476741
0.75918128330583,0.218646575532578
0.76110506607325,0.223327888753465
0.76301149766293,0.227962267019199
0.764900667658625,0.232549629209579
0.76677266564409,0.237089894204403
0.768627581203079,0.241582980883469
0.770465503919348,0.246028808126575
0.772286523376651,0.250427294813519
0.774090729158742,0.2547783598241
0.775878210849376,0.259081922038115
0.777649058032309,0.263337900335362
0.779403360291293,0.26754621359564
0.781141207210086,0.271706780698746
0.782862688372439,0.275819520524479
0.78456789336211,0.279884351952637
0.786256911762852,0.283901193863018
0.787929833158419,0.28786996513542
0.789586747132568,0.29179058464964
0.791227743269051,0.295662971285478
0.792852911151625,0.299487043922731
0.794462340364043,0.303262721441197
0.79605612049006,0.306989922720675
0.797634341113431,0.310668566640962
0.799197091817911,0.314298572081857
0.800744462187254,0.317879857923157
0.802276541805215,0.321412343044661
0.803793420255549,0.324895946326167
0.80529518712201,0.328330586647473
0.806781931988353,0.331716182888377
0.808253744438332,0.335052653928676
0.809710714055703,0.33833991864817
0.81115293042422,0.341577895926656
0.812580483127637,0.344766504643933
0.81399346174971,0.347905663679797
0.815391955874192,0.350995291914049
0.81677605508484,0.354035308226485
0.818145848965406,0.357025631496903
0.819501427099647,0.359966180605102
0.820842879071316,0.36285687443088
0.822170294464169,0.365697631854035
0.823483762861959,0.368488371754365
0.824783373848443,0.371229013011668
0.826069217007373,0.373919474505742
0.827341381922506,0.376559675116385
0.828599958177595,0.379149533723396
0.829845035356396,0.381688969206572
0.831076703042662,0.384177900445712
0.832295050820149,0.386616246320613
0.833500168272612,0.389003925711074
0.834692144983805,0.391340857496892
0.835871070537482,0.393626960557867
0.837037034517399,0.395862153773795
0.83819012650731,0.398046356024475
0.839330436090969,0.400179486189706
0.840458052852132,0.402261463149284
0.841573066374553,0.404292205783009
0.842675566241987,0.406271632970678
0.843765642038188,0.40819966359209
0.844843383346911,0.410076216527042
0.845908879751911,0.411901210655333
0.846962220836942,0.41367456485676
0.848003496185759,0.415396198011123
0.849032795382117,0.417066028998217
0.85005020800977,0.418683976697844
0.851055823652474,0.420249959989799
0.852049731893982,0.421763897753881
0.85303202231805,0.423225708869888
0.854002784508432,0.424635312217619
0.854962108048882,0.42599262667687
0.855910082523156,0.427297571127442
0.856846797515008,0.428550064449131
0.857772342608193,0.429750025521735
0.858686807386465,0.430897373225053
0.85959028143358,0.431992026438884
0.860482854333291,0.433033904043023
0.861364615669354,0.434022924917271
0.862235655025522,0.434959007941425
0.863096061985552,0.435842071995283
0.863945926133197,0.436672035958643
0.864785337052212,0.437448818711304
0.865614384326352,0.438172339133063
0.866433157539372,0.438842516103718
0.867241746275025,0.439459268503068
0.868040240117067,0.440022515210911
0.868828728649253,0.440532175107044
0.869607301455337,0.440988167071266
0.870376048119074,0.441390409983375
0.871135058224219,0.441738822723169
0.871884421354525,0.442033324170446
0.872624227093748,0.442273833205004
0.873354565025643,0.442460268706642
0.874075524733964,0.442592549555157
0.874787195802466,0.442670594630347
0.875489667814904,0.44269432281201
0.876183030355031,0.442663652979946
0.876867373006604,0.44257850401395
0.877542785353375,0.442438794793823
0.878209356979102,0.442244444199361
0.878867177467537,0.441995371110364
0.879516336402435,0.441691494406628
0.880156923367552,0.441332732967952
0.880789027946642,0.440919005674135
0.881412739723459,0.440450231404974
0.882028148281759,0.439926329040267
0.882635343205295,0.439347217459813
0.883234414077823,0.438712815543409
0.883825450483097,0.438023042170853
0.884408542004872,0.437277816221945
0.884983778226903,0.436477056576481
0.885551248732943,0.43562068211426
0.886111043106749,0.43470861171508
0.886663250932074,0.433740764258739
0.887207961792674,0.432717058625035
0.887745265272303,0.431637413693766
0.888275250954715,0.43050174834473
0.888798008423665,0.429309981457726
0.889313627262908,0.428062031912551
0.889822197056199,0.426757818589004
0.890323807387292,0.425397260366882
0.890818547839942,0.423980276125985
0.891306507997904,0.422506784746108
0.891787777444932,0.420976705107052
0.892262445764781,0.419389956088614
0.892730602541206,0.417746456570592
0.893192337357961,0.416046125432783
0.893647739798801,0.414288881554987
0.89409689944748,0.412474643817002
0.894539905887754,0.410603331098624
0.894976848703377,0.408674862279654
0.895407817478103,0.406689156239887
0.895832901795688,0.404646131859124
0.896252191239885,0.402545708017161
0.896665775394451,0.400387803593797
0.897073743843139,0.398172337468829
0.897476186169703,0.395899228522057
0.8978731919579,0.393568395633278
0.898264850791483,0.39117975768229
0.898651252254206,0.388733233548891
0.899032485929826,0.386228742112879
0.899408641402095,0.383666202254053
0.89977980825477,0.38104553285221
0.900146076071605,0.378366652787149
0.900507534436353,0.375629480938668
0.900864272932771,0.372833936186564
0.901216381144613,0.369979937410636
0.901563948655633,0.367067403490682
0.901907065049586,0.3640962533065
0.902245819910226,0.361066405737888
0.902580302821309,0.357977779664644
0.902910603366589,0.354830293966567
0.903236811129821,0.351623867523454
0.903559015694759,0.348358419215103
0.903877306645159,0.345033867921312
0.904191773564774,0.341650132521881
0.904502506037359,0.338207131896606
0.90480959364667,0.334704784925285
0.90511312597646,0.331143010487718
0.905413192610485,0.327521727463701
0.905709883132498,0.323840854733034
0.906003287126256,0.320100311175513
0.906293494175512,0.316300015670938
0.906580593864021,0.312439887099106
0.906864675775538,0.308519844339815
0.907145829493817,0.304539806272864
0.907424144602613,0.30049969177805
0.907699710685681,0.296399419735172
0.907972617326776,0.292238909024028
0.908242954109652,0.288018078524415
0.908510810618063,0.283736847116132
0.908776276435765,0.279395133678978
0.909039441146512,0.274992857092749
0.909300394334059,0.270529936237244
0.90955922558216,0.266006289992262
0.90981602447457,0.261421837237599
0.910070880595045,0.256776496853055
0.910323883527337,0.252070187718428
0.910575122855203,0.247302828713515
0.910824688162397,0.242474338718115
0.911072669032673,0.237584636612025
0.911319155049786,0.232633641275045
0.911564235797491,0.227621271586971
0.911808000859543,0.222547446427602
0.912050539819696,0.217412084676736
0.912291942261705,0.212215105214171
0.912532297769324,0.206956426919706
0.912771695926308,0.201635968673137
0.913010226316412,0.196253649354265
0.913247978523391,0.190809387842885
0.913485042130999,0.185303103018798
0.913721506722991,0.179734713761799
0.913957461883121,0.174104138951689
0.914192997195145,0.168411297468264
0.914428202242816,0.162656108191324
0.91466316660989,0.156838490000665
0.914897979880121,0.150958361776086
0.915132731637264,0.145015642397386
0.915367511465074,0.139010250744361
0.915602408947304,0.132942105696811
0.915837513667711,0.126811126134534
0.916072915210048,0.120617230937327
0.916308703158071,0.114360338984988
0.916544967095533,0.108040369157316
0.91678179660619,0.101657240334109
0.917019281273797,0.0952108713951649
0.917257510682107,0.0887011812202817
0.917496574414875,0.0821280886892573
0.917736562055857,0.0754915126818902
0.917977563188807,0.0687913720779779
0.91821966739748,0.0620275857573192
0.91846296426563,0.0552000725997116
0.918707543377011,0.0483087514849536
0.91895349431538,0.0413535412928429
0.919200906664489,0.0343343609031781
0.919449870008095,0.0272511291957567
0.919700473929951,0.0201037650503773
0.919952808013812,0.0128921873468375
0.920206961843434,0.00561631496493593
0.92046302500257,-0.00172393321552994
0.920721087074975,-0.00912863831476138
0.920981237644405,-0.016597881452961
0.921243566294612,-0.02413174375033
0.921508162609354,-0.0317303063270709
0.921775116172383,-0.0393936503033851
0.922044516567455,-0.0471218567994751
0.922316453378324,-0.054915006935542
0.922591016188745,-0.0627731818317887
0.922868294582473,-0.0706964626084163
0.923148378143262,-0.0786849303856273
0.923431356454867,-0.086738666283623
0.923717319101043,-0.094857751422606
0.924006355665544,-0.103042266922778
0.924298555732125,-0.11129229390434
0.924594008884541,-0.119607913487495
0.924892804706547,-0.127989206792445
0.925195032781896,-0.136436254939392
0.925500782694344,-0.144949139048537
0.925810144027645,-0.153527940240082
0.926123206365554,-0.162172739634229
0.926440059291827,-0.170883618351181
0.926760792390216,-0.179660657511139
0.927085495244477,-0.188503938234304
0.927414257438366,-0.19741354164088
0.927747168555635,-0.206389548851068
0.928084318180041,-0.215432040985069
0.928425795895337,-0.224541099163086
0.928771691285279,-0.233716804505321
0.929122093933621,-0.242959238131975
0.929477093424117,-0.252268481163251
