-0.0554293808724815,-0.398897939363463
-0.0593657960490114,-0.393068356493141
-0.0632935558900221,-0.387311997714525
-0.0672126402904211,-0.381628518103017
-0.0711230291451158,-0.376017572734019
-0.0750247023490134,-0.370478816682933
-0.0789176397970213,-0.365011905025163
-0.0828018213840469,-0.35961649283611
-0.0866772270049976,-0.354292235191177
-0.0905438365547806,-0.349038787165767
-0.0944016299283034,-0.343855803835282
-0.0982505870204734,-0.338742940275124
-0.102090687726198,-0.333699851560695
-0.105921911940384,-0.328726192767399
-0.10974423955794,-0.323821618970637
-0.113557650473772,-0.318985785245813
-0.117362124582787,-0.314218346668328
-0.121157641779895,-0.309518958313585
-0.124944181960001,-0.304887275256986
-0.128721725018012,-0.300322952573934
-0.132490250848838,-0.295825645339831
-0.136249739347383,-0.29139500863008
-0.140000170408557,-0.287030697520083
-0.143741523927267,-0.282732367085243
-0.147473779798419,-0.278499672400961
-0.151196917916921,-0.274332268542641
-0.154910918177681,-0.270229810585685
-0.158615760475606,-0.266191953605495
-0.162311424705603,-0.262218352677474
-0.165997890762579,-0.258308662877024
-0.169675138541443,-0.254462539279548
-0.1733431479371,-0.250679636960447
-0.17700189884446,-0.246959610995126
-0.180651371158428,-0.243302116458985
-0.184291544773913,-0.239706808427427
-0.187922399585821,-0.236173341975855
-0.191543915489061,-0.232701372179672
-0.195156072378539,-0.229290554114279
-0.198758850149163,-0.225940542855079
-0.202352228695839,-0.222650993477475
-0.205936187913477,-0.219421561056868
-0.209510707696982,-0.216251900668663
-0.213075767941263,-0.21314166738826
-0.216631348541226,-0.210090516291062
-0.220177429391779,-0.207098102452472
-0.22371399038783,-0.204164080947892
-0.227241011424285,-0.201288106852725
-0.230758472396052,-0.198469835242373
-0.234266353198039,-0.195708921192238
-0.237764633725152,-0.193005019777723
-0.2412532938723,-0.190357786074231
-0.244732313534388,-0.187766875157163
-0.248201672606326,-0.185231942101922
-0.25166135098302,-0.182752641983912
-0.255111328559378,-0.180328629878533
-0.258551585230306,-0.177959560861189
-0.261982100890713,-0.175645090007281
-0.265402855435505,-0.173384872392214
-0.26881382875959,-0.171178563091388
-0.272215000757876,-0.169025817180206
-0.275606351325269,-0.166926289734071
-0.278987860356677,-0.164879635828385
-0.282359507747008,-0.162885510538551
-0.285721273391168,-0.16094356893997
-0.289073137184066,-0.159053466108047
-0.292415079020608,-0.157214857118182
-0.295747078795702,-0.155427397045778
-0.299069116404255,-0.153690740966238
-0.302381171741175,-0.152004543954965
-0.305683224701369,-0.15036846108736
-0.308975255179744,-0.148782147438826
-0.312257243071207,-0.147245258084766
-0.315529168270667,-0.145757448100581
-0.31879101067303,-0.144318372561676
-0.322042750173204,-0.14292768654345
-0.325284366666095,-0.141585045121309
-0.328515840046613,-0.140290103370652
-0.331737150209663,-0.139042516366884
-0.334948277050153,-0.137841939185407
-0.33814920046299,-0.136688026901622
-0.341339900343083,-0.135580434590933
-0.344520356585338,-0.134518817328742
-0.347690549084662,-0.133502830190452
-0.350850457735963,-0.132532128251464
-0.354000062434149,-0.131606366587181
-0.357139343074126,-0.130725200273006
-0.360268279550802,-0.129888284384341
-0.363386851759085,-0.129095273996588
-0.366495039593881,-0.12834582418515
-0.369592822950099,-0.12763959002543
-0.372680181722645,-0.12697622659283
-0.375757095806426,-0.126355388962752
-0.378823545096351,-0.125776732210598
-0.381879509487327,-0.125239911411772
-0.38492496887426,-0.124744581641675
-0.387959903152059,-0.12429039797571
-0.39098429221563,-0.12387701548928
-0.393998115959881,-0.123504089257787
-0.39700135427972,-0.123171274356632
-0.399993987070053,-0.12287822586122
-0.402975994225788,-0.122624598846952
-0.405947355641833,-0.12241004838923
-0.408908051213094,-0.122234229563458
-0.411858060834479,-0.122096797445037
-0.414797364400896,-0.12199740710937
-0.417725941807252,-0.121935713631859
-0.420643772948454,-0.121911372087907
-0.42355083771941,-0.121924037552917
-0.426447116015026,-0.12197336510229
-0.429332587730211,-0.122059009811429
-0.432207232759871,-0.122180626755737
-0.435071030998915,-0.122337871010616
-0.437923962342248,-0.122530397651468
-0.44076600668478,-0.122757861753696
-0.443597143921416,-0.123019918392702
-0.446417353947065,-0.12331622264389
-0.449226616656634,-0.12364642958266
-0.45202491194503,-0.124010194284416
-0.45481221970716,-0.12440717182456
-0.457588519837932,-0.124837017278494
-0.460353792232254,-0.125299385721622
-0.463108016785032,-0.125793932229345
-0.465851173391173,-0.126320311877065
-0.468583241945587,-0.126878179740186
-0.471304202343178,-0.127467190894109
-0.474014034478856,-0.128087000414238
-0.476712718247528,-0.128737263375974
-0.479400233544099,-0.12941763485472
-0.48207656026348,-0.130127769925879
-0.484741678300575,-0.130867323664852
-0.487395567550293,-0.131635951147043
-0.490038207907542,-0.132433307447854
-0.492669579267228,-0.133259047642686
-0.495289661524259,-0.134112826806944
-0.497898434573542,-0.134994300016028
-0.500495878309984,-0.135903122345342
-0.503081972628494,-0.136838948870287
-0.505656697423978,-0.137801434666268
-0.508220032591343,-0.138790234808684
-0.510771958025498,-0.139805004372941
-0.513312453621349,-0.140845398434438
-0.515841499273804,-0.14191107206858
-0.51835907487777,-0.143001680350769
-0.520865160328154,-0.144116878356406
-0.523359735519864,-0.145256321160895
-0.525842780347808,-0.146419663839638
-0.528314274706891,-0.147606561468037
-0.530774198492023,-0.148816669121494
-0.53322253159811,-0.150049641875413
-0.53565925392006,-0.151305134805196
-0.538084345352779,-0.152582802986244
-0.540497785791176,-0.153882301493961
-0.542899555130158,-0.155203285403749
-0.545289633264632,-0.15654540979101
-0.547668000089505,-0.157908329731147
-0.550034635499685,-0.159291700299563
-0.552389519390079,-0.160695176571658
-0.554732631655595,-0.162118413622837
-0.557063952191139,-0.163561066528502
-0.559383460891619,-0.165022790364055
-0.561691137651944,-0.166503240204897
-0.563986962367019,-0.168002071126433
-0.566270914931752,-0.169518938204064
-0.568542975241051,-0.171053496513193
-0.570803123189823,-0.172605401129222
-0.573051338672975,-0.174174307127553
-0.575287601585415,-0.17575986958359
-0.57751189182205,-0.177361743572734
-0.579724189277788,-0.178979584170388
-0.581924473847535,-0.180613046451954
-0.5841127254262,-0.182261785492835
-0.586288923908688,-0.183925456368433
-0.588453049189909,-0.185603714154151
-0.59060508116477,-0.187296213925391
-0.592744999728176,-0.189002610757556
-0.594872784775037,-0.190722559726047
-0.596988416200259,-0.192455715906268
-0.599091873898749,-0.194201734373621
-0.601183137765416,-0.195960270203508
-0.603262187695166,-0.197730978471332
-0.605329003582906,-0.199513514252494
-0.607383565323545,-0.201307532622399
-0.609425852811989,-0.203112688656447
-0.611455845943147,-0.204928637430042
-0.613473524611924,-0.206755034018586
-0.615478868713229,-0.208591533497481
-0.617471858141968,-0.21043779094213
-0.61945247279305,-0.212293461427935
-0.621420692561381,-0.214158200030299
-0.62337649734187,-0.216031661824624
-0.625319867029423,-0.217913501886312
-0.627250781518947,-0.219803375290766
-0.629169220705351,-0.221700937113389
-0.631075164483541,-0.223605842429583
-0.632968592748424,-0.225517746314749
-0.634849485394909,-0.227436303844292
-0.636717822317902,-0.229361170093612
-0.638573583412311,-0.231292000138114
-0.640416748573043,-0.233228449053198
-0.642247297695006,-0.235170171914267
-0.644065210673107,-0.237116823796725
-0.645870467402253,-0.239068059775973
-0.647663047777352,-0.241023534927413
-0.64944293169331,-0.242982904326449
-0.651210099045036,-0.244945823048483
-0.652964529727437,-0.246911946168916
-0.654706203635419,-0.248880928763152
-0.656435100663892,-0.250852425906593
-0.658151200707761,-0.252826092674641
-0.659854483661934,-0.2548015841427
-0.661544929421318,-0.25677855538617
-0.663222517880822,-0.258756661480455
-0.664887228935351,-0.260735557500957
-0.666539042479814,-0.262714898523079
-0.668177938409118,-0.264694339622223
-0.669803896618171,-0.266673535873791
-0.671416897001879,-0.268652142353186
-0.67301691945515,-0.270629814135811
-0.674603943872891,-0.272606206297067
-0.67617795015001,-0.274580973912357
-0.677738918181414,-0.276553772057084
-0.679286827862011,-0.27852425580665
-0.680821659086708,-0.280492080236458
-0.682343391750411,-0.282456900421909
-0.683852005748029,-0.284418371438407
-0.685347480974469,-0.286376148361354
-0.686829797324638,-0.288329886266152
-0.688298934693444,-0.290279240228204
-0.689754872975794,-0.292223865322911
-0.691197592066595,-0.294163416625677
-0.692627071860755,-0.296097549211905
-0.694043292253181,-0.298025918156995
-0.69544623313878,-0.299948178536352
-0.69683587441246,-0.301863985425377
-0.698212195969128,-0.303772993899472
-0.699575177703691,-0.305674859034041
-0.700924799511058,-0.307569235904486
-0.702261041286134,-0.309455779586208
-0.703583882923828,-0.311334145154611
-0.704893304319047,-0.313203987685097
-0.706189285366698,-0.315064962253068
-0.707471805961689,-0.316916723933927
-0.708740845998927,-0.318758927803077
-0.709996385373319,-0.320591228935919
-0.711238403979773,-0.322413282407855
-0.712466881713195,-0.32422474329429
-0.713681798468495,-0.326025266670625
-0.714883134140578,-0.327814507612262
-0.716070868624352,-0.329592121194604
-0.717244981814725,-0.331357762493053
-0.718405453606603,-0.333111086583012
-0.719552263894895,-0.334851748539883
-0.720685392574507,-0.336579403439068
-0.721804819540347,-0.338293706355971
-0.722910524687322,-0.339994312365993
-0.72400248791034,-0.341680876544537
-0.725080689104308,-0.343353053967006
-0.726145108164134,-0.345010499708801
-0.727195724984724,-0.346652868845326
-0.728232519460986,-0.348279816451982
-0.729255471487828,-0.349890997604172
-0.730264560960156,-0.351486067377299
-0.731259767772878,-0.353064680846765
-0.732241071820902,-0.354626493087972
-0.733208452999135,-0.356171159176323
-0.734161891202485,-0.35769833418722
-0.735101366325857,-0.359207673196066
-0.736026858264161,-0.360698831278263
-0.736938346912303,-0.362171463509214
-0.73783581216519,-0.363625224964321
-0.738719233917731,-0.365059770718986
-0.739588592064832,-0.366474755848613
-0.740443866501401,-0.367869835428602
-0.741285037122344,-0.369244664534358
-0.742112083822571,-0.370598898241281
-0.742924986496987,-0.371932191624775
-0.7437237250405,-0.373244199760243
-0.744508279348018,-0.374534577723085
-0.745278629314447,-0.375802980588706
-0.746034754834696,-0.377049063432507
-0.746776635803672,-0.378272481329891
-0.747504252116281,-0.379472889356261
-0.748217583667432,-0.380649942587018
-0.748916610352031,-0.381803296097565
-0.749601312064987,-0.382932604963305
-0.750271668701206,-0.38403752425964
-0.750927660155595,-0.385117709061972
-0.751569266323063,-0.386172814445704
-0.752196467098516,-0.387202495486239
-0.752809242376862,-0.388206407258978
-0.753407572053008,-0.389184204839324
-0.753991436021862,-0.390135543302681
-0.754560814178331,-0.391060077724449
-0.755115686417322,-0.391957463180031
-0.755656032633742,-0.392827354744831
-0.7561818327225,-0.39366940749425
-0.756693066578502,-0.394483276503691
-0.757189714096656,-0.395268616848556
-0.757671755171868,-0.396025083604248
-0.758139169699047,-0.396752331846169
-0.7585919375731,-0.397450016649722
-0.759030038688934,-0.398117793090309
-0.759453452941456,-0.398755316243332
-0.759862160225575,-0.399362241184194
-0.760256140436196,-0.399938222988297
-0.760635373468228,-0.400482916731044
-0.760999839216578,-0.400995977487837
-0.761349517576154,-0.401477060334079
-0.761684388441862,-0.401925820345172
-0.76200443170861,-0.402341912596519
-0.762309627271305,-0.402724992163521
-0.762599955024855,-0.403074714121582
-0.762875394864167,-0.403390733546104
-0.763135926684148,-0.403672705512489
-0.763381530379707,-0.403920285096139
-0.763612185845749,-0.404133127372458
-0.763827872977183,-0.404310887416847
-0.764028571668916,-0.40445322030471
-0.764214261815855,-0.404559781111447
-0.764384923312908,-0.404630224912463
-0.764540536054982,-0.404664206783159
-0.764681079936984,-0.404661381798938
-0.764806534853821,-0.404621405035202
-0.764916880700402,-0.404543931567353
-0.765012097371633,-0.404428616470795
-0.765092164762422,-0.404275114820929
-0.765157062767676,-0.404083081693158
-0.765206771282302,-0.403852172162884
-0.765241270201208,-0.403582041305511
-0.765260539419301,-0.403272344196439
-0.765264558831489,-0.402922735911072
-0.765253308332679,-0.402532871524813
-0.765226767817778,-0.402102406113062
-0.765184917181694,-0.401630994751224
-0.765127736319333,-0.401118292514701
-0.765055205125604,-0.400563954478894
-0.764967303495414,-0.399967635719206
-0.764864011323669,-0.399328991311041
-0.764745308505278,-0.398647676329799
-0.764611174935148,-0.397923345850884
-0.764461590508186,-0.397155654949698
-0.7642965351193,-0.396344258701644
-0.764115988663396,-0.395488812182123
-0.763919931035382,-0.394588970466539
-0.763708342130166,-0.393644388630294
-0.763481201842655,-0.39265472174879
-0.763238490067756,-0.391619624897429
-0.762980186700377,-0.390538753151615
-0.762706271635425,-0.389411761586749
-0.762416724767807,-0.388238305278235
-0.762111525992431,-0.387018039301473
-0.761790655204204,-0.385750618731868
-0.761454092298033,-0.384435698644821
-0.761101817168826,-0.383072934115734
-0.760733809711491,-0.381661980220011
-0.760350049820933,-0.380202492033053
-0.759950517392062,-0.378694124630264
-0.759535192319784,-0.377136533087045
-0.759104054499007,-0.375529372478799
-0.758657083824637,-0.373872297880928
-0.758194260191583,-0.372164964368835
-0.757715563494751,-0.370407027017922
-0.757220973629049,-0.368598140903592
-0.756710470489385,-0.366737961101247
-0.756184033970665,-0.364826142686289
-0.755641643967798,-0.362862340734122
-0.75508328037569,-0.360846210320147
-0.754508923089249,-0.358777406519767
-0.753918552003382,-0.356655584408384
-0.753312147012996,-0.354480399061401
-0.752689688013,-0.35225150555422
-0.752051154898299,-0.349968558962243
-0.751396527563802,-0.347631214360874
-0.750725785904416,-0.345239126825514
-0.750038909815049,-0.342791951431566
-0.749335879190607,-0.340289343254432
-0.748616673925998,-0.337730957369516
-0.74788127391613,-0.335116448852218
-0.747129659055909,-0.332445472777942
-0.746361809240243,-0.32971768422209
-0.74557770436404,-0.326932738260065
-0.744777324322207,-0.324090289967268
-0.743960649009651,-0.321189994419103
-0.743127658321279,-0.318231506690972
-0.742278332152,-0.315214481858277
-0.741412650396719,-0.312138574996421
-0.740530592950346,-0.309003441180806
-0.739632139707786,-0.305808735486835
-0.738717270563947,-0.30255411298991
-0.737785965413738,-0.299239228765433
-0.736838204152064,-0.295863737888807
-0.735873966673833,-0.292427295435434
-0.734893232873954,-0.288929556480717
-0.733895982647333,-0.285370176100059
-0.732882195888877,-0.281748809368861
-0.731851852493494,-0.278065111362526
-0.730804932356091,-0.274318737156457
-0.729741415371576,-0.270509341826055
-0.728661281434855,-0.266636580446724
-0.727564510440837,-0.262700108093866
