-0.43159011088465,0.530176636550687
0.665002783114425,0.499541236559867
-0.69475261457606,0.768114875391959
-0.965638244814951,-0.129440984488409
-1.23652387505384,-1.02699684436878
0.470367449214946,-0.751468845111371
0.596140050461036,0.0563819188075874
