-0.0729379996315513,0.235121449119507
-0.494533990476502,0.903035318830615
0.618336490126441,0.253506054455442
-0.138751300207173,0.767392096969436
-0.895839090540786,1.28127813948343
0.203935457347071,-0.917103143415966
0.555557091785895,-0.406301255105733
