0.93311675351982,-0.409805597632354
0.944993354812851,-0.424417167989376
0.952795096874635,-0.40859529101053
0.935751084142348,-0.417027330238143
0.93627662409836,-0.402730373047672
0.933376974688018,-0.395570332845114
0.930480320105866,-0.388444586405575
0.971503358548088,-0.372783393053976
0.924696070020405,-0.37429561011319
0.921808511814231,-0.36727219790916
0.918924023030519,-0.360282714765785
0.882540584066359,-0.34264800293085
0.913164328324752,-0.346405170958629
0.914612528378241,-0.296198686132533
0.907417135091644,-0.332662249286992
0.873855830726991,-0.293789554133192
0.897566794964471,-0.338140949858256
0.947204341069455,-0.301522778464806
0.908116019004752,-0.327093901323415
0.893140472608571,-0.298281071115478
0.87994193060969,-0.29474556089331
0.912640052877541,-0.280005453231017
0.851570725627866,-0.266102969190849
0.916926767039261,-0.264181492296738
0.878873912614995,-0.26594144379599
0.889021534988109,-0.249553510204525
0.87320486117724,-0.252990937438108
0.870375405806249,-0.246564298460363
0.885385011569712,-0.240311134944814
0.837860166021917,-0.215188699328781
0.861907544867642,-0.227477744224814
0.867150809197566,-0.198569941717894
0.826160461663484,-0.223395089835257
0.853470833310504,-0.208679319348377
0.869921063587662,-0.191144087848277
0.864275845405291,-0.229378660339079
0.817303187196496,-0.166528070360533
0.842271209427547,-0.184058699210811
0.860256425376089,-0.197900549629186
0.806113749124159,-0.177894714772697
0.833909137860122,-0.165923002735202
0.821401982654358,-0.138749042349642
0.818140493227822,-0.169283471588817
0.823839033761251,-0.158189976959224
0.797683183336895,-0.117394429779193
0.817283981494317,-0.130488918710673
0.819888640788715,-0.124860446727334
0.796227526778029,-0.141072299504347
0.819870989901073,-0.157287280322044
0.806275483658949,-0.10747852297765
0.809434324461704,-0.0946532352226244
0.796162877740325,-0.109909553283713
0.77715470577498,-0.0606404241978618
0.783790776732925,-0.0745030862725259
0.792601266538179,-0.079394138876087
0.780287268151103,-0.0739645584654122
0.793915062905629,-0.0632114404046523
0.781998557529015,-0.0793661581556737
0.777504753738846,-0.0734882869579954
0.795741782330287,-0.0509674551382894
0.782162949082601,-0.0761320169281776
0.773622829505379,-0.0413223175222291
0.77335643347243,-0.0279639861433299
0.768236659365057,-0.0307078927009306
0.762214344684832,-0.0149802915631925
0.750691066658357,-0.0191844284778526
0.766908911641187,-0.000527819677441518
0.757513609397244,-0.00982528649112924
0.753553566589156,0.0101941949830851
0.742425636709833,0.00427573853795152
0.753784628328817,0.0176444289111609
0.709825263870289,0.0027913434609261
0.78722519723392,0.00315467353470465
0.738179623568338,0.0425605776869407
0.738909522909963,0.025623621156968
0.731345614516676,0.0405686248854367
0.708208896307599,0.0340396207786973
0.741651830792598,0.0419875110559348
0.728372811091913,0.0452640815743307
0.7257495235715,0.050105101816552
0.723130629521863,0.0549186664651083
0.616796196777902,0.162898746605862
0.850780022884251,-0.0235882135523717
0.747246199191981,0.0542079963129454
0.6239321638582,-0.0261102413964515
0.815442070984218,0.192088954150123
0.588380191119405,0.188096211967759
0.808118341745382,0.0173079639945376
0.582218722631265,-0.0175771555215893
0.579772579242165,0.00427245807659341
0.80203138631548,0.229272352215397
0.564167811841199,0.187901254529087
0.68438711629646,0.123889464355803
0.678316331322815,0.150439845321677
0.574486575182473,0.031869646591443
0.795055191567651,0.0463603188430552
0.67262607023742,0.118436334278732
0.78089324443945,0.0589486548433164
0.780622611152969,0.03797253814379
0.788287994939007,0.0470060952775718
0.691784064936068,0.146984978380663
0.661759482450055,0.135556615438428
0.766936343070774,0.0507678850584518
0.795463942620767,0.0557636524295489
0.547130249135365,0.0635733169589829
0.54308928252549,0.0689274079971871
0.64917768718196,0.182978692312283
0.538216819009455,0.258299406957152
0.524135936465346,0.314130057666421
0.526223351760679,0.0971991165642261
0.520070137286778,0.0668424304365596
0.636835497719675,0.202894780007898
0.634382123744893,0.206804839500757
0.602062262185579,0.235834926109048
0.629490588901544,0.214552529844941
0.594748967427412,0.210597767454044
0.624619462523603,0.222204256504357
0.63393598819955,0.223194181679866
0.59478467557406,0.205530362944923
0.614439512841551,0.220705594233356
0.595495267365056,0.255185446837936
0.610504738180546,0.266070474059219
0.604286811075421,0.279994900078131
0.602868339842879,0.219433969202648
0.595829636587884,0.266140225745657
0.604437264187598,0.275885239900883
0.591105546746981,0.273140629944165
0.588751593242401,0.276606988288028
0.619836505594112,0.263063609404172
0.584059962307822,0.283472473342931
0.597894312560922,0.291573019912607
0.563531512323658,0.301629329657313
0.597811239380563,0.258827651534818
0.56692854683087,0.300072029797203
0.556076946245783,0.321640761088822
0.567812110919515,0.306805312327536
0.579746365512649,0.294404252039883
0.563219870749228,0.313275886915495
0.558650127683942,0.31966070948492
0.585330770323697,0.304110782914901
0.554103030912199,0.325960509440545
0.568779319747249,0.348174444921707
0.555820638283793,0.312410872187993
0.546515409927082,0.30042606270936
0.545077373003514,0.338307959129313
0.543155228169169,0.359536475638758
0.538368685682335,0.347350786982348
0.535464538800769,0.341961151555172
0.53392534343975,0.353277011559413
0.508833217558361,0.347850219169145
0.526772539562449,0.38173521636454
0.507445521288555,0.386055961749198
0.54513304796567,0.343993596895893
0.478462923383756,0.347794003173899
0.513158971912895,0.369720369153229
0.514222859285463,0.378953043200729
0.488336634287916,0.386030245659258
0.476193273183378,0.374344477201657
0.50776331502428,0.387158659544005
0.485653455836787,0.384809516749346
0.506280339973503,0.398874301760609
0.484311939321449,0.390661053289531
0.51516199361478,0.40907874376314
0.502888489425267,0.408338403759375
0.495009173255266,0.403055071370618
0.4929050825136,0.405638801019553
0.502694687691975,0.390188045645083
0.486380538383918,0.410420334303989
0.487198807767352,0.411534512801416
0.476364997216194,0.41574094815122
0.482478317232925,0.418281466990429
0.480411832402295,0.420755441958983
0.478351680493492,0.423211443595377
0.468946008265863,0.441937393954071
0.475567997154592,0.404646317579161
0.455934541140776,0.412433318506493
0.461181385584581,0.436253965716341
0.44278869484963,0.428924663516396
0.455558509957803,0.46120239231755
0.462100688236962,0.442223357799726
0.456113315827607,0.44906729789227
0.439231235523245,0.480788348059477
0.44719979521908,0.473616060529738
0.435398641980373,0.417760330095435
0.424211582566606,0.472551430689741
0.414402848015025,0.462232860485038
0.442373135134684,0.464449973425244
0.440436851968469,0.466581805112956
0.401723886081366,0.448435135632041
0.436584421964155,0.470797110202975
0.418164606987513,0.481966615599323
0.432758964721114,0.474948545416395
0.43085639750649,0.477000539758359
0.434063544872497,0.496781708578562
0.403751406319448,0.452615822258455
0.421445921445051,0.487026925844373
0.436878929211401,0.458184139279621
0.40036406335335,0.507945838515761
0.419038860233042,0.546629241144536
0.415734994461642,0.491837906999719
0.393681306173672,0.451366646095455
0.420083574789501,0.501631097415244
0.380468007896955,0.49553406171938
0.451080325007304,0.504039994650973
0.432719145243494,0.503418948920941
0.397602162624016,0.546495869846232
0.3925018052148,0.516607530661594
0.396349001551281,0.524680175820653
0.379162084915599,0.523004909738424
0.385550422624207,0.523436923573023
0.382118248835939,0.526770768010828
0.415919214449267,0.570338758983823
0.376475238392612,0.522891567628569
0.378551844371814,0.540367894661298
0.375341682216172,0.533280399874272
0.373665937043869,0.534875411153549
0.371997587761758,0.536457646109374
0.357641582884195,0.542702376746545
0.36539852250658,0.542660646209994
0.348490266448285,0.514640898712405
0.362644586162459,0.544829924243118
0.370901129910088,0.572460686821662
0.329412426725951,0.550412675872377
0.362350641289531,0.552095622739393
0.38099306574419,0.523265588960598
0.349427709480245,0.557318479859753
0.324750744242773,0.541038005793191
0.348647935367685,0.543753971018596
0.361162102255202,0.593698747010531
0.343253257273744,0.562857064178294
0.329797276248155,0.578916121602633
0.357754039120865,0.560034849093638
0.352291685266466,0.599196264781576
0.35510821695795,0.566569744872286
0.342317280338443,0.563682973565556
0.334224458324732,0.570835444551496
0.332747067081936,0.572127903488248
0.347710037446545,0.593711836761209
0.329815945503775,0.574681695263118
0.328362252465545,0.57594321045242
0.326916496125972,0.577194593410421
0.354510818464255,0.616601640400173
0.349778688927403,0.621365864241648
0.315042489162728,0.584147157303258
0.344880603616894,0.606121480968814
0.309633949847057,0.617390178064974
0.332380048540374,0.608416603906508
0.329331611833709,0.610953985661879
0.281871095301362,0.583190699859231
0.329753905869142,0.599887350245708
0.307519703928951,0.593701128867038
0.327088935298569,0.576291364079024
0.271231869042168,0.61079281242989
0.300979901014174,0.599167009201854
0.313259711323269,0.613794369564005
0.312245531612873,0.620943897086852
0.268713321968623,0.63133122361618
0.303396873737834,0.586867685792304
0.276376527568561,0.552986033275556
0.330969400480863,0.597196531838915
0.289733331458117,0.608489803227409
0.28732686771078,0.610476825528922
0.233446877991457,0.604256275306328
0.301421780241648,0.607238474901468
0.252740474914413,0.635028844899966
0.310419817153172,0.641011726077399
0.280312428525159,0.616265471141163
0.279173439979074,0.617206057981786
0.284059136576048,0.619781732438458
0.255091339969248,0.598095990514691
0.294314048396667,0.613039473583803
0.273608550383514,0.621810802314311
0.27252171363135,0.622712751435838
0.23452772850738,0.607249822379645
0.267395950264508,0.623918787024067
0.289135448047284,0.660321543576441
0.273474945313347,0.604338764282706
0.265160103283931,0.628860126971818
0.264787684815597,0.628321765286258
0.262138071083624,0.631410658833314
0.261148589594735,0.632250297054293
0.238446730411691,0.627495655897422
0.228015408722038,0.642145034522211
0.2295425108045,0.627825723953218
0.254474209849129,0.637989578368587
0.268334854099099,0.653277371081963
0.279932469569817,0.628870247500759
0.25361866219103,0.65900332414874
0.224745608845506,0.619894284434564
0.302802719536775,0.634575681243563
0.247926900192343,0.680293847153786
0.244072550951558,0.647335024409984
0.24326586008828,0.648089634517843
0.255656153772964,0.668171776534825
0.24090187414017,0.650334065172109
0.229949945938278,0.641610663740109
0.23937280886188,0.651815097639773
0.238622409774573,0.652551311009825
0.236372437558319,0.668781642958091
0.231281683222827,0.670315029886973
0.262276867601586,0.66739773302819
0.234319059836238,0.656914095199477
0.217837012493055,0.654348626213361
0.227828980787965,0.642454414741218
0.239098589082809,0.635777740352473
0.236938089469012,0.649415944910926
0.236836194892725,0.658008197217226
0.227590484179024,0.657328449575493
0.207516355962062,0.647037561420279
0.227913529044059,0.664019131190672
0.226748773448262,0.665421762382758
0.202252658135513,0.656090939735457
0.21222033449904,0.679346488157082
0.216079915077437,0.687801414848605
0.223489893179911,0.669606033231866
0.222482559225282,0.67099534728829
0.231149716658412,0.682640256844014
0.213571746806424,0.652477348598994
0.194497676536615,0.671776420375806
0.237539840367874,0.658571362210569
0.210735682057324,0.680538648401719
0.231329970693272,0.722861057646828
0.24586818949502,0.69620938465377
0.2165519707874,0.680719230729754
0.203278653535578,0.691920260789341
0.204932485533933,0.690982368784958
0.226630944033069,0.694921128261108
0.192961871428639,0.640841568840205
0.248817917192706,0.683896270079703
0.214056780392464,0.686338889992033
0.2137828213621,0.687030603999211
0.212922339357446,0.688911164665465
0.212622712180163,0.689473524909028
0.233952422177657,0.711315145401891
0.21136075195601,0.691403436443248
0.19583935524871,0.684398327766825
0.209998255162385,0.692827387688042
0.193206010727366,0.693712386419728
0.224670932956476,0.677874994702432
0.225164312957225,0.686049779429096
0.212727032259592,0.716765355709629
0.206976909757684,0.694185605654045
0.206571859102624,0.694217872744153
0.206160791914248,0.6942199491618
0.167784947332423,0.721061250901695
0.204015926824903,0.693781326132133
0.227589026864693,0.703340129897627
0.202658123844243,0.693162913330982
0.150194700792178,0.720698896489876
0.201723729198141,0.692604457586677
0.213796708622111,0.671427641779508
0.179893346335901,0.689711388505804
0.209940757061769,0.673675592636727
0.177759998441263,0.638397036098565
0.192792576186201,0.690362113366107
0.196174935687695,0.687484570025505
0.213904945778231,0.686556938569597
0.192862776412654,0.683266397011967
0.21388534349663,0.650895608349846
0.188751316051561,0.677113510924088
0.180399560168658,0.636553966425044
0.172088070386948,0.693993142401961
0.186284909298152,0.673015767417245
0.185655217446986,0.671926318346671
0.167090179437932,0.631378805268676
0.184380269319733,0.669670175366688
0.183084705550163,0.667311773548068
0.181768690447369,0.664851994026581
0.187310171745287,0.703945108079335
0.182668469714331,0.66237620304578
0.19362166286111,0.644544943718024
0.176435693213776,0.614217886034488
0.161913475731955,0.678011485971005
0.168277950570948,0.63659633778733
0.167519864092513,0.634872275023816
0.166757116630777,0.633125290957958
0.181529078828745,0.606118753290702
0.162083901374692,0.622168207163966
0.130572907507098,0.633396730718591
0.13875452738622,0.612985475437185
0.158482751033367,0.632697338245597
0.105772635684883,0.600688223755383
0.154770552981517,0.604244870229294
0.152254048220798,0.597885596919003
0.151406644417299,0.59572403508317
0.154566039834746,0.603612168780834
0.166483959815575,0.606989649176137
0.133696020462423,0.561244083787416
0.172457363446141,0.573178782232928
0.110072895888162,0.570044986379103
0.144781465338363,0.595356066742083
0.141809207181305,0.570603667570284
0.109439817928327,0.551709404028987
0.145486656616237,0.583469763089629
0.138145062929322,0.582153409656509
0.142800108317907,0.53146702333013
0.129889047238749,0.567971757420577
0.125172661197782,0.554541479245249
0.13815544838174,0.53081255082176
0.11533880639588,0.501444407485187
0.12387978169844,0.510116543077134
0.138297840728617,0.533829530790945
0.124565971048204,0.507640457469616
0.123130893704136,0.518985564744512
0.10874147946283,0.495482507254279
0.109361607662879,0.502200248417559
0.12326909835266,0.495500051785285
0.116566942455538,0.492744095009385
0.0720620722775595,0.47578317814171
0.120517353124586,0.484714528982942
0.101317430065901,0.409187684101475
0.0623297966853325,0.482614453507993
0.0920722125718766,0.42135463975622
0.0906195251675359,0.421287155567303
0.101977655438136,0.461838241846535
0.101789308703137,0.430249529415509
0.0903075020450042,0.422366173285936
0.0825371918490843,0.393196012179974
0.0859779242184591,0.409222608601355
0.0929570217546554,0.396338766422006
0.0835680695619403,0.442591216513143
0.115432877359127,0.405768692058669
0.0452082213828382,0.356466534419736
0.0407228088707034,0.364143365418037
0.0704708886913865,0.361585684028907
0.068212898132989,0.354584608592158
0.0894099681835382,0.34521991630952
0.0661911819007586,0.299558430070293
0.0579283103980232,0.322519444899852
0.0639137381054096,0.302146273442772
0.0532951154521777,0.307988267777736
0.0481752405288838,0.271954278494537
0.0905101561592697,0.305393788290046
0.0655101747112395,0.242909080844846
0.0368004681856793,0.255897158437588
0.0398267291110001,0.208654303287117
0.0177785205177882,0.218336410618598
0.0174748983897217,0.194317401710723
-0.0138527310421366,0.180386904014932
0.024946854279325,0.178898364397147
-0.0180513701793002,0.168107334357172
0.000272964421301996,0.100727000558122
0.0159383166982256,0.133147022218713
-0.0226543311118524,0.120787253730926
0.0515653016643024,0.0700113879748273
-0.0110296750562073,0.102843767319751
-0.0147994111374194,0.0907158017333304
-0.0185793022588875,0.0785520441976085
-0.0315185167519895,0.0802990119858292
-0.0315798054231977,0.0677587610098915
-0.0167323004325715,0.0609852160822036
-0.0489509540643019,0.0336255613873223
-0.0292963471808896,0.0386916698924283
-0.0376116744584802,0.0173004614425016
-0.0441218861538337,0.000396219240244324
-0.0427186638376074,0.000875575137872828
-0.042753398034237,-0.0236943759479623
-0.0109494129263645,-0.0368892570731332
-0.0615999041021465,-0.0210859200636469
-0.0704598956765857,-0.0705529515234134
-0.0799854403719433,-0.0602798302275567
-0.0611422689425338,-0.0732370021576518
-0.0555043552345482,-0.138075302672627
-0.0977831523732282,-0.137951479311777
-0.0915891487751805,-0.155404621153616
-0.0928781260927785,-0.159492430159153
-0.0812238452864192,-0.193365769383112
-0.138906752340976,-0.233589527590525
-0.0945653288810359,-0.222318435745987
-0.129055671102905,-0.251397933520261
-0.0872853047693456,-0.257433796406749
-0.0878390719670646,-0.254227308061452
-0.0845102541563294,-0.279376931120171
-0.197561965073763,-0.242438198785874
-0.0999235777478402,-0.28093182872554
-0.0932480642932139,-0.245374000868867
-0.131397223102021,-0.280356685857396
-0.152878962695828,-0.293042873209395
-0.119804515033438,-0.307817273005174
-0.163780787913658,-0.347165355667496
-0.183793720442248,-0.364304016601489
-0.198713295448287,-0.379259637956766
-0.151263993689099,-0.410078983998623
-0.169249709799543,-0.395779509024166
-0.17579153772219,-0.421617610734261
-0.210169854403315,-0.423262370616793
