-0.777661418610779,0.470707661304237
-0.76819374616769,0.468571065406345
-0.758788892869973,0.466412353765785
-0.749446624074214,0.464231688583972
-0.740166705137001,0.462029232062319
-0.73094890141492,0.459805146402239
-0.721792978264557,0.457559593805147
-0.712698701042498,0.455292736472457
-0.703665835105331,0.453004736605583
-0.694694145809641,0.450695756405939
-0.685783398512016,0.448365958074937
-0.67693335856904,0.446015503813993
-0.668143791337302,0.443644555824521
-0.659414462173388,0.441253276307933
-0.650745136433884,0.438841827465645
-0.642135579475376,0.436410371499069
-0.633585556654451,0.433959070609621
-0.625094833327696,0.431488086998713
-0.616663174851696,0.42899758286776
-0.608290346583039,0.426487720418175
-0.599976113878311,0.423958661851373
-0.591720242094099,0.421410569368767
-0.583522496586988,0.418843605171772
-0.575382642713566,0.4162579314618
-0.567300445830418,0.413653710440267
-0.559275671294132,0.411031104308586
-0.551308084461294,0.40839027526817
-0.54339745068849,0.405731385520434
-0.535543535332307,0.403054597266792
-0.527746103749331,0.400360072708658
-0.520004921296149,0.397647974047445
-0.512319753329347,0.394918463484567
-0.504690365205512,0.392171703221439
-0.49711652228123,0.389407855459473
-0.489597989913088,0.386627082400085
-0.482134533457672,0.383829546244688
-0.474725918271568,0.381015409194695
-0.467371909711364,0.378184833451522
-0.460072273133646,0.375337981216581
-0.452826773894999,0.372475014691286
-0.445635177352011,0.369596096077052
-0.438497248861268,0.366701387575293
-0.431412753779357,0.363791051387421
-0.424381457462864,0.360865249714852
-0.417403125268375,0.357924144758999
-0.410477522552478,0.354967898721276
-0.403604414671757,0.351996673803096
-0.396783566982801,0.349010632205875
-0.390014744842195,0.346009936131025
-0.383297713606526,0.342994747779961
-0.376632238632381,0.339965229354096
-0.370018085276345,0.336921543054844
-0.363455018895006,0.33386385108362
-0.35694280484495,0.330792315641837
-0.350481208482763,0.327707098930909
-0.344069995165032,0.32460836315225
-0.337708930248343,0.321496270507273
-0.331397779089283,0.318370983197394
-0.325136307044438,0.315232663424025
-0.318924279470395,0.312081473388581
-0.312761461723741,0.308917575292475
-0.306647619161061,0.305741131337122
-0.300582517138942,0.302552303723934
-0.294565921013971,0.299351254654327
-0.288597596142734,0.296138146329715
-0.282677307881818,0.29291314095151
-0.276804821587809,0.289676400721126
-0.270979902617293,0.286428087839979
-0.265202316326858,0.283168364509481
-0.259471828073089,0.279897392931047
-0.253788203212573,0.276615335306091
-0.248151207101897,0.273322353836025
-0.242560605097647,0.270018610722265
-0.237016162556409,0.266704268166224
-0.231517644834771,0.263379488369316
-0.226064817289318,0.260044433532956
-0.220657445276636,0.256699265858556
-0.215295294153314,0.25334414754753
-0.209978129275936,0.249979240801294
-0.204705716001089,0.24660470782126
-0.199477819685361,0.243220710808842
-0.194294205685337,0.239827411965455
-0.189154639357604,0.236424973492512
-0.184058886058748,0.233013557591427
-0.179006711145356,0.229593326463615
-0.173997879974014,0.226164442310488
-0.169032157901309,0.222727067333461
-0.164109310283828,0.219281363733948
-0.159229102478156,0.215827493713362
-0.15439129984088,0.212365619473118
-0.149595667728587,0.20889590321463
-0.144841971497864,0.205418507139311
-0.140129976505296,0.201933593448575
-0.13545944810747,0.198441324343836
-0.130830151660973,0.194941862026509
-0.12624185252239,0.191435368698006
-0.12169431604831,0.187922006559742
-0.117187307595318,0.184401937813131
-0.11272059252,0.180875324659587
-0.108293936178943,0.177342329300523
-0.103907103928734,0.173803113937354
-0.0995598611259593,0.170257840771493
-0.0952519731272047,0.166706672004354
-0.090983205289057,0.163149769837352
-0.086753322968103,0.159587296471899
-0.082562091520929,0.156019414109411
-0.0784092763041213,0.1524462849513
-0.0742946426742666,0.148868071198981
-0.0702179559879512,0.145284935053868
-0.0661789816017619,0.141697038717374
-0.0621774848722848,0.138104544390914
-0.0582132311561066,0.134507614275901
-0.0542859858098139,0.13090641057375
-0.0503955141899929,0.127301095485874
-0.0465415816532302,0.123691831213686
-0.0427239535561122,0.120078779958602
-0.0389423952552257,0.116462103922034
-0.0351966721071568,0.112841965305398
-0.0314865494684922,0.109218526310105
-0.0278117926958183,0.105591949137572
-0.0241721671457216,0.101962395989211
-0.0205674381747887,0.0983300290664363
-0.0169973711396059,0.0946950105706618
-0.0134617313967596,0.0910575027033015
-0.00996028430283659,0.0874176676657694
-0.0064927952144232,0.0837756676594791
-0.00305902948810589,0.0801316648858448
0.000341247519528798,0.0764858215462802
0.00370827045189445,0.0728382998421993
0.00704227395240455,0.0691892619750159
0.0103434926644726,0.065538870146144
0.0136121612315122,0.0618872865569974
0.0168485142969368,0.0582346734089902
0.0200527865041598,0.0545811929035361
0.0232252124965949,0.050927007242049
0.0263660269176556,0.0472722786259429
0.0294754644107553,0.0436171692566317
0.0325537596193076,0.0399618413355293
0.0356011471867261,0.0363064570640495
0.0386178617564241,0.0326511786436063
0.0416041379718153,0.0289961682756135
0.044560210476313,0.0253415881614852
0.0474863139133311,0.021687600502635
0.0503826829262828,0.018034367500477
0.0532495521585817,0.0143820513564251
0.0560871562536414,0.0107308142718932
0.0588957298548753,0.00708081844829517
0.0616755076056969,0.00343222608704483
0.0644267241495198,-0.00021480061044378
0.0671496141297575,-0.00386009944275684
0.0698444121898236,-0.00750350820848043
0.0725113529731315,-0.0111448647062007
0.0751506711230946,-0.0147840067345037
0.0777626012831267,-0.0184207720919754
0.0803473780966411,-0.0220549985772022
0.0829052362070515,-0.02568652398877
0.0854364102577713,-0.0293151861252648
0.0879411348922139,-0.0329408227852729
0.0904196447537931,-0.0365632717673805
0.0928721744859222,-0.0401823708701734
0.0952989587320148,-0.0437979578922378
0.0977002321354845,-0.0474098706321599
0.100076229339745,-0.0510179468885257
0.102427184988209,-0.0546220244599213
0.10475333372429,-0.0582219411449329
0.107054910191403,-0.0618175347421465
0.109332149032961,-0.0654086430501482
0.111585284892376,-0.0689951038675242
0.113814552413063,-0.0725767549928605
0.116020186238435,-0.0761534342247432
0.118202421011906,-0.0797249793617585
0.120361491376889,-0.0832912282024924
0.122497631976798,-0.0868520185455311
0.124611077455046,-0.0904071881894605
0.126702062455047,-0.0939565749328669
0.128770821620214,-0.0975000165743363
0.130817589593961,-0.101037350912455
0.132842601019701,-0.104568415745809
0.134846090540847,-0.108093048872984
0.136828292800815,-0.111611088092566
0.138789442443015,-0.115122371203143
0.140729774110864,-0.118626736003298
0.142649522447773,-0.12212402029162
0.144548922097156,-0.125614061866693
0.146428207702428,-0.129096698527104
0.148287613907001,-0.13257176807144
0.150127375354289,-0.136039108298285
0.151947726687705,-0.139498557006227
0.153748902550663,-0.14294995199385
0.155531137586577,-0.146393131059743
0.157294666438859,-0.14982793200249
0.159039723750925,-0.153254192620677
0.160766544166186,-0.156671750712892
0.162475362328057,-0.160080444077719
0.164166412879951,-0.163480110513745
0.165839930465281,-0.166870587819556
0.167496149727462,-0.170251713793738
0.169135305309906,-0.173623326234878
0.170757631856027,-0.17698526294156
0.172363364009239,-0.180337361712372
0.173952736412956,-0.1836794603459
0.17552598371059,-0.18701139664073
0.177083340545555,-0.190333008395447
0.178625041561265,-0.193644133408638
0.180151321401133,-0.196944609478888
0.181662414708572,-0.200234274404785
0.183158556126998,-0.203512965984914
0.184639980299822,-0.206780522017862
0.186106921870458,-0.210036780302213
0.18755961548232,-0.213281578636555
0.188998295778821,-0.216514754819474
0.190423197403376,-0.219736146649555
0.191834554999396,-0.222945591925385
0.193232603210297,-0.22614292844555
0.194617576679491,-0.229327994008635
0.195989710050392,-0.232500626413228
0.197349237966413,-0.235660663457914
0.198696395070969,-0.238807942941279
0.200031416007472,-0.241942302661909
0.201354535419335,-0.245063580418391
0.202665987949974,-0.24817161400931
0.2039660082428,-0.251266241233253
0.205254830941228,-0.254347299888806
0.206532690688671,-0.257414627774555
0.207799822128543,-0.260468062689085
0.209056459904257,-0.263507442430984
0.210302838659226,-0.266532604798836
0.211539193036865,-0.269543387591229
0.212765757680586,-0.272539628606748
0.213982767233803,-0.27552116564398
0.21519045633993,-0.27848783650151
0.216389059642381,-0.281439478977925
0.217578811784568,-0.28437593087181
0.218759947409905,-0.287297029981753
0.219932701161806,-0.290202614106338
0.221097307683684,-0.293092521044152
0.222254001618953,-0.295966588593782
0.223403017611027,-0.298824654553812
0.224544590303318,-0.30166655672283
0.225678954339241,-0.304492132899422
0.226806344362208,-0.307301220882172
0.227926995015634,-0.310093658469669
0.229041140942932,-0.312869283460497
0.230149016787515,-0.315627933653244
0.231250857192797,-0.318369446846494
0.232346896802192,-0.321093660838834
0.233437370259112,-0.32380041342885
0.234522512206973,-0.326489542415128
0.235602557289186,-0.329160885596255
0.236677740149165,-0.331814280770816
0.237748295430325,-0.334449565737398
0.238814457776078,-0.337066578294586
0.239876461829838,-0.339665156240967
0.240934542235019,-0.342245137375127
0.241988933635034,-0.344806359495652
0.243039870673297,-0.347348660401128
0.244087587993221,-0.349871877890141
0.245132320238219,-0.352375849761277
0.246174302051706,-0.354860413813123
0.247213768077094,-0.357325407844264
0.248250952957798,-0.359770669653286
0.24928609133723,-0.362196037038777
0.250319417858804,-0.36460134779932
0.251351167165935,-0.366986439733504
0.252381573902034,-0.369351150639914
0.253410872710517,-0.371695318317135
0.254439298234795,-0.374018780563755
0.255467085118284,-0.376321375178359
0.256494468004396,-0.378602939959533
0.257521681536544,-0.380863312705864
0.258548960358143,-0.383102331215937
0.259576539112607,-0.385319833288339
0.260604652443347,-0.387515656721656
0.261633534993778,-0.389689639314473
0.262663421407314,-0.391841618865378
0.263694546327368,-0.393971433172955
0.264727144397353,-0.396078920035792
0.265761450260684,-0.398163917252474
0.266797698560773,-0.400226262621586
0.267836123941034,-0.402265793941717
0.26887696104488,-0.404282349011451
0.269920444515726,-0.406275765629375
0.270966808996984,-0.408245881594074
0.272016289132068,-0.410192534704135
0.273069119564392,-0.412115562758145
0.274125534937369,-0.414014803554688
0.275185769894413,-0.415890094892351
0.276250059078937,-0.417741274569721
0.277318637134354,-0.419568180385382
0.278391738704079,-0.421370650137923
0.279469598431525,-0.423148521625927
0.280552450960104,-0.424901632647983
0.281640530933232,-0.426629821002675
0.282734072994321,-0.42833292448859
0.283833311786784,-0.430010780904314
0.284938481954036,-0.431663228048433
0.28604981813949,-0.433290103719533
0.287167554986559,-0.4348912457162
0.288291927138657,-0.436466491837021
0.289423169239198,-0.438015679880581
0.290561515931594,-0.439538647645466
0.29170720185926,-0.441035232930264
0.292860461665609,-0.442505273533559
0.294021529994054,-0.443948607253937
0.295190641488009,-0.445365071889986
0.296368030790888,-0.446754505240291
0.297553932546103,-0.448116745103437
0.29874858139707,-0.449451629278013
0.2999522119872,-0.450758995562602
0.301165058959908,-0.452038681755792
0.302387356958606,-0.453290525656168
0.30361934062671,-0.454514365062317
0.304861244607631,-0.455710037772825
0.306113303544785,-0.456877381586277
0.307375752081583,-0.45801623430126
0.30864882486144,-0.459126433716361
0.309932756527769,-0.460207817630164
0.311227781723984,-0.461260223841257
0.312534135093498,-0.462283490148225
0.313852051279725,-0.463277454349655
0.315181764926078,-0.464241954244132
0.316523510675971,-0.465176827630243
0.317877523172818,-0.466081912306573
0.319244037060031,-0.466957046071709
0.320623286981024,-0.467802066724237
0.322015507579211,-0.468616812062744
0.323420933498006,-0.469401119885814
0.324839799380821,-0.470154827992034
0.326272339871071,-0.470877774179991
0.327718789612168,-0.471569796248271
0.329179383247528,-0.472230731995458
0.330654355420562,-0.472860419220141
0.332143940774684,-0.473458695720904
0.333648373953309,-0.474025399296334
0.335167889599849,-0.474560367745017
0.336702722357718,-0.475063438865539
0.338253106870329,-0.475534450456486
0.339819277781097,-0.475973240316444
0.341401469733434,-0.476379646244
0.342999917370754,-0.476753506037739
0.344614855336471,-0.477094657496247
0.346246518273998,-0.477402938418111
0.347895140826749,-0.477678186601917
0.349560957638137,-0.477920239846251
0.351244203351575,-0.478128935949698
0.352945112610478,-0.478304112710846
0.354663920058258,-0.47844560792828
0.356400860338329,-0.478553259400586
0.358156168094106,-0.47862690492635
0.359930077969,-0.478666382304159
0.361722824606426,-0.478671529332598
0.363534642649798,-0.478642183810254
0.365365766742529,-0.478578183535713
0.367216431528031,-0.47847936630756
0.36908687164972,-0.478345569924382
0.370977321751008,-0.478176632184766
0.372888016475309,-0.477972390887296
0.374819190466036,-0.47773268383056
0.376771078366603,-0.477457348813143
0.378743914820424,-0.477146223633632
0.380737934470911,-0.476799146090611
0.382753371961479,-0.476415953982669
0.384790461935541,-0.47599648510839
0.38684943903651,-0.475540577266362
0.388930537907801,-0.475048068255169
0.391033993192826,-0.474518795873398
0.393160039534999,-0.473952597919635
0.395308911577733,-0.473349312192466
0.397480843964443,-0.472708776490478
0.399676071338541,-0.472030828612256
0.401894828343442,-0.471315306356387
0.404137349622558,-0.470562047521456
0.406403869819303,-0.46977088990605
0.408694623577091,-0.468941671308755
0.411009845539335,-0.468074229528157
0.413349770349449,-0.467168402362842
0.415714632650845,-0.466224027611396
0.418104667086939,-0.465240943072405
0.420520108301143,-0.464218986544455
0.422961190936871,-0.463157995826133
0.425428149637536,-0.462057808716025
0.427921219046552,-0.460918263012716
0.430440633807332,-0.459739196514792
0.43298662856329,-0.458520447020841
0.435559437957839,-0.457261852329447
0.438159296634394,-0.455963250239198
0.440786439236366,-0.454624478548678
0.443441100407171,-0.453245375056475
0.446123514790221,-0.451825777561174
0.44883391702893,-0.450365523861362
0.451572541766711,-0.448864451755624
0.454339623646979,-0.447322399042547
0.457135397313146,-0.445739203520716
0.459960097408625,-0.444114702988719
0.462813958576832,-0.44244873524514
0.465697215461178,-0.440741138088566
0.468610102705078,-0.438991749317583
0.471552854951946,-0.437200406730778
0.474525706845193,-0.435366948126736
0.477528893028235,-0.433491211304043
0.477528893028235,-0.433491211304043
0.480512660092897,-0.431587781460047
0.483427332660902,-0.429671389331059
0.486273262420515,-0.427742091024113
0.489050801059996,-0.42579994264624
0.491760300267609,-0.423845000304472
0.494402111731616,-0.421877320105844
0.496976587140278,-0.419896958157387
0.499484078181859,-0.417903970566133
0.501924936544621,-0.415898413439116
0.504299513916826,-0.413880342883368
0.506608161986737,-0.411849815005922
0.508851232442616,-0.409806885913809
0.511029076972725,-0.407751611714064
0.513142047265326,-0.405684048513717
0.515190495008683,-0.403604252419802
0.517174771891057,-0.401512279539352
0.51909522960071,-0.399408185979399
0.520952219825906,-0.397292027846975
0.522746094254907,-0.395163861249114
0.524477204575974,-0.393023742292847
0.526145902477371,-0.390871727085207
0.527752539647358,-0.388707871733227
0.5292974677742,-0.38653223234394
0.530781038546159,-0.384344865024378
0.532203603651496,-0.382145825881573
0.533565514778474,-0.379935171022558
0.534867123615355,-0.377712956554367
0.536108781850403,-0.37547923858403
0.537290841171878,-0.373234073218581
0.538413653268044,-0.370977516565053
0.539477569827163,-0.368709624730478
0.540482942537497,-0.366430453821888
0.541430123087308,-0.364140059946317
0.54231946316486,-0.361838499210796
0.543151314458414,-0.359525827722359
0.543926028656232,-0.357202101588037
0.544643957446578,-0.354867376914865
0.545305452517713,-0.352521709809873
0.5459108655579,-0.350165156380094
0.546460548255401,-0.347797772732562
0.546954852298479,-0.345419614974309
0.547394129375395,-0.343030739212367
0.547778731174413,-0.340631201553769
0.548109009383795,-0.338221058105547
0.548385315691802,-0.335800364974735
0.548608001786698,-0.333369178268364
0.548777419356744,-0.330927554093467
0.548893920090204,-0.328475548557078
0.548957855675339,-0.326013217766227
0.548969577800412,-0.323540617827949
0.548929438153685,-0.321057804849274
0.54883778842342,-0.318564834937238
0.548694980297881,-0.31606176419887
0.548501365465329,-0.313548648741205
0.548257295614026,-0.311025544671275
0.547963122432236,-0.308492508096113
0.54761919760822,-0.30594959512275
0.54722587283024,-0.30339686185822
0.54678349978656,-0.300834364409554
0.546292430165441,-0.298262158883787
0.545753015655146,-0.29568030138795
0.545165607943937,-0.293088848029075
0.544530558720077,-0.290487854914196
0.543848219671828,-0.287877378150346
0.543118942487452,-0.285257473844555
0.542343078855211,-0.282628198103858
0.541520980463369,-0.279989607035287
0.540652999000187,-0.277341756745873
0.539739486153928,-0.274684703342651
0.538780793612854,-0.272018502932652
0.537777273065228,-0.269343211622909
0.536729276199311,-0.266658885520455
0.535637154703367,-0.263965580732322
0.534501260265657,-0.261263353365543
0.533321944574444,-0.258552259527149
0.532099559317991,-0.255832355324175
0.530834456184559,-0.253103696863653
0.529526986862411,-0.250366340252614
0.528177503039809,-0.247620341598092
0.526786356405017,-0.244865757007119
0.525353898646296,-0.242102642586728
0.523880481451908,-0.239331054443951
0.522366456510116,-0.236551048685821
0.520812175509182,-0.233762681419371
0.519217990137369,-0.230966008751633
0.517584252082939,-0.228161086789639
0.515911313034154,-0.225347971640422
0.514199524679277,-0.222526719411016
0.51244923870657,-0.219697386208452
0.510660806804295,-0.216860028139762
0.508834580660715,-0.21401470131198
0.506970911964092,-0.211161461832138
0.505070152402689,-0.208300365807269
0.503132653664768,-0.205431469344405
0.501158767438591,-0.202554828550579
0.499148845412421,-0.199670499532824
0.49710323927452,-0.196778538398171
0.495022300713149,-0.193879001253654
0.492906381416573,-0.190971944206305
0.490755833073053,-0.188057423363156
0.488571007370852,-0.185135494831241
0.486352255998231,-0.182206214717592
0.484099930643453,-0.179269639129241
0.481814382994781,-0.176325824173221
0.479495964740477,-0.173374825956565
0.477145027568803,-0.170416700586304
0.474761923168021,-0.167451504169473
0.472347003226395,-0.164479292813102
0.469900619432187,-0.161500122624226
0.467423123473657,-0.158514049709876
0.46491486703907,-0.155521130177085
0.462376201816688,-0.152521420132886
0.459807479494772,-0.14951497568431
0.457209051761586,-0.146501852938392
0.454581270305391,-0.143482108002163
0.45192448681445,-0.140455796982655
0.449239052977025,-0.137422975986903
0.446525320481379,-0.134383701121937
0.443783641015774,-0.13133802849479
0.441014366268473,-0.128286014212496
0.438217847927737,-0.125227714382087
0.43539443768183,-0.122163185110595
0.432544487219013,-0.119092482505053
0.429668348227548,-0.116015662672493
0.4267663723957,-0.112932781719949
0.423838911411728,-0.109843895754452
0.420886316963897,-0.106749060883035
0.417908940740467,-0.103648333212731
0.414907134429703,-0.100541768850572
0.411881249719866,-0.0974294239035917
0.408831638299218,-0.0943113544788215
0.405758651856022,-0.0911876166832944
0.40266264207854,-0.088058266624043
0.399543960655034,-0.0849233604080997
0.396402959273767,-0.0817829541424972
0.393239989623002,-0.0786371039342682
0.390055403391001,-0.0754858658904451
0.386849552266025,-0.0723292961180604
0.383622787936337,-0.0691674507241469
0.380375462090201,-0.0660003858157371
0.377107926415877,-0.0628281574998635
0.373820532601629,-0.0596508218835587
0.370513632335719,-0.0564684350738553
0.367187577306408,-0.0532810531777859
0.363842719201961,-0.0500887323023832
0.360479409710638,-0.0468915285546793
0.357098000520703,-0.0436894980417073
0.353698843320417,-0.0404826968704995
0.350282289798043,-0.0372711811480886
0.346848691641844,-0.0340550069815071
0.343398400540081,-0.0308342304777875
0.339931768181017,-0.0276089077439626
0.336449146252915,-0.0243790948870648
0.332950886444037,-0.0211448480141267
0.329437340442645,-0.0179062232321809
0.325908859937001,-0.0146632766482599
0.322365796615369,-0.0114160643693965
0.318808502166009,-0.008164642502623
0.315237328277186,-0.00490906715497205
0.31165262663716,-0.00164939443347641
0.308054748934195,0.00161431955483156
0.304444046856552,0.00488201870291924
0.300820872092495,0.008153646903754
0.297185576330285,0.0114291480503033
0.293538511258185,0.0147084660355345
0.289880028564457,0.0179915447524152
0.286210479937364,0.0212783280939127
0.282530217065167,0.0245687599529944
0.278839591636131,0.0278627842226277
0.275138955338515,0.0311603447957802
0.271428659860584,0.0344613855654192
0.267709056890599,0.037765850424512
0.263980498116823,0.0410736832660263
0.260243335227518,0.0443848279829293
0.256497919910946,0.0476992284681886
0.252744603855371,0.0510168286147715
0.248983738749054,0.0543375723156454
0.245215676280257,0.0576614034637779
0.241440768137243,0.0609882659521363
0.237659366008275,0.064318103673688
0.233871821581614,0.0676508605214004
0.230078486545523,0.0709864803882411
0.226279712588265,0.0743249071671774
0.222475851398101,0.0776660847511767
0.218667254663295,0.0810099570332064
0.214854274072108,0.0843564679062341
0.211037261312803,0.0877055612632271
0.207216568073643,0.0910571809971528
0.203392546042889,0.0944112710009787
0.199565546908804,0.0977677751676722
0.19573592235965,0.101126637390201
0.19190402408369,0.104487801561532
0.188070203769186,0.107851211574632
0.184234813104401,0.111216811322471
0.180398203777596,0.114584544698013
0.176560727477035,0.117954355594228
0.172722735890979,0.121326187904083
0.168884580707691,0.124699985520544
0.165046613615433,0.12807569233658
0.161209186302468,0.131453252245158
0.157372650457058,0.134832609139245
0.153537357767466,0.138213706911809
0.149703659921953,0.141596489455817
0.145871908608782,0.144980900664236
0.142042455516215,0.148366884430035
0.138215652332516,0.151754384646179
0.134391850745946,0.155143345205638
0.130571402444767,0.158533710001378
0.126754659117242,0.161925422926367
0.122941972451634,0.165318427873571
0.119133694136204,0.168712668735959
0.115330175859215,0.172108089406498
0.111531769308929,0.175504633778156
0.10773882617361,0.178902245743899
0.103951698141518,0.182300869196696
0.100170736900917,0.185700448029513
0.0963962941400688,0.189100926135318
0.0926287215472359,0.192502247407079
0.0888683708106804,0.195904355737762
0.085115593618665,0.199307195020336
0.0813707416594518,0.202710709147768
0.0776341666213034,0.206114842013025
0.0739062201924819,0.209519537509075
0.07018725406125,0.212924739528884
0.0664776199158697,0.216330391965422
0.0627776694446037,0.219736438711653
0.0590877543357141,0.223142823660548
0.0554082262774635,0.226549490705072
0.0517394369581139,0.229956383738193
0.0480817380659282,0.233363446652879
0.0444354812891682,0.236770623342097
0.0408010183160968,0.240177857698814
0.0371787008349759,0.243585093615999
0.0335688805340682,0.246992274986617
0.0299719091016358,0.250399345703638
0.0263881382259414,0.253806249660027
0.0228179195952469,0.257212930748753
0.0192616048978152,0.260619332862783
0.0157195458219081,0.264025399895085
0.0121920940557885,0.267431075738625
0.0086796012877184,0.270836304286371
0.00518241920596042,0.274241029431292
0.00170089949877666,0.277645195066353
-0.00176460614557022,0.281048745084523
-0.00521374603881823,0.284451623378769
-0.00864616849270457,0.287853773842058
-0.0120615218189673,0.291255140367359
-0.0154594543293436,0.294655666847637
-0.0188396143355716,0.298055297175861
-0.0222016501493885,0.301453975244999
-0.0255452100825323,0.304851644948016
-0.0288699424467402,0.308248250177882
-0.0321754955537503,0.311643734827563
-0.0354615177152998,0.315038042790027
-0.0387276572431269,0.318431117958241
-0.0419735624489685,0.321822904225173
-0.045198881644563,0.32521334548379
-0.0484032631416474,0.32860238562706
-0.0515863552519597,0.331989968547949
-0.0547478062872374,0.335376038139426
-0.0578872645592182,0.338760538294457
-0.0610043783796396,0.342143412906011
-0.0640987960602395,0.345524605867054
-0.0671701659127551,0.348904061070555
-0.0702181362489246,0.35228172240948
-0.0732423553804851,0.355657533776796
-0.0762424716191747,0.359031439065473
-0.0792181332767306,0.362403382168476
-0.0821689886648908,0.365773306978773
-0.0850946860953926,0.369141157389331
-0.087994873879974,0.372506877293119
-0.0908692003303722,0.375870410583103
-0.0937173137583254,0.379231701152252
-0.0965388624755707,0.382590692893531
-0.099333494793846,0.385947329699909
-0.102100859024889,0.389301555464353
-0.104840603480437,0.392653314079832
-0.107552376472228,0.39600254943931
-0.110235826311999,0.399349205435758
-0.112890601311489,0.402693225962141
-0.115516349782434,0.406034554911428
-0.118112720036573,0.409373136176585
-0.120679360385643,0.41270891365058
-0.123215919141381,0.416041831226381
-0.125722044615526,0.419371832796955
-0.128197385119814,0.42269886225527
-0.130641588965984,0.426022863494292
-0.133054304465774,0.429343780406989
-0.13543517993092,0.43266155688633
-0.13778386367316,0.43597613682528
-0.140100004004233,0.439287464116808
-0.142383249235876,0.442595482653881
-0.144633247679826,0.445900136329466
-0.14684964764782,0.449201369036531
-0.149032097451598,0.452499124668043
-0.151180245402896,0.45579334711697
-0.153293739813451,0.459083980276279
-0.155372228995002,0.462370968038938
-0.157415361259287,0.465654254297913
-0.159422784918042,0.468933782946173
-0.161394148283006,0.472209497876685
-0.163329099665915,0.475481342982416
-0.165227287378509,0.478749262156334
-0.167088359732524,0.482013199291405
-0.168911965039697,0.485273098280598
-0.170697751611768,0.48852890301688
-0.172445367760472,0.491780557393219
-0.174154461797549,0.495028005302581
-0.175824682034735,0.498271190637934
-0.177455676783768,0.501510057292246
-0.179047094356386,0.504744549158484
-0.180598583064326,0.507974610129616
-0.182109791219327,0.511200184098609
-0.183580367133125,0.514421214958429
-0.185009959117459,0.517637646602046
-0.186398215484065,0.520849422922425
-0.187744784544682,0.524056487812536
-0.189049314611047,0.527258785165344
-0.190311453994899,0.530456258873818
-0.191530851007973,0.533648852830924
-0.192707153962009,0.536836510929631
-0.193840011168744,0.540019177062906
-0.194929070939915,0.543196795123716
-0.195973981587259,0.546369309005028
-0.196974391422516,0.549536662599811
-0.197929948757422,0.552698799801031
-0.198840301903715,0.555855664501655
-0.199705099173133,0.559007200594652
-0.200523988877412,0.562153351972989
-0.201296619328292,0.565294062529633
-0.202022638837509,0.568429276157551
-0.202701695716801,0.571558936749711
-0.203333438277906,0.574682988199081
-0.203917514832561,0.577801374398628
-0.204453573692504,0.580914039241319
-0.204941263169473,0.584020926620121
-0.205380231575206,0.587121980428003
-0.205770127221439,0.590217144557931
-0.206110598419911,0.593306362902873
-0.206401293482358,0.596389579355797
-0.20664186072052,0.599466737809669
-0.206831948446133,0.602537782157458
-0.206971204970936,0.60560265629213
-0.207059278606665,0.608661304106653
-0.207095817665058,0.611713669493995
-0.207080470457854,0.614759696347123
-0.207012885296789,0.617799328559004
-0.206892710493601,0.620832510022606
-0.206719594360028,0.623859184630896
-0.206493185207808,0.626879296276841
-0.206213131348678,0.62989278885341
-0.205879081094375,0.63289960625357
-0.205490682756638,0.635899692370287
-0.205047584647205,0.638892991096529
-0.204549435077812,0.641879446325265
-0.203995882360197,0.64485900194946
-0.203386574806098,0.647831601862083
-0.202721160727253,0.650797189956101
-0.201999288435399,0.653755710124482
-0.201220606242274,0.656707106260192
-0.200384762459616,0.6596513222562
-0.199491405399161,0.662588302005473
-0.198540183372649,0.665517989400977
-0.197530744691816,0.668440328335682
-0.196462737668399,0.671355262702553
-0.195335810614138,0.674262736394559
-0.194149611840769,0.677162693304666
-0.19290378966003,0.680055077325843
-0.191597992383658,0.682939832351057
-0.190231868323392,0.685816902273275
-0.188805065790969,0.688686230985464
-0.187317233098126,0.691547762380592
-0.185768018556601,0.694401440351627
-0.184157070478132,0.697247208791536
-0.182484037174456,0.700085011593285
-0.180748566957312,0.702914792649844
-0.178950308138436,0.705736495854179
-0.177088909029566,0.708550065099257
-0.17516401794244,0.711355444278046
-0.173175283188796,0.714152577283513
-0.171122353080371,0.716941408008627
-0.169004875928903,0.719721880346354
-0.16682250004613,0.722493938189661
-0.164574873743788,0.725257525431516
-0.162261645333616,0.728012585964887
-0.159882463127352,0.730759063682741
-0.157436975436733,0.733496902478045
-0.154924830573496,0.736226046243767
-0.152345676849379,0.738946438872874
-0.149699162576121,0.741658024258334
-0.146984936065458,0.744360746293114
-0.144202645629128,0.747054548870182
-0.141351939578869,0.749739375882504
-0.138432466226419,0.752415171223049
-0.135443873883514,0.755081878784783
-0.132385810861894,0.757739442460675
-0.129257925473294,0.760387806143691
-0.126059866029454,0.7630269137268
-0.12279128084211,0.765656709102968
