-0.598420461540929,-0.267171782101444
0.59586003552865,0.993907497369627
0.993910202865464,0.285577115992628
0.592046345346362,0.456899521607084
0.19018248782726,0.628221927221541
0.534122058766491,-0.502532912866577
0.875819606512705,-0.828090610277859
