0.232861041614233,-0.937459069571764
0.235825687795122,-0.935155499697746
0.238755132726426,-0.93282822891421
0.241649478876623,-0.930477372099547
0.244508828714193,-0.928103044132147
0.247333284707613,-0.925705359890401
0.250122949325362,-0.923284434252699
0.25287792503592,-0.920840382097432
0.255598314307765,-0.91837331830299
0.258284219609376,-0.915883357747764
0.260935743409231,-0.913370615310143
0.263552988175809,-0.910835205868519
0.266136056377589,-0.908277244301282
0.26868505048305,-0.905696845486823
0.271200072960669,-0.903094124303531
0.273681226278927,-0.900469195629797
0.276128612906302,-0.897822174344012
0.278542335311272,-0.895153175324567
0.280922495962316,-0.892462313449851
0.283269197327913,-0.889749703598255
0.285582541876542,-0.88701546064817
0.287862632076681,-0.884259699477986
0.290109570396809,-0.881482534966093
0.292323459305404,-0.878684081990882
0.294504401270947,-0.875864455430744
0.296652498761914,-0.873023770164069
0.298767854246785,-0.870162141069247
0.300850570194039,-0.867279683024669
0.302900749072155,-0.864376510908725
0.30491849334961,-0.861452739599806
0.306903905494884,-0.858508483976302
0.308857087976456,-0.855543858916603
0.310778143262804,-0.852558979299101
0.312667173822407,-0.849553960002186
0.314524282123743,-0.846528915904247
0.316349570635292,-0.843483961883675
0.318143141825532,-0.840419212818862
0.319905098162942,-0.837334783588197
0.321635542116001,-0.834230789070071
0.323334576153187,-0.831107344142874
0.325002302742978,-0.827964563684997
0.326638824353855,-0.824802562574831
0.328244243454295,-0.821621455690765
0.329818662512777,-0.818421357911189
0.33136218399778,-0.815202384114496
0.332874910377782,-0.811964649179075
0.334356944121263,-0.808708267983316
0.335808387696701,-0.80543335540561
0.338619914217362,-0.79882839561792
0.339980202099544,-0.795498578164715
0.341310309687597,-0.792150688843126
0.342610339450001,-0.788784842531542
0.343880393855234,-0.785401154108354
0.345120575371775,-0.781999738451951
0.346330986468103,-0.778580710440726
0.347511729612696,-0.775144184953067
0.348662907274034,-0.771690276867366
0.349784621920595,-0.768219101062014
0.350876976020857,-0.764730772415399
0.351940072043299,-0.761225405805914
0.352974012456401,-0.757703116111947
0.353978899728641,-0.754164018211891
0.354954836328497,-0.750608226984135
0.355901924724448,-0.74703585730707
0.356820267384974,-0.743447024059086
0.357709966778552,-0.739841842118574
0.358571125373661,-0.736220426363923
0.359403845638781,-0.732582891673526
0.360208230042389,-0.728929352925772
0.360984381052965,-0.725259924999051
0.361732401138988,-0.721574722771753
0.362452392768935,-0.717873861122271
0.36380870053452,-0.710425619070311
0.364445221607115,-0.706678468424614
0.365054124097549,-0.702916117870294
0.365635510474302,-0.699138682285741
0.366189483205853,-0.695346276549344
0.36671614476068,-0.691539015539495
0.367215597607261,-0.687717014134585
0.368133287049603,-0.68002924965314
0.369308317613245,-0.668389921927769
0.369646670048408,-0.664481890598687
0.369958531054677,-0.660559923023275
0.37024400310053,-0.656624134079926
0.370503188654447,-0.652674638647029
0.371124051049364,-0.640745062194956
0.371408405441735,-0.632725584882993
0.371512023882084,-0.628696262959008
0.371590073109848,-0.62465403869421
0.371642655593504,-0.620599026966987
0.371669873801532,-0.61653134265573
0.371671830202411,-0.61245110063883
0.371648627264619,-0.608358415794678
0.371600367456635,-0.604253403001664
0.371527153246937,-0.600136177138177
0.371429087104005,-0.596006853082609
0.371306271496317,-0.59186554571335
0.371158808892352,-0.587712369908791
0.370986801760588,-0.583547440547322
0.370790352569504,-0.579370872507333
0.370569563787579,-0.575182780667215
0.370324537883292,-0.570983279905359
0.370055377325121,-0.566772485100154
0.369762184581545,-0.562550511129992
0.369104112412094,-0.554073485208356
0.368739437923175,-0.549818663013663
0.368351141122767,-0.545553121167575
0.367939324479348,-0.541276974548481
0.367504090461395,-0.536990338034772
0.367045541537389,-0.532693326504839
0.366563780175808,-0.528386054837071
0.36605890884513,-0.52406863790986
0.365531030013835,-0.519741190601596
0.3649802461504,-0.51540382779067
0.363810373201029,-0.50669981517439
0.36319148905205,-0.502333395125818
0.362550109744847,-0.497957519088146
0.361886337747898,-0.493572301939762
0.36049202555868,-0.484774303824427
0.359761690303367,-0.480361752614256
0.359009372232224,-0.475940319806936
0.358235173813729,-0.471510120280858
0.357439197516361,-0.467071268914412
0.356621545808598,-0.462623880585989
0.35578232115892,-0.45816807017398
0.354921626035805,-0.453703952556774
0.354039562907732,-0.449231642612763
0.352211742510626,-0.440262905257884
0.350299679715432,-0.431262777136468
0.349312313589748,-0.426751228734285
0.348304194269979,-0.422232177275638
0.347275424224602,-0.417705737638919
0.345156341830942,-0.408631153344825
0.344066234419616,-0.404083238444231
0.342955886156598,-0.399528394879126
0.341825399510367,-0.394966737527901
0.3406748769494,-0.390398381268946
0.339504420942178,-0.385823440980652
0.338314133957178,-0.381242031541409
0.337104118462879,-0.376654267829607
0.33587447692776,-0.372060264723638
0.3346253118203,-0.367460137101891
0.333356725608977,-0.362853999842757
0.332068820762271,-0.358241967824626
0.330761699748659,-0.353624155925889
0.329435465036621,-0.349000679024936
0.328090219094636,-0.344371652000158
0.325343103394737,-0.335097407092689
0.32394143857378,-0.330452418966778
0.322521172396791,-0.325802340230604
0.321082407332248,-0.321147285762557
0.31962524584863,-0.316487370441027
0.318149790414415,-0.311822709144405
0.316656143498082,-0.307153416751082
0.31514440756811,-0.302479608139448
0.313614685092977,-0.297801398187893
0.312067078541163,-0.293118901774807
0.310501690381145,-0.288432233778583
0.308918623081403,-0.283741509077609
0.305699860936662,-0.274348349074974
0.302411611854768,-0.264940340794028
0.299054695583551,-0.255518403261894
0.297350743423143,-0.250802498222608
0.295629931870841,-0.246083455505696
0.293892363395122,-0.241361389989549
0.290367365547353,-0.231908650073111
0.28858014111226,-0.227178205429601
0.286776569627666,-0.222445197500418
0.284956753562049,-0.217709741163952
0.281268797561664,-0.208231942782734
0.277517092858935,-0.198745729313069
0.273702459201691,-0.189252019782082
0.271771800186323,-0.184502641189569
0.269825716337762,-0.179751733216897
0.267864310124488,-0.174999410742456
0.265887684014979,-0.170245788644636
0.263895940477713,-0.165490981801829
0.259867510993828,-0.155978273394813
0.257831029984165,-0.151220601587385
0.253714047771795,-0.141703197156642
0.251633751506045,-0.136943694290108
0.249539055091889,-0.132183810827319
0.247430060997806,-0.127423661646666
0.245306871692276,-0.122663361626539
0.243169589643777,-0.117903025645329
0.241018317320787,-0.113142768581426
0.238853157191785,-0.10838270531322
0.236674211725251,-0.103622950719103
0.234481583389662,-0.0988636196774648
0.232275374653498,-0.0941048270666954
0.230055687985237,-0.0893466877651856
0.227822625853358,-0.0845893166513255
0.22557629072634,-0.0798328286035061
0.22331678507266,-0.0750773385001174
0.218758672059235,-0.0655698116401947
0.216460269636446,-0.0608180046404416
0.214149106560912,-0.0560676550986811
0.21182528530111,-0.0513188778933039
0.207140078102621,-0.0418265000052607
0.202405467788808,-0.0323417900034358
0.197622274107501,-0.0228656669149527
0.195212714675234,-0.0181311126591904
0.19279131680653,-0.0133990497669352
0.190358182969867,-0.00866959311657711
0.185457117266581,0.00078104194488518
0.180510337313205,0.0102198734980727
0.175518662857569,0.0196459825158619
0.1730062463626,0.0243539788780058
0.170482913647503,0.029058449971129
0.165403909430836,0.0384563568367502
0.162848442866225,0.0431495628524675
0.160282469955399,0.0478387840856022
0.157706093166838,0.0525239056577634
0.152522537830426,0.0618813903056044
0.147298596604817,0.0712210977688668
0.144671737454761,0.075883997860305
0.142035089237842,0.080542109020427
0.139388754422539,0.0851953163708426
0.13673283547733,0.0898435050331612
0.131392655071111,0.0991243667799459
0.126015367767015,0.108383775233657
0.12331306519946,0.113005147279635
0.120601793312872,0.117620811367172
0.112415186423695,0.131432407095242
0.109669061945761,0.136024090565116
0.106914480491188,0.140609491684598
0.104151544528454,0.145188495575298
0.0986010189524176,0.154326852156788
0.0958136342760731,0.158885975090798
0.0930183049654828,0.163438241282463
0.0874042223154792,0.172521743925199
0.0845856739130233,0.177052750619489
0.0817595907502364,0.181576441057873
0.078926075295597,0.18609270036196
0.0760852300175841,0.19060141365336
0.0675197399280905,0.204081128667534
0.0588919702934682,0.217488793945468
0.0560026853692439,0.221941468553127
0.0531068903694758,0.226385678120974
0.0502046877626423,0.230821307770621
0.0472961800172226,0.235248242623675
0.044381469601695,0.239666367801748
0.0385338506342317,0.248475729619386
0.0356011470192535,0.252866736502169
0.0326626506080822,0.257248474196409
0.0238134292821987,0.270336923363961
0.0208527863710433,0.274680435520121
0.0149157616558134,0.283337814212562
0.0119395847886965,0.287651450992061
0.00895843487321635,0.291954899555894
0.00597241437785197,0.296248045025668
0.00298162577108181,0.300530772522994
-1.38284786151827e-05,0.304802967169481
-0.00601832403287515,0.313315298396376
-0.0150574979742492,0.326001926895665
-0.0211040388762361,0.3344037600866
-0.0241331294041147,0.338587556304319
-0.0271659633586118,0.342759785765685
-0.0332424516735464,0.351069084905796
-0.0362859010970264,0.355205924827759
-0.0393326840732101,0.359330738479809
-0.0454358408097733,0.3675438274606
-0.063814659562562,0.39188251657241
-0.0668868334315355,0.395893924267654
-0.0699613161684254,0.399892156909079
-0.0730380053047529,0.403877099618294
-0.0822802864255744,0.415751039368774
-0.0853647764748653,0.419681673565245
-0.0884509605812004,0.423598443437553
-0.0915387362761008,0.427501234107309
-0.0946280010910879,0.431389930696122
-0.0977186525576828,0.435264418325601
-0.106997902182328,0.446801478674132
-0.113189123268021,0.454419701339326
-0.11628594280621,0.458206522766603
-0.119383431716656,0.461978331085814
-0.122481487530881,0.465735011418568
-0.131778031711435,0.476913135714181
-0.134877330455985,0.480608155317201
-0.137976683761919,0.484287472541811
-0.141075989160759,0.487950972509622
-0.144175144184027,0.491598540342242
-0.150372593229928,0.498845420088348
-0.156568211151792,0.506027192753008
-0.159665077270014,0.509593376733818
-0.162761178201791,0.513142939309096
-0.165856411478644,0.51667576560045
-0.18440385215155,0.537514828196309
-0.190574745898759,0.544322084303172
-0.196738480161038,0.551058259652284
-0.202894235190558,0.557722435216521
-0.218243334025903,0.574061843952786
-0.221305427404264,0.577273772928745
-0.224364706226606,0.580466782931362
-0.227421068024449,0.583640759082246
-0.233524630672726,0.589931150315253
-0.236571626586202,0.593047335640596
-0.239615295601265,0.596144027600644
-0.242655535249436,0.599221111317006
-0.248725316571187,0.605315994505114
-0.25175465330781,0.608333564220079
-0.254780150803626,0.611331066177796
-0.257801706590157,0.614308385499877
-0.260819218198923,0.617265407307929
-0.26984646327385,0.626013538864013
-0.275842527179537,0.631742032894106
-0.284801424452096,0.640177085860487
-0.287777927379442,0.642946260514718
-0.296676613112256,0.651124647176253
-0.299632225778524,0.653807347368411
-0.302582359708326,0.656468141749075
-0.311365114532599,0.664158910324745
-0.314266055263555,0.666608178604668
-0.320027347328161,0.671336651465328
-0.32573382788347,0.675839948470141
-0.331384666154013,0.680119960510792
-0.334188959815163,0.682176825573207
-0.336979031364321,0.684178578478964
-0.350712422787549,0.693368933308981
-0.353414980879147,0.695044976865454
-0.356102589930218,0.696667562795491
-0.358775146093827,0.698236927460554
-0.361432545523042,0.699753307222102
-0.364074684370928,0.701216938441596
-0.366701458790553,0.702628057480497
-0.369312764934981,0.703986900700265
-0.371908498957281,0.70529370446236
-0.384649952594165,0.711055404058866
-0.387150073098084,0.712054934665597
-0.389633894551339,0.713004080344879
-0.39455222491812,0.714752162366939
-0.39698652613778,0.715551571432637
-0.39940411291904,0.716301541016728
-0.401804881414969,0.717002307480673
-0.404188727778631,0.717654107185932
-0.406555548163094,0.718257176493965
-0.408905238721424,0.718811751766234
-0.411237695606686,0.719318069364199
-0.415850492970277,0.720186876983056
-0.418130625754738,0.72054983972687
-0.420393109478397,0.720865490242222
-0.433591566115246,0.72177907277841
-0.437845151446795,0.721715817515651
-0.439944120511231,0.721616294240564
-0.444085892202758,0.721282638210278
-0.446128487135982,0.721048978178001
-0.448152082998267,0.720771078616248
-0.452141862122289,0.720083506350156
-0.456054398799355,0.719221812303687
-0.463644421710746,0.716983622436354
-0.465492352822577,0.716318203375041
-0.469127998578482,0.714861973869264
-0.472682663397822,0.713240131595688
-0.476155516505127,0.711454567445996
-0.484474271069228,0.706286782840442
-0.486074897800151,0.705134452657073
-0.492263529219734,0.700137099764757
-0.493756698963935,0.69879193530927
-0.49522806576999,0.697408913083741
-0.496677525790966,0.695988269449631
-0.498104975179929,0.694530240768398
-0.502254221085408,0.689934208056581
-0.503592589476985,0.688329002801469
-0.506201632813165,0.685010218933251
-0.50994440649599,0.679764655157842
-0.513479738266679,0.674203898489788
-0.514611599368521,0.672281373088887
-0.51571999598128,0.670324771701312
-0.516804824258022,0.668334330688523
-0.518903360415723,0.664252875233146
-0.521871805958809,0.657882803897493
-0.524622528743331,0.651220939453784
-0.527152724902081,0.644273663661454
-0.528715622923371,0.639486736092362
-0.530178432172314,0.634577686264204
-0.531540321873438,0.629548405068663
-0.53339211495163,0.621783185787071
-0.534498071140536,0.616461598824194
-0.536806900020397,0.602664709789175
-0.537875315521891,0.594058027424646
-0.538178017303051,0.591135793314646
-0.538453827646319,0.588187283146169
-0.538924358631444,0.582212380079625
-0.539286077701799,0.576135209116698
-0.539425873151603,0.573058864077741
-0.539538154081913,0.56995766114907
-0.539679756996319,0.563681627068428
-0.539683206298387,0.554087050811118
-0.539544990905845,0.547573074099054
-0.539293394333454,0.540967229394868
-0.538927585805744,0.534271407590245
-0.538446734547248,0.527487499576869
-0.537850009782495,0.520617396246424
-0.537507935217939,0.517150612240951
-0.536305616632346,0.506626167201061
-0.535845799316729,0.503077442384808
-0.535356286696013,0.499508823269512
-0.534287760151548,0.492312847587629
-0.532459659373266,0.48137558585849
-0.531789794136349,0.477692564539602
-0.528805072382999,0.46278044519045
-0.527128101165845,0.455219674132163
-0.525326948687747,0.447591616673646
-0.52437954485851,0.443752946447954
-0.523400784173236,0.439898163706585
-0.521348776846842,0.432141206122663
-0.518032993263636,0.420390834915725
-0.516863910656535,0.416444340670973
-0.50917202089524,0.392470030159084
-0.507776171010528,0.388427293606837
-0.503391341690016,0.376223208664567
-0.495419463118552,0.355644331163316
-0.493724578326265,0.351494872526589
-0.490233468888228,0.343164163008345
-0.484741897393512,0.330592163540907
-0.480909699957702,0.32216296465294
-0.476939613465712,0.313697679077531
-0.470724124426052,0.300936224501021
-0.461946440105499,0.283812296648678
-0.459663761426576,0.279513487735151
-0.454991768021654,0.270896132097791
-0.452602245601788,0.266578058096879
-0.447715630092576,0.257924299537894
-0.445218329309363,0.253589087702741
-0.432187741229888,0.231839157428802
-0.429472079852776,0.227476051684602
-0.426719661579079,0.223109124220673
-0.421104138954198,0.214364749579469
-0.412402582119155,0.201225433756204
-0.40641481741642,0.192453478183427
-0.403364605480439,0.188064485974241
-0.393987405170843,0.174888287993014
-0.380951943968667,0.157307331687346
-0.377597292166653,0.152911401866375
-0.353030289879514,0.122158629264138
-0.349364552007714,0.117770888964854
-0.34565946106599,0.113385235982353
-0.311413241851709,0.0595613075761923
-0.301884563059369,0.0487682851118373
-0.249342074159937,0.0136349481761481
-0.255102254578733,0.0114308191753543
-0.239938687516695,0.00511364664633759
-0.242783748959974,0.020732753570876
-0.205696709960097,-0.0244391692164986
-0.200634709581118,-0.0286233419658114
-0.185137836159927,-0.0453311216932727
-0.150676679536948,-0.057787669469967
-0.183926619269783,-0.0729563874346855
-0.176047089576242,-0.112764989032305
-0.145328576357406,-0.0940982680403496
-0.119500485733607,-0.0900387380147761
-0.10208493405182,-0.101978280496909
-0.0961903823995261,-0.105929686914109
-0.0902509737898264,-0.109866478857119
-0.0715347019931377,-0.152417929976257
-0.0104470682910545,-0.134576871957475
-0.0335688633885759,-0.162139050016728
0.000854626354200062,-0.165540582522946
0.0678746139793842,-0.192457522908733
0.0504903535687034,-0.187346870057421
0.120889343849977,-0.17789039592033
0.139194500618312,-0.230165640666699
0.146602324053019,-0.23770616463158
0.18097423031508,-0.252306718317359
0.179662195403464,-0.239584760414831
0.19774495322417,-0.238465597283033
0.41531450826853,-0.327955844472349
0.43383314390334,-0.33270192848088
0.462002303793572,-0.339586765266836
0.500295797236053,-0.348319280576665
0.569348255962111,-0.362328731646657
0.599743791403456,-0.36782047678135
0.630624351610458,-0.372995620624757
