0.674015343558549,-0.500569288703819
0.675198636202373,-0.500543096791957
0.683428603230347,-0.491783882382587
0.715531623771503,-0.467366614556103
0.670758444532011,-0.466413009514333
0.644682343386393,-0.461621554673175
0.649841242501178,-0.475206456502739
0.638735323485608,-0.524524424241655
0.682096100621896,-0.500765566302534
0.682886422124931,-0.500853231867249
0.665912772755242,-0.54259760928886
0.671185642675862,-0.501934270613369
0.684970175848185,-0.501196224918981
0.722805588749493,-0.491949646389214
0.704019541137148,-0.490639754290889
0.735151867664752,-0.528653269679954
0.687087409062848,-0.501833707844024
0.656080555896359,-0.54530516144415
0.687867059960812,-0.502226526648176
0.694354176952637,-0.506705842063444
0.660938063775898,-0.4625563858849
0.688693285471663,-0.502904434535586
0.688878130427986,-0.503153355391553
0.71940716959819,-0.461914528605336
0.684935680514562,-0.457287821337579
0.644224529057509,-0.454461943968611
0.722079632688059,-0.467822482049547
0.678852958843723,-0.539747587552541
0.728451981251607,-0.477295833744373
0.683232118745637,-0.470030996406862
0.688761666551224,-0.50553278154876
0.657054763111381,-0.542873619304956
0.668133422893716,-0.501709201912383
0.651940744124087,-0.501020140414532
0.703108308294239,-0.506298907945553
0.65187237336974,-0.518452369363061
0.685734484996545,-0.500729999916182
0.68640129364489,-0.508131954425327
0.685897197219468,-0.508538954752585
0.637560124594677,-0.552295811169142
0.642066604436249,-0.497897433972972
0.64917094663265,-0.537412725626551
0.683473260867899,-0.510249217304233
0.671029112337271,-0.463336167367009
0.715255120093362,-0.469817712236512
0.698091413813927,-0.521448798897742
0.653933976396077,-0.538082961358478
0.704857264215579,-0.555915085323063
0.678641379638355,-0.513042245102038
0.631000608540791,-0.549569332427868
0.676719585513242,-0.514028385921513
0.635124786868321,-0.560253701491941
0.666735070411788,-0.47889070097432
0.635342127745631,-0.477345501027706
0.6724208867981,-0.516075008632947
0.671252812035579,-0.516601136516796
0.670047862244063,-0.517132705105632
0.705598238022422,-0.493323622094529
0.648486229693947,-0.471631975885292
0.6544328079342,-0.486468763643417
0.706580998285668,-0.517238217183902
0.663478475430295,-0.519866065519955
0.659238696204373,-0.522222101664869
0.706318027548066,-0.533113153528478
0.70821903627479,-0.550358487672586
0.62194601652637,-0.516436739265827
0.658542419935215,-0.487172903172953
0.654429018267101,-0.523289256742438
0.661185396542749,-0.48043988310759
0.683337311927439,-0.532845719141253
0.633436187468092,-0.550726119376671
0.629189025567904,-0.500908684032037
0.613697215780731,-0.480614540373171
0.62932721936665,-0.501475552880979
0.642329588603156,-0.527432839134144
0.640470088688155,-0.528034704263848
0.638578563789151,-0.528638528324445
0.599387553123481,-0.560629035843558
0.632625304796541,-0.520098471675128
0.61694099753542,-0.527947648921649
0.665065485466112,-0.518198897011848
0.582650016720642,-0.515675207249506
0.626570469857027,-0.532292861269338
0.661386527001701,-0.516809036704981
0.622322565442939,-0.533518751676842
0.642359836500037,-0.505999243337442
0.615470511651673,-0.579972101158318
0.607884178180849,-0.517652785528939
0.613470587067671,-0.535973845372834
0.599953490587634,-0.528238531875522
0.621750248664713,-0.508451011239604
0.630493702473479,-0.496823642993116
0.604156649416259,-0.538424071512559
0.60175780263338,-0.539034561826539
0.629991587186971,-0.5856894787442
0.587195872399136,-0.586095305298499
0.618017497392272,-0.587778112802772
0.591888241089249,-0.541463035537509
0.626628495069701,-0.577802443429338
0.586792350701107,-0.542666742624161
0.616430157781808,-0.578047069955589
0.581591640592911,-0.543861572918741
0.578952584399417,-0.544455224047243
0.569305028912156,-0.592032699972791
0.555561093627798,-0.505827834797704
0.528476148171696,-0.529970014952971
0.568144010415284,-0.546800673032883
0.56537999212796,-0.547378875953678
0.562591708928619,-0.547953466966818
0.540677618394229,-0.549277477951631
0.556943317802883,-0.549091116915314
0.555513790367821,-0.575594421282153
0.551200777056074,-0.550212230168733
0.569865930693254,-0.518236138371022
0.545366026706188,-0.551315414017437
0.542414679185715,-0.55185984719326
0.539441006771222,-0.552399275751791
0.542680930344316,-0.544649540102931
0.574133506046512,-0.544438793941949
0.530388465186113,-0.553985792836581
0.540574401732059,-0.544006204498648
0.545970871057244,-0.568935752348105
0.521143729635805,-0.55552100117237
0.536325836045637,-0.589756766336072
0.515025427804409,-0.559874849320461
0.508123318819518,-0.567534099568309
0.475388553338529,-0.561660437906652
0.488336408369168,-0.52029846400847
0.502103866882541,-0.558418690016847
0.501179355110767,-0.55635510727316
0.477651407907178,-0.603375868325868
0.492321834801063,-0.559771769735482
0.525236848709364,-0.510708076838591
0.485707851619525,-0.560635162846245
0.455344831934032,-0.529120195450651
0.459185969726026,-0.516272972270495
0.475652784201379,-0.561868780685804
0.519530117912063,-0.592952905870479
0.470980291346818,-0.594748533243967
0.465442625662218,-0.563024454204552
0.503252112355341,-0.593378274583877
0.458552924932208,-0.56374927963387
0.443486790204681,-0.563866122080924
0.45159914486007,-0.564435981368734
0.490867672352732,-0.612378533174466
0.458089801759261,-0.517555032449336
0.452259934840083,-0.539425320325978
0.473101181732264,-0.61223058945682
0.421200949142215,-0.531408240885115
0.479875810851627,-0.531975776169432
0.386683754386277,-0.58202513297808
0.471882923153104,-0.520556272373268
0.419566169409171,-0.567017016429599
0.403717895099184,-0.604876120588307
0.405938819706015,-0.595498826184986
0.403126185521299,-0.563798996675015
0.404971622919734,-0.5678740935837
0.377185715980766,-0.545860877396327
0.387004508735209,-0.591189730356671
0.368710379331215,-0.537746159116674
0.357783593807582,-0.616447021472529
0.415855524262033,-0.593203717030606
0.382713184176929,-0.568791959915255
0.334918272074039,-0.531571979273291
0.412427847987836,-0.547786173888959
0.369989407647653,-0.576684011612164
0.41650831423889,-0.551614080153845
0.363506826500976,-0.614919719356826
0.357482958682598,-0.59150462431069
0.343147665284562,-0.59176067120311
0.339136983835727,-0.56288361881356
0.348604303004952,-0.569266900342255
0.371300284313502,-0.532594433214102
0.35165964493714,-0.580851933173232
0.3576734371844,-0.573866705920211
0.379171097379949,-0.52696658302032
0.371702167104803,-0.524459409174598
0.305775404923777,-0.521470346295729
0.364168020730294,-0.601527254934297
0.366614715324344,-0.577465115799863
0.304213763320443,-0.528538442002232
0.309882472420881,-0.568387508567265
0.344791642060469,-0.595563060992617
0.311829969206853,-0.596057887815886
0.253994869018685,-0.597619378178405
0.340961991842147,-0.595635518905316
0.33490323952981,-0.552270008281418
0.279373867048896,-0.552858589076424
0.282386737268034,-0.566800871530606
0.278438346166138,-0.566504749435505
0.27448557533669,-0.566190740158967
0.27052866728194,-0.565858669612287
0.227714207862779,-0.538043505914011
0.26260340950553,-0.565139648353683
0.213339704497573,-0.571252186432569
0.289454400450278,-0.602350751915574
0.271071884282859,-0.577877177976721
0.221572918155662,-0.576399530130075
0.242734838779179,-0.563013836770366
0.213529405945554,-0.561617310100489
0.260771301880345,-0.538321047605116
0.257273449499314,-0.56863906913618
0.226798977453095,-0.560964060399917
0.237154144834534,-0.571674755085858
0.182580760301095,-0.558125932003645
0.214833347118427,-0.559215758919271
0.210843480954088,-0.558591878675905
0.216989694388844,-0.563696235751057
0.160584225721007,-0.536997694325826
0.19887330933421,-0.556594461454491
0.225410084572964,-0.591974315177899
0.221667874268693,-0.51610651080381
0.186907370571287,-0.554404723633304
0.182920796629023,-0.553631260701226
0.178935663013196,-0.552835732458799
0.172083025925077,-0.596590609291459
0.131336380870211,-0.592223241746407
0.172537776307138,-0.532641764101356
0.154554244405281,-0.56515075797581
0.171250707608565,-0.54231960606719
0.196987577515488,-0.554450552594596
0.151100427031627,-0.546634582620851
0.193648878053338,-0.592414217784046
0.114238708958457,-0.540875631900546
0.139216895303906,-0.543628558450316
0.152990645340916,-0.586716338252773
0.179082142198418,-0.590702378962304
0.12737033423683,-0.540406711704881
0.123430827927336,-0.53928398980358
0.115900257108521,-0.550823695219203
0.0737140044288551,-0.502733714572517
0.131446924300746,-0.559279641424618
0.107726006313666,-0.534544594902143
0.103814314327574,-0.533296748909202
0.128804209181817,-0.506889434339637
0.0960100439719255,-0.530724241581289
0.0498588825528389,-0.567369360381255
0.0554438084427984,-0.573420577529093
0.12074534329275,-0.543139624700738
0.111028484596788,-0.519925354142507
0.0766221809509174,-0.523836759626775
0.0727676019992457,-0.522379662474567
0.118824897728792,-0.543016789413697
0.0689166287390012,-0.474101860691039
0.0427760152944296,-0.489604240399297
0.041386403945092,-0.509863473022423
0.0911017122063984,-0.508535305092152
0.06798709464659,-0.483408942033845
0.0229854631351929,-0.514339122757006
0.0388220190467528,-0.544177329010377
0.069434390820652,-0.475548397901418
0.034714496772123,-0.506298277641855
0.0271060426643529,-0.478616500337085
0.0129559582477378,-0.514042671060313
0.0700923453067119,-0.51104470048988
0.0197780260890979,-0.499072413604705
0.036049921280936,-0.464448209811776
0.0123785732641055,-0.495283915725282
0.0497295225552112,-0.504009975320805
0.0283598420888818,-0.487914014367967
0.0305462524025458,-0.51526966568871
-0.0409485460793125,-0.453360287567964
-0.0529555671316852,-0.523784741188674
-0.00522251341995182,-0.526743004408494
-0.013125301854571,-0.48107868926966
-0.0167154208391436,-0.478926988577063
-0.0671343985983467,-0.438101366677473
-0.0197519704634604,-0.513930664955061
-0.0274005051233701,-0.472284482606506
-0.0536228916676455,-0.493475306710613
-0.0840747643065593,-0.429038744392989
-0.0763878108465478,-0.487429603159267
-0.0414392611895424,-0.46298403291767
-0.062945195777567,-0.44323335796995
-0.0975802300866802,-0.459980684555444
-0.0518038234258391,-0.45566977125031
-0.0770285310616548,-0.457740397266986
-0.0383713203155024,-0.455526393234992
-0.062020106468935,-0.448059780292611
-0.0945312694558881,-0.467734574571792
-0.0866604252834966,-0.488110173732292
-0.0720815627580919,-0.440149359649548
-0.0753998438986595,-0.437444978202268
-0.0786999520575692,-0.434706519324018
-0.0825872081163571,-0.3884447654469
-0.0640247129527388,-0.426029290723401
-0.0884888136218527,-0.4262849372164
-0.100270989436077,-0.415177762502444
-0.0949194105485086,-0.420496970363552
-0.0981053882702279,-0.417550391036682
-0.119864924585962,-0.431546467738802
-0.057733927067591,-0.401702442144817
-0.135042680896144,-0.420627086148637
-0.134393988560878,-0.408141749018746
-0.116660908762528,-0.399165794343076
-0.166621389602209,-0.433074157424853
-0.11983727826894,-0.395926297327856
-0.0916577965887893,-0.386335229172735
-0.0901658114763026,-0.3949139585419
-0.138119034523005,-0.396128160160232
-0.131786339885489,-0.382770179500505
-0.134717866489874,-0.379388557696293
-0.137626612569858,-0.375969550775723
-0.140512335623193,-0.37251298465009
-0.143374793147629,-0.369018685230688
-0.191664334086004,-0.372462401737554
-0.149028941600804,-0.361916190155762
-0.112039245306996,-0.404712746590921
-0.152939578710958,-0.393836807545878
-0.157329610257584,-0.350975095622496
-0.125096026590528,-0.380578148171457
-0.168565619924361,-0.382447824981529
-0.127184132325314,-0.299298842522659
-0.129061367503291,-0.33262805002571
-0.199931715732429,-0.371961409095057
-0.173256945365694,-0.328041204859045
-0.153809235692328,-0.371664606930882
-0.128548543941354,-0.323221853601102
-0.165378200515594,-0.360423947705772
-0.165855148524701,-0.265891266435931
-0.213732319159274,-0.325545448983377
-0.212078751121195,-0.320677434040343
-0.190644170581187,-0.299470441323807
-0.216660550982412,-0.298782817553215
-0.223299334609151,-0.307549724161232
-0.244206118603324,-0.285832461684494
-0.220693829821635,-0.286708725843112
-0.233527200292623,-0.318430768234662
-0.249829501011755,-0.281842834548194
-0.225064813789637,-0.291495612666585
-0.233543548082013,-0.298316244286823
-0.19193136497802,-0.236818600708923
-0.240283040295046,-0.226700047563038
-0.177130256420818,-0.257996730342753
-0.185272560959595,-0.196313665269852
-0.226459079739013,-0.264883739889626
-0.221238101209322,-0.236236177891616
-0.240863870628126,-0.18791712190097
-0.267940989742573,-0.215842256243202
-0.227019280817168,-0.221593561242548
-0.259266632530916,-0.224594839744404
-0.247507018385603,-0.208961846632592
-0.249921415957938,-0.20384522212336
-0.203375785911922,-0.233225169569302
-0.227796524512114,-0.153473367066796
-0.237711211005256,-0.191115614396721
-0.212868734373589,-0.136227119934954
-0.24101016943823,-0.180597795572719
-0.258246728598411,-0.215225445977948
-0.230531478579291,-0.176510469433859
-0.203713470341141,-0.161846157748565
-0.244988520270143,-0.206267824172975
-0.245332794813479,-0.178658183185029
-0.255894273838645,-0.172753578411301
-0.277381142141697,-0.144661235868909
-0.252829177874941,-0.136696865309417
-0.234659094936661,-0.172061603989199
-0.25543002357034,-0.125257255453582
-0.2566760266936,-0.119466836444288
-0.23337935706206,-0.0980903205677616
-0.296361047441565,-0.0847421376712764
-0.251427924060296,-0.108573503965113
-0.287644855088006,-0.141811784085784
-0.246732677017707,-0.135492008712219
-0.227749427692405,-0.108808557325651
-0.233708606780313,-0.122030613554646
-0.265305967996186,-0.0714257667078666
-0.266213812664829,-0.065203306952486
-0.2670828716606,-0.0589319722262394
-0.26791290248125,-0.0526115884404218
-0.232336674540767,-0.0258178200938927
-0.269454909588187,-0.0398229773352558
-0.270166400869974,-0.0333544018384981
-0.250692192722569,-0.066176058525062
-0.251147151416888,-0.0651076226642171
-0.27205991560162,-0.013649506507069
-0.272609959133431,-0.00698090482052548
-0.272052919202707,0.0476677520348633
-0.317356549977334,-0.0381952788553828
-0.243472245879127,0.0339533908877572
-0.25061644913833,0.039019173029987
-0.234200090684817,-0.0135325609433723
-0.303302425253245,0.0151693651500731
-0.286184626245483,0.057098822480538
-0.276987698411732,0.0823658446602921
-0.252022455848839,0.0832839008522698
-0.275817130958865,0.0625081339876236
-0.267787885527447,0.068156181114216
-0.263083455384473,0.0698405070326148
-0.267617735898334,0.0557905971351445
-0.246760810875848,0.0741671476926743
-0.264634383201258,0.139867080886625
-0.285339675971108,0.082751372606893
-0.273337613765857,0.0776781728513745
-0.238272149031965,0.15693472919402
-0.275000376980886,0.129504924496648
-0.274684981222916,0.137215438421238
-0.274323767226836,0.14497987588913
-0.303315098155541,0.113842374874185
-0.316004377176845,0.156461469838249
