0.408012760003972,0.105742080978017
-0.957289258131587,0.529184651116665
0.64929094556856,0.460364799818024
0.542035034728277,0.89377975629415
0.434779123887995,1.32719471277028
-0.266116727879825,-0.183208533649834
-0.0553686822628781,-0.0240506553210174
