0.00791174350950863,0.225760121262667
-0.00436759479628736,0.199477621912102
-0.0166165742057674,0.173930150336708
-0.0288225258101461,0.1491062618874
-0.0409727807006381,0.124994511915097
-0.0530546699684579,0.101583455770714
-0.0650555247048202,0.0788616488051692
-0.0769626760009395,0.0568176463693791
-0.0887634549480305,0.0354400038142605
-0.100445192637308,0.0147172764907303
-0.111995220159986,-0.00536198025029448
-0.123400868607279,-0.0248092110578971
-0.134649469070403,-0.0436358605811606
-0.145728352640571,-0.0618533734691681
-0.156624850408999,-0.0794731943710027
-0.1673262934669,-0.0965067679357475
-0.17782001290549,-0.112965538812486
-0.188093339815983,-0.1288609516503
-0.198133605289594,-0.144204451098274
-0.207928140417536,-0.159007481805491
-0.217464276291026,-0.173281488421034
-0.226729344001277,-0.187037915593985
-0.235710674639504,-0.200288207973428
-0.244395599296922,-0.213043810208447
-0.252771449064745,-0.225316166948124
-0.260825555034188,-0.237116722841542
-0.268545248296466,-0.248456922537784
-0.275917859942792,-0.259348210685934
-0.282930721064382,-0.269802031935075
-0.289571162752451,-0.279829830934289
-0.295826516098212,-0.28944305233266
-0.301684112192881,-0.298653140779271
-0.307131282127671,-0.307471540923206
-0.312155356993799,-0.315909697413546
-0.316743667882478,-0.323979054899376
-0.320883545884922,-0.331691058029778
-0.324562322092347,-0.339057151453836
-0.327767327595967,-0.346088779820632
-0.330485893486997,-0.35279738777925
-0.332705350856651,-0.359194419978773
-0.334413030796144,-0.365291321068284
-0.33559626439669,-0.371099535696866
-0.336242382749504,-0.376630508513602
-0.336338716945801,-0.381895684167575
-0.335872598076796,-0.386906507307869
-0.334831357233702,-0.391674422583566
-0.333202325507734,-0.39621087464375
-0.355599993318122,-0.375864356683945
-0.289193626744367,-0.41735744941457
-0.351241595926103,-0.418757064058862
-0.320554911599421,-0.412270943711014
-0.315796891827305,-0.415821749429877
-0.220150064018474,-0.528449535750916
-0.159369978467067,-0.534980359828264
-0.297489330862299,-0.425543173256712
-0.398569708637453,-0.530288857793286
-0.395705035210494,-0.53852147660156
-0.405784111915204,-0.362898650926983
-0.30576223716852,-0.389036965905882
-0.330974644477684,-0.290769323705983
-0.125645091797176,-0.304975882444336
-0.220396916012626,-0.457568062219354
-0.342027794572542,-0.549688725508151
-0.258645310322414,-0.402166286355105
-0.0866514230625584,-0.356061757967746
-0.275382747387212,-0.551288545934911
-0.257920702557753,-0.311941641102307
-0.042713109650016,-0.568034293411828
-0.112973061843567,-0.482761765259585
-0.118777104051706,-0.479242115656073
0.0204679107386232,-0.38342300577665
0.0379616543702992,-0.363101418027883
-0.0430295555629979,-0.470407709959599
-0.130736849903623,-0.387017858953359
-0.116434076327166,-0.368024481947688
0.127284018141557,-0.419303099453119
0.160733615689753,-0.540601856978269
0.106411745766724,-0.527950291546441
0.24043563470852,-0.560954541277643
0.0411418735992922,-0.390369960098519
0.245345230962202,-0.653660408596381
0.192559462374015,-0.498089794352514
0.118122461957976,-0.59913677910455
0.223214729303344,-0.543954393566399
0.289422743088074,-0.510154943176441
0.350014115090625,-0.552913621884705
0.343194627473812,-0.493157287916416
0.410237857913716,-0.558675198461508
0.482682468434395,-0.54695860511526
0.424771138956493,-0.529885057363924
0.51270207984201,-0.540395955015192
0.520755084007109,-0.587475995633675
0.592179468132993,-0.510723701430022
0.639802256956299,-0.559189829080504
0.717192746877933,-0.597247239073641
0.776324463487828,-0.552878914880578
0.796942831777978,-0.617238218119644
0.826070860413701,-0.588752055363303
0.875722774355373,-0.597023146653316
0.926633931345546,-0.60566934112922
