0.0709029308250475,0.0297338456390044
0.0718160963918681,0.0288419908179675
0.0727121905921923,0.0279720825518712
0.0735912593197989,0.0271239374057482
0.0744533484684666,0.0262973719446313
0.0752985039319743,0.0254922027335532
0.0761267716041006,0.0247082463375465
0.0769381973786244,0.0239453193216439
0.0777328271493245,0.0232032382508781
0.0785107068099796,0.0224818196902818
0.0792718822543685,0.0217808802048878
0.0800163993762699,0.0211002363597286
0.0807443040694626,0.0204397047198371
0.0814556422277255,0.0197991018502458
0.0821504597448372,0.0191782443159876
0.0828288025145766,0.018576948682095
0.0834907164307225,0.0179950315136008
0.0841362473870535,0.0174323093755376
0.0847654412773485,0.0168885988329383
0.0853783439953862,0.0163637164508353
0.0859750014349454,0.0158574787942616
0.086555459489805,0.0153697024282497
0.0871197640537436,0.0149002039178323
0.08766796102054,0.0144487998280422
0.0882000962839731,0.014015306723912
0.0887162157378215,0.0135995411704744
0.0892163652758641,0.0132013197327621
0.0897005907918796,0.0128204589758079
0.0901689381796468,0.0124567754646443
0.0906214533329445,0.0121100857643042
0.0910581821455514,0.0117802064398202
0.0914791705112463,0.0114669540562249
0.0918844643238081,0.0111701451785512
0.0922741094770154,0.0108895963718316
0.092648151864647,0.0106251242010989
0.0930066373804817,0.0103765452313858
0.0933496119182984,0.0101436760277249
0.0936771213718756,0.00992633315514899
0.0939892116349924,0.00972433317869073
0.0942859286014272,0.00953749266338281
0.0945673181649591,0.00936562817425795
0.0948334262193668,0.00920855627634881
0.0950842986584289,0.00906609353468811
0.0953199813759244,0.00893805651430852
0.0955405202656319,0.00882426178024276
0.0957459612213303,0.00872452589752352
0.0959363501367982,0.00863866543118348
0.0961117329058146,0.00856649694625533
0.0962721554221581,0.00850783700777179
0.0964176635796075,0.00846250218076555
0.0965483032719416,0.00843030903026928
0.0966641203929392,0.00841107412131569
0.0967651608363791,0.00840461401893748
0.09685147049604,0.00841074528816733
0.0969230952657007,0.00842928449403794
0.0969800810391399,0.00846004820158202
0.0970224737101365,0.00850285297583225
0.0970503191724692,0.00855751538182131
0.0970636633199168,0.00862385198458192
0.097062552046258,0.00870167934914677
0.0970470312452717,0.00879081404054855
0.0970171468107366,0.00889107262381995
0.0969729446364315,0.00900227166399366
0.0969144706161351,0.00912422772610239
0.0968417706436262,0.00925675737517882
0.0967548906126837,0.00939967717625565
0.0966538764170861,0.00955280369436559
0.0965387739506125,0.0097159534945413
0.0964096291070414,0.00988894314181551
0.0962664877801518,0.0100715892012209
0.0961093958637223,0.0102637082377901
0.0959383992515317,0.010465116816556
0.0957535438373589,0.010675631502551
0.0955548755149825,0.0108950688608081
0.0953424401781814,0.0111232454563598
0.0951162837207343,0.0113599778542388
0.09487645203642,0.0116050826194779
0.0946229910190173,0.0118583763171097
0.0943559465623049,0.0121196755121669
0.0940753645600616,0.0123887967696823
0.0937812909060663,0.0126655566546884
0.0934737714940976,0.0129497717322181
0.0931528522179343,0.013241258567304
0.0928185789713552,0.0135398337249788
0.0924709976481391,0.0138453137702752
0.0921101541420648,0.0141575152682259
0.091736094346911,0.0144762547838635
0.0913488641564564,0.0148013488822208
0.09094850946448,0.0151326141283305
0.0905350761647604,0.0154698670872253
0.0901086101510764,0.0158129243239378
0.0896691573172069,0.0161616024035008
0.0892167635569305,0.0165157178909469
0.088751474764026,0.0168750873513089
0.0882733368322722,0.0172395273496194
0.0877823956554479,0.0176088544509112
0.0872786971273319,0.0179828852202168
0.0867622871417029,0.0183614362225691
0.0862332115923397,0.0187443240230008
0.0856915163730211,0.0191313651865444
0.0851372473775258,0.0195223762782327
0.0845704504996327,0.0199171738630984
0.0839911716331204,0.0203155745061742
0.0833994566717678,0.0207173947724928
0.0827953515093536,0.0211224512270869
0.0821789020396567,0.0215305604349892
0.0815501541564557,0.0219415389612323
0.0809091537535295,0.022355203370849
0.0802559467246569,0.0227713702288719
0.0795905789636165,0.0231898561003338
0.0789130963641872,0.0236104775502674
0.0782235448201477,0.0240330511437053
0.0775219702252769,0.0244573934456802
0.0768084184733535,0.0248833210212249
0.0760829354581562,0.025310650435372
0.0753455670734639,0.0257391982531542
0.0745963592130553,0.0261687810396042
0.0738353577707092,0.0265992153597548
0.0730626086402043,0.0270303177786385
0.0722781577153195,0.0274619048612881
0.0714820508898335,0.0278937931727364
0.0706743340575251,0.0283257992780159
0.069855053112173,0.0287577397421594
0.069024253947556,0.0291894311301995
0.0681819824574529,0.0296206900071691
0.0673282845356425,0.0300513329381007
0.0664632060759035,0.030481176488027
0.0655867929720148,0.0309100372219808
0.064699091117755,0.0313377317049948
0.0638001464069031,0.0317640765021016
0.0628900047332376,0.0321888881783339
0.0619687119905374,0.0326119832987245
0.0610363140725814,0.033033178428306
0.0600928568731481,0.0334522901321111
0.0591383862860165,0.0338691349751725
0.0581729482049653,0.0342835295225229
0.0571965885237733,0.0346952903391951
0.0562093531362192,0.0351042339902216
0.0552112879360819,0.0355101770406352
0.05420243881714,0.0359129360554686
0.0531828516731724,0.0363123275997545
0.0521525723979578,0.0367081682385255
0.051111646885275,0.0371002745368145
0.0500601210289028,0.0374884630596539
0.04899804072262,0.0378725503720767
0.0479254518602053,0.0382523530391154
0.0468424003354375,0.0386276876258027
0.0457489320420953,0.0389983706971714
0.0446450928739577,0.0393642188182541
0.0435309287248032,0.0397250485540836
0.0424064854884107,0.0400806764696924
0.041271809058559,0.0404309191301134
0.0401269453290268,0.0407755931003792
0.038971940193593,0.0411145149455225
0.0378068395460362,0.041447501230576
0.0366316892801353,0.0417743685205724
0.035446535289669,0.0420949333805444
0.0342514234684161,0.0424090123755247
0.0330463997101554,0.0427164220705459
0.0318315099086656,0.0430169790306409
0.0306067999577255,0.0433104998208422
0.029372315751114,0.0435968010061825
0.0281281031826097,0.0438756991516946
0.0268742081459914,0.0441470108224112
0.025610676535038,0.0444105525833649
0.0243375542435282,0.0446661409995884
0.0230548871652407,0.0449135926361145
0.0217627211939543,0.0451527240579758
0.0204611022234478,0.045383351830205
0.0191500761475001,0.0456052925178349
0.0178296888598897,0.045818362685898
0.0164999862543956,0.0460223788994272
0.0151610142247965,0.046217157723455
0.0138128186648711,0.0464025157230143
0.0124554454683983,0.0465782694631376
0.0110889405291568,0.0467442355088577
0.00971334974092543,0.0469002304252073
0.00832871899748288,0.0470460707772191
0.00693509419260794,0.0471815731299258
0.00553252122007942,0.04730655404836
0.0041210459736761,0.0474208300975544
0.00270071434717674,0.0475242178425418
0.00127157223436006,0.0476165338483549
-0.000166334470995108,0.0476975946800262
-0.00161295987510999,0.0477672169025887
-0.00306825808420583,0.0478252170810748
-0.00453218320450386,0.0478714117805174
-0.00600468934222534,0.047905617565949
-0.00748573060359142,0.0479276510024026
-0.00897526109482333,0.0479373286549106
-0.0104732349221424,0.0479344670885057
-0.0119796061917698,0.0479188828682208
-0.0134943290099266,0.0478903925590885
-0.0150173574828343,0.0478488127261414
-0.016548645716714,0.0477939599344124
-0.0180881478177869,0.047725650748934
-0.0196358178922743,0.0476437017347389
-0.0211916100463974,0.04754792945686
-0.0227554783863773,0.0474381504803297
-0.0243273770184354,0.047314181370181
-0.0259072600487928,0.0471758386914463
-0.027495081583671,0.0470229390091585
-0.0290907957292908,0.0468552988883503
-0.0306943565918737,0.0466727348940542
-0.0323057182776409,0.0464750635913031
-0.0339248348928136,0.0462621015451296
-0.035551660543613,0.0460336653205664
-0.0371861493362604,0.0457895714826462
-0.0388282553769769,0.0455296365964017
-0.0404779327719839,0.0452536772268656
-0.0421351356275025,0.0449615099390706
-0.043799818049754,0.0446529512980494
-0.0454719341449595,0.0443278178688346
-0.0471514380193404,0.043985926216459
-0.0488382837791177,0.0436270929059553
-0.0505324255305129,0.0432511345023561
-0.0522338173797471,0.0428578675706942
-0.0539424134330415,0.0424471086760022
-0.0556581677966173,0.0420186743833129
-0.0573810345766959,0.0415723812576589
-0.0591109678794983,0.041108045864073
-0.0608479218112459,0.0406254847675877
-0.0625918504781598,0.0401245145332359
-0.0643427079864614,0.0396049517260502
-0.0661004484423716,0.0390666129110633
-0.0678650259521121,0.0385093146533079
-0.0696363946219037,0.0379328735178167
-0.0714145085579679,0.0373371060696224
-0.0731993218665257,0.0367218288737577
-0.0749907886537985,0.0360868584952552
-0.0767888630260075,0.0354320114991478
-0.0785934990893739,0.0347571044504679
-0.0804046509501189,0.0340619539142485
-0.0822222727144638,0.0333463764555221
-0.0840463184886297,0.0326101886393215
-0.0858767423788381,0.0318532070306793
-0.0877134984913099,0.0310752481946283
-0.0895565409322665,0.030276128696201
-0.091405823807929,0.0294556651004304
-0.0932613012245189,0.0286136739723489
-0.0951229272882571,0.0277499718769894
-0.0969906561053651,0.0268643753793844
-0.0988644417820639,0.0259567010445668
-0.100744238424575,0.0250267654375692
-0.102630000139119,0.0240743851234243
-0.104521681031918,0.0230993766671647
-0.106419235209193,0.0221015566338233
-0.108322616777165,0.0210807415884326
-0.110231779842055,0.0200367480960254
-0.112146678510084,0.0189693927216343
-0.114067266887474,0.0178784920302922
-0.115993499080447,0.0167638625870315
-0.117925329195222,0.0156253209568852
-0.119862711338022,0.0144626837048858
-0.121805599615067,0.013275767396066
-0.123753948132579,0.0120643885954585
-0.12570771099678,0.0108283638680961
-0.127666842313889,0.00956750977901141
-0.129631296190129,0.00828164289323714
-0.131601026731721,0.00697057977580592
-0.133575988044886,0.00563413699175061
-0.135556134235845,0.00427213110610371
-0.13754141941082,0.00288437868389808
-0.139531797676031,0.00147069629016626
-0.1415272231377,3.09004899410811e-05
-0.143527649902049,-0.00143519215174489
-0.145533032075297,-0.00292776506985881
-0.147543323763667,-0.00444700169936812
-0.14955847907338,-0.00599308547524
-0.151578452110658,-0.0075661998324419
-0.15360319698172,-0.00916652820594098
-0.155632667792789,-0.0107942540307047
-0.157666818650085,-0.0124495607417002
-0.159705603659831,-0.014132631773895
-0.161748976928246,-0.0158436505622561
-0.163796892561553,-0.0175828005417511
-0.165849304665973,-0.0193502651473471
-0.167906167347727,-0.0211462278140116
-0.169967434713035,-0.0229708719767117
-0.17203306086812,-0.0248243810704149
-0.174102999919202,-0.0267069385300883
-0.176177205972504,-0.0286187277906994
-0.178255633134245,-0.0305599322872153
-0.180338235510647,-0.0325307354546035
-0.182424967207932,-0.0345313207278312
-0.184515782332321,-0.0365618715418658
-0.186610634990034,-0.0386225713316745
-0.188709479287293,-0.0407136035322247
-0.19081226933032,-0.0428351515784835
-0.192918959225336,-0.0449873989054185
-0.195029503078561,-0.0471705289479968
-0.197143854996217,-0.0493847251411858
-0.199261969084526,-0.0516301709199527
-0.201383799449708,-0.053907049719265
-0.203509300197985,-0.0562155449740898
-0.205638425435577,-0.0585558401193946
-0.207771129268707,-0.0609281185901464
-0.209907365803595,-0.0633325638213129
-0.212047089146463,-0.0657693592478611
-0.214190253403532,-0.0682386883047585
-0.216336812681023,-0.0707407344269722
-0.218486721085157,-0.0732756810494697
-0.220639932722155,-0.0758437116072182
-0.22279640169824,-0.078445009535185
-0.224956082119631,-0.0810797582683375
-0.227118928092551,-0.083748141241643
-0.22928489372322,-0.0864503418900686
-0.23145393311786,-0.089186543648582
-0.233626000382691,-0.09195692995215
-0.235801049623936,-0.0947616842357404
-0.237979034947815,-0.09760098993432
-0.240159910460549,-0.100475030482857
-0.242343630268361,-0.103383989316317
-0.24453014847747,-0.106328049869669
-0.246719419194099,-0.10930739557788
-0.248911396524468,-0.112322209875917
-0.251106034574799,-0.115372676198747
-0.253303287451313,-0.118458977981337
-0.255503109260231,-0.121581298658656
-0.257705454107774,-0.12473982166567
-0.259910276100164,-0.127934730437346
-0.262117529343622,-0.131166208408652
-0.264327167944369,-0.134434439014556
-0.266539146008626,-0.137739605690023
-0.268753417642615,-0.141081891870023
-0.270969936952556,-0.144461480989521
-0.273188658044672,-0.147878556483486
-0.275409535025183,-0.151333301786885
-0.27763252200031,-0.154825900334685
-0.279857573076274,-0.158356535561852
-0.282084642359298,-0.161925390903356
-0.284313683955602,-0.165532649794162
-0.286544651971407,-0.169178495669239
-0.288777500512935,-0.172863111963553
-0.291012183686406,-0.176586682112072
-0.293248655598043,-0.180349389549763
-0.295486870354065,-0.184151417711593
-0.297726782060696,-0.18799295003253
-0.299968344824155,-0.191874169947541
-0.302211512750663,-0.195795260891594
-0.304456239946443,-0.199756406299655
-0.306702480517716,-0.203757789606692
-0.308950188570702,-0.207799594247672
-0.311199318211623,-0.211882003657563
-0.3134498235467,-0.216005201271332
-0.315701658682154,-0.220169370523946
-0.317954777724207,-0.224374694850372
-0.320209134779079,-0.228621357685579
-0.322464683952993,-0.232909542464532
-0.324721379352169,-0.2372394326222
-0.326979175082828,-0.241611211593549
-0.329238025251192,-0.246025062813547
-0.331497883963481,-0.250481169717162
-0.333758705325918,-0.25497971573936
-0.336020443444723,-0.25952088431511
-0.338283052426118,-0.264104858879377
-0.340546486376323,-0.26873182286713
-0.342810699401561,-0.273401959713336
-0.345075645608052,-0.278115452852962
-0.347341279102017,-0.282872485720976
-0.349607553989678,-0.287673241752344
-0.351874424377256,-0.292517904382034
-0.354141844370971,-0.297406657045013
-0.356409768077047,-0.30233968317625
-0.358678149601703,-0.30731716621071
-0.360946943051161,-0.312339289583362
-0.363216102531642,-0.317406236729172
-0.365485582149367,-0.322518191083108
-0.367755336010558,-0.327675336080137
-0.370025318221435,-0.332877855155227
-0.372295482888221,-0.338125931743344
-0.374565784117135,-0.343419749279457
-0.3768361760144,-0.348759491198532
-0.379106612686237,-0.354145340935537
-0.381377048238867,-0.359577481925439
-0.38364743677851,-0.365056097603205
-0.385917732411389,-0.370581371403803
-0.388187889243725,-0.3761534867622
-0.390457861381738,-0.381772627113363
-0.392727602931651,-0.38743897589226
-0.394997067999684,-0.393152716533857
-0.397266210692058,-0.398914032473123
-0.399534985114995,-0.404723107145024
-0.401803345374715,-0.410580123984528
-0.404071245577441,-0.416485266426602
-0.406338639829394,-0.422438717906214
-0.408605482236793,-0.428440661858329
-0.410871726905862,-0.434491281717918
-0.413137327942821,-0.440590760919945
-0.415402239453891,-0.446739282899379
-0.417666415545294,-0.452937031091187
-0.41992981032325,-0.459184188930337
-0.422192377893981,-0.465480939851794
-0.424454072363709,-0.471827467290528
-0.426714847838654,-0.478223954681505
-0.428974658425038,-0.484670585459692
-0.431233458229081,-0.491167543060057
-0.433491201357006,-0.497715010917567
-0.435747841915032,-0.504313172467189
-0.438003334009383,-0.510962211143891
-0.438003334009383,-0.510962211143891
-0.440251572681548,-0.517598403557996
-0.442486506167363,-0.524158070215277
-0.444708168364564,-0.530641460393878
-0.44691659317089,-0.537048823371942
-0.449111814484077,-0.543380408427612
-0.451293866201862,-0.549636464839033
-0.453462782221984,-0.555817241884346
-0.455618596442178,-0.561922988841697
-0.457761342760183,-0.567953954989228
-0.459891055073735,-0.573910389605081
-0.462007767280573,-0.579792541967402
-0.464111513278432,-0.585600661354334
-0.466202326965051,-0.591334997044019
-0.468280242238166,-0.596995798314601
-0.470345292995515,-0.602583314444223
-0.472397513134835,-0.60809779471103
-0.474436936553863,-0.613539488393164
-0.476463597150337,-0.618908644768768
-0.478477528821994,-0.624205513115986
-0.480478765466571,-0.629430342712962
-0.482467340981805,-0.634583382837839
-0.484443289265434,-0.63966488276876
-0.486406644215194,-0.644675091783869
-0.488357439728824,-0.649614259161309
-0.49029570970406,-0.654482634179224
-0.492221488038639,-0.659280466115756
-0.4941348086303,-0.664008004249049
-0.496035705376778,-0.668665497857247
-0.497924212175812,-0.673253196218493
-0.499800362925138,-0.677771348610931
-0.501664191522494,-0.682220204312703
-0.503515731865616,-0.686600012601954
-0.505355017852244,-0.690911022756826
-0.507182083380112,-0.695153484055464
-0.50899696234696,-0.699327645776009
-0.510799688650523,-0.703433757196607
-0.51259029618854,-0.7074720675954
-0.514368818858748,-0.711442826250531
-0.516135290558883,-0.715346282440145
-0.517889745186683,-0.719182685442384
-0.519632216639885,-0.722952284535392
-0.521362738816227,-0.726655328997311
-0.523081345613446,-0.730292068106287
-0.524788070929278,-0.733862751140461
-0.526482948661462,-0.737367627377978
-0.528166012707735,-0.740806946096981
-0.529837296965833,-0.744180956575613
-0.531496835333494,-0.747489908092017
-0.533144661708456,-0.750734049924338
-0.534780809988454,-0.753913631350717
-0.536405314071228,-0.7570289016493
-0.538018207854513,-0.760080110098229
-0.539619525236048,-0.763067505975647
-0.54120930011357,-0.765991338559699
-0.542787566384815,-0.768851857128526
-0.544354357947521,-0.771649310960274
-0.545909708699425,-0.774383949333085
-0.547453652538265,-0.777056021525101
-0.548986223361777,-0.779665776814468
-0.550507455067699,-0.782213464479329
-0.552017381553769,-0.784699333797826
-0.553516036717723,-0.787123634048103
-0.555003454457299,-0.789486614508304
-0.556479668670234,-0.791788524456572
-0.557944713254265,-0.79402961317105
-0.559398622107129,-0.796210129929882
-0.560841429126564,-0.798330324011211
-0.562273168210307,-0.800390444693181
-0.563693873256096,-0.802390741253934
-0.565103578161666,-0.804331462971615
-0.566502316824757,-0.806212859124366
-0.567890123143104,-0.808035178990332
-0.569267031014446,-0.809798671847655
-0.570633074336518,-0.811503586974479
-0.57198828700706,-0.813150173648947
-0.573332702923808,-0.814738681149203
-0.574666355984498,-0.81626935875339
-0.575989280086869,-0.817742455739652
-0.577301509128658,-0.819158221386131
-0.578603077007602,-0.820516904970972
-0.579894017621438,-0.821818755772318
-0.581174364867903,-0.823064023068311
-0.582444152644735,-0.824252956137096
-0.583703414849671,-0.825385804256816
-0.584952185380448,-0.826462816705614
-0.586190498134804,-0.827484242761634
-0.587418387010475,-0.828450331703018
-0.588635885905199,-0.829361332807911
-0.589843028716713,-0.830217495354457
-0.591039849342755,-0.831019068620797
-0.592226381681061,-0.831766301885076
-0.593402659629369,-0.832459444425437
-0.594568717085416,-0.833098745520024
-0.59572458794694,-0.833684454446979
-0.596870306111677,-0.834216820484446
-0.598005905477365,-0.83469609291057
-0.599131419941742,-0.835122521003492
-0.600246883402543,-0.835496354041357
-0.601352329757507,-0.835817841302307
-0.602447792904372,-0.836087232064487
-0.603533306740873,-0.836304775606039
-0.604608905164749,-0.836470721205107
-0.605674622073736,-0.836585318139835
-0.606730491365572,-0.836648815688366
-0.607776546937994,-0.836661463128842
-0.60881282268874,-0.836623509739408
-0.609839352515546,-0.836535204798208
-0.61085617031615,-0.836396797583383
-0.611863309988289,-0.836208537373079
-0.612860805429701,-0.835970673445438
-0.613848690538122,-0.835683455078603
-0.61482699921129,-0.835347131550718
-0.615795765346942,-0.834961952139927
-0.616755022842815,-0.834528166124372
-0.617704805596647,-0.834046022782197
-0.618645147506175,-0.833515771391547
-0.619576082469136,-0.832937661230563
-0.620497644383267,-0.832311941577389
-0.621409867146306,-0.831638861710169
-0.622312784655989,-0.830918670907047
-0.623206430810055,-0.830151618446165
-0.62409083950624,-0.829337953605666
-0.624966044642282,-0.828477925663695
-0.625832080115917,-0.827571783898395
-0.626688979824884,-0.826619777587909
-0.627536777666918,-0.825622156010381
-0.628375507539759,-0.824579168443953
-0.629205203341142,-0.82349106416677
-0.630025898968805,-0.822358092456975
-0.630837628320486,-0.82118050259271
-0.631640425293921,-0.81995854385212
-0.632434323786847,-0.818692465513349
-0.633219357697003,-0.817382516854538
-0.633995560922126,-0.816028947153832
-0.634762967359951,-0.814632005689374
-0.635521610908218,-0.813191941739308
-0.636271525464662,-0.811709004581777
-0.637012744927022,-0.810183443494923
-0.637745303193034,-0.808615507756892
-0.638469234160437,-0.807005446645826
-0.639184571726966,-0.805353509439868
-0.639891349790359,-0.803659945417162
-0.640589602248354,-0.801925003855851
-0.641279362998688,-0.800148934034079
-0.641960665939098,-0.798331985229989
-0.64263354496732,-0.796474406721724
-0.643298033981094,-0.794576447787429
-0.643954166878155,-0.792638357705245
-0.644601977556242,-0.790660385753318
-0.64524149991309,-0.788642781209789
-0.645872767846438,-0.786585793352802
-0.646495815254023,-0.784489671460502
-0.647110676033582,-0.782354664811031
-0.647717384082852,-0.780181022682533
-0.64831597329957,-0.77796899435315
-0.648906477581474,-0.775718829101027
-0.649488930826302,-0.773430776204307
-0.650063366931789,-0.771105084941133
-0.650629819795674,-0.768742004589648
-0.651188323315694,-0.766341784427997
-0.651738911389586,-0.763904673734322
-0.652281617915086,-0.761430921786767
-0.652816476789934,-0.758920777863475
-0.653343521911865,-0.75637449124259
-0.653862787178617,-0.753792311202255
-0.654374306487927,-0.751174487020613
-0.654878113737533,-0.748521267975807
-0.655374242825171,-0.745832903345983
-0.65586272764858,-0.743109642409282
-0.656343602105495,-0.740351734443847
-0.656816900093655,-0.737559428727823
-0.657282655510797,-0.734732974539353
-0.657740902254658,-0.73187262115658
-0.658191674222975,-0.728978617857648
-0.658635005313485,-0.726051213920699
-0.659070929423926,-0.723090658623878
-0.659499480452036,-0.720097201245328
-0.65992069229555,-0.717071091063192
-0.660334598852206,-0.714012577355613
-0.660741234019743,-0.710921909400735
-0.661140631695896,-0.707799336476702
-0.661532825778403,-0.704645107861656
-0.661917850165002,-0.701459472833742
-0.66229573875343,-0.698242680671102
-0.662666525441423,-0.69499498065188
-0.66303024412672,-0.69171662205422
-0.663386928707057,-0.688407854156264
-0.663736613080172,-0.685068926236156
-0.664079331143801,-0.68170008757204
-0.664415116795683,-0.678301587442059
-0.664744003933554,-0.674873675124356
-0.665066026455152,-0.671416599897074
-0.665381218258214,-0.667930611038358
-0.665689613240477,-0.664415957826351
-0.665991245299678,-0.660872889539195
-0.666286148333555,-0.657301655455035
-0.666574356239845,-0.653702504852013
-0.666855902916285,-0.650075687008273
-0.667130822260612,-0.646421451201959
-0.667399148170564,-0.642740046711214
-0.667660914543878,-0.639031722814181
-0.667916155278291,-0.635296728789003
-0.66816490427154,-0.631535313913825
-0.668407195421363,-0.62774772746679
-0.668643062625497,-0.62393421872604
-0.668872539781679,-0.620095036969719
-0.669095660787647,-0.616230431475971
-0.669312459541137,-0.612340651522939
-0.669522969939886,-0.608425946388767
-0.669727225881633,-0.604486565351597
-0.669925261264115,-0.600522757689574
-0.670117109985068,-0.59653477268084
-0.67030280594223,-0.59252285960354
-0.670482383033337,-0.588487267735816
-0.670655875156129,-0.584428246355811
-0.670823316208341,-0.58034604474167
-0.67098474008771,-0.576240912171536
-0.671140180691975,-0.572113097923551
-0.671289671918872,-0.56796285127586
-0.671433247666139,-0.563790421506606
-0.671570941831512,-0.559596057893932
-0.67170278831273,-0.555380009715982
-0.671828821007529,-0.551142526250899
-0.671949073813647,-0.546883856776826
-0.67206358062882,-0.542604250571907
-0.672172375350787,-0.538303956914285
-0.672275491877283,-0.533983225082103
-0.672372964106048,-0.529642304353506
-0.672464825934817,-0.525281444006636
-0.672551111261328,-0.520900893319637
-0.672631853983319,-0.516500901570652
-0.672707087998526,-0.512081718037825
-0.672776847204687,-0.507643591999298
-0.672841165499539,-0.503186772733216
-0.672900076780819,-0.498711509517722
-0.672953614946265,-0.494218051630959
-0.673001813893614,-0.48970664835107
-0.673044707520602,-0.4851775489562
-0.673082329724968,-0.480631002724491
-0.673114714404449,-0.476067258934087
-0.673141895456781,-0.47148656686313
-0.673163906779702,-0.466889175789765
-0.67318078227095,-0.462275334992136
-0.673192555828261,-0.457645293748384
-0.673199261349373,-0.452999301336655
-0.673200932732023,-0.44833760703509
-0.673197603873948,-0.443660460121834
-0.673189308672886,-0.43896810987503
-0.673176081026574,-0.434260805572821
-0.673157954832748,-0.429538796493351
-0.673134963989147,-0.424802331914763
-0.673107142393507,-0.420051661115201
-0.673074523943566,-0.415287033372807
-0.673037142537061,-0.410508697965726
-0.67299503207173,-0.405716904172101
-0.672948226445309,-0.400911901270075
-0.672896759555535,-0.396093938537791
-0.672840665300147,-0.391263265253393
-0.672779977576881,-0.386420130695024
-0.672714730283474,-0.381564784140828
-0.672644957317664,-0.376697474868948
-0.672570692577188,-0.371818452157528
-0.672491969959784,-0.36692796528471
-0.672408823363188,-0.362026263528639
-0.672321286685137,-0.357113596167457
-0.67222939382337,-0.352190212479309
-0.672133178675622,-0.347256361742337
-0.672032675139633,-0.342312293234685
-0.671927917113137,-0.337358256234496
-0.671818938493875,-0.332394500019914
-0.671705773179581,-0.327421273869082
-0.671588455067993,-0.322438827060143
-0.67146701805685,-0.317447408871241
-0.671341496043887,-0.312447268580519
-0.671211922926843,-0.307438655466121
-0.671078332603453,-0.302421818806191
-0.670940758971457,-0.29739700787887
-0.670799235928591,-0.292364471962303
-0.670653797372591,-0.287324460334634
-0.670504477201197,-0.282277222274005
-0.670351309312144,-0.27722300705856
-0.67019432760317,-0.272162063966443
-0.670033565972012,-0.267094642275796
-0.669869058316407,-0.262020991264764
-0.669700838534093,-0.256941360211489
-0.669528940522808,-0.251855998394115
-0.669353398180287,-0.246765155090786
-0.669174245404269,-0.241669079579645
-0.66899151609249,-0.236568021138834
-0.668805244142688,-0.231462229046499
-0.668615463452601,-0.226351952580781
-0.668422207919965,-0.221237441019824
-0.668225511442517,-0.216118943641773
-0.668025407917996,-0.210996709724769
-0.667821931244138,-0.205870988546958
-0.66761511531868,-0.200742029386481
-0.66740499403936,-0.195610081521482
-0.667191601303914,-0.190475394230106
-0.666974971010081,-0.185338216790494
-0.666755137055597,-0.180198798480791
-0.6665321333382,-0.17505738857914
-0.666305993755627,-0.169914236363684
-0.666076752205615,-0.164769591112567
-0.665844442585901,-0.159623702103933
-0.665609098794223,-0.154476818615923
-0.665370754728318,-0.149329189926683
-0.665129444285923,-0.144181065314355
-0.664885201364775,-0.139032694057083
-0.664638059862612,-0.13388432543301
-0.664388053677171,-0.128736208720279
-0.664135216706189,-0.123588593197034
-0.663879582847403,-0.118441728141419
-0.663621185998551,-0.113295862831576
-0.66336006005737,-0.10815124654565
-0.663096238921597,-0.103008128561783
-0.662829756488969,-0.097866758158119
-0.662560646657224,-0.0927273846128011
-0.662288943324099,-0.0875902572039731
-0.662014680387331,-0.082455625209778
-0.661737891744657,-0.0773237379083597
-0.661458611293815,-0.072194844577861
-0.661176872932542,-0.0670691944964258
-0.660892710558574,-0.0619470369421971
-0.66060615806965,-0.0568286211933186
-0.660317249363507,-0.0517141965279335
-0.660026018337882,-0.0466040122241854
-0.659732498890511,-0.0414983175602174
-0.659436724919133,-0.0363973618141733
-0.659138730321485,-0.031301394264196
-0.658838548995303,-0.0262106641884294
-0.658536214838326,-0.0211254208650164
-0.658231761748289,-0.0160459135721009
-0.657925223622932,-0.0109723915878258
-0.65761663435999,-0.00590510419033506
-0.657306027857201,-0.000844300657771482
-0.656993438012303,0.00420976973172101
-0.656678898723032,0.00925685769999951
-0.656362443887126,0.0142967139689201
-0.656044107402322,0.01932908926034
-0.655723923166357,0.0243537342961151
-0.655401925076969,0.0293703997981027
-0.655078147031894,0.0343788364881588
-0.654752622928871,0.0393787950881405
-0.654425386665636,0.044370026319904
-0.654096472139927,0.0493522809053063
-0.65376591324948,0.0543253095662036
-0.653433743892033,0.0592888630244529
-0.653099997965324,0.0642426920019103
-0.652764709367089,0.069186547220433
-0.652427911995066,0.0741201794018771
-0.652089639746992,0.0790433392680996
-0.651749926520604,0.0839557775409566
-0.65140880621364,0.0888572449423053
-0.651066312723837,0.0937474921940018
-0.650722479948931,0.0986262700179032
-0.650377341786661,0.103493329135866
-0.650030932134764,0.108348420269746
-0.649683284890976,0.113191294141401
-0.649334433953035,0.118021701472686
-0.648984413218678,0.12283939298546
-0.648633256585643,0.127644119401577
-0.648280997951667,0.132435631442896
-0.647927671214486,0.137213679831272
-0.647573310271839,0.141978015288562
-0.647217949021463,0.146728388536622
-0.646861621361094,0.15146455029731
-0.64650436118847,0.156186251292482
-0.646146202401328,0.160893242243994
-0.645787178897406,0.165585273873704
-0.645427324574441,0.170262096903466
-0.64506667333017,0.17492346205514
-0.644705259062329,0.17956912005058
-0.644343115668658,0.184198821611643
-0.643980277046892,0.188812317460187
-0.643616777094769,0.193409358318067
-0.643252649710026,0.197989694907141
-0.642887928790401,0.202553077949265
-0.64252264823363,0.207099258166294
-0.642156841937451,0.211627986280088
-0.641790543799602,0.2161390130125
-0.641423787717819,0.22063208908539
-0.64105660758984,0.225106965220611
-0.640689037313401,0.229563392140023
-0.640321110786242,0.234001120565481
-0.639952861906097,0.238419901218841
-0.639584324570705,0.242819484821961
-0.639215532677803,0.247199622096697
-0.638846520125128,0.251560063764905
-0.638477320810418,0.255900560548442
-0.638107968631409,0.260220863169165
-0.637738497485839,0.26452072234893
-0.637368941271445,0.268799888809595
-0.636999333885965,0.273058113273014
-0.636629709227136,0.277295146461046
-0.636260101192694,0.281510739095547
-0.635890543680378,0.285704641898373
-0.635521070587924,0.289876605591381
-0.63515171581307,0.294026380896428
-0.634782513253553,0.29815371853537
