0.383998937652866,0.579013905792743
0.428443679757697,0.601443714123294
0.381148151209463,0.575858276976389
0.393444964811252,0.595296730587231
0.387540842021904,0.56040115304282
0.387504562782431,0.588355012128038
0.389038482240355,0.551075115856814
0.375554443347766,0.547652406759544
0.43116470281812,0.546486204002552
0.390948884709639,0.5370654650748
0.361763064779267,0.502243277089866
0.408962916094496,0.528040211674225
0.392461971987995,0.523035346700696
0.358443743997651,0.488419761699814
0.393253274089238,0.513672922684309
0.393584442594454,0.50898953794746
0.438873761462334,0.507982820130631
0.371536708262684,0.491120171870963
0.430384222398173,0.524754187373162
0.375351191522669,0.46991317023061
0.394605383398381,0.485557964329193
0.441746359011174,0.486720644604741
0.423204080821989,0.486925309219365
0.394718957861725,0.471493669828291
0.441802388327801,0.447898038056347
0.376279528012349,0.417979944131701
0.378933235044332,0.491220675994647
0.377891040307636,0.448573979922197
0.35790608737753,0.401764241207536
0.368244380380434,0.468586487558579
0.400808919111191,0.466549312861911
0.375426703738178,0.439914825099437
0.41548127308417,0.458736128743945
0.363402081307305,0.426065065389109
0.385154300915388,0.415318958363774
0.407373947034856,0.368624513972201
0.399341869802702,0.431963954389059
0.390517157086426,0.405961642293207
0.389929969027488,0.401295132608671
0.352608242245135,0.415593417021015
0.384669817046333,0.359564115069481
0.349454798953518,0.380452165087136
0.38721418345774,0.382659432245518
0.424147716301605,0.350665018997359
0.386244628175681,0.367379446845962
0.384369491537676,0.404904566749558
0.386069467327223,0.335238125497899
0.383012233491374,0.3594463381713
0.356948952014052,0.404576435053304
0.350652283089358,0.358280839100379
0.380072455720939,0.345570457952325
0.411495641939771,0.299848812397457
0.377942318849518,0.336344476797211
0.358615470511289,0.306132802778867
0.37567826949597,0.327139831550383
0.374496647871641,0.322545952227109
0.39250677084692,0.324847188471421
0.410867843168225,0.293868533348046
0.322613241284521,0.295235216865578
0.333552215176412,0.345784062908435
0.39972377386687,0.289546051667093
0.366728190737656,0.295112029319668
0.365322642188099,0.290562919056051
0.371830172687252,0.303532496228598
0.358909426977986,0.285674424383426
0.399567749032919,0.290675595214633
0.367901631564476,0.310183986524865
0.357834903492916,0.267927456142296
0.347088744968329,0.253640813141877
0.354629774314276,0.258927948329994
0.352983194876596,0.254440618734782
0.374138049755338,0.229131254053595
0.322188222443218,0.197834074325707
0.364294975722572,0.238662648959444
0.346109233647086,0.236578257549168
0.343900735637194,0.261231554700674
0.310694259585734,0.270548658648152
0.340658683684555,0.223277745861725
0.333201570323121,0.247461463547111
0.357237337272898,0.18182022270546
0.37481247097995,0.172307420826173
0.310771457533144,0.232074327589236
0.323260228918308,0.162313994684485
0.321063199149983,0.148963430758772
0.285419761877791,0.164631931274861
0.350086500064218,0.209984962937031
0.322860935316021,0.183922215060992
0.281672805749687,0.181749702753607
0.334511989696093,0.139049989729828
0.284286391309961,0.217099602218199
0.32283528373737,0.157890861475842
0.312085216451716,0.162447014806806
0.265588140335086,0.120178275262363
0.277532246764451,0.107069873667505
0.276374667771572,0.123921231910197
0.337338447238757,0.106315175156354
0.257362543001615,0.121295572473074
0.331676407961692,0.123006765440172
0.29600645241302,0.132900533220843
0.313506897925863,0.17757978779188
0.304809945823151,0.0895840517244269
0.263431214842361,0.118990912533807
0.286327680960894,0.116309341428137
0.28385468422548,0.112196552814764
0.244112353103463,0.0915586618069906
0.247125095337243,0.149115519894322
0.276311734218275,0.0999450403191856
0.273756924593212,0.0958907437148837
0.229621729695349,0.107351304380189
0.268588054468879,0.0878275234504959
0.227351154364923,0.122633649067437
0.228879752749326,0.10087118336012
0.260690343496324,0.0758487794216531
0.258020257335714,0.0718875288453556
0.26232544057064,0.0617615953881943
0.271855852008132,0.0461488770267007
0.212658145970215,0.0108268325450436
0.268457578940731,0.105377063562926
0.19760768195573,0.0452175901612579
0.241623190620425,0.0484648838043251
0.254899982556262,0.0804850553052676
0.199422101018582,0.0737719668692319
0.218513649487878,-0.0103252243626026
0.235895898923191,0.0688831483359433
0.227493157755178,0.0294170759639134
0.175649982591567,0.00692928848764802
0.171868303235644,-0.00565112950488026
0.218825768452326,0.0182038543286768
0.21590656564721,0.0145030858979793
0.20450242842658,0.0567318258586135
0.210024539040514,0.00715806881103577
0.207062211425529,0.0035141740224163
0.204086005060517,-0.000110409017883867
0.238254361924486,0.0374810398616961
0.189676328130326,-0.0372575640672862
0.180760824594019,-0.0253761432455902
0.203811781337435,-0.0608723319792885
0.189005475250453,-0.0179374553111326
0.185519028521107,-0.0548009851962332
0.181913061437242,-0.00276857862776671
0.131227127097343,0.0214299658802256
0.176716539418251,-0.0318334336270328
0.174380605582196,0.0108800085282413
0.197568195266172,-0.00680880389662109
0.167379292138507,-0.04203468522456
0.139827668108232,-0.0851033114497969
0.203872362032559,-0.000675812719464944
0.143607816614985,-0.0668295609870673
0.154781637347331,-0.0553329618996515
0.151607450506369,-0.0586021743450958
0.100715774364499,-0.0783826321437723
0.145231085705725,-0.0650729326312974
0.100954717271499,-0.112127466985993
0.116136023564422,-0.118271965023918
0.135600282107424,-0.074607249541683
0.0885953527500998,-0.0723999335796685
0.134560136023407,-0.0639912626966876
0.139981592104843,-0.0619787775368367
0.12977079685448,-0.0432193088409229
0.147151433681955,-0.107270942327174
0.15107556753149,-0.0631861600184722
0.118649462919067,-0.111190219232797
0.114272198553702,-0.062345369226386
0.106293344762679,-0.101928505215697
0.103004011657872,-0.10484169125638
0.0792132514216298,-0.0950016739612989
0.118460936660694,-0.0747975735429685
0.116152536348809,-0.0986166265491729
0.0423558592903038,-0.100374587145882
0.126064969336785,-0.129455593345467
0.132485327333136,-0.156742786313781
0.105693534167605,-0.125955681407966
0.0874164858352619,-0.168108743425332
0.0731736597058874,-0.129907358177871
0.0655222449790952,-0.155915525049863
0.0605172973783931,-0.126018256091835
0.0675736284346991,-0.134224562601507
0.0598150451756203,-0.140360004538949
0.0564686051639555,-0.142904981704428
0.0409802081567878,-0.149210022138264
0.0713240456014872,-0.158246158341458
0.0899328041721016,-0.136152401403289
0.00326038444134214,-0.161922785894719
0.00562917789701006,-0.155446799175279
0.0413981041737542,-0.112381117290778
0.00168264702470959,-0.195802578530842
0.0296380637660403,-0.162255341636416
0.026280589827689,-0.164545300446734
0.0528825049200669,-0.168367581628116
0.0267919477741704,-0.184954497537743
0.0281591653925661,-0.132877823242018
0.0128533197535948,-0.173411165931257
-0.0298707691507323,-0.198801379152596
0.00614473343029961,-0.177665239746082
0.0164157678034531,-0.13843228293882
0.0363773256561823,-0.211065293215522
-0.00390625306325931,-0.183818795798225
-0.00725241805688646,-0.185808592168327
0.00187704420150211,-0.193997331423058
-0.0212756246351008,-0.223340036342688
0.0128267766079596,-0.220206332910881
-0.0206096430223321,-0.19345611451066
0.0193284994851348,-0.156586614732689
0.0193941304500087,-0.235140867883177
-0.0305918083745694,-0.198859555825656
-0.0677870347732878,-0.240823907624387
-0.00157420910902122,-0.216044561195201
-0.0791028176520227,-0.230651149194626
-0.050241624729903,-0.175534093676566
-0.00942761846152487,-0.219940821896893
-0.0504351749213421,-0.20879150749213
-0.0830491866597515,-0.218282866905306
-0.0570065118016273,-0.211837729185094
-0.0602829790778114,-0.213310463417692
-0.0731500319006196,-0.234289250063126
-0.0657094995198986,-0.180283456788842
-0.022848993168232,-0.216261161957298
-0.0733217182458805,-0.218861427799885
-0.118011501077983,-0.200418627915784
-0.0627477850294858,-0.195006971662515
-0.0413406227274293,-0.188984070892985
-0.0373880442083547,-0.2724179473304
-0.0755934379860916,-0.222663097181526
-0.125748883326944,-0.206404596872857
-0.0958428551660163,-0.227239473350909
-0.0658623772894802,-0.244930323605367
-0.102198441774312,-0.229313955321827
-0.105361823955254,-0.230297104083324
-0.151378260223947,-0.208694399651559
-0.111658525604236,-0.232154332489327
-0.114791348885681,-0.233028058266207
-0.13653514577187,-0.200998143004372
-0.132178283516692,-0.26029419408448
-0.108041930176194,-0.201838900864565
-0.127213336214218,-0.236152910077271
-0.129221841916031,-0.230435229319854
-0.133355273093973,-0.237490828131545
-0.170511388172411,-0.218817693313002
-0.136527088394768,-0.20057457732849
-0.142476275333772,-0.239213089388083
-0.167731915682514,-0.226132212750269
-0.148492780351943,-0.24016945544804
-0.178881585209896,-0.244289861106492
-0.135425597342394,-0.265215689684336
-0.147066123011684,-0.22704478021877
-0.160362867489508,-0.24161547848411
-0.124255364445408,-0.287349812493914
-0.214725745153112,-0.245802332242281
-0.128709114867761,-0.285404955555684
-0.16497284010049,-0.198037872352699
-0.148424670364324,-0.211681069002759
-0.214208837500347,-0.258259979032508
-0.180571418781532,-0.242619142028722
-0.183395777270883,-0.242601055046705
-0.191640312694023,-0.290874399420508
-0.206341626489262,-0.249450244456635
-0.143050055869444,-0.277061893616817
-0.175301397773567,-0.236934466932576
-0.175204229099697,-0.249943910784027
-0.199989083663903,-0.241627489326858
-0.227716608514403,-0.251469146049775
-0.158870596848603,-0.262807732569714
-0.208047744027185,-0.240576644841786
-0.170486298308321,-0.203584631796476
-0.213327490398464,-0.239663926352144
-0.215938811142938,-0.239143389656005
-0.218530766135571,-0.238579832080569
-0.221103107283067,-0.237973076692024
-0.184759488801986,-0.194349706635801
-0.19386995436823,-0.26734227459876
-0.228699966721751,-0.235891854309597
-0.237380704775682,-0.219578113881689
-0.196014588703498,-0.226858881959548
-0.227523089898672,-0.254508667638991
-0.238539467814685,-0.232501387764822
-0.236381954840464,-0.1916318704378
-0.238280326088524,-0.202310725248656
-0.262152777098268,-0.201685332402421
-0.229927538237894,-0.195174119468477
-0.250351015171965,-0.227258178698898
-0.251044270389739,-0.223999641545448
-0.294056200921095,-0.204586260481875
-0.257165859636646,-0.223567693297665
-0.238670538723789,-0.197147738379369
-0.261591586079105,-0.220877520815922
-0.313633467843675,-0.228933268918607
-0.304584197761696,-0.174538982424939
-0.26804895907585,-0.216493950095662
-0.270152099923723,-0.21493916892095
-0.272230168873913,-0.213337297389236
-0.237899007268991,-0.22765831130679
-0.235534641017472,-0.176509259213206
-0.310558204290674,-0.235880928638686
-0.272775203066654,-0.244803760990963
-0.289012324514597,-0.229697271407406
-0.249986618430778,-0.235871076960487
-0.286053798553119,-0.200790804230887
-0.282094242008523,-0.204054267498905
-0.333526027632573,-0.207352799509438
-0.258092792616299,-0.239591038746623
-0.335563085042752,-0.224176781387962
-0.295121082296597,-0.190377387254533
-0.288679058047867,-0.202376399514062
-0.324945477307231,-0.191043342521746
-0.30022387196245,-0.183538066580341
-0.299599962285595,-0.136657832958802
-0.303480938276297,-0.178729207863833
-0.305065289114311,-0.176249454224025
-0.315926016314597,-0.217698995003384
-0.25818116510959,-0.13751284845974
-0.309638635233145,-0.168506772972629
-0.312057238534387,-0.180627201673335
-0.312535296383386,-0.16309036585692
-0.268022817411093,-0.167695221223944
-0.329798983971013,-0.151446912779638
-0.269874398082349,-0.108071767717905
-0.322473008778098,-0.102953722722228
-0.319229650231865,-0.148647858276822
-0.340232448905589,-0.13834367235411
-0.318849279909258,-0.0957623974725419
-0.365900733821737,-0.107931668576556
-0.337516523308846,-0.133058142876888
-0.307957782156367,-0.0881555650459904
-0.326195347914487,-0.129591595468417
-0.307775070030818,-0.160136351591048
-0.364381976417004,-0.155182942139923
-0.329225851313511,-0.119346531624408
-0.335714882188053,-0.164198789731139
-0.316458063152738,-0.0765371986488915
-0.331945859725632,-0.108617143203249
-0.321249884436054,-0.0634005123060284
-0.367170354212938,-0.147361336583741
-0.311210064512594,-0.132463781843079
-0.359449976422148,-0.125622316534719
-0.367966367912509,-0.0985004408883264
-0.336427597513033,-0.085686283777654
-0.337047438032502,-0.081671584125512
-0.311780725730565,-0.0843353311933461
-0.381692039128218,-0.0425734367583378
-0.374318245885904,-0.117613047085301
-0.369622282909079,-0.0533231751628538
-0.335478790563532,-0.0571670534404177
-0.292681478649748,-0.021544627940957
-0.340336977917116,-0.0520024492259096
-0.352044265901603,-0.0720354589785849
-0.333341779706245,-0.00699644690671512
-0.341170987155052,-0.0384383186228105
-0.384383087193841,-0.00359986825117683
-0.324803506280766,-0.0614639438200827
-0.376563753393039,-0.0338703860943883
-0.347147232473968,-0.0256618503236537
-0.341768468462186,-0.0146820248033879
-0.341766851770522,-0.0097567622130456
-0.359992830636309,0.0191543968540845
-0.35753526020775,0.0461663201817433
-0.341515310109989,0.00537021801953641
-0.315538875800798,-0.00471375628845793
-0.365003771368394,0.0134735411658419
-0.340888521111899,0.0210277025545286
-0.311060422366088,0.0750911329640585
-0.371136607503181,0.0448147141372798
-0.353605105527901,0.075677044483628
-0.33945750667992,0.0427378344273313
-0.345870276921645,0.0347962917854835
-0.338482407026921,0.053953293383577
-0.37128456608411,0.0330891823686668
-0.337331599420741,0.0654109016470602
-0.329845193328131,0.0280479952749973
-0.331484091719414,0.0700777023984055
-0.31273039517457,0.0810100073983095
-0.334494921363321,0.0890582279777641
-0.358942822102743,0.0787786749770076
-0.318156938753222,0.143700466649348
-0.353771940204413,0.121488162406064
-0.303413187824242,0.123952915027672
-0.345911358412826,0.110328974123936
-0.326582639484644,0.130290440073984
-0.359799768097249,0.118868112166423
-0.332466409540192,0.172575497884635
-0.320154090163439,0.17501595635631
-0.324189404792505,0.15251323961661
-0.315922067028926,0.119928451666833
-0.338935506405474,0.193133319397804
-0.314746773155644,0.213825872879302
-0.318739989919289,0.17965964747761
-0.317256034298615,0.186605997116014
-0.266107891634222,0.187150361091189
-0.270305916139625,0.232216445751946
-0.341977931137606,0.166649389485013
-0.347205379705567,0.216279911630663
-0.315762531780058,0.205798819733569
-0.328412622429972,0.218553553296782
-0.342637400632028,0.23545558325371
-0.254869039470882,0.259578227678162
-0.301659499877412,0.252035758079195
-0.337967400824393,0.273366786046666
-0.343835389581443,0.222295701393928
-0.33959939620079,0.323921489230909
-0.293402843043143,0.28281996358009
-0.291208393666792,0.290681955311932
