0.254089284165592,-0.687552976169429
0.984738534837795,0.421195120819718
-0.612695905771145,0.0621358871342879
-0.171963713034734,0.501463966648472
0.268768479701676,0.940792046162656
0.730762260950418,0.757613733045267
-0.117193773533465,-0.0654502078523078
