-0.50277620167763,-0.873267384945372
-0.505684706669127,-0.861701378693044
-0.508521191460692,-0.850209941557401
-0.511286041921441,-0.838792920221461
-0.513979643920489,-0.827450161368243
-0.516602383326952,-0.816181511680766
-0.519154646009943,-0.804986817842046
-0.521636817838579,-0.793865926535105
-0.524049284681973,-0.782818684442959
-0.526392432409242,-0.771844938248628
-0.5286666468895,-0.76094453463513
-0.530872313991861,-0.750117320285483
-0.533009819585443,-0.739363141882707
-0.535079549539357,-0.728681846109819
-0.537081889722722,-0.718073279649839
-0.53901722600465,-0.707537289185784
-0.540885944254257,-0.697073721400674
-0.542688430340658,-0.686682422977527
-0.544425070132968,-0.676363240599361
-0.546096249500303,-0.666116020949195
-0.547702354311776,-0.655940610710048
-0.549243770436504,-0.645836856564938
-0.550720883743601,-0.635804605196884
-0.552134080102181,-0.625843703288904
-0.553483745381361,-0.615953997524017
-0.554770265450255,-0.606135334585242
-0.555994026177978,-0.596387561155596
-0.557155413433645,-0.586710523918098
-0.558254813086371,-0.577104069555768
-0.559292611005271,-0.567568044751624
-0.56026919305946,-0.558102296188683
-0.561184945118054,-0.548706670549965
-0.562040253050166,-0.539381014518489
-0.562835502724913,-0.530125174777272
-0.563571080011408,-0.520938998009334
-0.564247370778768,-0.511822330897692
-0.564864760896106,-0.502775020125367
-0.565423636232539,-0.493796912375375
-0.565924382657181,-0.484887854330736
-0.566367386039147,-0.476047692674467
-0.566753032247552,-0.467276274089589
-0.60993203846002,-0.409894669709689
-0.544443532976646,-0.417088120221742
-0.536126394081525,-0.431918939335083
-0.567729762727862,-0.432874964124344
-0.521612221374686,-0.469005922057008
-0.589360125315863,-0.461443852212312
-0.599746006110112,-0.455926316003691
-0.541882975244284,-0.437661194533479
-0.55476299871958,-0.411365976045077
-0.533738976251651,-0.366969082066156
-0.567319925651875,-0.375283863710955
-0.541915211485317,-0.380808373548148
-0.58405920460825,-0.374767852141925
-0.566345662645724,-0.351608578887603
-0.524550658170606,-0.392966395644354
-0.591338565459285,-0.335463989581292
-0.585627794383648,-0.303826874764126
-0.564326478111023,-0.320971023410573
-0.534211566843125,-0.319264944599583
-0.587439331002361,-0.305115503196232
-0.562285469734147,-0.29868460892403
-0.558430228356598,-0.271217872709905
-0.56067981410255,-0.284154105283626
-0.586270513253429,-0.31970401183391
-0.549275418249897,-0.308448953142474
-0.537964595789489,-0.289729053805046
-0.556894434014666,-0.255872633032987
-0.555830742224055,-0.248963773752554
-0.511507501298908,-0.238037815181279
-0.536812677278973,-0.270493295891205
-0.515050907012424,-0.207339151727537
-0.565074116443819,-0.185614196217636
-0.508851861589583,-0.254594918274569
-0.559369339348435,-0.237014502067519
-0.530100364836095,-0.171526511276512
-0.545691610012694,-0.195994708524052
-0.520247485176952,-0.178593102516618
-0.500057107609814,-0.164954216226693
-0.541168003763723,-0.177176185941111
-0.539575775703991,-0.171028770287037
-0.587778151117655,-0.200337606641239
-0.536267095834104,-0.158921156887358
-0.488282078515609,-0.1102244976987
-0.532795356757753,-0.14706214525243
-0.530999304689942,-0.141225481804293
-0.565903469944419,-0.177140445609529
-0.52154346004173,-0.103688944552073
-0.537090014443687,-0.172372303937987
-0.523422883167135,-0.118494199744366
-0.543263270726864,-0.124042612133983
-0.519404746622407,-0.107495635316233
-0.517339547446114,-0.102087585643189
-0.515237442159355,-0.0967401532415182
-0.513098816631244,-0.0914531847942391
-0.510924056730898,-0.0862265269843702
-0.508713548327432,-0.0810600264949303
-0.506467677289959,-0.0759535300089376
-0.504186829487595,-0.070906884209411
-0.501871390789455,-0.0659199357793687
-0.499521747064655,-0.0609925314018296
-0.497138284182308,-0.0561245177598121
-0.494721388011531,-0.0513157415363346
-0.492271444421437,-0.0465660494144159
-0.489788839281143,-0.0418752880770744
-0.487273958459763,-0.0372433042073289
-0.484727187826411,-0.0326699444881975
-0.482148913250204,-0.0281550556026991
-0.479539520600256,-0.0236984842338523
-0.476899395745682,-0.0193000770646755
-0.474228924555597,-0.0149596807781872
-0.471528492899116,-0.0106771420574061
-0.468798486645355,-0.00645230758535072
-0.466039291663427,-0.00228502404503957
-0.463251293822449,0.00182486188050879
-0.460434878991534,0.00587750350827577
-0.457590433039798,0.00987305415524284
-0.454718341836357,0.0138116671383913
-0.451818991250325,0.0176934957747029
-0.448892767150816,0.0215186933811589
-0.445940055406947,0.0252874132747406
-0.442961241887832,0.0289998087724297
-0.439956712462586,0.0326560331912075
-0.436926853000324,0.0362562398480556
-0.433872049370162,0.0398005820599552
-0.430792687441213,0.043289213143888
-0.427689153082593,0.0467222864168352
-0.424561832163417,0.0500999551957785
-0.421411110552801,0.053422372797699
-0.418237374119858,0.0566896925395786
-0.415041008733705,0.0599020677383984
-0.411822400263455,0.06305965171114
-0.408581934578225,0.0661625977747846
-0.405319997547129,0.069211059246314
-0.402036975039282,0.0722051894427095
-0.398733252923799,0.0751451416809525
-0.395409217069795,0.0780310692780244
-0.392065253346385,0.0808631255509068
-0.388701747622684,0.083641463816581
-0.385319085767807,0.0863662373920285
-0.38191765365087,0.0890375995942308
-0.378497837140986,0.0916557037401693
-0.375060022107271,0.0942207031468253
-0.371604594418841,0.0967327511311805
-0.36813193994481,0.0991920010102162
-0.364642444554292,0.101598606100914
-0.361136494116404,0.103952719720255
-0.35761447450026,0.106254495185221
-0.354076771574975,0.108504085812793
-0.350523771209664,0.110701644919953
-0.346955859273442,0.112847325823682
-0.343373421635424,0.114941281840962
-0.339776844164725,0.116983666288774
-0.33616651273046,0.1189746324841
-0.332542813201744,0.12091433374392
-0.328906131447693,0.122802923385217
-0.32525685333742,0.124640554724972
-0.321595364740042,0.126427381080165
-0.317922051524672,0.12816355576778
-0.314237299560427,0.129849232104797
-0.310541494716421,0.131484563408198
-0.306835022861769,0.133069702994963
-0.303118269865586,0.134604804182076
-0.299391621596987,0.136090020286516
-0.295655463925087,0.137525504625265
-0.291910182719001,0.138911410515306
-0.288156163847844,0.140247891273619
-0.284393793180731,0.141535100217185
-0.280623456586778,0.142773190662987
-0.276845539935098,0.143962315928005
-0.273060429094807,0.145102629329222
-0.269268509935021,0.146194284183618
-0.265470168324854,0.147237433808174
-0.26166579013342,0.148232231519874
-0.257855761229836,0.149178830635697
-0.254040467483216,0.150077384472626
-0.250220294762675,0.150928046347641
-0.246395628937328,0.151730969577724
-0.24256685587629,0.152486307479857
-0.238734361448676,0.153194213371022
-0.234898531523601,0.153854840568198
-0.231059751970181,0.154468342388369
-0.227218408657529,0.155034872148515
-0.223374887454761,0.155554583165618
-0.219529574230993,0.15602762875666
-0.215682854855339,0.156454162238621
-0.211835115196913,0.156834336928483
-0.207986741124832,0.157168306143228
-0.20413811850821,0.157456223199837
-0.200289633216162,0.157698241415291
-0.196441671117802,0.157894514106573
-0.192594618082247,0.158045194590663
-0.188748859978612,0.158150436184543
-0.18490478267601,0.158210392205194
-0.181062772043557,0.158225215969598
-0.177223213950368,0.158195060794736
-0.173386494265559,0.158120079997589
-0.169552998858243,0.15800042689514
-0.165723113597537,0.15783625480437
-0.161897224352554,0.157627717042259
-0.158075716992411,0.15737496692579
-0.154258977386222,0.157078157771943
-0.150447391403101,0.156737442897701
-0.146641344912165,0.156352975620045
-0.142841223782528,0.155924909255956
-0.139047413883305,0.155453397122415
-0.135260301083611,0.154938592536405
-0.131480271252561,0.154380648814906
-0.127707710259271,0.1537797192749
-0.123943003972854,0.153135957233369
-0.120186538262426,0.152449516007293
-0.116438698997103,0.151720548913655
-0.112699872045999,0.150949209269436
-0.108970443278228,0.150135650391616
-0.105250798562907,0.149280025597179
-0.101541323769149,0.148382488203104
-0.0978424047660714,0.147443191526374
-0.0941544274227871,0.14646228888397
-0.0904777776084122,0.145439933592873
-0.0868128411920612,0.144376278970066
-0.0831600040428494,0.143271478332528
-0.0795196520298914,0.142125684997243
-0.0758921710223028,0.14093905228119
-0.0722779468891981,0.139711733501352
-0.0686773654996925,0.138443881974711
-0.0650908127229009,0.137135651018247
-0.0615186744279386,0.135787193948941
-0.0579613364839201,0.134398664083777
-0.0544191847599609,0.132970214739734
-0.0508926051251755,0.131501999233794
-0.0473819834486795,0.129994170882939
-0.0438877055995873,0.128446883004151
-0.0404101574470143,0.12686028891441
-0.0369497248600754,0.125234541930698
-0.0335067937078855,0.123569795369997
-0.0300817498595597,0.121866202549287
-0.026674979184213,0.120123916785552
-0.0232868675509603,0.118343091395771
-0.0199178008289168,0.116523879696926
-0.0165681648871972,0.114666435005999
-0.0132383455949168,0.112770910639971
-0.00992872882119041,0.110837459915824
-0.00663970043513314,0.108866236150539
-0.00337164630585984,0.106857392661098
-0.000124952302485784,0.104811082764481
0.00309999570587437,0.102727459777671
0.00630281185010531,0.100606677017649
0.00948311026109232,0.0984488878013964
0.0126405050697201,0.0962542454458944
0.015774610406874,0.0940229032681245
0.0188850404034386,0.0917550145850684
0.0219714091902993,0.0894507327137073
0.0250333308983408,0.0871102109710228
0.0280704196584484,0.0847336026739962
0.0310822896015068,0.0823210611396091
0.0340685548584012,0.0798727396848428
0.0370288295600164,0.077388791626679
0.0399627278372376,0.0748693702820988
0.0428698638209498,0.0723146289680839
0.0457498516420379,0.0697247210016156
0.0486023054313868,0.0670997996996754
0.0514268393198818,0.0644400183792447
0.0542230674384076,0.0617455303573051
0.0569906039178494,0.0590164889508378
0.0597290628890921,0.0562530474768246
0.0624380584830208,0.0534553592522465
0.0651172048305203,0.0506235775940854
0.0677661160624758,0.0477578558193223
0.0703844063097722,0.0448583472449389
0.0729716897032946,0.0419252051879166
0.0755275803739278,0.0389585829652369
0.0780516924525571,0.0359586338938812
0.0805436400700671,0.0329255112908309
0.0830030373573433,0.0298593684730674
0.0854294984452702,0.0267603587575724
0.0878226374647331,0.023628635461327
0.0901820685466169,0.020464351901313
0.0925074058218068,0.0172676613945115
0.0947982634211874,0.0140387172579042
0.0970542554756441,0.0107776728084723
0.0992749961160616,0.00748468136319758
0.101460099473325,0.00415989623906117
0.103609179678319,0.00080347075304471
0.10572185086193,-0.00258444177787047
0.107797727155041,-0.00600368803670279
0.109836422688538,-0.00945411470647103
0.111837551593306,-0.0129355684701935
0.113800728000231,-0.016447896010889
0.115725566040195,-0.0199909440115757
0.117611679844086,-0.0235645591552727
0.119458683542788,-0.027168588124998
0.121266191267186,-0.0308028776037706
0.123033817148165,-0.0344672742746088
0.124761175316609,-0.0381616248205313
0.126447879903405,-0.0418857759245564
0.128093545039436,-0.0456395742697031
0.129697784855589,-0.0494228665389894
0.131260213482747,-0.0532354994154345
0.132780445051796,-0.0570773195820562
0.134258093693622,-0.0609481737218738
0.135692773539108,-0.0648479085179053
0.13708409871914,-0.0687763706531697
0.138431683364603,-0.0727334068106851
0.139735141606382,-0.0767188636734704
0.140994087575361,-0.0807325879245439
0.142208135402427,-0.0847744262469245
0.143376899218464,-0.0888442253236303
0.144499993154356,-0.0929418318376803
0.14557703134099,-0.0970670924720928
0.146607627909249,-0.101219853909886
0.14759139699002,-0.10539996283408
0.148527952714186,-0.109607265927691
0.149416909212633,-0.113841609873739
0.150257880616247,-0.118102841355243
0.151050481055911,-0.122390807055221
0.151794324662511,-0.126705353656691
0.152489025566932,-0.131046327842671
0.153134197900059,-0.135413576296182
0.153729455792776,-0.139806945700241
0.15427441337597,-0.144226282737866
0.154768684780525,-0.148671434092076
0.155211884137326,-0.153142246445891
0.155603625577257,-0.157638566482327
0.155943523231205,-0.162160240884405
0.156231191230053,-0.166707116335142
0.156466243704687,-0.171279039517557
0.156648294785992,-0.175875857114668
0.156776958604854,-0.180497415809495
0.156851849292156,-0.185143562285055
0.156872580978784,-0.189814143224368
0.156838767795623,-0.194509005310451
0.156750023873558,-0.199227995226324
0.156605963343473,-0.203970959655004
0.156406200336255,-0.208737745279511
0.156150348982788,-0.213528198782863
0.155838023413957,-0.218342166848079
0.155468837760646,-0.223179496158176
0.155042406153741,-0.228040033396175
0.154558342724128,-0.232923625245092
0.15401626160269,-0.237830118387947
0.153415776920313,-0.242759359507759
0.152756502807883,-0.247711195287546
0.152038053396283,-0.252685472410325
0.151260042816399,-0.257682037559117
0.150422085199116,-0.26270073741694
0.149523794675319,-0.267741418666812
0.148564785375892,-0.272803927991751
0.147544671431722,-0.277888112074776
0.146463066973693,-0.282993817598906
0.145319586132689,-0.28812089124716
0.144113843039597,-0.293269179702555
0.1428454518253,-0.298438529648111
0.141514026620685,-0.303628787766846
0.140119181556635,-0.308839800741779
0.138660530764036,-0.314071415255927
0.137137688373774,-0.319323477992311
0.135550268516732,-0.324595835633947
0.133897885323796,-0.329888334863855
0.132180152925851,-0.335200822365054
0.130396685453782,-0.340533144820561
0.128547097038473,-0.345885148913396
0.126631001810811,-0.351256681326577
0.12464801390168,-0.356647588743122
0.122597747441964,-0.362057717846051
0.12047981656255,-0.367486915318381
0.118293835394321,-0.372935027843131
0.116039418068164,-0.37840190210332
0.113716178714962,-0.383887384781967
0.111323731465601,-0.389391322562089
0.108861690450967,-0.394913562126706
0.106329669801943,-0.400453950158836
0.103727283649415,-0.406012333341497
0.101054146124268,-0.411588558357709
0.0983098713573865,-0.417182471890489
0.0954940734796564,-0.422793920622856
0.0926063666219621,-0.428422751237829
0.0896463649151888,-0.434068810418427
0.0866136824902214,-0.439731944847667
0.083507933477945,-0.445412001208569
0.0803287320092443,-0.45110882618415
0.0770756922150048,-0.456822266457431
0.0737484282261111,-0.462552168711428
0.0703465541734484,-0.468298379629161
0.0668696841879015,-0.474060745893648
0.0633174324003557,-0.479839114187908
0.0596894129416956,-0.48563333119496
0.0559852399428067,-0.491443243597821
0.0522045275345735,-0.49726869807951
0.0483468898478814,-0.503109541323047
0.044411941013615,-0.508965620011449
0.0403992951626598,-0.514836780827735
0.0363085664259003,-0.520722870454924
0.032139368934222,-0.526623735576035
0.0278913168185093,-0.532539222874084
0.0235640242096478,-0.538469179032093
0.019157105238522,-0.544413450733078
0.0146701740360174,-0.550371884660058
0.0101028447330185,-0.556344327496053
0.00545473146041068,-0.56233062592408
0.000725448349078617,-0.568330626627158
