-0.524422559359961,-0.356459105514675
-0.521702348007491,-0.351831430890035
-0.518987739962423,-0.347246754608903
-0.516278685648439,-0.342704966623491
-0.513575135489221,-0.338205956886015
-0.510877039908451,-0.333749615348687
-0.508184349329809,-0.329335831963722
-0.505497014176979,-0.324964496683332
-0.502814984873642,-0.320635499459732
-0.500138211843479,-0.316348730245135
-0.497466645510171,-0.312104078991755
-0.494800236297402,-0.307901435651805
-0.492138934628853,-0.3037406901775
-0.489482690928205,-0.299621732521052
-0.48683145561914,-0.295544452634676
-0.48418517912534,-0.291508740470585
-0.481543811870487,-0.287514485980994
-0.478907304278262,-0.283561579118114
-0.476275606772348,-0.279649909834161
-0.473648669776425,-0.275779368081348
-0.471026443714176,-0.271949843811888
-0.468408879009282,-0.268161226977995
-0.465795926085425,-0.264413407531883
-0.463187535366287,-0.260706275425765
-0.46058365727555,-0.257039720611856
-0.457984242236895,-0.253413633042369
-0.455389240674004,-0.249827902669517
-0.452798603010559,-0.246282419445514
-0.450212279670241,-0.242777073322574
-0.447630221076733,-0.23931175425291
-0.445052377653716,-0.235886352188737
-0.442478699824871,-0.232500757082267
-0.439909138013882,-0.229154858885715
-0.437343642644428,-0.225848547551294
-0.434782164140192,-0.222581713031217
-0.432224652924856,-0.219354245277699
-0.429671059422102,-0.216166034242953
-0.427121334055611,-0.213016969879193
-0.424575427249065,-0.209906942138633
-0.422033289426146,-0.206835840973485
-0.419494871010535,-0.203803556335964
-0.416960122425914,-0.200809978178284
-0.414428994095965,-0.197854996452657
-0.41190143644437,-0.194938501111299
-0.409377399894811,-0.192060382106422
-0.406856834870968,-0.189220529390239
-0.404339691796525,-0.186418832914966
-0.401825921095162,-0.183655182632815
-0.399315473190562,-0.180929468496
-0.396808298506406,-0.178241580456735
-0.394304347466375,-0.175591408467233
-0.391803570494152,-0.172978842479708
-0.389305918013419,-0.170403772446374
-0.386811340447857,-0.167866088319444
-0.384319788221148,-0.165365680051132
-0.381831211756973,-0.162902437593652
-0.379345561479015,-0.160476250899217
-0.376862787810955,-0.158087009920041
-0.374382841176474,-0.155734604608338
-0.371905671999255,-0.153418924916322
-0.36943123070298,-0.151139860796205
-0.366959467711329,-0.148897302200202
-0.364490333447986,-0.146691139080526
-0.362023778336631,-0.144521261389391
-0.359559752800946,-0.142387559079011
-0.357098207264613,-0.140289922101599
-0.354639092151314,-0.138228240409369
-0.352182357884731,-0.136202403954535
-0.349727954888545,-0.13421230268931
-0.347275833586438,-0.132257826565908
-0.344825944402091,-0.130338865536543
-0.342378237759187,-0.128455309553428
-0.339932664081408,-0.126607048568777
-0.337489173792434,-0.124793972534803
-0.335047717315948,-0.123015971403721
-0.332608245075631,-0.121272935127743
-0.330170707495166,-0.119564753659085
-0.327735054998234,-0.117891316949958
-0.325301238008516,-0.116252514952578
-0.322869206949695,-0.114648237619157
-0.320438912245452,-0.113078374901909
-0.318010304319469,-0.111542816753048
-0.315583333595428,-0.110041453124788
-0.31315795049701,-0.108574173969342
-0.310734105447897,-0.107140869238924
-0.308311748871771,-0.105741428885748
-0.305890831192313,-0.104375742862026
-0.303471302833206,-0.103043701119974
-0.301053114218132,-0.101745193611804
-0.298636215770771,-0.10048011028973
-0.296220557914805,-0.0992483411059665
-0.293806091073917,-0.0980497760127262
-0.291392765671788,-0.0968843049622232
-0.2889805321321,-0.095751817906671
-0.286569340878535,-0.0946522047982833
-0.284159142334773,-0.0935853555892738
-0.281749886924498,-0.0925511602318561
-0.279341525071391,-0.091549508678244
-0.276934007199133,-0.090580290880651
-0.274527283731407,-0.0896433967912909
-0.272121305091893,-0.0887387163623772
-0.269716021704274,-0.0878661395461237
-0.267311383992232,-0.0870255562947441
-0.264907342379448,-0.0862168565604518
-0.262503847289604,-0.0854399302954608
-0.260100849146382,-0.0846946674519846
-0.257698298373464,-0.0839809579822368
-0.25529614539453,-0.0832986918384312
-0.252894340633264,-0.0826477589727814
-0.250492834513346,-0.0820280493375011
-0.248091577458459,-0.0814394528848038
-0.245690519892283,-0.0808818595669033
-0.243289612238502,-0.0803551593360133
-0.240888804920797,-0.0798592421443474
-0.238488048362849,-0.0793939979441192
-0.23608729298834,-0.0789593166875425
-0.233686489220952,-0.0785550883268309
-0.231285587484367,-0.0781812028141981
-0.228884538202266,-0.0778375501018576
-0.226483291798331,-0.0775240201420233
-0.224081798696244,-0.0772405028869087
-0.221680009319687,-0.0769868882887275
-0.219277874092341,-0.0767630662996933
-0.216875343437888,-0.0765689268720199
-0.21447236778001,-0.0764043599579209
-0.212068897542389,-0.07626925550961
-0.209664883148706,-0.0761635034793008
-0.207260275022643,-0.0760869938192069
-0.204855023587882,-0.0760396164815421
-0.202449079268105,-0.0760212614185201
-0.200042392486993,-0.0760318185823544
-0.197634913668228,-0.0760711779252586
-0.195226593235491,-0.0761392293994467
-0.192817381612466,-0.076235862957132
-0.190407229222832,-0.0763609685505284
-0.187996086490273,-0.0765144361318495
-0.185583903838469,-0.0766961556533089
-0.183170631691103,-0.0769060170671204
-0.180756220471856,-0.0771439103254974
-0.17834062060441,-0.0774097253806539
-0.175923782512447,-0.0777033521848033
-0.173505656619648,-0.0780246806901594
-0.171086193349696,-0.0783736008489358
-0.168665343126271,-0.0787500026133462
-0.166243056373056,-0.0791537759356042
-0.163819283513733,-0.0795848107679236
-0.161393974971983,-0.0800429970625178
-0.158967081171488,-0.0805282247716007
-0.156538552535929,-0.081040383847386
-0.154108339488989,-0.0815793642420872
-0.151676392454349,-0.082145055907918
-0.149242661855691,-0.0827373487970921
-0.146807098116697,-0.0833561328618231
-0.144369651661048,-0.0840012980543248
-0.141930272912426,-0.0846727343268107
-0.139488912294513,-0.0853703316314945
-0.137045520230991,-0.0860939799205899
-0.134600047145541,-0.0868435691463107
-0.132152443461845,-0.0876189892608703
-0.129702659603585,-0.0884201302164824
-0.127250645994442,-0.0892468819653609
-0.124796353058099,-0.0900991344597192
-0.122339731218237,-0.0909767776517712
-0.119880730898538,-0.0918797014937303
-0.117419302522684,-0.0928077959378104
-0.114955396514355,-0.0937609509362249
-0.112488963297235,-0.0947390564411877
-0.110019953295005,-0.0957420024049125
-0.107548316931346,-0.0967696787796127
-0.10507400462994,-0.0978219755175022
-0.102596966814469,-0.0988987825707945
-0.100117153908615,-0.0999999898917033
-0.0976345163360601,-0.101125487432442
-0.0951490045204851,-0.102275165145225
-0.0926605688855719,-0.103448912982266
-0.0901691598550024,-0.104646620895777
-0.0876747278524586,-0.105868178837974
-0.0851772233016219,-0.107113476761069
-0.0826765966261741,-0.108382404617276
-0.080172798249797,-0.109674852358809
-0.0776657785961725,-0.110990709937881
-0.0751554880889822,-0.112329867306707
-0.0726418771519077,-0.113692214417499
-0.0701248962086308,-0.115077641222472
-0.0676044956828335,-0.116486037673839
-0.0650806259981973,-0.117917293723814
-0.062553237578404,-0.11937129932461
-0.0600222808471353,-0.120847944428442
-0.057487706228073,-0.122347118987522
-0.0549494641448989,-0.123868712954065
-0.0524075050212946,-0.125412616280284
-0.049861779280942,-0.126978718918392
-0.0473122373475227,-0.128566910820604
-0.0447588296447185,-0.130177081939133
-0.0422015065962111,-0.131809122226193
-0.0396402186256824,-0.133462921633998
-0.037074916156814,-0.13513837011476
-0.0345055496132877,-0.136835357620694
-0.0319320694187851,-0.138553774104014
-0.029354425996988,-0.140293509516933
-0.0267725697715784,-0.142054453811664
-0.0241864511662377,-0.143836496940422
-0.0215960206046479,-0.14563952885542
-0.0190012285104905,-0.147463439508872
-0.0164020253074475,-0.149308118852991
-0.0137983614192004,-0.151173456839991
-0.0111901872694312,-0.153059343422086
-0.00857745328182134,-0.154965668551489
-0.00596010988005286,-0.156892322180414
-0.00333810748780725,-0.158839194261075
-0.000711396528766478,-0.160806174745685
0.00192007257338794,-0.162793153586459
0.00455634939497401,-0.164800020735609
0.0071974835123103,-0.166826666145349
0.00984352450171473,-0.168872979767893
0.0124945219395058,-0.170938851555456
0.0151505254020016,-0.173024171460249
0.0178115844655207,-0.175128829434487
0.0204777487063809,-0.177252715430385
0.0231490677009008,-0.179395719400154
0.0258255910253985,-0.181557731296009
0.0285073682561923,-0.183738641070164
0.0311944489696004,-0.185938338674833
0.0338868827419413,-0.188156714062228
0.0365847191495329,-0.190393657184564
0.0392880077686937,-0.192649057994055
0.0419967981757419,-0.194922806442913
0.0447111399469958,-0.197214792483353
0.0474310826587735,-0.199524906067588
0.0501566758873934,-0.201853037147832
0.0528879692091737,-0.204199075676299
0.0556250122004328,-0.206562911605202
0.0583678544374886,-0.208944434886755
0.0611165454966598,-0.211343535473172
0.0638711349542643,-0.213760103316666
0.0666316723866207,-0.21619402836945
0.0693982073700468,-0.21864520058374
0.0721707894808614,-0.221113509911748
0.0749494682953822,-0.223598846305687
0.077734293389928,-0.226101099717772
0.0805253143408166,-0.228620160100217
0.0833225807243666,-0.231155917405234
0.0861261421168959,-0.233708261585038
0.0889360480947232,-0.236277082591842
0.0917523482341663,-0.23886227037786
0.0945750921115439,-0.241463714895306
0.0974043293031738,-0.244081306096392
0.100240109385375,-0.246714933933334
0.103082481934464,-0.249364488358344
0.105931496526762,-0.252029859323637
0.108787202738584,-0.254710936781425
0.111649650146251,-0.257407610683923
0.11451888832608,-0.260119770983344
0.117394966854389,-0.262847307631901
0.120277935307496,-0.26559011058181
0.123167843261721,-0.268348069785282
0.12606474029338,-0.271121075194533
0.128968675978793,-0.273909016761775
0.131879699894278,-0.276711784439222
0.134797861616152,-0.279529268179088
0.137723210720735,-0.282361357933586
0.140655796784344,-0.285207943654931
0.143595669383297,-0.288068915295335
0.146542878093914,-0.290944162807013
0.149497472492511,-0.293833576142178
0.152459502155408,-0.296737045253043
0.155429016658923,-0.299654460091824
0.158406065579374,-0.302585710610732
0.161390698493079,-0.305530686761982
0.164382964976356,-0.308489278497788
0.167382914605524,-0.311461375770362
0.170390596956901,-0.31444686853192
0.173406061606806,-0.317445646734674
0.176429358131556,-0.320457600330838
0.179460536107469,-0.323482619272626
0.182499645110865,-0.326520593512251
0.18554673471806,-0.329571413001927
0.188601854505375,-0.332634967693868
0.191665054049126,-0.335711147540288
0.194736382925632,-0.3387998424934
0.197815890711211,-0.341900942505417
0.200903626982182,-0.345014337528554
0.203999641314863,-0.348139917515023
0.207103983285571,-0.35127757241704
0.210216702470626,-0.354427192186817
0.213337848446346,-0.357588666776568
0.216467470789049,-0.360761886138506
0.219605619075052,-0.363946740224847
0.222752342880675,-0.367143118987802
0.225907691782236,-0.370350912379585
0.229071715356052,-0.373570010352412
0.232244463178442,-0.376800302858494
0.235425984825725,-0.380041679850046
0.238616329874219,-0.383294031279281
0.241815547900241,-0.386557247098413
0.245023688480111,-0.389831217259656
0.248240801190146,-0.393115831715223
0.251466935606664,-0.396410980417329
0.254702141305985,-0.399716553318186
0.257946467864425,-0.403032440370008
0.261199964858304,-0.406358531525009
0.26446268186394,-0.409694716735403
0.267734668457651,-0.413040885953403
0.271015974215755,-0.416396929131224
0.27430664871457,-0.419762736221078
0.277606741530416,-0.423138197175179
0.280916302239609,-0.426523201945741
0.284235380418468,-0.429917640484977
0.287564025643312,-0.433321402745102
0.290902287490458,-0.43673437867833
0.294250215536226,-0.440156458236872
0.297607859356933,-0.443587531372944
0.300975268528897,-0.447027488038759
0.304352492628437,-0.45047621818653
0.307739581231871,-0.453933611768472
0.311136583915518,-0.457399558736798
0.314543550255695,-0.460873949043721
0.317960529828721,-0.464356672641455
0.321387572210913,-0.467847619482215
0.324824726978592,-0.471346679518213
0.328272043708073,-0.474853742701663
0.331729571975677,-0.478368698984779
0.335197361357721,-0.481891438319775
0.338675461430523,-0.485421850658864
0.342163921770401,-0.488959825954259
0.345662791953675,-0.492505254158176
0.349172121556662,-0.496058025222826
0.35269196015568,-0.499618029100425
0.356222357327047,-0.503185155743185
0.359763362647083,-0.50675929510332
0.363315025692104,-0.510340337133044
0.366877396038431,-0.51392817178457
0.370450523262379,-0.517522689010113
0.374034456940269,-0.521123778761886
0.377629246648418,-0.524731330992102
0.381234941963144,-0.528345235652975
0.384851592460766,-0.531965382696719
0.388479247717602,-0.535591662075548
0.392117957309971,-0.539223963741675
0.395767770814189,-0.542862177647313
0.399428737806577,-0.546506193744677
0.403100907863451,-0.550155901985981
0.40678433056113,-0.553811192323437
0.410479055475934,-0.557471954709259
0.414185132184178,-0.561138079095662
0.417902610262183,-0.564809455434859
0.421631539286266,-0.568485973679063
0.425371968832746,-0.572167523780488
0.42912394847794,-0.575853995691348
0.432887527798168,-0.579545279363856
0.436662756369747,-0.583241264750226
0.440449683768995,-0.586941841802673
0.444248359572231,-0.590646900473408
0.448058833355773,-0.594356330714647
0.45188115469594,-0.598070022478602
0.455715373169049,-0.601787865717489
0.459561538351419,-0.605509750383519
0.463419699819368,-0.609235566428907
0.467289907149215,-0.612965203805866
0.471172209917277,-0.61669855246661
0.475066657699872,-0.620435502363353
0.478973300073321,-0.624175943448309
0.482892186613939,-0.62791976567369
0.486823366898046,-0.631666858991711
0.49076689050196,-0.635417113354586
0.494722807001999,-0.639170418714527
0.498691165974481,-0.64292666502375
0.502672016995726,-0.646685742234467
0.50666540964205,-0.650447540298891
0.510671393489772,-0.654211949169238
0.514690018115211,-0.65797885879772
0.518721333094684,-0.661748159136551
0.522765388004511,-0.665519740137944
0.526822232421008,-0.669293491754114
0.530891915920495,-0.673069303937274
0.53497448807929,-0.676847066639638
0.539069998473711,-0.680626669813419
0.543178496680076,-0.684408003410831
0.547300032274704,-0.688190957384087
0.551434654833912,-0.691975421685402
0.55558241393402,-0.695761286266989
0.559743359151344,-0.699548441081062
0.563917540062204,-0.703336776079833
0.568105006242918,-0.707126181215519
0.572305807269804,-0.71091654644033
0.576519992719181,-0.714707761706482
0.580747612167365,-0.718499716966188
0.584988715190677,-0.722292302171661
0.589243351365434,-0.726085407275116
0.593511570267954,-0.729878922228765
0.597793421474555,-0.733672736984823
0.602088954561557,-0.737466741495504
0.606398219105277,-0.74126082571302
0.610721264682033,-0.745054879589587
0.615058140868143,-0.748848793077416
0.619408897239927,-0.752642456128722
0.623773583373701,-0.756435758695719
0.628152248845786,-0.76022859073062
0.632544943232497,-0.764020842185639
0.636951716110155,-0.76781240301299
