0.217176156747693,0.340845272458499
0.235371426848513,0.290570164054192
0.228463835416774,0.240652747176349
0.302718865485917,0.226216677338766
0.290209129573519,0.193332002862468
0.305703882603523,0.162052223237635
0.332481166063295,0.142978566449371
0.318625266021774,0.114800047248381
0.324917711378561,0.121230798528238
0.377942202537592,0.0300034943764242
0.363559437407583,0.0142351453740539
0.37140374610344,-0.0135987205627099
0.392793754640786,-0.0559830451109209
0.465523455752071,0.0198625445711579
0.390972584649271,-0.0889815616686431
0.360671599218248,-0.129590073361753
0.393537876719819,-0.144016701050912
0.39474406007475,-0.168336841725593
0.394942309108312,-0.192064768731342
0.394160743792539,-0.215198598413326
0.392427484099464,-0.237736447116711
0.389770650001123,-0.259676431186662
0.386218361469547,-0.281016666968347
0.381798738476773,-0.301755270806932
0.376539900994832,-0.321890359047582
0.37046996899576,-0.341420048035465
0.265411535150513,-0.459145478070699
0.356009301334355,-0.378655693633592
0.34767480561609,-0.396357882934169
0.24387225957373,-0.508773523701787
0.238222097060655,-0.547454206230938
0.318592110575455,-0.44577931298395
0.307631876173409,-0.461018464867114
0.296085507030502,-0.47563714825884
0.283981123118769,-0.489633479504295
0.271346844410243,-0.503005574948646
0.258210790876957,-0.515751550937058
0.35813237010618,-0.434494078183594
0.230545839224246,-0.53935760992673
0.216073181048887,-0.550213925618323
0.107613743371658,-0.650732688663826
0.185988099860333,-0.570023711120856
0.277687090378793,-0.48025269794678
0.154570798701557,-0.587283811083624
0.13843286556342,-0.594953019850513
0.122046237348829,-0.601979156267959
0.105439034029818,-0.60836033668113
0.181149732790144,-0.511728099933428
-0.025326700461897,-0.721813145899143
0.0545751731666052,-0.62361530534665
-0.0559605012000377,-0.721534758765119
0.020078589889651,-0.630525970763666
0.00273845535683195,-0.632997858399673
-0.0146254144761698,-0.634811604447569
-0.126093103877437,-0.733475159992215
-0.049311880154586,-0.636457137159691
-0.0665782360559327,-0.636285156514249
-0.0837558473693265,-0.63544749966136
-0.219330653831401,-0.730278903769159
-0.11773235634412,-0.631767622713908
-0.134475014061452,-0.628921635309676
-0.0463153887400403,-0.531225272313782
-0.0624374003167633,-0.508358410793304
-0.183383160468782,-0.616336873516959
-0.199152200449557,-0.610786740876599
-0.214607536066108,-0.604555862790124
-0.229721047346401,-0.597642355602698
-0.244464614318402,-0.590044335659487
-0.258810117010078,-0.58175991930566
-0.272729435449394,-0.572787222886381
-0.286194449664317,-0.563124362746817
-0.410675919753994,-0.655868718658915
-0.311649085532846,-0.5417206166875
-0.323582467242385,-0.529975963458079
-0.334949064839395,-0.517533611889038
-0.345720758351842,-0.504391678325543
-0.355869427807692,-0.490548279112761
-0.365366953234911,-0.476001530595858
-0.374185214661466,-0.460749549120001
-0.382296092115322,-0.444790451030355
-0.389671465624446,-0.428122352672087
-0.396283215216803,-0.410743370390362
-0.40210322092036,-0.392651620530349
-0.2883094071238,-0.272032906517571
-0.411255520772939,-0.354322283456118
-0.414531574977892,-0.334080928932233
-0.416903405405909,-0.313119272210724
-0.418342892084957,-0.291435429636757
-0.50890775359932,-0.382606385401419
-0.308194197552035,-0.144073403530985
-0.309492158842392,-0.120892541035585
-0.414215001870774,-0.197440527719632
-0.410570970224465,-0.172117501060868
-0.405825874996983,-0.146060986620644
-0.399951596216294,-0.119269100744125
-0.392920013910364,-0.0917399597764791
-0.384703008107159,-0.0634716800628712
-0.375272458834646,-0.034462377948468
-0.36460024612079,-0.00471016977843568
-0.352658249993558,0.0257868281020593
-0.247131589426828,0.150907247013525
-0.428627208240514,-0.0371891731400062
-0.315265715427179,0.108428343293781
-0.301148866821998,0.135439753173377
-0.286828539401954,0.160751291187909
-0.157207906417938,0.294428615786098
-0.257614882697797,0.206431181665137
-0.242740270703946,0.226877749149514
-0.227699614475754,0.245780874812186
-0.21250227265835,0.263179666163992
-0.197157603896867,0.279113230715773
-0.181674966836433,0.293620675978369
-0.166063720122181,0.30674110946262
-0.150333222399239,0.318513638679366
-0.13449283231274,0.328977371139446
-0.118551908507812,0.338171414353701
-0.102519809629587,0.34613487583297
-0.0864058943231959,0.352906863088094
-0.0702195212337681,0.358526483629912
-0.0539700490064345,0.363032844969264
-0.0376668362863257,0.366465054616991
-0.0213192417185721,0.368862220083933
-0.00493662394830424,0.370263448880928
0.130781965628511,0.466594079941537
0.0278962466192522,0.370234526508442
0.152036310209093,0.473128300457927
0.0607569062552999,0.366691147586252
0.0771742603611815,0.363699305696118
0.0935704857987944,0.359946172201078
0.109936223923008,0.355470854611972
0.126262116088692,0.35031246043964
0.142538803650716,0.344510097194922
0.158756927963949,0.338102872388658
0.17490713038326,0.331129893531687
0.19098005226352,0.32363026813485
0.206966334959598,0.315643103708987
0.222856619826363,0.307207507764937
0.238641548218684,0.298362587813541
0.254311761491432,0.289147451365639
0.269857900999476,0.27960120593207
0.285270608097685,0.269762959023674
0.300540524140928,0.259671818151292
0.315658290484076,0.249366890825763
0.424144706488764,0.330485593599485
0.435984808005794,0.347834434549204
0.36000510486164,0.217560465238696
0.374420685953099,0.20679146720898
0.388637324118811,0.196004220280317
0.402645660713643,0.185237831963547
0.416436337092467,0.17453140976951
0.42999999461015,0.163924061209046
0.443327274621563,0.153454893792995
0.456408818481576,0.143163015032197
0.469235267545057,0.133087532437492
0.481797263166876,0.123267553519719
0.494085446701903,0.113742185789719
0.506090459505008,0.104550536758332
0.517802942931059,0.0957317139363976
0.529213538334926,0.0873248248347558
0.540312887071479,0.0793689769642465
0.551091630495587,0.0719032778357097
0.56154040996212,0.0649668349599853
0.571649866825947,0.0585987558479133
0.699902958843794,0.154355976669244
0.590813378164961,0.0477241189580864
0.599848715349888,0.0432957762020113
0.608507295351587,0.0395922272529485
0.616779759524927,0.0366525796217379
0.624656749224779,0.0345159408192194
0.632128905806011,0.033221418356233
0.639186870623493,0.0328081197436186
0.645821285032095,0.0333151524922162
0.652022790386687,0.0347816241128657
0.657782028042137,0.0372466421164072
0.663089639353315,0.0407493140136805
0.667936265675091,0.0453287473155256
0.672312548362334,0.0510240495327825
0.779650725675913,0.154176288095421
0.679616648252699,0.0659186907568912
0.682525748165561,0.0751962447854231
0.684927069863367,0.0857460977727265
0.569577242562043,-0.00934433745837246
0.688168944033294,0.110819130667008
0.688990779215153,0.125420525595666
0.689267401601435,0.141450649526455
0.68898945254701,0.158948609970216
0.688147573406747,0.177953514437787
0.568478227609187,0.0913468428076381
0.684734590288186,0.220640585487725
0.682144769019627,0.24440096709177
0.678953583084707,0.269824722762987
0.675151673838297,0.296950960012215
0.670729682635267,0.325818786350293
0.665678250830485,0.356467309288063
0.659988019778821,0.388935636336363
0.653649630835145,0.423262875006035
0.646653725354326,0.459488132807917
0.638990944691233,0.49765051725285
0.630651930200737,0.537789135851674
0.621627323237706,0.579943096115228
