-0.710993707287943,0.312305125119304
-0.703081950516105,0.312562659420679
-0.695255313011209,0.312768488998955
-0.687513366760539,0.312922924203449
-0.679855683751381,0.313026275383478
-0.672281835971022,0.313078852888359
-0.664791395406745,0.31308096706741
-0.657383934045837,0.313032928269947
-0.650059023875583,0.312935046845288
-0.642816236883269,0.312787633142751
-0.635655145056179,0.312590997511651
-0.6285753203816,0.312345450301308
-0.621576334846818,0.312051301861037
-0.614657760439116,0.311708862540156
-0.607819169145782,0.311318442687982
-0.6010601329541,0.310880352653833
-0.594380223851355,0.310394902787026
-0.587779013824834,0.309862403436877
-0.581256074861821,0.309283164952704
-0.574810978949603,0.308657497683825
-0.568443298075464,0.307985711979556
-0.562152604226691,0.307268118189215
-0.555938469390567,0.306505026662119
-0.54980046555438,0.305696747747585
-0.543738164705415,0.304843591794931
-0.537751138830956,0.303945869153473
-0.53183895991829,0.303003890172529
-0.526001199954701,0.302017965201416
-0.520237430927476,0.300988404589451
-0.5145472248239,0.299915518685952
-0.508930153631257,0.298799617840235
-0.503385789336835,0.297641012401619
-0.497913703927917,0.296440012719419
-0.492513469391791,0.295196929142954
-0.48718465771574,0.29391207202154
-0.481926840887051,0.292585751704496
-0.476739590893009,0.291218278541137
-0.471622479720899,0.289809962880781
-0.466575079358007,0.288361115072746
-0.461596961791618,0.286872045466348
-0.456687699009019,0.285343064410906
-0.451846862997493,0.283774482255735
-0.447074025744328,0.282166609350154
-0.442368759236807,0.280519756043479
-0.437730635462217,0.278834232685028
-0.433159226407843,0.277110349624118
-0.428654104060971,0.275348417210066
-0.424214840408886,0.27354874579219
-0.419841007438874,0.271711645719806
-0.415532177138219,0.269837427342232
-0.411287921494208,0.267926401008785
-0.407107812494125,0.265978877068782
-0.402991422125257,0.26399516587154
-0.398938322374889,0.261975577766378
-0.394948085230306,0.259920423102611
-0.391020282678794,0.257830012229557
-0.387154486707638,0.255704655496534
-0.383350269304123,0.253544663252858
-0.379607202455536,0.251350345847847
-0.375924858149161,0.249122013630818
-0.372302808372284,0.246859976951088
-0.368740625112191,0.244564546157975
-0.365237880356166,0.242236031600795
-0.361794146091496,0.239874743628866
-0.358408994305466,0.237480992591506
-0.355081996985361,0.23505508883803
-0.351812726118467,0.232597342717757
-0.348600753692069,0.230108064580004
-0.345445651693453,0.227587564774088
-0.342346992109904,0.225036153649325
-0.339304346928708,0.222454141555035
-0.33631728813715,0.219841838840532
-0.333385387722515,0.217199555855136
-0.330508217672089,0.214527602948163
-0.327685349973158,0.211826290468929
-0.324916356613006,0.209095928766754
-0.32220080957892,0.206336828190953
-0.319538280858185,0.203549299090844
-0.316928342438086,0.200733651815744
-0.314370566305909,0.19789019671497
-0.311864524448939,0.19501924413784
-0.309409788854461,0.19212110443367
-0.307005931509762,0.189196087951779
-0.304652524402126,0.186244505041483
-0.30234913951884,0.183266666052099
-0.300095348847188,0.180262881332945
-0.297890724374456,0.177233461233337
-0.295734838087929,0.174178716102594
-0.293627261974893,0.171098956290032
-0.291567568022634,0.167994492144969
-0.289555328218436,0.164865634016721
-0.287590114549586,0.161712692254606
-0.285671499003368,0.158535977207941
-0.283799053567069,0.155335799226044
-0.281972350227973,0.152112468658231
-0.280190960973366,0.14886629585382
-0.278454457790534,0.145597591162128
-0.276762412666762,0.142306664932473
-0.275114397589335,0.13899382751417
-0.273509984545539,0.135659389256539
-0.27194874552266,0.132303660508895
-0.270430252507982,0.128926951620557
-0.268954077488792,0.12552957294084
-0.267519792452375,0.122111834819063
-0.266126969386016,0.118674047604543
-0.264775180277,0.115216521646597
-0.263463997112614,0.111739567294543
-0.262192991880142,0.108243494897696
-0.260961736566871,0.104728614805375
-0.259769803160085,0.101195237366897
-0.25861676364707,0.0976436729315793
-0.257502190015111,0.0940742318487385
-0.256425654251494,0.0904872244676923
-0.255386728343505,0.0868829611377579
-0.254384984278429,0.0832617522082523
-0.253419994043551,0.0796239080284928
-0.252491329626156,0.0759697389477967
-0.251598563013531,0.0722995553154812
-0.250741266192961,0.0686136674808635
-0.24991901115173,0.0649123857932607
-0.249131369877126,0.0611960206019903
-0.248377914356432,0.0574648822563692
-0.247658216576935,0.0537192811057148
-0.246971848525919,0.0499595274993442
-0.246318382190672,0.0461859317865748
-0.245697389558477,0.0423988043167236
-0.24510844261662,0.038598455439108
-0.244551113352388,0.034785195503045
-0.244024973753064,0.0309593348578522
-0.243529595805935,0.0271211838528464
-0.243064551498287,0.023271052837345
-0.242629412817404,0.0194092521606653
-0.242223751750572,0.0155360921721244
-0.241847140285077,0.0116518832210395
-0.241499150408204,0.00775693565672786
-0.241179354107238,0.00385155982850667
-0.240887323369466,-6.39339143067436e-05
-0.240622630182171,-0.00398923522239528
-0.240384846532641,-0.00792403374644177
-0.24017354440816,-0.0118680191371289
-0.239988295796014,-0.0158208810451393
-0.239828672683488,-0.0197823091211561
-0.239694247057867,-0.0237519930158619
-0.239584590906438,-0.0277296223799394
-0.239499276216486,-0.0317148868640715
-0.239437874975295,-0.035707476118941
-0.239399959170152,-0.0397070797952306
-0.239385100788342,-0.0437133875436231
-0.239392871817151,-0.0477260890148014
-0.239422844243864,-0.0517448738594481
-0.239474590055765,-0.0557694317282461
-0.239547681240142,-0.0597994522718781
-0.239641689784279,-0.063834625141027
-0.239756187675462,-0.0678746399863755
-0.239890746900976,-0.0719191864586064
-0.240044939448107,-0.0759679542084025
-0.24021833730414,-0.0800206328864465
-0.24041051245636,-0.0840769121434213
-0.240621036892054,-0.0881364816300097
-0.240849482598506,-0.0921990309968944
-0.241095421563002,-0.0962642498947582
-0.241358425772828,-0.100331827974284
-0.241638067215268,-0.104401454886154
-0.241933917877609,-0.108472820281052
-0.242245549747135,-0.11254561380966
-0.242572534811133,-0.116619525122661
-0.242914445056888,-0.120694243870738
-0.243270852471685,-0.124769459704573
-0.243641329042809,-0.12884486227485
-0.244025446757547,-0.132920141232251
-0.244422777603183,-0.136994986227459
-0.244832893567003,-0.141069086911156
-0.245255366636293,-0.145142132934026
-0.245689768798338,-0.149213813946752
-0.246135672040423,-0.153283819600015
-0.246592648349834,-0.157351839544499
-0.247060269713856,-0.161417563430887
-0.247538108119775,-0.165480680909861
-0.248025735554877,-0.169540881632105
-0.248522724006446,-0.1735978552483
-0.249028645461768,-0.17765129140913
-0.249543071908129,-0.181700879765278
-0.250065575332814,-0.185746309967426
-0.250595727723109,-0.189787271666258
-0.251133101066299,-0.193823454512455
-0.251677267349669,-0.1978545481567
-0.252227798560505,-0.201880242249678
-0.252784266686092,-0.205900226442069
-0.253346243713717,-0.209914190384558
-0.253913301630663,-0.213921823727826
-0.254485012424218,-0.217922816122557
-0.255060948081665,-0.221916857219433
-0.255640680590292,-0.225903636669138
-0.256223781937382,-0.229882844122353
-0.256809824110222,-0.233854169229762
-0.257398379096097,-0.237817301642048
-0.257989018882293,-0.241771931009893
-0.258581315456095,-0.24571774698398
-0.259174840804788,-0.249654439214992
-0.259769166915658,-0.253581697353611
-0.26036386577599,-0.257499211050521
-0.260958509373071,-0.261406669956404
-0.261552669694184,-0.265303763721943
-0.262145918726617,-0.269190181997821
-0.262737828457653,-0.27306561443472
-0.26332797087458,-0.276929750683324
-0.263915917964681,-0.280782280394315
-0.264501241715243,-0.284622893218376
-0.265083514113551,-0.288451278806189
-0.26566230714689,-0.292267126808438
-0.266237192802547,-0.296070126875806
-0.266807743067806,-0.299859968658974
-0.267373529929953,-0.303636341808626
-0.267934125376273,-0.307398935975445
-0.268489101394052,-0.311147440810113
-0.269038029970575,-0.314881545963313
-0.269580483093128,-0.318600941085728
-0.270116032748996,-0.322305315828041
-0.270644250925465,-0.325994359840934
-0.27116470960982,-0.329667762775091
-0.271676980789346,-0.333325214281194
-0.27218063645133,-0.336966404009926
-0.272675248583056,-0.340591021611969
-0.27316038917181,-0.344198756738007
-0.273635630204877,-0.347789299038722
-0.274100543669543,-0.351362338164797
-0.274554701553094,-0.354917563766914
-0.274997675842814,-0.358454665495758
-0.27542903852599,-0.361973333002009
-0.275848361589906,-0.365473255936352
-0.276255217021849,-0.368954123949469
-0.276649176809103,-0.372415626692042
-0.277029812938954,-0.375857453814755
-0.277396697398688,-0.37927929496829
-0.27774940217559,-0.382680839803331
-0.278087499256945,-0.386061777970559
-0.278410560630039,-0.389421799120657
-0.278718158282157,-0.392760592904309
-0.279009864200586,-0.396077848972198
-0.279285250372609,-0.399373256975005
-0.279543888785514,-0.402646506563414
-0.279785351426584,-0.405897287388107
-0.280009210283107,-0.409125289099768
-0.280215037342366,-0.412330201349079
-0.280402404591648,-0.415511713786723
-0.280570884018238,-0.418669516063382
-0.280720047609422,-0.42180329782974
-0.280849467352485,-0.424912748736479
-0.280958715234712,-0.427997558434282
-0.281047363243389,-0.431057416573832
-0.281114983365801,-0.434092012805811
-0.281161147589234,-0.437101036780903
-0.281185427900974,-0.44008417814979
-0.281187396288305,-0.443041126563155
-0.281166624738513,-0.445971571671681
-0.281122685238884,-0.44887520312605
-0.281055149776703,-0.451751710576945
-0.280963590339256,-0.45460078367505
-0.280847578913828,-0.457422112071046
-0.280706687487704,-0.460215385415617
-0.28054048804817,-0.462980293359445
-0.280348552582512,-0.465716525553213
-0.280130453078015,-0.468423771647605
-0.279885761521963,-0.471101721293302
-0.279614049901644,-0.473750064140988
-0.279314890204342,-0.476368489841345
-0.278987854417343,-0.478956688045056
-0.278632514527932,-0.481514348402804
-0.278248442523394,-0.484041160565272
-0.277835210391015,-0.486536814183142
-0.277392390118082,-0.489000998907097
-0.276919553691878,-0.491433404387821
-0.276416273099689,-0.493833720275995
-0.275882120328802,-0.496201636222303
-0.275316667366501,-0.498536841877427
-0.274719486200071,-0.500839026892051
-0.2740901488168,-0.503107880916856
-0.27342822720397,-0.505343093602526
-0.27273329334887,-0.507544354599743
-0.272004919238782,-0.509711353559191
-0.271242676860994,-0.511843780131552
-0.270446138202791,-0.513941323967509
-0.269614875251457,-0.516003674717744
-0.26874845999428,-0.518030522032941
-0.267846464418543,-0.520021555563782
-0.266908460511532,-0.52197646496095
-0.265934020260534,-0.523894939875127
-0.264922715652833,-0.525776669956998
-0.263874118675714,-0.527621344857243
-0.262787801316464,-0.529428654226547
-0.261663335562368,-0.531198287715592
-0.260500293400711,-0.53292993497506
-0.259298246818779,-0.534623285655635
-0.258056767803857,-0.536278029407999
-0.25677542834323,-0.537893855882835
-0.255453800424184,-0.539470454730825
-0.254091456034005,-0.541007515602654
-0.252687967159978,-0.542504728149003
-0.251242905789388,-0.543961782020555
-0.249755843909522,-0.545378366867993
-0.248226353507663,-0.546754172341999
-0.246654006571098,-0.548088888093257
-0.245038375087113,-0.54938220377245
-0.243379031042992,-0.550633809030259
-0.241675546426022,-0.551843393517369
-0.239927493223487,-0.553010646884461
-0.238134443422673,-0.554135258782218
-0.236295969010866,-0.555216918861324
-0.234411641975351,-0.556255316772461
-0.232481034303413,-0.557250142166311
-0.230503717982339,-0.558201084693558
-0.228479264999412,-0.559107834004885
-0.22640724734192,-0.559970079750973
-0.224287236997147,-0.560787511582506
-0.222118805952378,-0.561559819150167
-0.2199015261949,-0.562286692104639
-0.217634969711998,-0.562967820096604
-0.215318708490957,-0.563602892776745
-0.212952314519062,-0.564191599795744
-0.2105353597836,-0.564733630804286
-0.208067416271855,-0.565228675453051
-0.205548055971113,-0.565676423392724
-0.202976850868659,-0.566076564273987
-0.20035337295178,-0.566428787747522
-0.197677194207759,-0.566732783464014
-0.194947886623884,-0.566988241074143
-0.192165022187439,-0.567194850228593
-0.18932817288571,-0.567352300578048
-0.186436910705982,-0.567460281773189
-0.18349080763554,-0.567518483464699
-0.180489435661671,-0.567526595303262
-0.177432366771659,-0.567484306939559
-0.174319172952791,-0.567391308024275
-0.17114942619235,-0.567247288208091
-0.167922698477624,-0.56705193714169
-0.164638561795898,-0.566804944475755
-0.161296588134456,-0.56650599986097
-0.157896349480584,-0.566154792948016
-0.154437417821569,-0.565751013387577
-0.150919365144694,-0.565294350830334
-0.147341763437247,-0.564784494926972
-0.143704184686511,-0.564221135328173
-0.140006200879774,-0.563603961684619
-0.136247384004319,-0.562932663646994
-0.132427306047433,-0.56220693086598
-0.128545538996401,-0.56142645299226
-0.124601654838508,-0.560590919676517
-0.120595225561041,-0.559700020569433
-0.116525823151284,-0.558753445321691
-0.112393019596522,-0.557750883583975
-0.108196386884042,-0.556692025006966
-0.103935497001129,-0.555576559241349
-0.0996099219350684,-0.554404175937804
-0.0952192336731451,-0.553174564747016
-0.0907630042026452,-0.551887415319667
-0.0862408055108538,-0.550542417306439
-0.0816522095850565,-0.549139260358017
-0.0769967884125387,-0.547677634125081
-0.0722741139805861,-0.546157228258316
-0.0674837582764837,-0.544577732408404
-0.0626252932875175,-0.542938836226027
-0.0576982910009724,-0.541240229361869
-0.0527023234041345,-0.539481601466612
-0.0476369624842886,-0.537662642190939
-0.0425017802287207,-0.535783041185533
-0.0372963486247158,-0.533842488101077
-0.0320202396595598,-0.531840672588253
-0.0266730253205378,-0.529777284297744
-0.0212542775949355,-0.527652012880233
-0.0157635684700381,-0.525464547986404
-0.0102004699331315,-0.523214579266937
-0.00456455397150066,-0.520901796372517
0.0011446074275685,-0.518525888953826
0.00692744227679104,-0.516086546661547
0.0127843785888809,-0.513583459146362
0.0187158443765532,-0.511016316058955
0.024722267652522,-0.508384807050009
0.0308040764295024,-0.505688621770205
0.0369616987202082,-0.502927449870227
0.0431955625373546,-0.500100981000758
0.0495060958936556,-0.49720890481248
0.0558937268018263,-0.494250910956076
0.0623588832745807,-0.491226689082229
0.0689019933246339,-0.488135928841622
0.0755234849646998,-0.484978319884937
0.0822237862074937,-0.481753551862858
0.0890033250657292,-0.478461314426067
0.0958625295521218,-0.475101297225246
0.102801827679385,-0.471673189911079
0.109821647460235,-0.468176682134249
0.116922416907384,-0.464611463545438
0.124104564033549,-0.460977223795329
0.131368516851442,-0.457273652534604
0.13871470337378,-0.453500439413947
0.146143551613276,-0.449657274084041
0.153655489582646,-0.445743846195568
0.161250945294602,-0.44175984539921
0.168930346761861,-0.437704961345651
0.176694121997136,-0.433578883685574
0.184542699013143,-0.429381302069661
0.184542699013143,-0.429381302069661
0.192382042987388,-0.425160952244078
0.200118151209629,-0.420966711075173
0.207751499860952,-0.416798479893904
0.215282565122443,-0.412656160031231
0.22271182317519,-0.40853965281811
0.230039750200279,-0.404448859585499
0.237266822378796,-0.400383681664358
0.24439351589183,-0.396344020385643
0.251420306920466,-0.392329777080313
0.258347671645792,-0.388340853079326
0.265176086248893,-0.384377149713639
0.271906026910857,-0.380438568314212
0.278537969812771,-0.376525010212001
0.28507239113572,-0.372636376737965
0.291509767060793,-0.368772569223062
0.297850573769076,-0.36493348899825
0.304095287441655,-0.361119037394487
0.310244384259617,-0.357329115742731
0.31629834040405,-0.35356362537394
0.322257632056039,-0.349822467619073
0.328122735396672,-0.346105543809086
0.333894126607035,-0.342412755274938
0.339572281868216,-0.338744003347588
0.3451576773613,-0.335099189357993
0.350650789267374,-0.331478214637111
0.356052093767526,-0.3278809805159
0.361362067042842,-0.324307388325318
0.366581185274409,-0.320757339396324
0.371709924643314,-0.317230735059875
0.376748761330643,-0.31372747664693
0.381698171517483,-0.310247465488445
0.386558631384921,-0.306790602915381
0.391330617114044,-0.303356790258693
0.396014604885938,-0.299945928849342
0.40061107088169,-0.296557920018283
0.405120491282387,-0.293192665096476
0.409543342269116,-0.289850065414879
0.413880100022963,-0.286530022304449
0.418131240725016,-0.283232437096145
0.42229724055636,-0.279957211120924
0.426378575698084,-0.276704245709745
0.430375722331272,-0.273473442193566
0.434289156637013,-0.270264701903345
0.438119354796393,-0.267077926170039
0.441866792990498,-0.263913016324607
0.445531947400416,-0.260769873698007
0.449115294207233,-0.257648399621196
0.452617309592037,-0.254548495425134
0.456038469735913,-0.251470062440777
0.459379250819948,-0.248413001999084
0.46264012902523,-0.245377215431013
0.465821580532845,-0.242362604067523
0.46892408152388,-0.23936906923957
0.471948108179421,-0.236396512278113
0.474894136680555,-0.23344483451411
0.47776264320837,-0.230513937278519
0.480554103943952,-0.227603721902299
0.483268995068387,-0.224714089716406
0.485907792762762,-0.2218449420518
0.488470973208164,-0.218996180239438
0.490959012585681,-0.216167705610278
0.493372387076398,-0.213359419495278
0.495711572861402,-0.210571223225396
0.49797704612178,-0.207803018131591
0.50016928303862,-0.20505470554482
0.502288759793006,-0.202326186796042
0.504335952566028,-0.199617363216213
0.50631133753877,-0.196928136136294
0.508215390892321,-0.19425840688724
0.510048588807766,-0.191608076800012
0.511811407466192,-0.188977047205565
0.513504323048687,-0.186365219434859
0.515127811736337,-0.183772494818852
0.516682349710228,-0.181198774688501
0.518168413151447,-0.178643960374765
0.519586478241083,-0.176107953208602
0.52093702116022,-0.173590654520969
0.522220518089945,-0.171091965642824
0.523437445211346,-0.168611787905127
0.52458827870551,-0.166150022638834
0.525673494753522,-0.163706571174904
0.52669356953647,-0.161281334844295
0.527648979235441,-0.158874214977965
0.528540200031521,-0.156485112906871
0.529367708105797,-0.154113929961972
0.530131979639356,-0.151760567474227
0.530833490813284,-0.149424926774592
0.531472717808668,-0.147106909194026
0.532050136806596,-0.144806416063487
0.532566223988154,-0.142523348713933
0.533021455534427,-0.140257608476322
0.533416307626505,-0.138009096681613
0.533751256445472,-0.135777714660762
0.534026778172417,-0.133563363744728
0.534243348988425,-0.13136594526447
0.534401445074583,-0.129185360550945
0.534501542611978,-0.127021510935111
0.534544117781697,-0.124874297747926
0.534529646764827,-0.122743622320348
0.534458605742455,-0.120629385983336
0.534331470895666,-0.118531490067847
0.534148718405548,-0.11644983590484
0.533910824453188,-0.114384324825271
0.533618265219673,-0.112334858160101
0.533271516886088,-0.110301337240285
0.532871055633522,-0.108283663396783
0.53241735764306,-0.106281737960553
0.53191089909579,-0.104295462262552
0.531352156172797,-0.102324737633739
0.53074160505517,-0.100369465405071
0.530079721923995,-0.0984295469075066
0.529366982960358,-0.0965048834720041
0.528603864345346,-0.0945953764295212
0.527790842260046,-0.0927009271110159
0.526928392885545,-0.0908214368474463
0.526016992402929,-0.0889568069697706
0.525057116993286,-0.0871069388089465
0.524049242837702,-0.0852717336959322
0.522993846117263,-0.0834510929616857
0.521891403013057,-0.0816449179371652
0.520742389706171,-0.0798531099533285
0.51954728237769,-0.0780755703411336
0.518306557208702,-0.0763122004315387
0.517020690380294,-0.0745629015555018
0.515690158073552,-0.0728275750439808
0.514315436469563,-0.0711061222279339
0.512897001749414,-0.0693984444383189
0.511435330094192,-0.0677044430060941
0.509930897684983,-0.0660240192622174
0.508384180702874,-0.0643570745376467
0.506795655328952,-0.0627035101633402
0.505165797744303,-0.0610632274702559
0.503495084130015,-0.0594361277893519
0.501783990667174,-0.057822112451586
0.500032993536867,-0.0562210827879164
0.498242568920181,-0.0546329401293011
0.496413192998202,-0.0530575858066981
0.494545341952017,-0.0514949211510654
0.492639491962713,-0.0499448474933611
0.490696119211377,-0.0484072661645433
0.488715699879095,-0.0468820784955698
0.486698710146954,-0.0453691858173988
0.484645626196041,-0.0438684894609883
0.482556924207444,-0.0423798907572963
0.480433080362247,-0.0409032910372808
0.478274570841539,-0.0394385916318999
0.476081871826405,-0.0379856938721116
0.473855459497934,-0.0365444990888739
0.471595810037211,-0.0351149086131449
0.469303399625323,-0.0336968237758825
0.466978704443357,-0.0322901459080448
0.4646222006724,-0.0308947763405899
0.462234364493539,-0.0295106164044758
0.45981567208786,-0.0281375674306604
0.457366599636449,-0.0267755307501018
0.454887623320395,-0.0254244076937581
0.452379219320783,-0.0240840995925873
0.449841863818701,-0.0227545077775473
0.447276032995234,-0.0214355335795963
0.44468220303147,-0.0201270783296922
0.442060850108497,-0.0188290433587932
0.439412450407399,-0.0175413299978571
0.436737480109264,-0.016263839577842
0.434036415395179,-0.0149964734297061
0.431309732446231,-0.0137391328844072
0.428557907443506,-0.0124917192729034
0.425781416568092,-0.0112541339261528
0.422980736001074,-0.0100262781751134
0.42015634192354,-0.00880805335074314
0.417308710516576,-0.00759936078400014
0.414438317961269,-0.00640010180584236
0.411545640438707,-0.00521017774722794
0.408631154129975,-0.0040294899391148
0.40569533521616,-0.002857939712461
0.40273865987835,-0.00169542839822455
0.399761604297631,-0.000541857327363532
0.396764644655089,0.000602872169164048
0.393748257131812,0.00173885876040022
0.390712917908885,0.0028662011153869
0.387659103167397,0.00398499790316605
0.384587289088434,0.00509534779277968
0.381497951853082,0.00619734945326975
0.378391567642428,0.00729110155367824
0.37526861263756,0.00837670276304707
0.372129563019563,0.00945425175041826
0.368974894969525,0.0105238471848338
0.365805084668531,0.0115855877353356
0.362620608297671,0.0126395720709657
0.359421942038028,0.013685898860766
0.356209562070691,0.0147246667737786
0.352983944576747,0.0157559744790453
0.349745565737282,0.0167799206456082
0.346494901733382,0.0177966039425092
0.343232428746135,0.0188061230387904
0.339958622956627,0.0198085766034936
0.336673960545946,0.0208040633056608
0.333378917695177,0.0217926818143341
0.330073970585408,0.0227745307985554
0.326759595397725,0.0237497089273666
0.323436268313216,0.0247183148698098
0.320104465512966,0.0256804472949268
0.316764663178063,0.0266362048717598
0.313417337489593,0.0275856862693506
0.310062964628643,0.0285289901567412
0.306702020776301,0.0294662152029737
0.303334982113652,0.0303974600770898
0.299962324821783,0.0313228234481318
0.296584525081782,0.0322424039851414
0.293202059074734,0.0331563003571608
0.289815402981727,0.0340646112332318
0.286425032983848,0.0349674352823964
0.283031425262183,0.0358648711736967
0.279635055997819,0.0367570175761745
0.276236401371842,0.0376439731588719
0.27283593756534,0.0385258365908307
0.269434140759399,0.0394027065410931
0.266031487135106,0.040274681678701
0.262628452873548,0.0411418606726962
0.259225514155812,0.0420043421921209
0.255823147162984,0.042862224906017
0.25242182807615,0.0437156074834264
0.249022033076399,0.0445645885933912
0.245624238344816,0.0454092669049532
0.242228920062488,0.0462497410871545
0.238836554410503,0.0470861098090371
0.235447617569946,0.0479184717396429
0.232062585721905,0.0487469255480139
0.228681935047466,0.049571569903192
0.225306141727716,0.0503925034742192
0.221935681943742,0.0512098249301376
0.218571031876631,0.0520236329399891
0.215212667707469,0.0528340261728155
0.211861065617343,0.0536411032976591
0.20851670178734,0.0544449629835616
0.205180052398546,0.055245703899565
0.201851593632049,0.0560434247147114
0.198531801668935,0.0568382240980428
0.195221152690291,0.057630200718601
0.191920122877204,0.058419453245428
0.18862918841076,0.0592060803475659
0.185348825472046,0.0599901806940566
0.182079510242149,0.060771852953942
0.178821718902156,0.0615511957962643
0.175575927633153,0.0623283078900652
0.172342612616227,0.0631032879043868
0.169122250032466,0.063876234508271
0.165915316062955,0.0646472463707599
0.162722286888781,0.0654164221608954
0.159543638691032,0.0661838605477195
0.156379847650794,0.0669496602002742
0.153231389949153,0.0677139197876013
0.150098741767197,0.068476737978743
0.146982379286013,0.0692382134427411
0.143882778686686,0.0699984448486376
0.140800416150304,0.0707575308654746
0.137735767857954,0.0715155701622939
0.134689309990721,0.0722726614081377
0.131661518729694,0.0730289032720477
0.128652870255959,0.073784394423066
0.125663840750602,0.0745392335302346
0.122694906394711,0.0752935192625955
0.119746543369371,0.0760473502891905
0.116819227855671,0.0768008252790618
0.113913436034696,0.0775540429012512
0.111029644087533,0.0783071018248008
0.10816832819527,0.0790601007187524
0.105329964538992,0.0798131382521482
0.102515029299787,0.08056631309403
0.0997239986587411,0.0813197239134398
0.0969573487969416,0.0820734693794196
0.0942155558954748,0.0828276481610114
0.0914990961354278,0.0835823589272571
0.0888084456978871,0.0843377003471987
0.0861440807639397,0.0850937710898782
0.083506477514672,0.0858506698243376
0.0808961121311712,0.0866084952196188
0.0783134607945237,0.0873673459447638
0.0757589996858164,0.0881273206688146
0.073233204986136,0.0888885180608131
0.0707365528765694,0.0896510367898013
0.0682695195382032,0.0904149755248213
0.0658325811521243,0.0911804329349148
0.0634262138994192,0.0919475076891241
0.061050893961175,0.0927162984564909
0.0587070975184782,0.0934869039060573
0.0563953007524157,0.0942594227068653
0.0541159798440741,0.0950339535279568
0.0518696109745403,0.0958105950383737
0.049656670324901,0.0965894459071582
0.0474776340762431,0.0973706048033521
0.0453329784096531,0.0981541703959974
0.0432231795062179,0.098940241354136
0.0411487135470243,0.0997289163468101
0.039110056713159,0.100520294043061
0.0371076851857087,0.101314473111932
0.0351420751457603,0.102111552222464
0.0332137027744004,0.102911630043699
0.0313230442527159,0.10371480524468
0.0294705757617934,0.104521176494447
0.0276567734827198,0.105330842462044
0.0258821135965818,0.106143901816512
0.0241470722844662,0.106960453226893
0.0224521257274596,0.107780595362229
0.020797750106649,0.108604426891562
0.019184421603121,0.109432046483934
0.0176126163979624,0.110263552808388
0.0160828106722599,0.111099044533964
0.0145954806071003,0.111938620329705
0.0131511023835704,0.112782378864653
0.0117501521827569,0.11363041880785
0.0103931061857466,0.114482838828337
0.00908044057362623,0.115339737595158
0.0078126315274825,0.116201213777353
0.0065901552284023,0.117067366043966
0.00541348785747226,0.117938293064036
0.00428310559577919,0.118814093506608
0.00319948462440982,0.119694866040722
0.00216310112445097,0.120580709335421
0.00117443127698932,0.121471722059747
0.000233951263111688,0.122368002882741
-0.000657862736095235,0.123269650473446
-0.0015005345395446,0.124176763500903
-0.00229358796614973,0.125089440634155
-0.00303654683482383,0.126007780542244
-0.00372893496448016,0.12693188189421
-0.00437027617403194,0.127861843359098
-0.00496009428239246,0.128797763605947
-0.00549791310847488,0.129739741303801
-0.00598325647119253,0.130687875121702
-0.00641564818945858,0.131642263728691
-0.00679461208218635,0.13260300579381
-0.007119671968289,0.133570199986101
-0.00739035166667985,0.134543944974607
-0.00760617499627209,0.135524339428369
-0.00776666577597896,0.136511482016429
-0.00787134782471373,0.137505471407829
-0.00791974496138964,0.138506406271611
-0.00791138100491992,0.139514385276817
-0.00784577977421783,0.14052950709249
-0.00772246508819661,0.141551870387671
-0.00754096076576946,0.142581573831401
-0.00730079062584969,0.143618716092724
-0.00700147848735049,0.14466339584068
-0.00664254816918514,0.145715711744313
-0.00622352349026686,0.146775762472663
-0.00574392826950889,0.147843646694774
-0.00520328632582449,0.148919463079686
-0.00460112147812689,0.150003310296442
-0.00393695754532932,0.151095287014084
-0.00321031834634508,0.152195491901653
-0.00242072770008731,0.153304023628192
-0.00156770942546939,0.154420980862743
-0.00065078734140442,0.155546462274348
0.000330514733194232,0.156680566532049
0.00137667297941344,0.157823392304887
0.00248816357833986,0.158975038261904
0.00366546271106032,0.160135603072144
0.00490904655866151,0.161305185404646
0.00621939130223029,0.162483883928455
0.00759697312285329,0.16367179731261
0.0090422682016174,0.164869024226156
0.0105557527196092,0.166075663338132
0.0121379028579157,0.167291813317583
0.0137891947976234,0.168517572833548
0.0155101047198192,0.169753040555071
0.0173011088055898,0.170998315151193
0.0191626832360221,0.172253495290957
0.0210953041922026,0.173518679643404
0.0230994478552183,0.174793966877576
0.0251755904061558,0.176079455662515
0.027324208026102,0.177375244667264
0.0295457768961434,0.178681432560863
0.0318407731973671,0.179998118012356
0.0342096731108596,0.181325399690784
0.0366529528177078,0.182663376265189
0.0391710884989983,0.184012146404613
0.0417645563358181,0.185371808778098
0.0444338325092537,0.186742462054686
0.047179393200392,0.188124204903419
0.0500017145903197,0.189517135993339
0.0529012728601237,0.190921353993488
0.0558785441908905,0.192336957572908
0.0589340047637072,0.19376404540064
0.0620681307596601,0.195202716145728
0.0652813983598364,0.196653068477212
0.0685742837453226,0.198115201064135
0.0719472630972056,0.199589212575539
0.075400812596572,0.201075201680466
0.0789354084245088,0.202573267047957
0.0825515267621024,0.204083507347055
0.0862496437904399,0.205606021246801
0.0900302356906078,0.207140907416239
0.0938937786436931,0.208688264524408
0.0978407488307823,0.210248191240352
0.101871622432962,0.211820786233113
0.10598687563132,0.213406148171733
0.110186984606942,0.215004375725253
0.114472425540915,0.216615567562715
0.118843674614326,0.218239822353161
