-0.77822423475917,0.260186633474348
-0.886339954314913,0.141176868564144
-0.875094663020931,0.140620116787702
-0.978139701971529,0.0358315800889404
-0.951461914887764,0.25765387792551
-0.73354532870639,0.238180587382203
-0.830699424469278,0.138605215109053
-0.718115996697401,0.026249803050576
-0.690168706830271,0.0414595219671441
-0.683969004627197,0.234206677806209
-0.787234626515569,0.136925832900174
-0.776512708057929,0.136557810825479
-0.673535806926695,0.0394064648287363
-0.856990181211443,0.0168798492074427
-0.744690879825267,0.135576837876247
-0.627718803838484,0.239018706586437
-0.626618234942263,0.241024088404855
-0.812702164168609,0.0203857856454835
-0.800936680769814,0.238470808727554
-0.790306338114214,0.229005559674716
-0.788359617289437,0.237141903668127
-0.77409889017848,0.0426945904093973
-0.774796221013787,0.229816458614352
-0.652286409635202,0.133722993585873
-0.64229949486904,0.133616113631476
-0.632368091889912,0.133528760188834
-0.622492053989465,0.133460853065996
-0.612671234459347,0.133412312071014
-0.602905486591206,0.133383057011937
-0.593194663676691,0.133373007696814
-0.583538619007448,0.133382083933694
-0.573937205875127,0.133410205530629
-0.564390277571374,0.133457292295667
-0.545459288616167,0.133608040562252
-0.536074934548008,0.133711541679899
-0.517467773688819,0.133974396924149
-0.508244673481085,0.134133590666852
-0.499075031143455,0.134311188234006
-0.489958699967577,0.134507109433661
-0.480895533245099,0.134721274073868
-0.454023552714542,0.135472426718289
-0.445171576722142,0.135758763201196
-0.436372031641381,0.136062942164902
-0.427624770763908,0.136384883417457
-0.41892964738137,0.136724506766911
-0.410286514785415,0.137081732021314
-0.401695226267691,0.137456478988715
-0.393155635119845,0.137848667477164
-0.384667594633527,0.138258217294711
-0.376230958100383,0.138685048249405
-0.359511310060209,0.139590232802434
-0.34299551733251,0.14056357960065
-0.334813699939957,0.141075613361826
-0.318601489555685,0.142150000648567
-0.310570803147262,0.14271219379023
-0.302590200316845,0.143290946341488
-0.294659534356081,0.14388617811039
-0.286778658556618,0.144497808904986
-0.278947426210105,0.145125758533327
-0.27116569060819,0.145769946803461
-0.263433305042519,0.146430293523438
-0.240530781479456,0.148507482462928
-0.232994328975245,0.149231661062776
-0.225506492965518,0.149971597152716
-0.218067126741924,0.150727210540798
-0.203333216819725,0.152285148443585
-0.196038379704415,0.15308731257439
-0.18879142554183,0.153904833235535
-0.174440579241423,0.155585623381046
-0.153269764227441,0.158219977778109
-0.146307026905806,0.159127953590341
-0.132521973536962,0.16098821058292
-0.125699364073049,0.161940331379367
-0.112193246044479,0.163888156612823
-0.105509444063119,0.164883700665931
-0.0857333057505095,0.167955896267376
-0.0792325264956233,0.16900821530873
-0.0727771361514752,0.170074527617269
-0.0663669880097134,0.171154753001044
-0.0536818314999401,0.173356622226498
-0.0411758832994862,0.17561318144949
-0.0349897455443739,0.176761769330187
-0.0288479697415351,0.177923789134417
-0.0166969171592695,0.180287803745677
-0.0106873469631388,0.181489638168806
-0.00472155188587331,0.182704583747668
0.00120061478087938,0.183932560290312
0.00707929974547111,0.185173487604788
0.0129146497162539,0.186427285499145
0.01870681140158,0.187693873781433
0.0244559315098016,0.188973172259703
0.0301621567492704,0.190265100742003
0.0358256338283391,0.191569579036383
0.0414465094553593,0.192886526950894
0.0470249303386835,0.194215864293584
0.0525610431866635,0.195557510872504
0.0580549947076515,0.196911386495703
0.0635069316099996,0.198277410971231
0.06891700060206,0.199655504107138
0.0742853483921846,0.201045585711473
0.0796121216887258,0.202447575592286
0.0953444617003688,0.206724192974091
0.100506404106097,0.208173014041314
0.105627505560001,0.209633342425263
0.11574777244575,0.21258820037554
0.120747231294299,0.214082569557968
0.125706436024433,0.215588125289321
0.130625533344504,0.217104787377649
0.140343992587867,0.22017110985743
0.149903782691206,0.223280895461708
0.154624543586246,0.224851886455657
0.159306077321336,0.226433502654881
0.163948530604829,0.228025663867427
0.168552050145076,0.229628289901346
0.173116782650429,0.231241300564688
0.177642874829241,0.232864615665502
0.182130473389863,0.234498155011839
0.186579725040648,0.236141838411747
0.195363774446115,0.239459316604477
0.199698865617501,0.241132951013398
0.203996196712459,0.24281640870809
0.208255914439339,0.244509609496602
0.212478165506495,0.246212473186985
0.216663096622278,0.247924919587287
0.220810854495041,0.249646868505558
0.224921585833136,0.251378239749849
0.228995437344914,0.253118953128208
0.233032555738728,0.254868928448686
0.237033087722931,0.256628085519333
0.244924979295908,0.260173624143329
0.252672285730662,0.263754927464595
0.256492086292086,0.265558790406828
0.278666195103466,0.276561873909765
0.282239133423788,0.278424957010309
0.285777392543076,0.280296179365666
0.289281119169682,0.282175460783888
0.296185561778253,0.285957880041123
0.30295363491632,0.289771573246412
0.312852619262385,0.295549348347815
0.316085367448206,0.297490215358741
0.322451374175659,0.301393881194576
0.325584926133995,0.303356519635585
0.328685706099874,0.305326254836055
0.334789536887669,0.309286694747577
0.337792881126289,0.311277239074728
0.319801104972932,0.344368901282411
0.343703160834735,0.315278575512058
0.328121437601684,0.315166321997495
0.328573085628631,0.31491458754068
0.357923322010979,0.325396286382036
0.354195400070469,0.360725697042652
0.380279044355577,0.335224378834319
0.421547035275623,0.348578158016415
0.371364528172621,0.335669363452205
0.375354290255464,0.348489951754901
0.379062982296906,0.341903615488982
0.351411830894776,0.364914951806087
0.386491575617285,0.348188025537407
0.384417034279688,0.323708770421714
0.39129600460673,0.35240442857238
0.398681093168402,0.381062550359942
0.402797752116385,0.363034545472124
0.405011962434169,0.365175203198581
0.415570046017554,0.35250960099142
0.397759990812836,0.390429477785317
0.425684846421634,0.383697210499583
0.444270970575536,0.411296109488154
0.405705495243926,0.382247273848853
0.42171662176983,0.382462604920691
0.429536890209347,0.384314408160662
0.411545052487273,0.379433906067461
0.427528082802244,0.389014402023386
0.379618633748234,0.403681804861933
0.434408897896563,0.384804075123541
0.430284940427925,0.436503257411121
0.475185114786992,0.390650371224644
0.440158511683576,0.404431497437793
0.443533435100383,0.408866812633786
0.445182668592332,0.411089141070677
0.453052422221623,0.422244283966069
0.457478424835508,0.428969283361841
0.458905331029634,0.431215787618486
0.460308267732429,0.433464577117575
0.463042819497434,0.437968691075282
0.465683253797341,0.442480983699359
0.469470002396303,0.44926335427579
0.473051588574638,0.456060518213791
0.474200543624032,0.458329152711039
0.475327289682319,0.460599110147327
0.476431973457853,0.462870310330704
0.478575740994068,0.467416118170928
0.479615118171454,0.469690565443873
0.480633019899495,0.471965934696106
0.482604983840949,0.476519118370638
0.483559339471066,0.478796772409036
0.484492806485247,0.481075027658921
0.48716934291569,0.487912598757998
0.49045451783986,0.49703291220594
0.491226157427222,0.499313090237514
0.491978228773817,0.501593147753023
0.494118500452515,0.508431795283655
0.495450196687596,0.512988820871329
0.496707140960057,0.517543439787935
0.497307947881185,0.519819646264712
0.498454964834996,0.524369452295462
0.500041198669882,0.531186441155324
0.500534719022698,0.53345639129114
0.501010871760028,0.535725018031636
0.502744740721527,0.544784687201421
0.503136256006707,0.547045494086066
0.504538910577213,0.556069874234929
0.505423432440225,0.562816124212767
0.506953048935207,0.578470825696478
0.50750635205425,0.587353734469206
0.507887532427392,0.598383688947644
0.507923842448786,0.600579053725499
0.507940885968653,0.609322419379135
0.507913831248952,0.611498336468347
0.507823170048416,0.615837700114081
0.507684751222047,0.620159901769894
0.50749974843666,0.624464299900184
0.507269335359074,0.628750252969349
0.506122228351118,0.643596571684805
0.505242802695157,0.651964620759911
0.504212251207635,0.660242209664856
0.500307735101049,0.684480892510538
0.498766573632629,0.692345317886653
0.497121233005321,0.700093621668514
0.495824508233376,0.705825557318595
0.492136027606184,0.720760804804237
0.491167867560854,0.724411615725701
0.490677688450847,0.726224129988215
0.489685865597906,0.729822975157054
0.488679734623411,0.733386374571306
0.488171670361461,0.735154581640587
0.485062544570114,0.745569875033563
0.484006551175487,0.748965829549098
0.482408203565562,0.753986484216775
0.480796147934507,0.758917281750897
0.479174345407829,0.763756056968805
