0.457772206345746,-0.777811622501392
0.450757968888911,-0.776672337575592
0.443787534844182,-0.775504783303864
0.436860751924107,-0.774309143584503
0.429977467841232,-0.773085602315803
0.423137530308102,-0.771834343396058
0.416340787037264,-0.770555550723564
0.409587085741263,-0.769249408196613
0.402876274132645,-0.767916099713503
0.396208199923957,-0.766555809172526
0.389582710827745,-0.765168720471976
0.382999654556553,-0.76375501751015
0.376458878822929,-0.76231488418534
0.369960231339419,-0.760848504395843
0.363503559818567,-0.759356062039951
0.357088711972921,-0.75783774101596
0.350715535515026,-0.756293725222164
0.344383878157429,-0.754724198556858
0.338093587612674,-0.753129344918336
0.331844511593309,-0.751509348204892
0.32563649781188,-0.749864392314822
0.319469393980931,-0.748194661146419
0.313343047813009,-0.746500338597979
0.307257307020661,-0.744781608567794
0.301212019316432,-0.743038654954162
0.295207032412868,-0.741271661655375
0.289242194022515,-0.739480812569728
0.28331735185792,-0.737666291595516
0.277432353631627,-0.735828282631033
0.271587047056184,-0.733966969574574
0.265781279844135,-0.732082536324432
0.260014899708028,-0.730175166778904
0.254287754360407,-0.728245044836283
0.24859969151382,-0.726292354394864
0.242950558880812,-0.72431727935294
0.237340204173928,-0.722320003608807
0.231768475105716,-0.72030071106076
0.22623521938872,-0.718259585607093
0.220740284735488,-0.716196811146099
0.215283518858564,-0.714112571576074
0.209864769470495,-0.712007050795313
0.204483884283827,-0.709880432702109
0.199140711011106,-0.707732901194757
0.193835097364878,-0.705564640171553
0.188566891057689,-0.703375833530789
0.183335939802085,-0.701166665170761
0.178142091310611,-0.698937318989764
0.172985193295814,-0.696687978886091
0.16786509347024,-0.694418828758038
0.162781639546435,-0.692130052503898
0.157734679236944,-0.689821834021966
0.152724060254314,-0.687494357210537
0.147749630311091,-0.685147805967906
0.14281123711982,-0.682782364192367
0.137908728393048,-0.680398215782213
0.133041951843321,-0.677995544635741
0.128210755183185,-0.675574534651243
0.123414986125185,-0.673135369727016
0.118654492381868,-0.670678233761353
0.113929121665779,-0.668203310652548
0.109238721689465,-0.665710784298897
0.104583140165471,-0.663200838598694
0.0999622248063443,-0.660673657450233
0.0953758233246297,-0.658129424751809
0.0908237834328738,-0.655568324401716
0.0863059528436224,-0.652990540298249
0.0818221792694214,-0.650396256339703
0.0773723104228169,-0.647785656424371
0.0729561940163548,-0.645158924450548
0.0685736777625813,-0.64251624431653
0.064224609374042,-0.63985779992061
0.0599088365632832,-0.637183775161082
0.0556262070428509,-0.634494353936242
0.0513765685252908,-0.631789720144384
0.0471597687231491,-0.629070057683802
0.0429756553489717,-0.626335550452791
0.0388240761153047,-0.623586382349646
0.0347048787346941,-0.62082273727266
0.0306179109196856,-0.618044799120129
0.0265630203828254,-0.615252751790346
0.0225400548366595,-0.612446779181607
0.0185488619937339,-0.609627065192206
0.0145892895665945,-0.606793793720437
0.0106611852677872,-0.603947148664595
0.00676439680985817,-0.601087313922975
0.00289877190535338,-0.598214473393871
-0.000935841733181356,-0.595328810975577
-0.00473959639319989,-0.592430510566387
-0.00851264436215628,-0.589519756064598
-0.0122551379275046,-0.586596731368502
-0.0159672293766988,-0.583661620376394
-0.019649070997193,-0.58071460698657
-0.023300815076441,-0.577755875097323
-0.026922613901897,-0.574785608606948
-0.030514619761015,-0.571803991413739
-0.034076984941249,-0.568811207415991
-0.0376098617300529,-0.565807440511999
-0.0411134024148809,-0.562792874600057
-0.0445877592831869,-0.559767693578459
-0.048033084622425,-0.5567320813455
-0.0514495307200491,-0.553686221799475
-0.0548372498635133,-0.550630298838678
-0.0581963943402716,-0.547564496361402
-0.061527116437778,-0.544488998265944
-0.0648295684434866,-0.541403988450598
-0.0681039026448512,-0.538309650813658
-0.0713502713293261,-0.535206169253417
-0.0745688267843651,-0.532093727668172
-0.0777597212974224,-0.528972509956217
-0.0809231071559517,-0.525842700015846
-0.0840591366474075,-0.522704481745353
-0.0871679620592433,-0.519558039043032
-0.0902497356789135,-0.51640355580718
-0.0933046097938718,-0.51324121593609
-0.0963327366915726,-0.510071203328056
-0.0993342686594696,-0.506893701881373
-0.102309357985017,-0.503708895494336
-0.105258156955669,-0.500516968065239
-0.108180817858879,-0.497318103492376
-0.111077492982101,-0.494112485674042
-0.11394833461279,-0.490900298508532
-0.116793495038399,-0.48768172589414
-0.119613126546383,-0.48445695172916
-0.122407381424195,-0.481226159911888
-0.125176411959289,-0.477989534340617
-0.12792037043912,-0.474747258913642
-0.130639409151141,-0.471499517529258
-0.133333680382807,-0.468246494085758
-0.136003336421572,-0.464988372481439
-0.138648529554889,-0.461725336614593
-0.141269412070212,-0.458457570383516
-0.143866136254996,-0.455185257686502
-0.146438854396695,-0.451908582421846
-0.148987718782762,-0.448627728487842
-0.151512881700652,-0.445342879782785
-0.154014495437819,-0.442054220204968
-0.156492712281716,-0.438761933652687
-0.158947684519798,-0.435466204024237
-0.161379564439518,-0.432167215217911
-0.163788504328331,-0.428865151132003
-0.166174656473691,-0.42556019566481
-0.168538173163052,-0.422252532714625
-0.170879206683867,-0.418942346179742
-0.173197909323591,-0.415629819958457
-0.175494433369678,-0.412315137949063
-0.177768931109582,-0.408998484049856
-0.180021554830756,-0.405680042159129
-0.182252456820655,-0.402359996175177
-0.184461789366733,-0.399038529996295
-0.186649704756444,-0.395715827520777
-0.188816355277242,-0.392392072646917
-0.190961893216581,-0.389067449273011
-0.193086470861915,-0.385742141297353
-0.195190240500697,-0.382416332618237
-0.197273354420383,-0.379090207133957
-0.199335964908425,-0.375763948742808
-0.201378224252278,-0.372437741343086
-0.203400284739397,-0.369111768833083
-0.205402298657234,-0.365786215111095
-0.207384418293244,-0.362461264075417
-0.209346795934882,-0.359137099624342
-0.2112895838696,-0.355813905656165
-0.213212934384854,-0.352491866069181
-0.215116999768096,-0.349171164761684
-0.217001932306782,-0.34585198563197
-0.218867884288365,-0.342534512578331
-0.220715008000299,-0.339218929499063
-0.222543455730038,-0.33590542029246
-0.224353379765036,-0.332594168856817
-0.226144932392747,-0.329285359090428
-0.227918265900626,-0.325979174891588
-0.229673532576125,-0.322675800158591
-0.231410884706701,-0.319375418789732
-0.233130474579805,-0.316078214683305
-0.234832454482892,-0.312784371737605
-0.236516976703417,-0.309494073850926
-0.238184193528833,-0.306207504921563
-0.239834257246594,-0.302924848847811
-0.241467320144155,-0.299646289527963
-0.243083534508969,-0.296372010860314
-0.24468305262849,-0.293102196743159
-0.246266026790173,-0.289837031074793
-0.247832609281471,-0.286576697753509
-0.249382952389839,-0.283321380677602
-0.250917208402729,-0.280071263745368
-0.252435529607598,-0.276826530855099
-0.253938068291898,-0.273587365905092
-0.255424976743083,-0.270353952793639
-0.256896407248608,-0.267126475419037
-0.258352512095926,-0.263905117679579
-0.259793443572491,-0.26069006347356
-0.261219353965759,-0.257481496699274
-0.262630395563182,-0.254279601255016
-0.264026720652214,-0.25108456103908
-0.26540848152031,-0.247896559949761
-0.266775830454923,-0.244715781885353
-0.268128919743508,-0.241542410744152
-0.269467901673519,-0.23837663042445
-0.27079292853241,-0.235218624824544
-0.272104152607634,-0.232068577842727
-0.273401726186645,-0.228926673377294
-0.274685801556899,-0.225793095326539
-0.275956531005848,-0.222668027588757
-0.277214066820947,-0.219551654062242
-0.278458561289649,-0.216444158645289
-0.27969016669941,-0.213345725236193
-0.280909035337682,-0.210256537733248
-0.28211531949192,-0.207176780034747
-0.283309171449577,-0.204106636038987
-0.284490743498109,-0.201046289644262
-0.285660187924968,-0.197995924748865
-0.286817657017609,-0.194955725251091
-0.287963303063486,-0.191925875049236
-0.289097278350053,-0.188906558041593
-0.290219735164764,-0.185897958126457
-0.291330825795073,-0.182900259202122
-0.292430702528433,-0.179913645166883
-0.2935195176523,-0.176938299919035
-0.294597423454127,-0.173974407356871
-0.295664572221367,-0.171022151378687
-0.296721116241476,-0.168081715882777
-0.297767207801906,-0.165153284767436
-0.298802999190113,-0.162237041930957
-0.299828642693549,-0.159333171271636
-0.30084429059967,-0.156441856687767
-0.301850095195929,-0.153563282077644
-0.30284620876978,-0.150697631339562
-0.303832783608677,-0.147845088371816
-0.304809972000074,-0.1450058370727
-0.305777926231425,-0.142180061340508
-0.306736798590184,-0.139367945073535
-0.307686741363806,-0.136569672170076
-0.308627906839743,-0.133785426528425
-0.309560447305451,-0.131015392046876
-0.310484515048383,-0.128259752623724
-0.311400262355994,-0.125518692157264
-0.312307841515736,-0.122792394545789
-0.313207404815065,-0.120081043687596
-0.314099104541434,-0.117384823480977
-0.314983092982298,-0.114703917824228
-0.31585952242511,-0.112038510615642
-0.316728545157324,-0.109388785753516
-0.317590313466394,-0.106754927136142
-0.318444979639775,-0.104137118661816
-0.31929269596492,-0.101535544228832
-0.320133614729284,-0.0989503877354845
-0.32096788822032,-0.0963818330800681
-0.321795668725482,-0.0938300641608772
-0.322617108532225,-0.0912952648762064
-0.323432359928003,-0.0887776191243501
-0.324241575200268,-0.086277310803603
-0.325044906636477,-0.0837945238122593
-0.325842506524081,-0.0813294420486138
-0.326634527150537,-0.0788822494109609
-0.327421120803297,-0.0764531297975951
-0.328202439769815,-0.0740422671068107
-0.328978636337546,-0.0716498452369026
-0.329749862793944,-0.0692760480861649
-0.330516271426462,-0.0669210595528925
-0.331278014522555,-0.0645850635353796
-0.332035244369676,-0.0622682439319208
-0.33278811325528,-0.0599707846408106
-0.333536773466821,-0.0576928695603436
-0.334281377291753,-0.0554346825888142
-0.335022077017529,-0.0531964076245169
-0.335759024931604,-0.0509782285657462
-0.336492373321431,-0.0487803293107967
-0.337222274474466,-0.0466028937579628
-0.337948880678161,-0.0444461058055391
-0.338672344219971,-0.0423101493518199
-0.339392817387349,-0.0401952082951
-0.340110452467751,-0.0381014665336736
-0.340825401748629,-0.0360291079658355
-0.341537817517438,-0.03397831648988
-0.342247852061632,-0.0319492760041017
-0.342955657668665,-0.029942170406795
-0.343661386625991,-0.0279571835962546
-0.344365191221064,-0.0259944994707747
-0.345067223741338,-0.0240543019286501
-0.345767636474266,-0.0221367748681751
-0.346466581707304,-0.0202421021876444
-0.347164211727904,-0.0183704677853524
-0.347860678823522,-0.0165220555595935
-0.34855613528161,-0.0146970494086623
-0.349250733389624,-0.0128956332308534
-0.349944625435016,-0.0111179909244611
-0.350637963705242,-0.00936430638778012
-0.351330900487755,-0.00763476351910476
-0.352023588070009,-0.00592954621672973
-0.352716178739457,-0.00424883837894931
-0.353408824783556,-0.0025928239040582
-0.354101678489757,-0.000961686690350752
-0.354794892145515,0.000644389363878367
-0.355488618038284,0.00222522036033484
-0.356183008455519,0.003780622400724
-0.356878215684673,0.00531041158675146
-0.3575743920132,0.00681440402012261
-0.358271689728554,0.00829241580254306
-0.35897026111819,0.0097442630357182
-0.359670258469561,0.0111697618213536
-0.360371834070121,0.0125687282611547
-0.361075140207324,0.0139409784568271
-0.361780329168625,0.0152863285100762
-0.362487553241477,0.0166045945226075
-0.363196964713334,0.0178955925961265
-0.363908715871651,0.0191591388323387
-0.364622959003881,0.0203950493329496
-0.365339846397479,0.0216031401996648
-0.366059530339898,0.0227832275341896
-0.366782163118592,0.0239351274382297
-0.367507897021016,0.0250586560134904
-0.368236884334623,0.0261536293616773
-0.368969277346868,0.0272198635844959
-0.369705228345204,0.0282571747836517
-0.370444889617086,0.0292653790608501
-0.371188413449967,0.0302442925177967
-0.371935952131302,0.031193731256197
-0.372687657948544,0.0321135113777565
-0.373443683189148,0.0330034489841806
-0.374204180140567,0.0338633601771748
-0.374969301090256,0.0346930610584447
-0.375739198325669,0.0354923677296958
-0.376514024134259,0.0362610962926335
-0.377293930803481,0.0369990628489633
-0.378079070620789,0.0377060835003908
-0.378869595873636,0.0383819743486214
-0.379665658849477,0.0390265514953607
-0.380467411835766,0.039639631042314
-0.381275007119956,0.040221029091187
-0.382088596989503,0.0407705617436851
-0.382908333731859,0.0412880451015138
-0.383734369634478,0.0417732952663786
-0.384566856984816,0.042226128339985
-0.385405948070325,0.0426463604240385
-0.38625179517846,0.0430338076202446
-0.387104550596675,0.0433882860303088
-0.387964366612424,0.0437096117559366
-0.388831395513161,0.0439976008988335
-0.38970578958634,0.0442520695607049
-0.390587701119414,0.0444728338432565
-0.391477282399839,0.0446597098481936
-0.392374685715067,0.0448125136772217
-0.393280063352554,0.0449310614320464
-0.394193567599752,0.0450151692143732
-0.395115350744116,0.0450646531259076
-0.396045565073101,0.045079329268355
-0.396984362874159,0.0450590137434209
-0.397931896434745,0.0450035226528109
-0.398888318042314,0.0449126720982304
-0.399853779984318,0.0447862781813849
-0.400828434548213,0.04462415700398
-0.401812434021451,0.0444261246677212
-0.402805930691488,0.0441919972743138
-0.403809076845777,0.0439215909254634
-0.404822024771772,0.0436147217228756
-0.405844926756928,0.0432712057682558
-0.406877935088697,0.0428908591633095
-0.407921202054535,0.0424734980097422
-0.408974879941894,0.0420189384092594
-0.41003912103823,0.0415269964635666
-0.411114077630997,0.0409974882743693
-0.412199902007647,0.0404302299433729
-0.413296746455636,0.0398250375722831
-0.414404763262417,0.0391817272628052
-0.415524104715445,0.0385001151166448
-0.416654923102172,0.0377800172355074
-0.417797370710054,0.0370212497210984
-0.418951599826545,0.0362236286751234
-0.420117762739098,0.0353869701992879
-0.421296011735167,0.0345110903952973
-0.422486499102207,0.0335958053648572
-0.423689377127671,0.032640931209673
-0.424904798099013,0.0316462840314503
-0.426132914303688,0.0306116799318944
-0.42737387802915,0.0295369350127111
-0.428627841562851,0.0284218653756056
-0.429894957192248,0.0272662871222837
-0.431175377204793,0.0260700163544506
-0.43246925388794,0.0248328691738119
-0.433776739529144,0.0235546616820731
-0.435097986415859,0.0222352099809398
-0.436433146835538,0.0208743301721174
-0.437782373075636,0.0194718383573114
-0.439145817423606,0.0180275506382272
-0.440523632166903,0.0165412831165705
-0.441915969592981,0.0150128518940467
-0.443322981989293,0.0134420730723612
-0.444744821643294,0.0118287627532196
-0.446181640842438,0.0101727370383275
-0.447633591874178,0.00847381202939013
-0.449100827025969,0.00673180382811323
-0.450583498585265,0.00494652853620211
-0.45208175883952,0.00311780225536244
-0.453595760076187,0.00124544108729954
-0.455125654582721,-0.000670738866280909
-0.456671594646576,-0.0026309215036736
-0.458233732555206,-0.00463529072317285
-0.459812220596065,-0.00668403042307336
-0.461407211056606,-0.00877732450166943
-0.463018856224285,-0.0109153568572558
-0.463018856224285,-0.0109153568572558
-0.464626612891399,-0.0130648919253279
-0.466209907563053,-0.0151926583336794
-0.467768847095905,-0.0172987862690518
-0.469303538346616,-0.0193834059181866
-0.470814088171846,-0.0214466474678252
-0.472300603428254,-0.023488641104709
-0.473763190972499,-0.0255095170155795
-0.475201957661242,-0.0275094053871782
-0.476617010351142,-0.0294884364062465
-0.478008455898858,-0.0314467402595259
-0.479376401161052,-0.0333844471337578
-0.480720952994382,-0.0353016872156837
-0.482042218255507,-0.037198590692045
-0.483340303801089,-0.0390752877495832
-0.484615316487785,-0.0409319085750398
-0.485867363172258,-0.0427685833551561
-0.487096550711165,-0.0445854422766737
-0.488302985961166,-0.046382615526334
-0.489486775778922,-0.0481602332908784
-0.490648027021092,-0.0499184257570485
-0.491786846544335,-0.0516573231115856
-0.492903341205312,-0.0533770555412313
-0.493997617860682,-0.0550777532327269
-0.495069783367105,-0.0567595463728139
-0.496119944581241,-0.0584225651482338
-0.497148208359748,-0.0600669397457281
-0.498154681559288,-0.0616928003520381
-0.49913947103652,-0.0633002771539054
-0.500102683648103,-0.0648895003380714
-0.501044426250696,-0.0664606000912775
-0.501964805700961,-0.0680137066002653
-0.502863928855557,-0.0695489500517761
-0.503741902571142,-0.0710664606325514
-0.504598833704378,-0.0725663685293327
-0.505434829111923,-0.0740488039288614
-0.506249995650438,-0.0755138970178789
-0.507044440176582,-0.0769617779831269
-0.507818269547014,-0.0783925770113466
-0.508571590618395,-0.0798064242892795
-0.509304510247385,-0.0812034500036671
-0.510017135290642,-0.0825837843412509
-0.510709572604827,-0.0839475574887722
-0.511381929046599,-0.0852948996329726
-0.512034311472619,-0.0866259409605936
-0.512666826739545,-0.0879408116583764
-0.513279581704038,-0.0892396419130627
-0.513872683222757,-0.0905225619113939
-0.514446238152362,-0.0917897018401114
-0.515000353349513,-0.0930411918859567
-0.515535135670869,-0.0942771622356712
-0.51605069197309,-0.0954977430759964
-0.516547129112835,-0.0967030645936737
-0.517024553946766,-0.0978932569754447
-0.51748307333154,-0.0990684504080506
-0.517922794123819,-0.100228775078233
-0.518343823180261,-0.101374361172734
-0.518746267357526,-0.102505338878293
-0.519130233512275,-0.103621838381654
-0.519495828501166,-0.104723989869557
-0.51984315918086,-0.105811923528744
-0.520172332408016,-0.106885769545956
-0.520483455039294,-0.107945658107935
-0.520776633931353,-0.108991719401421
-0.521051975940854,-0.110024083613158
-0.521309587924456,-0.111042880929885
-0.521549576738818,-0.112048241538345
-0.521772049240601,-0.113040295625279
-0.521977112286465,-0.114019173377429
-0.522164872733068,-0.114985004981535
-0.522335437437071,-0.115937920624339
-0.522488913255133,-0.116878050492584
-0.522625407043914,-0.117805524773009
-0.522745025660074,-0.118720473652357
-0.522847875960272,-0.11962302731737
-0.522934064801168,-0.120513315954787
-0.523003699039423,-0.121391469751352
-0.523056885531695,-0.122257618893806
-0.523093731134644,-0.123111893568889
-0.52311434270493,-0.123954423963344
-0.523118827099213,-0.124785340263911
-0.523107291174153,-0.125604772657333
-0.523079841786408,-0.126412851330351
-0.523036585792639,-0.127209706469706
-0.522977630049507,-0.127995468262139
-0.522903081413669,-0.128770266894393
-0.522813046741786,-0.129534232553208
-0.522707632890518,-0.130287495425327
-0.522586946716524,-0.131030185697489
-0.522451095076465,-0.131762433556438
-0.522300184826999,-0.132484369188914
-0.522134322824787,-0.133196122781659
-0.521953615926488,-0.133897824521414
-0.521758170988763,-0.134589604594922
-0.521548094868269,-0.135271593188922
-0.521323494421668,-0.135943920490157
-0.52108447650562,-0.136606716685368
-0.520831147976783,-0.137260111961296
-0.520563615691818,-0.137904236504684
-0.520281986507384,-0.138539220502272
-0.519986367280141,-0.139165194140802
-0.519676864866749,-0.139782287607015
-0.519353586123867,-0.140390631087654
-0.519016637908154,-0.140990354769458
-0.518666127076273,-0.14158158883917
-0.51830216048488,-0.142164463483532
-0.517924844990637,-0.142739108889284
-0.517534287450202,-0.143305655243168
-0.517130594720237,-0.143864232731926
-0.5167138736574,-0.144414971542299
-0.51628423111835,-0.144958001861029
-0.515841773959749,-0.145493453874856
-0.515386609038255,-0.146021457770522
-0.514918843210528,-0.14654214373477
-0.514438583333228,-0.14705564195434
-0.513945936263015,-0.147562082615973
-0.513441008856548,-0.148061595906412
-0.512923907970488,-0.148554312012397
-0.512394740461493,-0.149040361120671
-0.511853613186223,-0.149519873417974
-0.511300633001339,-0.149992979091048
-0.5107359067635,-0.150459808326635
-0.510159541329365,-0.150920491311475
-0.509571643555595,-0.151375158232311
-0.508972320298849,-0.151823939275884
-0.508361678415786,-0.152266964628934
-0.507739824763067,-0.152704364478205
-0.507106866197351,-0.153136269010437
-0.506462909575298,-0.153562808412372
-0.505808061753568,-0.15398411287075
-0.50514242958882,-0.154400312572314
-0.504466119937714,-0.154811537703806
-0.50377923965691,-0.155217918451965
-0.503081895603067,-0.155619585003535
-0.502374194632845,-0.156016667545256
-0.501656243602904,-0.15640929626387
-0.500928149369904,-0.156797601346118
-0.500190018790505,-0.157181712978742
-0.499441958721365,-0.157561761348483
-0.498684076019145,-0.157937876642082
-0.497916477540504,-0.158310189046282
-0.497139270142103,-0.158678828747823
-0.4963525606806,-0.159043925933447
-0.495556456012656,-0.159405610789896
-0.49475106299493,-0.159764013503911
-0.493936488484083,-0.160119264262233
-0.493112839336773,-0.160471493251604
-0.49228022240966,-0.160820830658765
-0.491438744559405,-0.161167406670458
-0.490588512642666,-0.161511351473424
-0.489729633516104,-0.161852795254404
-0.488862214036378,-0.162191868200141
-0.487986361060149,-0.162528700497376
-0.487102181444075,-0.162863422332849
-0.486209782044816,-0.163196163893303
-0.485309269719032,-0.163527055365478
-0.484400751323384,-0.163856226936117
-0.48348433371453,-0.164183808791961
-0.48256012374913,-0.164509931119751
-0.481628228283844,-0.164834724106229
-0.480688754175332,-0.165158317938136
-0.479741808280253,-0.165480842802214
-0.478787497455267,-0.165802428885204
-0.477825928557034,-0.166123206373847
-0.476857208442214,-0.166443305454885
-0.475881443967466,-0.16676285631506
-0.47489874198945,-0.167081989141112
-0.473909209364826,-0.167400834119784
-0.472912952950253,-0.167719521437817
-0.471910079602391,-0.168038181281952
-0.4709006961779,-0.168356943838931
-0.469884909533439,-0.168675939295495
-0.468862826525668,-0.168995297838386
-0.467834554011248,-0.169315149654344
-0.466800198846837,-0.169635624930112
-0.465759867889096,-0.169956853852432
-0.464713667994683,-0.170278966608043
-0.46366170602026,-0.170602093383689
-0.462604088822485,-0.17092636436611
-0.461540923258018,-0.171251909742047
-0.460472316183519,-0.171578859698243
-0.459398374455648,-0.171907344421439
-0.458319204931064,-0.172237494098376
-0.457234914466427,-0.172569438915795
-0.456145609918397,-0.172903309060438
-0.455051398143633,-0.173239234719048
-0.453952385998796,-0.173577346078364
-0.452848680340544,-0.173917773325128
-0.451740388025538,-0.174260646646082
-0.450627615910438,-0.174606096227968
-0.449510470851902,-0.174954252257526
-0.448389059706591,-0.175305244921499
-0.447263489331165,-0.175659204406628
-0.446133866582283,-0.176016260899653
-0.445000298316605,-0.176376544587317
-0.44386289139079,-0.176740185656362
-0.442721752661499,-0.177107314293528
-0.441576988985391,-0.177478060685556
-0.440428707219125,-0.17785255501919
-0.439277014219362,-0.178230927481169
-0.438122016842761,-0.178613308258235
-0.436963821945982,-0.17899982753713
-0.435802536385685,-0.179390615504596
-0.434638267018528,-0.179785802347373
-0.433471120701173,-0.180185518252203
-0.432301204290279,-0.180589893405828
-0.431128624642505,-0.180999057994989
-0.429953488614511,-0.181413142206428
-0.428775903062957,-0.181832276226886
-0.427595974844503,-0.182256590243103
-0.426413810815808,-0.182686214441823
-0.425229517833532,-0.183121279009786
-0.424043202754334,-0.183561914133734
-0.422854972434876,-0.184008250000409
-0.421664933731815,-0.18446041679655
-0.420473193501812,-0.184918544708902
-0.419279858601526,-0.185382763924203
-0.418085035887618,-0.185853204629197
-0.416888832216747,-0.186329997010624
-0.415691354445573,-0.186813271255226
-0.414492709430755,-0.187303157549745
-0.413293004028953,-0.187799786080921
-0.412092345096827,-0.188303287035497
-0.410890839491036,-0.188813790600214
-0.409688594068241,-0.189331426961813
-0.408485715685101,-0.189856326307035
-0.407282311198275,-0.190388618822623
-0.406078487464424,-0.190928434695317
-0.404874351340206,-0.191475904111859
-0.403670009682283,-0.192031157258991
-0.402465569347313,-0.192594324323454
-0.401261137191957,-0.193165535491989
-0.400056820072873,-0.193744920951338
-0.398852724846722,-0.194332610888242
-0.397648958370164,-0.194928735489444
-0.396445627499857,-0.195533424941683
-0.395242839092462,-0.196146809431702
-0.394040700004639,-0.196769019146242
-0.392839317093047,-0.197400184272045
-0.391638797214346,-0.198040434995852
-0.390439247225196,-0.198689901504404
-0.389240773982256,-0.199348713984444
-0.388043484342186,-0.200017002622711
-0.386847485161646,-0.200694897605949
-0.385652883297295,-0.201382529120898
-0.384459785605794,-0.2020800273543
-0.383268298943801,-0.202787522492896
-0.382078530167977,-0.203505144723427
-0.380890586134982,-0.204233024232636
-0.379704573701474,-0.204971291207263
-0.378520599724114,-0.205720075834051
-0.377338771059562,-0.206479508299739
-0.376159194564477,-0.207249718791071
-0.374981977095519,-0.208030837494787
-0.373807225509347,-0.20882299459763
-0.372635046662622,-0.209626320286339
-0.371465547412003,-0.210440944747657
-0.370298834614149,-0.211266998168325
-0.369135015125722,-0.212104610735085
-0.367974195803379,-0.212953912634679
-0.366816483503781,-0.213815034053846
-0.365661985083587,-0.21468810517933
-0.364510807399459,-0.215573256197871
-0.363363057308054,-0.216470617296212
-0.362218841666032,-0.217380318661092
-0.361078267330054,-0.218302490479255
-0.35994144115678,-0.219237262937441
-0.358808470002868,-0.220184766222391
-0.357679460724979,-0.221145130520848
-0.356554520179772,-0.222118486019552
-0.355433755223907,-0.223104962905246
-0.354317272714044,-0.22410469136467
-0.353205179506842,-0.225117801584566
-0.352097582458962,-0.226144423751676
-0.350994588427062,-0.22718468805274
-0.349896304267803,-0.228238724674501
-0.348802836837844,-0.2293066638037
-0.347714292993845,-0.230388635627078
-0.346630779592466,-0.231484770331377
-0.345552403490366,-0.232595198103338
-0.344479271544206,-0.233720049129703
-0.343411490610644,-0.234859453597213
-0.342349167546341,-0.236013541692609
-0.341292409207956,-0.237182443602634
-0.340241322452149,-0.238366289514028
-0.339196014135579,-0.239565209613533
-0.338156591114908,-0.24077933408789
-0.337123160246793,-0.242008793123841
-0.336095828387895,-0.243253716908128
-0.335074702394873,-0.244514235627491
-0.334059889124388,-0.245790479468672
-0.333051495433099,-0.247082578618413
-0.332049628177665,-0.248390663263455
-0.331054394214747,-0.24971486359054
-0.330065900401004,-0.251055309786409
-0.329084253593096,-0.252412132037803
-0.328109560647682,-0.253785460531464
-0.327141928421423,-0.255175425454134
-0.326181463770977,-0.256582156992553
-0.325228273553005,-0.258005785333464
-0.324282464624167,-0.259446440663607
-0.323344143841121,-0.260904253169725
-0.322413418060529,-0.262379353038558
-0.321490394139048,-0.263871870456848
-0.32057517893334,-0.265381935611337
-0.319667879300065,-0.266909678688766
-0.31876860209588,-0.268455229875876
-0.317877454177447,-0.27001871935941
-0.316994542401425,-0.271600277326107
-0.316119973624474,-0.273200033962711
-0.315253854703253,-0.274818119455962
-0.314396292494423,-0.276454663992601
-0.313547393854642,-0.278109797759371
-0.312707265640571,-0.279783650943012
-0.31187601470887,-0.281476353730267
-0.311053747916197,-0.283188036307876
-0.310240572119213,-0.284918828862581
-0.309436594174578,-0.286668861581124
-0.308641920938951,-0.288438264650245
-0.307856659268992,-0.290227168256687
-0.30708091602136,-0.292035702587191
-0.306314798052716,-0.293863997828497
-0.305558412219718,-0.295712184167349
-0.304811865379028,-0.297580391790487
-0.304075264387304,-0.299468750884652
-0.303348716101206,-0.301377391636587
-0.302632327377394,-0.303306444233032
-0.301926205072527,-0.305256038860729
-0.301230456043266,-0.30722630570642
-0.30054518714627,-0.309217374956845
-0.299870505238199,-0.311229376798747
-0.299206517175712,-0.313262441418867
-0.298553329815469,-0.315316699003946
-0.29791105001413,-0.317392279740726
-0.297279784628355,-0.319489313815948
-0.296659640514803,-0.321607931416353
-0.296050724530134,-0.323748262728684
-0.295453143531007,-0.325910437939681
-0.294867004374083,-0.328094587236086
-0.294292413916022,-0.330300840804641
-0.293729479013482,-0.332529328832086
-0.293178306523123,-0.334780181505164
-0.292639003301606,-0.337053529010616
-0.29211167620559,-0.339349501535183
-0.291596432091735,-0.341668229265606
-0.2910933778167,-0.344009842388628
-0.290602620237145,-0.34637447109099
-0.29012426620973,-0.348762245559432
-0.289658422591114,-0.351173295980697
-0.289205196237958,-0.353607752541526
-0.288764694006921,-0.356065745428661
-0.288337022754662,-0.358547404828842
-0.287922289337842,-0.361052860928812
-0.28752060061312,-0.363582243915312
-0.287132063437156,-0.366135683975083
-0.286756784666609,-0.368713311294866
-0.286394871158139,-0.371315256061404
-0.286046429768407,-0.373941648461438
-0.285711567354071,-0.376592618681708
-0.285390390771792,-0.379268296908957
-0.285083006878228,-0.381968813329926
-0.284789522530041,-0.384694298131357
-0.284510044583888,-0.38744488149999
-0.284244679896432,-0.390220693622568
-0.28399353532433,-0.393021864685831
-0.283756717724242,-0.395848524876522
-0.283534333952829,-0.398700804381381
-0.283326490866751,-0.401578833387151
-0.283133295322666,-0.404482742080572
-0.282954854177234,-0.407412660648387
-0.282791274287116,-0.410368719277335
-0.28264266250897,-0.41335104815416
-0.282509125699457,-0.416359777465602
-0.282390770715237,-0.419395037398404
-0.282287704412969,-0.422456958139305
-0.282200033649312,-0.425545669875048
-0.282127865280927,-0.428661302792375
-0.282071306164473,-0.431803987078026
-0.28203046315661,-0.434973852918744
-0.282005443113997,-0.438171030501269
-0.281996352893295,-0.441395650012343
-0.282003299351163,-0.444647841638708
-0.282026389344261,-0.447927735567104
-0.282065729729248,-0.451235461984274
-0.282121427362785,-0.454571151076959
-0.28219358910153,-0.4579349330319
-0.282282321802144,-0.461326938035839
-0.282387732321286,-0.464747296275518
-0.282509927515616,-0.468196137937677
-0.282649014241794,-0.471673593209058
-0.282805099356479,-0.475179792276403
-0.282978289716332,-0.478714865326453
-0.283168692178011,-0.482278942545949
-0.283376413598177,-0.485872154121633
-0.28360156083349,-0.489494630240247
-0.283844240740608,-0.493146501088532
-0.284104560176192,-0.496827896853229
-0.284382625996901,-0.500538947721079
-0.284678545059396,-0.504279783878825
-0.284992424220335,-0.508050535513208
