-0.276197191119575,0.169044824376546
-0.27490114055062,0.171968052912561
-0.273613479311698,0.174850488627182
-0.272334147120614,0.177692316931648
-0.271063083695171,0.180493723237196
-0.269800228753173,0.183254892955064
-0.268545522012424,0.185976011496491
-0.267298903190728,0.188657264272713
-0.26606031200589,0.191298836694969
-0.264829688175712,0.193900914174498
-0.263606971417998,0.196463682122536
-0.262392101450554,0.198987325950321
-0.261185017991182,0.201472031069093
-0.259985660757687,0.203917982890087
-0.258793969467872,0.206325366824543
-0.257609883839542,0.208694368283699
-0.256433343590499,0.211025172678791
-0.255264288438549,0.213317965421059
-0.254102658101496,0.215572931921739
-0.252948392297142,0.21779025759207
-0.251801430743292,0.21997012784329
-0.25066171315775,0.222112728086637
-0.24952917925832,0.224218243733348
-0.248403768762806,0.226286860194662
-0.247285421389011,0.228318762881816
-0.24617407685474,0.230314137206049
-0.245069674877796,0.232273168578597
-0.243972155175984,0.2341960424107
-0.242881457467107,0.236082944113595
-0.241797521468969,0.237934059098519
-0.240720286899375,0.239749572776711
-0.239649693476128,0.241529670559409
-0.238585680917031,0.243274537857851
-0.23752818893989,0.244984360083274
-0.236477157262508,0.246659322646916
-0.235432525602688,0.248299610960016
-0.234394233678235,0.249905410433811
-0.233362221206952,0.251476906479539
-0.232336427906644,0.253014284508438
-0.231316793495115,0.254517729931745
-0.230303257690168,0.2559874281607
-0.229295760209607,0.257423564606539
-0.228294240771236,0.258826324680501
-0.22729863909286,0.260195893793823
-0.226308894892282,0.261532457357744
-0.225324947887305,0.262836200783501
-0.224346737795735,0.264107309482333
-0.223374204335374,0.265345968865476
-0.222407287224027,0.266552364344169
-0.221445926179498,0.267726681329651
-0.22049006091959,0.268869105233158
-0.219539631162108,0.269979821465928
-0.218594576624855,0.271059015439201
-0.217654837025636,0.272106872564213
-0.216720352082254,0.273123578252202
-0.215791061512512,0.274109317914406
-0.214866905034217,0.275064276962064
-0.21394782236517,0.275988640806413
-0.213033753223176,0.276882594858691
-0.212124637326038,0.277746324530136
-0.211220414391562,0.278580015231986
-0.210321024137551,0.279383852375478
-0.209426406281807,0.280158021371851
-0.208536500542137,0.280902707632342
-0.207651246636343,0.28161809656819
-0.206770584282229,0.282304373590633
-0.2058944531976,0.282961724110907
-0.205022793100259,0.283590333540252
-0.20415554370801,0.284190387289905
-0.203292644738657,0.284762070771103
-0.202434035910004,0.285305569395086
-0.201579656939854,0.28582106857309
-0.200729447546013,0.286308753716353
-0.199883347446284,0.286768810236115
-0.19904129635847,0.287201423543612
-0.198203234000375,0.287606779050082
-0.197369100089805,0.287985062166763
-0.196538834344561,0.288336458304893
-0.195712376482449,0.288661152875711
-0.194889666221272,0.288959331290453
-0.194070643278835,0.289231178960359
-0.19325524737294,0.289476881296665
-0.192443418221392,0.289696623710609
-0.191635095541996,0.289890591613431
-0.190830219052554,0.290058970416366
-0.190028728470871,0.290201945530654
-0.189230563514751,0.290319702367533
-0.188435663901997,0.290412426338239
-0.187643969350414,0.290480302854011
-0.186855419577805,0.290523517326088
-0.186069954301975,0.290542255165706
-0.185287513240727,0.290536701784104
-0.184508036111865,0.29050704259252
-0.183731462633194,0.290453463002191
-0.182957732522516,0.290376148424356
-0.182186785497636,0.290275284270252
-0.181418561276358,0.290151055951118
-0.180652999576487,0.29000364887819
-0.179890040115824,0.289833248462708
-0.179129622612176,0.289640040115908
-0.178371686783345,0.28942420924903
-0.177616172347135,0.28918594127331
-0.176863019021351,0.288925421599987
-0.176112166523796,0.288642835640298
-0.175363554572275,0.288338368805482
-0.174617122884591,0.288012206506777
-0.173872811178547,0.287664534155419
-0.173130559171949,0.287295537162648
-0.1723903065826,0.286905400939701
-0.171651993128304,0.286494310897816
-0.170915558526864,0.286062452448231
-0.170180942496085,0.285610011002183
-0.169448084753771,0.285137171970911
-0.168716925017725,0.284644120765653
-0.167987403005751,0.284131042797647
-0.167259458435654,0.283598123478129
-0.166533031025238,0.283045548218339
-0.165808060492305,0.282473502429515
-0.165084486554661,0.281882171522893
-0.164362248930109,0.281271740909712
-0.163641287336452,0.28064239600121
-0.162921541491496,0.279994322208625
-0.162202951113043,0.279327704943195
-0.161485455918898,0.278642729616157
-0.160768995626865,0.27793958163875
-0.160053509954747,0.277218446422211
-0.159338938620349,0.276479509377779
-0.158625221341474,0.27572295591669
-0.157912297835927,0.274948971450184
-0.157200107821511,0.274157741389498
-0.15648859101603,0.27334945114587
-0.155777687137288,0.272524286130537
-0.155067335903089,0.271682431754739
-0.154357477031237,0.270824073429712
-0.153648050239536,0.269949396566694
-0.15293899524579,0.269058586576924
-0.152230251767802,0.268151828871639
-0.151521759523377,0.267229308862078
-0.150813458230318,0.266291211959477
-0.15010528760643,0.265337723575075
-0.149397187369517,0.264369029120111
-0.148689097237381,0.263385314005821
-0.147980956927828,0.262386763643444
-0.147272706158661,0.261373563444218
-0.146564284647684,0.26034589881938
-0.145855632112701,0.259303955180169
-0.145146688271516,0.258247917937822
-0.144437392841933,0.257177972503577
-0.143727685541755,0.256094304288672
-0.143017506088787,0.254997098704346
-0.142306794200833,0.253886541161835
-0.141595489595696,0.252762817072378
-0.14088353199118,0.251626111847213
-0.14017086110509,0.250476610897578
-0.139457416655229,0.24931449963471
-0.138743138359401,0.248139963469847
-0.138027965935411,0.246953187814228
-0.137311839101061,0.24575435807909
-0.136594697574157,0.244543659675671
-0.135876481072501,0.24332127801521
-0.135157129313898,0.242087398508943
-0.134436582016151,0.240842206568109
-0.133714778897066,0.239585887603946
-0.132991659674444,0.238318627027692
-0.132267164066092,0.237040610250584
-0.131541231789811,0.23575202268386
-0.130813802563407,0.234453049738759
-0.130084816104683,0.233143876826518
-0.129354212131443,0.231824689358376
-0.128621930361492,0.230495672745569
-0.127887910512632,0.229157012399337
-0.127152092302668,0.227808893730916
-0.126414415449404,0.226451502151545
-0.125674819670644,0.225085023072462
-0.124933244684191,0.223709641904904
-0.12418963020785,0.22232554406011
-0.123443915959424,0.220932914949317
-0.122696041656718,0.219531939983763
-0.121945947017535,0.218122804574687
-0.121193571759679,0.216705694133326
-0.120438855600955,0.215280794070917
-0.119681738259166,0.2138482897987
-0.118922159452115,0.212408366727911
-0.118160058897608,0.210961210269789
-0.117395376313447,0.209507005835572
-0.116628051417437,0.208045938836497
-0.115858023927382,0.206578194683803
-0.115085233561086,0.205103958788726
-0.114309620036352,0.203623416562506
-0.113531123070984,0.20213675341638
-0.112749682382787,0.200644154761586
-0.111965237689564,0.199145806009362
-0.11117772870912,0.197641892570946
-0.110387095159257,0.196132599857576
-0.109593276757781,0.194618113280489
-0.108796213222494,0.193098618250923
-0.107995844271201,0.191574300180117
-0.107192109621707,0.190045344479308
-0.106384948991813,0.188511936559735
-0.105574302099326,0.186974261832634
-0.104760108662048,0.185432505709245
-0.103942308397784,0.183886853600805
-0.103120841024337,0.182337490918551
-0.102295646259511,0.180784603073722
-0.101466663821111,0.179228375477556
-0.100633833426939,0.17766899354129
-0.0997970947948014,0.176106642676162
-0.0989563876425002,0.174541508293411
-0.09811165168784,0.172973775804274
-0.0972628266486246,0.17140363061999
-0.0964098522426581,0.169831258151795
-0.0955526681877441,0.168256843810928
-0.0946912142016868,0.166680573008627
-0.0938254300022901,0.16510263115613
-0.0929552553073578,0.163523203664674
-0.0920806298346938,0.161942475945498
-0.0912014933021022,0.160360633409839
-0.0903177854273867,0.158777861468936
-0.0894294459283514,0.157194345534026
-0.0885364145228001,0.155610271016347
-0.0876386309285368,0.154025823327137
-0.0867360348633653,0.152441187877634
-0.0858285660450898,0.150856550079076
-0.0849161641915138,0.1492720953427
-0.0839987690204416,0.147688009079746
-0.0830763202496769,0.146104476701449
-0.0821487575970238,0.14452168361905
-0.081216020780286,0.142939815243784
-0.0802780495172675,0.141359056986891
-0.0793347835257723,0.139779594259608
-0.0783861625236043,0.138201612473173
-0.0774321262285673,0.136625297038824
-0.0764726143584654,0.135050833367799
-0.0755075666311024,0.133478406871335
-0.0745369227642822,0.131908202960672
-0.0735606224758088,0.130340407047045
-0.0725786054834861,0.128775204541695
-0.071590811505118,0.127212780855857
-0.0705971802585085,0.125653321400771
-0.0695976514614613,0.124097011587674
-0.0685921648317806,0.122544036827804
-0.0675806600872701,0.120994582532399
-0.0665630769457338,0.119448834112697
-0.0655393551249757,0.117906976979936
-0.0645094343427996,0.116369196545353
-0.0634732543170094,0.114835678220187
-0.0624307547654092,0.113306607415676
-0.0613818754058028,0.111782169543057
-0.0603265559559941,0.110262550013568
-0.059264736133787,0.108747934238447
-0.0581963556569855,0.107238507628932
-0.0571213542433935,0.105734455596262
-0.0560396716108149,0.104235963551673
-0.0549512474770536,0.102743216906404
-0.0538560215599136,0.101256401071692
-0.0527539335771987,0.0997757014587765
-0.051644923246713,0.0983013034788943
-0.0505289302862602,0.0968333925432834
-0.0494058944136443,0.0953721540631818
-0.0482757553466693,0.0939177734498274
-0.0471384528031391,0.0924704361144581
-0.0459939265008576,0.0910303274683117
-0.0448421161576286,0.0895976329226263
-0.0436829614912562,0.0881725378886397
-0.0425164022195442,0.0867552277775898
-0.0413423780602966,0.0853458880007144
-0.0401608287313173,0.0839447039692516
-0.0389716939504102,0.0825518610944391
-0.0377749134353792,0.081167544787515
-0.0365704269040283,0.079791940459717
-0.0353581740741613,0.0784252335222833
-0.0341380946635822,0.0770676093864514
-0.0329101283900949,0.0757192534634595
-0.0316742149715034,0.0743803511645454
-0.0304302941256115,0.0730510879009471
-0.0291783055702231,0.0717316490839023
-0.0279181890231423,0.070422220124649
-0.0266498842021728,0.0691229864344252
-0.0253733308251187,0.0678341334244686
-0.0240884686097837,0.0665558465060173
-0.0227952372739721,0.0652883110903092
-0.0214935765354874,0.064031712588582
-0.0201834261121338,0.0627862364120737
-0.0188647257217151,0.0615520679720223
-0.0175374150820352,0.0603293926796656
-0.0162014339108981,0.0591183959462415
-0.0148567219261077,0.057919263182988
-0.0135032188454679,0.0567321798011429
-0.0121408643867826,0.0555573312119441
-0.0107695982678558,0.0543949028266295
-0.00938936020649131,0.0532450800564371
-0.00800008992049309,0.0521080483126047
-0.00660172712766514,0.0509839930063703
-0.00519421154581124,0.0498730995489717
-0.00377748289273545,0.0487755533516469
-0.00235148088624158,0.0476915398256336
-0.000916145244133651,0.0466212443821699
0.00052858431578455,0.0455648524324937
0.00198276807570894,0.0445225493878428
0.00344646631783577,0.0434945206594551
0.00491973932436097,0.0424809516585686
0.00640264737748075,0.0414820277964211
0.00789525075939106,0.0404979344842506
0.00939760975228811,0.039528857133295
0.0109097846383679,0.0385749811547921
0.0124318356998265,0.0376364919599798
0.01396382321886,0.0367135749600961
0.0155058074776645,0.0358064155663789
0.0170578487584361,0.034915199190066
0.0186200073433709,0.0340401112423954
0.0201923435146649,0.0331813371346049
0.0217749175545142,0.0323390622779325
0.0233677897451148,0.0315134720836161
0.0249710203686631,0.0307047519628935
0.0265846697073547,0.0299130873270027
0.0282087980433862,0.0291386635871816
0.0298434656589532,0.028381666154668
0.0314887328362522,0.0276422804406999
0.0331446598574789,0.0269206918565152
0.0348113070048297,0.0262170858133517
0.0364887345605003,0.0255316477224475
0.0381770028066873,0.0248645629950403
0.0398761720255863,0.024216017042368
0.0415863024993937,0.0235861952756687
0.0433074545103053,0.0229752831061801
0.0450396883405175,0.0223834659451402
0.0467830642722261,0.021810929203787
0.0485376425876274,0.0212578582933581
0.0503034835689173,0.0207244386250917
0.052080647498292,0.0202108556102256
0.0538691946579475,0.0197172946599976
0.05566918533008,0.0192439411856457
0.0574806797968854,0.0187909805984079
0.05930373834056,0.0183585983095219
0.0611384212432996,0.0179469797302257
0.0629847887873006,0.0175563102717572
0.0648429012547587,0.0171867753453543
0.0667128189278704,0.0168385603622549
0.0685946020888315,0.0165118507336969
0.0704883110198382,0.0162068318709182
0.0723940060030864,0.0159236891851567
0.0743117473207725,0.0156626080876504
0.0762415952550923,0.015423773989637
0.078183610088242,0.0152073723023545
0.0801378521024176,0.0150135884370408
0.0821043815798154,0.0148426078049339
0.0840832588026311,0.0146946158172715
0.0860745440530611,0.0145697978852917
0.0880782976133014,0.0144683394202322
0.0900945797655481,0.0143904258333311
0.0921234507919971,0.0143362425358262
0.0941649709748447,0.0143059749389555
0.0962192005962869,0.0142998084539567
0.0982861999385198,0.0143179284920679
0.100366029283739,0.0143605204645268
0.102458748914142,0.0144277697825715
0.104564419111923,0.0145198618574399
0.10668310015928,0.0146369821003697
0.108814852338407,0.014779315922599
0.110959735931502,0.0149470487353656
0.11311781122076,0.0151403659499075
0.115289138488377,0.0153594529774624
0.117473778016549,0.0156044952292684
0.119671790087473,0.0158756781165634
0.121883234983345,0.0161731870505851
0.12410817298636,0.0164972074425716
0.126346664378715,0.0168479247037608
0.128598769442606,0.0172255242453905
0.130864548460229,0.0176301914786986
0.133144061713779,0.0180621118149231
0.135437369485454,0.0185214706653018
0.137744532057449,0.0190084534410726
0.14006560971196,0.0195232455534735
0.142400662731183,0.0200660324137424
0.144749751397315,0.0206369994331171
0.147112935992551,0.0212363320228356
0.149490276799087,0.0218642155941356
0.15188183409912,0.0225208355582553
0.154287668174846,0.0232063773264324
0.156707839308461,0.0239210263099049
0.15914240778216,0.0246649679199106
0.161591433878141,0.0254383875676875
0.164054977878598,0.0262414706644734
0.166533100065728,0.0270744026215063
0.169025860721728,0.0279373688500241
0.171533320128793,0.0288305547612646
0.174055538569119,0.0297541457664658
0.176592576324903,0.0307083272768656
0.17914449367834,0.0316932847037018
0.181711350911626,0.0327092034582124
0.184293208306958,0.0337562689516353
0.186890126146532,0.0348346665952084
0.189502164712544,0.0359445818001694
0.19212938428719,0.0370861999777566
0.194771845152665,0.0382597065392075
0.197429607591167,0.0394652868957603
0.200102731884891,0.0407031264586527
0.202791278316033,0.0419734106391227
0.205495307166789,0.0432763248484082
0.208214878719356,0.0446120544977471
