0.66825893287299,0.608107093162516
0.308735229202441,0.736559291722534
0.903442656084334,0.0279613002293715
0.625693669708296,-0.124115746002357
0.347944683332257,-0.276192792234086
-0.516318667631821,0.141023878983252
0.181517718259792,-0.446356062923883
