0.0760678037582878,-0.308197894179132
0.0731627626436489,-0.302246621149527
0.0702740512748618,-0.296320520845345
0.0674015971891454,-0.290419536948024
0.0645453279237188,-0.284543613139008
0.0617051710158009,-0.278692693099736
0.0588810540026108,-0.272866720511651
0.0560729044213675,-0.267065639056193
0.0532806498092898,-0.261289392414803
0.0505042177035969,-0.255537924268922
0.0477435356415077,-0.249811178299993
0.0449985311602412,-0.244109098189455
0.0422691317970164,-0.23843162761875
0.0395552650890523,-0.232778710269319
0.0368568585735678,-0.227150289822604
0.0341738397877821,-0.221546309960044
0.031506136268914,-0.215966714363083
0.0288536755541825,-0.21041144671316
0.0262163851808067,-0.204880450691717
0.0235941926860055,-0.199373669980195
0.020987025606998,-0.193891048260036
0.0183948114810031,-0.18843252921268
0.0158174778452397,-0.182998056519568
0.013254952236927,-0.177587573862142
0.0107071621932839,-0.172201024921842
0.00817403525152937,-0.166838353380111
0.0056554989488824,-0.161499502918388
0.00315148082256203,-0.156184417218116
0.000661908409787196,-0.150893039960736
-0.00181329075222306,-0.145625314827688
-0.00427418912624979,-0.140381185500413
-0.00672085917507399,-0.135160595660354
-0.00915337336147664,-0.12996348898895
-0.0115718041482388,-0.124789809167644
-0.0139762239981414,-0.119639499877876
-0.0163667053739655,-0.114512504801087
-0.0187433207384922,-0.10940876761872
-0.0211061425545023,-0.104328232012213
-0.023455243284777,-0.0992708416630102
-0.0257906953920972,-0.0942365402525511
-0.0281125713392439,-0.0892252714622772
-0.0304209435889982,-0.0842369789736297
-0.032715884604141,-0.0792716064680498
-0.0349974668474534,-0.0743290976269785
-0.0372657627817164,-0.0694093961318571
-0.0395208448697109,-0.0645124456641266
-0.0417627855742181,-0.0596381899052283
-0.0439916573580188,-0.0547865725366033
-0.0462075326838942,-0.0499575372396927
-0.0484104840146251,-0.0451510276959378
-0.0506005838129927,-0.0403669875867796
-0.0527779045417779,-0.0356053605936593
-0.0549425186637617,-0.0308660903980181
-0.0570944986417252,-0.026149120681297
-0.0592339169384494,-0.0214543951249374
-0.0613608460167152,-0.0167818574103802
-0.0634753583393037,-0.0121314512190667
-0.0655775263689958,-0.00750312023243806
-0.0676674225685727,-0.00289680813193538
-0.0697451194008152,0.00168754140100022
-0.0718106893285045,0.00624998468492749
-0.0738642048144215,0.0107905780384054
-0.0759057383213472,0.0153093777799927
-0.0779353623120626,0.0198064402282483
-0.0799531492493488,0.024281821701731
-0.0819591715959867,0.0287355785189996
-0.0839535018147573,0.033167766998613
-0.0859362123684417,0.0375784434591302
-0.0879073757198209,0.0419676642191098
-0.0898670643316759,0.0463354855971108
-0.0918153506667877,0.050681963911692
-0.0937523071879373,0.0550071554814123
-0.0956780063579056,0.0593111166248304
-0.0975925206394738,0.0635939036605054
-0.0994959224954228,0.0678555729069958
-0.101388284388534,0.0720961806828608
-0.103269678781587,0.076315783306659
-0.105140178137365,0.0805144370969494
-0.106999854918647,0.0846921983722908
-0.108848781588215,0.088849123451242
-0.110687030608851,0.0929852686523619
-0.112514674443334,0.0971006902942092
-0.114331785554445,0.101195444695343
-0.116138436404967,0.105269588174322
-0.11793469945768,0.109323177049705
-0.119720647175365,0.113356267640051
-0.121496352020802,0.117368916263919
-0.123261886456774,0.121361179239867
-0.12501732294606,0.125333112886455
-0.126762733951442,0.129284773522242
-0.128498191935702,0.133216217465785
-0.130223769361619,0.137127501035644
-0.131939538691975,0.141018680550379
-0.133645572389551,0.144889812328547
-0.135341942917128,0.148740952688707
-0.137028722737488,0.152572157949419
-0.13870598431341,0.156383484429241
-0.140373800107676,0.160174988446732
-0.142032242583067,0.163946726320452
-0.143681384202365,0.167698754368958
-0.145321297428349,0.171431128910809
-0.146952054723801,0.175143906264565
-0.148573728551503,0.178837142748785
-0.150186391374234,0.182510894682026
-0.151790115654777,0.186165218382849
-0.153384973855911,0.189800170169812
-0.154971038440419,0.193415806361473
-0.156548381871081,0.197012183276392
-0.158117076610678,0.200589357233127
-0.159677195121991,0.204147384550238
-0.161228809867801,0.207686321546283
-0.162771993310889,0.21120622453982
-0.164306817914037,0.21470714984941
-0.165833356140024,0.21818915379361
-0.167351680451633,0.22165229269098
-0.168861863311644,0.225096622860078
-0.170363977182838,0.228522200619463
-0.171858094527996,0.231929082287694
-0.1733442878099,0.23531732418333
-0.174822629491329,0.23868698262493
-0.176293192035066,0.242038113931053
-0.177756047903891,0.245370774420257
-0.179211269560586,0.248685020411101
-0.18065892946793,0.251980908222145
-0.182099100088706,0.255258494171946
-0.183531853885694,0.258517834579065
-0.184957263321675,0.261758985762058
-0.186375400859431,0.264982004039487
-0.187786338961741,0.268186945729909
-0.189190150091389,0.271373867151883
-0.190586906711153,0.274542824623968
-0.191976681283815,0.277693874464723
-0.193359546272157,0.280827072992707
-0.19473557413896,0.283942476526479
-0.196104837347003,0.287040141384597
-0.197467408359069,0.29012012388562
-0.198823359637939,0.293182480348108
-0.200172763646392,0.296227267090618
-0.201515692847211,0.299254540431711
-0.202852219703176,0.302264356689944
-0.204182416677069,0.305256772183877
-0.20550635623167,0.308231843232068
-0.206824110829761,0.311189626153076
-0.208135752934122,0.31413017726546
-0.209441355007534,0.31705355288778
-0.210740989512779,0.319959809338593
-0.212034728912637,0.322849002936459
-0.213322645669889,0.325721189999936
-0.214604812247317,0.328576426847584
-0.215881301107702,0.331414769797961
-0.217152184713824,0.334236275169626
-0.218417535528464,0.337040999281137
-0.219677426014404,0.339828998451055
-0.220931928634424,0.342600328997937
-0.222181115851306,0.345355047240343
-0.22342506012783,0.34809320949683
-0.224663833926778,0.350814872085959
-0.225897509710931,0.353520091326288
-0.227126159943068,0.356208923536376
-0.228349857085973,0.358881425034781
-0.229568673602425,0.361537652140063
-0.230782681955205,0.364177661170781
-0.231991954607095,0.366801508445492
-0.233196564020876,0.369409250282757
-0.234396582659328,0.372000943001133
-0.235592082985233,0.374576642919181
-0.236783137461371,0.377136406355457
-0.237969818550524,0.379680289628523
-0.239152198715472,0.382208349056935
-0.240330350418998,0.384720640959254
-0.24150434612388,0.387217221654038
-0.242674258292902,0.389698147459845
-0.243840159388843,0.392163474695236
-0.245002121874485,0.394613259678768
-0.246160218212608,0.397047558729
-0.247314520865994,0.399466428164491
-0.248465102297424,0.401869924303801
-0.249612034969678,0.404258103465487
-0.250755391345538,0.40663102196811
-0.251895243887785,0.408988736130226
-0.253031665059199,0.411331302270397
-0.254164727322563,0.41365877670718
-0.255294503140655,0.415971215759133
-0.256421064976259,0.418268675744817
-0.257544485292154,0.42055121298279
-0.258664836551123,0.422818883791611
-0.259782191215944,0.425071744489838
-0.260896621749401,0.42730985139603
-0.262008200614273,0.429533260828747
-0.263117000273343,0.431742029106547
-0.26422309318939,0.433936212547988
-0.265326551825195,0.436115867471631
-0.266427448643541,0.438281050196033
-0.267525856107207,0.440431817039754
-0.268621846678976,0.442568224321352
-0.269715492821627,0.444690328359386
-0.270806866997942,0.446798185472416
-0.271896041670701,0.448891851978999
-0.272983089302687,0.450971384197695
-0.274068082356679,0.453036838447062
-0.27515109329546,0.45508827104566
-0.276232194581809,0.457125738312048
-0.277311458678508,0.459149296564783
-0.278388958048338,0.461159002122426
-0.27946476515408,0.463154911303534
-0.280538952458515,0.465137080426667
-0.281611592424424,0.467105565810383
-0.282682757514587,0.469060423773242
-0.283752520191787,0.471001710633802
-0.284820952918804,0.472929482710622
-0.285888128158418,0.474843796322261
-0.286954118373412,0.476744707787278
-0.288018996026565,0.478632273424231
-0.28908283358066,0.48050654955168
-0.290145703498476,0.482367592488183
-0.291207678242796,0.484215458552299
-0.292268830276399,0.486050204062587
-0.293329232062067,0.487871885337607
-0.294388956062582,0.489680558695915
-0.295448074740723,0.491476280456073
-0.296506660559273,0.493259106936637
-0.297564785981012,0.495029094456168
-0.29862252346872,0.496786299333225
-0.29967994548518,0.498530777886365
-0.300737124493172,0.500262586434148
-0.301794132955477,0.501981781295132
-0.302851043334876,0.503688418787877
-0.30390792809415,0.505382555230941
-0.30496485969608,0.507064246942884
-0.306021910603447,0.508733550242263
-0.307079153279033,0.510390521447638
-0.308136660185617,0.512035216877568
-0.309194503785982,0.513667692850612
-0.310252756542908,0.515288005685328
-0.311311490919176,0.516896211700275
-0.312370779377567,0.518492367214013
-0.313430694380862,0.520076528545099
-0.314491308391843,0.521648752012094
-0.31555269387329,0.523209093933554
-0.316614923287983,0.524757610628041
-0.317678069098706,0.526294358414111
-0.318742203768237,0.527819393610325
-0.319807399759358,0.529332772535241
-0.320873729534851,0.530834551507418
-0.321941265557496,0.532324786845415
-0.323010080290075,0.53380353486779
-0.324080246195367,0.535270851893103
-0.325151835736155,0.536726794239912
-0.326224921375219,0.538171418226776
-0.32729957557534,0.539604780172254
-0.3283758707993,0.541026936394905
-0.329453879509879,0.542437943213287
-0.330533674169858,0.54383785694596
-0.331615327242019,0.545226733911483
-0.332698911189142,0.546604630428413
-0.333784498474008,0.547971602815311
-0.334872161559398,0.549327707390735
-0.335961972908094,0.550673000473243
-0.337054004982877,0.552007538381395
-0.338148330246526,0.55333137743375
-0.339245021161824,0.554644573948866
-0.340344150191552,0.555947184245302
-0.341445789798489,0.557239264641617
-0.342550012445419,0.55852087145637
-0.34365689059512,0.559792061008119
-0.344766496710375,0.561052889615424
-0.345878903253965,0.562303413596844
-0.34699418268867,0.563543689270937
-0.348112407477271,0.564773772956261
-0.34923365008255,0.565993720971377
-0.350357982967287,0.567203589634843
-0.351485478594263,0.568403435265217
-0.352616209426261,0.569593314181059
-0.353750247926059,0.570773282700927
-0.35488766655644,0.57194339714338
-0.356028537780185,0.573103713826977
-0.357172934060074,0.574254289070278
-0.358320927858889,0.575395179191839
-0.35947259163941,0.576526440510222
-0.360627997864419,0.577648129343984
-0.361787218996696,0.578760302011684
-0.362950327499023,0.579863014831881
-0.36411739583418,0.580956324123134
-0.365288496464949,0.582040286204002
-0.36646370185411,0.583114957393044
-0.367643084464445,0.584180394008818
-0.368826716758735,0.585236652369884
-0.37001467119976,0.5862837887948
-0.371207020250302,0.587321859602124
-0.372403836373142,0.588350921110417
-0.37360519203106,0.589371029638237
-0.374811159686838,0.590382241504142
-0.376021811803256,0.591384613026691
-0.377237220843096,0.592378200524444
-0.378457459269139,0.593363060315959
-0.379682599544165,0.594339248719795
-0.380912714130956,0.595306822054511
-0.382147875492293,0.596265836638665
-0.383388156090956,0.597216348790817
-0.384633628389727,0.598158414829525
-0.385884364851387,0.599092091073349
-0.387140437938717,0.600017433840847
-0.388401920114497,0.600934499450577
-0.389668883841509,0.6018433442211
-0.390941401582533,0.602744024470973
-0.392219545800352,0.603636596518755
-0.393503388957745,0.604521116683006
-0.394793003517494,0.605397641282284
-0.39608846194238,0.606266226635148
-0.397389836695183,0.607126929060157
-0.398697200238686,0.607979804875869
-0.400010625035668,0.608824910400844
-0.401330183548911,0.609662301953641
-0.402655948241196,0.610492035852818
-0.403987991575303,0.611314168416933
-0.405326386014015,0.612128755964547
-0.406671204020111,0.612935854814218
-0.408022518056373,0.613735521284504
-0.409380400585582,0.614527811693965
-0.410744924070519,0.615312782361159
-0.412116160973965,0.616090489604645
-0.4134941837587,0.616860989742982
-0.414879064887507,0.617624339094729
-0.416270876823165,0.618380593978445
-0.417669692028456,0.619129810712689
-0.419075582966162,0.619872045616019
-0.420488622099062,0.620607355006994
-0.421908881889938,0.621335795204173
-0.423336434801571,0.622057422526115
-0.424771353296742,0.622772293291379
-0.426213709838232,0.623480463818524
-0.427663576888822,0.624181990426108
-0.429121026911292,0.624876929432691
-0.430586132368425,0.625565337156831
-0.432058965723001,0.626247269917087
-0.433539599437801,0.626922784032018
-0.435028105975606,0.627591935820182
-0.436524557799197,0.628254781600139
-0.438029027371354,0.628911377690448
-0.43954158715486,0.629561780409667
-0.441062309612495,0.630206046076355
-0.44259126720704,0.630844231009071
-0.444128532401276,0.631476391526374
-0.445674177657984,0.632102583946822
-0.447228275439946,0.632722864588975
-0.448790898209941,0.633337289771392
-0.450362118430751,0.63394591581263
-0.451942008565158,0.63454879903125
-0.453530641075941,0.63514599574581
-0.455128088425883,0.635737562274868
-0.456734423077764,0.636323554936985
-0.458349717494365,0.636904030050717
-0.459974044138467,0.637479043934625
-0.461607475472851,0.638048652907267
-0.463250083960298,0.638612913287202
-0.46490194206359,0.639171881392989
-0.466563122245507,0.639725613543187
-0.46823369696883,0.640274166056354
-0.46991373869634,0.64081759525105
-0.471603319890818,0.641355957445833
-0.473302513015046,0.641889308959262
-0.475011390531804,0.642417706109896
-0.476730024903872,0.642941205216294
-0.478458488594034,0.643459862597014
-0.480196854065068,0.643973734570616
-0.481945193779757,0.644482877455658
-0.483703580200881,0.6449873475707
-0.485472085791221,0.645487201234299
-0.487250783013558,0.645982494765016
-0.489039744330674,0.646473284481408
-0.490839042205349,0.646959626702034
-0.492648749100365,0.647441577745454
-0.494468937478501,0.647919193930227
-0.49629967980254,0.648392531574911
-0.498141048535263,0.648861646998064
-0.499993116139449,0.649326596518246
-0.501855955077881,0.649787436454016
-0.50372963781334,0.650244223123933
-0.505614236808605,0.650697012846555
-0.507509824526459,0.651145861940441
-0.509416473429683,0.65159082672415
-0.511334255981056,0.652031963516241
-0.513263244643362,0.652469328635273
-0.515203511879379,0.652902978399804
-0.51715513015189,0.653332969128394
-0.519118171923676,0.653759357139602
-0.521092709657517,0.654182198751985
-0.523078815816194,0.654601550284103
-0.525076562862489,0.655017468054515
-0.527086023259182,0.65543000838178
-0.529107269469054,0.655839227584457
-0.531140373954888,0.656245181981103
-0.533185409179462,0.656647927890279
-0.535242447605559,0.657047521630544
-0.53731156169596,0.657444019520455
-0.539392823913445,0.657837477878571
-0.541486306720795,0.658227953023453
-0.543592082580793,0.658615501273658
-0.545710223956217,0.659000178947745
-0.54784080330985,0.659382042364274
