0.448514453049568,0.344579309889943
0.438218790756387,0.345126230592177
0.427979114556639,0.345639852271227
0.417795281970352,0.346120340649295
0.407667150517553,0.346567861448582
0.39759457771827,0.346982580391292
0.387577421092529,0.347364663199624
0.377615538160357,0.347714275595782
0.367708786441784,0.348031583301968
0.357857023456835,0.348316752040382
0.348060106725537,0.348569947533227
0.338317893767919,0.348791335502705
0.328630242104008,0.348981081671018
0.31899700925383,0.349139351760367
0.309418052737413,0.349266311492954
0.299893230074785,0.349362126590981
0.290422398785972,0.349426962776651
0.281005416391003,0.349460985772164
0.271642140409904,0.349464361299723
0.262332428362703,0.34943725508153
0.253076137769427,0.349379832839786
0.243873126150103,0.349292260296694
0.234723251024758,0.349174703174454
0.225626369913421,0.349027327195269
0.216582340336118,0.348850298081342
0.207591019812876,0.348643781554873
0.198652265863723,0.348407943338064
0.189765936008687,0.348142949153118
0.180931887767794,0.347848964722236
0.172149978661072,0.347526155767621
0.163420066208548,0.347174688011473
0.154742007930249,0.346794727175995
0.146115661346203,0.346386438983389
0.137540883976438,0.345949989155856
0.129017533340979,0.345485543415598
0.120545466959855,0.344993267484818
0.112124542353094,0.344473327085717
0.103754617040721,0.343925887940497
0.0954355485427654,0.343351115771359
0.0871671943792535,0.342749176300506
0.0789494120702129,0.34212023525014
0.0707820591356708,0.341464458342462
0.0626649930956547,0.340782011299674
0.0545980714701916,0.340073059843978
0.0465811517793091,0.339337769697576
0.0386140915430345,0.33857630658267
0.0306967482813949,0.337788836221461
0.0228289795144177,0.336975524336152
0.0150106427621303,0.336136536648944
0.00724159554456001,0.335272038882039
-0.000478304618265993,0.33438219675764
-0.00814920020632026,0.333467175997947
-0.0157712336995755,0.332527142325162
-0.0233445475780045,0.331562261461489
-0.0308692843215799,0.330572699129128
-0.0383455864102744,0.32955862105028
-0.0457735963240606,0.32852019294715
-0.0531534565429113,0.327457580541937
-0.060485309546799,0.326370949556844
-0.0677692978156966,0.325260465714072
-0.0750055638295767,0.324126294735824
-0.082194250068412,0.322968602344302
-0.0893354990121753,0.321787554261707
-0.0964294531408391,0.32058331621024
-0.103476254934376,0.319356053912105
-0.110476046872759,0.318105933089503
-0.117428971435961,0.316833119464635
-0.124335171103954,0.315537778759703
-0.131194788356711,0.31422007669691
-0.138007965674204,0.312880178998458
-0.144774845536407,0.311518251386547
-0.151495570423292,0.31013445958338
-0.158170282814832,0.308728969311159
-0.164799125191,0.307301946292086
-0.171382240031767,0.305853556248361
-0.177919769817107,0.304383964902189
-0.184411857026993,0.302893337975769
-0.190858644141397,0.301381841191305
-0.197260273640292,0.299849640270997
-0.203616888003651,0.298296900937048
-0.209928629711446,0.29672378891166
-0.216195641243649,0.295130469917034
-0.222418065080235,0.293517109675372
-0.228596043701174,0.291883873908876
-0.234729719586441,0.290230928339749
-0.240819235216008,0.288558438690191
-0.246864733069847,0.286866570682405
-0.25286635562793,0.285155490038592
-0.258824245370232,0.283425362480955
-0.264738544776724,0.281676353731695
-0.27060939632738,0.279908629513015
-0.276436942502171,0.278122355547115
-0.28222132578107,0.276317697556198
-0.287962688644051,0.274494821262466
-0.293661173571086,0.27265389238812
-0.299316923042148,0.270795076655362
-0.304930079537208,0.268918539786395
-0.310500785536241,0.26702444750342
-0.316029183519218,0.265112965528638
-0.321515415966113,0.263184259584253
-0.326959625356897,0.261238495392465
-0.332361954171545,0.259275838675476
-0.337722544890027,0.257296455155489
-0.343041539992318,0.255300510554705
-0.34831908195839,0.253288170595326
-0.353555313268215,0.251259600999555
-0.358750376401766,0.249214967489591
-0.363904413839016,0.247154435787638
-0.369017568059938,0.245078171615898
-0.374089981544504,0.242986340696572
-0.379121796772686,0.240879108751862
-0.384113156224459,0.238756641503971
-0.389064202379793,0.236619104675099
-0.393975077718663,0.234466663987449
-0.39884592472104,0.232299485163222
-0.403676885866898,0.23011773392462
-0.408468103636208,0.227921575993846
-0.413219720508945,0.225711177093102
-0.417931878965079,0.223486702944588
-0.422604721484585,0.221248319270507
-0.427238390547435,0.21899619179306
-0.431833028633601,0.21673048623445
-0.436388778223056,0.214451368316879
-0.440905781795773,0.212159003762547
-0.445384181831725,0.209853558293658
-0.449824120810884,0.207535197632413
-0.454225741213223,0.205204087501013
-0.458589185518714,0.202860393621661
-0.462914596207331,0.200504281716559
-0.467202115759045,0.198135917507908
-0.47145188665383,0.19575546671791
-0.475664051371659,0.193363095068767
-0.479838752392504,0.190958968282681
-0.483976132196337,0.188543252081854
-0.488076333263132,0.186116112188488
-0.492139498072861,0.183677714324784
-0.496165769105497,0.181228224212944
-0.500155288841012,0.17876780757517
-0.504108199759379,0.176296630133665
-0.508024644340572,0.173814857610629
-0.511904765064562,0.171322655728265
-0.515748704411322,0.168820190208775
-0.519556604860824,0.16630762677436
-0.523328608893043,0.163785131147222
-0.52706485898795,0.161252869049563
-0.530765497625518,0.158711006203586
-0.534430667285719,0.156159708331491
-0.538060510448527,0.153599141155481
-0.541655169593914,0.151029470397757
-0.545214787201853,0.148450861780522
-0.548739505752316,0.145863481025977
-0.552229467725276,0.143267493856324
-0.555684815600706,0.140663065993766
-0.559105691858578,0.138050363160503
-0.562492238978866,0.135429551078737
-0.565844599441541,0.132800795470671
-0.569162915726578,0.130164262058507
-0.572447330313947,0.127520116564446
-0.575697985683622,0.124868524710689
-0.578915024315576,0.12220965221944
-0.582098588689781,0.119543664812899
-0.58524882128621,0.11687072821327
-0.588365864584836,0.114191008142752
-0.591449861065631,0.111504670323549
-0.594500953208568,0.108811880477862
-0.59751928349362,0.106112804327893
-0.60050499440076,0.103407607595844
-0.603458228409959,0.100696456003917
-0.606379128001192,0.097979515274313
-0.609267835654429,0.0952569511292348
-0.612124493849645,0.0925289292908838
-0.614949245066812,0.0897956154814619
-0.617742231785903,0.0870571754231711
-0.620503596486889,0.0843137748382132
-0.623233481649745,0.0815655794487899
-0.625932029754442,0.0788127549771031
-0.628599383280954,0.0760554671453549
-0.631235684709252,0.0732938816757469
-0.633841076519311,0.0705281642904809
-0.636415701191101,0.0677584807117589
-0.638959701204597,0.0649849966617828
-0.64147321903977,0.0622078778627544
-0.643956397176594,0.0594272900368755
-0.646409378095041,0.0566433989063479
-0.648832304275083,0.0538563701933736
-0.651225318196695,0.0510663696201544
-0.653588562339847,0.048273562908892
-0.655922179184514,0.0454781157817884
-0.658226311210666,0.0426801939610456
-0.660501100898279,0.0398799631688652
-0.662746690727323,0.0370775891274491
-0.664963223177771,0.0342732375589992
-0.667150840729597,0.0314670741857175
-0.669309685862774,0.0286592647298056
-0.671439901057272,0.0258499749134654
-0.673541628793066,0.0230393704588988
-0.675615011550128,0.0202276170883078
-0.677660191808432,0.017414880523894
-0.679677312047948,0.0146013264878594
-0.68166651474865,0.0117871207024058
-0.683627942390512,0.00897242888973508
-0.685561737453504,0.00615741677204903
-0.687468042417601,0.00334225007154966
-0.689346999762775,0.0005270945104386
-0.691198751968999,-0.00228788418908209
-0.693023441516244,-0.00510252030481072
-0.694821210884485,-0.00791664811454527
-0.696592202553693,-0.0107301018960841
-0.698336559003842,-0.0135427159272251
-0.700054422714904,-0.0163543244857667
-0.701745936166851,-0.0191647618495068
-0.703411241839657,-0.0219738622962438
-0.705050482213293,-0.0247814601037755
-0.706663799767734,-0.0275873895499004
-0.708251336982951,-0.0303914849124164
-0.709813236338917,-0.0331935804691219
-0.711349640315605,-0.0359935104978147
-0.712860691392988,-0.0387911092762933
-0.714346532051037,-0.0415862110823556
-0.715807304769727,-0.0443786501937999
-0.717243152029029,-0.0471682608884241
-0.718654216308917,-0.0499548774440268
-0.720040640089362,-0.0527383341384056
-0.721402565850338,-0.0555184652493592
-0.722740136071817,-0.0582951050546852
-0.724053493233773,-0.0610680878321822
-0.725342779816177,-0.0638372478596481
-0.726608138299002,-0.0666024194148812
-0.727849711162222,-0.0693634367756794
-0.729067640885808,-0.0721201342198412
-0.730262069949734,-0.0748723460251644
-0.731433140833972,-0.0776199064694474
-0.732580996018494,-0.0803626498304882
-0.733705777983275,-0.083100410386085
-0.734807629208285,-0.085833022414036
-0.735886692173498,-0.0885603201921393
-0.736943109358887,-0.0912821379981929
-0.737977023244425,-0.0939983101099953
-0.738988576310083,-0.0967086708053442
-0.739977911035835,-0.0994130543620382
-0.740945169901653,-0.102111295057875
-0.74189049538751,-0.104803227170653
-0.742814029973379,-0.107488684978171
-0.743715916139232,-0.110167502758226
-0.744596296365043,-0.112839514788616
-0.745455313130783,-0.115504555347141
-0.746293108916425,-0.118162458711597
-0.747109826201943,-0.120813059159783
-0.747905607467309,-0.123456190969498
-0.748680595192495,-0.126091688418539
-0.749434931857474,-0.128719385784704
-0.75016875994222,-0.131339117345792
-0.750882221926703,-0.133950717379601
-0.751575460290898,-0.136554020163929
-0.752248617514778,-0.139148859976573
-0.752901836078313,-0.141735071095334
-0.753535258461478,-0.144312487798007
-0.754149027144246,-0.146880944362392
-0.754743284606587,-0.149440275066287
-0.755318173328477,-0.15199031418749
-0.755873835789886,-0.154530896003798
-0.756410414470788,-0.157061854793011
-0.756928051851156,-0.159583024832926
-0.757426890410961,-0.162094240401341
-0.757907072630178,-0.164595335776055
-0.758368740988778,-0.167086145234866
-0.758812037966734,-0.169566503055572
-0.75923710604402,-0.17203624351597
-0.759644087700607,-0.17449520089386
-0.760033125416468,-0.176943209467039
-0.760404361671576,-0.179380103513306
-0.760757938945904,-0.181805717310458
-0.761093999719424,-0.184219885136294
-0.761412686472109,-0.186622441268611
-0.761714141683932,-0.189013219985209
-0.761998507834865,-0.191392055563885
-0.762265927404881,-0.193758782282438
-0.762516542873954,-0.196113234418664
-0.762750496722054,-0.198455246250364
-0.762967931429156,-0.200784652055334
-0.763168989475232,-0.203101286111373
-0.763353813340254,-0.20540498269628
-0.763522545504195,-0.207695576087851
-0.763675328447029,-0.209972900563886
-0.763812304648727,-0.212236790402183
-0.763933616589262,-0.214487079880539
-0.764039406748607,-0.216723603276753
-0.764129817606735,-0.218946194868623
-0.764204991643618,-0.221154688933947
-0.76426507133923,-0.223348919750523
-0.764310199173542,-0.22552872159615
-0.764340517626527,-0.227693928748625
-0.764356169178159,-0.229844375485747
-0.764357296308409,-0.231979896085314
-0.764344041497251,-0.234100324825123
-0.764316547224657,-0.236205495982974
-0.7642749559706,-0.238295243836665
-0.764219410215052,-0.240369402663992
-0.764150052437987,-0.242427806742755
-0.764067025119377,-0.244470290350753
-0.763970470739194,-0.246496687765781
-0.763860531777411,-0.24850683326564
-0.763737350714002,-0.250500561128127
-0.763601070028938,-0.252477705631041
-0.763451832202192,-0.254438101052179
-0.763289779713738,-0.256381581669339
-0.763115055043547,-0.258307981760321
-0.762927800671593,-0.260217135602921
-0.762728159077848,-0.262108877474938
-0.762516272742285,-0.263983041654171
-0.762292284144875,-0.265839462418416
-0.762056335765594,-0.267677974045474
-0.761808570084412,-0.269498410813141
-0.761549129581303,-0.271300606999216
-0.761278156736239,-0.273084396881496
-0.760995794029193,-0.274849614737781
-0.760702183940137,-0.276596094845868
-0.760397468949045,-0.278323671483556
-0.760081791535889,-0.280032178928642
-0.759755294180641,-0.281721451458925
-0.759418119363275,-0.283391323352202
-0.759070409563763,-0.285041628886273
-0.758712307262078,-0.286672202338935
-0.758343954938192,-0.288282877987985
-0.757965495072078,-0.289873490111224
-0.757577070143709,-0.291443872986448
-0.757178822633058,-0.292993860891456
-0.756770895020096,-0.294523288104045
-0.756353429784798,-0.296031988902015
-0.755926569407135,-0.297519797563162
-0.755490456367081,-0.298986548365286
-0.755045233144607,-0.300432075586185
-0.754591042219687,-0.301856213503656
-0.754128026072293,-0.303258796395498
-0.753656327182398,-0.304639658539509
-0.753176088029975,-0.305998634213486
-0.752687451094996,-0.307335557695229
-0.752190558857435,-0.308650263262536
-0.751685553797263,-0.309942585193204
-0.751172578394454,-0.311212357765031
-0.75065177512898,-0.312459415255816
-0.750123286480813,-0.313683591943358
-0.749587254929927,-0.314884722105453
-0.749043822956294,-0.3160626400199
-0.748493133039887,-0.317217179964498
-0.747935327660679,-0.318348176217045
-0.747370549298642,-0.319455463055338
-0.746798940433749,-0.320538874757176
-0.746220643545972,-0.321598245600356
-0.745635801115285,-0.322633409862678
-0.74504455562166,-0.32364420182194
-0.744447049545069,-0.324630455755938
-0.743843425365486,-0.325592005942472
-0.743233825562883,-0.32652868665934
-0.742618392617233,-0.32744033218434
-0.741997269008508,-0.32832677679527
-0.741370597216682,-0.329187854769928
-0.740738519721726,-0.330023400386112
-0.740101179003613,-0.330833247921621
-0.739458717542317,-0.331617231654252
-0.73881127781781,-0.332375185861804
-0.738159002310064,-0.333106944822075
-0.737502033499053,-0.333812342812863
-0.736840513864748,-0.334491214111966
-0.736174585887123,-0.335143392997182
-0.735504392046151,-0.33576871374631
-0.734830074821803,-0.336367010637147
-0.734151776694054,-0.336938117947493
-0.733469640142874,-0.337481869955144
-0.732783807648238,-0.337998100937899
-0.732094421690117,-0.338486645173556
-0.731401624748485,-0.338947336939914
-0.730705559303314,-0.339380010514771
-0.730006367834577,-0.339784500175924
-0.729304192822246,-0.340160640201171
-0.728599176746295,-0.340508264868312
-0.727891462086695,-0.340827208455144
-0.72718119132342,-0.341117305239465
-0.726468506936443,-0.341378389499073
-0.725753551405735,-0.341610295511767
-0.72503646721127,-0.341812857555345
-0.72431739683302,-0.341985909907605
-0.723596482750958,-0.342129286846344
-0.722873867445057,-0.342242822649362
-0.72214969339529,-0.342326351594456
-0.721424103081628,-0.342379707959424
-0.720697238984045,-0.342402726022065
-0.719969243582514,-0.342395240060177
-0.719240259357007,-0.342357084351557
-0.718510428787496,-0.342288093174005
-0.717779894353956,-0.342188100805317
-0.717048798536357,-0.342056941523293
-0.716317283814673,-0.341894449605731
-0.715585492668877,-0.341700459330428
-0.714853567578941,-0.341474804975183
-0.714121651024838,-0.341217320817793
-0.713389885486541,-0.340927841136058
-0.712658413444022,-0.340606200207775
-0.711927377377254,-0.340252232310742
-0.71119691976621,-0.339865771722758
-0.71119691976621,-0.339865771722758
-0.710448022791766,-0.339451014557367
-0.709661778729475,-0.339012365899663
-0.708838495201328,-0.338549973484766
-0.707978479829315,-0.338063985047797
-0.707082040235426,-0.337554548323877
-0.706149484041651,-0.337021811048126
-0.70518111886998,-0.336465920955665
-0.704177252342403,-0.335887025781615
-0.70313819208091,-0.335285273261096
-0.702064245707492,-0.334660811129229
-0.700955720844138,-0.334013787121135
-0.699812925112839,-0.333344348971934
-0.698636166135585,-0.332652644416747
-0.697425751534364,-0.331938821190695
-0.696181988931169,-0.331203027028899
-0.694905185947988,-0.330445409666478
-0.693595650206813,-0.329666116838555
-0.692253689329632,-0.328865296280249
-0.690879610938436,-0.32804309572668
-0.689473722655215,-0.327199662912971
-0.68803633210196,-0.326335145574241
-0.686567746900659,-0.325449691445612
-0.685068274673304,-0.324543448262203
-0.683538223041884,-0.323616563759136
-0.68197789962839,-0.322669185671531
-0.680387612054811,-0.321701461734509
-0.678767667943138,-0.32071353968319
-0.677118374915361,-0.319705567252696
-0.675440040593469,-0.318677692178146
-0.673732972599453,-0.317630062194663
-0.671997478555303,-0.316562825037365
-0.670233866083009,-0.315476128441374
-0.66844244280456,-0.314370120141811
-0.666623516341948,-0.313244947873796
-0.664777394317162,-0.312100759372451
-0.662904384352193,-0.310937702372895
-0.661004794069029,-0.309755924610249
-0.659078931089663,-0.308555573819634
-0.657127103036082,-0.307336797736171
-0.655149617530278,-0.30609974409498
-0.653146782194241,-0.304844560631182
-0.65111890464996,-0.303571395079898
-0.649066292519426,-0.302280395176248
-0.646989253424629,-0.300971708655354
-0.644888094987559,-0.299645483252335
-0.642763124830206,-0.298301866702313
-0.64061465057456,-0.296941006740407
-0.638442979842611,-0.29556305110174
-0.636248420256349,-0.294168147521431
-0.634031279437765,-0.292756443734601
-0.631791865008847,-0.291328087476371
-0.629530484591588,-0.289883226481861
-0.627247445807976,-0.288422008486193
-0.624943056280001,-0.286944581224486
-0.622617623629654,-0.285451092431862
-0.620271455478924,-0.283941689843441
-0.617904859449803,-0.282416521194344
-0.615518143164279,-0.280875734219691
-0.613111614244344,-0.279319476654604
-0.610685580311986,-0.277747896234203
-0.608240348989197,-0.276161140693608
-0.605776227897965,-0.27455935776794
-0.603293524660282,-0.27294269519232
-0.600792546898137,-0.271311300701869
-0.59827360223352,-0.269665322031708
-0.595736998288422,-0.268004906916956
-0.593183042684832,-0.266330203092735
-0.590612043044741,-0.264641358294165
-0.588024306990139,-0.262938520256367
-0.585420142143016,-0.261221836714462
-0.582799856125361,-0.25949145540357
-0.580163756559165,-0.257747524058813
-0.577512151066418,-0.25599019041531
-0.57484534726911,-0.254219602208182
-0.572163652789231,-0.25243590717255
-0.569467375248772,-0.250639253043535
-0.566756822269721,-0.248829787556258
-0.56403230147407,-0.247007658445839
-0.561294120483809,-0.245173013447398
-0.558542586920927,-0.243326000296057
-0.555778008407414,-0.241466766726936
-0.553000692565261,-0.239595460475156
-0.550210947016458,-0.237712229275837
-0.547409079382995,-0.2358172208641
-0.544595397286861,-0.233910582975067
-0.541770208350047,-0.231992463343856
-0.538933820194543,-0.23006300970559
-0.53608654044234,-0.228122369795389
-0.533228676715426,-0.226170691348374
-0.530360536635793,-0.224208122099664
-0.52748242782543,-0.222234809784382
-0.524594657906327,-0.220250902137647
-0.521697534500475,-0.21825654689458
-0.518791365229863,-0.216251891790302
-0.515876457716482,-0.214237084559934
-0.512953119582322,-0.212212272938596
-0.510021658449372,-0.21017760466141
-0.507082381939623,-0.208133227463494
-0.504135597675065,-0.206079289079971
-0.501181613277688,-0.204015937245961
-0.498220736369482,-0.201943319696585
-0.495253274572437,-0.199861584166963
-0.492279535508543,-0.197770878392216
-0.48929982679979,-0.195671350107465
-0.486314456068169,-0.19356314704783
-0.483323730935669,-0.191446416948432
-0.48032795902428,-0.189321307544392
-0.477327447955993,-0.187187966570831
-0.474322505352798,-0.185046541762868
-0.471313438836684,-0.182897180855625
-0.468300556029642,-0.180740031584223
-0.465284164553662,-0.178575241683782
-0.462264572030734,-0.176402958889423
-0.459242086082848,-0.174223330936266
-0.456217014331994,-0.172036505559432
-0.453189664400162,-0.169842630494042
-0.450160343909342,-0.167641853475216
-0.447129360481525,-0.165434322238076
-0.444097021738699,-0.163220184517742
-0.441063635302857,-0.160999588049334
-0.438029508795986,-0.158772680567973
-0.434994949840078,-0.156539609808781
-0.431960266057123,-0.154300523506876
-0.428925765069111,-0.152055569397381
-0.425891754498031,-0.149804895215416
-0.422858541965875,-0.147548648696102
-0.419826435094631,-0.145286977574559
-0.41679574150629,-0.143020029585908
-0.413766768822842,-0.140747952465269
-0.410739824666277,-0.138470893947764
-0.407715216658586,-0.136189001768513
-0.404693252421758,-0.133902423662636
-0.401674239577783,-0.131611307365255
-0.398658485748652,-0.12931580061149
-0.395646298556354,-0.127016051136461
-0.39263798562288,-0.12471220667529
-0.389633854570219,-0.122404414963097
-0.386634213020363,-0.120092823735003
-0.383639368595299,-0.117777580726128
-0.38064962891702,-0.115458833671593
-0.377665301607515,-0.113136730306519
-0.374686694288774,-0.110811418366026
-0.371714114582787,-0.108483045585236
-0.368747870111545,-0.106151759699268
-0.365788268497036,-0.103817708443244
-0.362835617361252,-0.101481039552283
-0.359890224326182,-0.0991419007615081
-0.356952397013816,-0.0968004398060383
-0.354022443046146,-0.0944568044209947
-0.351100670045159,-0.092111142341498
-0.348187385632848,-0.0897636013026687
-0.345282897431201,-0.0874143290396276
-0.342387513062209,-0.0850634732874956
-0.339501540147862,-0.082711181781393
-0.33662528631015,-0.0803576022564406
-0.333759059171063,-0.0780028824477593
-0.330903166352591,-0.0756471700904695
-0.328057915476725,-0.0732906129196919
-0.325223614165453,-0.0709333586705473
-0.322400570040767,-0.0685755550781564
-0.319589090724657,-0.0662173498776398
-0.316789483839112,-0.0638588908041181
-0.314002057006122,-0.061500325592712
-0.311227117847678,-0.0591418019785424
-0.30846497398577,-0.0567834676967298
-0.305715933042388,-0.0544254704823948
-0.302980302639521,-0.0520679580706582
-0.300258390399161,-0.0497110781966407
-0.297550503943297,-0.0473549785954629
-0.294856950893918,-0.0449998070022455
-0.292178038873016,-0.0426457111521091
-0.28951407550258,-0.0402928387801746
-0.2868653684046,-0.0379413376215625
-0.284232225201067,-0.0355913554113934
-0.28161495351397,-0.0332430398847882
-0.279013860965299,-0.0308965387768674
-0.276429255177046,-0.0285519998227518
-0.273861443771198,-0.026209570757562
-0.271310734369748,-0.0238693993164187
-0.268777434594685,-0.0215316332344425
-0.266261852067998,-0.0191964202467543
-0.263764294411678,-0.0168639080884745
-0.261285069247716,-0.0145342444947239
-0.2588244841981,-0.0122075772006233
-0.256382846884822,-0.0098840539412932
-0.253960464929871,-0.00756382245185432
-0.251557645955237,-0.00524703046742735
-0.249174697582911,-0.00293382572313301
-0.246811927434882,-0.000624355954091965
-0.244469643133141,0.0016812311045752
-0.242148152299677,0.00398278771774775
-0.239847762556481,0.00628016615030492
-0.237568781525543,0.00857321866712614
-0.235311516828853,0.0108617975330907
-0.2330762760884,0.013145755013078
-0.230863366926176,0.0154249433719672
-0.22867309696417,0.0176992148746377
-0.226505773824371,0.0199684217859689
-0.224361705128771,0.0222324163708401
-0.22224119849936,0.0244910508941305
-0.220144561558126,0.0267441776207195
-0.218072101927061,0.0289916488154864
-0.216024127228155,0.0312333167433106
-0.214000945083397,0.0334690336690714
-0.212002863114778,0.0356986518576481
-0.210030188944288,0.0379220235739199
-0.208083230193916,0.0401390010827663
-0.206162294485654,0.0423494366490666
-0.20426768944149,0.0445531825377001
-0.202399722683415,0.046750091013546
-0.200558701833419,0.0489400143414838
-0.198744934513493,0.0511228047863927
-0.196958728345626,0.0532983146131522
-0.195200390951808,0.0554663960866414
-0.193470229954029,0.0576269014717397
-0.19176855297428,0.0597796830333265
-0.190095667634551,0.061924593036281
-0.188451881556831,0.0640614837454826
-0.186837502363111,0.0661902074258108
-0.18525283767538,0.0683106163421445
-0.183698195115629,0.0704225627593634
-0.182173882305849,0.0725258989423465
-0.180680206868028,0.0746204771559735
-0.179217476424157,0.0767061496651234
-0.177785998596227,0.0787827687346758
-0.176386081006226,0.0808501866295097
-0.175018031276146,0.0829082556145047
-0.173682157027977,0.0849568279545399
-0.172378765883707,0.0869957559144949
-0.171108165465328,0.0890248917592487
-0.16987066339483,0.0910440877536809
-0.168666567294202,0.0930531961626706
-0.167496184785436,0.0950520692510974
-0.16635982349052,0.0970405592838403
-0.165257791031444,0.0990185185257788
-0.1641903950302,0.100985799241792
-0.163157943108777,0.10294225369676
-0.162160742889164,0.104887734155561
-0.161199101993353,0.106822092883075
-0.160273328043333,0.108745182144181
-0.159383728661095,0.110656854203759
-0.158530611468628,0.112556961326688
-0.157714284087922,0.114445355777846
-0.156935054140968,0.116321889822115
-0.156193229249755,0.118186415724372
-0.155489117036274,0.120038785749497
-0.154823025122515,0.121878852162369
-0.154195261130468,0.123706467227869
-0.153606132682122,0.125521483210874
-0.153055947399469,0.127323752376265
-0.152545012904497,0.129113126988921
-0.152073636819198,0.13088945931372
-0.15164212676556,0.132652601615544
-0.151250790365575,0.134402406159269
-0.150899935241233,0.136138725209777
-0.150589869014523,0.137861411031946
-0.150320899307435,0.139570315890656
-0.15009333374196,0.141265292050786
-0.149907479940087,0.142946191777215
-0.149763645523807,0.144612867334823
-0.14966213811511,0.146265170988489
-0.149603265335986,0.147902955003092
-0.149587334808424,0.149526071643511
-0.149614654154416,0.151134373174627
-0.149685530995951,0.152727711861318
-0.149800272955019,0.154305939968463
-0.14995918765361,0.155868909760943
-0.150162582713714,0.157416473503635
-0.150410765757322,0.15894848346142
-0.150704044406423,0.160464791899177
-0.151042726283007,0.161965251081785
-0.151427119009066,0.163449713274124
-0.151857530206587,0.164918030741073
-0.152334267497563,0.16637005574751
-0.152857638503982,0.167805640558317
-0.153427950847836,0.16922463743837
-0.154045512151113,0.170626898652552
-0.154710630035804,0.172012276465739
-0.155423612123899,0.173380623142813
-0.156184766037389,0.174731790948651
-0.156994399398263,0.176065632148134
-0.157852819828511,0.17738199900614
-0.158760334950123,0.17868074378755
-0.15971725238509,0.179961718757242
-0.160723879755401,0.181224776180096
-0.161780524683047,0.182469768320991
-0.162887494790018,0.183696547444806
-0.164045097698303,0.184904965816421
-0.165253641029894,0.186094875700715
-0.166513432406779,0.187266129362567
-0.167824779450949,0.188418579066857
-0.169187989784394,0.189552077078463
-0.170603371029104,0.190666475662266
-0.17207123080707,0.191761627083145
-0.173591876740281,0.192837383605979
-0.175165616450727,0.193893597495647
-0.176792757560398,0.194930121017028
-0.178473607691285,0.195946806435003
-0.180208474465378,0.196943506014449
-0.181997665504666,0.197920072020247
-0.18384148843114,0.198876356717276
-0.18574025086679,0.199812212370416
-0.187694260433605,0.200727491244545
-0.189703824753577,0.201622045604542
-0.191769251448694,0.202495727715288
-0.193890848140947,0.203348389841661
-0.196068922452327,0.204179884248541
-0.198303782004823,0.204990063200807
-0.200595734420425,0.205778778963339
-0.202945087321124,0.206545883801016
-0.205352148328909,0.207291229978716
-0.20781722506577,0.20801466976132
-0.210340625153699,0.208716055413707
-0.212922656214683,0.209395239200756
-0.215563625870715,0.210052073387346
-0.218263841743783,0.210686410238357
-0.221023611455878,0.211298102018668
-0.22384324262899,0.211887000993158
-0.22672304288511,0.212452959426707
-0.229663319846226,0.212995829584194
-0.232664381134329,0.213515463730498
-0.23572653437141,0.214011714130499
-0.238850087179458,0.214484433049076
-0.242035347180464,0.214933472751109
-0.245282621996417,0.215358685501475
-0.248592219249307,0.215759923565056
-0.251964446561125,0.21613703920673
-0.255399611553861,0.216489884691377
-0.258898021849504,0.216818312283876
-0.262459985070046,0.217122174249106
-0.266085808837475,0.217401322851946
-0.269775800773782,0.217655610357276
-0.273530268500958,0.217884889029976
-0.277349519640991,0.218089011134924
-0.281233861815873,0.218267828937
-0.285183602647593,0.218421194701083
-0.289199049758141,0.218548960692052
-0.293280510769508,0.218650979174787
-0.297428293303683,0.218727102414168
-0.301642704982657,0.218777182675073
-0.305924053428419,0.218801072222381
-0.31027264626296,0.218798623320973
-0.31468879110827,0.218769688235728
-0.319172795586339,0.218714119231524
-0.323724967319157,0.218631768573241
-0.328345613928713,0.218522488525758
-0.333035043036999,0.218386131353955
-0.337793562266004,0.218222549322712
-0.342621479237718,0.218031594696906
-0.347519101574132,0.217813119741418
-0.352486736897235,0.217566976721128
-0.357524692829017,0.217293017900913
-0.362633276991469,0.216991095545655
-0.36781279700658,0.216661061920231
-0.373063560496342,0.216302769289522
-0.378385875082743,0.215916069918406
-0.383780048387773,0.215500816071763
-0.389246388033424,0.215056860014472
-0.394785201641685,0.214584054011413
-0.400396796834545,0.214082250327465
-0.406081481233996,0.213551301227508
-0.411839562462027,0.212991058976419
-0.417671348140628,0.21240137583908
-0.42357714589179,0.211782104080369
-0.429557263337502,0.211133095965165
-0.435612008099754,0.210454203758348
-0.441741687800537,0.209745279724798
-0.44794661006184,0.209006176129393
-0.454227082505655,0.208236745237012
-0.46058341275397,0.207436839312536
-0.467015908428776,0.206606310620843
-0.473524877152062,0.205745011426814
-0.48011062654582,0.204852793995326
-0.486773464232039,0.203929510591259
-0.493513697832709,0.202975013479494
-0.50033163496982,0.201989154924908
-0.507227583265363,0.200971787192382
-0.514201850341327,0.199922762546795
-0.521254743819702,0.198841933253026
-0.528386571322479,0.197729151575954
-0.535597640471648,0.196584269780458
-0.542888258889198,0.195407140131419
-0.55025873419712,0.194197614893715
-0.557709374017403,0.192955546332226
-0.565240485972039,0.191680786711831
-0.572852377683016,0.190373188297409
-0.580545356772326,0.189032603353839
-0.588319730861957,0.187658884146002
-0.596175807573901,0.186251882938776
-0.604113894530147,0.184811451997041
-0.612134299352685,0.183337443585675
-0.620237329663506,0.181829709969559
-0.628423293084599,0.180288103413571
-0.636692497237955,0.178712476182591
-0.645045249745563,0.177102680541498
-0.653481858229414,0.175458568755172
-0.662002630311498,0.173779993088492
-0.670607873613804,0.172066805806337
-0.679297895758324,0.170318859173586
