0.417421432876864,0.780151872197069
0.410398981080213,0.775304547103893
0.403430522253027,0.770470441889396
0.396515821686744,0.765649525883755
0.389654644672802,0.760841768417147
0.382846756502638,0.756047138819748
0.37609192246769,0.751265606421734
0.369389907859397,0.74649714055328
0.362740477969195,0.741741710544565
0.356143398088522,0.736999285725763
0.349598433508816,0.732269835427052
0.343105349521515,0.727553328978606
0.336663911418056,0.722849735710604
0.330273884489877,0.718159024953222
0.323935034028416,0.713481166036634
0.317647125325111,0.708816128291018
0.311409923671398,0.704163881046551
0.305223194358717,0.699524393633407
0.299086702678503,0.694897635381765
0.293000213922197,0.690283575621799
0.286963493381234,0.685682183683687
0.280976306347052,0.681093428897604
0.27503841811109,0.676517280593728
0.269149593964785,0.671953708102234
0.263309599199575,0.667402680753298
0.257518199106897,0.662864167877097
0.251775158978189,0.658338138803807
0.240433219778434,0.649323409386667
0.234833851290263,0.644834647703169
0.22377714299452,0.635894177037198
0.218319333769824,0.631442406715078
0.212908241549163,0.627002905507104
0.202225269285692,0.618160587754296
0.196952919825758,0.613757709869815
0.191726348535609,0.609366978420186
0.186545320706682,0.604988362735583
0.181409601630416,0.600621832146183
0.176318956598247,0.596267355982163
0.171273150901614,0.591924903573699
0.166271949831954,0.587594444250967
0.161315118680705,0.583275947344143
0.156402422739305,0.578969382183405
0.15153362729919,0.574674718098927
0.141926799088572,0.56612097047946
0.137188296900943,0.561861825604824
0.132492756380351,0.557614459127154
0.127839942818233,0.553378840376627
0.123229621506029,0.549154938683419
0.114135516797107,0.540742163789665
0.105208564585088,0.532375889087302
0.100807183894011,0.528210112633334
0.0964468872014727,0.524055869217742
0.0921274397989106,0.519913128170704
0.0878486069777625,0.515781858822394
0.0836101540294662,0.511662030502991
0.0794118462454594,0.50755361254267
0.0752534489171795,0.503456574271608
0.0711347273360645,0.49937088501998
0.0670554467935521,0.495296514117963
0.0630153725810798,0.491233430895734
0.0590142699900855,0.487181604683468
0.0550519043120066,0.483141004811342
0.0511280408382811,0.479111600609532
0.0472424448603466,0.475093361408216
0.0433948816696407,0.471086256537567
0.0395851165576012,0.467090255327765
0.0358129148156658,0.463105327108984
0.0320780417352722,0.4591314412114
0.0283802626078579,0.455168566965191
0.0247193427248609,0.451216673700532
0.0210950473777187,0.447275730747601
0.017507141857869,0.443345707436572
0.010439561465798,0.435518297060929
0.00695941717645215,0.431620848656667
0.00351472388014964,0.427734197215014
0.000105246868328024,0.423858312066146
-0.00326924856757481,0.419993162540238
-0.00660899713612122,0.416138717967468
-0.00991423354587352,0.412294947678012
-0.0131851925053941,0.408461821002045
-0.0164221087232451,0.404639307269744
-0.019625216907989,0.400827375811286
-0.022794751768188,0.397025995956847
-0.0259309480124043,0.393235137036603
-0.0290340403492005,0.389454768380731
-0.0351418521347811,0.381925379182806
-0.0381470410006902,0.378176297301105
-0.0411200647934283,0.374437583004482
-0.0440611582215577,0.370709205623111
-0.0469705559936405,0.36699113448717
-0.0498484928182393,0.363283338926835
-0.0526952034039162,0.359585788272282
-0.0555109224592336,0.355898451853686
-0.0582958846927537,0.352221299001226
-0.0637744775286516,0.344897421315414
-0.0664685775481539,0.341250635142415
-0.0691328595801082,0.337613909856256
-0.0717675583330768,0.333987214787113
-0.0769491448363062,0.326763792620581
-0.0845055177128151,0.316003119252812
-0.0869676456716779,0.312435961419468
-0.0894018333114911,0.308878619114375
-0.0941873264682182,0.301793258409645
-0.0988638748514946,0.294746791780033
-0.101161881524495,0.291238067068836
-0.103433356129819,0.287738973866947
-0.107897647971689,0.2807695593118
-0.11009093462536,0.277299176618894
-0.114400962940985,0.270386907053299
-0.116518174020063,0.266944958840962
-0.120678163563563,0.260089282208092
-0.126735586970606,0.249875856690941
-0.132579570293297,0.239745802416605
-0.134481228910961,0.236387501475497
-0.136360110797947,0.233038341326518
-0.138216450662817,0.229698291299845
-0.140050483214132,0.226367320725654
-0.143652565210348,0.219732495255421
-0.148894251067074,0.209847586198095
-0.152283821813052,0.203302175110615
-0.153947845364176,0.200042736042625
-0.158819685232836,0.190317116703774
-0.16040433728936,0.187092707313116
-0.16196973324364,0.183876978667233
-0.165043695679715,0.177471440930493
-0.166552731578636,0.174281570499989
-0.168043450209561,0.171100258134965
-0.170970874501676,0.164763184922058
-0.173827846224559,0.158459975933183
-0.175230499143943,0.155320993848199
-0.176616243046707,0.152190385809751
-0.177985312641411,0.149068121148017
-0.180674367740893,0.142848499275394
-0.181994822662794,0.139751080724858
-0.184588760793731,0.133580875046217
-0.18586271341989,0.130508026578466
-0.18959532204388,0.121338130623601
-0.190810557528922,0.118297612888697
-0.194372647735056,0.109223973056607
-0.195532921415977,0.106215295337372
-0.196680041417275,0.103214500947495
-0.19781424244751,0.100221559217152
-0.198935759215245,0.0972364394765201
-0.202226551029075,0.0883277054946505
-0.203299677832435,0.0853735670146239
-0.205411633988651,0.0794882653065236
-0.208497345225154,0.0707172908268997
-0.210502408984168,0.0649076020808921
-0.213436583195955,0.0562488969260189
-0.214396001053671,0.0533774266522034
-0.21722161990805,0.0448068807866515
-0.218146730315128,0.0419645515840203
-0.219063850630952,0.0391294309746258
-0.219973215564085,0.0363014882886445
-0.221769618116526,0.0306670140076266
-0.223537815640949,0.0250608833823772
-0.224411924289059,0.0222683702661065
-0.226141334899891,0.0167042950771542
-0.22784723465395,0.0111679501474967
-0.228691954731096,0.00841009985534411
-0.232842645460483,-0.00527715667160335
-0.233659844635028,-0.00799442367899571
-0.236089788970118,-0.0161064081620045
-0.236893335047508,-0.0187972330426972
-0.238492182402201,-0.0241593119025589
-0.240081601413861,-0.0294955006925472
-0.243239665082074,-0.040091189497262
-0.24402622214176,-0.042724313777566
-0.244812065075625,-0.0453511802291675
-0.245597428592229,-0.04797181952189
-0.246382547400135,-0.0505862623255575
-0.247167656207907,-0.0531945393099935
-0.250312685608885,-0.0635666024518969
-0.251101265044414,-0.066144510387531
-0.25427191238454,-0.076396630825411
-0.257479953092471,-0.0865550053273779
-0.25828956629739,-0.0890801811740607
-0.259102690130608,-0.0915996512488676
-0.261565472485682,-0.0991241335402681
-0.262394985917721,-0.101621087225807
-0.264068300003693,-0.106598367998436
-0.266617509815822,-0.114023182708612
-0.270099559533532,-0.123847491750406
-0.272781639097647,-0.131160214046752
-0.275531224726488,-0.138426276879237
-0.277404914629172,-0.143244805774176
-0.278354653551238,-0.145646508333101
-0.281258262703078,-0.152821736493583
-0.283241676211297,-0.15758062903523
-0.285265419591691,-0.162320133509626
-0.28629300175536,-0.164682691896164
-0.29380124520499,-0.181089177906485
-0.294921691958249,-0.183414554989352
-0.296054802973737,-0.185735422423467
-0.297200812960017,-0.188051810878652
-0.29835995662565,-0.190363751024733
-0.301918536784296,-0.197273188306583
-0.303132562252968,-0.199567641914482
-0.306861420826223,-0.206425355657552
-0.30813408343493,-0.208702813444446
-0.309421992100051,-0.210976098950649
-0.310725381530149,-0.213245242845983
-0.314730781495927,-0.220028131565016
-0.318883957854739,-0.226774849899889
-0.320302284479419,-0.22901586127421
-0.323191247737768,-0.233486225935842
-0.327658988276196,-0.240163087758114
-0.332293516601205,-0.246806263451946
-0.335478991480142,-0.251216741663015
-0.340405581963191,-0.257805613998867
-0.226237769049588,-0.355410288716301
-0.43895191609336,-0.375894570501692
-0.34726119960754,-0.266541954615191
-0.233541891451802,-0.151114731707572
-0.247004190206641,-0.172573686295171
-0.270868233687962,-0.383216606295256
-0.47096124128995,-0.407879100974399
-0.495045631068911,-0.189681241965889
-0.482488116341139,-0.40773958689281
-0.475461254622588,-0.206505136694146
-0.391475521548229,-0.313679245953536
-0.516044827302528,-0.414174580394467
-0.415664657917127,-0.334653638119053
-0.329579909890593,-0.442231030916776
-0.554072763950989,-0.457009489719827
-0.35668795979312,-0.47862511423551
-0.379046898639188,-0.482769554530221
-0.472935385125689,-0.375915062998432
-0.476135623271604,-0.377957404337463
-0.582403504272963,-0.28661570469043
-0.492648328664974,-0.388143483959787
-0.599309923678807,-0.279017327087881
-0.432036180485191,-0.497907072571443
-0.434700448300676,-0.30102462858839
