0.513520791879125,-0.712998037275797
-0.762508339859715,0.28761182880545
-0.671315374243199,-0.353435897599809
-0.433696684765687,0.598511813681986
-0.196077995288176,1.55045952496378
0.997853166113157,-0.157972094040282
-0.164954698228914,-0.442912556554504
