-0.462156716623146,-0.776202973841277
-0.458031345789876,-0.773545373464045
-0.453938189604758,-0.770853542316803
-0.449877057043086,-0.768127749903803
-0.445847757080158,-0.765368265729293
-0.441850098691269,-0.762575359297524
-0.437883890851715,-0.759749300112744
-0.433948942536793,-0.756890357679205
-0.430045062721797,-0.753998801501156
-0.426172060382025,-0.751074901082845
-0.422329744492772,-0.748118925928524
-0.418517924029335,-0.745131145542442
-0.414736407967009,-0.742111829428849
-0.41098500528109,-0.739061247091994
-0.407263524946875,-0.735979668036127
-0.40357177593966,-0.732867361765498
-0.39990956723474,-0.729724597784357
-0.396276707807411,-0.726551645596954
-0.39267300663297,-0.723348774707538
-0.389098272686713,-0.720116254620358
-0.385552314943935,-0.716854354839666
-0.382034942379934,-0.71356334486971
-0.378545963970004,-0.71024349421474
-0.375085188689441,-0.706895072379007
-0.371652425513543,-0.703518348866759
-0.368247483417604,-0.700113593182247
-0.364870171376922,-0.69668107482972
-0.361520298366791,-0.693221063313428
-0.358197673362508,-0.689733828137621
-0.354902105339369,-0.686219638806549
-0.35163340327267,-0.682678764824461
-0.348391376137708,-0.679111475695607
-0.345175832909777,-0.675518040924237
-0.341986582564175,-0.6718987300146
-0.338823434076196,-0.668253812470947
-0.335686196421138,-0.664583557797527
-0.332574678574296,-0.660888235498591
-0.329488689510967,-0.657168115078386
-0.326428038206446,-0.653423466041164
-0.323392533636029,-0.649654557891174
-0.320381984775012,-0.645861660132667
-0.317396200598692,-0.642045042269891
-0.314434990082364,-0.638204973807096
-0.311498162201325,-0.634341724248533
-0.30858552593087,-0.630455563098451
-0.305696890246296,-0.626546759861099
-0.302832064122899,-0.622615584040728
-0.299990856535974,-0.618662305141587
-0.297173076460818,-0.614687192667926
-0.294378532872726,-0.610690516123995
-0.291607034746995,-0.606672545014043
-0.288858391058921,-0.602633548842321
-0.2861324107838,-0.598573797113078
-0.283428902896928,-0.594493559330563
-0.2807476763736,-0.590393104999028
-0.278088540189114,-0.58627270362272
-0.275451303318764,-0.582132624705891
-0.272835774737847,-0.577973137752789
-0.27024176342166,-0.573794512267665
-0.267669078345497,-0.569597017754768
-0.265117528484655,-0.565380923718348
-0.262586922814431,-0.561146499662656
-0.26007707031012,-0.55689401509194
-0.257587779947018,-0.55262373951045
-0.255118860700421,-0.548335942422436
-0.252670121545625,-0.544030893332149
-0.250241371457927,-0.539708861743837
-0.247832419412622,-0.53537011716175
-0.245443074385006,-0.531014929090139
-0.243073145350376,-0.526643567033252
-0.240722441284027,-0.522256300495341
-0.238390771161256,-0.517853398980653
-0.236077943957358,-0.51343513199344
-0.23378376864763,-0.509001769037951
-0.231508054207367,-0.504553579618436
-0.229250609611866,-0.500090833239144
-0.227011243836422,-0.495613799404325
-0.224789765856333,-0.49112274761823
-0.222585984646893,-0.486617947385107
-0.220399709183398,-0.482099668209206
-0.218230748441146,-0.477568179594778
-0.216078911395431,-0.473023751046072
-0.21394400702155,-0.468466652067338
-0.211825844294799,-0.463897152162825
-0.209724232190474,-0.459315520836784
-0.207638979683871,-0.454722027593464
-0.205569895750286,-0.450116941937114
-0.203516789365015,-0.445500533371985
-0.201479469503354,-0.440873071402327
-0.199457745140599,-0.436234825532389
-0.197451425252046,-0.43158606526642
-0.195460318812991,-0.426927060108671
-0.193484234798731,-0.422258079563392
-0.191522982184561,-0.417579393134832
-0.189576369945777,-0.41289127032724
-0.187644207057675,-0.408193980644867
-0.185726302495552,-0.403487793591963
-0.183822465234703,-0.398772978672777
-0.181932504250424,-0.394049805391558
-0.180056228518012,-0.389318543252558
-0.178193447012763,-0.384579461760025
-0.176343968709972,-0.379832830418209
-0.174507602584935,-0.37507891873136
-0.172684157612949,-0.370317996203728
-0.17087344276931,-0.365550332339562
-0.169075267029313,-0.360776196643112
-0.167289439368256,-0.355995858618629
-0.165515768761432,-0.351209587770361
-0.16375406418414,-0.346417653602559
-0.162004134611674,-0.341620325619472
-0.160265789019331,-0.33681787332535
-0.158538836382407,-0.332010566224443
-0.156823085676198,-0.327198673821001
-0.155118345876,-0.322382465619273
-0.153424425957109,-0.317562211123508
-0.151741134894821,-0.312738179837958
-0.150068281664432,-0.307910641266871
-0.148405675241238,-0.303079864914498
-0.146753124600535,-0.298246120285088
-0.145110438717619,-0.29340967688289
-0.143477426567787,-0.288570804212155
-0.141853897126333,-0.283729771777133
-0.140239659368555,-0.278886849082073
-0.138634522269748,-0.274042305631224
-0.137038294805209,-0.269196410928838
-0.135450785950233,-0.264349434479162
-0.133871804680116,-0.259501645786448
-0.132301159970155,-0.254653314354945
-0.130738660795645,-0.249804709688903
-0.129184116131883,-0.244956101292571
-0.127637334954164,-0.240107758670199
-0.126098126237784,-0.235259951326037
-0.124566298958041,-0.230412948764335
-0.123041662090229,-0.225567020489342
-0.121524024609644,-0.220722436005309
-0.120013195491584,-0.215879464816484
-0.118508983711343,-0.211038376427118
-0.117011198244218,-0.206199440341461
-0.115519648065504,-0.201362926063762
-0.114034142150499,-0.196529103098272
-0.112554489474497,-0.191698240949239
-0.111080499012796,-0.186870609120913
-0.10961197974069,-0.182046477117545
-0.108148740633476,-0.177226114443384
-0.106690590666451,-0.172409790602679
-0.105237338814909,-0.167597775099682
-0.103788794054147,-0.16279033743864
-0.102344765359462,-0.157987747123805
-0.100905061706149,-0.153190273659426
-0.0994694920695036,-0.148398186549752
-0.0980378654248227,-0.143611755299034
-0.0966099907474021,-0.13883124941152
-0.0951856770125379,-0.134056938391462
-0.093764733195526,-0.129289091743108
-0.0923469682716624,-0.124527978970709
-0.0909321912162432,-0.119773869578514
-0.0895202110045646,-0.115027033070772
-0.0881108366119223,-0.110287738951735
-0.0867038770136126,-0.105556256725651
-0.0852991411849314,-0.10083285589677
-0.0838964381011748,-0.0961178059693421
-0.0824955767376389,-0.091411376447617
-0.0810963660696195,-0.0867138368358442
-0.0796986150724129,-0.0820254566382737
-0.078302132721315,-0.0773465053591553
-0.0769067279916219,-0.0726772525027387
-0.0755122098586295,-0.0680179675732733
-0.0741183872976339,-0.0633689200750094
-0.0727250692839312,-0.0587303795121965
-0.0713320647928175,-0.0541026153890845
-0.0699391827995886,-0.0494858972099228
-0.0685462322795407,-0.0448804944789616
-0.0671530222079699,-0.0402866767004504
-0.0657593615601721,-0.0357047133786391
-0.0643650593114433,-0.0311348740177771
-0.0629699244370796,-0.0265774281221147
-0.0615737659123771,-0.0220326451959014
-0.0601763927126318,-0.017500794743387
-0.0587776138131396,-0.012982146268821
-0.0573772381891967,-0.0084769692764535
-0.0559750748160991,-0.00398553327053414
-0.0545709326691428,0.000491892244687236
-0.0531646207236239,0.00495503776496115
-0.0517559479548383,0.00940363378603765
-0.0503447233380822,0.0138374108036668
-0.0489307558486516,0.0182560993135991
-0.0475138544618424,0.0226594298115848
-0.0460938281529507,0.0270471327933741
-0.0446704858972726,0.031418938754717
-0.0432436366701042,0.0357745781913641
-0.0418130894467413,0.0401137815990654
-0.0403786532024801,0.0444362794735713
-0.0389401369126166,0.0487418023106319
-0.0374973495524469,0.0530300806059975
-0.0360501000972668,0.0573008448554184
-0.0345981975223727,0.0615538255546448
-0.0331414508030604,0.0657887531994268
-0.0316796689146259,0.0700053582855148
-0.0302126608323654,0.0742033713086592
-0.0287402355315747,0.07838252276461
-0.0272622019875502,0.0825425431491174
-0.0257783691755875,0.0866831629579318
-0.024288546070983,0.0908041126868033
-0.0227925416490325,0.0949051228314823
-0.0212901648850322,0.0989859238877189
-0.019781224754278,0.103046246351264
-0.018265530232066,0.107085820717866
-0.0167428902936923,0.111104377483277
-0.0152131139144528,0.115101647143247
-0.0136760100696435,0.119077360193526
-0.0121313877345607,0.123031247129863
-0.0105790558845002,0.12696303844801
-0.00901882349475811,0.130872464643717
-0.00745049954063041,0.134759256212733
-0.00587389299741325,0.13862314365081
-0.00428881284040252,0.142463857453697
-0.00269506804489443,0.146281128117144
-0.00109246758618482,0.150074686136903
0.000519179560430107,0.153844262008722
0.00214006441965446,0.157589586228352
0.00377037801619204,0.161310389291544
0.00541031137474698,0.165006401694048
0.0070600555200231,0.168677353931614
0.0087198014767245,0.172322976499992
0.010389740269555,0.175942999894933
0.0120700629232187,0.179537154612186
0.0137609604624195,0.183105171147503
0.0154626239118614,0.186646779996632
0.0171752442962483,0.190161711655325
0.0188990126402843,0.193649696619332
0.0206341199686731,0.197110465384402
0.0223807573061189,0.200543748446287
0.0241391156773256,0.203949276300737
0.0259093861069972,0.207326779443501
0.0276917596198376,0.210675988370329
0.0294864272405508,0.213996633576973
0.0312935799938408,0.217288445559183
0.0331134089044115,0.220551154812708
0.0349461049969668,0.223784491833299
0.0367918592962109,0.226988187116706
0.0386508628268475,0.230161971158679
0.0405233066135807,0.233305574454969
0.0424093816811145,0.236418727501326
0.0443092790541528,0.2395011607935
0.0462231897573995,0.242552604827241
0.0481513048155588,0.2455727900983
0.0500938152533343,0.248561447102426
0.0520509120954303,0.251518306335371
0.0540227863665506,0.254443098292884
0.0560096290913993,0.257335553470715
0.0580116312946801,0.260195402364615
0.0600289840010973,0.263022375470335
0.0620618782353546,0.265816203283623
0.0641105050221562,0.268576616300231
0.0661750553862057,0.271303345015909
0.0682557203522075,0.273996119926406
0.0703526909448652,0.276654671527474
0.0724661581888831,0.279278730314863
0.0745963131089648,0.281868026784322
0.0767433467298146,0.284422291431602
0.0789074500761361,0.286941254752453
0.0810888141726337,0.289424647242626
0.083287630044011,0.29187219939787
0.0855040887149723,0.294283641713936
0.0877383812102212,0.296658704686575
0.089990698554462,0.298997118811535
0.0922612317723984,0.301298614584569
0.0945501718887345,0.303562922501425
0.0968577099281742,0.305789773057854
0.0991840369154216,0.307978896749607
0.101529343875181,0.310130024072434
0.103893821832155,0.312242885522084
0.106277661811049,0.314317211594308
0.108681054836566,0.316352732784857
0.111104191933411,0.31834917958948
0.113547264126287,0.320306282503928
0.116010462439899,0.322223772023951
0.11849397789895,0.324101378645299
0.120998001528144,0.325938832863723
0.123522724352186,0.327735865174973
0.126068337395778,0.329492206074799
0.128635031683626,0.33120758605895
0.131222998240433,0.332881735623179
0.133832428090903,0.334514385263234
0.13646351225974,0.336105265474866
0.139116441771649,0.337654106753826
0.141791407651332,0.339160639595863
0.144488600923494,0.340624594496727
0.147208212612839,0.34204570195217
0.149950433744071,0.34342369245794
0.152715455341894,0.344758296509789
0.155503468431012,0.346049244603467
0.158314664036128,0.347296267234724
0.161149233181948,0.34849909489931
0.164007366893174,0.349657458092975
0.166889256194511,0.35077108731147
0.169795092110662,0.351839713050545
0.172725065666332,0.35286306580595
0.175679367886225,0.353840876073435
0.178658189795044,0.354772874348751
0.181661722417493,0.355658791127648
0.184690156778278,0.356498356905875
0.1877436839021,0.357291302179185
0.190822494813665,0.358037357443325
0.193926780537677,0.358736253194048
0.197056732098838,0.359387719927102
0.200212540521854,0.359991488138239
0.203394396831429,0.360547288323209
0.206602492052265,0.361054850977761
0.209837017209068,0.361513906597646
0.213098163326541,0.361924185678615
0.216386121429388,0.362285418716417
0.219701082542313,0.362597336206802
0.22304323769002,0.362859668645522
0.226412777897214,0.363072146528326
0.229809894188597,0.363234500350964
0.233234777588874,0.363346460609188
0.236687619122749,0.363407757798746
0.240168609814926,0.363418122415389
0.243677940690109,0.363377284954868
0.247215802773002,0.363284975912932
0.250782387088308,0.363140925785332
0.254377884660733,0.362944865067819
0.258002486514979,0.362696524256142
0.26165638367575,0.362395633846051
0.265339767167751,0.362041924333298
0.269052828015686,0.361635126213631
0.272795757244259,0.361174969982802
0.276568745878173,0.360661186136561
0.280371984942132,0.360093505170657
0.284205665460841,0.359471657580841
0.288069978459004,0.358795373862864
0.291965114961323,0.358064384512476
0.295891265992504,0.357278420025426
0.299848622577251,0.356437210897465
0.303837375740267,0.355540487624343
0.307857716506256,0.354587980701812
0.311909835899922,0.353579420625619
0.315993924945969,0.352514537891517
0.320110174669102,0.351393062995255
0.324258776094024,0.350214726432584
0.328439920245438,0.348979258699254
0.33265379814805,0.347686390291014
0.336900600826563,0.346335851703615
0.341180519305681,0.344927373432809
0.345493744610108,0.343460685974343
0.349840467764547,0.34193551982397
0.354220879793704,0.340351605477439
0.358635171722281,0.3387086734305
0.363083534574984,0.337006454178905
0.367566159376514,0.335244678218402
0.372083237151578,0.333423076044742
0.376634958924879,0.331541378153675
0.38122151572112,0.329599315040953
0.385843098565005,0.327596617202324
0.39049989848124,0.325533015133539
0.395192106494527,0.323408239330349
0.39991991362957,0.321222020288503
0.404683510911074,0.318974088503752
0.409483089363742,0.316664174471846
0.414318840012279,0.314292008688535
0.419190953881388,0.31185732164957
0.424099621995773,0.309359843850701
0.429045035380139,0.306799305787678
0.434027385059189,0.304175437956252
0.439046862057627,0.301487970852171
0.444103657400158,0.298736634971188
0.449197962111485,0.295921160809052
0.454329967216311,0.293041278861513
0.459499863739342,0.290096719624321
0.464707842705281,0.287087213593227
0.469954095138832,0.284012491263981
0.475238812064699,0.280872283132334
0.480562184507586,0.277666319694035
0.485924403492197,0.274394331444834
0.491325660043236,0.271056048880483
0.496766145185407,0.26765120249673
0.502246049943413,0.264179522789328
0.507765565341959,0.260640740254025
0.51332488240575,0.257034585386571
0.518924192159487,0.253360788682718
0.524563685627877,0.249619080638216
0.530243553835621,0.245809191748814
0.535963987807426,0.241930852510263
0.541725178567995,0.237983793418313
0.54752731714203,0.233967744968714
0.553370594554238,0.229882437657217
0.559255201829321,0.225727601979572
0.565181329991983,0.221502968431529
0.571149170066928,0.217208267508838
0.577158913078861,0.21284322970725
0.583210750052486,0.208407585522515
0.589304872012505,0.203901065450383
0.595441469983624,0.199323399986604
0.601620734990546,0.194674319626929
0.607842858057976,0.189953554867107
0.614108030210616,0.185160836202889
0.620416442473172,0.180295894130026
0.626768285870346,0.175358459144268
0.633163751426844,0.170348261741363
