0.93111352047707,0.104200265376723
-0.19749420059437,0.968429333594108
0.0909917211688289,0.702160541284536
0.418970625680665,0.901702140876129
0.746949530192501,1.10124374046772
0.528972645260179,0.180777620669889
0.928104234651594,-0.488639084913347
