0.117229446455968,0.964950940037418
0.0833534629577713,0.902102031388768
0.0275107943590764,0.792982534462498
-0.0424367529524811,0.737807848120739
-0.0543222675605906,0.640833210413792
-0.175223265220082,0.593053324338757
-0.161056484734118,0.546889503586526
-0.170311816824281,0.481031677107371
-0.181932346936385,0.451780247493851
-0.234365375140797,0.426269089745597
-0.26209490110627,0.340674710659739
-0.305516308336656,0.258627943184186
-0.309716645836237,0.206885158808045
-0.28491099316693,0.168164052416271
-0.28043915726623,0.149832073856905
-0.263652525623887,0.175527575349175
-0.290700119824957,0.0727064152501882
-0.307990534436798,0.086941830829611
-0.296366697414805,0.0761560607632226
-0.295733281611604,0.0251662157521155
-0.286279907390171,-0.00120343438784565
-0.297164479758432,-0.00461048047668682
-0.292610533928588,-0.094397609498784
-0.245839540476991,-0.0743489896961214
-0.208384681005562,-0.0599534171487042
-0.249462625530738,-0.150214150579354
-0.217823546815617,-0.108379895146598
-0.181434815561334,-0.145819418381477
-0.0969499698473638,-0.197692724685458
-0.170945755760031,-0.219834654112143
-0.118941956497879,-0.191479148861696
-0.123494148617429,-0.24260842329309
-0.0913038053611499,-0.275219040275154
-0.0446600355219234,-0.303300848061032
0.00195871938229466,-0.332073631738798
0.0736219431802965,-0.323707834108518
0.0538173795295037,-0.389059559037109
0.101750844850967,-0.449017838849496
0.104885924457637,-0.452592859128038
0.129763430424401,-0.487243699359336
0.151618562466225,-0.520264144201202
0.159855182868723,-0.553297981994299
0.191974152782609,-0.583125686788136
0.248609832878606,-0.567106781508375
0.218025050999583,-0.622602528338433
0.23071100705677,-0.639368114293651
0.231013480372734,-0.641256427028004
0.232997464010247,-0.64357532222999
0.270976988836586,-0.640051620334291
0.247008351997932,-0.639377037929437
0.222771825609915,-0.626342428528618
0.214488342728676,-0.61360233676568
0.204026187985119,-0.597898047691484
0.165353452305063,-0.533299529153154
0.175935349076395,-0.523079375744344
0.151703395711962,-0.573084925020093
0.14685873004322,-0.481568513573649
0.0949614620074721,-0.489621924542856
0.146242468520102,-0.471137973273275
0.0590431529211838,-0.40680551616668
0.060722487373888,-0.429494640385062
0.00981260262635729,-0.348294779110406
0.0137388276507578,-0.348272654667871
0.026830412875218,-0.312808932557956
-0.0790546759440015,-0.277021871611825
-0.0595895154904578,-0.269700330657381
-0.0595710199382054,-0.279193211948478
-0.12894051217955,-0.229676742470078
-0.132960889117031,-0.204797922116173
-0.156702945756876,-0.187695903864893
-0.211861093082481,-0.185676948195922
-0.21290978186355,-0.145191384781615
-0.227023097655864,-0.177860432087973
-0.265354619319565,-0.106909231863098
-0.248340940558409,-0.121607122926826
-0.240851407309333,-0.136182207534094
-0.298535917043325,-0.185457589276886
-0.282260008258265,-0.188699894672043
-0.324013235857757,-0.198193248546475
-0.301255606881635,-0.2326486165939
