-0.782345920746853,-0.594677525355609
-0.918413872284737,-0.388202674186356
0.562062311990398,0.694356264833886
0.728565338888844,-0.458629134453833
0.895068365787291,-1.61161453374155
0.813268161836423,0.616252500256717
0.328958898065865,0.914119827225662
