-0.420426939337034,-0.978977507491064
-0.419810906558603,-0.978521415735638
-0.419217747906927,-0.978043137054908
-0.418647338988624,-0.977542807461216
-0.418099555410311,-0.977020562966906
-0.417574272778602,-0.976476539584321
-0.417071366700116,-0.975910873325805
-0.416590712781467,-0.975323700203702
-0.416132186629274,-0.974715156230354
-0.415695663850151,-0.974085377418106
-0.415281020050716,-0.973434499779301
-0.414888130837584,-0.972762659326281
-0.414516871817372,-0.972069992071392
-0.414167118596697,-0.971356634026975
-0.413838746782175,-0.970622721205375
-0.413531631980421,-0.969868389618935
-0.413245649798054,-0.969093775279999
-0.412980675841688,-0.968299014200909
-0.412736585717941,-0.96748424239401
-0.412513255033428,-0.966649595871645
-0.412310559394767,-0.965795210646157
-0.412128374408573,-0.964921222729891
-0.411966575681463,-0.964027768135188
-0.411825038820053,-0.963114982874393
-0.411703639430959,-0.962183002959849
-0.411602253120799,-0.961231964403901
-0.411520755496188,-0.96026200321889
-0.411459022163743,-0.95927325541716
-0.411416928730079,-0.958265857011056
-0.411394350801815,-0.957239944012921
-0.411391163985565,-0.956195652435097
-0.411407243887946,-0.955133118289929
-0.411442466115576,-0.954052477589759
-0.411496706275069,-0.952953866346932
-0.411569839973042,-0.951837420573791
-0.411661742816112,-0.950703276282679
-0.411772290410896,-0.94955156948594
-0.411901358364009,-0.948382436195917
-0.412048822282067,-0.947196012424954
-0.412214557771688,-0.945992434185394
-0.412398440439488,-0.944771837489581
-0.412600345892083,-0.943534358349858
-0.412820149736089,-0.942280132778568
-0.413057727578123,-0.941009296788055
-0.413312955024801,-0.939721986390663
-0.41358570768274,-0.938418337598734
-0.413875861158555,-0.937098486424613
-0.414183291058864,-0.935762568880643
-0.414507872990282,-0.934410720979167
-0.414849482559427,-0.933043078732529
-0.415207995372914,-0.931659778153072
-0.415583287037359,-0.93026095525314
-0.41597523315938,-0.928846746045076
-0.416383709345593,-0.927417286541224
-0.416808591202613,-0.925972712753927
-0.417249754337058,-0.924513160695528
-0.417707074355543,-0.923038766378371
-0.418180426864685,-0.9215496658148
-0.418669687471101,-0.920045995017157
-0.419174731781407,-0.918527889997787
-0.419695435402219,-0.916995486769034
-0.420231673940153,-0.915448921343239
-0.420783323001827,-0.913888329732747
-0.421350258193855,-0.912313847949901
-0.421932355122856,-0.910725612007045
-0.422529489395445,-0.909123757916522
-0.423141536618237,-0.907508421690676
-0.423768372397851,-0.90587973934185
-0.424409872340902,-0.904237846882388
-0.425065912054007,-0.902582880324632
-0.425736367143782,-0.900914975680927
-0.426421113216843,-0.899234268963616
-0.427120025879806,-0.897540896185042
-0.427832980739289,-0.895834993357549
-0.428559853401907,-0.894116696493481
-0.429300519474278,-0.89238614160518
-0.430054854563016,-0.890643464704991
-0.430822734274739,-0.888888801805256
-0.431604034216063,-0.887122288918319
-0.432398629993604,-0.885344062056525
-0.433206397213979,-0.883554257232215
-0.434027211483805,-0.881753010457734
-0.434860948409696,-0.879940457745425
-0.435707483598271,-0.878116735107631
-0.436566692656145,-0.876281978556696
-0.437438451189935,-0.874436324104964
-0.438322634806256,-0.872579907764777
-0.439219119111726,-0.87071286554848
-0.440127779712961,-0.868835333468416
-0.441048492216577,-0.866947447536928
-0.44198113222919,-0.86504934376636
-0.442925575357417,-0.863141158169055
-0.443881697207875,-0.861223026757357
-0.444849373387179,-0.859295085543608
-0.445828479501946,-0.857357470540153
-0.446818891158793,-0.855410317759336
-0.447820483964335,-0.853453763213499
-0.44883313352519,-0.851487942914986
-0.449856715447973,-0.84951299287614
-0.450891105339301,-0.847529049109305
-0.451936178805791,-0.845536247626824
-0.452991811454058,-0.843534724441042
-0.454057878890719,-0.8415246155643
-0.45513425672239,-0.839506057008944
-0.456220820555689,-0.837479184787315
-0.45731744599723,-0.835444134911759
-0.458424008653631,-0.833401043394617
-0.459540384131508,-0.831350046248233
-0.460666448037478,-0.829291279484953
-0.461802075978156,-0.827224879117118
-0.462947143560159,-0.825150981157071
-0.464101526390103,-0.823069721617157
-0.465265100074606,-0.820981236509719
-0.466437740220283,-0.8188856618471
-0.46761932243375,-0.816783133641644
-0.468809722321624,-0.814673787905694
-0.470008815490521,-0.812557760651594
-0.471216477547059,-0.810435187891688
-0.472432584097852,-0.808306205638318
-0.473657010749518,-0.806170949903828
-0.474889633108673,-0.804029556700562
-0.476130326781932,-0.801882162040863
-0.477378967375914,-0.799728901937074
-0.478635430497233,-0.797569912401539
-0.479899591752507,-0.795405329446602
-0.481171326748352,-0.793235289084606
-0.482450511091384,-0.791059927327894
-0.483737020388219,-0.78887938018881
-0.485030730245474,-0.786693783679697
-0.486331516269765,-0.784503273812899
-0.487639254067709,-0.782307986600759
-0.488953819245922,-0.780108058055621
-0.49027508741102,-0.777903624189828
-0.491602934169621,-0.775694821015724
-0.492937235128339,-0.773481784545652
-0.494277865893791,-0.771264650791955
-0.495624702072595,-0.769043555766977
-0.496977619271366,-0.766818635483062
-0.49833649309672,-0.764590025952553
-0.499701199155275,-0.762357863187793
-0.501071613053646,-0.760122283201126
-0.50244761039845,-0.757883422004895
-0.503829066796303,-0.755641415611444
-0.505215857853821,-0.753396400033116
-0.506607859177622,-0.751148511282256
-0.50800494637432,-0.748897885371205
-0.509406995050533,-0.746644658312308
-0.510813880812878,-0.744388966117907
-0.512225479267969,-0.742130944800348
-0.513641666022425,-0.739870730371972
-0.515062316682861,-0.737608458845124
-0.516487306855893,-0.735344266232147
-0.517916512148138,-0.733078288545384
-0.519349808166213,-0.73081066179718
-0.520787070516733,-0.728541521999876
-0.522228174806316,-0.726271005165817
-0.523672996641577,-0.723999247307347
-0.525121411629132,-0.721726384436808
-0.526573295375599,-0.719452552566545
-0.528028523487593,-0.7171778877089
-0.529486971571732,-0.714902525876217
-0.53094851523463,-0.71262660308084
-0.532413030082906,-0.710350255335112
-0.533880391723174,-0.708073618651376
-0.535350475762052,-0.705796829041976
-0.536823157806156,-0.703520022519256
-0.538298313462102,-0.701243335095558
-0.539775818336506,-0.698966902783227
-0.541255548035986,-0.696690861594605
-0.542737378167157,-0.694415347542037
-0.544221184336635,-0.692140496637866
-0.545706842151038,-0.689866444894435
-0.547194227216981,-0.687593328324087
-0.548683215141081,-0.685321282939167
-0.550173681529954,-0.683050444752017
-0.551665501990217,-0.680780949774981
-0.553158552128486,-0.678512934020403
-0.554652707551378,-0.676246533500626
-0.556147843865508,-0.673981884227993
-0.557643836677493,-0.671719122214848
-0.55914056159395,-0.669458383473534
-0.560637894221494,-0.667199804016395
-0.562135710166743,-0.664943519855774
-0.563633885036312,-0.662689667004016
-0.565132294436819,-0.660438381473462
-0.566630813974879,-0.658189799276457
-0.568129319257108,-0.655944056425344
-0.569627685890124,-0.653701288932467
-0.571125789480543,-0.651461632810169
-0.57262350563498,-0.649225224070793
-0.574120709960052,-0.646992198726683
-0.575617278062376,-0.644762692790183
-0.577113085548569,-0.642536842273636
-0.578608008025245,-0.640314783189385
-0.580101921099023,-0.638096651549773
-0.581594700376517,-0.635882583367146
-0.583086221464345,-0.633672714653844
-0.584576359969123,-0.631467181422214
-0.586064991497468,-0.629266119684596
-0.587551991655995,-0.627069665453336
-0.589037236051321,-0.624877954740777
-0.590520600290062,-0.622691123559261
-0.592001959978836,-0.620509307921133
-0.593481190724257,-0.618332643838736
-0.594958168132943,-0.616161267324414
-0.59643276781151,-0.613995314390509
-0.597904865366575,-0.611834921049366
-0.599374336404753,-0.609680223313328
-0.600841056532661,-0.607531357194737
-0.602304901356915,-0.605388458705939
-0.603765746484133,-0.603251663859276
-0.605223467520929,-0.601121108667092
-0.606677940073922,-0.598996929141729
-0.608129039749726,-0.596879261295533
-0.609576642154958,-0.594768241140845
-0.611020622896236,-0.59266400469001
-0.612460857580174,-0.590566687955371
-0.61389722181339,-0.588476426949271
-0.615329591202499,-0.586393357684055
-0.616757841354119,-0.584317616172065
-0.618181847874866,-0.582249338425644
-0.619601486371355,-0.580188660457137
-0.621016632450204,-0.578135718278887
-0.622427161718029,-0.576090647903237
-0.623832949781445,-0.57405358534253
-0.62523387224707,-0.572024666609111
-0.626629804721521,-0.570004027715323
-0.628020622811412,-0.567991804673508
-0.629406202123361,-0.565988133496011
-0.630786418263984,-0.563993150195175
-0.632161146839897,-0.562006990783344
-0.633530263457717,-0.56002979127286
-0.634893643724061,-0.558061687676068
-0.636251163245543,-0.556102816005311
-0.637602697628782,-0.554153312272932
-0.638948122480393,-0.552213312491274
-0.640287313406992,-0.550282952672682
-0.641620146015197,-0.548362368829499
-0.642946495911623,-0.546451696974068
-0.644266238702887,-0.544551073118733
-0.645579249995605,-0.542660633275837
-0.646885405396393,-0.540780513457723
-0.648184580511869,-0.538910849676735
-0.649476650948647,-0.537051777945217
-0.650761492313346,-0.535203434275511
-0.65203898021258,-0.533365954679963
-0.653308990252967,-0.531539475170913
-0.654571398041123,-0.529724131760708
-0.655826079183663,-0.527920060461689
-0.657072909287206,-0.5261273972862
-0.658311763958366,-0.524346278246585
-0.659542518803761,-0.522576839355188
-0.660765049430006,-0.520819216624351
-0.661979231443718,-0.519073546066418
-0.663184940451514,-0.517339963693732
-0.66438205206001,-0.515618605518638
-0.665570441875822,-0.513909607553478
-0.666749985505566,-0.512213105810596
-0.667920558555859,-0.510529236302336
-0.669082036633318,-0.50885813504104
-0.670234295344559,-0.507199938039053
-0.671377210296197,-0.505554781308717
-0.67251065709485,-0.503922800862377
-0.673634511347134,-0.502304132712376
-0.674748648659665,-0.500698912871056
-0.67585294463906,-0.499107277350763
-0.676947274891934,-0.497529362163838
-0.678031515024905,-0.495965303322626
-0.679105540644589,-0.494415236839471
-0.680169227357602,-0.492879298726714
-0.68122245077056,-0.491357624996701
-0.68226508649008,-0.489850351661774
-0.683297010122778,-0.488357614734277
-0.684318097275271,-0.486879550226553
-0.685328223554175,-0.485416294150947
-0.686327264566107,-0.4839679825198
-0.687315095917682,-0.482534751345457
-0.688291593215517,-0.481116736640261
-0.689256632066229,-0.479714074416556
-0.690210088076434,-0.478326900686686
-0.691151836852748,-0.476955351462992
-0.692081754001787,-0.47559956275782
-0.692999715130169,-0.474259670583513
-0.693905595844509,-0.472935810952413
-0.694799271751424,-0.471628119876865
-0.695680618457529,-0.470336733369211
-0.696549511569443,-0.469061787441796
-0.69740582669378,-0.467803418106963
-0.698249439437158,-0.466561761377056
-0.699080225406192,-0.465336953264416
-0.699898060207499,-0.46412912978139
-0.700702819447696,-0.462938426940319
-0.701494378733399,-0.461764980753547
-0.702272613671223,-0.460608927233417
-0.703037399867787,-0.459470402392274
-0.703788612929705,-0.45834954224246
-0.704526128463594,-0.457246482796319
-0.705249822076071,-0.456161360066195
-0.705959569373752,-0.45509431006443
-0.706655245963254,-0.454045468803369
-0.707336727451193,-0.453014972295355
-0.708003889444184,-0.452002956552731
-0.708656607548845,-0.451009557587841
-0.709294757371793,-0.450034911413028
-0.709918214519642,-0.449079154040636
-0.71052685459901,-0.448142421483008
-0.711120553216513,-0.447224849752488
-0.711699185978768,-0.446326574861418
-0.712262628492391,-0.445447732822143
-0.712810756363997,-0.444588459647007
-0.713343445200205,-0.443748891348351
-0.713860570607629,-0.442929163938521
-0.714362008192887,-0.442129413429859
-0.714847633562594,-0.441349775834709
-0.715317322323368,-0.440590387165414
-0.715770950081824,-0.439851383434318
-0.716208392444579,-0.439132900653764
-0.716629525018249,-0.438435074836096
-0.71703422340945,-0.437758041993657
-0.7174223632248,-0.437101938138791
-0.717793820070914,-0.43646689928384
-0.718148469554408,-0.43585306144115
-0.7184861872819,-0.435260560623062
-0.718806848860006,-0.434689532841921
-0.719110329895341,-0.434140114110069
-0.719396505994523,-0.433612440439852
-0.719665252764167,-0.433106647843611
-0.71991644581089,-0.43262287233369
-0.720149960741308,-0.432161249922433
-0.720365673162039,-0.431721916622184
-0.720563458679697,-0.431305008445285
-0.7207431929009,-0.43091066140408
-0.720904751432264,-0.430539011510913
-0.721048009880405,-0.430190194778127
-0.72117284385194,-0.429864347218066
-0.721279128953484,-0.429561604843072
-0.721366740791656,-0.429282103665491
-0.72143555497307,-0.429025979697664
-0.721485447104343,-0.428793368951935
-0.721516292792091,-0.428584407440649
-0.721527967642932,-0.428399231176147
-0.721520347263481,-0.428237976170775
-0.721493307260354,-0.428100778436875
-0.721446723240169,-0.42798777398679
-0.721380470809541,-0.427899098832865
-0.721294425575087,-0.427834888987442
-0.721188463143423,-0.427795280462866
-0.721062459121165,-0.427780409271479
-0.720916289114931,-0.427790411425625
-0.720749828731336,-0.427825422937648
-0.720562953576996,-0.42788557981989
-0.720355539258529,-0.427971018084696
-0.72012746138255,-0.428081873744409
-0.719878595555676,-0.428218282811372
-0.719608817384523,-0.428380381297929
-0.719318002475707,-0.428568305216424
-0.719006026435846,-0.428782190579199
-0.718672764871555,-0.429022173398598
-0.718318093389451,-0.429288389686965
-0.71794188759615,-0.429580975456643
-0.717544023098268,-0.429900066719976
-0.717124375502422,-0.430245799489307
-0.716682820415228,-0.430618309776979
-0.716219233443303,-0.431017733595336
-0.715733490193263,-0.431444206956722
-0.715225466271724,-0.431897865873479
-0.714695037285303,-0.432378846357952
-0.714142078840616,-0.432887284422484
-0.713566466544279,-0.433423316079418
-0.71296807600291,-0.433987077341098
-0.712346782823123,-0.434578704219867
-0.711702462611537,-0.435198332728068
-0.711034990974766,-0.435846098878046
-0.710344243519428,-0.436522138682143
-0.709630095852138,-0.437226588152704
-0.708892423579513,-0.437959583302071
-0.708131102308171,-0.438721260142588
-0.707346007644725,-0.439511754686598
-0.706537015195795,-0.440331202946446
-0.705704000567994,-0.441179740934473
-0.704846839367941,-0.442057504663025
-0.703965407202251,-0.442964630144444
-0.703059579677541,-0.443901253391074
-0.702129232400428,-0.444867510415257
-0.701174240977526,-0.445863537229339
-0.700194481015454,-0.446889469845662
-0.699189828120827,-0.447945444276569
-0.698160157900261,-0.449031596534404
-0.697105345960374,-0.450148062631511
-0.696025267907781,-0.451294978580233
-0.694919799349099,-0.452472480392914
-0.693788815890944,-0.453680704081896
-0.692632193139932,-0.454919785659524
-0.691449806702681,-0.45618986113814
-0.690241532185805,-0.457491066530089
-0.689007245195923,-0.458823537847714
-0.687746821339649,-0.460187411103358
-0.686460136223601,-0.461582822309364
-0.685147065454395,-0.463009907478077
-0.683807484638647,-0.464468802621839
-0.683807484638647,-0.464468802621839
-0.682449242655286,-0.465933371232997
-0.681080359452193,-0.467377415949051
-0.67970096723941,-0.468800981500074
-0.67831119822698,-0.470204112616141
-0.676911184624946,-0.471586854027328
-0.675501058643349,-0.472949250463708
-0.674080952492232,-0.474291346655356
-0.672650998381639,-0.475613187332346
-0.671211328521611,-0.476914817224753
-0.669762075122192,-0.478196281062651
-0.668303370393422,-0.479457623576115
-0.666835346545347,-0.480698889495219
-0.665358135788008,-0.481920123550039
-0.663871870331447,-0.483121370470647
-0.662376682385706,-0.484302674987119
-0.66087270416083,-0.485464081829529
-0.65936006786686,-0.486605635727952
-0.657838905713839,-0.487727381412462
-0.656309349911809,-0.488829363613134
-0.654771532670813,-0.489911627060042
-0.653225586200894,-0.490974216483261
-0.651671642712093,-0.492017176612864
-0.650109834414454,-0.493040552178927
-0.64854029351802,-0.494044387911524
-0.646963152232833,-0.49502872854073
-0.645378542768934,-0.495993618796619
-0.643786597336368,-0.496939103409266
-0.642187448145176,-0.497865227108744
-0.640581227405402,-0.498772034625129
-0.638968067327087,-0.499659570688495
-0.637348100120274,-0.500527880028916
-0.635721457995007,-0.501377007376467
-0.634088273161327,-0.502206997461223
-0.632448677829276,-0.503017895013258
-0.630802804208899,-0.503809744762645
-0.629150784510237,-0.504582591439461
-0.627492750943332,-0.50533647977378
-0.625828835718228,-0.506071454495674
-0.624159171044966,-0.506787560335221
-0.62248388913359,-0.507484842022493
-0.620803122194142,-0.508163344287565
-0.619117002436665,-0.508823111860512
-0.617425662071201,-0.509464189471409
-0.615729233307792,-0.510086621850329
-0.614027848356482,-0.510690453727347
-0.612321639427313,-0.511275729832538
-0.610610738730327,-0.511842494895976
-0.608895278475568,-0.512390793647736
-0.607175390873077,-0.512920670817892
-0.605451208132898,-0.513432171136519
-0.603722862465072,-0.513925339333691
-0.601990486079642,-0.514400220139482
-0.600254211186652,-0.514856858283968
-0.598514169996143,-0.515295298497222
-0.596770494718158,-0.515715585509319
-0.59502331756274,-0.516117764050333
-0.593272770739931,-0.51650187885034
-0.591518986459774,-0.516867974639413
-0.589762096932312,-0.517216096147627
-0.588002234367586,-0.517546288105056
-0.58623953097564,-0.517858595241776
-0.584474118966516,-0.51815306228786
-0.582706130550257,-0.518429733973383
-0.580935697936905,-0.518688655028419
-0.579162953336503,-0.518929870183043
-0.577388028959093,-0.519153424167329
-0.575611057014719,-0.519359361711352
-0.573832169713422,-0.519547727545187
-0.572051499265245,-0.519718566398908
-0.570269177880231,-0.519871923002588
-0.568485337768422,-0.520007842086304
-0.566700111139861,-0.520126368380128
-0.564913630204591,-0.520227546614137
-0.563126027172654,-0.520311421518403
-0.561337434254092,-0.520378037823003
-0.559547983658949,-0.52042744025801
-0.557757807597266,-0.520459673553498
-0.555967038279087,-0.520474782439542
-0.554175807914453,-0.520472811646217
-0.552384248713409,-0.520453805903597
-0.550592492885995,-0.520417809941757
-0.548800672642255,-0.520364868490771
-0.547008920192231,-0.520295026280713
-0.545217367745966,-0.520208328041659
-0.543426147513502,-0.520104818503682
-0.541635391704883,-0.519984542396857
-0.539845232530149,-0.519847544451258
-0.538055802199345,-0.519693869396961
-0.536267232922513,-0.519523561964039
-0.534479656909695,-0.519336666882567
-0.532693206370934,-0.519133228882619
-0.530908013516272,-0.518913292694271
-0.529124210555752,-0.518676903047595
-0.527341929699417,-0.518424104672668
-0.525561303157309,-0.518154942299563
-0.523782463139471,-0.517869460658354
-0.522005541855944,-0.517567704479118
-0.520230671516773,-0.517249718491927
-0.518457984331999,-0.516915547426856
-0.516687612511666,-0.51656523601398
-0.514919688265815,-0.516198828983373
-0.513154343804489,-0.51581637106511
-0.511391711337731,-0.515417906989265
-0.509631923075583,-0.515003481485914
-0.507875111228088,-0.514573139285129
-0.506121408005289,-0.514126925116986
-0.504370945617227,-0.513664883711558
-0.502623856273947,-0.513187059798922
-0.500880272185489,-0.512693498109151
-0.499140325561897,-0.512184243372319
-0.497404148613214,-0.511659340318502
-0.495671873549482,-0.511118833677773
-0.493943632580743,-0.510562768180207
-0.49221955791704,-0.509991188555879
-0.490499781768416,-0.509404139534863
-0.488784436344913,-0.508801665847233
-0.487073653856574,-0.508183812223064
-0.485367566513441,-0.507550623392431
-0.483666306525557,-0.506902144085407
-0.481970006102965,-0.506238419032069
-0.480278797455707,-0.505559492962489
-0.478592812793826,-0.504865410606742
-0.476912184327364,-0.504156216694903
-0.475237044266364,-0.503431955957047
-0.473567524820868,-0.502692673123248
-0.471903758200919,-0.50193841292358
-0.47024587661656,-0.501169220088117
-0.468594012277833,-0.500385139346936
-0.466948297394781,-0.499586215430109
-0.465308864177446,-0.498772493067711
-0.463675844835871,-0.497944016989816
-0.462049371580098,-0.4971008319265
-0.46042957662017,-0.496242982607837
-0.45881659216613,-0.495370513763901
-0.457210550428021,-0.494483470124767
-0.455611583615884,-0.493581896420509
-0.454019823939762,-0.492665837381202
-0.452435403609698,-0.491735337736919
-0.450858454835735,-0.490790442217736
-0.449289109827915,-0.489831195553728
-0.44772750079628,-0.488857642474968
-0.446173759950874,-0.487869827711531
-0.444628019501738,-0.486867795993492
-0.443090411658916,-0.485851592050925
-0.44156106863245,-0.484821260613904
-0.440040122632382,-0.483776846412504
-0.438527705868755,-0.4827183941768
-0.437023950551613,-0.481645948636865
-0.435528988890996,-0.480559554522775
-0.434042953096948,-0.479459256564604
-0.432565975379512,-0.478345099492427
-0.431098187948729,-0.477217128036317
-0.429639723014643,-0.47607538692635
-0.428190712787297,-0.4749199208926
-0.426751289476731,-0.473750774665141
-0.425321585292991,-0.472567992974048
-0.423901732446117,-0.471371620549395
-0.422491863146152,-0.470161702121257
-0.42109210960314,-0.468938282419708
-0.419702604027122,-0.467701406174823
-0.418323478628141,-0.466451118116676
-0.41695486561624,-0.465187462975342
-0.415596897201461,-0.463910485480895
-0.414249705593848,-0.46262023036341
-0.412913423003442,-0.461316742352961
-0.411588181640285,-0.460000066179623
-0.410274113714421,-0.458670246573469
-0.408971351435893,-0.457327328264576
-0.407680027014742,-0.455971355983017
-0.406400272661012,-0.454602374458866
-0.405132220584745,-0.453220428422198
-0.403876002995983,-0.451825562603088
-0.402631752104769,-0.45041782173161
-0.401399600121146,-0.448997250537838
-0.400179679255156,-0.447563893751848
-0.398972121716842,-0.446117796103713
-0.397777059716246,-0.444659002323508
-0.396594625463411,-0.443187557141307
-0.39542495116838,-0.441703505287185
-0.394268169041195,-0.440206891491217
-0.393124411291898,-0.438697760483477
-0.391993810130533,-0.437176156994039
-0.390876497767142,-0.435642125752977
-0.389772606411767,-0.434095711490368
-0.388682268274451,-0.432536958936284
-0.387605615565236,-0.4309659128208
-0.386542780494166,-0.429382617873992
-0.385493895271282,-0.427787118825932
-0.384459092106628,-0.426179460406697
-0.383438503210246,-0.424559687346359
-0.382432260792178,-0.422927844374994
-0.381440497062467,-0.421283976222677
-0.380463344231155,-0.419628127619481
-0.379500934508286,-0.417960343295482
-0.378553400103901,-0.416280667980753
-0.377620873228044,-0.414589146405369
-0.376703486090757,-0.412885823299405
-0.375801370902083,-0.411170743392935
-0.374914659872063,-0.409443951416034
-0.374043485210741,-0.407705492098775
-0.373187979128159,-0.405955410171235
-0.37234827383436,-0.404193750363486
-0.371524501539386,-0.402420557405604
-0.37071679445328,-0.400635876027663
-0.369925284786085,-0.398839750959737
-0.369150104747843,-0.397032226931902
-0.368391386548596,-0.39521334867423
-0.367649262398388,-0.393383160916798
-0.36692386450726,-0.391541708389679
-0.366215325085256,-0.389689035822949
-0.365523776342418,-0.38782518794668
-0.364849350488789,-0.385950209490949
-0.36419217973441,-0.384064145185829
-0.363552396289325,-0.382167039761394
-0.362930132363577,-0.38025893794772
-0.362325520167207,-0.378339884474881
-0.361738691910259,-0.376409924072951
-0.361169779802774,-0.374469101472005
-0.360618916054797,-0.372517461402117
-0.360086232876368,-0.370555048593362
-0.359571862477531,-0.368581907775814
-0.359075937068329,-0.366598083679548
-0.358598588858803,-0.364603621034638
-0.358139950058997,-0.362598564571159
-0.357700152878953,-0.360582959019185
-0.357279329528713,-0.358556849108791
-0.35687761221832,-0.35652027957005
-0.356495133157818,-0.354473295133039
-0.356132024557247,-0.35241594052783
-0.355788418626652,-0.350348260484499
-0.355464447576074,-0.34827029973312
-0.355160243615556,-0.346182103003768
-0.354875938955141,-0.344083715026516
-0.354611665804871,-0.341975180531441
-0.354367556374789,-0.339856544248615
-0.354143742874937,-0.337727850908113
-0.353940357515358,-0.335589145240011
-0.353757532506094,-0.333440471974382
-0.353595400057189,-0.331281875841301
-0.353454092378684,-0.329113401570842
-0.353333741680623,-0.326935093893081
-0.353234480173047,-0.32474699753809
-0.353156440066,-0.322549157235946
-0.353099753569524,-0.320341617716722
-0.353064552893661,-0.318124423710492
-0.353050970248454,-0.315897619947332
-0.353059137843946,-0.313661251157316
-0.35308918789018,-0.311415362070518
-0.353141252597197,-0.309159997417013
-0.353215464175041,-0.306895201926875
-0.353311954833753,-0.304621020330179
-0.353430856783377,-0.302337497356999
-0.353572302233956,-0.300044677737409
-0.353736423395531,-0.297742606201485
-0.353923352478145,-0.295431327479301
-0.354133221691842,-0.29311088630093
-0.354366163246662,-0.290781327396449
-0.35462230935265,-0.28844269549593
-0.354901792219848,-0.286095035329449
-0.355204744058297,-0.28373839162708
-0.355531297078041,-0.281372809118898
-0.355881583489123,-0.278998332534976
-0.356255735501585,-0.27661500660539
-0.356653885325469,-0.274222876060215
-0.357076165170818,-0.271821985629523
-0.357522707247675,-0.269412380043391
-0.357993643766082,-0.266994104031892
-0.358489106936081,-0.264567202325101
-0.359009228967717,-0.262131719653092
-0.35955414207103,-0.259687700745941
-0.360123978456063,-0.25723519033372
-0.36071887033286,-0.254774233146506
-0.361338949911462,-0.252304873914372
-0.361984349401913,-0.249827157367393
-0.362655201014255,-0.247341128235643
-0.363351636958529,-0.244846831249197
-0.36407378944478,-0.242344311138129
-0.36482179068305,-0.239833612632514
-0.36559577288338,-0.237314780462426
-0.366395868255814,-0.23478785935794
-0.367222209010395,-0.23225289404913
-0.368074927357164,-0.229709929266071
-0.368954155506165,-0.227159009738837
-0.36986002566744,-0.224600180197502
-0.370792670051031,-0.222033485372142
-0.371752220866982,-0.219458969992831
-0.372738810325334,-0.216876678789642
-0.373752570636131,-0.214286656492652
-0.374793634009414,-0.211688947831933
-0.375862132655227,-0.209083597537561
-0.376958198783612,-0.206470650339609
-0.378081964604612,-0.203850150968154
-0.379233562328268,-0.201222144153268
-0.380413124164625,-0.198586674625027
-0.381620782323724,-0.195943787113505
-0.382856669015608,-0.193293526348776
-0.384120916450319,-0.190635937060916
-0.385413656837901,-0.187971063979997
-0.386735022388395,-0.185298951836096
-0.388085145311844,-0.182619645359286
-0.389464157818291,-0.179933189279642
-0.390872192117778,-0.177239628327238
-0.392309380420349,-0.174539007232149
-0.393775854936045,-0.17183137072445
-0.395271747874909,-0.169116763534214
-0.396797191446984,-0.166395230391517
-0.398352317862311,-0.163666816026432
-0.399937259330935,-0.160931565169034
-0.401552148062897,-0.158189522549399
-0.403197116268241,-0.155440732897599
-0.404872296157007,-0.152685240943711
-0.40657781993924,-0.149923091417807
-0.408313819824982,-0.147154329049963
-0.410080428024275,-0.144378998570253
-0.411877776747162,-0.141597144708752
-0.413705998203685,-0.138808812195534
-0.415565224603887,-0.136014045760674
-0.417455588157811,-0.133212890134246
-0.419377221075499,-0.130405390046324
-0.421330255566993,-0.127591590226983
-0.423314823842337,-0.124771535406298
-0.425331058111573,-0.121945270314343
-0.427379090584744,-0.119112839681193
-0.429459053471891,-0.116274288236921
-0.431571078983058,-0.113429660711603
-0.433715299328287,-0.110579001835313
-0.435891846717622,-0.107722356338125
-0.438100853361103,-0.104859768950114
-0.440342451468774,-0.101991284401355
-0.442616773250678,-0.0991169474219213
-0.444923950916857,-0.0962368027418881
-0.447264116677354,-0.0933508950913299
-0.44963740274221,-0.0904592692003209
-0.45204394132147,-0.0875619697989358
-0.454483864625175,-0.0846590416172489
-0.456957304863368,-0.0817505293853349
-0.459464394246091,-0.0788364778332681
-0.462005264983388,-0.0759169316911231
-0.4645800492853,-0.0729919356889742
-0.467188879361871,-0.0700615345568962
-0.469831887423142,-0.0671257730249633
-0.472509205679157,-0.0641846958232501
-0.475220966339958,-0.061238347681831
-0.477967301615587,-0.0582867733307807
-0.480748343716087,-0.0553300175001734
-0.483564224851502,-0.0523681249200838
-0.486415077231872,-0.0494011403205862
-0.489301033067242,-0.0464291084317553
-0.492222224567652,-0.0434520739836654
-0.495178783943147,-0.0404700817063911
-0.498170843403769,-0.0374831763300067
-0.501198535159559,-0.034491402584587
-0.504261991420562,-0.0314948052002061
-0.507361344396818,-0.0284934289069388
-0.510496726298372,-0.0254873184348594
-0.513668269335265,-0.0224765185140426
-0.51687610571754,-0.0194610738745625
-0.52012036765524,-0.016441029246494
-0.523401187358407,-0.0134164293599113
-0.526718697037084,-0.010387318944889
-0.530073028901313,-0.0073537427315015
-0.533464315161137,-0.00431574544982346
-0.536892688026598,-0.00127337182992916
-0.54035827970774,0.00177333339810674
-0.543861222414604,0.00482432550420998
-0.547401648357234,0.0078795597583058
-0.550979689745671,0.01093899143032
-0.554595478789959,0.0140025757901778
-0.55824914770014,0.017070268107805
-0.561940828686256,0.0201420236531269
-0.56567065395835,0.0232177976960692
-0.569438755726465,0.0262975455065573
-0.573245266200644,0.0293812223545168
-0.577090317590928,0.032468783509873
-0.58097404210736,0.0355601842425517
-0.584896571959984,0.0386553798224782
-0.588858039358841,0.0417543255195782
-0.592858576513974,0.0448569766037771
-0.596898315635427,0.0479632883450005
-0.60097738893324,0.0510732160131737
-0.605095928617457,0.0541867148782225
-0.609254066898121,0.0573037402100722
-0.613451935985274,0.0604242472786486
-0.617689668088958,0.0635481913538768
-0.621967395419216,0.0666755277056827
-0.626285250186091,0.0698062116039916
-0.630643364599626,0.0729401983187291
-0.635041870869863,0.0760774431198207
-0.639480901206844,0.0792179012771919
-0.643960587820612,0.0823615280607682
-0.648481062921209,0.0855082787404753
-0.653042458718679,0.0886581085862383
-0.657644907423064,0.0918109728679832
-0.662288541244406,0.0949668268556352
-0.666973492392748,0.09812562581912
-0.671699893078132,0.101287325028363
-0.676467875510602,0.10445187975329
-0.681277571900199,0.107619245263826
-0.686129114456967,0.110789376829896
