0.0227600497522793,-0.208974486324567
0.0266013129042379,-0.212427423817264
0.0303752925628716,-0.215833012919895
0.0340824299569016,-0.219191482644812
0.0377231663150491,-0.222503062004369
0.0412979428660356,-0.225767980010916
0.044807200838582,-0.228986465676808
0.0482513814614098,-0.232158748014396
0.0516309259632401,-0.235285056036034
0.0549462755727942,-0.238365618754074
0.0581978715187934,-0.241400665180867
0.0613861550299588,-0.244390424328768
0.0645115673350118,-0.247335125210128
0.0675745496626736,-0.2502349968373
0.0705755432416654,-0.253090268222637
0.0735149893007084,-0.25590116837849
0.076393329068524,-0.258667926317214
0.0792110037738333,-0.26139077105116
0.0819684546453576,-0.26406993159268
0.0846661229118182,-0.266705636954128
0.0873044498019362,-0.269298116147856
0.0898838765444331,-0.271847598186217
0.0924048443680298,-0.274354312081563
0.0948677945014478,-0.276818486846246
0.0972731681734083,-0.279240351492619
0.0996214066126325,-0.281620135033036
0.101912951047842,-0.283958066479847
0.104148242707757,-0.286254374845407
0.1063277228211,-0.288509289142067
0.108451832616591,-0.29072303838218
0.110521013322953,-0.292895851578098
0.112535706168905,-0.295027957742175
0.11449635238317,-0.297119585886763
0.116403393194469,-0.299170965024213
0.118257269831523,-0.30118232416688
0.120058423523052,-0.303153892327115
0.12180729549778,-0.305085898517271
0.123504326984426,-0.306978571749701
0.125149959211711,-0.308832141036756
0.126744633408358,-0.31064683539079
0.128288790803088,-0.312422883824156
0.12978287262462,-0.314160515349205
0.131227320101678,-0.315859958978291
0.132622574462982,-0.317521443723766
0.133969076937253,-0.319145198597982
0.135267268753213,-0.320731452613292
0.136517591139583,-0.322280434782048
0.137720485325084,-0.323792374116604
0.138876392538437,-0.325267499629312
0.139985754008364,-0.326706040332524
0.141049010963586,-0.328108225238593
0.142066604632823,-0.329474283359871
0.143038976244798,-0.330804443708711
0.143966567028232,-0.332098935297466
0.144849818211845,-0.333357987138488
0.14568917102436,-0.334581828244129
0.146485066694497,-0.335770687626743
0.147237946450977,-0.336924794298682
0.147948251522522,-0.338044377272298
0.148616423137853,-0.339129665559944
0.149242902525692,-0.340180888173972
0.149828130914759,-0.341198274126735
0.150372549533775,-0.342182052430586
0.150876599611463,-0.343132452097878
0.151340722376543,-0.344049702140962
0.151765359057737,-0.344934031572191
0.152150950883765,-0.345785669403918
0.152497939083349,-0.346604844648496
0.152806764885211,-0.347391786318276
0.153077869518071,-0.348146723425613
0.15331169421065,-0.348869884982857
0.153508680191671,-0.349561500002362
0.153669268689854,-0.35022179749648
0.15379390093392,-0.350851006477564
0.153883018152592,-0.351449355957966
0.153937061574589,-0.35201707495004
0.153956472428633,-0.352554392466137
0.153941691943446,-0.35306153751861
0.153893161347748,-0.353538739119811
0.153811321870261,-0.353986226282094
0.153696614739707,-0.35440422801781
0.153549481184806,-0.354792973339313
0.153370362434279,-0.355152691258955
0.153159699716849,-0.355483610789088
0.152917934261235,-0.355785960942065
0.152645507296161,-0.356059970730239
0.152342860050345,-0.356305869165962
0.152010433752511,-0.356523885261586
0.151648669631379,-0.356714248029465
0.15125800891567,-0.356877186481951
0.150838892834106,-0.357012929631396
0.150391762615407,-0.357121706490153
0.149917059488296,-0.357203746070575
0.149415224681493,-0.357259277385013
0.14888669942372,-0.357288529445822
0.148331924943697,-0.357291731265352
0.147751342470147,-0.357269111855957
0.14714539323179,-0.35722090022999
0.146514518457348,-0.357147325399802
0.145859159375541,-0.357048616377747
0.145179757215092,-0.356925002176177
0.14447675320472,-0.356776711807445
0.143750588573149,-0.356603974283902
0.143001704549098,-0.356407018617903
0.142230542361289,-0.356186073821798
0.141437543238444,-0.355941368907942
0.140623148409283,-0.355673132888686
0.139787799102528,-0.355381594776383
0.1389319365469,-0.355066983583385
0.13805600197112,-0.354729528322046
0.13716043660391,-0.354369458004717
0.13624568167399,-0.353987001643751
0.135312178410083,-0.353582388251501
0.134360368040908,-0.35315584684032
0.133390691795189,-0.352707606422559
0.132403590901645,-0.352237896010572
0.131399506588998,-0.351746944616711
0.130378880085969,-0.351234981253329
0.12934215262128,-0.350702234932777
0.128289765423651,-0.35014893466741
0.127222159721804,-0.349575309469578
0.126139776744461,-0.348981588351636
0.125043057720342,-0.348368000325935
0.123932443878169,-0.347734774404828
0.122808376446663,-0.347082139600667
0.121671296654545,-0.346410324925806
0.120521645730536,-0.345719559392596
0.119359864903358,-0.345010072013391
0.118186395401732,-0.344282091800542
0.117001678454379,-0.343535847766403
0.115806155290021,-0.342771568923325
0.114600267137378,-0.341989484283662
0.113384455225172,-0.341189822859766
0.112159160782125,-0.34037281366399
0.110924825036956,-0.339538685708686
0.109681889218389,-0.338687668006206
0.108430794555143,-0.337819989568904
0.10717198227594,-0.336935879409132
0.105905893609502,-0.336035566539242
0.10463296978455,-0.335119279971587
0.103353652029804,-0.33418724871852
0.102068381573986,-0.333239701792393
0.100777599645818,-0.332276868205558
0.0994817474740203,-0.331298976970369
0.0981812662873145,-0.330306257099178
0.0968765973144217,-0.329298937604337
0.0955681817840633,-0.328277247498199
0.0942564609249605,-0.327241415793116
0.0929418759658345,-0.326191671501441
0.0916248681354067,-0.325128243635527
0.090305878662398,-0.324051361207727
0.0889853487755299,-0.322961253230391
0.0876637197035237,-0.321858148715875
0.0863414326751006,-0.320742276676529
0.0850189289189816,-0.319613866124707
0.0836966496638882,-0.31847314607276
0.0823750361385417,-0.317320345533042
0.0810545295716632,-0.316155693517906
0.0797355711919739,-0.314979419039703
0.0784186022281951,-0.313791751110786
0.0771040639090482,-0.312592918743508
0.0757923974632542,-0.311383150950222
0.0744840441195345,-0.310162676743279
0.0731794451066102,-0.308931725135033
0.0718790416532028,-0.307690525137836
0.0705832749880333,-0.30643930576404
0.069292586339823,-0.305178296025999
0.0680074169372932,-0.303907724936065
0.0667282080091652,-0.30262782150659
0.0654554007841601,-0.301338814749926
0.0641894364909992,-0.300040933678428
0.0629307563584037,-0.298734407304446
0.061679801615095,-0.297419464640334
0.0604370134897943,-0.296096334698444
0.0592028332112227,-0.294765246491128
0.0579777020081015,-0.29342642903074
0.056762061109152,-0.292080111329632
0.0555563517430955,-0.290726522400156
0.0543610151386531,-0.289365891254665
0.0531764925245461,-0.287998446905512
0.0520032251294958,-0.286624418365048
0.0508416541822235,-0.285244034645628
0.0496922209114502,-0.283857524759602
0.0485553665458973,-0.282465117719325
0.0474315323142861,-0.281067042537147
0.0463211594453378,-0.279663528225423
0.0452246891677736,-0.278254803796504
0.0441425627103147,-0.276841098262743
0.0430752213016825,-0.275422640636493
0.0420231061705982,-0.273999659930106
0.0409866585457829,-0.272572385155934
0.039966319655958,-0.271141045326331
0.0389625307298448,-0.269705869453648
0.0379757329961643,-0.268267086550239
0.0370063676836379,-0.266824925628456
0.0360548760209869,-0.265379615700652
0.0351216992369325,-0.263931385779179
0.0342072785601959,-0.262480464876389
0.0333120552194983,-0.261027082004635
0.032436470443561,-0.259571466176271
0.0315809654611053,-0.258113846403647
0.0307459815008524,-0.256654451699118
0.0299319597915235,-0.255193511075035
0.0291393415618399,-0.253731253543751
0.0283685680405229,-0.252267908117619
0.0276200804562937,-0.25080370380899
0.0268943200378735,-0.249338869630219
0.0261917280139835,-0.247873634593657
0.0255127456133451,-0.246408227711657
0.0248578140646794,-0.244942877996571
0.0242273745967077,-0.243477814460752
0.0236218684381513,-0.242013266116552
0.0230417368177313,-0.240549461976325
0.0224874209641691,-0.239086631052423
0.0219593621061859,-0.237625002357197
0.0214580014725029,-0.236164804903002
0.0209837802918414,-0.234706267702188
0.0205371397929226,-0.23324961976711
0.0201185212044678,-0.231795090110119
0.0197283657551981,-0.230342907743569
0.019367114673835,-0.228893301679811
0.0190352091890995,-0.227446500931198
0.0187330905297129,-0.226002734510082
0.0184611999243966,-0.224562231428817
0.0182199786018717,-0.223125220699755
0.0180098677908594,-0.221691931335249
0.0178313087200811,-0.22026259234765
0.0176847426182579,-0.218837432749312
0.0175706107141112,-0.217416681552587
0.0174893542363621,-0.216000567769828
0.0174414144137319,-0.214589320413387
0.0174272324749418,-0.213183168495617
0.0174472496487132,-0.21178234102887
0.0175019071637672,-0.210387067025499
0.017591646248825,-0.208997575497857
0.017716908132608,-0.207614095458295
0.0178781340438373,-0.206236855919168
0.0180757652112343,-0.204866085892826
0.0183102428635201,-0.203502014391623
0.018582008229416,-0.202144870427912
0.0188915025376433,-0.200794883014044
0.0192391670169232,-0.199452281162373
0.0196254428959768,-0.198117293885251
0.0200507714035257,-0.19679015019503
0.0205155937682907,-0.195471079104064
0.0210203512189935,-0.194160309624704
0.0215654849843549,-0.192858070769304
0.0221514362930964,-0.191564591550215
0.0227786463739393,-0.190280100979791
0.0234475564556047,-0.189004828070383
0.0241586077668139,-0.187739001834346
0.0249122415362882,-0.18648285128403
0.0257088989927488,-0.185236605431789
0.0265490213649168,-0.184000493289975
0.0274330498815137,-0.182774743870941
0.0283614257712605,-0.181559586187039
0.0293345902628787,-0.180355249250622
0.0303529845850893,-0.179161962074042
0.0314170499666137,-0.177979953669653
0.0325272276361731,-0.176809453049806
0.0336839588224887,-0.175650689226854
0.0348876847542818,-0.17450389121315
0.0361388466602737,-0.173369288021046
0.0374378857691856,-0.172247108662895
0.0387852433097386,-0.17113758215105
0.0401813605106541,-0.170040937497862
0.0416266786006533,-0.168957403715685
0.0431216388084576,-0.167887209816871
0.0446666823627879,-0.166830584813773
0.0462622504923659,-0.165787757718743
0.0479087844259123,-0.164758957544133
0.0496067253921489,-0.163744413302297
0.0513565146197965,-0.162744354005587
0.0531585933375766,-0.161759008666356
0.0550134027742103,-0.160788606296955
0.056921384158419,-0.159833375909738
0.0588829787189238,-0.158893546517057
0.060898627684446,-0.157969347131265
0.0629687722837069,-0.157061006764714
0.0650938537454277,-0.156168754429757
0.0672743132983297,-0.155292819138747
0.069510592171134,-0.154433429904035
0.0718031315925619,-0.153590815737975
0.0741523727913347,-0.152765205652919
0.0765587569961737,-0.15195682866122
0.0790227254358,-0.151165913775229
0.0815447193389349,-0.150392690007301
0.0841251799342996,-0.149637386369787
0.0867645484506155,-0.14890023187504
0.0894632661166037,-0.148181455535412
0.0922217741609854,-0.147481286363257
0.0950405138124821,-0.146799953370926
0.0979199262998148,-0.146137685570772
0.100860452851705,-0.145494711975148
0.103862534696873,-0.144871261596406
0.106926613064042,-0.144267563446899
0.110053129181931,-0.14368384653898
0.113242524279263,-0.143120339885
0.116495239584758,-0.142577272497313
0.119811716327139,-0.142054873388272
0.123192395735125,-0.141553371570227
0.126637719037438,-0.141072996055534
0.1301481274628,-0.140613975856542
0.133724062239932,-0.140176539985607
0.137365964597554,-0.139760917455079
0.141074275764389,-0.139367337277311
0.144849436969158,-0.138996028464657
0.148691889440581,-0.138647220029468
0.15260207440738,-0.138321140984098
0.156580433098277,-0.138018020340898
0.160627406741992,-0.137738087112222
0.164743436567246,-0.137481570310421
0.168928963802762,-0.137248698947849
0.17318442967726,-0.137039702036858
0.177510275419461,-0.1368548085898
0.181906942258087,-0.136694247619029
0.186374871421859,-0.136558248136896
0.190914504139499,-0.136447039155754
0.195526281639726,-0.136360849687956
0.200210645151264,-0.136299908745855
0.204968035902832,-0.136264445341803
0.209798895123152,-0.136254688488152
0.214703664040946,-0.136270867197255
0.219682783884935,-0.136313210481465
0.224736695883839,-0.136381947353134
0.229865841266381,-0.136477306824614
0.235070661261281,-0.136599517908259
0.24035159709726,-0.136748809616421
0.245709090003041,-0.136925410961452
0.251143581207344,-0.137129550955706
0.25665551193889,-0.137361458611534
0.2622453234264,-0.137621362941289
0.267913456898597,-0.137909492957324
0.273660353584201,-0.138226077671991
0.279486454711932,-0.138571346097642
0.285392201510514,-0.138945527246632
0.291378035208667,-0.139348850131311
0.297444397035111,-0.139781543764032
0.303591728218569,-0.140243837157149
0.309820469987762,-0.140735959323014
0.31613106357141,-0.141258139273978
0.322523950198235,-0.141810606022396
0.328999571096959,-0.142393588580618
0.335558367496302,-0.143007315960999
0.342200780624986,-0.14365201717589
0.348927251711733,-0.144327921237644
0.355738221985262,-0.145035257158614
0.362634132674296,-0.145774253951151
0.369615425007556,-0.14654514062761
0.376682540213763,-0.147348146200342
0.383835919521638,-0.148183499681699
0.391076004159902,-0.149051430084035
0.398403235357277,-0.149952166419702
0.405818054342485,-0.150885937701053
0.413320902344245,-0.151852972940439
0.420912220591281,-0.152853501150215
0.428592450312311,-0.153887751342731
0.43636203273606,-0.154955952530341
0.444221409091245,-0.156058333725398
0.452171020606591,-0.157195123940253
0.460211308510817,-0.15836655218726
0.468342714032646,-0.159572847478771
0.476565678400797,-0.160814238827139
0.484880642843993,-0.162090955244715
0.493288048590955,-0.163403225743854
0.501788336870403,-0.164751279336907
0.51038194891106,-0.166135345036226
0.519069325941646,-0.167555651854165
0.527850909190883,-0.169012428803076
0.536727139887492,-0.170505904895312
0.545698459260194,-0.172036309143224
0.55476530853771,-0.173603870559166
0.563928128948762,-0.175208818155491
0.573187361722072,-0.17685138094455
0.582543448086358,-0.178531787938697
0.591996829270345,-0.180250268150283
0.601547946502752,-0.182007050591662
0.611197241012301,-0.183802364275186
0.620945154027713,-0.185636438213208
0.63079212677771,-0.18750950141808
0.640738600491012,-0.189421782902155
0.650785016396342,-0.191373511677784
0.660931815722419,-0.193364916757322
0.671179439697965,-0.19539622715312
0.681528329551702,-0.197467671877531
0.691978926512351,-0.199579479942908
0.702531671808633,-0.201731880361603
0.71318700666927,-0.203925102145968
0.723945372322982,-0.206159374308357
0.73480720999849,-0.208434925861122
0.745772960924517,-0.210751985816614
0.756843066329784,-0.213110783187188
0.76801796744301,-0.215511546985196
0.779298105492919,-0.217954506222989
0.79068392170823,-0.220439889912921
0.802175857317666,-0.222967927067344
0.813774353549947,-0.225538846698611
0.825479851633796,-0.228152877819074
0.837292792797932,-0.230810249441086
0.849213618271078,-0.233511190577
