-0.922762485943031,-0.0337981313256441
-0.912773548594164,-0.0266167547613281
-0.902873203694045,-0.0195333516983626
-0.893061099489391,-0.0125474151316424
-0.883336884226918,-0.0056584380560624
-0.873700206153342,0.00113408653348241
-0.864150713515378,0.00783066564209715
-0.854688054559744,0.0144318062748869
-0.845311877533154,0.0209380154369569
-0.836021830682326,0.0273498001334121
-0.826817562253974,0.0336676673693576
-0.817698720494816,0.0398921241498986
-0.808664953651567,0.0460236774801401
-0.799715909970943,0.0520628343651872
-0.79085123769966,0.0580101018101451
-0.782070585084435,0.0638659868201189
-0.773373600371983,0.0696309964002136
-0.764759931809021,0.0753056375555343
-0.756229227642264,0.0808904172911861
-0.747781136118429,0.0863858426122742
-0.739415305484231,0.0917924205239037
-0.731131383986387,0.0971106580311796
-0.722929019871613,0.102341062139207
-0.714807861386624,0.107484139853091
-0.706767556778137,0.112540398177937
-0.698807754292869,0.117510344118849
-0.690928102177534,0.122394484680934
-0.683128248678849,0.127193326869296
-0.67540784204353,0.131907377689039
-0.667766530518293,0.13653714414527
-0.660203962349855,0.141083133243094
-0.65271978578493,0.145545851987614
-0.645313649070236,0.149925807383937
-0.637985200452488,0.154223506437168
-0.630734088178402,0.158439456152412
-0.623559960494695,0.162574163534773
-0.616462465648083,0.166628135589358
-0.609441251885281,0.17060187932127
-0.602495967453005,0.174495901735616
-0.595626260597972,0.178310709837499
-0.588831779566898,0.182046810632027
-0.582112172606499,0.185704711124302
-0.57546708796349,0.189284918319431
-0.568896173884588,0.192787939222519
-0.562399078616509,0.19621428083867
-0.555975450405969,0.19956445017299
-0.549624937499684,0.202838954230584
-0.54334718814437,0.206038300016558
-0.537141850586743,0.209162994536015
-0.53100857307352,0.212213544794061
-0.524947003851415,0.215190457795802
-0.518956791167146,0.218094240546342
-0.513037583267428,0.220925400050787
-0.507189028398978,0.223684443314242
-0.501410774808511,0.226371877341811
-0.495702470742743,0.228988209138599
-0.490063764448391,0.231533945709713
-0.484494304172171,0.234009594060257
-0.478993738160798,0.236415661195336
-0.473561714660988,0.238752654120055
-0.468197881919459,0.24102107983952
-0.462901888182925,0.243221445358835
-0.457673381698104,0.245354257683105
-0.45251201071171,0.247420023817436
-0.44741742347046,0.249419250766933
-0.44238926822107,0.2513524455367
-0.437427193210256,0.253220115131844
-0.432530846684735,0.255022766557468
-0.427699876891221,0.256760906818679
-0.422933932076432,0.258435042920581
-0.418232660487083,0.260045681868279
-0.41359571036989,0.261593330666878
-0.40902272997157,0.263078496321484
-0.404513367538838,0.264501685837202
-0.400067271318411,0.265863406219136
-0.395684089557004,0.267164164472392
-0.391363470501334,0.268404467602075
-0.387105062398116,0.269584822613291
-0.382908513494067,0.270705736511143
-0.378773472035903,0.271767716300737
-0.37469958627034,0.272771268987179
-0.370686504444094,0.273716901575573
-0.36673387480388,0.274605121071024
-0.362841345596415,0.275436434478638
-0.359008565068416,0.27621134880352
-0.355235181466597,0.276930371050775
-0.351520843037676,0.277594008225508
-0.347865198028368,0.278202767332823
-0.344267894685389,0.278757155377827
-0.340728581255456,0.279257679365624
-0.337246905985283,0.279704846301319
-0.333822517121588,0.280099163190017
-0.330455062911087,0.280441137036824
-0.327144191600495,0.280731274846845
-0.323889551436529,0.280970083625184
-0.320690790665904,0.281158070376947
-0.317547557535337,0.28129574210724
-0.314459500291544,0.281383605821166
-0.31142626718124,0.281422168523831
-0.308447506451142,0.28141193722034
-0.305522866347967,0.281353418915799
-0.302651995118429,0.281247120615312
-0.299834541009245,0.281093549323984
-0.297070152267131,0.280893212046921
-0.294358477138803,0.280646615789228
-0.291699163870977,0.280354267556009
-0.28909186071037,0.280016674352371
-0.286536215903697,0.279634343183417
-0.284031877697674,0.279207781054254
-0.281578494339017,0.278737494969985
-0.279175714074443,0.278223991935717
-0.276823185150667,0.277667778956555
-0.274520555814406,0.277069363037603
-0.272267474312376,0.276429251183966
-0.270063588891292,0.27574795040075
-0.26790854779787,0.27502596769306
-0.265801999278828,0.274263810066001
-0.26374359158088,0.273461984524678
-0.261732972950743,0.272620998074195
-0.259769791635133,0.271741357719659
-0.257853695880766,0.270823570466175
-0.255984333934358,0.269868143318846
-0.254161354042625,0.26887558328278
-0.252384404452283,0.267846397363079
-0.250653133410048,0.266781092564851
-0.248967189162636,0.265680175893199
-0.247326219956764,0.264544154353229
-0.245729874039147,0.263373534950046
-0.244177799656501,0.262168824688755
-0.242669645055543,0.260930530574461
-0.241205058482988,0.25965915961227
-0.239783688185553,0.258355218807286
-0.238405182409953,0.257019215164614
-0.237069189402905,0.25565165568936
-0.235775357411125,0.254253047386629
-0.234523334681328,0.252823897261525
-0.233312769460231,0.251364712319155
-0.232143309994551,0.249875999564622
-0.231014604531002,0.248358266003032
-0.2299263013163,0.246812018639491
-0.228878048597163,0.245237764479102
-0.227869494620306,0.243636010526973
-0.226900287632446,0.242007263788206
-0.225970075880297,0.240352031267908
-0.225078507610576,0.238670819971184
-0.22422523107,0.236964136903139
-0.223409894505284,0.235232489068877
-0.222632146163145,0.233476383473505
-0.221891634290298,0.231696327122126
-0.221188007133459,0.229892827019847
-0.220520912939345,0.228066390171772
-0.219889999954671,0.226217523583006
-0.219294916426155,0.224346734258655
-0.21873531060051,0.222454529203823
-0.218210830724455,0.220541415423616
-0.217721125044705,0.218607899923139
-0.217265841807975,0.216654489707496
-0.216844629260982,0.214681691781794
-0.216457135650442,0.212690013151136
-0.216103009223071,0.210679960820629
-0.215781898225586,0.208652041795377
-0.215493450904701,0.206606763080486
-0.215237315507134,0.204544631681059
-0.2150131402796,0.202466154602204
-0.214820573468815,0.200371838849024
-0.214659263321495,0.198262191426625
-0.214528858084357,0.196137719340111
-0.214429006004116,0.193998929594589
-0.214359355327489,0.191846329195162
-0.214319554301191,0.189680425146937
-0.214309251171939,0.187501724455018
-0.214328094186449,0.185310734124511
-0.214375731591436,0.183107961160519
-0.214451811633618,0.18089391256815
-0.214555982559708,0.178669095352507
-0.214687892616425,0.176434016518696
-0.214847190050484,0.174189183071821
-0.215033523108601,0.171935102016989
-0.215246540037491,0.169672280359303
-0.215485889083872,0.16740122510387
-0.215751218494459,0.165122443255794
-0.216042176515968,0.162836441820181
-0.216358411395116,0.160543727802134
-0.216699571378617,0.158244808206761
-0.217065304713189,0.155940190039165
-0.217455259645548,0.153630380304451
-0.217869084422409,0.151315886007726
-0.218306427290488,0.148997214154093
-0.218766936496502,0.146674871748659
-0.219250260287167,0.144349365796528
-0.219756046909198,0.142021203302805
-0.220283944609312,0.139690891272595
-0.220833601634225,0.137358936711004
-0.221404666230653,0.135025846623136
-0.221996786645311,0.132692128014097
-0.222609611124916,0.130358287888991
-0.223242787916185,0.128024833252925
-0.223895965265832,0.125692271111002
-0.224568791420575,0.123361108468328
-0.225260914627129,0.121031852330009
-0.22597198313221,0.118705009701149
-0.226701645182534,0.116381087586853
-0.227449549024817,0.114060592992226
-0.228215342905776,0.111744032922374
-0.228998675072126,0.109431914382402
-0.229799193770584,0.107124744377414
-0.230616547247866,0.104823029912517
-0.231450383750686,0.102527277992814
-0.232300351525763,0.100237995623411
-0.233166098819811,0.0979556898094135
-0.234047273879547,0.0956808675559261
-0.234943524951687,0.0934140358680539
-0.235854500282946,0.0911557017509023
-0.236779848120042,0.0889063722095761
-0.237719216709689,0.0866665542491806
-0.238672254298605,0.0844367548748208
-0.239638609133504,0.0822174810916018
-0.240617929461104,0.0800092399046287
-0.241609863528119,0.0778125383190068
-0.242614059581267,0.0756278833398408
-0.243630165867263,0.0734557819722361
-0.244657830632824,0.0712967412212977
-0.245696702124665,0.0691512680921308
-0.246746428589502,0.0670198695898403
-0.247806658274052,0.0649030527195315
-0.248877039425031,0.0628013244863094
-0.249957220289154,0.0607151918952791
-0.251046849113137,0.0586451619515457
-0.252145574143698,0.0565917416602144
-0.253253043627551,0.0545554380263902
-0.254368905811412,0.0525367580551782
-0.255492808941999,0.0505362087516834
-0.256624401266027,0.0485542971210112
-0.257763331030211,0.0465915301682663
-0.258909246481269,0.0446484148985542
-0.260061795865916,0.0427254583169797
-0.261220627430867,0.0408231674286481
-0.262385389422841,0.0389420492386644
-0.263555730088551,0.0370826107521337
-0.264731297674714,0.035245358974161
-0.265911740428047,0.0334308009098517
-0.267096706595265,0.0316394435643106
-0.268285844423085,0.0298717939426429
-0.269478802158222,0.0281283590499537
-0.270675228047393,0.0264096458913482
-0.271874770337313,0.0247161614719313
-0.273077077274699,0.0230484127968082
-0.274281797106267,0.0214069068710841
-0.275488578078732,0.019792150699864
-0.276697068438812,0.0182046512882529
-0.277906916433221,0.0166449156413561
-0.279117770308676,0.0151134507642785
-0.280329278311893,0.0136107636621254
-0.281541088689588,0.0121373613400017
-0.282752849688477,0.0106937508030128
-0.283964209555276,0.00928043905626339
-0.285174816536702,0.0078979331048589
-0.286384318879469,0.00654673995390425
-0.287592364830295,0.00522736660850464
-0.288798602635896,0.00394032007376507
-0.290002680542986,0.00268610735479075
-0.291204246798284,0.0014652354566867
-0.292402949648503,0.000278211384558087
-0.293598437340362,-0.000874457856490089
-0.294790358120574,-0.00199226526135262
-0.295978360235858,-0.00307470382492448
-0.297162091932928,-0.00412126654210055
-0.298341201458501,-0.0051314464077757
-0.299515337059293,-0.00610473641684488
-0.30068414698202,-0.00704062956420297
-0.301847279473398,-0.00793861884474484
-0.303004382780142,-0.00879819725336545
-0.30415510514897,-0.00961885778495968
-0.305299094826597,-0.0104000934344224
-0.306436000059739,-0.0111413971966485
-0.307565469095112,-0.011842262066533
-0.308687150179433,-0.0125021810389706
-0.309800691559416,-0.0131206471088564
-0.310905741481779,-0.0136971532710852
-0.312001948193238,-0.0142311925205519
-0.313088959940508,-0.0147222578521514
-0.314166424970305,-0.0151698422607786
-0.315233991529346,-0.0155734387413284
-0.316291307864347,-0.0159325402886958
-0.317338022222023,-0.0162466398977755
-0.318373782849092,-0.0165152305634626
-0.319398237992267,-0.0167378052806519
-0.320411035898267,-0.0169138570442384
-0.321411824813807,-0.0170428788491168
-0.322400252985602,-0.0171243636901821
-0.32337596866037,-0.0171578045623293
-0.324338620084826,-0.0171426944604532
-0.325287855505685,-0.0170785263794488
-0.326223323169665,-0.0169647933142108
-0.327144671323481,-0.0168009882596343
-0.32805154821385,-0.016586604210614
-0.328943602087486,-0.016321134162045
-0.329820481191108,-0.0160040711088222
-0.330681833771429,-0.0156349080458404
-0.331527308075167,-0.0152131379679944
-0.332356552349038,-0.0147382538701793
-0.333169214839757,-0.01420974874729
-0.33396494379404,-0.0136271155942213
-0.334743387458605,-0.012989847405868
-0.335504194080166,-0.0122974371771253
-0.33624701190544,-0.0115493779028878
-0.336971489181143,-0.0107451625780506
-0.337677274153991,-0.00988428419750848
-0.338364015070699,-0.00896623575615643
-0.339031360177985,-0.0079905102488893
-0.339678957722564,-0.00695660067060198
-0.340306455951152,-0.00586400001618942
-0.340913503110465,-0.00471220128054646
-0.341499747447219,-0.00350069745856806
-0.34206483720813,-0.00222898154514911
-0.342608420639915,-0.000896546535184461
-0.34313014598929,0.000497114576430906
-0.343629661502969,0.0019525087948022
-0.344106615427671,0.0034701431250344
-0.344560656010109,0.00505052457223271
-0.344991431497002,0.00669416014150213
-0.345398590135064,0.00840155683794789
-0.345781780171012,0.0101732216666749
-0.346140649851561,0.0120096616327885
-0.346474847423428,0.0139113837413935
-0.346784021133329,0.0158788949975954
-0.34706781922798,0.0179127024064988
-0.347325889954098,0.0200133129732092
-0.347557881558397,0.0221812337028315
-0.347763442287594,0.0244169716004709
-0.347942220388405,0.0267210336712324
-0.348093864107547,0.0290939269202213
-0.348218021691734,0.0315361583525424
-0.348314341387684,0.034048234973301
-0.348382471442113,0.0366306637876022
-0.348422060101735,0.039283951800551
-0.348432755613268,0.0420086060172526
-0.348414206223428,0.044805133442812
-0.34836606017893,0.0476740410823344
-0.348287965726491,0.0506158359409249
-0.348179571112827,0.0536310250236884
-0.348040524584653,0.0567201153357303
-0.347870474388686,0.0598836138821554
-0.347669068771642,0.0631220276680691
-0.347435955980237,0.0664358636985762
-0.347170784261186,0.0698256289787821
-0.346873201861207,0.0732918305137916
-0.346542857027014,0.0768349753087101
-0.346179398005325,0.0804555703686423
-0.345782473042855,0.0841541226986938
-0.34535173038632,0.0879311393039693
-0.344886818282437,0.0917871271895742
-0.34438738497792,0.0957225933606132
-0.343853078719487,0.0997380448221919
-0.343283547753854,0.103833988579415
-0.342678440327735,0.108010931637388
-0.342037404687849,0.112269381001215
-0.34136008908091,0.116609843676003
-0.340646141753634,0.121032826666855
-0.339895210952739,0.125538836978877
-0.339106944924939,0.130128381617175
-0.33828099191695,0.134801967586852
-0.33741700017549,0.139560101893015
-0.336514617947273,0.144403291540769
-0.335573493479017,0.149332043535218
-0.334593275017436,0.154346864881468
-0.333573610809248,0.159448262584623
-0.332514149101167,0.164636743649789
-0.331414538139911,0.169912815082071
-0.330274426172195,0.175276983886575
-0.329093461444735,0.180729757068404
-0.327871292204248,0.186271641632665
-0.326607566697449,0.191903144584461
-0.325301933171054,0.1976247729289
-0.32395403987178,0.203437033671084
-0.322563535046342,0.209340433816121
-0.321130066941457,0.215335480369114
-0.319653283803841,0.221422680335169
-0.318132833880209,0.227602540719391
-0.316568365417278,0.233875568526885
-0.314959526661764,0.240242270762756
-0.313305965860382,0.24670315443211
-0.31160733125985,0.25325872654005
-0.309863271106882,0.259909494091684
-0.308073433648196,0.266655964092114
-0.306237467130506,0.273498643546447
-0.30435501980053,0.280438039459788
-0.302425739904983,0.287474658837242
-0.300449275690581,0.294609008683914
-0.29842527540404,0.301841596004909
-0.296353387292077,0.309172927805331
-0.294233259601407,0.316603511090288
-0.292064540578746,0.324133852864882
-0.289846878470811,0.33176446013422
-0.287579921524318,0.339495839903406
-0.285263317985982,0.347328499177546
-0.28289671610252,0.355262944961745
-0.280479764120647,0.363299684261107
-0.27801211028708,0.371439224080739
-0.275493402848535,0.379682071425744
