-0.912110172147785,-0.797441081993294
-0.908109422598205,-0.789582215703619
-0.904112619232293,-0.781783163807017
-0.900119857346822,-0.774043728827204
-0.896131232238561,-0.766363713287898
-0.892146839204281,-0.758742919712812
-0.888166773540753,-0.751181150625665
-0.884191130544747,-0.74367820855017
-0.880220005513034,-0.736233896010044
-0.991843724995857,-0.822162472262246
-0.87229169052957,-0.721520369630763
-0.86833469117136,-0.714250760839039
-0.864382590964526,-0.707038991677548
-0.860435485205838,-0.699884864670006
-0.856493469192066,-0.692788182340127
-0.852556638219982,-0.685748747211629
-0.737414097056328,-0.584914463135444
-0.84469891258796,-0.671840828653636
-0.840778208521562,-0.664971950271573
-0.836863070683935,-0.658159529185753
-0.832953594371848,-0.651403367919893
-0.829049874882073,-0.644703268997709
-0.82515200751138,-0.638059034942915
-0.821260087556539,-0.631470468279228
-0.817374210314321,-0.624937371530365
-0.717498618075389,-0.514325324615122
-0.905177439231946,-0.712677755016234
-0.707609437165254,-0.509811115892613
-0.801893034407098,-0.599355734157456
-0.9174031581188,-0.687291523394631
-0.794191180445262,-0.586892600576551
-0.790350270500986,-0.580742263895492
-0.786516165643498,-0.574645817318982
-0.78268896116957,-0.568603063370738
-0.886197031973352,-0.656878415388004
-0.775055634559472,-0.55667784345391
-0.771249703016844,-0.550794982532759
-0.767451053044858,-0.544965024334736
-0.763659779940284,-0.539187771383558
-0.759875978999894,-0.533463026202941
-0.756099745520457,-0.527790591316601
-0.752331174798744,-0.522170269248254
-0.748570362131526,-0.516601862521615
-0.744817402815573,-0.5110851736604
-0.741072392147657,-0.505620005188325
-0.737335425424548,-0.500206159629107
-0.733606597943015,-0.49484343950646
-0.729886004999831,-0.489531647344101
-0.726173741891766,-0.484270585665745
-0.722469903915591,-0.47906005699511
-0.718774586368075,-0.473899863855909
-0.715087884545989,-0.46878980877186
-0.711409893746106,-0.463729694266678
-0.707740709265194,-0.458719322864079
-0.801164274344922,-0.564678626792792
-0.700429140447369,-0.448847019461492
-0.696786946703997,-0.443984692508938
-0.693153940466679,-0.439171318753829
-0.689530217032187,-0.434406700719882
-0.68591587169729,-0.429690640930814
-0.68231099975876,-0.42502294191034
-0.678715696513367,-0.420403406182176
-0.675130057257882,-0.415831836270037
-0.671554177289075,-0.41130803469764
-0.667988151903717,-0.4068318039887
-0.760010416660513,-0.507409265340365
-0.773794885818566,-0.510090484660818
-0.657350156216044,-0.393686562279785
-0.653824502132189,-0.389398640261834
-0.650309179115637,-0.38515730172592
-0.646804282463157,-0.380962349195759
-0.64330990747152,-0.376813585195066
-0.639826149437498,-0.372710812247557
-0.63635310365786,-0.368653832876949
-0.632890865429378,-0.364642449606957
-0.629439530048822,-0.360676464961297
-0.625999192812964,-0.356755681463684
-0.622569949018572,-0.352879901637836
-0.615745122941273,-0.345262563096293
-0.612349731251908,-0.341520609428031
-0.608965814191093,-0.337822869526396
-0.605593467055597,-0.334169145915104
-0.602232785142194,-0.330559241117871
-0.598883863747652,-0.326992957658413
-0.595546798168743,-0.323470098060445
-0.692992362894312,-0.422590909803154
-0.588908615644905,-0.316553860543845
-0.585607689293517,-0.313160087672645
-0.582318999944845,-0.309808948757799
-0.579042642895658,-0.306500246323022
-0.575778713442728,-0.303233782892032
-0.671569669196911,-0.399332350192781
-0.569288518512719,-0.296826783136272
-0.562849177528983,-0.290586369680245
-0.559648815508895,-0.287528139123922
-0.556461452865687,-0.28451096271368
-0.553287184896129,-0.281534642973234
-0.550126106896994,-0.278598982426301
-0.54697831416505,-0.275703783596597
-0.54384390199707,-0.272848849007838
-0.659104584449728,-0.364392516531277
-0.537615600540079,-0.267258982648016
-0.534521901844611,-0.264523655924385
-0.531441964900188,-0.261827803536562
-0.428702887360441,-0.150343560462852
-0.629906208364172,-0.349092919457918
-0.522285677540899,-0.253975117625099
-0.519261740568364,-0.251435187817667
-0.516252041830728,-0.248933744964622
-0.513256676624762,-0.24647059158968
-0.627295681766237,-0.352550755502307
-0.507309327994919,-0.241658363368969
-0.504357535164584,-0.239308893570631
-0.501420457053001,-0.23699692334526
-0.49849818895694,-0.234722255216572
-0.495590826173173,-0.232484691708282
-0.49269846399847,-0.230284035344106
-0.4898211977296,-0.22812008864776
-0.486959122663336,-0.225992654142961
-0.484112334096448,-0.223901534353423
-0.380120666430602,-0.120608664331948
-0.478464997647881,-0.219827449014995
-0.475664640359744,-0.217844088513538
-0.472879950758065,-0.215896252822206
-0.470111024139615,-0.213983744464715
-0.467357955801165,-0.212106365964781
-0.359847690874915,-0.0904729091146547
-0.461899775151346,-0.208456208632447
-0.459194853433518,-0.206683034847479
-0.456506171182772,-0.204944201014932
-0.45383382369588,-0.203239509658521
-0.45117790626961,-0.201568763301962
-0.448538514200735,-0.199931764468971
-0.440720443106181,-0.195221278348565
-0.438148105434588,-0.193717294847005
-0.435592769604243,-0.192246071487592
-0.430533484654378,-0.189401115290072
-0.420623129907523,-0.184095635644299
-0.415773584858864,-0.1816319525755
-0.413375553954424,-0.180446684062627
-0.307766143302645,-0.0687588927693415
-0.304947223472789,-0.0865874209321572
-0.403963931393908,-0.176011489041357
-0.401656627501943,-0.174978172662173
-0.399367754902785,-0.173974654280875
-0.397097408893204,-0.173000736421178
-0.499635053353428,-0.281677392994294
-0.390398483369636,-0.170254611208852
-0.287840265213474,-0.0562925401585357
-0.38602691307594,-0.168568243276766
-0.383869727836009,-0.167767781544709
-0.38173173626305,-0.166995538000265
-0.379613033653833,-0.166251315167149
-0.375433876513712,-0.164846141729764
-0.373373612576348,-0.164184796172928
-0.371333018789809,-0.163550681422283
-0.369312190450867,-0.162943600001545
-0.367311222856291,-0.162363354434431
-0.470407374258064,-0.267528519382762
-0.363369251087321,-0.161282580955936
-0.361428437506469,-0.160781658091987
-0.260114326422311,-0.0474995663687361
-0.35572782953969,-0.159434375285924
-0.353868555465258,-0.159036451358218
-0.352029904509359,-0.158663783473861
-0.238403887807575,-0.0664263858390234
-0.346638643320556,-0.157695341318052
-0.343149331894809,-0.157172373032388
-0.341436420882283,-0.156947094406166
-0.44867223303451,-0.250951689797962
-0.239564294087645,-0.0377278345575742
-0.33479863175915,-0.156282742232051
-0.333193124693963,-0.156174857389795
-0.331609384308554,-0.156089858875479
-0.330047505899696,-0.15602754921282
-0.328507584764159,-0.155987730925532
-0.326989716198713,-0.155970206537334
-0.32549399550013,-0.155974778571939
-0.324020517965179,-0.156001249553064
-0.322569378890631,-0.156049422004425
-0.321140673573257,-0.156119098449738
-0.319734497309828,-0.156210081412719
-0.318350945397115,-0.156322173417082
-0.316990113131887,-0.156455176986545
-0.315652095810916,-0.156608894644824
-0.314336988730972,-0.156783128915633
-0.198785741283815,-0.0581119408211814
-0.311775886481248,-0.157192357389708
-0.31053008190501,-0.157426956640405
-0.309307568756881,-0.157681282598497
-0.306932797932036,-0.158248324731728
-0.303547709824858,-0.159241901329929
-0.302466946477572,-0.159610440530421
-0.30141014163579,-0.159997324104319
-0.300377390596283,-0.160402354575338
-0.299368788655822,-0.160825334467194
-0.298384431111177,-0.161266066303603
-0.297424413259119,-0.161724352608282
-0.296488830396418,-0.162199995904945
-0.294691350826172,-0.163202563569089
-0.293829644712168,-0.163729092984002
-0.407819232019322,-0.278080332405641
-0.29218077631025,-0.164831655598089
-0.291393804615878,-0.165407293844695
-0.290631934988259,-0.165998906749296
-0.289895262724161,-0.166606296835609
-0.289183883120357,-0.16722926662735
-0.288497891473617,-0.167867618648235
-0.287202453238412,-0.169189679472297
-0.286593197243488,-0.169872993322907
-0.398321802948181,-0.281855103587428
-0.284920425310677,-0.172009698913643
-0.183658931301524,-0.0732610434634642
-0.38268932026627,-0.26351614443646
-0.282654843402104,-0.175848239784172
-0.281933664189462,-0.17747612606251
-0.281319373424232,-0.179154482585511
-0.281052549451323,-0.180012093498049
-0.280812733480579,-0.180881729542901
-0.3723548411392,-0.282782503420523
-0.280414506732669,-0.182656287124407
-0.280256286549043,-0.183560813708493
-0.394432395965341,-0.286454524358329
-0.279946342320735,-0.186341014918676
-0.279877929405041,-0.188248025510893
-0.279885473808461,-0.189217001313777
-0.279920979181751,-0.190196027486134
-0.279984540821684,-0.191184906551678
-0.280076254025029,-0.192183441034125
-0.174880196731545,-0.0866216085777473
-0.188314939113506,-0.0806203784079086
-0.373724757952276,-0.313793951322843
-0.396571075080604,-0.306217104708701
-0.28218421717586,-0.201572161549935
-0.394591072704048,-0.312643815718032
-0.282970357323464,-0.203748099639426
-0.181365907369986,-0.102711004955101
-0.287294346641944,-0.212727481954418
-0.287969103435377,-0.21387765475527
-0.288674013024406,-0.215033335971058
-0.290970611532777,-0.218531455345203
-0.291797085271897,-0.219707195457897
-0.293542015885256,-0.222072041307549
-0.294460663353037,-0.223260752091939
-0.295410225990578,-0.224453391480993
-0.296390799094652,-0.225649761998426
-0.298445357889477,-0.228052906513295
-0.188796002845887,-0.12486670695871
-0.300625102111678,-0.230468605826272
-0.301762156999971,-0.231680669841341
-0.305363196334867,-0.235331349605461
-0.309251048906973,-0.238999613945981
-0.310611180757541,-0.240225354853807
-0.313428287729096,-0.242680131003231
-0.314885453443626,-0.243908771292262
-0.316375154373019,-0.245137983089126
-0.317897485814044,-0.246367568917539
-0.319452543063472,-0.247597331301217
-0.321040421418075,-0.248827072763877
-0.42808386246434,-0.362460362855859
-0.327722051823641,-0.253741879878642
-0.329475465155675,-0.254968554591944
-0.333082565773906,-0.257418089206093
-0.334936443653646,-0.258640554154372
-0.340700531136607,-0.262296369848614
-0.34268969590141,-0.263510457108883
-0.346770300617365,-0.265930669814999
-0.348861931162057,-0.267136400308277
-0.253555325246807,-0.177896341992624
-0.353148325108727,-0.269538122193854
-0.355343279104245,-0.270733718633585
-0.36213631274078,-0.274297080225134
-0.364470365492188,-0.27547639992549
-0.366839431174495,-0.276651156750291
-0.369243605084471,-0.277821153223254
-0.376667729148124,-0.281300605768273
-0.384411257944547,-0.284730106000518
-0.387063857757788,-0.285861250674658
-0.398033915996809,-0.290320452987263
-0.403736074662741,-0.292508063645214
-0.40664176992101,-0.293590680182608
-0.409584002858507,-0.294665574223902
-0.294860755137241,-0.205729717379936
-0.31638470395063,-0.200703563263852
-0.421720217336205,-0.298883975902391
-0.424846568121409,-0.299917295318921
-0.428010028366466,-0.300941707381646
-0.531264379624191,-0.419581720652292
-0.434448658423222,-0.302963019540545
-0.437724018828462,-0.30395952468415
-0.441036869880638,-0.304946332568814
-0.444387306876521,-0.305923245718251
-0.44777542511288,-0.306890066656179
-0.451201319886488,-0.307846597906313
-0.461706616398501,-0.31065247876711
-0.357510708430898,-0.218344465250398
-0.472555332429487,-0.313358643291532
-0.384130177389534,-0.206202404617341
-0.479979869028737,-0.315104721992705
-0.483750040992252,-0.315959759619907
-0.491406668730915,-0.317632844046121
-0.495293315099604,-0.318450495892564
-0.499218976863559,-0.31925529085952
-0.410855915534896,-0.225618233132642
-0.50718772776435,-0.320825520249832
-0.511231007494728,-0.321590559720619
-0.515313683807453,-0.322341952406783
-0.519435851999298,-0.323079500832038
-0.532040260817255,-0.325207105779511
-0.540642406532284,-0.326552667374741
-0.545003527231028,-0.327203003232579
-0.549404806886285,-0.327838112495519
-0.553846340794828,-0.328457797687278
-0.558328224253425,-0.329061861331571
-0.562850552558847,-0.329650105952114
-0.572016924897252,-0.330778348216815
-0.576661159523776,-0.331317950908404
-0.581346220184208,-0.331840944671107
-0.586072202175319,-0.332347132028639
-0.704302213071162,-0.423227023361181
-0.707174386498138,-0.441399189261164
-0.630463223943022,-0.336113946426878
-0.630463223943022,-0.336113946426878
-0.635555549739273,-0.336424276437079
-0.645577618823985,-0.336887965560941
-0.660206087404005,-0.337196885424269
-0.569838232820177,-0.229472704740606
-0.678960492845665,-0.336903377012978
-0.683515935900466,-0.336706619087168
-0.688018358462678,-0.336461283954681
-0.692467881947131,-0.336167759176776
-0.696864627768651,-0.335826432314712
-0.806348254978885,-0.434734216320838
-0.70550027208221,-0.335001922583142
-0.709739413403905,-0.334519514836153
-0.71806094145127,-0.333416331386065
-0.73408037877709,-0.330667344376691
-0.737956025784855,-0.329869312542276
-0.745553114915756,-0.32814301970377
-0.749274799868549,-0.327215533822198
-0.752945406966008,-0.326245671714091
-0.654164672133921,-0.227420268884115
-0.767119485099072,-0.321950212241499
-0.798529129393368,-0.335550494154311
-0.755402147965029,-0.337538059942536
-0.771119819302905,-0.331917145126303
-0.772125492461014,-0.303770331968381
-0.762322500819798,-0.322681523791911
-0.794498813043139,-0.309117093516555
-0.937969322439495,-0.422711611409716
-0.939836962728237,-0.377219544334263
-0.821021809323338,-0.294971944010606
-0.823551136240761,-0.293134395599671
-0.826032299258732,-0.291263772432416
-0.828465419792079,-0.289360462070099
-0.803353955508028,-0.320540089404338
-0.860940276454638,-0.276031011598908
-0.824451454655709,-0.270952265643632
-0.700565899442486,-0.184027821969067
-0.827509191114546,-0.235246667508072
-0.803718396235649,-0.265641237018131
-0.829556376709098,-0.258579175966379
-0.970419930995534,-0.398326141538033
-0.862595619680346,-0.252378591926211
-0.865728119569036,-0.247502454598775
-0.899360736278055,-0.266885390362634
-0.874034763996296,-0.232287981299561
-0.826482939403328,-0.21835231425563
-0.876443264787871,-0.227031471394424
-0.90393965845677,-0.23503154296607
-0.861566738055645,-0.216622361053618
-0.881685391311323,-0.213514858056911
-0.953047301321022,-0.285408473445449
-0.901173710078262,-0.21587389065027
-0.887178264657363,-0.193766748811923
-0.776579478377033,-0.0871739652876078
-0.921049430503414,-0.153018915621295
-0.934700093650558,-0.16008908917212
-0.849546379203341,-0.142435771026144
-0.886739910550327,-0.193747171112685
-0.897438413085929,-0.149022403628308
-0.901075063189911,-0.163407725542327
-0.891876457970966,-0.148784415936032
-0.932525681061605,-0.156518889924397
-0.891354053151089,-0.133157145143204
-0.914638494792703,-0.0872810308190254
-0.890550547801518,-0.12366447994312
-0.880559949796776,-0.127946341250195
-0.850611504533694,-0.14740616104808
-0.887856194841059,-0.104466301131706
-0.914477858612093,-0.0601747354222701
-0.923555929148824,-0.0627042515199386
-0.885265043440462,-0.0915434384100563
-0.904483054827482,-0.10644598836192
-0.882909873315555,-0.0818037850612292
-0.873761468028485,-0.0524521245039958
-0.870028628629903,-0.0426588846613032
-0.861557562580607,-0.023121160414441
-0.858439542879991,-0.0166344001849404
-0.856825892330627,-0.0133976043182527
-0.832592492776192,0.0280932011685564
-0.828337296842107,0.0343485497306273
-0.823944324812662,0.0405610196289485
-0.706623964778195,0.15244141635227
-0.817098661349192,0.0497925446598683
-0.81236549860034,0.055884253254753
-0.805014102113826,0.0649201027833086
-0.697913423908979,0.180910836390974
-0.704579174510217,0.167442976375168
-0.792098795989563,0.0796827789435834
-0.781178612175735,0.0911976497125749
-0.769744234088305,0.102423187203856
-0.766806207322411,0.105181456542592
-0.760835685001577,0.110637544250352
-0.754740013727538,0.116010446923433
-0.751645550770138,0.118664734968823
-0.748520164818921,0.121297064071767
-0.735711819372467,0.131599039833902
-0.732433639674598,0.134115760805732
-0.729125265471884,0.136608197467562
-0.712134726404628,0.148692551482656
-0.825226076543284,0.0567221033358117
-0.698011178376106,0.157883385866329
-0.694407536940501,0.160111663558922
-0.690775036563164,0.162311393767668
-0.683423944642606,0.166623661488582
-0.679705595929041,0.168735423878231
-0.672183900069484,0.172868267909621
-0.785284414350309,0.064879822789908
-0.648947566899029,0.184513449609877
-0.636957834702431,0.189893096581113
-0.624724763032076,0.194963495427765
-0.620593563639211,0.196583097951978
-0.599541714071564,0.204134692131357
-0.586598293182141,0.208214561680315
-0.582232496183166,0.209497011669303
-0.573424645620432,0.211943326488727
-0.541809223277634,0.21921959025974
-0.537194296680569,0.220090608001103
-0.51375841431802,0.223788823307439
-0.504217744740428,0.224954334032918
-0.499412256332537,0.225468301565538
-0.564469048645968,0.129139080494918
-0.364813128812159,0.338688934015431
-0.460140688968489,0.227877975817467
-0.439965759028006,0.227907795899815
-0.393307717029165,0.224952080705755
-0.382708181307203,0.223705547542574
-0.37737763076095,0.222999540925543
-0.334010468701764,0.215314569052557
-0.216697705585987,0.318896876883563
-0.20590741749856,0.322951321402
-0.295044176421902,0.205511194728453
-0.28940243719517,0.203867852408801
-0.28374228070195,0.202162632337034
-0.272367201575357,0.198565008692121
-0.260919910360753,0.194715223303642
-0.231992128717679,0.183967205238253
-0.214428050994757,0.176732454512645
-0.208539518786575,0.174187555588826
-0.190774103067997,0.166147486913898
-0.184819429513223,0.163331048183568
-0.14875476991246,0.144972920207247
-0.130511506318711,0.134838168794645
-0.118273432900892,0.127720604257815
-0.0812055882468072,0.10460070000008
-0.0624787622284175,0.0920275075998222
-0.0373169784309804,0.074188971327587
-0.0246556938107804,0.0648023214865699
0.000822804279446074,0.0450787559443799
0.0072242057258841,0.0399476317306228
0.0849787977540743,-0.0280444251510381
0.124463798515189,-0.0666166223769721
0.144346751381214,-0.0870833877251824
0.15765184679244,-0.101172287223086
0.170995643799033,-0.115620315372016
0.0683594711513811,-0.241513113355442
0.211249531204747,-0.161150176625683
0.285843235804526,-0.253366511926345
0.39339484720766,-0.164029401923864
0.213987709281651,-0.401581672051468
0.361328530973641,-0.357337492254826
0.368229456554974,-0.367390102335382
