0.178724922101861,0.206005060826653
0.177152757729463,0.211692730932874
0.175621427217289,0.217333214907524
0.174130627593568,0.222926569716184
0.172680055886529,0.228472852324436
0.171269409124404,0.233972119697863
0.16989838433542,0.239424428802045
0.168566678547809,0.244829836602566
0.1672739887898,0.250188400065007
0.166020012089623,0.25550017615495
0.164804445475506,0.260765221837976
0.163626985975681,0.265983594079669
0.162487330618377,0.271155349845609
0.161385176431824,0.276280546101379
0.160320220444251,0.281359239812561
0.159292159683888,0.286391487944736
0.158300691178965,0.291377347463487
0.157345511957711,0.296316875334396
0.156426319048357,0.301210128523044
0.155542809479132,0.306057163995013
0.154694680278266,0.310858038715886
0.153881628473989,0.315612809651244
0.15310335109453,0.320321533766668
0.152359545168119,0.324984268027743
0.151649907722986,0.329601069400048
0.150974135787361,0.334171994849166
0.150331926389473,0.338697101340679
0.149722976557553,0.343176445840169
0.149146983319829,0.347610085313218
0.148603643704531,0.351998076725408
0.148092654739891,0.35634047704232
0.147613713454136,0.360637343229537
0.147166516875497,0.36488873225264
0.146750762032204,0.369094701077212
0.146366145952486,0.373255306668835
0.146012365664573,0.37737060599309
0.145689118196696,0.381440656015559
0.145396100577083,0.385465513701824
0.145133009833964,0.389445236017468
0.144899542995569,0.393379879928071
0.144695397090128,0.397269502399217
0.144520269145871,0.401114160396487
0.144373856191028,0.404913910885463
0.144255855253827,0.408668810831727
0.144165963362499,0.41237891720086
0.144103877545274,0.416044286958446
0.144069294830381,0.419664977070065
0.144061912246051,0.423241044501299
0.144081426820512,0.426772546217731
0.144127535581995,0.430259539184943
0.144199935558729,0.433702080368516
0.144298323778945,0.437100226734033
0.144422397270871,0.440454035247075
0.144571853062738,0.443763562873224
0.144746388182775,0.447028866578063
0.144945699659212,0.450250003327172
0.14516948452028,0.453427030086135
0.145417439794207,0.456560003820533
0.145689262509223,0.459648981495947
0.145984649693558,0.462694020077961
0.146303298375442,0.465695176532155
0.146644905583105,0.468652507824112
0.147009168344776,0.471566070919414
0.147395783688686,0.474435922783643
0.147804448643063,0.47726212038238
0.148234860236138,0.480044720681208
0.14868671549614,0.482783780645708
0.149159711451299,0.485479357241463
0.149653545129846,0.488131507434054
0.150167913560008,0.490740288189063
0.150702513770017,0.493305756472072
0.151257042788103,0.495827969248664
0.151831197642494,0.49830698348442
0.152424675361421,0.500742856144921
0.153037172973113,0.503135644195751
0.1536683875058,0.505485404602491
0.154318015987712,0.507792194330722
0.154985755447079,0.510056070346028
0.15567130291213,0.512277089613989
0.156374355411095,0.514455309100187
0.157094609972204,0.516590785770206
0.157831763623687,0.518683576589626
0.158585513393773,0.520733738524029
0.159355556310692,0.522741328538998
0.160141589402674,0.524706403600114
0.160943309697948,0.526629020672959
0.161760414224745,0.528509236723116
0.162592600011294,0.530347108716166
0.163439564085825,0.532142693617691
0.164301003476567,0.533896048393273
0.165176615211751,0.535607230008494
0.166066096319606,0.537276295428936
0.166969143828362,0.538903301620181
0.167885454766248,0.540488305547811
0.168814726161495,0.542031364177407
0.169756655042332,0.543532534474552
0.170710938436988,0.544991873404828
0.171677273373695,0.546409437933816
0.17265535688068,0.547785285027099
0.173644885986175,0.549119471650258
0.174645557718409,0.550412054768876
0.175657069105611,0.551663091348534
0.176679117176011,0.552872638354814
0.17771139895784,0.554040752753298
0.178753611479326,0.555167491509568
0.1798054517687,0.556252911589207
0.180866616854192,0.557297069957795
0.18193680376403,0.558300023580916
0.183015709526446,0.55926182942415
0.184103031169667,0.560182544453081
0.185198465721926,0.561062225633289
0.18630171021145,0.561900929930356
0.18741246166647,0.562698714309866
0.188530417115216,0.563455635737398
0.189655273585917,0.564171751178537
0.190786728106803,0.564847117598863
0.191924477706104,0.565481791963958
0.19306821941205,0.566075831239405
0.19421765025287,0.566629292390784
0.195372467256794,0.567142232383679
0.196532367452052,0.567614708183671
0.197697047866873,0.568046776756343
0.198866205529488,0.568438495067275
0.200039537468126,0.56878992008205
0.201216740711017,0.56910110876625
0.20239751228639,0.569372118085457
0.203581549222476,0.569603005005253
0.204768548547503,0.569793826491219
0.205958207289703,0.569944639508938
0.207150222477304,0.570055501023992
0.208344291138537,0.570126468001962
0.20954011030163,0.570157597408431
0.210737376994815,0.57014894620898
0.211935788246319,0.570100571369192
0.213135041084375,0.570012529854647
0.21433483253721,0.569884878630929
0.215534859633055,0.569717674663619
0.21673481940014,0.569510974918299
0.217934408866694,0.569264836360551
0.219133325060947,0.568979315955958
0.220331265011129,0.5686544706701
0.22152792574547,0.56829035746856
0.222723004292199,0.567887033316919
0.223916197679546,0.567444555180761
0.22510720293574,0.566962980025666
0.226295717089013,0.566442364817217
0.227481437167593,0.565882766520995
0.228664060199709,0.565284242102582
0.229843283213593,0.564646848527562
0.231018803237473,0.563970642761514
0.232190317299579,0.563255681770022
0.233357522428142,0.562502022518667
0.23452011565139,0.561709721973031
0.235677793997554,0.560878837098696
0.236830254494863,0.560009424861245
0.237977194171548,0.559101542226258
0.239118310055837,0.558155246159318
0.240253299175961,0.557170593626007
0.241381858560149,0.556147641591907
0.242503685236631,0.5550864470226
0.243618476233636,0.553987066883667
0.244725928579396,0.552849558140691
0.245825739302139,0.551673977759254
0.246917605430094,0.550460382704936
0.248001223991493,0.549208829943322
0.249076292014564,0.547919376439992
0.250142506527538,0.546592079160528
0.251199564558643,0.545226995070512
0.252247163136111,0.543824181135527
0.253284999288169,0.542383694321153
0.25431277004305,0.540905591592974
0.255330172428981,0.53938992991657
0.256336903474193,0.537836766257525
0.257332660206916,0.53624615758142
0.258317139655379,0.534618160853836
0.259290038847812,0.532952833040356
0.260251054812445,0.531250231106562
0.261199884577507,0.529510412018035
0.262136225171229,0.527733432740358
0.263059773621839,0.525919350239112
0.263970226957569,0.52406822147988
0.264867282206647,0.522180103428244
0.265750636397303,0.520255053049784
0.266619986557768,0.518293127310084
0.26747502971627,0.516294383174725
0.26831546290104,0.514258877609289
0.269140983140307,0.512186667579359
0.269951287462301,0.510077810050515
0.270746072895252,0.50793236198834
0.271525036467389,0.505750380358416
0.272287875206943,0.503531922126325
0.273034286142143,0.501277044257649
0.273763966301218,0.498985803717969
0.2744766127124,0.496658257472868
0.275171922403916,0.494294462487928
0.275849592403998,0.49189447572873
0.276509319740874,0.489458354160856
0.277150801442775,0.48698615474989
0.27777373453793,0.484477934461411
0.278377816054569,0.481933750261002
0.278962743020922,0.479353659114246
0.279528212465218,0.476737717986724
0.280073921415688,0.474085983844018
0.280599566900561,0.47139851365171
0.281104845948067,0.468675364375382
0.281589455586435,0.465916592980616
0.282053092843895,0.463122256432994
0.282495454748678,0.460292411698097
0.282916238329012,0.457427115741509
0.283315140613128,0.454526425528809
0.283691858629255,0.451590398025582
0.284046089405623,0.448619090197408
0.284377529970462,0.44561255900987
0.284685877352001,0.442570861428549
0.284970828578471,0.439494054419027
0.285232080678101,0.436382194946886
0.28546933067912,0.433235339977709
0.28568227560976,0.430053546477077
0.285870612498248,0.426836871410572
0.286034038372815,0.423585371743776
0.286172250261691,0.420299104442271
0.286284945193106,0.416978126471639
0.286371820195289,0.413622494797462
0.28643257229647,0.410232266385321
0.286466898524879,0.4068074982008
0.286474495908745,0.403348247209478
0.286455061476299,0.39985457037694
0.286408292255769,0.396326524668766
0.286333885275387,0.392764167050539
0.286231537563381,0.38916755448784
0.286100946147981,0.385536743946251
0.285941808057417,0.381871792391355
0.285753820319919,0.378172756788733
0.285536679963717,0.374439694103967
0.285290084017039,0.370672661302639
0.285013729508117,0.366871715350331
0.28470731346518,0.363036913212626
0.284370532916457,0.359168311855104
0.284003084890178,0.355265968243348
0.283604666414573,0.35132993934294
0.283174974517873,0.347360282119461
0.282713706228305,0.343357053538495
0.282220558574101,0.339320310565622
0.28169522858349,0.335250110166424
0.281137413284702,0.331146509306484
0.280546809705966,0.327009564951383
0.279923114875513,0.322839334066704
0.279266025821571,0.318635873618028
0.278575239572372,0.314399240570938
0.277850453156143,0.310129491891014
0.277091363601116,0.30582668454384
0.27629766793552,0.301490875494996
0.275469063187585,0.297122121710066
0.274605246385541,0.292720480154631
0.273705914557616,0.288286007794272
0.272770764732042,0.283818761594572
0.271799493937047,0.279318798521114
0.270791799200862,0.274786175539477
0.269747377551716,0.270220949615246
0.268665926017839,0.265623177714001
0.267547141627461,0.260992916801324
0.266390721408812,0.256330223842798
0.26519636239012,0.251635155804005
0.263963761599617,0.246907769650525
0.262692616065532,0.242148122347942
0.261382622816093,0.237356270861837
0.260033478879533,0.232532272157793
0.258644881284079,0.22767618320139
0.257216527057962,0.222788060958211
0.255748113229411,0.217867962393838
0.254239336826657,0.212915944473854
0.252689894877929,0.207932064163839
0.251099484411456,0.202916378429375
0.249467802455469,0.197868944236046
0.247794546038197,0.192789818549432
0.246079412187871,0.187679058335116
0.244322097932719,0.182536720558679
0.242522300300971,0.177362862185704
0.240679716320858,0.172157540181772
0.238794043020608,0.166920811512465
0.236864977428453,0.161652733143366
0.234892216572621,0.156353362040056
0.232875457481342,0.151022755168117
0.230814397182846,0.145660969493131
0.228708732705363,0.140268061980681
0.226558161077122,0.134844089596347
0.224362379326354,0.129389109305712
0.222121084481288,0.123903178074358
0.219833973570153,0.118386352867866
0.21750074362118,0.11283869065182
0.215121091662598,0.1072602483918
0.212694714722637,0.101651083053388
0.210221309829527,0.0960112516021679
0.207700574011498,0.0903408110037194
0.205132204296778,0.0846398182236257
0.202515897713599,0.078908330227468
0.199851351290189,0.0731464039808289
0.197138262054779,0.0673540964492897
0.194376327035598,0.061531464598433
0.191565243260876,0.0556785653938401
0.188704707758843,0.0497954558010935
0.185794417557728,0.0438821927857746
0.182834069685762,0.0379388333134659
0.179823361171173,0.0319654343497489
0.176761989042192,0.0259620528602058
0.173649650327049,0.0199287458104182
0.170486042053973,0.0138655701659686
0.167270861251194,0.00777258289243835
0.164003804946941,0.0016498409554099
0.160684570169445,-0.00450259867953537
0.157312853946936,-0.0106846790468149
0.153888353307642,-0.0168963431808474
0.150410765279794,-0.0231375341160502
0.146879786891622,-0.0294081948868422
0.143295115171354,-0.0357082685276406
0.139656447147222,-0.0420376980728642
0.135963479847455,-0.0483964265569305
0.132215910300282,-0.0547843970142581
0.128413435533933,-0.0612015524792645
0.124555752576638,-0.0676478359863682
0.120642558456627,-0.0741231905699869
0.116673550202129,-0.0806275592645391
0.112648424841375,-0.0871608851044423
0.108566879402593,-0.0937231111241153
0.104428610914014,-0.100314180357975
0.100233316403868,-0.106934035840441
0.0959806929003841,-0.11358262060593
0.091670437431792,-0.120259877688861
0.0873022470263217,-0.126965750123652
0.0828758187122027,-0.13370018094472
0.0783908495176651,-0.140463113186484
0.0738470364709383,-0.147254489883362
0.0692440766002524,-0.154074254069772
0.0645816669338368,-0.160922348780132
0.0598595044999216,-0.16779871704886
0.0550772863267362,-0.174703301910374
0.0502347094425106,-0.181636046399092
0.0453314708754744,-0.188596893549433
0.0403672676538574,-0.195585786395814
0.0353417968058894,-0.202602667972653
0.0302547553598003,-0.209647481314369
0.0251058403438193,-0.216720169455379
0.0198947487861768,-0.223820675430101
0.0146211777151021,-0.230948942272955
0.00928482415882527,-0.238104913018356
0.00388538514557571,-0.245288530700725
-0.00157744229641639,-0.252499738354479
-0.00710396113892181,-0.259738479014035
-0.0126944743537103,-0.267004695713812
-0.0183492849125525,-0.274298331488228
-0.0240686957872184,-0.281619329371701
-0.0298530099494785,-0.28896763239865
-0.0357025303711026,-0.296343183603491
-0.0416175600238615,-0.303745926020644
-0.047598401879525,-0.311175802684526
-0.0536453589098638,-0.318632756629556
-0.0597587340866476,-0.32611673089015
-0.0659388303816472,-0.333627668500729
-0.0721859507666323,-0.341165512495708
-0.0785003982133737,-0.348730205909508
-0.0848824756936412,-0.356321691776545
-0.0913324861792055,-0.363939913131238
-0.0978507326418364,-0.371584813008004
-0.104437518053305,-0.379256334441262
-0.11109314538538,-0.386954420465431
-0.117817917609833,-0.394679014114927
-0.124612137698433,-0.402430058424169
-0.131476108622952,-0.410207496427576
-0.138410133355159,-0.418011271159564
-0.145414514866825,-0.425841325654553
-0.152489556129719,-0.43369760294696
-0.159635560115613,-0.441580046071203
-0.166852829796275,-0.449488598061701
-0.174141668143478,-0.457423201952871
-0.18150237812899,-0.465383800779132
-0.188935262724582,-0.473370337574901
-0.196440624902024,-0.481382755374597
-0.204018767633087,-0.489420997212638
-0.211669993889541,-0.497485006123441
-0.219394606643156,-0.505574725141426
-0.227192908865702,-0.513690097301009
-0.23506520352895,-0.521831065636609
-0.24301179360467,-0.529997573182644
-0.251032982064631,-0.538189562973532
-0.259129071880605,-0.546406978043691
-0.267300366024362,-0.55464976142754
-0.275547167467671,-0.562917856159496
-0.283869779182303,-0.571211205273977
-0.292268504140029,-0.579529751805401
-0.300743645312618,-0.587873438788188
-0.309295505671841,-0.596242209256753
-0.317924388189469,-0.604636006245516
-0.32663059583727,-0.613054772788895
-0.335414431587016,-0.621498451921307
-0.344276198410477,-0.629966986677171
-0.353216199279423,-0.638460320090905
-0.362234737165624,-0.646978395196927
-0.371332115040851,-0.655521155029655
-0.380508635876873,-0.664088542623506
-0.389764602645462,-0.6726805010129
-0.389764602645462,-0.6726805010129
-0.399004845781462,-0.681213510040873
-0.40813426821646,-0.689604588013061
-0.417153281667342,-0.697854485657779
-0.426062297850993,-0.705963953703344
-0.434861728484298,-0.713933742878072
-0.443551985284144,-0.721764603910277
-0.452133479967414,-0.729457287528277
-0.460606624250994,-0.737012544460387
-0.46897182985177,-0.744431125434923
-0.477229508486627,-0.751713781180201
-0.485380071872449,-0.758861262424536
-0.493423931726122,-0.765874319896245
-0.501361499764532,-0.772753704323644
-0.509193187704564,-0.779500166435047
-0.516919407263102,-0.786114456958772
-0.524540570157033,-0.792597326623134
-0.532057088103241,-0.798949526156449
-0.539469372818612,-0.805171806287033
-0.546777836020031,-0.811264917743201
-0.553982889424383,-0.81722961125327
-0.561084944748553,-0.823066637545556
-0.568084413709427,-0.828776747348374
-0.57498170802389,-0.83436069139004
-0.581777239408827,-0.83981922039887
-0.588471419581123,-0.845153085103181
-0.595064660257664,-0.850363036231287
-0.601557373155335,-0.855449824511504
-0.607949969991022,-0.86041420067215
-0.614242862481608,-0.865256915441539
-0.620436462343981,-0.869978719547987
-0.626531181295023,-0.874580363719811
-0.632527431051623,-0.879062598685325
-0.638425623330664,-0.883426175172847
-0.644226169849031,-0.887671843910692
-0.64992948232361,-0.891800355627175
-0.655535972471287,-0.895812461050613
-0.661046052008946,-0.899708910909321
-0.666460132653472,-0.903490455931616
-0.671778626121751,-0.907157846845813
-0.677001944130669,-0.910711834380229
-0.68213049839711,-0.914153169263178
-0.687164700637959,-0.917482602222977
-0.692104962570103,-0.920700883987942
-0.696951695910425,-0.923808765286389
-0.701705312375813,-0.926806996846633
-0.706366223683149,-0.929696329396991
-0.710934841549321,-0.932477513665777
-0.715411577691212,-0.93515130038131
-0.71979684382571,-0.937718440271903
-0.724091051669697,-0.940179684065873
-0.728294612940061,-0.942535782491536
-0.732407939353686,-0.944787486277208
-0.736431442627457,-0.946935546151204
-0.74036553447826,-0.94898071284184
-0.744210626622979,-0.950923737077433
-0.747967130778501,-0.952765369586299
-0.751635458661711,-0.954506361096752
-0.755216021989492,-0.956147462337109
-0.758709232478732,-0.957689424035686
-0.762115501846315,-0.959132996920798
-0.765435241809126,-0.960478931720763
-0.768668864084051,-0.961727979163895
-0.771816780387975,-0.96288088997851
-0.774879402437783,-0.963938414892924
-0.77785714195036,-0.964901304635453
-0.780750410642592,-0.965770309934414
-0.783559620231364,-0.966546181518121
-0.786285182433561,-0.967229670114891
-0.788927508966069,-0.96782152645304
-0.791487011545772,-0.968322501260883
-0.793964101889555,-0.968733345266736
-0.796359191714305,-0.969054809198916
-0.798672692736907,-0.969287643785738
-0.800905016674245,-0.969432599755518
-0.803056575243205,-0.969490427836571
-0.805127780160672,-0.969461878757215
-0.807119043143531,-0.969347703245764
-0.809030775908668,-0.969148652030534
-0.810863390172968,-0.968865475839842
-0.812617297653316,-0.968498925402004
-0.814292910066598,-0.968049751445334
-0.815890639129697,-0.967518704698149
-0.817410896559501,-0.966906535888766
-0.818854094072894,-0.966213995745499
-0.820220643386762,-0.965441834996665
-0.821510956217989,-0.964590804370579
-0.822725444283461,-0.963661654595557
-0.823864519300063,-0.962655136399917
-0.82492859298468,-0.961572000511972
-0.825918077054198,-0.960412997660039
-0.826833383225502,-0.959178878572434
-0.827674923215477,-0.957870393977473
-0.828443108741008,-0.956488294603472
-0.829138351518981,-0.955033331178746
-0.829761063266281,-0.953506254431612
-0.830311655699793,-0.951907815090385
-0.830790540536402,-0.950238763883381
-0.831198129492994,-0.948499851538916
-0.831534834286453,-0.946691828785306
-0.831801066633667,-0.944815446350867
-0.831997238251518,-0.942871454963915
-0.832123760856893,-0.940860605352765
-0.832181046166676,-0.938783648245734
-0.832169505897754,-0.936641334371137
-0.832089551767011,-0.93443441445729
-0.831941595491333,-0.93216363923251
-0.831726048787604,-0.929829759425111
-0.831443323372711,-0.92743352576341
-0.831093830963539,-0.924975688975723
-0.830677983276971,-0.922456999790366
-0.830196192029895,-0.919878208935654
-0.829648868939194,-0.917240067139903
-0.829036425721756,-0.91454332513143
-0.828359274094463,-0.91178873363855
-0.827617825774202,-0.908977043389578
-0.826812492477859,-0.906109005112832
-0.825943685922318,-0.903185369536627
-0.825011817824464,-0.900206887389277
-0.824017299901184,-0.897174309399101
-0.822960543869361,-0.894088386294413
-0.821841961445882,-0.890949868803529
-0.820661964347631,-0.887759507654766
-0.819420964291494,-0.884518053576438
-0.818119372994357,-0.881226257296862
-0.816757602173104,-0.877884869544354
-0.81533606354462,-0.87449464104723
-0.813855168825791,-0.871056322533805
-0.812315329733502,-0.867570664732396
-0.810716957984639,-0.864038418371318
-0.809060465296086,-0.860460334178887
-0.807346263384729,-0.856837162883419
-0.805574763967453,-0.85316965521323
-0.803746378761144,-0.849458561896636
-0.801861519482685,-0.845704633661952
-0.799920597848964,-0.841908621237495
-0.797924025576865,-0.838071275351581
-0.795872214383274,-0.834193346732525
-0.793765575985074,-0.830275586108642
-0.791604522099153,-0.82631874420825
-0.789389464442395,-0.822323571759664
-0.787120814731685,-0.818290819491201
-0.784798984683909,-0.814221238131174
-0.782424386015951,-0.810115578407901
-0.779997430444698,-0.805974591049698
-0.777518529687034,-0.80179902678488
-0.774988095459844,-0.797589636341763
-0.772406539480014,-0.793347170448663
-0.76977427346443,-0.789072379833896
-0.767091709129976,-0.784766015225778
-0.764359258193537,-0.780428827352625
-0.761577332371999,-0.776061566942752
-0.758746343382247,-0.771664984724476
-0.755866702941167,-0.767239831426112
-0.752938822765643,-0.762786857775977
-0.749963114572561,-0.758306814502385
-0.746939990078806,-0.753800452333654
-0.743869861001263,-0.749268521998098
-0.740753139056818,-0.744711774224034
-0.737590235962356,-0.740130959739778
-0.734381563434762,-0.735526829273645
-0.731127533190921,-0.730900133553952
-0.727828556947719,-0.726251623309014
-0.72448504642204,-0.721582049267147
-0.721097413330771,-0.716892162156667
-0.717666069390796,-0.71218271270589
-0.714191426319,-0.707454451643132
-0.710673895832269,-0.702708129696708
-0.707113889647489,-0.697944497594935
-0.703511819481544,-0.693164306066129
-0.699868097051319,-0.688368305838604
-0.6961831340737,-0.683557247640677
-0.692457342265572,-0.678731882200666
-0.68869113334382,-0.673892960246883
-0.68488491902533,-0.669041232507647
-0.681039111026987,-0.664177449711272
-0.677154121065676,-0.659302362586075
-0.673230360858282,-0.654416721860371
-0.669268242121691,-0.649521278262476
-0.665268176572787,-0.644616782520707
-0.661230575928457,-0.639703985363379
-0.657155851905585,-0.634783637518808
-0.653044416221056,-0.629856489715309
-0.648896680591757,-0.624923292681199
-0.644713056734571,-0.619984797144794
-0.640493956366385,-0.615041753834409
-0.636239791204083,-0.610094913478361
-0.631950972964551,-0.605145026804964
-0.627627913364674,-0.600192844542536
-0.623271024121337,-0.595239117419392
-0.618880716951426,-0.590284596163848
-0.614457403571826,-0.585330031504219
-0.610001495699422,-0.580376174168822
-0.605513405051099,-0.575423774885973
-0.600993543343742,-0.570473584383986
-0.596442322294237,-0.565526353391179
-0.59186015361947,-0.560582832635867
-0.587247449036325,-0.555643772846367
-0.582604620261687,-0.550709924750992
-0.577932079012442,-0.545782039078061
-0.573230237005475,-0.540860866555888
-0.568499505957672,-0.53594715791279
-0.563740297585916,-0.531041663877083
-0.558953023607095,-0.526145135177081
-0.554138095738093,-0.521258322541102
-0.549295925695795,-0.51638197669746
-0.544426925197087,-0.511516848374473
-0.539531505958853,-0.506663688300455
-0.53461007969798,-0.501823247203723
-0.529663058131351,-0.496996275812592
-0.524690852975854,-0.492183524855379
-0.519693875948372,-0.487385745060399
-0.514672538765791,-0.482603687155969
-0.509627253144996,-0.477838101870403
-0.504558430802873,-0.473089739932018
-0.499466483456307,-0.46835935206913
-0.494351822822182,-0.463647689010055
-0.489214860617385,-0.458955501483108
-0.484056008558801,-0.454283540216606
-0.478875678363314,-0.449632555938864
-0.473674281747811,-0.445003299378198
-0.468452230429175,-0.440396521262924
-0.463209936124294,-0.435812972321358
-0.45794781055005,-0.431253403281816
-0.452666265423332,-0.426718564872614
-0.447365712461022,-0.422209207822067
-0.442046563380007,-0.417726082858492
-0.436709229897171,-0.413269940710204
-0.431354123729401,-0.408841532105519
-0.425981656593581,-0.404441607772753
-0.420592240206596,-0.400070918440222
-0.415186286285332,-0.395730214836242
-0.409764206546674,-0.391420247689129
-0.404326412707508,-0.387141767727199
-0.398873316484718,-0.382895525678767
-0.393405329595189,-0.378682272272149
-0.387922863755808,-0.374502758235661
-0.382426330683459,-0.37035773429762
-0.376916142095028,-0.36624795118634
-0.371392709707399,-0.362174159630138
-0.365856445237459,-0.358137110357331
-0.360307760402091,-0.354137554096232
-0.354747066918182,-0.35017624157516
-0.349174776502617,-0.346253923522428
-0.343591300872281,-0.342371350666354
-0.337997051744059,-0.338529273735253
-0.332392440834837,-0.334728443457441
-0.326777879861499,-0.330969610561234
-0.321153780540932,-0.327253525774948
-0.31552055459002,-0.323580939826898
-0.309878613725648,-0.319952603445401
-0.304228369664702,-0.316369267358772
-0.298570234124067,-0.312831682295327
-0.292904618820628,-0.309340598983383
-0.287231935471271,-0.305896768151255
-0.281552595792881,-0.302500940527258
-0.275867011502342,-0.299153866839709
-0.270175594316541,-0.295856297816924
-0.264478755952362,-0.292608984187219
-0.258776908126691,-0.289412676678909
-0.253070462556413,-0.28626812602031
-0.247359830958414,-0.283176082939739
-0.241645425049578,-0.28013729816551
-0.23592765654679,-0.277152522425941
-0.230206937166937,-0.274222506449346
-0.224483678626902,-0.271348000964042
-0.218758292643573,-0.268529756698344
-0.213031190933833,-0.265768524380569
-0.207302785214568,-0.263065054739032
-0.201573487202663,-0.26042009850205
-0.195843708615004,-0.257834406397937
-0.190113861168476,-0.255308729155011
-0.184384356579963,-0.252843817501586
-0.178655606566352,-0.250440422165979
-0.172928022844527,-0.248099293876506
-0.167202017131374,-0.245821183361482
-0.161478001143779,-0.243606841349223
-0.155756386598625,-0.241457018568046
-0.150037585212799,-0.239372465746266
-0.144322008703185,-0.237353933612199
-0.13861006878667,-0.23540217289416
-0.132902177180137,-0.233517934320466
-0.127198745600474,-0.231701968619433
-0.121500185764564,-0.229955026519377
-0.115806909389293,-0.228277858748613
-0.110119328191546,-0.226671216035457
-0.104437853888209,-0.225135849108225
-0.0987628981961659,-0.223672508695233
-0.0930948728323035,-0.222281945524797
-0.087434189513506,-0.220964910325233
-0.0817812599566592,-0.219722153824856
-0.076136495878648,-0.218554426751983
-0.070500308996358,-0.21746247983493
-0.064873111026674,-0.216447063802011
-0.0592553136864817,-0.215508929381544
-0.0536473286926659,-0.214648827301844
-0.0480495677621123,-0.213867508291227
-0.0424624426117057,-0.213165723078008
-0.0368863649583318,-0.212544222390504
-0.0313217465188755,-0.212003756957031
-0.0257689990102223,-0.211545077505904
-0.020228534149257,-0.211168934765439
-0.0147007636528656,-0.210876079463953
-0.00918609923793257,-0.21066726232976
-0.00368495262134383,-0.210543234091178
0.00180226448001594,-0.210504745476521
0.00727514034926108,-0.210552547214106
0.0127332632695066,-0.210687390032249
0.018176221523867,-0.210910024659265
0.0236036033954574,-0.21122120182347
0.0290149971673921,-0.211621672253181
0.0344099911227862,-0.212112186676712
0.0397881735447543,-0.212693495822381
0.0451491327164113,-0.213366350418502
0.0504924569208716,-0.214131501193392
0.0558177344412504,-0.214989698875367
0.061124553560662,-0.215941694192742
0.0664125025622217,-0.216988237873834
0.0716811697290436,-0.218130080646957
0.0769301433442431,-0.219367973240429
0.0821590116909343,-0.220702666382565
0.0873673630522326,-0.222134910801681
0.0925547857112522,-0.223665457226092
0.0977208679511083,-0.225295056384115
0.102865198054915,-0.227024459004065
0.107987364305788,-0.228854415814259
0.113086954986841,-0.230785677543012
0.11816355838119,-0.23281899491864
0.123216762771949,-0.23495511866946
0.128246156442232,-0.237194799523786
0.133251327675155,-0.239538788209934
0.138231864753833,-0.241987835456222
0.143187355961379,-0.244542691990964
0.148117389580909,-0.247204108542476
0.153021553895538,-0.249972835839075
0.15789943718838,-0.252849624609076
0.16275062774255,-0.255835225580794
0.167574713841163,-0.258930389482547
0.172371283767333,-0.262135867042649
0.177139925804176,-0.265452408989417
0.181880228234805,-0.268880766051167
0.186591779342337,-0.272421688956214
0.191274167409885,-0.276075928432874
0.195926980720564,-0.279844235209464
0.20054980755749,-0.283727360014298
0.205142236203776,-0.287726053575694
0.209703854942538,-0.291841066621966
0.21423425205689,-0.296073149881431
0.218733015829947,-0.300423054082404
0.223199734544824,-0.304891529953203
0.227633996484635,-0.309479328222141
0.232035389932496,-0.314187199617535
0.236403503171521,-0.319015894867702
0.240737924484825,-0.323966164700956
0.245038242155522,-0.329038759845614
0.249304044466728,-0.334234431029992
0.253534919701556,-0.339553928982406
0.257730456143123,-0.344998004431171
0.261890242074541,-0.350567408104603
0.266013865778928,-0.356262890731019
0.270100915539396,-0.362085203038733
0.274150979639061,-0.368035095756063
0.278163646361038,-0.374113319611324
0.282138503988441,-0.380320625332831
0.286075140804385,-0.3866577636489
0.289973145091985,-0.393125485287849
0.293832105134355,-0.399724540977991
0.297651609214611,-0.406455681447644
0.301431245615867,-0.413319657425123
0.305170602621238,-0.420317219638744
0.308869268513838,-0.427449118816823
0.312526831576783,-0.434716105687676
0.316142880093186,-0.442118930979618
0.319717002346164,-0.449658345420966
0.32324878661883,-0.457335099740035
0.326737821194299,-0.465149944665141
0.330183694355687,-0.473103630924601
0.333585994386107,-0.48119690924673
0.336944309568675,-0.489430530359843
0.340258228186505,-0.497805244992257
0.343527338522712,-0.506321803872288
0.346751228860411,-0.514980957728251
0.349929487482717,-0.523783457288463
0.353061702672744,-0.532730053281239
0.356147462713607,-0.541821496434895
0.35918635588842,-0.551058537477748
0.3621779704803,-0.560441927138112
0.36512189477236,-0.569972416144304
0.368017717047714,-0.579650755224639
0.370865025589479,-0.589477695107435
0.373663408680768,-0.599453986521005
0.376412454604697,-0.609580380193667
0.37911175164438,-0.619857626853736
0.381760888082931,-0.630286477229529
0.384359452203466,-0.64086768204936
0.3869070322891,-0.651601992041546
0.389403216622946,-0.662490157934402
0.391847593488121,-0.673532930456246
0.394239751167737,-0.684731060335391
0.396579277944912,-0.696085298300156
