0.0313151175798569,0.5981711164989
0.0379078432740919,0.598885307997267
0.0444378387277986,0.599597211361797
0.0509053117658692,0.600306760055536
0.0573104702131964,0.601013887541525
0.0636535218946724,0.601718527282807
0.0699346746351895,0.602420612742427
0.0761541362596403,0.603120077383426
0.0823121145929172,0.603816854668848
0.0884088174599124,0.604510878061737
0.0944444526855184,0.605202081025134
0.100419228094628,0.605890397022084
0.106333351512132,0.60657575951563
0.112187030762925,0.607258101968814
0.117980473671898,0.60793735784468
0.123713888063944,0.608613460606271
0.129387481763955,0.60928634371663
0.135001462596824,0.609955940638799
0.140556038387442,0.610622184835823
0.146051416960703,0.611285009770744
0.151487806141498,0.611944348906606
0.156865413754721,0.612600135706451
0.162184447625263,0.613252303633323
0.167445115578017,0.613900786150264
0.172647625437875,0.614545516720318
0.17779218502973,0.615186428806529
0.182879002178474,0.615823455871938
0.187908284708999,0.616456531379589
0.192880240446198,0.617085588792526
0.197795077214964,0.617710561573791
0.202653002840188,0.618331383186428
0.207454225146763,0.618947987093479
0.212198951959581,0.619560306757988
0.216887391103536,0.620168275642998
0.221519750403518,0.620771827211552
0.226096237684421,0.621370894926693
0.230617060771137,0.621965412251464
0.235082427488559,0.622555312648909
0.239492545661578,0.623140529582069
0.243847623115087,0.62372099651399
0.248147867673979,0.624296646907713
0.252393487163146,0.624867414226282
0.25658468940748,0.625433231932739
0.260721682231874,0.625994033490129
0.264804673461219,0.626549752361494
0.26883387092041,0.627100322009877
0.272809482434337,0.627645675898321
0.276731715827894,0.62818574748987
0.280600778925972,0.628720470247566
0.284416879553464,0.629249777634453
0.288180225535263,0.629773603113574
0.29189102469626,0.630291880147971
0.295549484861349,0.630804542200689
0.299155813855422,0.63131152273477
0.30271021950337,0.631812755213257
0.306212909630087,0.632308173099193
0.309664092060465,0.632797709855622
0.313063974619396,0.633281298945586
0.316412765131772,0.633758873832129
0.319710671422487,0.634230367978293
0.322957901316431,0.634695714847123
0.326154662638499,0.635154847901661
0.329301163213582,0.63560770060495
0.332397610866572,0.636054206420033
0.335444213422362,0.636494298809953
0.338441178705845,0.636927911237754
0.341388714541912,0.637354977166478
0.344287028755456,0.637775430059169
0.34713632917137,0.63818920337887
0.349936823614546,0.638596230588624
0.352688719909876,0.638996445151474
0.355392225882252,0.639389780530463
0.358047549356568,0.639776170188634
0.360654898157716,0.640155547589031
0.363214480110587,0.640527846194696
0.365726503040074,0.640892999468672
0.36819117477107,0.641250940874004
0.370608703128467,0.641601603873733
0.372979295937157,0.641944921930903
0.375303161022033,0.642280828508557
0.377580506207988,0.642609257069738
0.379811539319913,0.64293014107749
0.381996468182701,0.643243413994855
0.384135500621244,0.643549009284877
0.386228844460435,0.643846860410598
0.388276707525166,0.644136900835061
0.39027929764033,0.644419064021311
0.392236822630819,0.64469328343239
0.394149490321525,0.64495949253134
0.396017508537341,0.645217624781206
0.397841085103159,0.64546761364503
0.399620427843871,0.645709392585856
0.40135574458437,0.645942895066726
0.403047243149549,0.646168054550683
0.404695131364299,0.646384804500772
0.406299617053514,0.646593078380034
0.407860908042084,0.646792809651513
0.409379212154904,0.646983931778252
0.410854737216865,0.647166378223294
0.41228769105286,0.647340082449683
0.41367828148778,0.647504977920461
0.415026716346519,0.647660998098672
0.416333203453969,0.647808076447358
0.417597950635022,0.647946146429563
0.418821165714571,0.64807514150833
0.420003056517507,0.648194995146702
0.421143830868724,0.648305640807722
0.422243696593114,0.648407011954433
0.423302861515569,0.648499042049879
0.424321533460981,0.648581664557101
0.425299920254244,0.648654812939145
0.426238229720248,0.648718420659052
0.427136669683888,0.648772421179866
0.427995447970055,0.648816747964629
0.428814772403641,0.648851334476386
0.429594850809539,0.648876114178179
0.430335891012641,0.648891020533051
0.43103810083784,0.648895987004045
0.431701688110028,0.648890947054205
0.432326860654097,0.648875834146573
0.432913826294941,0.648850581744193
0.433462792857451,0.648815123310108
0.433973968166519,0.648769392307361
0.434447560047038,0.648713322198994
0.434883776323901,0.648646846448052
0.435282824822,0.648569898517577
0.435644913366226,0.648482411870613
0.435970249781474,0.648384319970201
0.436259041892634,0.648275556279387
0.4365114975246,0.648156054261212
0.436727824502263,0.64802574737872
0.436908230650517,0.647884569094953
0.437052923794253,0.647732452872956
0.437162111758364,0.647569332175771
0.437236002367743,0.647395140466441
0.437274803447281,0.64720981120801
0.437278722821872,0.64701327786352
0.437247968316407,0.646805473896014
0.437182747755778,0.646586332768536
0.437083268964879,0.646355787944129
0.436949739768602,0.646113772885837
0.436782367991839,0.645860221056701
0.436581361459482,0.645595065919765
0.436346927996425,0.645318240938072
0.436079275427558,0.645029679574666
0.435778611577775,0.644729315292589
0.435445144271968,0.644417081554885
0.43507908133503,0.644092911824597
0.434680630591852,0.643756739564767
0.434249999867328,0.64340849823844
0.433787396986349,0.643048121308657
0.433293029773809,0.642675542238462
0.432767106054598,0.642290694490899
0.432209833653611,0.641893511529011
0.431621420395738,0.641483926815839
0.431002074105873,0.641061873814428
0.430352002608908,0.640627285987821
0.429671413729736,0.640180096799061
0.428960515293248,0.639720239711191
0.428219515124337,0.639247648187254
0.427448621047896,0.638762255690293
0.426648040888817,0.638263995683352
0.425817982471992,0.637752801629472
0.424958653622313,0.637228606991699
0.424070262164674,0.636691345233074
0.423153015923967,0.63614094981664
0.422207122725083,0.635577354205442
0.421232790392915,0.635000491862521
0.420230226752356,0.634410296250922
0.419199639628299,0.633806700833687
0.418141236845634,0.633189639073859
0.417055226229255,0.632559044434481
0.415941815604055,0.631914850378597
0.414801212794925,0.63125699036925
0.413633625626759,0.630585397869482
0.412439261924447,0.629900006342337
0.411218329512884,0.629200749250858
0.40997103621696,0.628487560058089
0.408697589861569,0.627760372227071
0.407398198271603,0.627019119220849
0.406073069271955,0.626263734502465
0.404722410687516,0.625494151534963
0.403346430343179,0.624710303781386
0.401945336063837,0.623912124704776
0.400519335674382,0.623099547768177
0.399068636999706,0.622272506434632
0.397593447864702,0.621430934167184
0.396093976094262,0.620574764428877
0.394570429513278,0.619703930682753
0.393023015946643,0.618818366391855
0.39145194321925,0.617918005019227
0.38985741915599,0.617002780027911
0.388239651581756,0.616072624880951
0.386598848321441,0.61512747304139
0.384935217199936,0.614167257972271
0.383248966042135,0.613191913136638
0.381540302672929,0.612201371997532
0.379809434917212,0.611195568017998
0.378056570599874,0.610174434661078
0.37628191754581,0.609137905389816
0.374485683579911,0.608085913667255
0.372668076527069,0.607018392956437
0.370829304212177,0.605935276720406
0.368969574460128,0.604836498422206
0.367089095095813,0.603721991524878
0.365188073944125,0.602591689491467
0.363266718829957,0.601445525785015
0.361325237578201,0.600283433868566
0.35936383801375,0.599105347205162
0.357382727961495,0.597911199257847
0.355382115246329,0.596700923489663
0.353362207693144,0.595474453363655
0.351323213126834,0.594231722342864
0.349265339372289,0.592972663890335
0.347188794254404,0.59169721146911
0.345093785598069,0.590405298542232
0.342980521228178,0.589096858572745
0.340849208969623,0.587771825023692
0.338700056647296,0.586430131358115
0.336533272086089,0.585071711039058
0.334349063110896,0.583696497529564
0.332147637546608,0.582304424292676
0.329929203218117,0.580895424791437
0.327693967950317,0.579469432488891
0.3254421395681,0.57802638084808
0.323173925896357,0.576566203332047
0.320889534759982,0.575088833403836
0.318589173983867,0.57359420452649
0.316273051392903,0.572082250163051
0.313941374811985,0.570552903776564
0.311594352066003,0.56900609883007
0.30923219097985,0.567441768786614
0.30685509937842,0.565859847109238
0.304463285086603,0.564260267260986
0.302056955929293,0.5626429627049
0.299636319731381,0.561007866904023
0.297201584317762,0.5593549133214
0.294752957513325,0.557684035420072
0.292290647142965,0.555995166663083
0.289814861031573,0.554288240513476
0.287325807004042,0.552563190434295
0.284823692885264,0.550819949888582
0.282308726500132,0.54905845233938
0.279781115673538,0.547278631249732
0.277241068230374,0.545480420082683
0.274688791995533,0.543663752301274
0.272124494793908,0.541828561368549
0.269548384450389,0.539974780747551
0.266960668789871,0.538102343901323
0.264361555637246,0.536211184292908
0.261751252817405,0.53430123538535
0.259129968155241,0.532372430641691
0.256497909475646,0.530424703524975
0.253855284603514,0.528457987498244
0.251202301363736,0.526472216024542
0.248539167581204,0.524467322566912
0.245866091080812,0.522443240588397
0.243183279687451,0.52039990355204
0.240490941226015,0.518337244920884
0.237789283521394,0.516255198157973
0.235078514398482,0.514153696726349
0.232358841682171,0.512032674089056
0.229630473197354,0.509892063709136
0.226893616768922,0.507731799049633
0.224148480221769,0.50555181357359
0.221395271380786,0.50335204074405
0.218634198070867,0.501132414024056
0.215865468116902,0.498892866876652
0.213089289343786,0.496633332764879
0.21030586957641,0.494353745151783
0.207515416639666,0.492054037500404
0.204718138358447,0.489734143273788
0.201914242557646,0.487393995934976
0.199103937062154,0.485033528947012
0.196287429696865,0.48265267577294
0.19346492828667,0.480251369875801
0.190636640656462,0.47782954471864
0.187802774631134,0.475387133764499
0.184963538035577,0.472924070476421
0.182119138694684,0.47044028831745
0.179269784433348,0.467935720750629
0.17641568307646,0.465410301239001
0.173557042448915,0.462863963245608
0.170694070375602,0.460296640233495
0.167826974681416,0.457708265665703
0.164955963191248,0.455098773005277
0.162081243729991,0.45246809571526
0.159203024122537,0.449816167258694
0.156321512193779,0.447142921098622
0.153436915768609,0.444448290698088
0.150549442671919,0.441732209520135
0.147659300728602,0.438994611027807
0.144766697763551,0.436235428684145
0.141871841601657,0.433454595952193
0.138974940067813,0.430652046294994
0.136076200986911,0.427827713175592
0.133175832183844,0.42498153005703
0.130274041483504,0.42211343040235
0.127371036710784,0.419223347674595
0.124467025690576,0.41631121533681
0.121562216247772,0.413376966852037
0.118656816207264,0.410420535683318
0.115751033393946,0.407441855293698
0.11284507563271,0.404440859146219
0.109939150748447,0.401417480703925
0.107033466566051,0.398371653429858
0.104128230910413,0.395303310787062
0.101223651606426,0.392212386238579
0.0983199364789831,0.389098813247454
0.0954172933529757,0.385962525276728
0.0925159300532967,0.382803455789445
0.0896160544048382,0.379621538248649
0.0867178742324929,0.376416706117382
0.0838215973611528,0.373188892858687
0.0809274316157107,0.369938031935608
0.0780355848210587,0.366664056811188
0.0751462648020894,0.363366900948469
0.072259679383695,0.360046497810495
0.069376036390768,0.356702780860309
0.0664955436482007,0.353335683560954
0.0636184089808858,0.349945139375474
0.0607448402137152,0.346531081766911
0.0578750451715817,0.343093444198308
0.0550092316793774,0.339632160132709
0.052147607561995,0.336147163033157
0.0492903806443266,0.332638386362694
0.0464377587512648,0.329105763584364
0.0435899497077018,0.32554922816121
0.0407471613385302,0.321968713556275
0.0379096014686422,0.318364153232603
0.0350774779229304,0.314735480653236
0.0322509985262869,0.311082629281217
0.0294303711036044,0.30740553257959
0.0266158034797751,0.303704124011398
0.0238075034796915,0.299978337039683
0.0210056789282458,0.296228105127489
0.0182105376503307,0.29245336173786
0.0154222874708383,0.288654040333837
0.0126411362146612,0.284830074378465
0.00986729170669164,0.280981397334786
0.00710096177182214,0.277107942665843
0.00434235423494492,0.27320964383468
0.00159167692095261,0.26928643430434
-0.00115086234526266,0.265338247537866
-0.00388505573880826,0.2613650169983
-0.00661069543479202,0.257366676148687
-0.00932757360832131,0.253343158452069
-0.012035482434504,0.249294397371489
-0.0147342140884474,0.24522032636999
-0.0174235607452594,0.241120878910616
-0.0201033145800475,0.236995988456409
-0.0227732677679193,0.232845588470413
-0.0254332124839823,0.228669612415671
-0.0280829409033443,0.224467993755226
-0.0307222452011128,0.220240665952121
-0.0333509175523955,0.215987562469399
-0.0359687501322998,0.211708616770104
-0.0385755351159336,0.207403762317277
-0.0411710646784042,0.203072932573964
-0.0437551309948195,0.198716061003206
-0.0463275262402869,0.194333081068046
-0.0488880425899142,0.189923926231529
-0.0514364722188087,0.185488529956696
-0.0539726073020784,0.181026825706592
-0.0564962400148305,0.176538746944258
-0.059007162532173,0.172024227132739
-0.0615051670292132,0.167483199735078
-0.063990045681059,0.162915598214317
-0.0664615906628176,0.158321356033499
-0.0689195941495971,0.153700406655668
-0.0713638483165047,0.149052683543868
-0.0737941453386482,0.144378120161139
-0.0762102773911352,0.139676649970528
-0.0786120366490733,0.134948206435075
-0.08099921528757,0.130192723017825
-0.0833716054817331,0.12541013318182
-0.08572899940667,0.120600370390103
-0.0880711892374886,0.115763368105719
-0.0903979671492961,0.110899059791709
-0.0927091253172006,0.106007378911116
-0.0950044559163092,0.101088258926985
-0.0972837511217299,0.0961416333023582
-0.0995468031085701,0.0911674355002784
-0.101793404051937,0.0861655989837888
-0.10402334612694,0.0811360572159328
-0.106236421508684,0.0760787436597532
-0.108432422372279,0.0709935917782934
-0.110611140892831,0.0658805350345961
-0.112772369245448,0.060739506891705
-0.114915899605238,0.0555704408126627
-0.117041524147309,0.0503732702605127
-0.119149035046768,0.0451479286982976
-0.121238224478722,0.0398943495890612
-0.12330888461828,0.0346124663958459
-0.125360807640548,0.0293022125816955
-0.127393785720635,0.0239635216096525
-0.129407611033648,0.0185963269427605
-0.131402075754694,0.0132005620440622
-0.133376972058882,0.00777616037660111
-0.135332092121319,0.00232305540341993
-0.135332092121319,0.00232305540341993
-0.137270939864045,-0.00310426377503568
-0.139197155609345,-0.00845149220029582
-0.141110736132698,-0.0137189726222804
-0.143011678209582,-0.0189070477909094
-0.144899978615473,-0.0240160604561026
-0.146775634125849,-0.02904635336778
-0.148638641516187,-0.0339982692758615
-0.150488997561966,-0.038872150930267
-0.152326699038663,-0.0436683410809163
-0.154151742721755,-0.0483871824777295
-0.15596412538672,-0.0530290178706265
-0.157763843809036,-0.057594190009527
-0.159550894764179,-0.0620830416443511
-0.161325275027628,-0.0664959155250186
-0.16308698137486,-0.0708331544014495
-0.164836010581352,-0.0750951010235637
-0.166572359422583,-0.079282098141281
-0.168296024674029,-0.0833944885045215
-0.170007003111168,-0.0874326148632049
-0.171705291509478,-0.0913968199672512
-0.173390886644436,-0.0952874465665803
-0.17506378529152,-0.0991048374111122
-0.176723984226207,-0.102849335250767
-0.178371480223975,-0.106521282835464
-0.180006270060302,-0.110121022915123
-0.181628350510664,-0.113648898239665
-0.18323771835054,-0.117105251559009
-0.184834370355406,-0.120490425623075
-0.186418303300742,-0.123804763181784
-0.187989513962023,-0.127048606985054
-0.189547999114728,-0.130222299782806
-0.191093755534334,-0.13332618432496
-0.192626779996319,-0.136360603361436
-0.19414706927616,-0.139325899642154
-0.195654620149334,-0.142222415917032
-0.19714942939132,-0.145050494935993
-0.198631493777595,-0.147810479448955
-0.200100810083636,-0.150502712205838
-0.201557375084921,-0.153127535956562
-0.203001185556927,-0.155685293451047
-0.204432238275133,-0.158176327439213
-0.205850530015015,-0.16060098067098
-0.20725605755205,-0.162959595896268
-0.208648817661718,-0.165252515864997
-0.210028807119494,-0.167480083327086
-0.211396022700858,-0.169642641032456
-0.212750461181285,-0.171740531731027
-0.214092119336254,-0.173774098172717
-0.215420993941242,-0.175743683107448
-0.216737081771727,-0.177649629285139
-0.218040379603187,-0.17949227945571
-0.219330884211098,-0.181271976369081
-0.220608592370939,-0.182989062775173
-0.221873500858186,-0.184643881423903
-0.223125606448318,-0.186236775065194
-0.224364905916812,-0.187768086448964
-0.225591396039146,-0.189238158325134
-0.226805073590797,-0.190647333443623
-0.228005935347242,-0.191995954554352
-0.229193978083959,-0.193284364407239
-0.230369198576426,-0.194512905752206
-0.231531593600121,-0.195681921339173
-0.23268115993052,-0.196791753918057
-0.233817894343101,-0.197842746238781
-0.234941793613342,-0.198835241051264
-0.236052854516721,-0.199769581105426
-0.237151073828714,-0.200646109151186
-0.2382364483248,-0.201465167938464
-0.239308974780456,-0.202227100217181
-0.240368649971159,-0.202932248737257
-0.241415470672388,-0.20358095624861
-0.242449433659619,-0.204173565501162
-0.24347053570833,-0.204710419244832
-0.244478773593999,-0.20519186022954
-0.245474144092103,-0.205618231205206
-0.246456643978119,-0.20598987492175
-0.247426270027526,-0.206307134129091
-0.248383019015801,-0.20657035157715
-0.249326887718421,-0.206779870015846
-0.250257872910864,-0.2069360321951
-0.251175971368608,-0.207039180864831
-0.252081179867129,-0.20708965877496
-0.252973495181906,-0.207087808675406
-0.253852914088416,-0.207033973316088
-0.254719433362136,-0.206928495446928
-0.255573049778545,-0.206771717817845
-0.256413760113119,-0.206563983178758
-0.257241561141336,-0.206305634279589
-0.258056449638674,-0.205997013870255
-0.25885842238061,-0.205638464700679
-0.259647476142622,-0.205230329520778
-0.260423607700188,-0.204772951080475
-0.261186813828784,-0.204266672129687
-0.261937091303888,-0.203711835418335
-0.262674436900979,-0.20310878369634
-0.263398847395533,-0.202457859713621
-0.264110319563028,-0.201759406220097
-0.264808850178941,-0.201013765965689
-0.265494436018751,-0.200221281700317
-0.266167073857934,-0.199382296173901
-0.266826760471968,-0.19849715213636
-0.267473492636331,-0.197566192337615
-0.2681072671265,-0.196589759527585
-0.268728080717953,-0.19556819645619
-0.269335930186167,-0.19450184587335
-0.26993081230662,-0.193391050528986
-0.27051272385479,-0.192236153173016
-0.271081661606153,-0.191037496555362
-0.271637622336188,-0.189795423425942
-0.272180602820371,-0.188510276534677
-0.272710599834181,-0.187182398631486
-0.273227610153096,-0.18581213246629
-0.273731630552592,-0.184399820789008
-0.274222657808146,-0.182945806349561
-0.274700688695238,-0.181450431897868
-0.275165719989344,-0.179914040183849
-0.275617748465941,-0.178336973957425
-0.276056770900508,-0.176719575968514
-0.276482784068521,-0.175062188967037
-0.276895784745459,-0.173365155702914
-0.277295769706799,-0.171628818926065
-0.277682735728018,-0.169853521386409
-0.278056679584594,-0.168039605833867
-0.278417598052004,-0.166187415018358
-0.278765487905727,-0.164297291689803
-0.279100345921239,-0.16236957859812
-0.279422168874018,-0.160404618493231
-0.279730953539542,-0.158402754125055
-0.280026696693288,-0.156364328243512
-0.280309395110734,-0.154289683598522
-0.280579045567356,-0.152179162940005
-0.280835644838634,-0.150033109017881
-0.281079189700044,-0.147851864582069
-0.281309676927064,-0.145635772382489
-0.281527103295171,-0.143385175169062
-0.281731465579843,-0.141100415691708
-0.281922760556558,-0.138781836700345
-0.282100985000792,-0.136429780944895
-0.282266135688024,-0.134044591175277
-0.282418209393731,-0.131626610141411
-0.282557202893391,-0.129176180593216
-0.282683112962481,-0.126693645280614
-0.282795936376478,-0.124179346953523
-0.282895669910861,-0.121633628361864
-0.282982310341106,-0.119056832255556
-0.283055854442692,-0.11644930138452
-0.283116298991095,-0.113811378498675
-0.283163640761794,-0.111143406347942
-0.283197876530266,-0.108445727682239
-0.283219003071988,-0.105718685251488
-0.283227017162438,-0.102962621805607
-0.283221915577094,-0.100177880094518
-0.283203695091433,-0.0973648028681393
-0.283172352480932,-0.0945237328763912
-0.283127884521069,-0.0916550128691938
-0.283070287987322,-0.088758985596467
-0.282999559655168,-0.0858359938081306
-0.282915696300085,-0.0828863802541044
-0.28281869469755,-0.0799104876843085
-0.282708551623041,-0.0769086588486629
-0.282585263852035,-0.0738812364970874
-0.28244882816001,-0.0708285633795017
-0.282299241322444,-0.0677509822458259
-0.282136500114813,-0.06464883584598
-0.281960601312596,-0.0615224669298838
-0.28177154169127,-0.0583722182474571
-0.281569318026312,-0.05519843254862
-0.281353927093201,-0.0520014525832923
-0.281125365667413,-0.048781621101394
-0.280883630524426,-0.0455392808528449
-0.280628718439718,-0.0422747745875649
-0.280360626188766,-0.0389884450554741
-0.280079350547048,-0.0356806350064922
-0.279784888290041,-0.0323516871905392
-0.279477236193223,-0.0290019443575349
-0.279156391032072,-0.0256317492573994
-0.278822349582064,-0.0222414446400526
-0.278475108618678,-0.0188313732554142
-0.278114664917391,-0.0154018778534042
-0.27774101525368,-0.0119533011839426
-0.277354156403023,-0.00848598599694933
-0.276954085140898,-0.00500027504234409
-0.276540798242782,-0.00149651107004688
-0.276114292484153,0.00202496317002222
-0.275674564640488,0.00556380492794348
-0.275221611487264,0.00911967145379698
-0.27475542979996,0.0126922199976628
-0.274276016354053,0.0162811078096209
-0.27378336792502,0.0198859921397515
-0.273277481288339,0.0235065302381348
-0.272758353219487,0.0271423793548508
-0.272225980493942,0.0307931967399794
-0.271680359887182,0.0344586396436008
-0.271121488174684,0.0381383653157952
-0.270549362131925,0.0418320310066427
-0.269963978534384,0.0455392939662232
-0.269365334157537,0.0492598114446169
-0.268753425776862,0.0529932406919041
-0.268128250167837,0.0567392389581646
-0.267489804105939,0.0604974634934784
-0.266838084366646,0.064267571547926
-0.266173087725435,0.0680492203715872
-0.265494810957785,0.0718420672145422
-0.264803250839171,0.0756457693268708
-0.264098404145073,0.0794599839586536
-0.263380267650966,0.0832843683599703
-0.26264883813233,0.0871185797809012
-0.261904112364642,0.0909622754715262
-0.261146087123378,0.0948151126819257
-0.260374759184017,0.0986767486621793
-0.259590125322037,0.102546840662368
-0.258792182312914,0.10642504593257
-0.257980926932126,0.110311021722868
-0.257156355955151,0.11420442528334
-0.256318466157466,0.118104913864067
-0.255467254314549,0.122012144715129
-0.254602717201877,0.125925775086606
-0.253724851594929,0.129845462228578
-0.25283365426918,0.133770863391126
-0.25192912200011,0.137701635824328
-0.251011251563195,0.141637436778267
-0.250080039733913,0.14557792350302
-0.249135483287742,0.149522753248669
-0.248177579000159,0.153471583265294
-0.247206323646642,0.157424070802975
-0.246221714002667,0.161379873111791
-0.245223746843714,0.165338647441823
-0.244212418945259,0.169300051043152
-0.243187727082779,0.173263741165856
-0.242149668031753,0.177229375060017
-0.241098238567658,0.181196609975714
-0.240033435465971,0.185165103163027
-0.23895525550217,0.189134511872037
-0.237863695451733,0.193104493352824
-0.236758752090136,0.197074704855467
-0.235640422192858,0.201044803630047
-0.234508702535376,0.205014446926644
-0.233363589893168,0.208983291995337
-0.232205081041711,0.212950996086208
-0.231033172756483,0.216917216449336
-0.229847861812961,0.220881610334801
-0.228649144986623,0.224843834992683
-0.227437019052946,0.228803547673063
-0.226211480787408,0.23276040562602
-0.224972526965486,0.236714066101635
-0.223720154362658,0.240664186349987
-0.222454359754402,0.244610423621158
-0.221175139916194,0.248552435165226
-0.219882491623513,0.252489878232272
-0.218576411651837,0.256422410072376
-0.217256896776641,0.260349687935618
-0.215923943773405,0.264271369072078
-0.214577549417606,0.268187110731837
-0.213217710484721,0.272096570164974
-0.211844423750227,0.27599940462157
-0.210457685989603,0.279895271351704
-0.209057493978326,0.283783827605457
-0.207643844491873,0.287664730632908
-0.206216734305722,0.291537637684139
-0.20477616019535,0.295402206009228
-0.203322118936235,0.299258092858257
-0.201854607303855,0.303104955481304
-0.200373622073687,0.306942451128451
-0.198879160021208,0.310770237049777
-0.197371217921897,0.314587970495363
-0.19584979255123,0.318395308715288
-0.194314880684685,0.322191908959632
-0.19276647909774,0.325977428478476
-0.191204584565872,0.3297515245219
-0.18962919386456,0.333513854339984
-0.188040303769279,0.337264075182808
-0.186437911055508,0.341001844300452
-0.184822012498725,0.344726818942996
-0.183192604874406,0.34843865636052
-0.18154968495803,0.352137013803104
-0.179893249525075,0.355821548520829
-0.178223295351016,0.359491917763775
-0.176539819211333,0.363147778782021
-0.174842817881502,0.366788788825647
-0.173132288137002,0.370414605144734
-0.171408226753309,0.374024884989363
-0.169670630505901,0.377619285609612
-0.167919496170256,0.381197464255562
-0.166154820521852,0.384759078177293
-0.164376600336165,0.388303784624886
-0.162584832388674,0.39183124084842
-0.160779513454855,0.395341104097975
-0.158960640310187,0.398833031623632
-0.157128209730147,0.40230668067547
-0.155282218490213,0.40576170850357
-0.153422663365861,0.409197772358012
-0.151549541132571,0.412614529488876
-0.149662848565818,0.416011637146241
-0.147762582441081,0.419388752580189
-0.145848739533837,0.422745533040799
-0.143921316619564,0.426081635778151
-0.141980310473739,0.429396718042325
-0.14002571787184,0.432690437083401
-0.138057535589344,0.435962450151461
-0.136075760401729,0.439212414496582
-0.134080389084473,0.442439987368847
-0.132071418413053,0.445644826018334
-0.130048845162946,0.448826587695124
-0.12801266610963,0.451984929649297
-0.125962878028582,0.455119509130933
-0.123899477695281,0.458229983390112
-0.121822461885203,0.461316009676915
-0.119731827373827,0.46437724524142
-0.117627570936629,0.467413347333709
-0.115509689349088,0.470423973203862
-0.11337817938668,0.473408780101958
-0.111233037824884,0.476367425278078
-0.109074261439176,0.479299565982302
-0.106901847005035,0.482204859464709
-0.104715791297938,0.48508296297538
-0.102516091093362,0.487933533764396
-0.100302743166785,0.490756229081836
-0.0980757442936851,0.493550706177779
-0.0958350912495389,0.496316622302308
-0.0935807808098244,0.4990536347055
-0.0913128097500189,0.501761400637437
-0.0890311748456003,0.504439577348199
-0.0867358728720457,0.507087822087865
-0.084426900604833,0.509705792106516
-0.0821042548194396,0.512293144654232
-0.079767932291343,0.514849536981093
-0.0774179297960207,0.517374626337179
-0.0750542441089504,0.51986806997257
-0.0726768720056094,0.522329525137346
-0.0702858102614755,0.524758649081588
-0.067881055652026,0.527155099055375
-0.0654626049527387,0.529518532308787
-0.0630304549390908,0.531848606091905
-0.0605846023865602,0.534144977654809
-0.0581250440706241,0.536407304247579
-0.0556517767667603,0.538635243120294
-0.0531647972504462,0.540828451523035
-0.0506641022971594,0.542986586705883
-0.0481496886823773,0.545109305918916
-0.0456215531815776,0.547196266412216
-0.0430796925702377,0.549247125435862
-0.0405241036238354,0.551261540239934
-0.0379547831178478,0.553239168074513
-0.0353717278277529,0.555179666189679
-0.0327749345290278,0.557082691835511
-0.0301643999971505,0.55894790226209
-0.0275401210075981,0.560774954719496
-0.0249020943358485,0.562563506457809
-0.0222503167573788,0.564313214727109
-0.0195847850476671,0.566023736777476
-0.0169054959821904,0.56769472985899
-0.0142124463364267,0.569325851221731
-0.0115056328858531,0.57091675811578
-0.00878505240594749,0.572467107791217
-0.00605070167218714,0.573976557498121
-0.00330257746004984,0.575444764486573
-0.000540676545012872,0.576871386006652
0.00223500429744599,0.578256079308439
0.00502446829184944,0.579598501642015
0.00782771866271967,0.580898310257458
0.0106447586345794,0.58215516240485
0.013475591431951,0.583368715334269
0.016320220279357,0.584538626295797
0.0191786484013196,0.585664552539514
0.0220508790223616,0.586746151315499
0.0249369153670052,0.587783079873832
0.0278367606597731,0.588774995464594
0.0307504181251875,0.589721555337865
0.0336778909877712,0.590622416743725
0.0366191824720463,0.591477236932254
0.0395742958025356,0.592285673153532
0.0425432342037612,0.593047382657639
0.0455260009002459,0.593762022694655
0.0485225991165119,0.594429250514661
0.051533032077082,0.595048723367736
0.0545573030064782,0.59562009850396
0.0575954151292235,0.596143033173414
0.0606473716698398,0.596617184626178
0.06371317585285,0.597042210112331
0.0667928309027764,0.597417766881955
0.0698863400441415,0.597743512185128
0.0729937065014676,0.598019103271931
0.0761149334992774,0.598244197392445
0.0792500242620932,0.598418451796749
0.0823989820144376,0.598541523734923
0.0855618099808329,0.598613070457047
0.0887385113858018,0.598632749213202
0.0919290894538664,0.598600217253468
0.0951335474095496,0.598515131827924
0.0983518884773735,0.598377150186651
0.101584115881861,0.598185929579729
0.104830232847534,0.597941127257238
0.108090242598915,0.597642400469258
0.111364148360527,0.597289406465869
0.114651953356892,0.596881802497151
0.117953660812533,0.596419245813185
0.121269273951972,0.595901393664049
0.124598795999731,0.595327903299826
0.127942230180333,0.594698431970594
