0.236389536986333,-0.00681317132243486
-0.425734381797287,-0.457594442093301
-0.362572564468729,-0.362012486348326
-0.519469396934334,-0.49968720124573
-0.676366229399938,-0.637361916143133
0.27304431486852,-0.702741144543321
-0.521123538453823,0.521158546349193
