0.15513623861634,0.0936470780998555
0.156739159811106,0.0976761195210648
0.158353695093029,0.101645442395688
0.159979758616855,0.105555291876758
0.0671946875281551,0.0186976207013862
0.257826844837792,0.212672126968991
0.164926260187209,0.116930451488966
0.166597578226107,0.120604858926141
0.168279995280638,0.124221018734923
0.169973425505548,0.127779176068343
0.171677783055583,0.131279576079435
0.17339298208549,0.134722463921228
0.175118936750014,0.138108084746757
0.176855561203902,0.141436683709052
0.178602769601899,0.144708505961146
0.180360476098753,0.147923796656071
0.182128594849208,0.151082800946859
0.183907040008011,0.154185763986542
0.185695725729908,0.157232930928152
0.187494566169645,0.160224546924721
0.189303475481968,0.163160857129282
0.191122367821624,0.166042106694865
0.192951157343357,0.168868540774504
0.194789758201915,0.17164040452123
0.196638084552044,0.174357943088075
0.198496050548489,0.177021401628072
0.200363570345996,0.179631025294252
0.202240558099313,0.182187059239648
0.204126927963184,0.184689748617292
0.206022594092356,0.187139338580215
0.207927470641575,0.189536074281449
0.209841471765587,0.191880200874028
0.211764511619138,0.194171963510982
0.213696504356974,0.196411607345344
0.215637364133841,0.198599377530146
0.217587005104486,0.200735519218419
0.336322056086305,0.313456563228154
0.221512287246092,0.204853897717511
0.223487756726545,0.206836624834393
0.22547166401976,0.208768704066875
0.227463923280483,0.210650380567989
0.229464448663459,0.212481899490768
0.231473154323435,0.214263505988243
0.233489954415158,0.215995445213446
0.235514763093372,0.217677962319409
0.141021463423982,0.11301096852217
0.239588062828261,0.220895710785746
0.241636382194428,0.222431432452183
0.138691944355725,0.114343679820729
0.245755930697937,0.225357796416755
0.136205146733097,0.135268442933766
0.24990545326132,0.228092355577138
0.25199124020233,0.229388321238338
0.367168353533509,0.328856290792871
0.256184436176715,0.231838850487918
0.258291673519583,0.232993904382362
0.260405889305896,0.23410247799395
0.356084422302547,0.325476082558701
0.264654912827841,0.236181164980691
0.266789548872966,0.237151768661906
0.26893081998052,0.238076872672395
0.271078640305249,0.23895672216519
0.384458503599872,0.344698893132078
0.377106942342108,0.341272659310234
0.27756053812995,0.241327195067725
0.279733696870842,0.242028478020061
0.281912975602639,0.242685732219863
0.284098288480088,0.243299202820162
0.286289549657936,0.243869134973991
0.288486673290927,0.244395773834382
0.290689573533808,0.244879364554366
0.292898164541326,0.245320152286976
0.295112360468226,0.245718382185244
0.297332075469254,0.246074299402202
0.299557223699157,0.246388149090882
0.30178771931268,0.246660176404316
0.30402347646457,0.246890626495536
0.423335259808057,0.345763150346508
0.308510432002433,0.247227775623462
0.310761458697899,0.247334964966233
0.403235242263524,0.358180997435202
0.31527818071563,0.247427798974548
0.317543704347387,0.247413933946158
0.319813888600733,0.247360207766778
0.322088647630415,0.24726686558944
0.324367895591178,0.247134152567177
0.326651546637768,0.246962313853021
0.328939514924931,0.246751594600003
0.331231714607414,0.246502239961156
0.333528059839963,0.246214495089512
0.217904883974288,0.150495206355135
0.338132843574241,0.245524815259959
0.340441110385464,0.245123370608116
0.342753179365736,0.244684516335603
0.243129142123011,0.148389307748522
0.347388380452414,0.243695559540698
0.349711340868312,0.243145947324371
0.352037760072245,0.242559906099502
0.354367552218958,0.241937681019125
0.243984290677849,0.1434713605931
0.359036911959709,0.240585659903972
0.361376307863239,0.239856354175261
0.363718733328534,0.239091845203169
0.36606410251034,0.238292378140729
0.368412329563403,0.237458198140972
0.370763328642468,0.236589550356931
0.373117013902283,0.235686679941637
0.375473299497592,0.234749832048123
0.377832099583143,0.233779251829421
0.380193328313681,0.232775184438563
0.382556899843952,0.23173787502858
0.384922728328703,0.230667568752505
0.387290727922679,0.229564510763371
0.500696926736668,0.326623827075637
0.392032897057292,0.227261120258049
0.394406894907421,0.226061278047927
0.291853658471644,0.111860752103009
0.399160287947054,0.223566525477918
0.40153951144605,0.222272105424096
0.403920305137495,0.220946649728439
0.406302583176134,0.219590403543977
0.507382315450541,0.335398754848743
0.411071248913977,0.216786520320772
0.413457464922675,0.215339373588092
0.41584482189755,0.213862416978737
0.418233233993351,0.212355895645739
0.420622615364821,0.210820054742129
0.423012880166709,0.209255139420939
0.425403942553759,0.207661394835203
0.427795716680718,0.206039066137952
0.430188116702332,0.204388398482217
0.432581056773347,0.202709637021031
0.434974451048509,0.201003026907426
0.437368213682564,0.199268813294435
0.439762258830258,0.197507241335088
0.442156500646337,0.195718556182418
0.444550853285548,0.193903002989458
0.446945230902637,0.192060826909239
0.449339547652349,0.190192273094793
0.45173371768943,0.188297586699153
0.454127655168627,0.18637701287535
0.456521274244686,0.184430796776417
0.458914489072353,0.182459183555385
0.461307213806374,0.180462418365286
0.370372541691729,0.0755612150241234
0.583334945442808,0.268185310361729
0.46848158899402,0.174323662510913
0.470871494900917,0.172228740974869
0.473260481487899,0.17010989323492
0.475648462909711,0.167967364444096
0.478035353321099,0.16580139975543
0.572547828236316,0.281111970303431
0.482805517731589,0.1614001432967
0.485188620040184,0.1591653418327
0.487570287957339,0.156908085082986
0.489950435637801,0.154628618200591
0.492328977236316,0.152327186338545
0.49470582690763,0.150004034649882
0.497080898806489,0.147659408287634
0.386238748598717,0.0509755443388783
0.501825365905826,0.142906712154508
0.504194589415797,0.140499132689694
0.506561691772298,0.138071059163424
0.391521986824751,0.0314049215234083
0.511289189643871,0.133154410538638
0.513649413468436,0.130666325746187
0.516007172758515,0.128158727504407
0.518362381668854,0.12563186096633
0.520714954354198,0.123085971284988
0.523064804969295,0.120521303613413
0.525411847668889,0.117938103104636
0.527755996607728,0.115336614911691
0.530097165940557,0.112717084187608
0.644579525807672,0.228209687694355
0.534770222407171,0.107424875758161
0.537101937850447,0.104752688358861
0.539430330306698,0.102063439040551
0.541755313930669,0.099357372956265
0.544076802877107,0.0966347352590342
0.546394711300758,0.0938957711018909
0.644223197783279,0.199775021797493
0.450181025800933,-0.0306868419003661
0.553326094982448,0.0855833714013063
0.555628822862411,0.0827815529348333
0.557927540993317,0.079964633773608
0.560222163529912,0.0771328590706625
0.562512604626943,0.0742864739790288
0.564798778439155,0.0714257236517389
0.469979486413501,-0.023469779788205
0.46179734394244,-0.0422355111719756
0.571630837714341,0.0627597327862531
0.573899083934739,0.0598439730466591
0.576162633644049,0.0569150738365694
0.578421400997018,0.0539732803090159
0.58067530014839,0.0510188376170304
0.582924245252912,0.0480519909136453
0.683788971921925,0.1496595222277
0.587406929940392,0.0420820660848043
0.58964049783284,0.0390794782654123
0.591868768297424,0.0360654670467488
0.594091655488888,0.0330402775818459
0.596309073561978,0.0300041550237355
0.598520936671441,0.0269573445254499
0.600727158972023,0.0239000912400209
0.602927654618469,0.0208326403204807
0.700111318679951,0.12964650882068
0.607311122567941,0.0146681261911947
0.609493923180458,0.011571553287513
0.499821199579965,-0.0841472188220382
0.50277605576414,-0.110424577371949
0.616005561426089,0.00222751305669791
0.618163566826479,-0.000904457016723689
0.620315158810702,-0.00404466350000002
0.622460251533505,-0.00719286124009924
0.624598759149634,-0.0103488050839891
0.626730595813834,-0.0135122498786377
0.628855675680852,-0.0166829504710128
0.630973912905434,-0.0198606617080827
0.633085221642325,-0.0230451384368149
0.635189516046273,-0.0262361355041777
0.637286710272023,-0.0294334077571388
0.63937671847432,-0.0326367100426664
0.532447736924846,-0.155608451831008
0.643534833427545,-0.0390604240992924
0.645602768487963,-0.0422803455643267
0.761694974257636,0.0514671262361266
0.671830820996479,-0.000650950640762774
0.651761053861398,-0.0519694258699305
0.609662810014407,-0.0561208513880798
0.672966664907713,-0.100622888157723
0.609325201539997,-0.109279042217993
0.659862683251583,-0.0649474510220405
0.661867979409152,-0.0682009035656826
0.691019186693765,-0.0380316245890874
0.665853837379538,-0.0747168280884799
0.706654614418409,-0.103422773831626
0.692236853467349,-0.039146780217702
0.669112934634529,-0.103347445441201
0.676687223241187,-0.0996860492581354
0.574277364313893,-0.183506261553603
0.687146025130172,-0.12803540980047
0.643384528049961,-0.0875212187167355
0.634493226278352,-0.0975026484518398
0.683365084197614,-0.104138768826689
0.703607426552659,-0.0738502891150865
0.687157910633714,-0.110687576781902
0.689040368542191,-0.113961955146171
0.66299735273699,-0.15438501731655
0.658047968232913,-0.170082129098043
0.694630890886283,-0.12378204594925
0.739228269888181,-0.0793915026024164
0.674338165622199,-0.0924257734256599
0.707670784476166,-0.0870649906158772
0.801881157045674,-0.0427714815305662
0.70375377280674,-0.140124007140025
0.74809074287609,-0.183534328352067
0.707332793157104,-0.146646371493896
0.756627174608901,-0.134147153787271
0.676479476184813,-0.111165964000963
0.814961728638636,-0.101275995180555
0.682545256356377,-0.206106208846582
0.712688332211294,-0.141267549722211
0.748750074562267,-0.154700905210638
0.733667705954978,-0.152557317709012
0.76387213639762,-0.213193908423013
0.723118182032215,-0.165677336680043
0.724597572512716,-0.179051240182869
0.761188440860013,-0.174807694824141
0.785431611117183,-0.0506903473862604
0.729563781628375,-0.188681538617812
0.731196514245479,-0.191880000034828
0.732817768576435,-0.195072233832807
0.743253438755568,-0.154770602831952
0.810602144160528,-0.12647157923008
0.696777931730427,-0.223217697716671
0.774404121525948,-0.226700328960159
0.635395532514949,-0.322952637216247
0.742299443218844,-0.214081128051127
0.743837945879655,-0.217222904230955
0.745364283492286,-0.220356491567491
0.746878370211484,-0.223481644907702
0.748380120191996,-0.226598119098556
0.749869447588566,-0.229705668987021
0.651281887926343,-0.341642793811741
0.752810491248867,-0.235893015244657
0.754262035822091,-0.238972321307763
0.755700814430358,-0.242041722456353
0.757126741228414,-0.245100973537393
0.758539730371006,-0.248149829397852
0.65809694250094,-0.365048658594632
0.871256538074465,-0.147328204893091
0.762700213413455,-0.257231574125423
0.764060593481649,-0.260236397573237
0.765407606668109,-0.26322960003531
0.766741167127581,-0.266210936358609
0.768061189014812,-0.269180161390103
0.769367586484546,-0.272137029976759
0.77066027369153,-0.275081296965546
0.864788659867123,-0.161769263169924
0.773204173936234,-0.280931045537382
0.883060506250453,-0.182394525602271
0.874304830328541,-0.171282509979791
0.776915051201318,-0.289605027585314
0.778123674081471,-0.29246853677321
0.779317985782097,-0.295317728292012
0.780497900457942,-0.298152356988688
0.781663332263752,-0.300972177710206
0.782814195354272,-0.303776945303534
0.78395040388425,-0.306566414615639
0.693214979609866,-0.417130350120191
0.786178513881561,-0.312098477784056
0.787270243658386,-0.314840581334303
0.788346975493653,-0.317566405991199
0.789408623542107,-0.320275706601714
0.790455101958494,-0.322968238012813
0.791486324897562,-0.325643755071466
0.792502206514055,-0.328302012624641
0.793502660962719,-0.330942765519304
0.794487602398302,-0.333565768602426
0.795456944975548,-0.336170776720972
0.796410602849205,-0.338757544721911
0.797348490174017,-0.341325827452212
0.798270521104732,-0.343875379758842
0.799176609796095,-0.346405956488769
0.800066670402853,-0.348917312488961
0.694499209449413,-0.467992570037519
0.801798363981534,-0.353881381688011
0.802639825262951,-0.356333604580806
0.708308573686896,-0.468969160537993
0.909971492091155,-0.255850251914187
0.805065636932458,-0.363568084595882
0.805841097279866,-0.365938031203031
0.806599842780636,-0.368286795856189
0.807341787589516,-0.370614133402324
0.808066845861251,-0.372919798688402
0.808774931750587,-0.375203546561394
0.809465959412271,-0.377465131868266
0.810139843001047,-0.379704309455986
0.693023498002443,-0.482580011925737
0.811435834578865,-0.384114460861842
0.812057770877398,-0.386284944373915
0.719375393010096,-0.490844766005716
0.813249095267444,-0.390555501251189
0.813818311668449,-0.392655084310326
0.81436978307977,-0.394730543579086
0.706926430687611,-0.512933086912598
0.815419147552343,-0.398808110133351
0.815916868923087,-0.400809727112792
0.816396501923132,-0.402786239689728
0.916342823023755,-0.295449846031999
0.91304334900552,-0.316325939896855
0.81772601224653,-0.40856269947519
0.818132433311236,-0.410436342911788
0.818520336778974,-0.412283656180723
0.818889636804488,-0.41410439412896
0.716560453927514,-0.526437056743109
0.81957208314783,-0.417665163451217
0.819885057775151,-0.419404704519172
0.820179085579233,-0.421116689654303
0.820454080714821,-0.422800873703577
0.820709957336663,-0.424457011513961
0.820946629599505,-0.426084857932425
0.821164011658091,-0.427684167805936
0.821362017667169,-0.429254695981462
0.821540561781485,-0.430796197305971
0.71680858978449,-0.528579048396172
0.821838920944813,-0.433791138789809
0.821958564303317,-0.435244088643075
0.822058402386044,-0.436667031033195
0.822138349347738,-0.438059720807137
0.703839735491621,-0.54686378991655
0.942039989685793,-0.337331633038499
0.822257985054089,-0.44205382290158
0.822257509079116,-0.443323050680493
0.822236712756841,-0.444560800078068
0.82219551024201,-0.445766825941273
0.82213381568937,-0.446940883117077
0.822051543253667,-0.448082726452447
0.821948607089646,-0.449192110794351
0.821824921352053,-0.450268790989757
0.821680400195636,-0.451312521885633
0.821514957775139,-0.452323058328948
0.82132850824531,-0.453300155166668
0.821120965760893,-0.454243567245762
0.927346528738771,-0.339721066719411
0.820642258547283,-0.456028356515944
0.820370922127582,-0.456869243400968
0.820078149372278,-0.457675464915237
0.819763854436117,-0.45844677590572
0.819427951473847,-0.459182931219384
0.819070354640211,-0.459883685703198
0.818690978089958,-0.46054879420413
0.818289735977832,-0.461178011569147
0.81786654245858,-0.461771092645218
0.817421311686947,-0.462327792279309
0.816953957817681,-0.462847865318391
0.816464395005527,-0.463331066609429
0.815952537405231,-0.463777150999392
0.815418299171539,-0.464185873335249
0.814861594459197,-0.464556988463967
