-0.364809092733897,0.848018268980786
-0.356506507318159,0.842866261226393
-0.348306596295903,0.837753066863877
-0.340208927265393,0.83267853219815
-0.332213067824892,0.827642503534121
-0.324318585572665,0.8226448271767
-0.316525048106975,0.817685349430796
-0.308832023026084,0.81276391660132
-0.301239077928258,0.807880374993182
-0.293745780411759,0.803034570911291
-0.28635169807485,0.798226350660557
-0.279056398515796,0.793455560545891
-0.27185944933286,0.788722046872201
-0.264760418124306,0.784025655944398
-0.257758872488396,0.779366234067392
-0.250854380023395,0.774743627546092
-0.244046508327567,0.770157682685409
-0.237334824999173,0.765608245790252
-0.230718897636479,0.761095163165531
-0.224198293837748,0.756618281116156
-0.217772581201243,0.752177445947037
-0.211441327325228,0.747772503963084
-0.205204099807966,0.743403301469207
-0.199060466247721,0.739069684770315
-0.193009994242756,0.734771500171318
-0.187052251391336,0.730508593977126
-0.181186805291723,0.72628081249265
-0.175413223542181,0.722088002022798
-0.169731073740973,0.717930008872482
-0.164139923486364,0.71380667934661
-0.158639340376616,0.709717859750092
-0.153228892009994,0.705663396387839
-0.14790814598476,0.70164313556476
-0.142676669899179,0.697656923585766
-0.137534031351514,0.693704606755765
-0.132479797940028,0.689786031379668
-0.127513537262985,0.685901043762385
-0.122634816918648,0.682049490208826
-0.117843204505281,0.678231217023899
-0.113138267621148,0.674446070512516
-0.108519573864512,0.670693896979587
-0.103986690833637,0.666974542730021
-0.0995391861267854,0.663287854068727
-0.0951766273422218,0.659633677300616
-0.0908985820782096,0.656011858730598
-0.0867046179330122,0.652422244663583
-0.082594302504893,0.648864681404479
-0.0785672033921157,0.645339015258198
-0.0746228881929439,0.64184509252965
-0.070760924505641,0.638382759523743
-0.0669808799284707,0.634951862545388
-0.0632823220596963,0.631552247899494
-0.0596648184975816,0.628183761890973
-0.05612793684039,0.624846250824733
-0.052671244686385,0.621539561005683
-0.0492943096338303,0.618263538738736
-0.0459966992809892,0.615018030328799
-0.0427779812261256,0.611802882080783
-0.0396377230675027,0.608617940299598
-0.0365754924033842,0.605463051290153
-0.0335908568320336,0.60233806135736
-0.0306833839517145,0.599242816806126
-0.0278526413606903,0.596177163941363
-0.0250981966572247,0.593140949067979
-0.0224196174395812,0.590134018490886
-0.0198164713060233,0.587156218514993
-0.0172883258548145,0.584207395445209
-0.0148347486842184,0.581287395586445
-0.0124553073924986,0.57839606524361
-0.0101495695779186,0.575533250721615
-0.00791710283874193,0.572698798325369
-0.00575747477323205,0.569892554359781
-0.00367025297965267,0.567114365129763
-0.00165500505626719,0.564364076940223
0.000288701398660808,0.561641536096072
0.0021612987868678,0.55894658890222
0.00396321951009016,0.556279081663575
0.00569489597006446,0.55363886068505
0.0073567605685271,0.551025772271552
0.00894924570721452,0.548439662727991
0.0104727837878632,0.54588037835928
0.0119278072122096,0.543347765470325
0.0133147483819902,0.540841670366038
0.0146340396989415,0.538361939351329
0.0158861135647998,0.535908418731107
0.0170714023813017,0.533480954810282
0.0181903385501836,0.531079393893764
0.019243354473182,0.528703582286462
0.0202308825520333,0.526353366293288
0.021153355188474,0.52402859221915
0.0220112047842406,0.521729106368959
0.0228048637410695,0.519454755047624
0.0235347644606972,0.517205384560055
0.02420133934486,0.514980841211162
0.0248050207952946,0.512780971305855
0.0253462412137373,0.510605621149044
0.0258254330019247,0.508454637045639
0.0262430285615931,0.506327865300549
0.026599460294479,0.504225152218685
0.0268951606023189,0.502146344104956
0.0271305618868492,0.500091287264272
0.0273060965498065,0.498059828001543
0.0274221969929271,0.496051812621678
0.0274792956179475,0.494067087429589
0.0274778248266042,0.492105498730184
0.0274182170206336,0.490166892828374
0.0273009046017723,0.488251116029067
0.0271263199717565,0.486358014637175
0.0268948955323229,0.484487434957607
0.0266070636852079,0.482639223295274
0.0262632568321479,0.480813225955083
0.0258639073748794,0.479009289241947
0.0254094477151388,0.477227259460774
0.0249003102546627,0.475466982916474
0.0243369273951874,0.473728305913958
0.0237197315384494,0.472011074758134
0.0230491550861852,0.470315135753914
0.0223256304401313,0.468640335206207
0.021549590002024,0.466986519419922
0.0207214661735999,0.46535353469997
0.0198416913565954,0.46374122735126
0.018910697952747,0.462149443678703
0.0179289183637912,0.460578029987207
0.0168967849914643,0.459026832581684
0.0158147302375029,0.457495697767042
0.0146831865036434,0.455984471848193
0.0135025861916224,0.454493001130045
0.012273361703176,0.453021131917508
0.010995945440041,0.451568710515493
0.00967076980395379,0.45013558322891
0.00829826719665074,0.448721596362667
0.00687887001986837,0.447326596221675
0.00541301067534312,0.445950429110844
0.00390112156481147,0.444592941335084
0.00234363509000982,0.443253979199304
0.000740983652674707,0.441933389008414
-0.000906400345457463,0.440631017067325
-0.00259808450265019,0.439346709680946
-0.00433363641716706,0.438080313154187
-0.00611262368727159,0.436831673791958
-0.00793461391122732,0.435600637899169
-0.0097991746872978,0.43438705178073
-0.0117058736137466,0.433190761741549
-0.0136542782888372,0.432011614086538
-0.0156439563108331,0.430849455120607
-0.017674475277998,0.429704131148664
-0.0197454027885953,0.428575488475621
-0.0218563064408886,0.427463373406386
-0.0240067538331415,0.42636763224587
-0.0261963125636174,0.425288111298982
-0.0284245502305799,0.424224656870633
-0.0306910344322926,0.423177115265732
-0.032995332767019,0.422145332789189
-0.0353370128330226,0.421129155745915
-0.037715642228567,0.420128430440818
-0.0401307885519158,0.419143003178808
-0.0425820194013323,0.418172720264797
-0.0450689023750803,0.417217428003693
-0.0475910050714233,0.416276972700406
-0.0501478950886247,0.415351200659846
-0.0527391400249481,0.414439958186924
-0.0553643074786571,0.413543091586548
-0.0580229650480153,0.41266044716363
-0.0607146803312861,0.411791871223077
-0.063439020926733,0.410937210069802
-0.0661955544326197,0.410096310008713
-0.0689838484472097,0.409269017344719
-0.0718034705687665,0.408455178382732
-0.0746539883955536,0.407654639427662
-0.0775349695258347,0.406867246784417
-0.0804459815578731,0.406092846757907
-0.0833865920899327,0.405331285653043
-0.0863563687202766,0.404582409774735
-0.0893548790471686,0.403846065427892
-0.0923816906688723,0.403122098917424
-0.0954363711836511,0.402410356548242
-0.0985184881897686,0.401710684625254
-0.101627609285488,0.401022929453371
-0.104763302069074,0.400346937337502
-0.107925134138788,0.399682554582558
-0.111112673092896,0.399029627493449
-0.11432548652966,0.398388002375083
-0.117563142047344,0.397757525532372
-0.120825207244212,0.397138043270225
-0.124111249718526,0.396529401893551
-0.127420837068551,0.395931447707262
-0.13075353689255,0.395344027016265
-0.134108916788787,0.394766986125473
-0.137486544355525,0.394200171339793
-0.140885987191027,0.393643428964137
-0.144306812893558,0.393096605303414
-0.147748589061381,0.392559546662533
-0.151210883292759,0.392032099346406
-0.154693263185956,0.391514109659941
-0.158195296339235,0.391005423908048
-0.16171655035086,0.390505888395638
-0.165256592819095,0.39001534942762
-0.168814991342203,0.389533653308904
-0.172391313518447,0.389060646344401
-0.175985126946092,0.388596174839018
-0.1795959992234,0.388140085097668
-0.183223497948636,0.387692223425259
-0.186867190720062,0.387252436126702
-0.190526645135943,0.386820569506906
-0.194201428794541,0.386396469870781
-0.197891109294121,0.385979983523237
-0.201595254232945,0.385570956769183
-0.205313431209278,0.385169235913531
-0.209045207821383,0.384774667261189
-0.212790151667524,0.384387097117068
-0.216547830345964,0.384006371786077
-0.220317811454966,0.383632337573126
-0.224099662592795,0.383264840783125
-0.227892951357713,0.382903727720985
-0.231697245347985,0.382548844691614
-0.235512112161873,0.382200037999922
-0.239337119397641,0.381857153950821
-0.243171834653554,0.381520038849218
-0.247015825527874,0.381188539000025
-0.250868659618865,0.380862500708151
-0.25472990452479,0.380541770278506
-0.258599127843913,0.380226194016
-0.262475897174498,0.379915618225543
-0.266359780114808,0.379609889212044
-0.270250344263107,0.379308853280414
-0.274147157217658,0.379012356735561
-0.278049786576725,0.378720245882398
-0.281957799938571,0.378432367025832
-0.285870764901459,0.378148566470774
-0.289788249063655,0.377868690522134
-0.29370982002342,0.377592585484821
-0.297635045379018,0.377320097663746
-0.301563492728714,0.377051073363819
-0.30549472967077,0.376785358889949
-0.30942832380345,0.376522800547045
-0.313363842725017,0.376263244640019
-0.317300854033736,0.37600653747378
-0.32123892532787,0.375752525353237
-0.325177624205682,0.375501054583301
-0.329116518265435,0.375251971468881
-0.333055175105394,0.375005122314888
-0.336993162323822,0.374760353426231
-0.340930047518982,0.37451751110782
-0.344865398289138,0.374276441664564
-0.348798782232554,0.374036991401375
-0.352729766947492,0.373799006623161
-0.356657920032217,0.373562333634833
-0.360582809084993,0.3733268187413
-0.364504001704081,0.373092308247472
-0.368421065487748,0.372858648458259
-0.372333568034254,0.372625685678572
-0.376241076941865,0.372393266213319
-0.380143159808844,0.37216123636741
-0.384039384233455,0.371929442445757
-0.38792931781396,0.371697730753268
-0.391812528148623,0.371465947594853
-0.395688582835709,0.371233939275422
-0.39955704947348,0.371001552099885
-0.4034174956602,0.370768632373152
-0.407269488994133,0.370535026400133
-0.411112597073542,0.370300580485738
-0.41494638749669,0.370065140934876
-0.418770427861842,0.369828554052457
-0.422584285767261,0.369590666143392
-0.426387528811209,0.369351323512589
-0.430179724591952,0.36911037246496
-0.433960440707752,0.368867659305413
-0.437729244756873,0.368623030338859
-0.441485704337579,0.368376331870208
-0.445229387048132,0.368127410204369
-0.448959860486797,0.367876111646252
-0.452676692251837,0.367622282500767
-0.456379449941516,0.367365769072825
-0.460067701154097,0.367106417667334
-0.463741013487844,0.366844074589205
-0.46739895454102,0.366578586143348
-0.471041091911888,0.366309798634672
-0.474666993198713,0.366037558368087
-0.478276225999758,0.365761711648504
-0.481868357913287,0.365482104780831
-0.485442956537562,0.36519858406998
-0.488999589470848,0.364910995820859
-0.492537824311408,0.364619186338379
-0.496057228657505,0.36432300192745
-0.499557370107404,0.364022288892981
-0.503037816259367,0.363716893539882
-0.506498134711658,0.363406662173063
-0.509937893062542,0.363091441097435
-0.51335665891028,0.362771076617906
-0.516753999853138,0.362445415039387
-0.520129483489377,0.362114302666787
-0.523482677417263,0.361777585805017
-0.526813149235058,0.361435110758986
-0.530120466541026,0.361086723833605
-0.533404196933431,0.360732271333782
-0.536663908010535,0.360371599564429
-0.539899167370604,0.360004554830454
-0.543109542611899,0.359630983436768
-0.546294601332685,0.35925073168828
-0.549453911131226,0.3588636458899
-0.552587039605784,0.358469572346539
-0.555693554354624,0.358068357363106
-0.558773022976008,0.357659847244511
-0.561825013068201,0.357243888295664
-0.564849092229466,0.356820326821475
-0.567844828058066,0.356389009126853
-0.570811788152265,0.355949781516708
-0.573749540110327,0.355502490295951
-0.576657651530515,0.355046981769491
-0.579535690011093,0.354583102242238
-0.582383223150324,0.354110698019102
-0.585199818546471,0.353629615404992
-0.587985043797799,0.35313970070482
-0.590738466502571,0.352640800223493
-0.59345965425905,0.352132760265924
-0.5961481746655,0.35161542713702
-0.598803595320184,0.351088647141692
-0.601425483821367,0.350552266584851
-0.60401340776731,0.350006131771405
-0.606566934756279,0.349450089006265
-0.609085632386537,0.34888398459434
-0.611569068256347,0.348307664840541
-0.614016809963972,0.347720976049777
-0.616428425107677,0.347123764526958
-0.618803481285724,0.346515876576995
-0.621141546096378,0.345897158504796
-0.623442187137902,0.345267456615272
-0.625704972008558,0.344626617213332
-0.627929468306612,0.343974486603887
-0.630115243630327,0.343310911091847
-0.632261865577965,0.34263573698212
-0.634368901747791,0.341948810579618
-0.636435919738068,0.341249978189249
-0.63846248714706,0.340539086115925
-0.64044817157303,0.339815980664554
-0.642392540614242,0.339080508140046
-0.644295161868959,0.338332514847312
-0.646155602935444,0.337571847091261
-0.647973431411962,0.336798351176804
-0.649748214896776,0.336011873408849
-0.65147952098815,0.335212260092307
-0.653166917284346,0.334399357532088
-0.654809971383629,0.333573012033102
-0.656408250884262,0.332733069900258
-0.657961323384509,0.331879377438466
-0.659468756482632,0.331011780952636
-0.660930117776897,0.330130126747679
-0.662344974865565,0.329234261128503
-0.663712895346901,0.32832403040002
-0.665033446819169,0.327399280867137
-0.666306196880632,0.326459858834767
-0.667530713129552,0.325505610607818
-0.668706563164195,0.3245363824912
-0.669833314582824,0.323552020789823
-0.670910534983701,0.322552371808597
-0.671937791965091,0.321537281852432
-0.672914653125256,0.320506597226238
-0.673840686062462,0.319460164234924
-0.674715458374971,0.318397829183401
-0.675538537661046,0.317319438376578
-0.676309491518952,0.316224838119365
-0.677027887546951,0.315113874716672
-0.677693293343308,0.313986394473409
-0.678305276506286,0.312842243694486
-0.678863404634148,0.311681268684812
-0.679367245325158,0.310503315749298
-0.67981636617758,0.309308231192854
-0.680210334789676,0.308095861320388
-0.680548718759711,0.306866052436812
-0.680831085685949,0.305618650847035
-0.681057003166652,0.304353502855966
-0.681226038800084,0.303070454768517
-0.681337760184509,0.301769352889595
-0.68139173491819,0.300450043524112
-0.681387530599391,0.299112372976978
-0.681324714826375,0.297756187553101
-0.681202855197407,0.296381333557393
-0.681021519310749,0.294987657294763
-0.680780274764664,0.29357500507012
-0.680478689157418,0.292143223188375
-0.680116330087272,0.290692157954437
-0.679692765152491,0.289221655673217
-0.679207561951338,0.287731562649624
-0.678660288082077,0.286221725188568
-0.678050511142971,0.284691989594959
-0.677377798732284,0.283142202173707
-0.676641718448279,0.281572209229721
-0.67584183788922,0.279981857067912
-0.674977724653371,0.27837099199319
-0.674048946338994,0.276739460310463
-0.673055070544354,0.275087108324643
-0.671995664867714,0.273413782340639
-0.670870296907338,0.271719328663361
-0.669678534261488,0.270003593597718
-0.66841994452843,0.268266423448621
-0.667094095306425,0.26650766452098
-0.665700554193738,0.264727163119703
-0.664238888788633,0.262924765549702
-0.662708666689372,0.261100318115887
-0.66110945549422,0.259253667123166
-0.66110945549422,0.259253667123166
-0.659481032806167,0.25739391670093
-0.657863380501524,0.255530340078826
-0.656256372588534,0.253663037212144
-0.654659883075438,0.251792108056177
-0.65307378597048,0.249917652566215
-0.651497955281902,0.248039770697551
-0.649932265017946,0.246158562405475
-0.648376589186855,0.244274127645281
-0.646830801796871,0.242386566372258
-0.645294776856237,0.2404959785417
-0.643768388373195,0.238602464108897
-0.642251510355987,0.236706123029141
-0.640744016812857,0.234807055257724
-0.639245781752046,0.232905360749938
-0.637756679181797,0.231001139461073
-0.636276583110353,0.229094491346422
-0.634805367545956,0.227185516361276
-0.633342906496848,0.225274314460927
-0.631889073971272,0.223360985600667
-0.63044374397747,0.221445629735786
-0.629006790523685,0.219528346821578
-0.62757808761816,0.217609236813332
-0.626157509269136,0.215688399666342
-0.624744929484856,0.213765935335898
-0.623340222273563,0.211841943777292
-0.6219432616435,0.209916524945816
-0.620553921602907,0.207989778796762
-0.619172076160029,0.20606180528542
-0.617797599323108,0.204132704367083
-0.616430365100385,0.202202575997043
-0.615070247500104,0.20027152013059
-0.613717120530506,0.198339636723017
-0.612370858199836,0.196407025729615
-0.611031334516333,0.194473787105675
-0.609698423488243,0.19254002080649
-0.608371999123806,0.190605826787351
-0.607051935431265,0.18867130500355
-0.605738106418863,0.186736555410377
-0.604430386094842,0.184801677963126
-0.603128648467445,0.182866772617087
-0.601832767544914,0.180931939327552
-0.600542617335492,0.178997278049812
-0.59925807184742,0.17706288873916
-0.597979005088942,0.175128871350887
-0.596705291068301,0.173195325840285
-0.595436803793737,0.171262352162644
-0.594173417273494,0.169330050273258
-0.592915005515815,0.167398520127416
-0.591661442528941,0.165467861680412
-0.590412602321116,0.163538174887536
-0.589168358900582,0.161609559704081
-0.58792858627558,0.159682116085337
-0.586693158454355,0.157755943986597
-0.585461949445148,0.155831143363152
-0.584234833256201,0.153907814170294
-0.583011683895757,0.151986056363314
-0.581792375372059,0.150065969897504
-0.580576781693349,0.148147654728155
-0.579364776867869,0.14623121081056
-0.578156234903862,0.14431673810001
-0.576951029809571,0.142404336551796
-0.575749035593237,0.140494106121209
-0.574550126263104,0.138586146763543
-0.573354175827414,0.136680558434088
-0.572161058294409,0.134777441088136
-0.570970647672331,0.132876894680978
-0.569782817969424,0.130979019167906
-0.56859744319393,0.129083914504212
-0.56741439735409,0.127191680645188
-0.566233554458148,0.125302417546124
-0.565054788514346,0.123416225162313
-0.563877973530927,0.121533203449047
-0.562702983516133,0.119653452361616
-0.561529692478206,0.117777071855312
-0.560357974425389,0.115904161885428
-0.559187703365924,0.114034822407254
-0.558018753308055,0.112169153376083
-0.556850998260022,0.110307254747205
-0.555684312230069,0.108449226475913
-0.554518569226439,0.106595168517498
-0.553353643257373,0.104745180827252
-0.552189408331115,0.102899363360466
-0.551025738455905,0.101057816072433
-0.549862507639988,0.0992206389184428
-0.548699589891606,0.097387931853788
-0.547536859219001,0.0955597948337601
-0.546374189630415,0.0937363278136506
-0.545211455134091,0.0919176307487513
-0.544048529738272,0.0901038035943537
-0.542885287451199,0.0882949463057493
-0.541721602281115,0.08649115883823
-0.540557348236264,0.0846925411470872
-0.539392399324887,0.0828991931876126
-0.538226629555226,0.0811112149150978
-0.537059912935525,0.0793287062848344
-0.535892123474025,0.0775517672521141
-0.53472313517897,0.0757804977722285
-0.533552822058601,0.0740149978004691
-0.532381058121161,0.0722553672921276
-0.531207717374893,0.0705017062024956
-0.530032673828038,0.0687541144868648
-0.52885580148884,0.0670126921005266
-0.527676974365541,0.0652775389987729
-0.526496066466384,0.0635487551368951
-0.52531295179961,0.061826440470185
-0.524127504373463,0.060110694953934
-0.522939598196184,0.0584016185434339
-0.521749107276017,0.0566993111939763
-0.520555905621203,0.0550038728608527
-0.519359867239985,0.0533154034993548
-0.518160866140606,0.0516340030647743
-0.516958776331308,0.0499597715124026
-0.515753471820334,0.0482928087975315
-0.514544826615926,0.0466332148754526
-0.513332714726326,0.0449810897014574
-0.512117010159777,0.0433365332308377
-0.510897586924522,0.0416996454188849
-0.509674319028803,0.0400705262208908
-0.508447080480861,0.038449275592147
-0.507215745288941,0.036835993487945
-0.505980187461284,0.0352307798635765
-0.504740281006133,0.0336337346743331
-0.50349589993173,0.0320449578755064
-0.502246918246317,0.0304645494223881
-0.500993209958138,0.0288926092702697
-0.499734649075434,0.0273292373744429
-0.498471109606449,0.0257745336901993
-0.497202465559424,0.0242285981728306
-0.495928590942602,0.0226915307776282
-0.494649359764225,0.0211634314598839
-0.493364646032536,0.0196444001748892
-0.492074323755778,0.0181345368779359
-0.490778266942193,0.0166339415243155
-0.489476349600023,0.0151427140693195
-0.48816844573751,0.0136609544682397
-0.486854429362898,0.0121887626763677
-0.485534174484429,0.0107262386489951
-0.484207555110345,0.00927348234141338
-0.482874445248888,0.00783059370891429
-0.481534718908302,0.00639767270678948
-0.480188250096828,0.00497481929033051
-0.478834912822709,0.00356213341482899
-0.477474581094188,0.00215971503557653
-0.476107128919507,0.000767664107864802
-0.474732430306908,-0.000613919413014606
-0.473350359264634,-0.00198493557177011
-0.471960789800927,-0.00334528441311005
-0.47056359592403,-0.00469486598174281
-0.469158651642186,-0.00603358032237678
-0.467745830963636,-0.00736132747972035
-0.466325007896623,-0.0086780074984819
-0.464896056449391,-0.00998352042336981
-0.46345885063018,-0.0112777662990924
-0.462013264447234,-0.0125606451703582
-0.460559171908795,-0.0138320570818755
-0.459096447023105,-0.0150919020783526
-0.457624963798408,-0.016340080204498
-0.456144596242945,-0.0175764915050201
-0.454655218364959,-0.0188010360246272
-0.453156704172692,-0.0200136138080277
-0.451648927674388,-0.02121412489993
-0.450131762878287,-0.0224024693450425
-0.448605083792634,-0.0235785471880736
-0.447068764425669,-0.0247422584737316
-0.445522678785637,-0.0258935032467249
-0.443966700880778,-0.0270321815517619
-0.442400704719336,-0.0281581934335511
-0.440824564309554,-0.0292714389368007
-0.439238153659673,-0.0303718181062191
-0.437641346777936,-0.0314592309865147
-0.436034017672585,-0.0325335776223961
-0.434416040351863,-0.0335947580585714
-0.432787288824013,-0.034642672339749
-0.431147637097277,-0.0356772205106375
-0.429496959179897,-0.036698302615945
-0.427835129080116,-0.0377058187003802
-0.426162020806177,-0.0386996688086512
-0.424477508366321,-0.0396797529854665
-0.422781465768791,-0.0406459712755345
-0.42107376702183,-0.0415982237235636
-0.419354286133681,-0.042536410374262
-0.417622897112584,-0.0434604312723383
-0.415879473966784,-0.0443701864625008
-0.414123890704523,-0.0452655759894579
-0.412356021334042,-0.046146499897918
-0.410575739863585,-0.0470128582325894
-0.408782920301394,-0.0478645510381806
-0.406977436655711,-0.0487014783593998
-0.40515916293478,-0.0495235402409556
-0.403327973146841,-0.0503306367275562
-0.401483741300138,-0.0511226678639101
-0.399626341402914,-0.0518995336947256
-0.397755647463411,-0.0526611342647112
-0.39587153348987,-0.0534073696185751
-0.393973873490535,-0.0541381398010259
-0.392062541473649,-0.0548533448567718
-0.390137411447453,-0.0555528848305213
-0.38819835742019,-0.0562366597669827
-0.386245253400102,-0.0569045697108644
-0.384277973395433,-0.0575565147068748
-0.382296391414424,-0.0581923947997223
-0.380300381465318,-0.0588121100341153
-0.378289817556357,-0.0594155604547621
-0.376264573695785,-0.0600026461063711
-0.374224523891842,-0.0605732670336508
-0.372169542152772,-0.0611273232813094
-0.370099502486818,-0.0616647148940554
-0.368014278902221,-0.0621853419165972
-0.365913745407224,-0.0626891043936431
-0.36379777601007,-0.0631759023699015
-0.361666244719002,-0.0636456358900808
-0.35951902554226,-0.0640982049988894
-0.357355992488089,-0.0645335097410357
-0.35517701956473,-0.064951450161228
-0.352981980780427,-0.0653519263041748
-0.35077075014342,-0.0657348382145844
-0.348543201661954,-0.0661000859371651
-0.34629920934427,-0.0664475695166254
-0.34403864719861,-0.0667771889976738
-0.341761389233218,-0.0670888444250184
-0.339467309456336,-0.0673824358433678
-0.337156281876206,-0.0676578632974302
-0.33482818050107,-0.0679150268319141
-0.332482879339172,-0.068153826491528
-0.330120252398754,-0.0683741623209801
-0.327740173688057,-0.0685759343649787
-0.325342517215325,-0.0687590426682325
-0.3229271569888,-0.0689233872754496
-0.320493967016725,-0.0690688682313385
-0.318042821307341,-0.0691953855806076
-0.315573593868892,-0.0693028393679651
-0.313086158709619,-0.0693911296381197
-0.310580389837766,-0.0694601564357795
-0.308056161261575,-0.069509819805653
-0.305513346989288,-0.0695400197924486
-0.302951821029148,-0.0695506564408747
-0.300371457389397,-0.0695416297956396
-0.297772130078278,-0.0695128399014517
-0.295153713104032,-0.0694641868030194
-0.292516080474903,-0.0693955705450511
-0.289859106199134,-0.0693068911722552
-0.287182664284966,-0.06919804872934
-0.284486628740641,-0.0690689432610139
-0.281770873574404,-0.0689194748119853
-0.279035272794495,-0.0687495434269627
-0.276279700409157,-0.0685590491506543
-0.273504030426634,-0.0683478920277686
-0.270708136855166,-0.0681159721030139
-0.267891893702998,-0.0678631894210986
-0.26505517497837,-0.0675894440267312
-0.262197854689527,-0.0672946359646199
-0.259319806844709,-0.0669786652794732
-0.25642090545216,-0.0666414320159994
-0.253501024520122,-0.066282836218907
-0.250560038056838,-0.0659027779329043
-0.24759782007055,-0.0655011572026997
-0.2446142445695,-0.0650778740730016
-0.241609185561931,-0.0646328285885183
-0.238582517056086,-0.0641659207939582
-0.235534113060206,-0.0636770507340298
-0.232463847582535,-0.0631661184534414
-0.229371594631315,-0.0626330239969015
-0.226257228214787,-0.0620776674091182
-0.223120622341196,-0.0614999487348001
-0.219961651018783,-0.0608997680186556
-0.21678018825579,-0.0602770253053929
-0.213576108060461,-0.0596316206397206
-0.210349284441037,-0.058963454066347
-0.207099591405761,-0.0582724256299804
-0.203826902962876,-0.0575584353753293
-0.200531093120624,-0.0568213833471019
-0.197212035887247,-0.0560611695900069
-0.193869605270988,-0.0552776941487523
-0.190503675280089,-0.0544708570680468
-0.187114119922794,-0.0536405583925986
-0.183700813207343,-0.0527866981671162
-0.180263629141981,-0.0519091764363079
-0.176802441734948,-0.0510078932448821
-0.173317124994489,-0.0500827486375471
-0.169807552928844,-0.0491336426590115
-0.166273599546257,-0.0481604753539835
-0.16271513885497,-0.0471631467671715
-0.159132044863226,-0.0461415569432839
-0.155524191579267,-0.0450956059270292
-0.151891453011335,-0.0440251937631156
-0.148233703167674,-0.0429302204962515
-0.144550816056524,-0.0418105861711454
-0.14084266568613,-0.0406661908325057
-0.137109126064733,-0.0394969345250406
-0.133350071200575,-0.0383027172934587
-0.1295653751019,-0.0370834391824682
-0.12575491177695,-0.0358390002367775
-0.121918555233967,-0.0345693005010951
-0.118056179481194,-0.0332742400201293
-0.114167658526872,-0.0319537188385885
-0.110252866379246,-0.0306076370011811
-0.106311677046556,-0.0292358945526154
-0.102343964537046,-0.0278383915375999
-0.0983496028589581,-0.0264150280008429
-0.0943284660205346,-0.0249657039870529
-0.0902804280300178,-0.0234903195409381
-0.0862053628956507,-0.021988774707207
-0.0821031446256751,-0.0204609695305679
-0.0779736472283342,-0.0189068040557293
-0.0738167447118697,-0.0173261783273995
-0.0696323110845248,-0.0157189923902869
-0.0654202203545414,-0.0140851462890999
-0.0611803465301623,-0.0124245400685469
-0.0569125636196296,-0.0107370737733361
-0.0526167456311863,-0.00902264744817623
-0.0482927665730744,-0.00728116113777535
-0.0439405004535366,-0.005512514886842
-0.0395598212808153,-0.00371660874008451
-0.035150603063153,-0.00189334274221132
-0.030712719808792,-4.26169379307076e-05
-0.0262460455259751,0.00183566862804881
-0.0217504542229443,0.00374161391101901
-0.0172258199079426,0.00567531886627134
-0.012672016589212,0.00763688344909756
-0.00808891827499532,0.00962640761478917
-0.00347639897353465,0.0116439913186379
0.00116566730692716,0.0136897345159353
0.00583740655814796,0.015763737161973
0.010538944771885,0.0178660992120426
0.0152704079398962,0.0199969206214358
0.0200319220539385,0.022156301345444
0.0248236131057701,0.0243443413393592
0.0296456070871481,0.0265611405584726
0.0344980299898302,0.0288067989580761
0.0393810078055738,0.0310814164934612
0.0442946665261367,0.0333850931199196
0.0492391321432761,0.0357179287927427
0.0542145306487499,0.0380800234672225
0.0592209880343152,0.0404714770986503
0.06425863029173,0.0428923896423178
0.0693275834127514,0.0453428610535166
0.0744279733891374,0.0478229912875385
0.079559926212645,0.0503328802996748
0.0847235678750323,0.0528726280452174
0.0899190243680562,0.0554423344794577
0.095146421683475,0.0580420995576876
0.100405885813045,0.0606720232351984
0.105697542748526,0.063332205467282
0.111021518481673,0.0660227462092296
0.116377939004245,0.0687437454163334
0.121766930307999,0.0714953030438845
0.127188618384693,0.0742775190471748
0.132643129226084,0.0770904933814959
0.138130588823929,0.0799343260021393
0.143651123169987,0.0828091168643967
0.149204858256015,0.0857149659235598
0.154791920073771,0.08865197313492
0.160412434615011,0.0916202384537691
0.166066527871493,0.0946198618353986
0.171754325834976,0.0976509432351003
0.177475954497216,0.100713582608166
0.183231539849971,0.103807879909886
0.189021207884999,0.106933935095554
0.194845084594057,0.11009184812046
0.200703295968903,0.113281718939896
0.206595968001293,0.116503647509154
0.212523226682987,0.119757733783526
0.218485198005741,0.123044077718302
0.224482007961312,0.126362779268775
0.230513782541459,0.129713938390236
0.236580647737939,0.133097655037978
0.242682729542509,0.13651402916729
0.248820153946927,0.139963160733466
0.25499304694295,0.143445149691797
0.261201534522337,0.146960095997574
0.267445742676844,0.150508099606088
0.273725797398229,0.154089260472633
0.28004182467825,0.157703678552498
0.286393950508664,0.161351453800977
0.292782300881229,0.16503268617336
0.299207001787702,0.168747475624939
0.30566817921984,0.172495922111005
0.312165959169402,0.176278125586851
0.318700467628145,0.180094186007768
0.325271830587826,0.183944203329047
0.331880174040203,0.187828277505981
0.338525623977033,0.19174650849386
0.345208306390075,0.195698996247976
0.351928347271085,0.199685840723622
0.358685872611821,0.203707141876088
0.36548100840404,0.207762999660666
0.372313880639501,0.211853514032649
0.37918461530996,0.215978784947326
0.386093338407176,0.220138912359991
0.393040175922905,0.224333996225935
0.400025253848905,0.228564136500449
0.407048698176935,0.232829433138824
0.41411063489875,0.237129986096354
0.42121119000611,0.241465895328328
0.42835048949077,0.245837260790039
0.43552865934449,0.250244182436779
0.442745825559026,0.254686760223839
0.450002114126136,0.25916509410651
0.457297651037578,0.263679284040085
