0.00573649040566782,-0.728895859150815
0.790610571454133,-0.831782611811318
-0.995992062976987,-0.0289970220859799
0.0558824837854626,0.573003972905338
1.10775703054791,1.17500496789666
0.655269548442373,0.77513976136427
-0.333029185087019,-0.378730373664366
