-0.956701888193355,-0.0951126179306856
-0.948843674354767,-0.100985873748718
-0.940997290205803,-0.106823232931871
-0.933162772450493,-0.11262478683008
-0.92534015779287,-0.118390626793285
-0.917529482936965,-0.124120844171423
-0.909730784586807,-0.129815530314433
-0.90194409944643,-0.135474776572251
-0.894169464219863,-0.141098674294816
-0.886406915611138,-0.146687314832066
-0.878656490324286,-0.152240789533939
-0.870918225063338,-0.157759189750372
-0.863192156532326,-0.163242606831304
-0.855478321435281,-0.168691132126672
-0.847776756476232,-0.174104856986414
-0.840087498359213,-0.179483872760469
-0.832410583788253,-0.184828270798774
-0.824746049467385,-0.190138142451266
-0.817093932100639,-0.195413579067885
-0.809454268392047,-0.200654671998567
-0.801827095045639,-0.205861512593251
-0.794212448765446,-0.211034192201874
-0.786610366255501,-0.216172802174375
-0.779020884219834,-0.221277433860691
-0.771444039362475,-0.22634817861076
-0.763879868387458,-0.231385127774521
-0.756328407998811,-0.23638837270191
-0.748789694900567,-0.241358004742867
-0.741263765796757,-0.246294115247328
-0.733750657391412,-0.251196795565232
-0.726250406388563,-0.256066137046516
-0.718763049492241,-0.260902231041119
-0.711288623406478,-0.265705168898979
-0.703827164835304,-0.270475041970033
-0.69637871048275,-0.275211941604218
-0.688943297052849,-0.279915959151474
-0.68152096124963,-0.284587185961738
-0.674111739777126,-0.289225713384948
-0.666715669339367,-0.293831632771042
-0.659332786640384,-0.298405035469957
-0.651963128384209,-0.302946012831631
-0.644606731274872,-0.307454656206004
-0.637263632016406,-0.311931056943011
-0.62993386731284,-0.316375306392592
-0.622617473868207,-0.320787495904684
-0.615314488386537,-0.325167716829225
-0.608024947571861,-0.329516060516153
-0.600748888128211,-0.333832618315405
-0.593486346759618,-0.338117481576921
-0.586237360170112,-0.342370741650637
-0.579001965063726,-0.346592489886491
-0.57178019814449,-0.350782817634422
-0.564572096116435,-0.354941816244367
-0.557377695683593,-0.359069577066265
-0.550197033549995,-0.363166191450052
-0.543030146419671,-0.367231750745667
-0.535877070996653,-0.371266346303049
-0.528737843984972,-0.375270069472134
-0.52161250208866,-0.37924301160286
-0.514501082011747,-0.383185264045167
-0.507403620458265,-0.38709691814899
-0.500320154132244,-0.39097806526427
-0.493250719737716,-0.394828796740942
-0.486195353978712,-0.398649203928945
-0.479154093559264,-0.402439378178218
-0.472126975183401,-0.406199410838697
-0.465114035555156,-0.409929393260322
-0.45811531137856,-0.413629416793029
-0.451130839357644,-0.417299572786756
-0.444160656196438,-0.420939952591442
-0.437204798598974,-0.424550647557025
-0.430263303269284,-0.428131749033442
-0.423336206911398,-0.431683348370631
-0.416423546229348,-0.43520553691853
-0.409525357927164,-0.438698406027077
-0.402641678708878,-0.44216204704621
-0.395772545278521,-0.445596551325867
-0.388917994340124,-0.449002010215986
-0.382078062597718,-0.452378515066504
-0.375252786755335,-0.455726157227359
-0.368442203517005,-0.45904502804849
-0.36164634958676,-0.462335218879834
-0.354865261668631,-0.465596821071329
-0.348098976466649,-0.468829925972914
-0.341347530684845,-0.472034624934525
-0.334610961027251,-0.475211009306101
-0.327889304197896,-0.47835917043758
-0.321182596900814,-0.481479199678899
-0.314490875840034,-0.484571188379997
-0.307814177719588,-0.487635227890812
-0.301152539243507,-0.49067140956128
-0.294505997115822,-0.493679824741341
-0.287874588040565,-0.496660564780932
-0.281258348721767,-0.499613721029991
-0.274657315863457,-0.502539384838456
-0.268071526169669,-0.505437647556265
-0.261501016344433,-0.508308600533355
-0.25494582309178,-0.511152335119665
-0.248405983115741,-0.513968942665133
-0.241881533120347,-0.516758514519695
-0.23537250980963,-0.519521142033292
-0.228878949887621,-0.522256916555859
-0.22240089005835,-0.524965929437335
-0.21593836702585,-0.527648272027659
-0.209491417494151,-0.530304035676767
-0.203060078167284,-0.532933311734598
-0.19664438574928,-0.535536191551089
-0.190244376944171,-0.538112766476179
-0.183860088455988,-0.540663127859806
-0.177491556988762,-0.543187367051906
-0.171138819246524,-0.545685575402419
-0.164801911933305,-0.548157844261282
-0.158480871753136,-0.550604264978434
-0.152175735410049,-0.553024928903811
-0.145886539608075,-0.555419927387351
-0.139613321051244,-0.557789351778994
-0.133356116443588,-0.560133293428676
-0.127114962489139,-0.562451843686336
-0.120889895891927,-0.564745093901911
-0.114680953355983,-0.567013135425339
-0.108488171585338,-0.569256059606558
-0.102311587284025,-0.571473957795507
-0.0961512371560727,-0.573666921342122
-0.090007157905514,-0.575835041596343
-0.0838793862363794,-0.577978409908106
-0.0777679588527001,-0.58009711762735
-0.0716729124585072,-0.582191256104012
-0.0655942837578319,-0.58426091668803
-0.0595321094547055,-0.586306190729343
-0.0534864262531589,-0.588327169577889
-0.0474572708572233,-0.590323944583604
-0.0414446799709299,-0.592296607096427
-0.0354486902983099,-0.594245248466297
-0.0294693385433946,-0.59616996004315
-0.0235066614102147,-0.598070833176925
-0.0175606956028016,-0.599947959217559
-0.0116314778251866,-0.601801429514991
-0.00571904478140067,-0.603631335419159
0.000176566824524993,-0.605437768279999
0.00605532028855932,-0.607220819447451
0.0119171789066711,-0.608980580271452
0.0177621059748291,-0.61071714210194
0.0235900647890022,-0.612430596288852
0.0294010186451594,-0.614121034182128
0.0351949308392694,-0.615788547131704
0.0409717646673012,-0.617433226487519
0.0467314834252235,-0.61905516359951
0.0524740504090051,-0.620654449817615
0.058199428914615,-0.622231176491773
0.063907582238022,-0.623785434971921
0.0695984736751949,-0.625317316607997
0.0752720665221027,-0.626826912749939
0.0809283240747141,-0.628314314747685
0.0865672096289979,-0.629779613951172
0.0921886864809232,-0.631222901710339
0.0977927179264587,-0.632644269375123
0.103379267261573,-0.634043808295463
0.108948297782235,-0.635421609821296
0.114499772784415,-0.636777765302561
0.120033655564079,-0.638112366089194
0.125549909417198,-0.639425503531135
0.131048497639741,-0.64071726897832
0.136529383527676,-0.641987753780688
0.141992530376971,-0.643237049288177
0.147437901483597,-0.644465246850724
0.152865460143521,-0.645672437818268
0.158275169652712,-0.646858713540746
0.163666993307141,-0.648024165368096
0.169040894402774,-0.649168884650257
0.174396836235581,-0.650292962737166
0.179734782101532,-0.65139649097876
0.185054695296594,-0.652479560724978
0.190356539116737,-0.653542263325759
0.195640276857929,-0.654584690131038
0.20090587181614,-0.655606932490755
0.206153287287338,-0.656609081754848
0.211382486567492,-0.657591229273254
0.21659343295257,-0.658553466395911
0.221786089738543,-0.659495884472757
0.226960420221378,-0.660418574853731
0.232116387697045,-0.661321628888769
0.237253955461512,-0.66220513792781
0.242373086810748,-0.663069193320791
0.247473745040722,-0.663913886417651
0.252555893447403,-0.664739308568328
0.25761949532676,-0.665545551122759
0.262664513974761,-0.666332705430882
0.267690912687375,-0.667100862842635
0.272698654760572,-0.667850114707957
0.27768770349032,-0.668580552376784
0.282658022172588,-0.669292267199056
0.287609574103345,-0.669985350524709
0.292542322578559,-0.670659893703681
0.2974562308942,-0.671315988085911
0.302351262346236,-0.671953725021337
0.307227380230636,-0.672573195859896
0.31208454784337,-0.673174491951526
0.316922728480405,-0.673757704646165
0.321741885437711,-0.674322925293751
0.326541982011257,-0.674870245244222
0.331322981497011,-0.675399755847516
0.336084847190943,-0.675911548453571
0.34082754238902,-0.676405714412324
0.345551030387213,-0.676882345073714
0.350255274481489,-0.677341531787678
0.354940237967818,-0.677783365904154
0.359605884142169,-0.67820793877308
0.36425217630051,-0.678615341744395
0.36887907773881,-0.679005666168035
0.373486551753039,-0.67937900339394
0.378074561639164,-0.679735444772046
0.382643070693155,-0.680075081652292
0.387192042210981,-0.680398005384615
0.391721439488611,-0.680704307318954
0.396231225822012,-0.680994078805246
0.400721364507155,-0.681267411193429
0.405191818840008,-0.681524395833441
0.40964255211654,-0.681765124075221
0.41407352763272,-0.681989687268705
0.418484708684516,-0.682198176763832
0.422876058567898,-0.68239068391054
0.427247540578834,-0.682567300058766
0.431599118013293,-0.682728116558449
0.435930754167244,-0.682873224759526
0.440242412336656,-0.683002716011936
0.444534055817498,-0.683116681665615
0.448805647905738,-0.683215213070503
0.453057151897346,-0.683298401576537
0.457288531088289,-0.683366338533655
0.461499748774538,-0.683419115291794
0.465690768252061,-0.683456823200893
0.469861552816827,-0.68347955361089
0.474012065764805,-0.683487397871722
0.478142270391962,-0.683480447333327
0.48225212999427,-0.683458793345644
0.486341607867695,-0.683422527258609
0.490410667308208,-0.683371740422162
0.494459271611776,-0.68330652418624
0.498487384074369,-0.68322696990078
0.502494967991956,-0.683133168915721
0.506481986660506,-0.683025212581001
0.510448403375986,-0.682903192246557
0.514394181434367,-0.682767199262328
0.518319284131617,-0.682617324978251
0.522223674763704,-0.682453660744264
0.526107316626598,-0.682276297910306
0.529970173016268,-0.682085327826313
0.533812207228683,-0.681880841842224
0.53763338255981,-0.681662931307977
0.54143366230562,-0.681431687573509
0.54521300976208,-0.681187201988759
0.548971388225161,-0.680929565903665
0.55270876099083,-0.680658870668164
0.556425091355056,-0.680375207632194
0.560120342613809,-0.680078668145693
0.563794478063057,-0.679769343558599
0.567447460998769,-0.679447325220851
0.571079254716914,-0.679112704482385
0.574689822513461,-0.678765572693139
0.578279127684379,-0.678406021203053
0.581847133525635,-0.678034141362063
0.585393803333201,-0.677650024520107
0.588919100403043,-0.677253762027124
0.592422988031131,-0.676845445233051
0.595905429513435,-0.676425165487825
0.599366388145921,-0.675993014141386
0.602805827224561,-0.675549082543671
0.606223710045322,-0.675093462044617
0.609619999904173,-0.674626243994164
0.612994660097083,-0.674147519742248
0.616347653920021,-0.673657380638807
0.619678944668956,-0.673155918033779
0.622988495639857,-0.672643223277103
0.626276270128692,-0.672119387718716
0.629542231431431,-0.671584502708556
0.632786342844042,-0.671038659596561
0.636008567662493,-0.670481949732669
0.639208869182755,-0.669914464466818
0.642387210700796,-0.669336295148945
0.645543555512584,-0.668747533128989
0.648677866914088,-0.668148269756887
0.651790108201278,-0.667538596382577
0.654880242670122,-0.666918604355998
0.657948233616589,-0.666288385027086
0.660994044336648,-0.665648029745781
0.664017638126268,-0.66499762986202
0.667018978281417,-0.66433727672574
0.669998028098064,-0.66366706168688
0.672954750872179,-0.662987076095378
0.67588910989973,-0.662297411301171
0.678801068476686,-0.661598158654198
0.681690589899016,-0.660889409504396
0.684557637462688,-0.660171255201703
0.687402174463672,-0.659443787096057
0.690224164197936,-0.658707096537396
0.693023569961449,-0.657961274875657
0.695800355050181,-0.65720641346078
0.698554482760099,-0.656442603642701
0.701285916387174,-0.655669936771359
0.703994619227372,-0.654888504196691
0.706680554576664,-0.654098397268635
0.709343685731019,-0.65329970733713
0.711983975986405,-0.652492525752113
0.714601388638791,-0.651676943863522
0.717195886984145,-0.650853053021294
0.719767434318437,-0.650020944575369
0.722315993937636,-0.649180709875683
0.72484152913771,-0.648332440272175
0.727344003214629,-0.647476227114782
0.729823379464361,-0.646612161753443
0.732279621182874,-0.645740335538095
0.734712691666139,-0.644860839818676
0.737122554210123,-0.643973765945124
0.739509172110795,-0.643079205267377
0.741872508664125,-0.642177249135373
0.744212527166082,-0.641267988899049
0.746529190912633,-0.640351515908345
0.748822463199748,-0.639427921513197
0.751092307323396,-0.638497297063543
0.753338686579545,-0.637559733909322
0.755561564264165,-0.636615323400471
0.757760903673225,-0.635664156886928
0.759936668102692,-0.634706325718631
0.762088820848536,-0.633741921245518
0.764217325206727,-0.632771034817526
0.766322144473232,-0.631793757784595
0.76840324194402,-0.630810181496661
0.770460580915061,-0.629820397303662
0.772494124682324,-0.628824496555537
0.774503836541776,-0.627822570602224
0.776489679789388,-0.626814710793659
0.778451617721127,-0.625801008479782
0.780389613632962,-0.624781555010529
0.782303630820864,-0.623756441735839
0.784193632580799,-0.62272576000565
0.786059582208739,-0.6216896011699
0.787901443000649,-0.620648056578527
0.789719178252501,-0.619601217581467
0.791512751260263,-0.61854917552866
0.793282125319903,-0.617492021770044
0.795027263727391,-0.616429847655555
0.796748129778695,-0.615362744535133
0.798444686769784,-0.614290803758714
0.800116897996628,-0.613214116676237
0.801764726755194,-0.61213277463764
0.803388136341452,-0.611046868992861
0.80498709005137,-0.609956491091837
0.806561551180918,-0.608861732284506
0.808111483026064,-0.607762683920807
0.809636848882777,-0.606659437350677
0.811137612047026,-0.605552083924054
0.81261373581478,-0.604440714990876
0.814065183482008,-0.603325421901081
0.815491918344678,-0.602206296004606
0.816893903698759,-0.601083428651391
0.818271102840221,-0.599956911191372
0.819623479065032,-0.598826834974487
0.820950995669161,-0.597693291350675
0.822253615948576,-0.596556371669873
0.823531303199247,-0.595416167282019
0.824784020717143,-0.594272769537051
0.826011731798232,-0.593126269784907
0.827214399738483,-0.591976759375525
0.828391987833865,-0.590824329658842
0.829544459380347,-0.589669071984797
0.830671777673897,-0.588511077703328
0.831773906010486,-0.587350438164372
0.83285080768608,-0.586187244717868
0.83390244599665,-0.585021588713752
0.834928784238164,-0.583853561501964
0.835929785706591,-0.582683254432441
0.8369054136979,-0.58151075885512
0.837855631508059,-0.580336166119941
0.838780402433038,-0.57915956757684
0.839679689768806,-0.577981054575756
0.84055345681133,-0.576800718466626
0.841401666856581,-0.575618650599388
0.842224283200527,-0.574434942323981
0.843021269139136,-0.573249684990342
0.843792587968378,-0.572062969948409
0.844538202984221,-0.57087488854812
0.845258077482635,-0.569685532139412
0.845952174759588,-0.568494992072225
0.846620458111049,-0.567303359696495
0.847262890832987,-0.566110726362161
0.84787943622137,-0.56491718341916
0.848470057572168,-0.56372282221743
0.84903471818135,-0.562527734106909
0.849573381344883,-0.561332010437536
0.850086010358738,-0.560135742559248
0.850572568518883,-0.558939021821982
0.851033019121287,-0.557741939575678
0.851467325461918,-0.556544587170272
0.851875450836746,-0.555347055955702
0.852257358541739,-0.554149437281908
0.852613011872867,-0.552951822498825
0.852942374126097,-0.551754302956393
0.8532454085974,-0.550556970004549
0.853522078582743,-0.549359914993231
0.853772347378096,-0.548163229272377
0.853772347378096,-0.548163229272377
0.853988354203931,-0.546980800908695
0.854162405288865,-0.545826357738374
0.854294714441086,-0.544699750765574
0.85438549546878,-0.543600830994454
0.854434962180134,-0.542529449429173
0.854443328383334,-0.54148545707389
0.854410807886569,-0.540468704932765
0.854337614498024,-0.539479044009956
0.854223962025886,-0.538516325309623
0.854070064278342,-0.537580399835925
0.853876135063579,-0.536671118593022
0.853642388189784,-0.535788332585072
0.853369037465143,-0.534931892816235
0.853056296697844,-0.53410165029067
0.852704379696072,-0.533297456012536
0.852313500268016,-0.532519160985992
0.851883872221862,-0.531766616215198
0.851415709365796,-0.531039672704313
0.850909225508005,-0.530338181457496
0.850364634456677,-0.529661993478906
0.849782150019997,-0.529010959772703
0.849161986006153,-0.528384931343045
0.848504356223332,-0.527783759194092
0.84780947447972,-0.527207294330004
0.847077554583505,-0.526655387754939
0.846308810342873,-0.526127890473056
0.84550345556601,-0.525624653488515
0.844661704061104,-0.525145527805475
0.843783769636342,-0.524690364428096
0.84286986609991,-0.524259014360535
0.841920207259995,-0.523851328606954
0.840935006924784,-0.52346715817151
0.839914478902463,-0.523106354058364
0.83885883700122,-0.522768767271674
0.837768295029242,-0.522454248815599
0.836643066794715,-0.522162649694299
0.835483366105825,-0.521893820911933
0.834289406770761,-0.52164761347266
0.833061402597707,-0.52142387838064
0.831799567394853,-0.521222466640031
0.830504114970384,-0.521043229254993
0.829175259132486,-0.520886017229685
0.827813213689347,-0.520750681568266
0.826418192449155,-0.520637073274896
0.824990409220094,-0.520545043353734
0.823530077810353,-0.520474442808938
0.822037412028118,-0.520425122644669
0.820512625681576,-0.520396933865085
0.818955932578913,-0.520389727474345
0.817367546528317,-0.520403354476609
0.815747681337974,-0.520437665876037
0.814096550816072,-0.520492512676786
0.812414368770796,-0.520567745883017
0.810701349010334,-0.520663216498889
0.808957705342873,-0.52077877552856
0.807183651576599,-0.520914273976191
0.805379401519699,-0.52106956284594
0.80354516898036,-0.521244493141966
0.801681167766769,-0.521438915868429
0.799787611687113,-0.521652682029488
0.797864714549578,-0.521885642629302
0.795912690162352,-0.522137648672031
0.79393175233362,-0.522408551161833
0.79192211487157,-0.522698201102868
0.789883991584389,-0.523006449499295
0.787817596280263,-0.523333147355274
0.78572314276738,-0.523678145674962
0.783600844853926,-0.524041295462521
0.781450916348088,-0.524422447722109
0.779273571058052,-0.524821453457884
0.777069022792006,-0.525238163674007
0.774837485358136,-0.525672429374636
0.77257917256463,-0.526124101563932
0.770294298219673,-0.526593031246052
0.767983076131453,-0.527079069425156
0.765645720108157,-0.527582067105404
0.763282443957972,-0.528101875290955
0.760893461489083,-0.528638344985967
0.758478986509678,-0.5291913271946
0.756039232827945,-0.529760672921014
0.753574414252069,-0.530346233169368
0.751084744590237,-0.53094785894382
0.748570437650637,-0.531565401248529
0.746031707241455,-0.532198711087657
0.743468767170877,-0.53284763946536
0.740881831247092,-0.533512037385799
0.738271113278284,-0.534191755853133
0.735636827072643,-0.534886645871521
0.732979186438353,-0.535596558445123
0.730298405183602,-0.536321344578096
0.727594697116577,-0.537060855274601
0.724868276045465,-0.537814941538798
0.722119355778452,-0.538583454374844
0.719348150123725,-0.5393662447869
0.716554872889471,-0.540163163779124
0.713739737883877,-0.540974062355676
0.71090295891513,-0.541798791520715
0.708044749791416,-0.542637202278401
0.705165324320922,-0.543489145632891
0.702264896311835,-0.544354472588347
0.699343679572343,-0.545233034148926
0.696401887910631,-0.546124681318788
0.693439735134886,-0.547029265102092
0.690457435053296,-0.547946636502999
0.687455201474047,-0.548876646525666
0.684433248205325,-0.549819146174252
0.681391789055319,-0.550773986452918
0.678331037832214,-0.551741018365822
0.675251208344197,-0.552720092917124
0.672152514399456,-0.553711061110983
0.669035169806176,-0.554713773951558
0.665899388372545,-0.555728082443007
0.66274538390675,-0.556753837589492
0.659573370216977,-0.55779089039517
0.656383561111414,-0.558839091864201
0.653176170398247,-0.559898293000744
0.649951411885662,-0.560968344808959
0.646709499381847,-0.562049098293003
0.643450646694988,-0.563140404457038
0.640175067633273,-0.564242114305222
0.636882976004888,-0.565354078841714
0.63357458561802,-0.566476149070673
0.630250110280855,-0.567608175996259
0.626909763801581,-0.568750010622631
0.623553759988385,-0.569901503953948
0.620182312649452,-0.571062506994369
0.61679563559297,-0.572232870748054
0.613393942627127,-0.573412446219161
0.609977447560108,-0.57460108441185
0.606546364200099,-0.575798636330281
0.60310090635529,-0.577004952978612
0.599641287833865,-0.578219885361002
0.596167722444013,-0.579443284481612
0.592680423993918,-0.580675001344599
0.589179606291769,-0.581914886954123
0.585665483145753,-0.583162792314344
0.582138268364055,-0.584418568429421
0.578598175754864,-0.585682066303512
0.575045419126365,-0.586953136940778
0.571480212286746,-0.588231631345377
0.567902769044193,-0.589517400521469
0.564313303206892,-0.590810295473212
0.560712028583032,-0.592110167204766
0.557099158980799,-0.59341686672029
0.553474908208379,-0.594730245023944
0.54983949007396,-0.596050153119887
0.546193118385727,-0.597376442012277
0.54253600695187,-0.598708962705274
0.538868369580572,-0.600047566203038
0.535190420080022,-0.601392103509727
0.531502372258407,-0.602742425629501
0.527804439923913,-0.604098383566519
0.524096836884727,-0.60545982832494
0.520379776949035,-0.606826610908923
0.516653473925025,-0.608198582322628
0.512918141620884,-0.609575593570213
0.509173993844798,-0.610957495655839
0.505421244404955,-0.612344139583664
0.501660107109539,-0.613735376357847
0.49789079576674,-0.615131056982548
0.494113524184744,-0.616531032461926
0.490328506171736,-0.61793515380014
0.486535955535905,-0.61934327200135
0.482736086085437,-0.620755238069714
0.478929111628519,-0.622170903009391
0.475115245973337,-0.623590117824542
0.471294702928078,-0.625012733519325
0.46746769630093,-0.626438601097899
0.463634439900079,-0.627867571564424
0.459795147533711,-0.629299495923058
0.455950033010014,-0.630734225177962
0.452099310137175,-0.632171610333294
0.44824319272338,-0.633611502393213
0.444381894576816,-0.63505375236188
0.44051562950567,-0.636498211243452
0.436644611318128,-0.637944730042089
0.432769053822378,-0.63939315976195
0.428889170826607,-0.640843351407196
0.425005176139,-0.642295155981984
0.421117283567745,-0.643748424490474
0.41722570692103,-0.645203007936825
0.413330660007039,-0.646658757325196
0.409432356633961,-0.648115523659748
0.405531010609983,-0.649573157944638
0.40162683574329,-0.651031511184026
0.39772004584207,-0.652490434382072
0.393810854714509,-0.653949778542934
0.389899476168796,-0.655409394670772
0.385986124013115,-0.656869133769744
0.382071012055654,-0.658328846844011
0.3781543541046,-0.659788384897732
0.37423636396814,-0.661247598935065
0.370317255454461,-0.66270633996017
0.366397242371748,-0.664164458977206
0.36247653852819,-0.665621806990331
0.358555357731973,-0.667078235003707
0.354633913791283,-0.668533594021492
0.350712420514308,-0.669987735047844
0.346791091709234,-0.671440509086923
0.342870141184248,-0.672891767142889
0.338949782747538,-0.6743413602199
0.335030230207289,-0.675789139322116
0.331111697371689,-0.677234955453696
0.327194398048924,-0.6786786596188
0.323278546047181,-0.680120102821586
0.319364355174647,-0.681559136066213
0.315452039239509,-0.682995610356841
0.311541812049954,-0.684429376697629
0.307633887414169,-0.685860286092737
0.303728479140339,-0.687288189546323
0.299825801036653,-0.688712938062547
0.295926066911296,-0.690134382645568
0.292029490572456,-0.691552374299545
0.28813628582832,-0.692966764028637
0.284246666487074,-0.694377402837004
0.280360846356905,-0.695784141728805
0.276479039246,-0.697186831708199
0.272601458962546,-0.698585323779345
0.268728319314729,-0.699979468946403
0.264859834110737,-0.701369118213531
0.260996217158756,-0.70275412258489
0.257137682266973,-0.704134333064637
0.253284443243575,-0.705509600656933
0.249436713896748,-0.706879776365936
0.24559470803468,-0.708244711195806
0.241758639465557,-0.709604256150702
0.237928721997566,-0.710958262234783
0.234105169438894,-0.712306580452209
0.230288195597728,-0.713649061807138
0.226478014282254,-0.714985557303731
0.222674839300659,-0.716315917946145
0.218878884461131,-0.717639994738541
0.215090363571855,-0.718957638685077
0.211309490441019,-0.720268700789912
0.20753647887681,-0.721573032057207
0.203771542687414,-0.72287048349112
0.200014895681018,-0.724160906095811
0.196266751665809,-0.725444150875437
0.192527324449974,-0.72672006883416
0.1887968278417,-0.727988510976138
0.185075475649172,-0.72924932830553
0.18136348168058,-0.730502371826496
0.177661059744108,-0.731747492543194
0.173968423647944,-0.732984541459784
0.170285787200274,-0.734213369580425
0.166613364209286,-0.735433827909277
0.162951368483167,-0.736645767450498
0.159300013830102,-0.737849039208248
0.15565951405828,-0.739043494186686
0.152030082975886,-0.740228983389971
0.148411934391107,-0.741405357822262
0.144805282112131,-0.742572468487719
0.141210339947144,-0.743730166390501
0.137627321704333,-0.744878302534767
0.134056441191885,-0.746016727924677
0.130497912217986,-0.747145293564389
0.126951948590824,-0.748263850458062
0.123418764118585,-0.749372249609857
0.119898572609455,-0.750470342023931
0.116391587871623,-0.751557978704446
0.112898023713274,-0.752635010655558
0.109418093942596,-0.753701288881429
0.105952012367775,-0.754756664386216
0.102499992796998,-0.75580098817408
0.0990622490384518,-0.756834111249179
0.0956389949003235,-0.757855884615673
0.0922304441907995,-0.758866159277721
0.0888368107180669,-0.759864786239482
0.0854583082903123,-0.760851616505115
0.0820951507157227,-0.76182650107878
0.0787475518024847,-0.762789290964636
0.0754157253587855,-0.763739837166841
0.0720998851928114,-0.764677990689556
0.0688002451127497,-0.765603602536939
0.0655170189267868,-0.76651652371315
0.0622504204431097,-0.767416605222347
0.0590006634699052,-0.768303698068691
0.0557679618153602,-0.76917765325634
0.0525525292876613,-0.770038321789454
0.0493545796949956,-0.770885554672191
0.0461743268455496,-0.771719202908711
0.0430119845475103,-0.772539117503173
0.0398677666090644,-0.773345149459737
0.0367418868383989,-0.774137149782561
0.0336345590437004,-0.774914969475806
0.0305459970331559,-0.775678459543629
0.0274764146149519,-0.77642747099019
0.0244260255972756,-0.777161854819649
0.0213950437883135,-0.777881462036164
0.0183836829962527,-0.778586143643895
0.0153921570292797,-0.779275750647002
0.0124206796955816,-0.779950134049643
0.00946946480334492,-0.780609144855977
0.00653872616075676,-0.781252634070164
0.00362867757600369,-0.781880452696363
0.000739532857272712,-0.782492451738733
-0.00212849418724954,-0.783088482201434
-0.00497518974937608,-0.783668395088625
-0.00780034002092024,-0.784232041404464
-0.0106037311936951,-0.784779272153111
-0.0133851494595139,-0.785309938338725
-0.0161443810101898,-0.785823890965466
-0.0188812120375361,-0.786320981037493
-0.0215954287333659,-0.786801059558965
-0.0242868172894924,-0.78726397753404
-0.0269551638977287,-0.787709585966879
-0.0296002547498881,-0.788137735861641
-0.0322218760377838,-0.788548278222485
-0.034819813953229,-0.788941064053569
-0.0373938546880367,-0.789315944359054
-0.0399437844340203,-0.789672770143098
-0.0424693893829929,-0.790011392409861
-0.0449704557267678,-0.790331662163502
-0.047446769657158,-0.79063343040818
-0.0498981173659768,-0.790916548148054
-0.0523242850450373,-0.791180866387284
-0.0547250588861529,-0.791426236130028
-0.0571002250811366,-0.791652508380447
-0.0594495698218017,-0.791859534142698
-0.0617728792999612,-0.792047164420942
-0.0640699397074285,-0.792215250219338
-0.0663405372360167,-0.792363642542044
-0.068584458077539,-0.792492192393221
-0.0708014884238085,-0.792600750777027
-0.0729914144666387,-0.792689168697621
-0.0751540223978423,-0.792757297159163
-0.077289098409233,-0.792804987165812
-0.0793964286926235,-0.792832089721727
-0.0814757994398274,-0.792838455831067
-0.0835269968426576,-0.792823936497992
-0.0855498070929275,-0.792788382726661
-0.0875440163824502,-0.792731645521233
-0.0895094109030389,-0.792653575885867
-0.0914457768465066,-0.792554024824723
-0.0933529004046669,-0.792432843341959
-0.0952305677693326,-0.792289882441735
-0.0970785651323172,-0.79212499312821
-0.0988966786854336,-0.791938026405543
-0.100684694620495,-0.791728833277894
-0.102442399129315,-0.791497264749422
-0.104169578403706,-0.791243171824286
-0.105866018635482,-0.790966405506644
-0.107531506016456,-0.790666816800658
-0.109165826738441,-0.790344256710484
-0.110768766993251,-0.789998576240284
-0.112340112972697,-0.789629626394216
-0.113879650868595,-0.789237258176439
-0.115387166872756,-0.788821322591112
-0.116862447176994,-0.788381670642396
-0.118305277973122,-0.787918153334448
-0.119715445452954,-0.787430621671428
-0.121092735808302,-0.786918926657496
-0.122436935230981,-0.78638291929681
-0.123747829912802,-0.78582245059353
-0.125025206045579,-0.785237371551815
-0.126268849821125,-0.784627533175824
-0.127478547431255,-0.783992786469716
-0.128654085067779,-0.783332982437652
-0.129795248922513,-0.782647972083789
-0.130901825187269,-0.781937606412287
-0.13197360005386,-0.781201736427305
-0.133010359714099,-0.780440213133003
-0.134011890359801,-0.77965288753354
-0.134977978182777,-0.778839610633075
-0.135908409374841,-0.778000233435767
-0.136802970127806,-0.777134606945775
-0.137661446633486,-0.776242582167259
-0.138483625083693,-0.775324010104378
-0.139269291670241,-0.774378741761291
-0.140018232584943,-0.773406628142157
-0.140730234019612,-0.772407520251135
-0.141405082166062,-0.771381269092385
-0.142042563216105,-0.770327725670066
-0.142642463361555,-0.769246740988338
-0.143204568794225,-0.768138166051358
-0.143728665705928,-0.767001851863287
-0.144214540288477,-0.765837649428284
-0.144661978733686,-0.764645409750508
-0.145070767233367,-0.763424983834118
-0.145440691979335,-0.762176222683274
-0.145771539163401,-0.760898977302134
-0.14606309497738,-0.759593098694858
-0.146315145613084,-0.758258437865605
-0.146527477262326,-0.756894845818535
-0.146699876116921,-0.755502173557806
-0.14683212836868,-0.754080272087577
-0.146924020209418,-0.752628992412009
-0.146975337830947,-0.75114818553526
-0.146985867425081,-0.749637702461489
-0.146955395183632,-0.748097394194856
-0.146883707298415,-0.74652711173952
-0.146770589961241,-0.744926706099639
-0.146615829363925,-0.743296028279374
-0.146419211698279,-0.741634929282884
-0.146180523156117,-0.739943260114327
-0.145899549929252,-0.738220871777863
-0.145576078209497,-0.73646761527765
-0.145209894188666,-0.73468334161785
-0.144800784058571,-0.73286790180262
