0.101968192882166,0.0694666210414142
0.0930757127018821,0.11172212221971
0.106513905693605,0.123561282494665
0.0921490850604376,0.12187227344793
0.0917396085033102,0.126889448229574
0.100005739508617,0.10805219698844
0.090122615371731,0.199843402680279
0.0907230867063346,0.141710035939096
0.0904539261821528,0.146573438156707
0.0902191277537131,0.151398536127989
0.102335438575148,0.131955716399105
0.0989166697233062,0.179499162550321
0.0791167324438882,0.144479044318561
0.0896178196974227,0.170316996707267
0.0895505302727288,0.174951406814983
0.0766839435498525,0.17530988778676
0.0895135891756114,0.184106369890991
0.0940599335674794,0.176856232053094
0.0716354692469133,0.190900118788329
0.0942364849710748,0.219484385863666
0.0749715270836743,0.250570123971119
0.0822850481502472,0.219675791679598
0.101834971488823,0.165130767208313
0.121002889620087,0.204005773577456
0.0906256026177557,0.219216275490583
0.109839787908103,0.229598689458612
0.0513843230185936,0.227923196268552
0.0970944456402638,0.226650910804838
0.08188932185248,0.229521358852902
0.0922975811943457,0.239942162947131
0.0699675756541688,0.206477349628535
0.0569770826825449,0.268999035240935
0.0880031721017727,0.269125441397514
0.0738896562767295,0.27272803315126
0.094678060540706,0.259739612128137
0.0943397048151127,0.238686628984773
0.0958206030748507,0.267400184703798
0.0964315167381324,0.271175320273813
0.0889682185045972,0.269613587415477
0.125866062473791,0.274620858958711
0.0970139711816039,0.286009269236145
0.092357685735195,0.297303027730586
0.121171126357927,0.270098017497769
0.100633926069899,0.293057523790419
0.120719916572071,0.322825753743832
0.102232390573716,0.300060121245453
0.11060971457322,0.331485559033782
0.102147809417974,0.310510078083266
0.104807508848156,0.310292291784632
0.0929611363192545,0.329366952203698
0.103620149243265,0.295113535717494
0.107588650585109,0.320199724940688
0.101439376259817,0.360795679536329
0.0785908817211683,0.337460106404319
0.120730331597194,0.359971217158166
0.101414485916304,0.293884723649006
0.136605557464113,0.310273588123073
0.151554506139349,0.347672884238928
0.0954227507059112,0.35575477891541
0.112935998529608,0.31861973552199
0.117090790021673,0.347988600735492
0.109169069922392,0.376035120991596
0.0921856041667048,0.339387352942426
0.0702961387050409,0.366359158876531
0.136620603076904,0.343225133669233
0.123063899797068,0.362184739070361
0.147675859658732,0.373928303244918
0.125581266498329,0.367616843365739
0.126866257672777,0.37028032823665
0.128168405043106,0.372908842333538
0.161220970173587,0.354857685055684
0.123276633672651,0.385256454839544
0.116868924519168,0.37962500952422
0.11376944538342,0.367395518237255
0.134926448058046,0.385528795733147
0.11001367025774,0.399831653499571
0.142072471387801,0.396524347646279
0.132049205552416,0.38883064685013
0.140612443966095,0.395000951423341
0.142070381220362,0.397282813462947
0.185048655662963,0.425483865116669
0.157937134476896,0.359671331585616
0.146527056608612,0.403922463988652
0.153545695013941,0.404094994974478
0.147604347901178,0.387846217250237
0.151102005370084,0.410254377839992
0.152651933025745,0.41229688913287
0.15421385510733,0.414305429693417
0.123841161872112,0.415216145183682
0.150563680825441,0.407087927909849
0.158350946881311,0.431340524859119
0.159794651256436,0.437131698099876
0.154111245994269,0.414712657163638
0.133466984103617,0.446703621273518
0.165459065344453,0.427418699973203
0.184404350330695,0.422377533105491
0.170448230307633,0.385356505579641
0.170429681049436,0.432534667752463
0.174805587025207,0.457259951217862
0.173788102849162,0.435778422363474
0.184144220591885,0.455776848640789
0.1771795905727,0.438889183054492
0.170226295464344,0.409046377897175
0.181864477502414,0.443590150698736
0.185615887460587,0.46339469693581
0.184052587311284,0.444713500528446
0.136843273271967,0.454095178357548
0.177009879470866,0.451524179286444
0.175939092845561,0.40520763964084
0.191030318305336,0.450011175878117
0.192280851623359,0.445374514891022
0.165091048528485,0.466100486519724
0.192601564023832,0.450014262150182
0.18942397308372,0.459680191043761
0.205172082679404,0.472576151621043
0.201653144425742,0.456978013021639
0.214378485286714,0.458344337509738
0.192515216316564,0.470396642924073
0.179062778477942,0.488365711306639
0.22537854368189,0.442640693618703
0.224297047958368,0.468066580045955
0.212408387221784,0.462779906219358
0.214209452262124,0.463634472607525
0.208733727336837,0.491212650048324
0.224138187886765,0.477012268313215
0.223491319581223,0.437232856250372
0.219633486144587,0.454908305378726
0.215243010576065,0.449758451893975
0.225040894335375,0.468092431834133
0.226847633512807,0.468724370394973
0.228654036221261,0.469324727211967
0.215018274243711,0.488473327384965
0.232264685171246,0.470430917845905
0.220496409409802,0.446064030470816
0.235870547065347,0.471411448198924
0.235254716948661,0.462449909797803
0.239469327783584,0.472266762733996
0.233468018115032,0.486352743330614
0.243058733205976,0.472997305914096
0.244849203268735,0.473315927140711
0.241255166446847,0.448814030610588
0.246220487431326,0.462569001654345
0.231913725871957,0.448320132754815
0.230425727256708,0.45909448965978
0.239672509063444,0.476524334577682
0.278844073388186,0.49624883736622
0.261480037852278,0.463966492230565
0.251598521257351,0.450168981827897
0.260784836680893,0.474794007694107
0.262530361129211,0.474804867373674
0.23731669603402,0.443723818009539
0.282699041149622,0.506782286573272
0.267729356800587,0.4746548451254
0.261249682272041,0.477658849301326
0.271161171536878,0.47440321813279
0.256062725215831,0.492136434436767
0.267936775286861,0.477135311443294
0.277036469413741,0.500660072657998
0.277932439762442,0.473538095045929
0.27960434209655,0.473246748965623
0.259694493391378,0.477927490159128
0.282921041743046,0.472574367339807
0.284565265525437,0.472193442910039
0.279402093474776,0.439609854294552
0.287824027183518,0.471342404606144
0.25818336624368,0.457573257456724
0.309532777303428,0.487750248355132
0.308207704405753,0.468669224932554
0.304914472168256,0.479939637186482
0.277278596584343,0.465425719056781
0.307802573101791,0.470558040799486
0.302893978789849,0.479254376482532
0.271837083200467,0.495264466331087
0.302628031640465,0.445794926149091
0.303449558440494,0.465317869246128
0.303229514107874,0.436623217999293
0.292840564535941,0.462737318370698
0.340487213846018,0.479173966317225
0.32431822781467,0.503055715879706
0.326740908383033,0.466269631496737
0.346502381070875,0.444408886429303
0.326580696277076,0.452075445334832
0.337722091303642,0.471556497510478
0.316388612948023,0.457407723835594
0.337609701894166,0.486809474687872
0.307822761556239,0.432396987285006
0.320427162637769,0.454254539477503
0.331516796731676,0.449643604565954
0.328352782688841,0.430918351300394
0.344406097707754,0.471111114285529
0.325577008286934,0.449652743704614
0.326820613777128,0.448431674082542
0.322215078413525,0.460746949122481
0.32383428728435,0.450373523915792
0.34336206006584,0.449200572302486
0.331611009099588,0.443266579615013
0.300205871238819,0.447057357827879
0.329312030110583,0.455910009084534
0.288176847609923,0.451778374253299
0.336093197080849,0.437654846358539
0.347029149027162,0.436144350085865
0.338212978018577,0.434682601341883
0.339241536546724,0.433155078689001
0.332489127135364,0.460484366234677
0.345910737277614,0.416183854122137
0.308868450531049,0.422611691383962
0.336345516332156,0.364258200666813
0.354391529969746,0.389320076292033
0.345347620629361,0.445785880621632
0.331162335243819,0.419535703122925
0.346680185214977,0.419948627635734
0.347506987378929,0.418175370893376
0.330185214865445,0.404806673829001
0.349088751345471,0.414547834971448
0.347142378682465,0.419266376193251
0.357239427233702,0.409600174678941
0.345120952260854,0.443993520150658
0.351956888413176,0.406970228999158
0.352610710120662,0.40500895698358
0.353238673274376,0.403021047874744
0.312626253800575,0.417013489302174
0.350437041368465,0.407515925403005
0.354964543762911,0.396898053567402
0.355486205051562,0.39480415166425
0.361390513321087,0.402412643857835
0.356447363727586,0.390537325504118
0.356886287584963,0.388364512362881
0.377322479317244,0.376669727749575
0.330992615830951,0.398534890569201
0.346095425900371,0.370764423357544
0.329933301590016,0.379167410541815
0.363707510696037,0.369082667271475
0.387753050108693,0.363011395545812
0.382084091931682,0.347689981271237
0.359360093929066,0.37004373940398
0.35953532018275,0.367637192673567
0.35439839279529,0.385578249964501
0.359793285248921,0.362747076942298
0.370382568986591,0.336456853587165
0.354737146555872,0.35750966870472
0.381152299626813,0.357878678733399
0.359931236196551,0.352660312018394
0.37438752036775,0.370754515527464
0.35612857438357,0.323627433538941
0.349908288059199,0.343850318590089
0.351230019386681,0.314753143826792
0.364672624303384,0.331906489793607
0.359158802856492,0.336770497923733
0.378380692531181,0.331836562250744
0.366288488193669,0.313416599951657
0.352972362602549,0.325926340148071
0.348108737975371,0.322724472300972
0.365962726481432,0.319109202649756
0.377249856301489,0.326519853308033
0.375697778294919,0.284501380121838
0.356204400475716,0.314184702052664
0.355674001346508,0.311250277677112
0.343146328541085,0.311810488282313
0.385178749881912,0.287194375532844
0.336107667309962,0.252437398303081
0.393594945903255,0.260241010665862
0.342740778933661,0.2651064777051
0.330194586543434,0.258029202096256
0.331680087159787,0.288949171278382
0.329318876145396,0.329596141232062
0.364199898995384,0.230771643527608
0.339395301585073,0.263128346312735
0.31569193853542,0.292365697666373
0.345476637044784,0.239904212326677
0.361212406872883,0.280910245999822
0.344258594976866,0.267618396367225
0.34867318319878,0.266844893180047
0.341993850259777,0.261001745419191
0.340799605488262,0.257657936713962
0.324762497364214,0.275094914022476
0.362555746108286,0.275640759441779
0.322247149854046,0.262723929897736
0.328150261031814,0.233317807577169
0.323305437624407,0.235504937565191
0.332749856882723,0.237101819391561
0.336654179652823,0.22783231501649
0.327001310731322,0.235388250994607
0.287967364823242,0.254260015911076
0.297497960756776,0.271562018945393
0.324852203211583,0.219331890607674
0.32313946440649,0.215708771798243
0.285723140180646,0.183278512398878
0.319578484605455,0.208393845589702
0.317729670079519,0.204702149306335
0.307317629322339,0.188217168422699
0.31096945040214,0.196200818910492
0.293399400892301,0.210833973060136
0.296202338410448,0.201155640494438
0.307790880595741,0.185903558413409
0.305662171973183,0.182076207244708
0.293968622619578,0.177242808346999
0.298968486086193,0.166982468400333
0.334943779858885,0.175003862567038
0.296667942897014,0.166543211198576
0.2942981031565,0.162604342133569
0.285971628912125,0.136190779319143
0.290190291837597,0.142029820454854
0.314568769439523,0.100202796986162
0.27899034354907,0.131998207471423
0.281706871375216,0.142579054381287
0.281617107694454,0.157436284963531
0.283949640088992,0.1722236520913
0.28187574257168,0.130261058947891
0.28379275952577,0.124599372580699
0.266832970012125,0.134502703566979
0.264927067484808,0.117827969377668
0.254417940957602,0.110192337595247
0.293526272577941,0.101002138873405
0.273294804705945,0.119315214900327
0.249810158242565,0.121584294468343
0.249509900582418,0.0966095972784455
0.21721497685155,0.0772792070756636
0.261565119850582,0.0524636139286579
0.239617797458401,0.0836231537995672
0.236211741996645,0.0792521026172809
0.233567639629661,0.0866679796453806
0.243761278188866,0.0770843233982369
0.238975672731718,0.073528601647114
0.231691628556271,0.0892017024876696
0.239447776904678,0.0715441184225207
0.214614114261899,0.0525861993366545
0.210818284005427,0.0480691346322019
0.233722485260422,0.044344404008461
0.193779666694613,0.0346823975512383
0.199088671134893,0.0343943416916819
0.188576977314612,-0.0211228690224035
0.215599653467961,0.00109213369125944
0.198513731244983,0.0153463591198905
0.182640196511653,0.0158749613348233
0.178381703447073,0.0111943575059149
0.174064087088991,0.00649356129687217
0.168404874593608,-0.0142027178280432
0.165250337432327,-0.00296838603012818
0.153222114450462,-0.023854981489054
0.154355221389822,-0.0195666412140994
0.151579119121115,-0.0173113609248399
0.16717229685969,-0.00566694104711931
0.122413423514805,-0.00545350463984897
0.168200147147213,0.00268797715860285
0.132497675433995,-0.0367130946417027
0.106184344594929,-0.0603539322856674
0.118040400456128,-0.0653764006080251
0.117062989319177,-0.0884243635131515
0.112774618141859,-0.022075373247316
0.107248923859316,-0.0614066731356128
0.101544762948754,-0.0475711857369518
0.0967074572051491,-0.0714200065226824
0.0913408698128694,-0.0764555728396241
0.0224667728396878,-0.0540544247117382
0.0804145530729278,-0.0865842269309629
0.0649634285568522,-0.0798813180995178
0.0692288019591592,-0.0967892059130969
0.0635379215995954,-0.101920178343533
0.0563381663382159,-0.104841525119896
0.050781703763389,-0.103186219973848
0.0811080934207465,-0.10627233225564
0.0367011494178022,-0.118466862367533
0.0108404329393361,-0.142730820236455
0.0262794434048077,-0.125224128528954
0.0218455713661854,-0.138363481490103
0.0160184328263811,-0.167801004412249
0.0339754320251718,-0.16153577683358
0.00390664932104419,-0.144926130734316
0.012879774322082,-0.173715355391566
-0.00996073080359036,-0.164951292785952
0.00688243595905054,-0.158609939081246
-0.019014086756028,-0.16394877113999
-0.0298721388065384,-0.181123398281904
-0.0454513405783489,-0.175117585907334
-0.026427398672702,-0.184384307351719
-0.0780566539264141,-0.177753370233698
-0.0574023061349361,-0.202939082873871
-0.0747922102125509,-0.201837323411544
-0.0715932472795791,-0.213954301098461
-0.0974997903847318,-0.205217384336126
-0.119781428794089,-0.247441829283135
-0.0835762604639619,-0.198634772816503
-0.0839134421603858,-0.253908973827687
-0.129184907176458,-0.240695771625831
-0.107420822176204,-0.274608004666354
-0.0889500961320387,-0.258888017469959
-0.155312116000497,-0.249307987581159
-0.129168278614277,-0.265469098472507
-0.141391322786613,-0.26833495448351
-0.154834412835304,-0.275795054285235
-0.190191326955415,-0.335742688046591
-0.170931626163046,-0.287263771412353
-0.154061365116533,-0.306417243267838
-0.197759714190562,-0.299629161661002
-0.195644179804937,-0.304594400069176
-0.204033973718966,-0.310405068180936
-0.170943947653261,-0.280643883183568
-0.202986675850523,-0.338042085212299
-0.203714895865556,-0.295123763286768
-0.246911187999711,-0.357667065395234
-0.222922034108111,-0.345941348845749
-0.253831784315878,-0.373425479747234
-0.253479023385991,-0.343337443688803
-0.280913664775768,-0.358899249450136
-0.272357868092553,-0.356788352439887
-0.270166390248286,-0.37207329036019
-0.276994268640706,-0.35481614035484
-0.296618944470921,-0.37327638355106
-0.304473479103303,-0.378632541399897
-0.282175376145751,-0.348035253445175
-0.312747648464516,-0.396204798549684
-0.327347168215422,-0.394285254166229
-0.354333724402902,-0.427335395218541
-0.342026763657074,-0.404376640682551
-0.375423315792778,-0.454581329989792
-0.353094194656963,-0.415474720651383
-0.357247854409173,-0.419545272372787
-0.380912535346334,-0.451435653705685
-0.376763885446206,-0.428417783261051
-0.373509728155913,-0.394447024463514
-0.374612674134869,-0.454637764954354
-0.424593256187621,-0.464177047897272
-0.413495763035832,-0.423379291431051
-0.409164628958202,-0.467220809081763
-0.43790822335494,-0.445242628168025
-0.45009471193599,-0.468686610763282
-0.426654090416507,-0.463426075496198
-0.431566294962634,-0.458521337523878
-0.42249675783205,-0.428334316059237
-0.443605199083505,-0.47548094785237
-0.42919163057554,-0.495268941604144
-0.43919209173604,-0.494110275825408
-0.454613576980448,-0.487991602536826
-0.49235781314546,-0.511469755604638
-0.467932318384506,-0.49457993391478
-0.472465825211516,-0.512162392398066
-0.453907921936219,-0.509059803210588
-0.516817168177454,-0.510558403771648
-0.472734459513026,-0.49323759045467
-0.504973864689532,-0.501843411097129
-0.478322964016121,-0.511962164107424
-0.491982803063005,-0.495776426413182
-0.507140322965542,-0.541835326590046
-0.48793792056437,-0.52628113586685
-0.5146110191849,-0.527291580438183
-0.558134077184747,-0.540126044017307
-0.52240819658585,-0.53316459772167
-0.564748764197212,-0.533001557639423
-0.514083222549569,-0.54617774180538
-0.533394072718576,-0.541531036358559
-0.536868886779601,-0.544202777422865
-0.540251028241424,-0.546816434577994
-0.546831914822557,-0.528870069264264
-0.560619715623212,-0.540901966463316
-0.549846815386099,-0.554311614577242
-0.54081899680404,-0.541107526084685
-0.536086061802355,-0.598147181234331
-0.536135017344945,-0.594963652235911
-0.561376531873681,-0.563508465913866
-0.564036726617816,-0.565667214955686
-0.566609107281733,-0.567770320878353
-0.569094213700874,-0.569818054880761
-0.571492585710683,-0.571810688161801
-0.573804763146601,-0.573748491920364
-0.582695134019358,-0.589077883324645
-0.576115170778805,-0.627961125201066
-0.571620959456354,-0.572261677794112
-0.582202323860228,-0.580956835707682
-0.594986038544097,-0.574730757325835
-0.590253404440038,-0.60359435749683
-0.587621903306296,-0.585800672307856
-0.589043648560374,-0.570191790951814
-0.59019890603379,-0.575470595814794
-0.592304599739233,-0.590170569525937
-0.625010616787744,-0.597357694539307
-0.615814320645628,-0.602486771244333
-0.596264988715992,-0.594073849731999
-0.610659986866202,-0.60535946554489
-0.598511163919636,-0.596420420847919
-0.621491386764233,-0.581842251736477
-0.600447110296057,-0.598565030602996
-0.607823929492091,-0.597830430196024
-0.634103929768269,-0.579375667810422
-0.583316050331898,-0.56767581765242
-0.615117328752854,-0.561649397355433
-0.604880458652575,-0.568533121430357
-0.646661839504805,-0.606977129735001
-0.619104543270162,-0.610507890313039
-0.596763862723242,-0.596970995965058
-0.622384685642134,-0.610778404089052
-0.605624563693778,-0.606334594655396
-0.591259996591205,-0.626683543922257
-0.618186566847044,-0.602699651709817
-0.574857753600566,-0.608464280842468
-0.605675097186275,-0.608104626440112
-0.625351828970753,-0.624242731420633
-0.61157262070435,-0.624435116633811
-0.60498744956452,-0.60894661392411
-0.616441973240788,-0.594852877418032
-0.593496687970828,-0.613577581425263
-0.603694098942224,-0.60938056335668
-0.603130900633405,-0.609435803639824
-0.58638141034796,-0.612965176446635
-0.564771911923846,-0.584561138124189
-0.610465455314625,-0.592263480506077
-0.609234539369768,-0.613550501885662
-0.59934859092383,-0.609053637547829
-0.598402644196919,-0.608847429220128
-0.571089708611816,-0.608112476501551
-0.581652498457481,-0.589487904760178
-0.59519555148416,-0.60797413559847
-0.594005235854042,-0.607599052174704
-0.593515478751781,-0.609334704962407
-0.591445916517665,-0.606724534195704
-0.590077992482291,-0.606225642038252
-0.588651945316051,-0.605686022700687
-0.587168314854387,-0.605105947381903
-0.62242382973852,-0.600107526495942
-0.578411460136713,-0.595295620700497
-0.582377322051281,-0.603125697527141
-0.58066875676235,-0.60238651027239
-0.566582230826316,-0.588429818634696
-0.56473026260783,-0.618721430795499
-0.57521591552807,-0.599935433383129
-0.573291052778956,-0.599041473374679
-0.571313465253404,-0.598109498175032
-0.583732304172928,-0.599910009881069
-0.567202275214754,-0.596132586997716
-0.595098755403539,-0.574734502382866
-0.567996373899541,-0.639208246015366
-0.565445872840418,-0.591767560004959
-0.57700543778171,-0.572980172980307
-0.5426492617119,-0.579289839220767
-0.511643850559934,-0.584774850495021
-0.568785723546968,-0.556588127769479
-0.534814686429648,-0.588663889081291
-0.54998090988407,-0.599499837577988
-0.568427981159861,-0.59937627881317
-0.54395494312503,-0.568003641529426
-0.537347856613755,-0.57024430233894
-0.535689767298549,-0.579752462483113
-0.532942000970193,-0.578249127273592
-0.530150687067924,-0.576712387254031
-0.520985914631072,-0.582681011620386
-0.524439575883424,-0.573539777580362
-0.545736744182191,-0.572568278050033
-0.541528225808593,-0.579262853777455
-0.526644977533643,-0.577266035760453
-0.512518535386963,-0.566805633263795
-0.520427397464241,-0.588597973886139
-0.517639219172787,-0.544742118033833
-0.487251582576133,-0.566691655396408
-0.478908124099231,-0.566052495867958
-0.476293804580156,-0.542481708419954
-0.493454709576754,-0.555764648232865
-0.474320205575717,-0.577079811904196
-0.500973721432262,-0.523716171147292
-0.500766953699184,-0.544460162930215
-0.480007700300928,-0.547802791071412
-0.479262962296544,-0.549185571108826
-0.469893210601442,-0.524319490135978
-0.436686389916964,-0.544928007014422
-0.443022022125464,-0.533324347828977
-0.453545327775223,-0.537583060247566
-0.515833927687946,-0.531159996357365
-0.44024860972211,-0.510564532665212
-0.423468996034314,-0.537256681514942
-0.451631225789428,-0.533204489625477
-0.461947089973473,-0.5049627047368
-0.408950068466852,-0.535338361995674
-0.43650531469386,-0.521222381330751
-0.432685949565753,-0.518834873337933
-0.389283493580863,-0.508485971721275
-0.40437465986645,-0.52631830589049
-0.42106589845943,-0.51152182109531
-0.442446632600924,-0.527951616474927
-0.413189632974641,-0.506523724702334
-0.409864128085968,-0.519054760055314
-0.379065217484608,-0.525310753693958
-0.426634485806251,-0.515509702032709
-0.399069470996468,-0.481550313083907
-0.414302754172209,-0.490327148378755
-0.389740208094338,-0.47372995032454
-0.375752047290679,-0.473148234652323
-0.380741624534305,-0.485596521088498
-0.376588449282686,-0.482879928388762
-0.365888992203544,-0.471296947685518
-0.366388258097175,-0.444750857651252
-0.374972040403224,-0.482098231699731
-0.359783198486336,-0.471801548990668
-0.365940690958948,-0.453453247070989
-0.351272600910435,-0.466138950916611
-0.333202323740197,-0.420362799116012
-0.342695780127441,-0.460396973380726
-0.33838388562189,-0.457496895311827
-0.341056926422822,-0.456630936295418
-0.360857689041002,-0.430194355962821
-0.316239820898558,-0.446346964673217
-0.320992342999662,-0.445708982337321
-0.302878143949816,-0.421744872404219
-0.316637343530338,-0.441384152818131
-0.3422773672106,-0.41159267234511
-0.317155820874737,-0.409252924910705
-0.279890443501914,-0.402470311283187
-0.270142136368984,-0.428066521009973
-0.290086014358852,-0.424399636570454
-0.285630513447181,-0.421289082403013
-0.281166554265377,-0.418162751353489
-0.242163467293243,-0.419545045632745
-0.272215420433145,-0.41186384340376
-0.290750815047132,-0.388119807119487
-0.28549232306933,-0.395257293541772
-0.237749138650712,-0.366886287938866
-0.285687649399643,-0.421282658609687
-0.183326278332145,-0.426212518161456
-0.213663579779556,-0.407094782887467
-0.207330072685253,-0.383237467778777
-0.259592434389746,-0.388735430757202
-0.231659150373451,-0.382809398474265
-0.227135799114598,-0.379514898353293
-0.216994365201768,-0.389438889287848
-0.221326656412748,-0.39194853566787
-0.213559262223554,-0.369558975006995
-0.209033388339853,-0.366217096893406
-0.229615847516306,-0.380746645528179
-0.205847768340559,-0.377249064608326
-0.231797049268671,-0.338187027533598
-0.20133931613359,-0.364754529900211
-0.186425599616128,-0.349345632789415
-0.219771908236904,-0.337143070504271
-0.168139617455751,-0.38410055094362
-0.182675063704192,-0.347966297414747
-0.168397655597448,-0.335670245196464
-0.190889799374921,-0.333239666093857
-0.135117986570632,-0.312870867834733
-0.154933371398876,-0.325321135341172
-0.160876539735192,-0.318937009960638
-0.143812592708701,-0.337202968037434
-0.159000398978347,-0.311969140725483
-0.161423786315022,-0.32555829977393
-0.156088932334585,-0.275812576146289
-0.114407922473867,-0.318526507618479
-0.12379379410932,-0.300908944295865
-0.119384867607642,-0.297395263953178
-0.134802097089581,-0.287789231931466
-0.103242118344229,-0.276419226184875
-0.106229341291882,-0.286820852582129
-0.106067839013491,-0.294172558389812
-0.0656655336160467,-0.286338340448974
-0.07372664442162,-0.320756217472217
-0.0888750508357005,-0.272653898045707
-0.0907894425848377,-0.27223345945701
-0.0751707092182193,-0.274907891237216
-0.0737985326019279,-0.281563751746506
-0.0717654722091114,-0.258425437415662
-0.0484070185174366,-0.270649536715983
-0.0513131483247254,-0.215067538340791
-0.0645918560628952,-0.263123003889171
-0.0429616877889014,-0.289999651518148
-0.0507752588919092,-0.24057981057588
-0.0743993280339948,-0.212039476232212
-0.04251646577527,-0.233429838061938
-0.000657894837594653,-0.256150692369523
-0.0286405634298919,-0.232886744300889
0.00691169406629349,-0.229055495829317
0.0111077327019231,-0.25916993095325
-0.0222505019902697,-0.215544586254423
-0.0370824368336374,-0.215058502596117
-0.0244538893185199,-0.193506515582417
-0.0271650143755715,-0.212829730007642
-0.00646526536542077,-0.201243668540523
-0.00258283461611361,-0.197671710732271
0.0303197827866891,-0.19960780806362
-0.00735690668591546,-0.166395742092834
0.00193829856227243,-0.180084372748434
0.0130183128420892,-0.178414278236789
0.0102741037863051,-0.160308048569779
-0.003564840518041,-0.163371625937875
0.0265959393242219,-0.167761133569152
0.0440802233226053,-0.147159905979705
0.0310958653603761,-0.16563993138927
0.0617157338217417,-0.114040845902013
0.0382474916081143,-0.158562007625254
0.0417747208144277,-0.155030161494321
0.0452688409617804,-0.15150342079596
0.0435269464802055,-0.133035000753171
0.0521555947378323,-0.144466340492522
0.0244162847993985,-0.135662072174105
0.0667386142239419,-0.177151484771103
0.0398775813697615,-0.113281371008998
0.0873287012395294,-0.124328873755728
0.0532181792742208,-0.134736913938203
0.0719650957648822,-0.123505834648664
0.0805227141656239,-0.14477853603476
0.0635184952144207,-0.124431622168153
0.0813645717546182,-0.113123794546754
0.0775546270340147,-0.122979835090939
0.0755035173966576,-0.0856330029146062
0.0904077639858887,-0.102816992818288
0.0978271356737122,-0.104705868805915
0.0876984229686953,-0.063664723416104
0.0688704103138889,-0.0910628738951786
0.101885942127085,-0.089204283931745
0.104648421420058,-0.0858260742416624
0.114759596981383,-0.0676341812678866
0.110041122867113,-0.0791015142916028
0.112670265350309,-0.0757557064294089
0.107991583746369,-0.068859323705605
0.106308047530863,-0.0793936111918952
0.11890701686734,-0.0473976951066786
0.140173319026466,-0.0654550338807729
0.12512230194527,-0.0592022362024632
0.127470195251959,-0.0559285543661203
0.136422244258518,-0.0599253946595465
0.106690033972602,-0.0906898780707251
0.125704009511483,-0.0253041514713791
0.136368727256277,-0.0429662410139565
0.110007978205154,-0.0447224258612992
0.140514610828775,-0.036568329518282
0.151398185101437,-0.0261727187166875
0.116976970628496,-0.0211630208931753
0.145294649238069,-0.030004761392587
0.123436204188172,-0.00982247229164662
0.125276623278677,0.0165233478932527
0.14416914451318,-0.0296157866288334
0.142591117089846,-0.0421135066758886
0.161658231157862,0.00143747786560919
0.185648020148478,0.0215936231967368
0.130186866173551,0.00635386991291558
0.171226035233315,0.010814976170826
0.173722594169318,-0.0311063394087208
0.150130917196763,0.0167276642013092
0.152557746048951,0.0418644029312714
0.169983099454983,0.0214612828806099
0.165559688781687,0.0207728344569419
0.158558886099763,-0.00154718953795704
0.169743836801877,0.0225787853555054
0.18625542346126,-0.0219174119828319
0.16122313944543,0.0652036658438118
0.183961040298956,0.0174419404952138
0.171440348690203,0.0294776749272465
0.135293351034253,0.0130076664955289
0.203759957117633,0.0294592248701575
0.173390217709935,0.0377772166451898
0.150745692064426,0.0769514023820357
0.156642849115285,0.0639191872399339
0.174750594059927,0.0458843620685076
0.136736897480807,0.0478530524492713
0.166833117943879,0.0578885427488364
0.174546043380785,0.0713158256470711
0.175622248275215,0.0563819502263494
0.175668316333579,0.0589488358672619
0.201471998722025,0.0627916865194141
0.177681263225907,0.0281966800660677
0.194903942432848,0.0629833888220141
0.147000934459034,0.0652740822315396
0.15729145010036,0.0763006528604128
0.174459655192822,0.0738461716502772
0.177642340395399,0.0867267792011509
0.173478071336823,0.0786134498283753
0.158846999438651,0.077598047685215
0.19081376187487,0.0554810476739326
0.175585460020245,0.0878681176377352
0.170620946309953,0.0878372380134128
0.169717274905887,0.0900768596971463
0.159386371755073,0.0902153544552215
0.167678885072839,0.0944746142373411
0.166543086972972,0.0966322046960191
0.15291652033877,0.0961183161730272
0.164309755531686,0.0829070749878586
0.162662801914679,0.102936574439676
0.17561567499361,0.096791413991379
0.113030044634024,0.127489870145174
0.160394294150033,0.131204513090055
0.172288915151893,0.144402933263078
0.126400765997406,0.0823044609460785
0.132566577763978,0.117391092506547
0.151762896289277,0.109303245610551
0.161658305831742,0.115134487420004
0.176273849185736,0.149342840770032
0.160779851826234,0.171470316287066
0.137855586874311,0.122388487166461
0.159446241342177,0.106995809499259
0.13593209754566,0.116797307209444
0.141266421117371,0.134334825968459
0.122984432778771,0.159428818200894
0.146572487770479,0.152573417297306
0.168375612414812,0.151581127059335
0.123736820742554,0.135082259817945
0.121745779608396,0.120144694238206
0.112822794739944,0.150682913435897
0.119354478955657,0.173902488777528
0.111246610575373,0.140803853717502
0.107895529816629,0.142148264910223
0.104451958100221,0.143457738792293
0.10612505776339,0.140257660762077
0.0921528691531737,0.141342988892303
0.0935608988505791,0.147173824585683
0.0784314854762335,0.13199448055634
0.0747602859498954,0.12309748594296
