0.317432560799224,-0.34945292139419
0.319364145366375,-0.354286776087493
0.321249009323963,-0.359089468536967
0.323087336860361,-0.363861047754484
0.32487931216394,-0.368601562751916
0.326625119423074,-0.373311062541134
0.328324942826132,-0.377989596134011
0.329978966561489,-0.382637212542419
0.331587374817515,-0.387253960778229
0.333150351782583,-0.391839889853315
0.334668081645064,-0.396395048779547
0.336140748593331,-0.400919486568798
0.337568536815756,-0.40541325223294
0.33895163050071,-0.409876394783844
0.340290213836566,-0.414308963233384
0.341584471011695,-0.41871100659343
0.34283458621447,-0.423082573875855
0.344040743633263,-0.42742371409253
0.345203127456445,-0.431734476255329
0.346321921872389,-0.436014909376122
0.347397311069466,-0.440265062466783
0.348429479236049,-0.444484984539182
0.349418610560509,-0.448674724605192
0.350364889231219,-0.452834331676684
0.35126849943655,-0.456963854765532
0.352129625364875,-0.461063342883607
0.352948451204566,-0.46513284504278
0.353725161143993,-0.469172410254924
0.354459939371531,-0.473182087531911
0.35515297007555,-0.477161925885613
0.355804437444422,-0.481111974327902
0.35641452566652,-0.48503228187065
0.356983418930215,-0.488922897525728
0.35751130142388,-0.49278387030501
0.357998357335886,-0.496615249220366
0.358444770854605,-0.500417083283669
0.35885072616841,-0.504189421506791
0.359216407465673,-0.507932312901604
0.359541998934765,-0.51164580647998
0.359827684764058,-0.515329951253791
0.360073649141925,-0.518984796234909
0.360280076256737,-0.522610390435206
0.360447150296866,-0.526206782866553
0.360575055450685,-0.529774022540824
0.360663975906565,-0.533312158469889
0.360714095852879,-0.536821239665622
0.360725599477998,-0.540301315139893
0.360698670970294,-0.543752433904576
0.360633494518139,-0.547174644971541
0.360530254309906,-0.550567997352661
0.360389134533966,-0.553932540059809
0.360210319378692,-0.557268322104855
0.359993993032455,-0.560575392499672
0.359740339683627,-0.563853800256132
0.35944954352058,-0.567103594386107
0.359121788731687,-0.570324823901469
0.358757259505319,-0.57351753781409
0.358356140029848,-0.576681785135842
0.357918614493647,-0.579817614878597
0.357444867085087,-0.582925076054227
0.35693508199254,-0.586004217674605
0.356389443404378,-0.589055088751601
0.355808135508974,-0.592077738297088
0.355191342494698,-0.595072215322938
0.354539248549924,-0.598038568841023
0.353852037863023,-0.600976847863215
0.353129894622368,-0.603887101401387
0.352373003016329,-0.606769378467409
0.35158154723328,-0.609623728073154
0.350755711461592,-0.612450199230494
0.349895679889637,-0.615248840951302
0.349001636705787,-0.618019702247448
0.348073766098415,-0.620762832130806
0.347112252255891,-0.623478279613247
0.346117279366589,-0.626166093706642
0.34508903161888,-0.628826323422865
0.344027693201136,-0.631459017773787
0.342933448301729,-0.63406422577128
0.341806481109031,-0.636641996427215
0.340646975811414,-0.639192378753466
0.339455116597251,-0.641715421761905
0.338231087654912,-0.644211174464402
0.336975073172771,-0.646679685872831
0.335687257339198,-0.649121004999062
0.334367824342567,-0.651535180854969
0.333016958371249,-0.653922262452422
0.331634843613615,-0.656282298803295
0.330221664258039,-0.658615338919459
0.328777604492892,-0.660921431812786
0.327302848506546,-0.663200626495148
0.325797580487373,-0.665452971978418
0.324261984623745,-0.667678517274466
0.322696245104034,-0.669877311395166
0.321100546116612,-0.672049403352389
0.319475071849851,-0.674194842158007
0.317820006492122,-0.676313676823892
0.316135534231799,-0.678405956361916
0.314421839257253,-0.680471729783952
0.312679105756856,-0.68251104610187
0.31090751791898,-0.684523954327544
0.309107259931996,-0.686510503472845
0.307278515984278,-0.688470742549645
0.305421470264197,-0.690404720569816
0.303536306960124,-0.692312486545231
0.301623210260432,-0.694194089487761
0.299682364353494,-0.696049578409278
0.29771395342768,-0.697879002321654
0.295718161671363,-0.699682410236762
0.293695173272915,-0.701459851166472
0.291645172420708,-0.703211374122658
0.289568343303113,-0.704937028117191
0.287464870108504,-0.706636862161943
0.285334937025251,-0.708310925268787
0.283178728241728,-0.709959266449594
0.280996427946305,-0.711581934716236
0.278788220327355,-0.713178979080585
0.276554289573249,-0.714750448554514
0.274294819872361,-0.716296392149894
0.272009995413061,-0.717816858878597
0.269700000383722,-0.719311897752495
0.267365018972716,-0.720781557783461
0.265005235368415,-0.722225887983366
0.262620833759191,-0.723644937364082
0.260211998333415,-0.725038754937481
0.25777891327946,-0.726407389715436
0.255321762785698,-0.727750890709818
0.2528407310405,-0.729069306932499
0.25033600223224,-0.730362687395352
0.247807760549288,-0.731631081110248
0.245256190180016,-0.732874537089059
0.242681475312798,-0.734093104343658
0.240083800136004,-0.735286831885916
0.237463348838007,-0.736455768727705
0.234820305607178,-0.737599963880898
0.232154854631891,-0.738719466357366
0.229467180100515,-0.739814325168981
0.226757466201425,-0.740884589327615
0.224025897122991,-0.741930307845141
0.221272657053586,-0.742951529733431
0.218497930181582,-0.743948304004355
0.21570190069535,-0.744920679669787
0.212884752783263,-0.745868705741599
0.210046670633692,-0.746792431231661
0.20718783843501,-0.747691905151847
0.204308440375589,-0.748567176514029
0.2014086606438,-0.749418294330078
0.198488683428016,-0.750245307611866
0.195548692916609,-0.751048265371266
0.19258887329795,-0.751827216620149
0.189609408760411,-0.752582210370387
0.186610483492365,-0.753313295633853
0.183592281682184,-0.754020521422418
0.180554987518239,-0.754703936747955
0.177498785188903,-0.755363590622335
0.174423858882547,-0.755999532057431
0.171330392787544,-0.756611810065114
0.168218571092266,-0.757200473657256
0.165088577985084,-0.75776557184573
0.16194059765437,-0.758307153642407
0.158774814288497,-0.75882526805916
0.155591412075836,-0.75931996410786
0.15239057520476,-0.75979129080038
0.14917248786364,-0.760239297148591
0.145937334240849,-0.760664032164365
0.142685298524759,-0.761065544859575
0.13941656490374,-0.761443884246093
0.136131317566166,-0.76179909933579
0.132829740700409,-0.762131239140538
0.12951201849484,-0.76244035267221
0.126178335137831,-0.762726488942678
0.122828874817755,-0.762989696963812
0.119463821722983,-0.763230025747487
0.116083360041888,-0.763447524305573
0.112687673962841,-0.763642241649942
0.109276947674215,-0.763814226792467
0.10585136536438,-0.763963528745019
0.102411111221711,-0.764090196519472
0.0989563694345771,-0.764194279127695
0.0954873241913519,-0.764275825581562
0.0920041596804071,-0.764334884892944
0.0885070600901146,-0.764371506073715
0.0849962096088466,-0.764385738135744
0.0814717924249747,-0.764377630090905
0.0779339927268712,-0.76434723095107
0.074382994702908,-0.76429458972811
0.0708189825414572,-0.764219755433898
0.0672421404308905,-0.764122777080306
0.0636526525595802,-0.764003703679204
0.0600507031158981,-0.763862584242467
0.0564364762882164,-0.763699467781965
0.0528101562649069,-0.763514403309571
0.0491719272343416,-0.763307439837156
0.0455219733848926,-0.763078626376593
0.0418604789049318,-0.762828011939754
0.0381876279828312,-0.76255564553851
0.0345036048069629,-0.762261576184733
0.0308085935656988,-0.761945852890297
0.0271027784474109,-0.761608524667072
0.0233863436404711,-0.76124964052693
0.0196594733332516,-0.760869249481744
0.0159223517141243,-0.760467400543386
0.0121751629714611,-0.760044142723728
0.00841809129363416,-0.759599525034641
0.00465132086901525,-0.759133596487997
0.000875035885976649,-0.75864640609567
-0.00291057946710996,-0.758138002869529
-0.00670534100187224,-0.757608435821449
-0.0105090645299386,-0.757057753963301
-0.0143215658629367,-0.756486006306955
-0.0181426608124948,-0.755893241864286
-0.0219721651902406,-0.755279509647164
-0.0258098948078025,-0.754644858667462
-0.0296556654768081,-0.753989337937052
-0.0335092930088859,-0.753312996467805
-0.0373705932156633,-0.752615883271594
-0.0412393819087689,-0.751898047360291
-0.0451154748998302,-0.751159537745767
-0.0489986880004757,-0.750400403439896
-0.0528888370223329,-0.749620693454547
-0.0567857377770303,-0.748820456801595
-0.0606892060761955,-0.74799974249291
-0.0645990577314568,-0.747158599540365
-0.0685151085544418,-0.746297076955832
-0.0724371743567792,-0.745415223751182
-0.0763650709500963,-0.744513088938288
-0.0802986141460216,-0.743590721529022
-0.0842376197561827,-0.742648170535256
-0.0881819035922081,-0.741685484968861
-0.0921312814657252,-0.74070271384171
-0.0960855691883626,-0.739699906165675
-0.100044582571748,-0.738677110952628
-0.104008137427509,-0.73763437721444
-0.107976049567275,-0.736571753962985
-0.111948134802672,-0.735489290210132
-0.11592420894533,-0.734387034967756
-0.119904087806876,-0.733265037247728
-0.123887587198937,-0.732123346061919
-0.127874522933143,-0.730962010422202
-0.131864710821121,-0.729781079340449
-0.135857966674499,-0.728580601828532
-0.139854106304905,-0.727360626898322
-0.143852945523968,-0.726121203561693
-0.147854300143314,-0.724862380830515
-0.151857985974573,-0.72358420771666
-0.155863818829372,-0.722286733232002
-0.159871614519339,-0.720970006388412
-0.163881188856102,-0.719634076197761
-0.167892357651289,-0.718278991671922
-0.171904936716528,-0.716904801822768
-0.175918741863448,-0.715511555662168
-0.179933588903676,-0.714099302201997
-0.18394929364884,-0.712668090454126
-0.187965671910568,-0.711217969430426
-0.191982539500488,-0.709748988142771
-0.195999712230229,-0.708261195603031
-0.200017005911418,-0.706754640823079
-0.204034236355683,-0.705229372814787
-0.208051219374653,-0.703685440590026
-0.212067770779954,-0.70212289316067
-0.216083706383216,-0.70054177953859
-0.220098841996066,-0.698942148735658
-0.224112993430133,-0.697324049763745
-0.228125976497043,-0.695687531634724
-0.232137607008427,-0.694032643360467
-0.23614770077591,-0.692359433952846
-0.240156073611122,-0.690667952423733
-0.244162541325689,-0.688958247785
-0.248166919731242,-0.687230369048519
-0.252169024639406,-0.685484365226162
-0.256168671861811,-0.683720285329801
-0.260165677210085,-0.681938178371307
-0.264159856495854,-0.680138093362554
-0.268151025530748,-0.678320079315412
-0.272139000126395,-0.676484185241755
-0.276123596094422,-0.674630460153453
-0.280104629246457,-0.67275895306238
-0.284081915394128,-0.670869712980406
-0.288055270349064,-0.668962788919405
-0.292024509922893,-0.667038229891247
-0.295989449927241,-0.665096084907805
-0.299949906173739,-0.663136402980951
-0.303905694474012,-0.661159233122558
-0.30785663063969,-0.659164624344496
-0.311802530482401,-0.657152625658638
-0.315743209813772,-0.655123286076856
-0.319678484445431,-0.653076654611022
-0.323608170189007,-0.651012780273009
-0.327532082856128,-0.648931712074687
-0.33145003825842,-0.646833499027929
-0.335361852207514,-0.644718190144608
-0.339267340515036,-0.642585834436594
-0.343166318992614,-0.64043648091576
-0.347058603451877,-0.638270178593979
-0.350944009704452,-0.636086976483121
-0.354822353561968,-0.63388692359506
-0.358693450836053,-0.631670068941666
-0.362557117338334,-0.629436461534813
-0.366413168880439,-0.627186150386371
-0.370261421273997,-0.624919184508214
-0.374101690330636,-0.622635612912213
-0.377933791861983,-0.62033548461024
-0.381757541679667,-0.618018848614166
-0.385572755595316,-0.615685753935865
-0.389379249420557,-0.613336249587208
-0.393176838967018,-0.610970384580068
-0.396965340046329,-0.608588207926315
-0.400744568470115,-0.606189768637822
-0.404514340050007,-0.603775115726461
-0.408274470597631,-0.601344298204105
-0.412024775924616,-0.598897365082625
-0.415765071842589,-0.596434365373892
-0.41949517416318,-0.59395534808978
-0.423214898698014,-0.59146036224216
-0.426924061258722,-0.588949456842904
-0.43062247765693,-0.586422680903885
-0.434309963704267,-0.583880083436973
-0.43798633521236,-0.581321713454042
-0.441651407992838,-0.578747619966962
-0.445304997857329,-0.576157851987607
-0.448946920617461,-0.573552458527848
-0.452576992084861,-0.570931488599557
-0.456195028071158,-0.568294991214606
-0.45980084438798,-0.565643015384868
-0.463394256846955,-0.562975610122214
-0.46697508125971,-0.560292824438515
-0.470543133437874,-0.557594707345645
-0.474098229193075,-0.554881307855476
-0.477640184336941,-0.552152674979878
-0.481168814681099,-0.549408857730724
-0.484683936037179,-0.546649905119887
-0.488185364216807,-0.543875866159238
-0.491672915031612,-0.541086789860649
-0.495146404293221,-0.538282725235993
-0.498605647813264,-0.53546372129714
-0.502050461403367,-0.532629827055964
-0.505480660875159,-0.529781091524336
-0.508896062040268,-0.526917563714128
-0.512296480710322,-0.524039292637213
-0.515681732696949,-0.521146327305462
-0.519051633811776,-0.518238716730747
-0.522405999866433,-0.51531650992494
-0.525744646672546,-0.512379755899913
-0.529067390041745,-0.509428503667539
-0.532374045785656,-0.506462802239689
-0.535664429715908,-0.503482700628235
-0.538938357644129,-0.50048824784505
-0.542195645381947,-0.497479492902005
-0.54543610874099,-0.494456484810972
-0.548659563532885,-0.491419272583823
-0.551865825569262,-0.488367905232431
-0.555054710661748,-0.485302431768667
-0.558226034621971,-0.482222901204403
-0.561379613261558,-0.479129362551511
-0.564515262392139,-0.476021864821864
-0.56763279782534,-0.472900457027333
-0.570732035372791,-0.469765188179791
-0.573812790846119,-0.466616107291108
-0.576874880056951,-0.463453263373159
-0.579918118816917,-0.460276705437813
-0.582942322937644,-0.457086482496944
-0.585947308230759,-0.453882643562423
-0.588932890507892,-0.450665237646122
-0.591898885580669,-0.447434313759914
-0.59484510926072,-0.44418992091567
-0.597771377359672,-0.440932108125263
-0.600677505689153,-0.437660924400563
-0.603563310060791,-0.434376418753445
-0.606428606286214,-0.431078640195778
-0.60927321017705,-0.427767637739436
-0.612096937544928,-0.42444346039629
-0.614899604201474,-0.421106157178213
-0.617681025958318,-0.417755777097076
-0.620441018627086,-0.414392369164751
-0.623179398019408,-0.411015982393111
-0.625895979946911,-0.407626665794028
-0.628590580221223,-0.404224468379372
-0.631263014653972,-0.400809439161017
-0.633913099056787,-0.397381627150835
-0.636540649241294,-0.393941081360696
-0.639145481019123,-0.390487850802475
-0.641727410201901,-0.387021984488042
-0.644286252601256,-0.383543531429269
-0.646821824028816,-0.380052540638028
-0.649333940296209,-0.376549061126192
-0.651822417215064,-0.373033141905633
-0.654287070597008,-0.369504831988222
-0.656727716253669,-0.365964180385831
-0.659144169996676,-0.362411236110333
-0.661536247637655,-0.358846048173599
-0.663903764988236,-0.355268665587502
-0.666246537860046,-0.351679137363913
-0.668564382064713,-0.348077512514704
-0.670857113413866,-0.344463840051749
-0.673124547719132,-0.340838168986917
-0.675366500792139,-0.337200548332082
-0.677582788444516,-0.333551027099116
-0.67977322648789,-0.32988965429989
-0.681937630733889,-0.326216478946277
-0.684075816994141,-0.322531550050148
-0.686187601080275,-0.318834916623375
-0.686187601080275,-0.318834916623375
-0.688276268493338,-0.315137743125776
-0.690345194070256,-0.311451235115518
-0.692394327626477,-0.307775503252003
-0.694423618977448,-0.304110658194634
-0.696433017938616,-0.30045681060281
-0.698422474325427,-0.296814071135934
-0.700391937953329,-0.293182550453407
-0.702341358637769,-0.28956235921463
-0.704270686194194,-0.285953608079005
-0.70617987043805,-0.282356407705933
-0.708068861184786,-0.278770868754815
-0.709937608249847,-0.275197101885053
-0.711786061448681,-0.271635217756048
-0.713614170596736,-0.268085327027202
-0.715421885509457,-0.264547540357916
-0.717209156002292,-0.261021968407592
-0.718975931890688,-0.25750872183563
-0.720722162990092,-0.254007911301432
-0.72244779911595,-0.2505196474644
-0.724152790083711,-0.247044040983935
-0.725837085708821,-0.243581202519439
-0.727500635806727,-0.240131242730312
-0.729143390192876,-0.236694272275956
-0.730765298682715,-0.233270401815773
-0.732366311091691,-0.229859742009164
-0.733946377235252,-0.22646240351553
-0.735505446928843,-0.223078496994273
-0.737043469987912,-0.219708133104794
-0.738560396227907,-0.216351422506494
-0.740056175464274,-0.213008475858776
-0.741530757512459,-0.209679403821039
-0.742984092187912,-0.206364317052687
-0.744416129306077,-0.203063326213119
-0.745826818682403,-0.199776541961738
-0.747216110132335,-0.196504074957945
-0.748583953471322,-0.193246035861141
-0.749930298514811,-0.190002535330728
-0.751255095078247,-0.186773684026107
-0.752558292977079,-0.183559592606679
-0.753839842026753,-0.180360371731846
-0.755099692042717,-0.177176132061009
-0.756337792840416,-0.17400698425357
-0.7575540942353,-0.17085303896893
-0.758748546042813,-0.16771440686649
-0.759921098078405,-0.164591198605652
-0.76107170015752,-0.161483524845817
-0.762200302095607,-0.158391496246387
-0.763306853708112,-0.155315223466763
-0.764391304810483,-0.152254817166346
-0.765453605218166,-0.149210388004538
-0.766493704746608,-0.14618204664074
-0.767511553211258,-0.143169903734353
-0.76850710042756,-0.14017406994478
-0.769480296210964,-0.13719465593142
-0.770431090376914,-0.134231772353677
-0.77135943274086,-0.13128552987095
-0.772265273118247,-0.128356039142642
-0.773148561324522,-0.125443410828154
-0.774009247175133,-0.122547755586888
-0.774847280485527,-0.119669184078243
-0.775662611071151,-0.116807806961623
-0.776455188747451,-0.113963734896429
-0.777224963329874,-0.111137078542061
-0.777971884633869,-0.108327948557921
-0.778695902474881,-0.105536455603412
-0.779396966668358,-0.102762710337933
-0.780075027029746,-0.100006823420886
-0.780730033374494,-0.0972689055116734
-0.781361935518047,-0.094549067269696
-0.781970683275853,-0.091847419354355
-0.782556226463359,-0.0891640724250521
-0.783118514896011,-0.0864991371411886
-0.783657498389258,-0.0838527241621658
-0.784173126758545,-0.0812249441473852
-0.78466534981932,-0.078615907756248
-0.78513411738703,-0.0760257256481559
-0.785579379277122,-0.0734545084825102
-0.786001085305043,-0.070902366918712
-0.78639918528624,-0.068369411616163
-0.786773629036159,-0.0658557532342646
-0.787124366370249,-0.0633615024324181
-0.787451347103956,-0.0608867698700248
-0.787754521052726,-0.0584316662064862
-0.788033838032008,-0.0559963021012037
-0.788289247857248,-0.0535807882135787
-0.788520700343892,-0.0511852352030125
-0.788728145307389,-0.0488097537289065
-0.788911532563185,-0.0464544544506623
-0.789070811926727,-0.0441194480276811
-0.789205933213462,-0.0418048451193642
-0.789316846238837,-0.0395107563851132
-0.789403500818299,-0.0372372924843295
-0.789465846767296,-0.0349845640764143
-0.789503833901273,-0.0327526818207691
-0.789517412035679,-0.0305417563767953
-0.78950653098596,-0.0283518984038943
-0.789471140567564,-0.0261832185614675
-0.789411190595936,-0.0240358275089162
-0.789326630886524,-0.0219098359056419
-0.789217411254776,-0.0198053544110459
-0.789083481516139,-0.0177224936845297
-0.788924791486058,-0.0156613643854946
-0.788741290979982,-0.013622077173342
-0.788532929813357,-0.0116047427074734
-0.788299657801631,-0.00960947164729012
-0.788041424760249,-0.00763637465219346
-0.78775818050466,-0.00568556238158491
-0.787449874850311,-0.00375714549486587
-0.787116457612648,-0.00185123465143774
-0.786757878607119,3.20594892981932e-05
-0.786374087649169,0.00189262626794044
-0.785965034554248,0.00373035502508764
-0.785530669137801,0.00554513510133833
-0.785070941215275,0.00733685583729123
-0.784585800602117,0.00910540657354491
-0.784075197113776,0.010850676650698
-0.783539080565697,0.012572555409349
-0.782977400773327,0.0142709321900966
-0.782390107552114,0.0159456963335394
-0.781777150717504,0.0175967371802761
-0.781138480084945,0.0192239440709051
-0.780474045469884,0.0208272063460252
-0.779783796687767,0.0224064133462349
-0.779067683554042,0.0239614544121328
-0.778325655884156,0.0254922188843176
-0.777557663493555,0.0269985961033879
-0.776763656197687,0.0284804754099422
-0.775943583811999,0.0299377461445792
-0.775097396151938,0.0313702976478975
-0.774225043032949,0.0327780192604956
-0.773326474270482,0.0341608003229723
-0.772401639679983,0.035518530175926
-0.771450489076899,0.0368510981599555
-0.770472972276676,0.0381583936156593
-0.769469039094761,0.039440305883636
-0.768438639346604,0.0406967243044843
-0.767381722847648,0.0419275382188027
-0.766298239413343,0.0431326369671898
-0.765188138859134,0.0443119098902443
-0.76405137100047,0.0454652463285648
-0.762887885652796,0.0465925356227498
-0.76169763263156,0.0476936671133981
-0.760480561752209,0.0487685301411081
-0.75923662283019,0.0498170140464785
-0.757965765680951,0.050839008170108
-0.756667940119937,0.051834401852595
-0.755343095962595,0.0528030844345383
-0.753991183024375,0.0537449452565364
-0.752612151120721,0.0546598736591879
-0.751205950067081,0.0555477589830915
-0.749772529678902,0.0564084905688457
-0.748311839771632,0.0572419577570493
-0.746823830160716,0.0580480498883006
-0.745308450661602,0.0588266563031985
-0.743765651089738,0.0595776663423414
-0.74219538126057,0.0603009693463281
-0.740597590989545,0.060996454655757
-0.73897223009211,0.0616640116112268
-0.737319248383712,0.0623035295533362
-0.735638595679799,0.0629148978226837
-0.733930221795817,0.0634980057598679
-0.732194076547213,0.0640527427054875
-0.730430109749434,0.064578998000141
-0.728638271217927,0.0650766609844271
-0.72681851076814,0.0655456209989443
-0.724970778215519,0.0659857673842913
-0.723095023375512,0.0663969894810667
-0.721191196063565,0.0667791766298691
-0.719259246095125,0.0671322181712971
-0.717299123285639,0.0674560034459493
-0.715310777450555,0.0677504217944243
-0.713294158405319,0.0680153625573207
-0.711249215965379,0.0682507150752372
-0.709175899946181,0.0684563686887723
-0.707074160163172,0.0686322127385246
-0.704943946431801,0.0687781365650928
-0.702785208567512,0.0688940295090755
-0.700597896385754,0.0689797809110712
-0.698381959701974,0.0690352801116785
-0.696137348331618,0.0690604164514962
-0.693864012090134,0.0690550792711228
-0.691561900792968,0.0690191579111569
-0.689230964255567,0.0689525417121971
-0.68687115229338,0.068855120014842
-0.684482414721852,0.0687267821596902
-0.68206470135643,0.0685674174873404
-0.679617962012562,0.068376915338391
-0.677142146505695,0.0681551650534409
-0.674637204651276,0.0679020559730885
-0.672103086264751,0.0676174774379324
-0.669539741161567,0.0673013187885714
-0.666947119157173,0.0669534693656039
-0.664325170067015,0.0665738185096286
-0.661673843706539,0.0661622555612441
-0.658993089891192,0.065718669861049
-0.656282858436423,0.0652429507496419
-0.653543099157678,0.0647349875676215
-0.650773761870403,0.0641946696555862
-0.647974796390046,0.0636218863541348
-0.645146152532053,0.0630165270038659
-0.642287780111873,0.0623784809453779
-0.639399628944952,0.0617076375192697
-0.636481648846736,0.0610038860661397
-0.633533789632674,0.0602671159265866
-0.630556001118211,0.059497216441209
-0.627548233118795,0.0586940769506055
-0.624510435449873,0.0578575867953746
-0.621442557926893,0.0569876353161151
-0.6183445503653,0.0560841118534255
-0.615216362580542,0.0551469057479044
-0.612057944388066,0.0541759063401504
-0.608869245603319,0.0531710029707622
-0.605650216041749,0.0521320849803383
-0.602400805518801,0.0510590417094775
-0.599120963849923,0.0499517624987781
-0.595810640850563,0.0488101366888389
-0.592469786336166,0.0476340536202584
-0.589098350122181,0.0464234026336355
-0.585696282024054,0.0451780730695684
-0.582263531857232,0.043897954268656
-0.578800049437162,0.0425829355714967
-0.575305784579291,0.0412329063186894
-0.571780687099067,0.0398477558508324
-0.568224706811936,0.0384273735085245
-0.564637793533345,0.0369716486323641
-0.561019897078741,0.0354804705629501
-0.557370967263572,0.0339537286408809
-0.553690953903283,0.0323913122067552
-0.549979806813324,0.0307931106011715
-0.546237475809139,0.0291590131647286
-0.542463910706177,0.0274889092380249
-0.538659061319884,0.0257826881616591
-0.534822877465707,0.0240402392762298
-0.530955308959094,0.0222614519223357
-0.527056305615492,0.0204462154405752
-0.523125817250346,0.0185944191715471
-0.519163793679105,0.0167059524558499
-0.515170184717216,0.0147807046340823
-0.511144940180125,0.0128185650468428
-0.50708800988328,0.0108194230347301
-0.502999343642126,0.00878316793834268
-0.498878891272113,0.00670968909827936
-0.494726602588686,0.00459887585513853
-0.490542427407292,0.00245061754951896
-0.486326315543379,0.000264803522019144
-0.482078216812394,-0.00195867688676223
-0.477798081029783,-0.00421993433622662
-0.473485858010994,-0.00651907948577535
-0.469141497571473,-0.00885622299480994
-0.464764949526669,-0.0112314755227315
-0.460356163692026,-0.0136449477289418
-0.455915089882994,-0.016096750272842
-0.451441677915018,-0.0185869938138335
-0.446935877603545,-0.0211157890113177
-0.442397638764024,-0.0236832465246961
-0.4378269112119,-0.0262894770133699
-0.433223644762621,-0.0289345911367408
-0.428587789231634,-0.0316186995542098
-0.423919294434385,-0.0343419129251786
-0.419218110186322,-0.0371043419090484
-0.414484186302892,-0.0399060971652208
-0.409717472599542,-0.0427472893530969
-0.404917918891719,-0.0456280291320784
-0.40008547499487,-0.0485484271615664
-0.395220090724441,-0.0515085941009626
-0.39032171589588,-0.0545086406096681
-0.385390300324634,-0.0575486773470846
-0.380425793826151,-0.0606288149726131
-0.375428146215876,-0.0637491641456554
-0.370397307309257,-0.0669098355256125
-0.365333226921741,-0.0701109397718862
-0.360235854868775,-0.0733525875438776
-0.355105140965805,-0.0766348895009882
-0.349941035028281,-0.0799579563026193
-0.344743486871646,-0.0833218986081724
-0.33951244631135,-0.0867268270770488
-0.334247863162839,-0.0901728523686501
-0.328949687241561,-0.0936600851423774
-0.323617868362961,-0.0971886360576323
-0.318252356342487,-0.100758615773816
-0.312853100995587,-0.10437013495033
-0.307420052137706,-0.108023304246576
-0.301953159584293,-0.111718234321955
-0.296452373150794,-0.115455035835868
-0.290917642652656,-0.119233819447718
-0.285348917905326,-0.123054695816904
-0.279746148724252,-0.126917775602829
-0.27410928492488,-0.130823169464895
-0.268438276322657,-0.134770988062501
-0.26273307273303,-0.138761342055051
-0.256993623971446,-0.142794342101945
-0.251219879853353,-0.146870098862584
-0.245411790194197,-0.150988722996371
-0.239569304809426,-0.155150325162706
-0.233692373514485,-0.15935501602099
-0.227780946124824,-0.163602906230626
-0.221834972455887,-0.167894106451015
-0.215854402323123,-0.172228727341557
-0.209839185541978,-0.176606879561655
-0.2037892719279,-0.181028673770709
-0.197704611296335,-0.185494220628122
-0.191585153462731,-0.190003630793294
-0.185430848242534,-0.194557014925628
-0.179241645451192,-0.199154483684523
-0.173017494904151,-0.203796147729383
-0.166758346416859,-0.208482117719607
-0.160464149804761,-0.213212504314598
-0.154134854883307,-0.217987418173757
-0.147770411467942,-0.222806969956485
-0.141370769374114,-0.227671270322183
-0.13493587841727,-0.232580429930254
-0.128465688412856,-0.237534559440098
-0.121960149176319,-0.242533769511118
-0.115419210523108,-0.247578170802713
-0.108842822268668,-0.252667873974286
-0.102230934228446,-0.257802989685238
-0.0955834962178905,-0.262983628594971
-0.0889004580524477,-0.268209901362885
-0.0821817695475642,-0.273481918648383
-0.0754273805186879,-0.278799791110865
-0.0686372407812649,-0.284163629409733
-0.0618113001507431,-0.289573544204389
-0.0549495084425687,-0.295029646154233
-0.0480518154721895,-0.300532045918668
-0.0411181710550517,-0.306080854157094
-0.0341485250066031,-0.311676181528913
-0.02714282714229,-0.317318138693526
-0.0201010272775601,-0.323006836310335
-0.0130230752278597,-0.328742385038742
-0.00590892080863656,-0.334524895538146
0.00124148616466294,-0.340354478467951
0.00842819587659119,-0.346231244487557
0.0156512585117019,-0.352155304256366
0.0229107242545473,-0.358126768433779
0.030206643289681,-0.364145747679197
0.0375390658016555,-0.370212352652022
0.0449080419750243,-0.376326694011656
0.0523136219943396,-0.382488882417499
0.0597558560441554,-0.388699028528953
0.0672347943090237,-0.394957243005419
0.0747504869734983,-0.4012636365063
0.0823029842221314,-0.407618319690995
0.0898923362394767,-0.414021403218908
0.0975185932100867,-0.420472997749438
0.105181805318515,-0.426973213941988
0.112882022749314,-0.433522162455958
0.120619295687036,-0.440119953950751
0.128393674316236,-0.446766699085767
0.136205208821465,-0.453462508520409
0.144053949387277,-0.460207492914077
0.151939946198225,-0.467001762926172
0.159863249438862,-0.473845429216096
0.16782390929374,-0.480738602443252
0.175821975947413,-0.487681393267039
0.183857499584434,-0.494673912346859
0.191930530389355,-0.501716270342114
0.200041118546731,-0.508808577912205
0.208189314241112,-0.515950945716534
0.216375167657054,-0.523143484414502
0.224598728979108,-0.530386304665509
0.232860048391828,-0.537679517128959
0.241159176079766,-0.545023232464251
0.249496162227476,-0.552417561330789
0.25787105701951,-0.559862614387972
0.266283910640423,-0.567358502295202
0.274734773274765,-0.574905335711881
0.283223695107091,-0.582503225297409
0.291750726321954,-0.59015228171119
0.300315917103906,-0.597852615612623
0.3089193176375,-0.60560433766111
0.317560978107291,-0.613407558516053
0.326240948697829,-0.621262388836853
0.334959279593669,-0.629168939282911
0.343716020979363,-0.637127320513629
0.352511223039465,-0.645137643188409
0.361344935958527,-0.65320001796665
0.370217209921102,-0.661314555507756
0.379128095111744,-0.669481366471127
0.388077641715005,-0.677700561516165
0.397065899915439,-0.685972251302271
0.406092919897598,-0.694296546488847
0.415158751846034,-0.702673557735293
0.424263445945303,-0.711103395701012
0.433407052379955,-0.719586171045404
0.442589621334545,-0.728121994427872
0.451811202993625,-0.736710976507816
0.461071847541748,-0.745353227944637
0.470371605163468,-0.754048859397738
0.479710526043336,-0.76279798152652
0.489088660365907,-0.771600704990384
0.498506058315733,-0.780457140448731
0.507962770077367,-0.789367398560963
0.517458845835362,-0.798331589986482
0.526994335774271,-0.807349825384688
0.536569290078648,-0.816422215414983
0.546183758933044,-0.825548870736768
0.555837792522013,-0.834729902009445
0.565531441030109,-0.843965419892415
0.575264754641883,-0.853255535045081
