-0.0681918627011244,-0.779861953986915
-0.0626840741994605,-0.774727004564812
-0.0572221648732898,-0.769649947096312
-0.0518060590261888,-0.764630425699153
-0.0464356809617341,-0.759668084491076
-0.0411109549835022,-0.754762567589821
-0.0358318053950697,-0.749913519113128
-0.030598156500013,-0.745120583178736
-0.0254099326019088,-0.740383403904385
-0.0202670580043335,-0.735701625407817
-0.0151694570108637,-0.731074891806769
-0.0101170539250759,-0.726502847218983
-0.00510977305054663,-0.721985135762199
-0.000147538690852492,-0.717521401554156
0.00476972485043005,-0.713111288712594
0.00964209326972443,-0.708754441355253
0.0144696422634541,-0.704450503599873
0.0192524475280426,-0.700199119564195
0.0239905847599133,-0.695999933365957
0.0286841296554897,-0.6918525891229
0.0333331579111953,-0.687756730952765
0.0379377452234536,-0.68371200297329
0.0424979672886879,-0.679718049302216
0.0470138998033219,-0.675774514057283
0.0514856184637788,-0.671881041356231
0.0559131989664823,-0.668037275316799
0.0602967170078558,-0.664242860056728
0.0646362482843227,-0.660497439693757
0.0689318684923065,-0.656800658345628
0.0731836533282306,-0.653152160130078
0.0773916784885186,-0.649551589164849
0.0815560196695939,-0.64599858956768
0.08567675256788,-0.642492805456312
0.0897539528798003,-0.639033880948484
0.0937876963017783,-0.635621460161936
0.0977780585302375,-0.632255187214408
0.101725115261601,-0.62893470622364
0.105628942192293,-0.625659661307373
0.109489615018737,-0.622429696583345
0.113307209437355,-0.619244456169297
0.117081801144572,-0.61610358418297
0.120813465836811,-0.613006724742102
0.124502279210496,-0.609953521964434
0.128148316962049,-0.606943619967705
0.131751654787894,-0.603976662869657
0.135312368384456,-0.601052294788028
0.138830533448157,-0.598170159840558
0.14230622567542,-0.595329902144988
0.149130494406329,-0.589773594980507
0.152479222302822,-0.587056833747075
0.155785780148571,-0.584380526236503
0.159050243640001,-0.58174431656653
0.162272688473533,-0.579147848854896
0.171688667990988,-0.571593338647429
0.17474379515717,-0.569152279946551
0.177757282147572,-0.566749183792713
0.180729204658619,-0.564383694303653
0.18654865902834,-0.55976411179083
0.189396342279861,-0.557509307002547
0.19220276383772,-0.555290685350002
0.194967999398341,-0.553107890950936
0.197692124658147,-0.550960567923089
0.200375215313561,-0.5488483603842
0.203017347061008,-0.54677091245201
0.20561859559691,-0.544727868244258
0.208179036617691,-0.542718871878685
0.210698745819775,-0.54074356747303
0.213177798899584,-0.538801599145033
0.215616271553543,-0.536892611012434
0.218014239478075,-0.535016247192974
0.220371778369603,-0.533172151804391
0.222688963924551,-0.531359968964427
0.227202577810401,-0.527829917401312
0.229399157534149,-0.526111336913642
0.231555686707011,-0.524423245445549
0.23367224102541,-0.522765287114775
0.235748896185769,-0.521137106039058
0.237785727884513,-0.519538346336139
0.239782811818064,-0.517968652123757
0.241740223682846,-0.516427667519653
0.243658039175283,-0.514915036641567
0.245536333991798,-0.513430403607238
0.247375183828814,-0.511973412534406
0.249174664382755,-0.510543707540812
0.250934851350044,-0.509140932744195
0.252655820427105,-0.507764732262296
0.255980407696236,-0.505090630713608
0.257584177281153,-0.5037920178823
0.259149031761536,-0.502518555836669
0.262162298194393,-0.500045660573399
0.263610861539714,-0.498845515591239
0.265020812566194,-0.497669097865716
0.266392226970257,-0.496516051514569
0.267725180448327,-0.49538602065554
0.271494032290809,-0.492130462208552
0.272673899029139,-0.491088934495389
0.273815683323593,-0.490068642863042
0.274919460870594,-0.489069231429252
0.275985307366566,-0.488090344311758
0.277013298507932,-0.487131625628301
0.278003509991116,-0.48619271949662
0.278956017512541,-0.485273270034456
0.280748223455808,-0.483491317589635
0.281588073270497,-0.482628102842458
0.283155645068103,-0.480955416887274
0.285227818631436,-0.478575408568516
0.286424028043213,-0.47707059813899
0.286966787949239,-0.476341683812341
0.287472752250588,-0.475627955568087
0.287941996643682,-0.474929057523968
0.288770628490805,-0.473574328507099
0.289130167337679,-0.472917785769827
0.28974006936017,-0.471644564426309
0.289990583928635,-0.471027174055543
0.29020490846381,-0.470422122709092
0.290525290219986,-0.469247613560096
0.290701820200084,-0.46811818992124
0.290735103975494,-0.467031004734443
0.290698217777499,-0.466502361854918
0.290517767692227,-0.46547319611231
0.290374355197798,-0.464971961484708
0.290195585330736,-0.464479151176561
0.289732276264413,-0.463517379989591
0.289128446064646,-0.462585035493318
0.288774024780779,-0.462129008548544
0.287960548327198,-0.461235465854417
0.28750164455033,-0.460797238340545
0.285917179376498,-0.459512460544574
0.28532002535889,-0.459092983253599
0.284022673062718,-0.458265066339609
0.283322626177001,-0.457855914952075
0.281820169412423,-0.457045446904629
0.281017910926408,-0.456643418480196
0.280181733299808,-0.456243052612277
0.278407923410545,-0.455445885016939
0.276499345316021,-0.454651097060536
0.275494707432845,-0.454253705741284
0.272280306796743,-0.453057271832209
0.271142263243928,-0.45265585427121
0.269971057514763,-0.452252540444124
0.264956126763062,-0.450613204829712
0.263620245598494,-0.450195071438291
0.262251656436116,-0.449772906487223
0.259416656903624,-0.448915058377105
0.256451733736972,-0.448036813441278
0.254920740031896,-0.447589152458073
0.25335749250755,-0.447135324621661
0.251762066860358,-0.446674974049781
0.250134538786744,-0.446207744860174
0.248474983983131,-0.445733281170578
0.245060096971602,-0.444761226762385
0.241518011397158,-0.44375596376712
0.239699458389903,-0.443239989343686
0.237849332831189,-0.442714645126703
0.230134619010221,-0.440512452678093
0.228127766140568,-0.43993492125947
0.226089794897999,-0.439345884753739
0.2219208000798,-0.438131872951911
0.219789927897019,-0.437506185891295
0.21543581246621,-0.436215670039356
0.213212720611029,-0.435550129483514
0.206360216843461,-0.433468106709376
0.201639947794296,-0.432005365115172
0.199234460397748,-0.431250508747857
0.196798838681789,-0.430479520824054
0.19433315834284,-0.429692045461501
0.18931192458167,-0.428066208891108
0.184171364685626,-0.426370151978598
0.178912084226096,-0.424601027665891
0.176238113026083,-0.423688175528813
0.173534688774469,-0.422755988894906
0.165248454674253,-0.419839863189608
0.162427975180469,-0.418826779745783
0.159578421117201,-0.417792582393828
0.156699868180873,-0.416736915251483
0.153792392067908,-0.415659422436488
0.15085606847473,-0.414559748066584
0.144897181633427,-0.412292431133005
0.141874769778149,-0.411124076804811
0.138823813228352,-0.409932117392666
0.129500432376078,-0.406211049829932
0.123143509436395,-0.403605788193591
0.119922874344374,-0.402264724750286
0.116674224432797,-0.400897565047209
0.110093182936672,-0.398083533332705
0.106760942744971,-0.396635949556757
0.103400990519408,-0.395160845991999
0.0965982527523922,-0.392126655967009
0.093155618603786,-0.390566857742258
0.0896855752070124,-0.388978116199656
0.0861881982584947,-0.387360075456944
0.0791117464919211,-0.384034672842146
0.0682939596145672,-0.378817927862615
0.0497277366405586,-0.369489917926506
0.0459346865868053,-0.36752609775341
0.0421152113383895,-0.365528707793083
0.0382693865917348,-0.363497392163264
0.0304989913894023,-0.35933156036611
0.0186476697596977,-0.352819473092692
0.00248372636095996,-0.343630175794861
-0.0140896975818469,-0.333841126623557
-0.0225284508288068,-0.328714577440151
-0.031067757497621,-0.323429549114135
-0.0353749291241646,-0.320726715566999
-0.0440639304794078,-0.315198630293168
-0.0662184069636636,-0.300647703222368
-0.0889824182286409,-0.285017310945244
-0.102929465468354,-0.275102426402412
-0.107626133783171,-0.271705888065148
-0.146046326245178,-0.242833951507829
-0.16083704017857,-0.231204490050867
-0.175833561276798,-0.21912236231282
-0.185944570037101,-0.210811384123384
-0.196145534719973,-0.202292103274932
-0.201279561291314,-0.197953459647924
-0.22203752952616,-0.180063893201949
-0.227282108590125,-0.175455974194669
-0.232548571063345,-0.170793132464553
-0.286400130091376,-0.121065671310286
-0.297425473165689,-0.110425518179412
-0.308534413663,-0.0995471682796758
-0.331000664641064,-0.0770644899412981
-0.342356763979042,-0.0654544673864956
-0.348065292172785,-0.0595560396747808
-0.371100828862905,-0.0353312486797627
-0.382738391807125,-0.0228352227417178
-0.418122992179773,0.0162215415315258
-0.466380978271466,0.0720637858021062
-0.472498190062985,0.0793547435721042
-0.484788423338734,0.0941476919744107
-0.51583603056917,0.132377695849125
-0.522100150565195,0.14024042360254
-0.528382293452877,0.148176224074052
-0.553689579991714,0.180657270786274
-0.605146240156225,0.249235042886444
-0.611655792260923,0.258153173978886
-0.618182307507349,0.267149360141066
-0.644456485981878,0.303921773132367
-0.670996019010196,0.341971537820281
-0.677671796193129,0.351686234311806
-0.691071893395056,0.371360824854132
-0.704536209735573,0.391364718023891
