0.867850667171358,-0.216784766724128
0.858395666215505,-0.20295187980393
0.857230304715783,-0.181624985349585
0.797734243406002,-0.174444253227094
0.831958665279063,-0.200602566603254
0.854967041844837,-0.202967196699556
0.825193571391349,-0.216003153670755
0.781502468830993,-0.18786158082083
0.805905395844465,-0.202417143945512
0.799606440511395,-0.21356482164207
0.828974916123765,-0.208777772534438
0.775257305858382,-0.257603652255513
0.767081638844858,-0.257925285929836
0.789316751422267,-0.300563266593903
0.768511381388365,-0.297676151230606
0.751282853871152,-0.312069641882203
0.755082747418816,-0.340622057171225
0.769675021581124,-0.358935320194872
0.726666270024636,-0.388533248632251
0.743080408165536,-0.420280902887487
0.735299059387605,-0.427005812431344
0.74989982220713,-0.451451447547068
0.704842087017111,-0.479402495064981
0.699131414803587,-0.497648950925615
0.683095311423497,-0.523349264276186
0.654975162024807,-0.536045123627654
0.643367906143483,-0.574302715251119
0.644053565203754,-0.581297147585058
0.62907498231505,-0.597643027369298
0.613008963437657,-0.612152140445594
0.595792447223001,-0.624613451184796
0.578233701405954,-0.622795816790118
0.587067500132093,-0.641785043203065
0.536609301069687,-0.647600213088335
0.514160182020214,-0.649759958187657
0.473552646217731,-0.658942344286491
0.464801470332259,-0.64455947130861
0.451327259179556,-0.666383341371991
0.447620753432413,-0.615214842390903
0.378666298599166,-0.609793263858556
0.349777368451556,-0.592325090500759
0.303333033355428,-0.582895821302388
0.292724913167385,-0.555348579355171
0.270261372256836,-0.540880157298688
0.218811945723331,-0.479541111467389
0.204379799694346,-0.504880737950499
0.22292966949348,-0.511525170061646
0.199336217713681,-0.479398462870073
0.204597778493269,-0.501972865069935
0.221233200083555,-0.495474847771662
0.193583639643898,-0.498856555285743
0.187015110584961,-0.498571153068583
0.159493591686837,-0.50982319571943
0.162008372509198,-0.482255364852668
0.162520810398985,-0.471065881532997
0.177768604169484,-0.506568372328866
0.152932822415136,-0.528686046961063
0.181335694747866,-0.505123072566658
0.160104944545486,-0.552431289279444
0.185950837881945,-0.504678735495928
0.1410556500933,-0.559287216814527
0.141785477500741,-0.513091815943272
0.111481873911119,-0.537708189921703
0.107363246281658,-0.542056844797733
0.0844697619104698,-0.572306468375632
0.0802835107437237,-0.564326703880736
0.0396761098652163,-0.527251431179212
0.0395934711694257,-0.542671792747675
-0.012613681970449,-0.552929546229769
-0.0730568192406807,-0.510055936439127
-0.095115612818338,-0.523614404006449
-0.152930687802053,-0.509763237955454
-0.245093558363002,-0.523543348764243
-0.310697053821309,-0.4805201320733
-0.417811162744977,-0.461128912941946
-0.466310712413896,-0.451290414379653
-0.540584870706116,-0.464827667097774
-0.633356202314818,-0.409533980857899
-0.732838672201336,-0.359365691635805
-0.868523885028069,-0.349904199679715
