-0.906096166697612,-0.571352683033774
-0.902066551616117,-0.528373170712259
-0.894936462484919,-0.489936168241972
-0.998065574129825,-0.342611040156298
-0.969797675407869,-0.314480311811484
-0.744627412691983,-0.279798937928878
-0.940524251991142,-0.490741804850916
-0.815749604187886,-0.353824939844861
-0.90645355909355,-0.229854127128793
-0.662668685986976,-0.22904159236299
-0.736463934290025,-0.304608684332697
-0.607439527502327,-0.390482921361569
-0.579607316197208,-0.371056519338153
-0.542782089751604,-0.172229990221785
-0.598433677320482,-0.25754372332771
-0.656039623670369,-0.345682553645544
-0.517096609101282,-0.235759847011352
-0.58393863570011,-0.320789740640313
-0.326339510320756,-0.0966853414697471
-0.274313761905715,-0.0983677867085802
-0.240573838741286,-0.300700528567492
-0.38647674908309,-0.267704205378326
-0.120304548411487,-0.260084731783266
-0.0625265077405651,-0.220607302749252
-0.244000257684529,-0.204528651272874
0.0493476813928552,-0.16161605045048
0.102250213473765,-0.135492331928902
0.159746464477338,-0.109713279974462
0.100654903791219,0.0441825912038792
0.26814794582834,0.184865009567556
0.2188975172466,0.14144910376267
0.166442982654217,0.0997534794963447
0.339696284611613,0.260528668414697
0.400842033288481,0.329110049833823
0.462372189176658,0.404178739746038
0.524201875187444,0.486079419974602
0.586246214232139,0.575156772342773
0.648420329222042,0.671755478673813
0.710639343068455,0.776220220790981
0.772818378682678,0.888895680517537
