0.505848300505579,-0.778435658363465
0.495819185517571,-0.766439805212257
0.48590319506651,-0.754519935851721
0.476099870340348,-0.742675820529333
0.466408752527039,-0.730907229492573
0.456829382814535,-0.719213932988916
0.44736130239079,-0.707595701265841
0.438004052443757,-0.696052304570824
0.428757174161389,-0.684583513151345
0.419620208731639,-0.673189097254878
0.410592697342461,-0.661868827128903
0.39286420143763,-0.639449805178335
0.384162299297883,-0.628350593848698
0.375568015950521,-0.617324609279461
0.367080892583495,-0.606371621718103
0.35870047038476,-0.5954914014121
0.350426290542267,-0.584683718608931
0.34225789424397,-0.573948343556071
0.334194822677823,-0.563285046501
0.326236617031779,-0.552693597691194
0.318382818493789,-0.542173767374131
0.310632968251809,-0.531725325797288
0.30298660749379,-0.521348043208142
0.295443277407686,-0.511041689854172
0.28800251918145,-0.500806035982854
0.280663874003035,-0.490640851841666
0.273426883060394,-0.480545907678085
0.266291087541481,-0.470520973739589
0.259256028634248,-0.460565820273655
0.252321247526649,-0.45068021752776
0.245486285406636,-0.440863935749382
0.238750683462164,-0.431116745185999
0.232113982881184,-0.421438416085088
0.22557572485165,-0.411828718694126
0.219135450561515,-0.40228742326059
0.212792701198733,-0.392814300031959
0.206547017951256,-0.383409119255709
0.200397942007037,-0.374071651179318
0.19434501455403,-0.364801666050263
0.188387776780188,-0.355598934116022
0.182525769873464,-0.346463225624072
0.17675853502181,-0.337394310821891
0.171085613413181,-0.328391959956955
0.165506546235529,-0.319455943276743
0.160020874676807,-0.310586031028732
0.154628139924969,-0.3017819934604
0.149327883167967,-0.293043600819223
0.144119645593755,-0.284370623352679
0.139002968390286,-0.275762831308246
0.133977392745512,-0.2672199949334
0.124197710883865,-0.250328270182383
0.119442687042899,-0.241978922301166
0.11477692951244,-0.233693611079446
0.110199979480443,-0.225472106764702
0.10571137813486,-0.21731417960441
0.101310666663645,-0.209219599846048
0.0969973862547509,-0.201188137737094
0.0927710780961307,-0.193219563525024
0.0886312833757377,-0.185313647457316
0.0845775432815247,-0.177470159781448
0.0806093990014451,-0.169688870744897
0.0729280626354981,-0.154311969579655
0.0692139529255371,-0.14671589794592
0.0655836037815218,-0.139181105941411
0.0620365563914053,-0.131707363813606
0.0585723519431409,-0.124294441809983
0.0551905316246816,-0.116942110178018
0.0518906366239805,-0.10965013916519
0.0486722081289907,-0.102418299018976
0.0455347873276654,-0.0952463599868534
0.0395011335578205,-0.081081266254791
0.0366039829652072,-0.0740876520498063
0.0337860048180709,-0.0671530199488224
0.0310467403043646,-0.0602771401993169
0.0283857306120414,-0.0534597830487671
0.0258025169290545,-0.0467007187446505
0.023296640443357,-0.0399997175344445
0.020867642342902,-0.0333565496656266
0.0185150638156425,-0.0267709853856739
0.0162384460495318,-0.0202427949420642
0.0140373302325231,-0.0137717485822749
0.0119112575525692,-0.00735761655378311
0.00985976919762341,-0.00100016910406633
0.00788240635563884,0.00530082351939787
0.00597871021456857,0.0115455910691319
0.00414822196236574,0.0177343632976587
0.00239048278698342,0.0238673699575007
0.000705033876374758,0.0299448408011806
-0.000908583581507048,0.0359670055812207
-0.00245082839870897,0.0419340940501438
-0.00392215938727793,0.0478463359604724
-0.00532303535926077,0.0537039610647292
-0.00665391512670433,0.0595071991154365
-0.00791525750165558,0.0652562798651172
-0.0102311653222685,0.0765928884714886
-0.0112866483920239,0.0821808758332245
-0.0131949669106672,0.0931973654364096
-0.0140487199836489,0.098626327182904
-0.0148361473484663,0.10400273989603
-0.0155577078171664,0.109326833328309
-0.0162138602017962,0.114598837232265
-0.0168050633144024,0.11981898136042
-0.0177944569717319,0.130104609299418
-0.0181935651405488,0.135170552615306
-0.0191634456979257,0.154927215746976
-0.0192515718680316,0.159740752759536
-0.0192788780745358,0.164504497768999
-0.0192458231294855,0.169218680527886
-0.0191528658449273,0.173883530788721
-0.0190004650329082,0.178499278304026
-0.0187890795054751,0.183066152826323
-0.0185191680746749,0.187584384108136
-0.0181911895525543,0.192054201901986
-0.01736286648254,0.20084951603589
-0.01686343955874,0.205175471880989
-0.0163077807918072,0.209453933248216
-0.0156963489937886,0.213685129890094
-0.0127020677317933,0.230141864254563
-0.0118186529590487,0.234140183557532
-0.0108822180274996,0.238092616650288
-0.00885212293617522,0.245860743215248
-0.00661545295419536,0.253448081969623
-0.00542079940932672,0.257174530299148
-0.0028811492720667,0.264494133625484
-0.00153707030376901,0.268087748127342
-0.000144100485088783,0.271637544191688
0.00129730137192722,0.275143751571047
0.00278667645523198,0.27860660001794
0.00432356595277867,0.28202631928489
0.00590751105252048,0.285403139124419
0.00753805294241044,0.288737289289051
0.0109370918444473,0.295278499603712
0.0127046712325005,0.298486019258786
0.0145170121625142,0.301651788249052
0.0163736558224418,0.304776036327034
0.0222048150612382,0.313901952612495
0.0242340815203519,0.316862414566563
0.0327666459331312,0.32830283841134
0.0350013676201728,0.331063737142273
0.0372758039166593,0.333785412486148
0.0395894960105438,0.336468094195486
0.0419419850897794,0.33911201202281
0.0443328123423193,0.341717395720642
0.0467615189561166,0.344284475041506
0.0492276461191244,0.346813479737924
0.0517307350192958,0.349304639562418
0.0568459627829419,0.354174343605725
0.0621035317506798,0.358895425191609
0.0674997714261346,0.36346972234025
0.0702487457491385,0.365702401131911
0.0758461093054651,0.370059967912526
0.078693580914694,0.372185315406525
0.0844838097350487,0.376330287364521
0.0874256493220806,0.378350371333563
0.0964325630460323,0.384203772231132
0.105701934161283,0.389751721417344
0.108847907274881,0.391534231833107
0.112021207072659,0.393283722179921
0.115221374742568,0.395000422210307
0.118447951472562,0.396684561676789
0.12497849686462,0.399956077928131
0.128281547902589,0.401543914218036
0.138336308639695,0.406118492774957
0.141734902052974,0.407581141364741
0.145156234029963,0.409013067410802
0.148599845758615,0.410414500665661
0.152065278426884,0.411785670881843
0.180519236153601,0.421693133521573
0.187818818138163,0.423883451471301
0.195185496151127,0.425962826377309
0.198892849138144,0.426961484570223
0.206353289013009,0.428877891198489
0.210105458276765,0.429796099138884
0.21387164867534,0.430687949833485
0.217651401396688,0.431553673034813
0.229067445376898,0.433996375204392
0.240589033028373,0.436212201025335
0.244450875271815,0.436901464844391
0.248322609341656,0.437566439190356
0.256093917712341,0.438824438473101
0.259992574389092,0.439417922914927
0.263899287644054,0.439988036893751
0.267813598665178,0.440535010162098
0.271735048640419,0.441059072472487
0.275663178757728,0.441560453577444
0.287483061841605,0.442930807184939
0.291433324406723,0.443343760993388
0.299346548970417,0.444105301034346
0.307273647365075,0.444782549324203
0.323154783661785,0.445891522731335
0.335074755373809,0.446515657215137
0.339047369325851,0.446685385376229
0.346988779429705,0.446968745213288
0.350956657957424,0.4470828363943
0.358884467904208,0.447256990043901
0.374695452625856,0.447395615564042
0.378636223408511,0.447387928463155
0.38257128640797,0.447363763474944
0.402144926235672,0.447003811562324
0.42534904546563,0.446076117262714
0.432998937648709,0.445654668279513
0.440600305224376,0.445180173888283
0.459367341373656,0.443773926257506
0.463076555343156,0.443456798468212
0.470447119525426,0.442788502646664
0.477750806618408,0.44207635151799
0.488572913504648,0.440929916793258
0.502734061574295,0.439264998440356
0.509691379372843,0.438378243929342
0.513137618370884,0.437922096974024
0.526695736073738,0.436017738712867
0.549478457584656,0.432413377450767
0.555749241223878,0.431328997990608
0.564942847851389,0.429663853078796
0.56794886312402,0.429099436925863
0.570924853574969,0.428530719769302
0.576784924763636,0.42738130145539
0.582519390921014,0.42621743615724
0.588124581550729,0.425040961895034
0.590877551512596,0.424448570783716
0.593596826156406,0.423853716688951
0.604127795310143,0.42145426552588
0.606671711182968,0.420850542801722
0.616478304650418,0.418427104747205
0.621153736001179,0.417213473960532
0.630030515454897,0.414791578969261
0.632148266571427,0.414188563482424
0.634224522565103,0.413586990805024
0.640199731688543,0.411793227154675
0.642105419070337,0.411199723240251
0.649285688646163,0.408853920828281
0.650967841992048,0.408275672299334
0.654193440141805,0.407130625997951
0.658678183830701,0.405445129724996
0.662727531787587,0.403803635327526
0.668475252761156,0.401182441795586
0.669470488804262,0.400677465431478
0.670413218235389,0.400179445937349
0.675503598905937,0.396907401049763
0.677681839668647,0.394442805079561
0.6775348477902,0.392033817635191
0.673629180933241,0.389992184554997
0.672849635376591,0.389795856637589
0.672003818846555,0.389613378165837
0.671091272531088,0.389444978892265
0.667948666751624,0.38902655378585
