-0.570202682438708,0.523218383935241
-0.565620194785058,0.521654795081127
-0.561119341813747,0.519972466331901
-0.556698573213932,0.518173366351902
-0.552356338674769,0.51625946380547
-0.548091087885413,0.514232727356945
-0.543901270535023,0.512095125670668
-0.539785336312753,0.509848627410976
-0.53574173490776,0.50749520124221
-0.531768916009201,0.505036815828711
-0.527865329306232,0.502475439834816
-0.524029424488009,0.499813041924868
-0.520259651243689,0.497051590763204
-0.516554459262428,0.494193055014164
-0.512912298233382,0.49123940334209
-0.509331617845709,0.488192604411319
-0.505810867788563,0.485054626886192
-0.502348497751102,0.481827439431048
-0.498942957422482,0.478513010710228
-0.495592696491859,0.475113309388071
-0.49229616464839,0.471630304128916
-0.489051811581231,0.468065963597104
-0.485858086979538,0.464422256456974
-0.482713440532468,0.460701151372866
-0.479616321929177,0.456904617009119
-0.476565180858821,0.453034622030073
-0.473558467010558,0.449093135100069
-0.470594630073542,0.445082124883445
-0.467672119736932,0.441003560044541
-0.464789385689882,0.436859409247698
-0.461944877621549,0.432651641157254
-0.551248027022769,0.324977696932037
-0.547117176517275,0.332613221519262
-0.453625206180419,0.419666319767719
-0.450918098918519,0.415223769146272
-0.448241466081119,0.410727444552922
-0.445593757357373,0.406179314652012
-0.347786963047197,0.500360315924758
-0.539520198769333,0.298244258155834
-0.437808672759635,0.392243779747304
-0.435261157382076,0.387508115259543
-0.53127090967637,0.283120321713372
-0.430228093994426,0.37791286899077
-0.427739445362648,0.373057224538437
-0.533161205638604,0.25202774763312
-0.422810162668967,0.36323973631958
-0.420366427985377,0.358281829881734
-0.417934563996163,0.353293773444063
-0.415513020390481,0.348277535670907
-0.515185120897123,0.244214915995099
-0.299789555596776,0.450207349019953
-0.408294808766189,0.333079420981922
-0.405899043586198,0.327970144510222
-0.403505847235521,0.322842530024734
-0.401113669403314,0.3176985461898
-0.398720959778734,0.312540161669758
-0.50372919795734,0.191302522102953
-0.393927743909078,0.302188065231711
-0.391524137042315,0.296998290642385
-0.389113797139804,0.291801990025311
-0.386695173890701,0.286601132044828
-0.384266716984163,0.281397685365276
-0.381826876109346,0.276193618650995
-0.379374100955407,0.270990900566323
-0.376906841211501,0.265791499775602
-0.374423546566786,0.260597384943171
-0.371922666710417,0.255410524733369
-0.470536990444303,0.148410917552688
-0.366861950119344,0.245066442839013
-0.364299012762953,0.239913158483138
-0.361712288951534,0.234775003407251
-0.359100228374243,0.229653946275692
-0.356461280720237,0.224551955752801
-0.353793895678672,0.219471000502918
-0.351096522938704,0.214413049190381
-0.34836761218949,0.209380070479532
-0.345605613120187,0.204374033034709
-0.34280897541995,0.199396905520253
-0.339976148777936,0.194450656600502
-0.337105582883301,0.189537254939798
-0.334195727425202,0.184658669202478
-0.331245032092795,0.179816868052884
-0.429165245200611,0.0641439191531176
-0.233474619560702,0.270551988036631
-0.322132403741289,0.16553185877385
-0.207955721889972,0.258784378168999
-0.315824696436612,0.156228534372682
-0.221801080577317,0.263112796430307
-0.309316422174457,0.147119596266567
-0.305983196657215,0.142642943735004
-0.302595178468073,0.138220793770224
-0.299150817296186,0.133855115036566
-0.295648562830711,0.12954787619837
-0.292086864760805,0.125301045919975
-0.288464172775624,0.121116592865723
-0.284778936564324,0.116996485699951
-0.281029605816061,0.112942693087
-0.374448652794576,-0.00570814739019627
-0.273332459465274,0.10504192617692
-0.269381543241062,0.10119888920847
-0.265360331236513,0.0974300414502003
-0.261267273140784,0.0937373515664497
-0.25710081864303,0.0901227882215582
-0.138974278348115,0.203854596868955
-0.248541519198075,0.0831359158057116
-0.244145573629187,0.0797675440634358
-0.2396700304149,0.0764851735173781
-0.23511333924437,0.0732907728318781
-0.130034948545743,0.184867748387687
-0.22575031179121,0.0671737556999102
-0.220940874886891,0.0642550765821216
-0.216044088782955,0.0614322419822497
-0.211058403168559,0.058707220564634
-0.322407661890767,-0.057779500057403
-0.20081413216501,0.0535584919335304
-0.195552446154171,0.0511387220487219
-0.190195659389496,0.0488246400035286
-0.184742221560142,0.0466182144622901
-0.179190582355266,0.0445214140893461
-0.173539191464024,0.0425362075490365
-0.167786498575572,0.0406645635057009
-0.161930953379067,0.0389084506236789
-0.155971005563665,0.0372698375673104
-0.24659407264356,-0.0607341629965124
-0.143731700832796,0.0343529855888926
-0.231758943424452,-0.0770246641661673
-0.131056181896215,0.031929756885165
-0.124550966323674,0.0309081729221593
-0.117932046267174,0.0300159007708454
-0.111197871415872,0.0292549090955629
-0.221415209065663,-0.0889956851713382
-0.199811357153044,-0.0836999376174705
-0.0902883149847153,0.0277793035693009
-0.0830776178457673,0.0275631204415412
-0.0757439143577989,0.0274880611115114
0.0374087997434074,0.117575707793994
-0.0607012870914259,0.0277691885020007
-0.0529892626913341,0.0281293125511992
-0.0451480306988472,0.0286384350554866
-0.0371760408031217,0.0292985246792025
-0.0290717426933139,0.0301115500866866
-0.0208335860585799,0.0310794799422788
-0.0124600205880766,0.0322042829103186
-0.00394949597095996,0.0334879276551458
0.00469953810361352,0.0349323828411002
0.0134886319464875,0.0365396171325214
0.0224193358685056,0.0383115991937491
0.0314932001805114,0.0402502976891231
0.0407117751933487,0.0423576812829831
0.0500766112178609,0.0446357186396688
0.0595892585648918,0.0470863784235198
0.0692512675452849,0.049711629298876
0.17047300574222,0.160497158878029
0.0890295716495327,0.0554937789814625
0.0991489673950745,0.0586546151173723
0.109423926017353,0.061997917002146
0.115960724630198,0.0328785967883377
0.130446733135495,0.0692397926756443
0.00598776712346293,-0.0465681914569739
0.133664239084264,0.0954121723873911
0.162508612500194,0.0819439486310752
0.194422482653787,0.0828077993560124
0.196004306150705,0.0676204831928397
0.197409895859344,0.0955493387602045
0.209154684360217,0.100623422280041
0.221070538846264,0.105899658192139
0.227257101196812,0.10269325551022
0.252713220246666,0.0904309605657193
0.270987382320835,0.0908904150204776
0.272581292996626,0.122865224327309
0.283270061933621,0.135382026888433
0.308901608325221,0.137052253489514
0.309401593944303,0.148658944364669
0.322741787502106,0.155623271331085
0.458339868546852,0.264699968228902
0.332536981641265,0.170571373791327
0.339944364884301,0.174225154264819
0.383423478856448,0.169020186889411
0.392249043249479,0.193782335019738
0.406722604166531,0.202095414179161
0.45061235831431,0.215577223657236
0.532007753620314,0.319427108448418
0.434882034242298,0.222710836733457
0.362695237336745,0.153000594171625
0.464093108094579,0.253866908468497
0.486019127015731,0.238453253727293
0.62629138342155,0.358987703219039
0.529636860935608,0.277105980123925
0.54591511887348,0.287575072415789
0.562401650256772,0.298293565044067
0.579098005396327,0.309263426673099
0.596005734602991,0.320486625967225
0.613126388187606,0.331965131590784
0.630461516461016,0.343700912208116
0.648012669734064,0.355695936483561
0.665781398317594,0.367952173081458
0.68376925252245,0.380471590666147
0.799040389693775,0.511055709349168
0.720408539039514,0.406307843453262
0.739063071973409,0.419628615984367
