-0.595679113017456,0.976268227597527
-0.588648989488439,0.96353384151857
-0.58165159687527,0.950858943860795
-0.574686861476457,0.938243436610579
-0.567754709590514,0.925687221754301
-0.560855067515951,0.913190201278339
-0.553987861551279,0.90075227716907
-0.54715301799501,0.888373351412872
-0.540350463145655,0.876053325996125
-0.533580123301726,0.863792102905205
-0.526841924761733,0.851589584126491
-0.520135793824188,0.83944567164636
-0.513461656787602,0.827360267451191
-0.506819439950487,0.815333273527362
-0.500209069611353,0.80336459186125
-0.493630472068712,0.791454124439233
-0.487083573621076,0.779601773247691
-0.480568300566955,0.767807440273
-0.47408457920486,0.756071027501538
-0.467632335833304,0.744392436919684
-0.461211496750797,0.732771570513816
-0.448463736646977,0.709702618175547
-0.442136668222685,0.698254336215903
-0.435840709281489,0.686863386377757
-0.429575786121897,0.675529670647486
-0.423341825042423,0.664253091011469
-0.417138752341577,0.653033549456083
-0.410966494317871,0.641870947967706
-0.404824977269815,0.630765188532717
-0.398714127495922,0.619716173137494
-0.392633871294702,0.608723803768414
-0.386584134964666,0.597787982411855
-0.380564844804326,0.586908611054196
-0.374575927112194,0.576085591681815
-0.368617308186779,0.565318826281088
-0.362688914326595,0.554608216838396
-0.356790671830152,0.543953665340114
-0.350922506995961,0.533355073772622
-0.345084346122533,0.522812344122297
-0.33927611550838,0.512325378375518
-0.333497741452013,0.501894078518663
-0.327749150251944,0.491518346538108
-0.322030268206683,0.481198084420233
-0.316341021614742,0.470933194151415
-0.310681336774632,0.460723577718033
-0.305051139984865,0.450569137106464
-0.299450357543951,0.440469774303086
-0.293878915750402,0.430425391294278
-0.28833674090273,0.420435890066417
-0.282823759299445,0.410501172605881
-0.277339897239059,0.400621140899048
-0.271885081020083,0.390795696932297
-0.266459236941029,0.381024742692006
-0.261062291300406,0.371308180164551
-0.255694170396728,0.361645911336312
-0.250354800528505,0.352037838193666
-0.23976201909247,0.332983886910665
-0.23450846012168,0.323537812743067
-0.229283357380391,0.314145542206574
-0.224086637167113,0.304806977287565
-0.218918225780358,0.295522019972416
-0.213778049518637,0.286290572247507
-0.208666034680461,0.277112536099215
-0.203582107564342,0.267987813513918
-0.198526194468791,0.258916306477994
-0.193498221692319,0.249897916977821
-0.188498115533437,0.240932546999778
-0.183525802290658,0.232020098530242
-0.178581208262491,0.223160473555591
-0.173664259747448,0.214353574062203
-0.168774883044041,0.205599302036457
-0.163913004450781,0.196897559464729
-0.159078550266179,0.188248248333399
-0.154271446788746,0.179651270628843
-0.149491620316994,0.171106528337441
-0.144738997149434,0.16261392344557
-0.140013503584577,0.154173357939608
-0.135315065920934,0.145784733805933
-0.130643610457018,0.137447953030923
-0.125999063491338,0.129162917600957
-0.121381351322406,0.120929529502411
-0.116790400248734,0.112747690721664
-0.112226136568833,0.104617303245095
-0.107688486581214,0.0965382690590805
-0.103177376584389,0.0885104901499991
-0.0986927328768675,0.0805338685042287
-0.0942344817571625,0.0726083061081474
-0.0898025495237847,0.064733704948133
-0.0853968624752453,0.0569099670105637
-0.0810173469100556,0.0491369942818174
-0.0766639291267269,0.0414146887482722
-0.0723365354237706,0.0337429523963059
-0.0637595254530197,0.018550795182622
-0.0595097617822479,0.0110301782936606
-0.0552857273858934,0.00355973853179029
-0.0510873485624675,-0.00386062211661123
-0.0469145516104816,-0.0112310016651659
-0.042767262828447,-0.0185514981274954
-0.0386454085148748,-0.0258222095172221
-0.0345489149682763,-0.0330432338479678
-0.0304777084871628,-0.0402146691333547
-0.0264317153700457,-0.0473366133870047
-0.0224108619154361,-0.0544091646225397
-0.0184150744218453,-0.0614324208535818
-0.0144442791877847,-0.0684064800937532
-0.0104984025117654,-0.0753314403566754
-0.00657737069229888,-0.082207399655971
-0.00268111002789621,-0.0890344560052617
0.00119045318293126,-0.0958127074181694
0.00503739264167216,-0.102542251908316
0.00885978204981538,-0.109223187489325
0.0126576951088496,-0.115855612174816
0.0164312055202635,-0.122439623978412
0.0239053132061852,-0.135462800994409
0.0312826947194905,-0.14829350264629
0.0349352974151337,-0.154636920244743
0.038563939672089,-0.160932513043032
0.0421686951918452,-0.167180379054781
0.0457496376758908,-0.173380616293611
0.0493068408257146,-0.179533322773145
0.0528403783428054,-0.185638596507003
0.0563503239286519,-0.191696535508809
0.0598367512847429,-0.197707237792185
0.0632997341125669,-0.203670801370751
0.0701556609893694,-0.215456904467946
0.0735487524413252,-0.221279640013818
0.0769186941709691,-0.22705562890937
0.0802655598797898,-0.232784969168223
0.083589423269276,-0.238467758803999
0.0868903580409164,-0.244104095830321
0.0901684378961998,-0.24969407826081
0.0934237365366148,-0.255237804109088
0.0966563276636503,-0.260735371388777
0.0998662849787949,-0.2661868781135
0.103053682183537,-0.271592422296879
0.106218592979366,-0.276952101952534
0.11557914392826,-0.292756933889386
0.118654846103323,-0.297934135570371
0.124739970450528,-0.308152513567126
0.127749540025647,-0.31319388591014
0.130737212803763,-0.318190177834407
0.133703062486364,-0.323141487353549
0.136647162774939,-0.328047912481189
0.139569587370977,-0.332909551230948
0.142470409975966,-0.337726501616449
0.145349704291394,-0.342498861651313
0.148207544018752,-0.347226729349163
0.153859154515208,-0.356549379788307
0.162177503386577,-0.370202113259964
0.16490816331677,-0.374665085221789
0.170306740845695,-0.38345970843408
0.172974805847404,-0.387791555711789
0.17562215327593,-0.392079890788704
0.17824885683276,-0.396324811678447
0.183440627137289,-0.404684802950902
0.186005841287965,-0.40880006936086
0.191075296093586,-0.416901633796343
0.193579684151508,-0.420888127849113
0.196063944248155,-0.424831893810065
0.198528150085017,-0.42873302969282
0.200972375363583,-0.432591633511001
0.20339669378534,-0.43640780327823
0.205801179051779,-0.440181637008128
0.212896372934065,-0.451250102110061
0.215222262594113,-0.454855571826858
0.217528687606286,-0.458419195574434
0.22208343849296,-0.465421297216414
0.224331911770438,-0.468859971138062
0.226561215205996,-0.472257191144978
0.228771422501121,-0.475613055250783
0.230962607357304,-0.4789276614691
0.233134843476032,-0.48220110781355
0.235288204558794,-0.485433492297757
0.237422764307079,-0.488624912935341
0.239538596422375,-0.491775467739924
0.241635774606172,-0.49488525472513
0.243714372559958,-0.49795437190458
0.245774463985222,-0.500982917291895
0.247816122583453,-0.503970988900698
0.249839422056138,-0.506918684744611
0.251844436104768,-0.509826102837255
0.255799902735814,-0.515520497823228
0.257750502721209,-0.5183076707438
0.259683112088502,-0.521054957967592
0.261597804539182,-0.523762457508225
0.263494653774739,-0.526430267379323
0.265373733496661,-0.529058485594507
0.267235117406437,-0.531647210167398
0.269078879205556,-0.534196539111619
0.270905092595505,-0.536706570440792
0.274505168953854,-0.541609132308482
0.278035936093392,-0.546355679879443
0.279775512959829,-0.548670693337706
0.281497983626029,-0.550946997262652
0.283203421793483,-0.553184689667905
0.286563495438101,-0.557544631973816
0.289856323505593,-0.561751304364414
0.291477704701638,-0.563797409375526
0.293082495607869,-0.565805490948677
0.294670769925773,-0.567775647097487
0.296242601356839,-0.569707975835579
0.297798063602556,-0.571602575176575
0.300860175343897,-0.575278977721768
0.302366972242499,-0.577060976953208
0.303857694761707,-0.57880563884204
0.305332416603009,-0.580513061401887
0.306791211467895,-0.582183342646369
0.308234153057852,-0.583816580589109
0.30966131507437,-0.58541287324373
0.312468595193044,-0.588495014743099
0.313848860698177,-0.589981059615092
0.315213641435825,-0.591430551253453
0.316563011107478,-0.592843587671804
0.317897043414624,-0.594220266883767
0.319215812058751,-0.595560686902964
0.320519390741349,-0.596864945743017
0.321807853163907,-0.598133141417549
0.323081273027912,-0.59936537194018
0.324339724034854,-0.600561735324534
0.325583279886221,-0.601722329584232
0.326812014283503,-0.602847252732896
0.328026000928188,-0.603936602784148
0.329225313521764,-0.60499047775161
0.33041002576572,-0.606008975648905
0.331580211361546,-0.606992194489654
0.332735944010729,-0.607940232287479
0.333877297414759,-0.608853187056002
0.335004345275124,-0.609731156808845
0.336117161293313,-0.610574239559631
0.337215819170815,-0.61138253332198
0.338300392609118,-0.612156136109517
0.340427580974083,-0.613599660814635
0.341470343303723,-0.614269778759462
0.342499316000119,-0.614905597783963
0.34351457276476,-0.615507215901761
0.344516187299135,-0.616074731126476
0.345504233304733,-0.616608241471732
0.346478784483041,-0.617107844951151
0.34743991453555,-0.617573639578353
0.348387697163747,-0.618005723366962
0.349322206069122,-0.618404194330599
0.350243514953163,-0.618769150482887
0.351151697517359,-0.619100689837446
0.352046827463198,-0.619398910407901
0.353798224305763,-0.61989578725098
0.356329267469154,-0.620393661975357
0.357147629436119,-0.62049402812724
0.357953454695147,-0.62056176159037
0.359527789895354,-0.620599722504865
0.361052862681684,-0.620508328827818
0.361797109923367,-0.620414369051521
0.362529262666048,-0.620288364668204
0.363249394611214,-0.62013041369149
0.363957579460354,-0.619940614135
0.36601118844651,-0.619181104123098
0.366672321926435,-0.618864890383726
0.367321876817779,-0.618517318132689
0.369201806975207,-0.617287430445804
0.370980183088992,-0.615778844644321
0.371550751501947,-0.615214507193042
0.37211033093823,-0.614619595339073
0.37265899509933,-0.613994207096036
0.373196817686735,-0.613338440477554
0.373723872401934,-0.612652393497249
0.374745973021669,-0.611189850505656
0.375241166329183,-0.610413550521612
0.375725886570446,-0.609607362230233
0.376200207446947,-0.608771383645141
0.376664202660174,-0.607905712779957
0.377117945911617,-0.607010447648304
0.377561510902763,-0.606085686263804
0.378418400910122,-0.604148066790749
0.379629241506159,-0.601022866025361
0.380013284666792,-0.599923185409839
0.38038766547755,-0.598794694636823
0.380752457639922,-0.597637491719936
0.381453570825462,-0.595237341509036
0.381790039251608,-0.593994590242267
0.382117213835322,-0.592723518886115
0.382743976281411,-0.590096807960149
0.383043711546764,-0.588741364417579
0.383616258669528,-0.585946791241375
0.383889217929917,-0.584507857634985
0.384153399258297,-0.583041290034567
0.384894012666259,-0.578476763405355
0.385558277939724,-0.573667059320272
0.385959688511607,-0.570325687080805
0.386148185018886,-0.568614824147113
0.386328640609043,-0.566877307355613
0.386501128983565,-0.565113234719925
0.386822498891661,-0.561505813970476
0.387246642173767,-0.555897964355449
0.387491656492514,-0.55202939577712
0.387804030196422,-0.546033499929597
0.388120681418964,-0.537682741808972
0.38823754206446,-0.533356456855029
0.388285864100975,-0.531155930952327
0.388362660108981,-0.526680602363572
0.388391281483451,-0.524405995704764
0.388413483373549,-0.52210689148783
0.388429339480765,-0.519783387726393
0.388438923506588,-0.517435582434075
0.388442309152505,-0.515063573624499
0.388439570120007,-0.512667459311285
0.388430780110581,-0.510247337508057
0.388416012825717,-0.507803306228435
0.388395341966902,-0.505335463486043
0.388336584333379,-0.500328735667433
0.38825509682192,-0.495227938161204
0.388206013615687,-0.492642508309287
0.388151469044436,-0.490033855076332
0.388091536809657,-0.487402076475959
0.388026290612837,-0.484747270521791
0.387880151139033,-0.47936896860656
0.387713640234932,-0.473899733439613
0.387622929750243,-0.471131260920801
0.38742696722303,-0.465527096080612
0.387212107295296,-0.459833958261147
0.387097775059955,-0.456954269518241
0.38685567455377,-0.451129142434193
0.386596150676838,-0.445217002643311
0.386460039228064,-0.442228548016861
0.38587498306565,-0.430061118288856
0.385559120584895,-0.423850608882237
0.38539561369984,-0.420713998590951
0.385228487986987,-0.417556615259176
0.385057817147823,-0.414378556900534
0.384883674883836,-0.411179921528647
0.384693698308321,-0.407979943231672
0.384475541880499,-0.404797813999649
0.384229305320756,-0.401633568699026
0.382580410756672,-0.386081821492662
0.382167787533473,-0.383025611975883
0.381727782221042,-0.379987530455651
0.380244470952211,-0.370982402538726
0.379120514533884,-0.365070263128413
0.377889423047861,-0.359231472499069
0.377233950955424,-0.356339670143384
0.376551994257217,-0.353466309582289
0.375843652673622,-0.350611425682233
0.375109025925026,-0.347775053309667
0.374348213731812,-0.344957227331039
0.372748431893069,-0.339377354021395
0.371909661688308,-0.336615376423277
0.369239030577084,-0.328441698253134
0.367331006625993,-0.323086473657708
0.36532183083027,-0.317806689830209
0.363212300952992,-0.312602625702233
0.361003214757231,-0.307474560205374
0.359861587340882,-0.304939114109737
0.356289564462569,-0.297447540831386
0.353786595889818,-0.292549144817445
0.352498924768432,-0.290128847261311
0.351187262050886,-0.287727863161
0.34849236070885,-0.282983974793645
0.342819046567766,-0.27372949365258
0.339842229294869,-0.269219458742061
0.338319129629177,-0.266993864734377
0.336773035571168,-0.264787932847009
0.331997784247088,-0.258288458571296
0.330360709823659,-0.256161523829686
0.325314910692541,-0.249899877786031
0.32358845142984,-0.247852498053368
0.320069341898253,-0.243817701209572
0.316462642494315,-0.23986308697081
0.312769150981101,-0.235988934268678
0.310890107484476,-0.234082118159971
0.308989665121686,-0.232195522034769
0.303160942040165,-0.226657402224689
0.299169960528703,-0.223067061487065
0.297143219096991,-0.22130251745833
0.295095776841804,-0.219558437478246
0.293027733483527,-0.217834856413261
0.288830242339239,-0.214449330494388
0.284551543427202,-0.211146218633306
0.277982975601345,-0.206346687362903
0.275753713352184,-0.204788352810892
0.273504747483392,-0.203250830972024
0.271236177715353,-0.201734156712749
0.264313842219604,-0.197309568076973
0.261967854058424,-0.195876632800563
0.259602760599921,-0.194464719435991
0.252393845644309,-0.190355459477807
0.247494204060994,-0.187721701616452
0.234922973146625,-0.181509461560295
0.232354302962927,-0.180331090411612
0.229767724126518,-0.17917415957216
0.224541239377103,-0.176924758286747
0.221901532904866,-0.175832357573685
0.211168606508029,-0.171678901136212
0.200161905877017,-0.16787295255195
0.191731055297382,-0.165247885500721
0.171489274586431,-0.159893071857802
0.168533934647632,-0.159216649033111
0.159574623209556,-0.15732097345023
0.147414917069218,-0.155106424433271
0.141245162870439,-0.154133928275257
0.128729841031038,-0.152459887318135
0.125564964473046,-0.152098028666247
0.119192654081983,-0.151442537332487
0.10301828095097,-0.150203420924153
0.0997424445758391,-0.150024381475692
0.0898348069195086,-0.149625458392807
0.0865058839250342,-0.149538665340842
0.0831639385766847,-0.149475021054125
0.0764413796998992,-0.14941731824223
0.0730609656122317,-0.149423329449952
0.0594140717420345,-0.149680605255777
0.0559715374965253,-0.149803406283215
0.052516878380601,-0.149949669873944
0.0490501941146461,-0.150119430894414
0.0385789876204412,-0.15077004719876
0.0350651999582077,-0.151034146602685
0.00654831944072005,-0.154002054047368
0.00293438277934797,-0.154480454501353
-0.000690182946673029,-0.154982840515369
-0.00432527801695851,-0.155509246955866
-0.011626657308785,-0.156634260582097
-0.0189689573330565,-0.15785577431164
-0.0300573886360704,-0.15986959276253
-0.0412334041697865,-0.162102105436094
-0.0487314094930842,-0.163712408894834
-0.0562663467334499,-0.16542060711486
-0.0600474155215724,-0.166311503926478
-0.0829179482172425,-0.172174249204968
-0.0867594596040889,-0.173237926239706
-0.0906092067663581,-0.17432642562926
-0.0983330095356277,-0.176578030938607
-0.106088558761976,-0.178929344064603
-0.113875056682327,-0.181380643938844
-0.121691705533607,-0.183932209492924
-0.129537707552739,-0.186584319658436
-0.133471466699289,-0.187948166136603
-0.157218353112141,-0.196662521127662
-0.173179756495904,-0.202980625253752
-0.185214598288211,-0.207987770191091
-0.189237830711118,-0.209708160047032
-0.197301124972832,-0.213226161272855
-0.209436644099385,-0.218696739893176
-0.213492238989095,-0.220572026040836
-0.221618463217493,-0.224400447446185
-0.225688893115414,-0.226353652436771
-0.229764068575303,-0.228332900107898
-0.233843889876776,-0.230338225326014
-0.242017071122937,-0.234427247869013
-0.246110231626855,-0.236511014926795
-0.254309193794446,-0.240757234947168
-0.266637744139453,-0.247323802736493
-0.274875685694052,-0.251833413210461
-0.279000029707578,-0.254127892631119
-0.283127822918073,-0.256448867996159
-0.287258965605156,-0.258796374172029
-0.307961430975912,-0.270933087539568
-0.316262373246866,-0.275974708888125
-0.32873267520367,-0.283738301145273
-0.332894080587833,-0.286379947425937
-0.33705763880397,-0.289048542914823
-0.341223250131696,-0.29174412247838
-0.345390814850626,-0.294466720983059
-0.378789688239311,-0.317224374874771
-0.382970346061785,-0.320191712839759
-0.41644165487427,-0.344918579143524
-0.424813060727932,-0.351376063762567
-0.42899875199023,-0.354646363044025
-0.466651673745721,-0.385332041696115
-0.491711389085266,-0.407050513864314
-0.512550394382636,-0.425926459727679
-0.525028973589457,-0.437593129900619
-0.529183764340825,-0.441539079599448
-0.57881507929196,-0.491130306434442
-0.603440050350869,-0.51748849602694
-0.607529642420716,-0.521983578584066
-0.615695440699831,-0.531061529746399
-0.619771447468331,-0.535644468084505
-0.62384272636228,-0.540256761415835
-0.668286234445403,-0.592939389417831
-0.676293742624557,-0.602903743341054
-0.692234473700594,-0.623190847601279
-0.696203598666888,-0.628337492973493
-0.71201287570967,-0.649224597684466
-0.715947890662845,-0.654521678999984
-0.719875784452243,-0.659848952103511
-0.743288018407783,-0.692448570794013
-0.762584099296388,-0.720451586055375
-0.777871841778557,-0.743404772402975
-0.781672234975241,-0.749219855951745
-0.785463811761613,-0.755065724018163
-0.80053996039629,-0.778757738789289
-0.808022543521762,-0.790789359808415
-0.833906643871133,-0.833879264221897
-0.844848636707428,-0.852814758503463
-0.8592903319315,-0.878501528384307
-0.862873728692517,-0.8850019254711
-0.866446115194765,-0.891533874137426
-0.877096215945048,-0.911319378278087
-0.880623564208374,-0.917977881927033
