-0.0344411664714119,-0.62862578518775
-0.0347954901025131,-0.51353041344406
-0.0337914198502876,-0.408194290085767
-0.0314640096941345,-0.312262017696037
-0.0278483136134529,-0.225378198858032
-0.0229793855876418,-0.147187436154917
-0.0168922795961004,-0.0773343321698574
-0.00962204961822757,-0.0154634894860163
-0.00120374963342255,0.0387804893134415
0.00832756637891564,0.0857530016453519
0.0189368444393879,0.12580944492655
0.0305890305685952,0.159305216573873
0.0432490707871384,0.186595714004155
0.0568819111156185,0.208036334634232
0.0714524975746364,0.223982475880941
0.086925776184793,0.234789535161116
0.103266692966689,0.240812909891593
0.120440193940926,0.242407997489209
0.138411225128104,0.239930195370798
0.157144732548825,0.233734900953197
0.176605662223689,0.22417751165324
0.196758960173297,0.211613424887765
0.217569572418251,0.196398038073607
0.239002444979151,0.1788867486276
0.261022523876597,0.159434953966582
0.283594755131192,0.138398051507387
0.306684084763536,0.116131438666851
0.330255458794229,0.0929905128618108
0.354273823243873,0.0693306715091011
0.378704124133069,0.0455073120255579
0.388427840680306,0.0172560303782793
0.428660319312519,-0.00120837166668662
0.473253303412109,-0.00765090135728033
0.48526642791968,-0.0033474550490139
0.486612037930192,-0.0556790143945317
0.483985092088653,-0.130498318984548
0.568617522840025,-0.089309612037953
0.584769765542607,-0.108318526532513
0.652422897116763,-0.167161351098117
0.651175908750701,-0.114524928958695
0.705307901617643,-0.142128774844354
0.710071550157011,-0.101606174379316
0.677327705198448,-0.129341723272233
0.752283552562598,-0.137065066739436
0.711022109720251,-0.160906061078997
0.716801906581648,-0.195057926565651
0.700718151642619,-0.156101230570892
0.647904541162817,-0.120908689590312
0.668837969035458,-0.173757599248755
0.61846960234271,-0.154712728219443
0.637776068092012,-0.208371359671612
0.601991058346158,-0.15223287106653
0.606108843326679,-0.208829628058678
0.570937888165013,-0.18874116401524
0.486140366692362,-0.225809273446705
0.447435586577272,-0.232152735871145
0.399348198658167,-0.192734898671078
0.396683970111277,-0.218186356124716
0.325627872849871,-0.242999009975804
0.239286510187234,-0.220361520912298
0.26170804150654,-0.206295021629065
0.20416138050226,-0.237173065395759
0.165721994793674,-0.230549246620987
0.130045980674107,-0.198196859412942
0.134701902949744,-0.179203580082459
0.0474562969324971,-0.166281780326628
0.0632366080876329,-0.196637764355492
0.00792722170464441,-0.152896268532787
0.00815353219814779,-0.124032336393052
-0.031241875916489,-0.0971449989470772
-0.0440028638662406,-0.0631412904254719
-0.0227003618767854,0.0133060376476044
-0.0537631272219732,0.0181689523923128
-0.0499165662990978,0.0658941580153211
-0.0406512184425597,0.106029014918066
-0.0196525294416871,0.16795848729258
0.0317202232348353,0.262600677212358
0.0335157185673375,0.308813374081135
0.102104237492522,0.427716562086267
0.124355642955986,0.470483055335715
