-0.724927316067914,-0.0635777258896228
0.875814275397575,0.647326772654114
-0.545957755077367,0.402869597294259
-0.259605552516145,-0.250026293823486
0.0267466500450768,-0.90292218494123
0.101470642282682,-0.0486931736779304
0.921595872115561,-0.279857551026854
