-0.454712082841516,-0.94367681821927
-0.456141096486451,-0.938296409422276
-0.457559942606618,-0.932935486978344
-0.458968664922587,-0.927593997788216
-0.460367307154931,-0.922271888752634
-0.461755913024222,-0.916969106772341
-0.46313452625103,-0.911685598748079
-0.464503190555927,-0.90642131158059
-0.465861949659486,-0.901176192170617
-0.467210847282278,-0.895950187418903
-0.468549927144873,-0.890743244226189
-0.469879232967845,-0.885555309493217
-0.471198808471764,-0.880386330120732
-0.472508697377202,-0.875236253009475
-0.47380894340473,-0.870105025060187
-0.475099590274921,-0.864992593173613
-0.476380681708346,-0.859898904250493
-0.477652261425576,-0.854823905191571
-0.478914373147183,-0.849767542897589
-0.480167060593739,-0.844729764269289
-0.481410367485815,-0.839710516207413
-0.482644337543983,-0.834709745612706
-0.483869014488814,-0.829727399385907
-0.48508444204088,-0.82476342442776
-0.486290663920753,-0.819817767639008
-0.487487723849005,-0.814890375920392
-0.488675665546206,-0.809981196172655
-0.489854532732928,-0.80509017529654
-0.491024369129744,-0.800217260192789
-0.492185218457224,-0.795362397762144
-0.49333712443594,-0.790525534905348
-0.494480130786464,-0.785706618523143
-0.495614281229368,-0.780905595516271
-0.496739619485223,-0.776122412785476
-0.4978561892746,-0.771357017231498
-0.498964034318072,-0.766609355755082
-0.500063198336209,-0.761879375256968
-0.501153725049584,-0.7571670226379
-0.502235658178768,-0.752472244798621
-0.503309041444332,-0.747794988639871
-0.504373918566849,-0.743135201062394
-0.505430333266889,-0.738492828966932
-0.506478329265025,-0.733867819254228
-0.507517950281828,-0.729260118825024
-0.50854924003787,-0.724669674580062
-0.509572242253722,-0.720096433420085
-0.510587000649955,-0.715540342245835
-0.511593558947142,-0.711001347958055
-0.512591960865854,-0.706479397457487
-0.513582250126663,-0.701974437644873
-0.51456447045014,-0.697486415420955
-0.515538665556856,-0.693015277686477
-0.516504879167385,-0.688560971342181
-0.517463155002296,-0.684123443288809
-0.518413536782161,-0.679702640427102
-0.519356068227553,-0.675298509657805
-0.520290793059043,-0.670910997881659
-0.521217754997203,-0.666540051999407
-0.522136997762603,-0.66218561891179
-0.523048565075815,-0.657847645519552
-0.523952500657413,-0.653526078723435
-0.524848848227966,-0.649220865424181
-0.525737651508046,-0.644931952522532
-0.526618954218225,-0.640659286919232
-0.527492800079075,-0.636402815515022
-0.528359232811167,-0.632162485210645
-0.529218296135073,-0.627938242906842
-0.530070033771364,-0.623730035504358
-0.530914489440612,-0.619537809903934
-0.531751706863389,-0.615361513006312
-0.532581729760267,-0.611201091712235
-0.533404601851815,-0.607056492922445
-0.534220366858608,-0.602927663537685
-0.535029068501215,-0.598814550458697
-0.535830750500209,-0.594717100586223
-0.536625456576161,-0.590635260821006
-0.537413230449643,-0.586568978063789
-0.538194115841227,-0.582518199215313
-0.538968156471483,-0.578482871176321
-0.539735396060984,-0.574462940847555
-0.540495878330301,-0.570458355129759
-0.541249647000006,-0.566469060923674
-0.54199674579067,-0.562495005130042
-0.542737218422866,-0.558536134649606
-0.543471108617164,-0.55459239638311
-0.544198460094136,-0.550663737231293
-0.544919316574354,-0.546750104094901
-0.545633721778389,-0.542851443874673
-0.546341719426814,-0.538967703471354
-0.547043353240199,-0.535098829785686
-0.547738666939116,-0.53124476971841
-0.548427704244137,-0.527405470170269
-0.549110508875833,-0.523580878042007
-0.549787124554776,-0.519770940234364
-0.550457595001538,-0.515975603648084
-0.55112196393669,-0.512194815183909
-0.551780275080804,-0.508428521742581
-0.552432572154452,-0.504676670224843
-0.553078898878204,-0.500939207531437
-0.553719298972633,-0.497216080563105
-0.55435381615831,-0.49350723622059
-0.554982494155806,-0.489812621404635
-0.555605376685695,-0.486132183015982
-0.556222507468546,-0.482465867955372
-0.556833930224932,-0.478813623123549
-0.557439688675424,-0.475175395421256
-0.558039826540593,-0.471551131749233
-0.558634387541012,-0.467940779008224
-0.559223415397253,-0.464344284098971
-0.559806953829885,-0.460761593922217
-0.560385046559482,-0.457192655378704
-0.560957737306615,-0.453637415369174
-0.561525069791855,-0.45009582079437
-0.562087087735774,-0.446567818555034
-0.562643834858944,-0.443053355551909
-0.563195354881935,-0.439552378685736
-0.563741691525321,-0.436064834857259
-0.564282888509672,-0.43259067096722
-0.56481898955556,-0.429129833916361
-0.565350038383556,-0.425682270605424
-0.565876078714233,-0.422247927935153
-0.566397154268161,-0.418826752806289
-0.566913308765913,-0.415418692119575
-0.56742458592806,-0.412023692775752
-0.567931029475173,-0.408641701675565
-0.568432683127825,-0.405272665719754
-0.568929590606586,-0.401916531809063
-0.569421795632029,-0.398573246844234
-0.569909341924725,-0.395242757726009
-0.570392273205245,-0.39192501135513
-0.570870633194161,-0.388619954632341
-0.571344465612045,-0.385327534458382
-0.571813814179469,-0.382047697733998
-0.572278722617003,-0.37878039135993
-0.57273923464522,-0.375525562236921
-0.573195393984691,-0.372283157265712
-0.573647244355988,-0.369053123347047
-0.574094829479683,-0.365835407381668
-0.574538193076346,-0.362629956270317
-0.57497737886655,-0.359436716913737
-0.575412430570866,-0.35625563621267
-0.575843391909866,-0.353086661067858
-0.576270306604121,-0.349929738380044
-0.576693218374203,-0.34678481504997
-0.577112170940684,-0.343651837978379
-0.577527208024135,-0.340530754066013
-0.577938373345127,-0.337421510213615
-0.578345710624233,-0.334324053321926
-0.578749263582024,-0.33123833029169
-0.579149075939072,-0.328164288023648
-0.579545191415947,-0.325101873418544
-0.579937653733222,-0.322051033377118
-0.580326506611469,-0.319011714800115
-0.580711793771259,-0.315983864588276
-0.581093558933163,-0.312967429642344
-0.581471845817753,-0.30996235686306
-0.581846698145602,-0.306968593151169
-0.582218159637279,-0.303986085407411
-0.582586274013358,-0.301014780532529
-0.582951084994409,-0.298054625427266
-0.583312636301004,-0.295105566992365
-0.583670971653715,-0.292167552128566
-0.584026134773113,-0.289240527736614
-0.58437816937977,-0.28632444071725
-0.584727119194258,-0.283419237971217
-0.585073027937148,-0.280524866399256
-0.585415939329011,-0.277641272902112
-0.58575589709042,-0.274768404380525
-0.586092944941946,-0.271906207735238
-0.586427126604161,-0.269054629866995
-0.586758485797635,-0.266213617676536
-0.587087066242942,-0.263383118064605
-0.587412911660651,-0.260563077931944
-0.587736065771336,-0.257753444179295
-0.588056572295567,-0.254954163707401
-0.588374474953917,-0.252165183417004
-0.588689817466956,-0.249386450208847
-0.589002643555256,-0.246617910983672
-0.589312996939389,-0.24385951264222
-0.589620921339927,-0.241111202085236
-0.589926460477441,-0.238372926213461
-0.590229658072503,-0.235644631927637
-0.590530557845684,-0.232926266128508
-0.590829203517556,-0.230217775716814
-0.591125638808691,-0.2275191075933
-0.59141990743966,-0.224830208658707
-0.591712053131034,-0.222151025813777
-0.592002119603386,-0.219481505959253
-0.592290150577286,-0.216821595995878
-0.592576189773308,-0.214171242824394
-0.592860280912021,-0.211530393345542
-0.593142467713998,-0.208898994460066
-0.59342279389981,-0.206276993068709
-0.59370130319003,-0.203664336072211
-0.593978039305228,-0.201060970371317
-0.594253045965976,-0.198466842866767
-0.594526366892845,-0.195881900459305
-0.594798045806409,-0.193306090049674
-0.595068126427236,-0.190739358538614
-0.595336652475901,-0.18818165282687
-0.595603667672974,-0.185632919815182
-0.595869215739026,-0.183093106404295
-0.59613334039463,-0.180562159494949
-0.596396085360356,-0.178040025987888
-0.596657494356777,-0.175526652783853
-0.596917611104465,-0.173021986783588
-0.59717647932399,-0.170525974887835
-0.597434142735924,-0.168038563997335
-0.597690645060839,-0.165559701012832
-0.597946030019307,-0.163089332835068
-0.598200341331899,-0.160627406364785
-0.598453622719186,-0.158173868502726
-0.598705917901741,-0.155728666149632
-0.598957270600135,-0.153291746206247
-0.599207724534939,-0.150863055573314
-0.599457323426726,-0.148442541151573
-0.599706110996066,-0.146030149841768
-0.599954130963531,-0.143625828544641
-0.600201427049694,-0.141229524160934
-0.600448042975125,-0.138841183591391
-0.600694022460395,-0.136460753736753
-0.600939409226078,-0.134088181497762
-0.601184246992744,-0.131723413775161
-0.601428579480965,-0.129366397469693
-0.601672450411313,-0.1270170794821
-0.601915903504358,-0.124675406713124
-0.602158982480673,-0.122341326063508
-0.60240173106083,-0.120014784433994
-0.602644192965399,-0.117695728725324
-0.602886411914953,-0.115384105838242
-0.603128431630063,-0.113079862673488
-0.603370295831301,-0.110782946131806
-0.603612048239238,-0.108493303113939
-0.603853732574446,-0.106210880520628
-0.604095392557497,-0.103935625252616
-0.604337071908961,-0.101667484210645
-0.604578814349412,-0.0994064042954579
-0.604820663599419,-0.0971523324077969
-0.605062663379556,-0.0949052154484045
-0.605304857410393,-0.092665000318023
-0.605547289412502,-0.0904316339173949
-0.605790003106455,-0.0882050631472624
-0.606033042212823,-0.0859852349083682
-0.606276450452178,-0.0837720961014544
-0.606520271545091,-0.0815655936272637
-0.606764549212135,-0.0793656743865382
-0.60700932717388,-0.0771722852800206
-0.607254649150899,-0.074985373208453
-0.607500558863762,-0.0728048850725781
-0.607747100033042,-0.0706307677731381
-0.60799431637931,-0.0684629682108755
-0.608242251623138,-0.0663014332865326
-0.608490949485097,-0.064146109900852
-0.608740453685759,-0.0619969449545758
-0.608990807945696,-0.0598538853484467
-0.609242055985478,-0.0577168779832069
-0.609494241525678,-0.055585869759599
-0.609747408286868,-0.0534608075783652
-0.610001599989618,-0.051341638340248
-0.610256860354501,-0.0492283089459898
-0.610513233102088,-0.047120766296333
-0.610770761952951,-0.04501895729202
-0.611029490627661,-0.0429228288337933
-0.61128946284679,-0.040832327822395
-0.611550722330909,-0.0387474011585678
-0.61181331280059,-0.036667995743054
-0.612077277976405,-0.0345940584765961
-0.612342661578926,-0.0325255362599363
-0.612609507328723,-0.0304623759938172
-0.612877858946369,-0.028404524578981
-0.613147760152434,-0.0263519289161704
-0.613419254667492,-0.0243045359061275
-0.613692386212113,-0.0222622924495949
-0.613967198506868,-0.0202251454473149
-0.61424373527233,-0.01819304180003
-0.614522040229071,-0.0161659284084824
-0.614802157097661,-0.0141437521734148
-0.615084129598672,-0.0121264599955693
-0.615368001452676,-0.0101139987756886
-0.615653816380244,-0.00810631541451481
-0.615941618101949,-0.00610335681279058
-0.616231450338361,-0.00410506987125811
-0.616523356810053,-0.00211140149065999
-0.616817381237595,-0.000122298571738462
-0.61711356734156,0.00186229198476394
-0.617411958842519,0.00384242327810494
-0.617712599461043,0.00581814840754197
-0.618015532917705,0.00778952047233282
-0.618320802933076,0.0097565925717349
-0.618628453227727,0.011719417805006
-0.618938527522231,0.0136780492714035
-0.619251069537157,0.0156325400701853
-0.61956612299308,0.0175829433006086
-0.619883731610569,0.0195293120619313
-0.620203939110196,0.0214716994534109
-0.620526789212534,0.0234101585743051
-0.620852325638153,0.0253447425238712
-0.621180592107626,0.0272755044013671
-0.621511632341523,0.0292024973060503
-0.621845490060417,0.0311257743371784
-0.622182208984879,0.0330453885940089
-0.62252183283548,0.0349613931757996
-0.622864405332793,0.0368738411818079
-0.623209970197389,0.0387827857112916
-0.623558571149839,0.040688279863508
-0.623910251910716,0.042590376737715
-0.62426505620059,0.04448912943317
-0.624623027740033,0.0463845910491308
-0.624984210249617,0.0482768146848547
-0.625348647449913,0.0501658534395995
-0.625716383061494,0.0520517604126228
-0.62608746080493,0.0539345887031821
-0.626461924400793,0.0558143914105351
-0.626839817569655,0.0576912216339393
-0.627221184032088,0.0595651324726524
-0.627606067508663,0.0614361770259319
-0.627994511719951,0.0633044083930354
-0.628386560386525,0.0651698796732207
-0.628782257228956,0.067032643965745
-0.629181645967815,0.0688927543698663
-0.629584770323674,0.070750263984842
-0.629991674017104,0.0726052259099297
-0.630402400768678,0.074457693244387
-0.630816994298967,0.0763077190874716
-0.631235498328542,0.0781553565384409
-0.631657956577976,0.0800006586965527
-0.632084412767838,0.0818436786610645
-0.632514910618703,0.0836844695312339
-0.63294949385114,0.0855230844063185
-0.633388206185721,0.0873595763855759
-0.633831091343019,0.0891939985682637
-0.634278193043604,0.0910264040536395
-0.634729555008048,0.0928568459409609
-0.635185220956923,0.0946853773294855
-0.635645234610801,0.0965120513184708
-0.636109639690253,0.0983369210071746
-0.63657847991585,0.100160039494854
-0.637051799008165,0.101981459880768
-0.637529640687768,0.103801235264172
-0.638012048675232,0.105619418744325
-0.638499066691128,0.107436063420485
-0.638990738456027,0.109251222391909
-0.639487107690502,0.111064948757854
-0.639988218115124,0.112877295617578
-0.640494113450464,0.114688316070339
-0.641004837417094,0.116498063215394
-0.641520433735586,0.118306590152002
-0.642040946126511,0.120113949979419
-0.64256641831044,0.121920195796903
-0.643096894007946,0.123725380703712
-0.643632416939601,0.125529557799103
-0.644173030825974,0.127332780182334
-0.64471877938764,0.129135100952662
-0.645269706345168,0.130936573209346
-0.64582585541913,0.132737250051643
-0.646387270330098,0.134537184578809
-0.646953994798644,0.136336429890104
-0.647526072545339,0.138135039084784
-0.648103547290756,0.139933065262108
-0.648686462755464,0.141730561521332
-0.649274862660036,0.143527580961714
-0.649868790725045,0.145324176682513
-0.65046829067106,0.147120401782984
-0.651073406218654,0.148916309362387
-0.651684181088399,0.150711952519979
-0.652300659000865,0.152507384355017
-0.652922883676626,0.154302657966758
-0.653550898836251,0.156097826454462
-0.654184748200313,0.157892942917384
-0.654824475489384,0.159688060454783
-0.655470124424035,0.161483232165916
-0.656121738724837,0.163278511150042
-0.656779362112363,0.165073950506416
-0.657443038307183,0.166869603334298
-0.65811281102987,0.168665522732944
-0.658788724000994,0.170461761801613
-0.659470820941129,0.172258373639562
-0.660159145570844,0.174055411346048
-0.660853741610713,0.175852928020329
-0.661554652781306,0.177650976761662
-0.662261922803194,0.179449610669306
-0.662975595396951,0.181248882842518
-0.663695714283147,0.183048846380555
-0.664422323182353,0.184849554382676
-0.665155465815142,0.186651059948137
-0.665895185902085,0.188453416176196
-0.666641527163753,0.190256676166111
-0.667394533320719,0.192060893017139
-0.668154248093554,0.193866119828539
-0.668920715202828,0.195672409699567
-0.669693978369116,0.197479815729481
-0.670474081312986,0.199288391017539
-0.671261067755012,0.201098188662999
-0.672054981415764,0.202909261765117
-0.672855866015815,0.204721663423152
-0.673663765275736,0.206535446736362
-0.674478722916099,0.208350664804003
-0.675300782657474,0.210167370725334
-0.676129988220435,0.211985617599611
-0.676966383325552,0.213805458526093
