0.314440883973268,0.102752303635592
0.244075041589759,0.0945728095540102
0.176636181164229,0.0871442114791021
0.11208488785831,0.0804373344048872
0.0503817468336317,0.074423003325385
-0.00851265674817368,0.0690720432346151
-0.0646377377254752,0.0643552791265968
-0.118032910936642,0.0602435359953498
-0.168737591220042,0.0567076388348936
-0.216791193414045,0.0537184126392475
-0.26223313235702,0.0512466824024312
-0.305102822887335,0.0492632731184642
-0.345439679843359,0.0477390097813659
-0.383283118063461,0.0466447173851558
-0.418672552386009,0.0459512209238536
-0.451647397649373,0.0456293453914786
-0.482247068691922,0.0456499157820503
-0.510510980352024,0.0459837570895884
-0.536478547468048,0.0466016943081122
-0.560189184878363,0.0474745524316414
-0.581682307421337,0.0485731564541953
-0.60099732993534,0.0498683313697935
-0.618173667258741,0.0513309021724555
-0.633250734229907,0.0529316938562009
-0.646267945687208,0.054641531415049
-0.657264716469014,0.0564312398430195
-0.666280461413692,0.0582716441341318
-0.673354595359611,0.0601335692824055
-0.678526533145141,0.06198784028186
-0.681835689608649,0.0638052821265148
-0.683321479588506,0.0655567198103895
-0.683023317923079,0.0672129783275035
-0.680980619450738,0.0687448826718764
-0.677232799009851,0.0701232578375277
-0.671819271438788,0.0713189288184768
-0.664779451575916,0.0723027206087433
-0.656152754259605,0.0730454582023467
-0.645978594328224,0.0735179665933065
-0.634296386620142,0.0736910707756421
-0.621145545973727,0.0735355957433732
-0.60808668459359,0.0730906198434014
-0.59170757606813,0.0726730180303723
-0.572934894411617,0.0727440024747985
-0.551888549154195,0.0732994050494096
-0.528688449826007,0.0743350576269353
-0.503454505957194,0.0758467920801052
-0.4763066270779,0.0778304402816491
-0.447364722718268,0.0802818341042965
-0.41674870240844,0.0831968054207772
-0.384578475678558,0.0865711861038209
-0.350973952058766,0.0904008080261573
-0.316055041079207,0.0946815030605159
-0.279941652270022,0.0994091030796265
-0.242753695161355,0.104579439956219
-0.204611079283348,0.110188345563022
-0.165633714166145,0.116231651772767
-0.125941509339887,0.122705190458182
-0.0856543743347173,0.129604793491998
-0.044892218680779,0.136926292746944
-0.00377495190821464,0.144665520095749
0.0371593140337724,0.168721394521837
0.100566045180056,0.167106272706737
0.103629194093863,0.174450253991441
0.167273844274455,0.169577860606992
0.217544744752932,0.171063515123948
0.243671048530329,0.199639759032498
0.285419343510277,0.199058002446703
0.323558038925716,0.221117374992704
0.340180002288524,0.219922591430599
0.354468656293791,0.25269382709775
0.437658190798504,0.256174990728038
0.47855235785873,0.251122688210958
0.50534404736256,0.26684741632484
0.545268773043358,0.291629920541029
0.574058903418347,0.308046975047177
0.60947963830601,0.355571918202968
0.633358249666897,0.336105868061036
0.647106186973114,0.339663803685012
0.694490345679997,0.369669881684856
0.708483042034795,0.380754050786101
