0.136145185562146,0.696184555904765
0.134417314812117,0.689392750087894
0.132700022401251,0.682664309495166
0.130993373557659,0.675998913045086
0.129297433509453,0.669396239656157
0.127612267484745,0.662855968246886
0.125937940711645,0.656377777735774
0.124274518418266,0.649961347041329
0.12262206583272,0.643606355082053
0.120980648183118,0.637312480776452
0.119350330697571,0.631079403043029
0.117731178604192,0.62490680080029
0.116123257131091,0.618794352966739
0.114526631506382,0.61274173846088
0.112941366958174,0.606748636201218
0.11136752871458,0.600814725106257
0.109805182003712,0.594939684094503
0.108254392053681,0.589123192084458
0.106715224092599,0.583364927994628
0.105187743348577,0.577664570743518
0.103672015049728,0.572021799249631
0.102168104424162,0.566436292431473
0.100676076699991,0.560907729207548
0.0991959971053273,0.555435788496359
0.0977279308682822,0.550020149216413
0.0962719432169674,0.544660490286213
0.0948280993794945,0.539356490624263
0.0933964645839752,0.534107829149069
0.091977104058521,0.528914184779135
0.0905700830312437,0.523775236432964
0.0891754667302548,0.518690663029063
0.087793320383666,0.513660143485934
0.0864237092195889,0.508683356722084
0.0850666984661353,0.503759981656015
0.0837223533514166,0.498889697206233
0.0823907391035446,0.494072182291242
0.0810719209506309,0.489307115829548
0.0797659641207872,0.484594176739653
0.078472933842125,0.479933043940062
0.077192895342756,0.475323396349281
0.0759259138507919,0.470764912885814
0.0746720545943443,0.466257272468165
0.0734313828015248,0.461800154014838
0.072203963700445,0.457393236444338
0.0709898625192167,0.45303619867517
0.0697891444859515,0.448728719625838
0.0686018748287609,0.444470478214847
0.0674281187757567,0.4402611533607
0.0662679415550504,0.436100423981904
0.0651214083947538,0.431987968996961
0.0639885845229784,0.427923467324377
0.0628695351678358,0.423906597882655
0.0617643255574378,0.419937039590302
0.060673020919896,0.41601447136582
0.059595686483322,0.412138572127715
0.0585323874758274,0.408309020794491
0.0574831891255239,0.404525496284652
0.0564481566605232,0.400787677516703
0.0554273553089367,0.397095243409149
0.0544208502988763,0.393447872880494
0.0534287068584536,0.389845244849242
0.0524509902157801,0.386287038233898
0.0514877655989675,0.382772931952967
0.0505390982361275,0.379302604924952
0.0496050533553717,0.375875736068359
0.0486856961848117,0.372492004301692
0.0477810919525592,0.369151088543455
0.0468913058867259,0.365852667712153
0.0460164032154233,0.362596420726291
0.0451564491667631,0.359382026504372
0.0443115089688569,0.356209163964901
0.0434816478498164,0.353077512026384
0.0426669310377532,0.349986749607324
0.0418674237607789,0.346936555626226
0.0410831912470053,0.343926609001594
0.0403142987245439,0.340956588651932
0.0395608114215063,0.338026173495747
0.0388227945660043,0.335135042451541
0.0381003133861494,0.332282874437819
0.0373934331100533,0.329469348373086
0.0367022189658277,0.326694143175846
0.0360267361815841,0.323956937764604
0.0353670499854342,0.321257411057865
0.0347232256054896,0.318595241974132
0.0340953282698621,0.31597010943191
0.0334834232066632,0.313381692349704
0.0328875756440045,0.310829669646019
0.0323078508099977,0.308313720239358
0.0317443139327545,0.305833523048226
0.0311970302403865,0.303388756991128
0.0306660649610053,0.300979100986568
0.0301514833227225,0.298604233953051
0.0296533505536499,0.29626383480908
0.029171731881899,0.293957582473162
0.0287066925355815,0.2916851558638
0.028258297742809,0.289446233899498
0.0278266127316932,0.287240495498762
0.0274117027303456,0.285067619580095
0.027013632966878,0.282927285062002
0.026632468669402,0.280819170862988
0.0262682750660292,0.278742955901557
0.0259211173848712,0.276698319096214
0.0255910608540398,0.274684939365462
0.0252781707016464,0.272702495627808
0.0249825121558029,0.270750666801754
0.0247041504446208,0.268829131805806
0.0244431507962117,0.266937569558468
0.0241995784386873,0.265075658978244
0.0239734986001592,0.26324307898364
0.0237649765087391,0.261439508493159
0.0235740773925387,0.259664626425306
0.0234008664796694,0.257918111698585
0.0232454089982431,0.256199643231502
0.0231077701763713,0.25450889994256
0.0229880152421656,0.252845560750264
0.0228862094237378,0.251209304573118
0.0228024179491994,0.249599810329628
0.0227367060466621,0.248016756938297
0.0226891389442375,0.24645982331763
0.0226597818700373,0.244928688386131
0.0226487000521731,0.243423031062305
0.0226559587187566,0.241942530264657
0.0226816230978993,0.24048686491169
0.0227257584177129,0.23905571392191
0.0227884299063091,0.237648756213821
0.0228697027917995,0.236265670705927
0.0229696423022958,0.234906136316733
0.0230883136659095,0.233569831964743
0.0232257821107523,0.232256436568463
0.0233821128649359,0.230965629046396
0.0235573711565719,0.229697088317046
0.023751622213772,0.228450493298919
0.0239649312646477,0.227225522910518
0.0241973635373107,0.226021856070349
0.0244489842598727,0.224839171696916
0.0247198586604453,0.223677148708723
0.0250100519671401,0.222535466024275
0.0253196294080688,0.221413802562076
0.025648656211343,0.220311837240631
0.0259971976050743,0.219229248978444
0.0263653188173745,0.21816571669402
0.0267530850763551,0.217120919305863
0.0271605616101277,0.216094535732478
0.0275878136468041,0.215086244892369
0.0280349064144958,0.214095725704041
0.0285019051413144,0.213122657085998
0.0289888750553718,0.212166717956745
0.0294958813847794,0.211227587234786
0.0300229893576489,0.210304943838625
0.0305702642020919,0.209398466686768
0.0311377711462201,0.208507834697718
0.0317255754181452,0.207632726789981
0.0323337422459787,0.20677282188206
0.0329623368578323,0.205927798892461
0.0336114244818177,0.205097336739687
0.0342810703460464,0.204281114342243
0.0349713396786302,0.203478810618634
0.0356822977076806,0.202690104487364
0.0364140096613093,0.201914674866937
0.037166540767628,0.201152200675859
0.0379399562547482,0.200402360832633
0.0387343213507817,0.199664834255764
0.03954970128384,0.198939299863757
0.0403861612820349,0.198225436575115
0.0412437665734778,0.197522923308345
0.0421225823862805,0.196831438981949
0.0430226739485547,0.196150662514433
0.0439441064884119,0.195480272824301
0.0448869452339638,0.194819948830058
0.045851255413322,0.194169369450207
0.0468371022545982,0.193528213603254
0.047844550985904,0.192896160207703
0.0488736668353511,0.192272888182058
0.0499245150310511,0.191658076444825
0.0509971608011156,0.191051403914506
0.0520916693736562,0.190452549509608
0.0532081059767847,0.189861192148634
0.0543465358386126,0.18927701075009
0.0555070241872516,0.188699684232478
0.0566896362508133,0.188128891514305
0.0578944372574094,0.187564311514074
0.0591214924351515,0.187005623150289
0.0603708670121513,0.186452505341456
0.0616426262165203,0.185904637006079
0.0629368352763703,0.185361697062663
0.0642535594198128,0.184823364429711
0.0655928638749595,0.184289318025729
0.0669548138699221,0.18375923676922
0.0683394746328121,0.18323279957869
0.0697469113917413,0.182709685372643
0.0711771893748212,0.182189573069583
0.0726303738101636,0.181672141588014
0.0741065299258799,0.181157069846442
0.075605722950082,0.180644036763371
0.0771280181108813,0.180132721257305
0.0786734806363897,0.179622802246749
0.0802421757547186,0.179113958650208
0.0818341686939797,0.178605869386185
0.0834495246822848,0.178098213373185
0.0850883089477453,0.177590669529713
0.086750586718473,0.177082916774273
0.0884364232225796,0.17657463402537
0.0901458836881764,0.176065500201508
0.0918790333433755,0.175555194221191
0.0936359374162881,0.175043395002925
0.0954166611350262,0.174529781465214
0.0972212697277013,0.174014032526562
0.099049828422425,0.173495827105473
0.100902402447309,0.172974844120453
0.102779057030465,0.172450762490005
0.104679857400004,0.171923261132635
0.106604868784039,0.171392018966846
0.10855415641068,0.170856714911143
0.11052778550804,0.170317027884031
0.11252582130423,0.169772636804014
0.114548329027362,0.169223220589597
0.116595373905547,0.168668458159283
0.118667021166897,0.168108028431579
0.120763336039524,0.167541610324987
0.122884383751539,0.166968882758013
0.125030229531054,0.166389524649161
0.127200938606181,0.165803214916935
0.12939657620503,0.165209632479841
0.131617207555715,0.164608456256382
0.133862897886346,0.163999365165063
0.136133712425036,0.163382038124388
0.138429716399895,0.162756154052863
0.140750975039035,0.162121391868991
0.143097553570569,0.161477430491277
0.145469517222607,0.160823948838226
0.147866931223262,0.160160625828341
0.150289860800645,0.159487140380128
0.152738371182867,0.158803171412091
0.15521252759804,0.158108397842735
0.157712395274277,0.157402498590563
0.160238039439688,0.156685152574081
0.162789525322385,0.155956038711792
0.16536691815048,0.155214835922202
0.167970283152084,0.154461223123815
0.170599685555309,0.153694879235136
0.173255190588267,0.152915483174668
0.17593686347907,0.152122713860917
0.178644769455828,0.151316250212386
0.181378973746655,0.150495771147581
0.18413954157966,0.149660955585006
0.186926538182957,0.148811482443165
0.189740028784655,0.147947030640562
0.192580078612869,0.147067279095704
0.195446752895708,0.146171906727093
0.198340116861284,0.145260592453234
0.20126023573771,0.144333015192632
0.204207174753096,0.143388853863791
0.207180999135555,0.142427787385217
0.210181774113198,0.141449494675412
0.213209564914136,0.140453654652882
0.216264436766482,0.139439946236132
0.219346454898347,0.138408048343665
0.222455684537842,0.137357639893986
0.22559219091308,0.1362883998056
0.228756039252171,0.135200006997012
0.231947294783228,0.134092140386725
0.235166022734362,0.132964478893244
0.238412288333685,0.131816701435074
0.241686156809309,0.130648486930719
0.244987693389344,0.129459514298684
0.248316963301903,0.128249462457473
0.251674031775098,0.127018010325591
0.25505896403704,0.125764836821541
0.25847182531584,0.12448962086383
0.26191268083961,0.12319204137096
0.265381595836462,0.121871777261437
0.268878635534508,0.120528507453766
0.272403865161859,0.11916191086645
0.275957349946627,0.117771666417994
0.279539155116924,0.116357453026902
0.28314934590086,0.11491894961168
0.286787987526548,0.113455835090831
0.2904551452221,0.11196778838286
0.294150884215627,0.110454488406272
0.29787526973524,0.108915614079571
0.301628367009051,0.107350844321262
0.305410241265173,0.105759858049848
0.309220957731716,0.104142334183835
0.313060581636793,0.102497951641727
0.316929178208514,0.100826389342028
0.320826812674991,0.0991273262032438
0.324753550264337,0.0974004411438777
0.328709456204663,0.0956454130824346
0.33269459572408,0.093861920937419
0.3367090340507,0.0920496436273353
0.340752836412635,0.0902082600706881
0.344826068037996,0.0883374491859818
0.348928794154895,0.086436889891721
0.353061079991444,0.08450626110641
0.357222990775754,0.0825452417485535
0.361414591735937,0.0805535107366559
0.365635948100104,0.0785307469892217
0.369887125096368,0.0764766294247553
0.374168187952839,0.0743908369617614
0.37847920189763,0.0722730485187443
0.382820232158852,0.0701229430142086
0.387191343964617,0.0679401993666587
0.391592602543036,0.0657244964945992
0.396024073122221,0.0634755133165345
0.400485820930284,0.0611929287509691
0.404977911195336,0.0588764217164075
0.409500409145488,0.0565256711313543
0.414053380008854,0.0541403559143139
0.418636889013544,0.0517201549837907
0.423251001387669,0.0492647472582893
0.427895782359342,0.0467738116563143
0.432571297156675,0.0442470270963699
0.437277611007777,0.0416840724969609
0.442014789140763,0.0390846267765915
0.446782896783742,0.0364483688537664
0.451581999164827,0.03377497764699
0.456412161512129,0.0310641320747669
0.461273449053761,0.0283155110556014
0.466165927017833,0.0255287935079982
0.471089660632457,0.0227036583504616
0.476044715125745,0.0198397845014964
0.481031155725809,0.0169368508796066
0.486049047660759,0.0139945364032972
0.491098456158709,0.0110125199910723
0.496179446447769,0.00799048056143672
0.501292083756051,0.0049280970328946
0.506436433311667,0.00182504832395076
0.511612560342728,-0.00131898664689059
0.516820530077346,-0.00450432896112466
0.522060407743633,-0.00773129970024732
0.527332258569699,-0.0110002199457537
0.532636147783659,-0.0143114107791396
0.537972140613621,-0.0176651932819003
0.543340302287699,-0.0210618885355316
0.548740698034003,-0.0245018176215287
0.554173393080646,-0.0279853016213874
0.559638452655739,-0.0315126616166028
0.565135941987394,-0.035084218688671
0.570665926303722,-0.0387002939190868
0.576228470832835,-0.0423612083893463
0.581823640802845,-0.0460672831809447
0.587451501441864,-0.0498188393753777
0.593112117978002,-0.0536161980541406
0.598805555639371,-0.0574596802987291
0.604531879654084,-0.0613496071906385
0.610291155250252,-0.0652862998113646
0.616083447655987,-0.0692700792424026
0.621908822099399,-0.0733012665652483
0.627767343808601,-0.0773801828613969
0.633659078011705,-0.0815071492123441
0.639584089936822,-0.0856824866995853
0.645542444812063,-0.0899065164046164
0.651534207865541,-0.0941795594089322
0.657559444325367,-0.0985019367940289
0.663618219419652,-0.102873969641402
0.669710598376509,-0.107295979032546
0.675836646424048,-0.111768286048957
0.681996428790382,-0.116291211772131
0.688190010703623,-0.120865077283564
0.694417457391881,-0.125490203664749
0.700678834083268,-0.130166911997184
0.706974206005897,-0.134895523362364
0.713303638387878,-0.139676358841784
0.719667196457324,-0.14450973951694
0.726064945442345,-0.149395986469326
0.732496950571055,-0.15433542078044
0.738963277071563,-0.159328363531775
0.745463990171983,-0.164375135804829
0.751999155100425,-0.169476058681095
0.758568837085002,-0.174631453242071
0.765173101353824,-0.17984164056925
0.771812013135004,-0.18510694174413
0.778485637656652,-0.190427677848204
0.785194040146882,-0.19580416996297
0.791937285833804,-0.201236739169921
0.79871543994553,-0.206725706550555
0.805528567710172,-0.212271393186366
0.812376734355841,-0.21787412015885
0.819260005110649,-0.223534208549501
0.826178445202708,-0.229251979439817
0.833132119860128,-0.235027753911292
0.840121094311023,-0.240861853045422
0.847145433783503,-0.246754597923702
0.854205203505681,-0.252706309627629
0.861300468705667,-0.258717309238696
0.868431294611574,-0.2647879178384
0.875597746451512,-0.270918456508237
0.882799889453595,-0.277109246329702
0.890037788845932,-0.28336060838429
0.897311509856637,-0.289672863753497
0.904621117713821,-0.296046333518818
0.911966677645594,-0.30248133876175
0.91934825488007,-0.308978200563786
0.926765914645359,-0.315537240006424
0.934219722169574,-0.322158778171158
0.941709742680825,-0.328843136139485
0.949236041407224,-0.335590634992898
0.956798683576884,-0.342401595812895
0.964397734417916,-0.34927633968097
0.972033259158431,-0.356215187678619
