0.390218022828726,0.416600179902058
0.359341605624543,0.420113251639744
0.329634193242376,0.423444771433763
0.301077579698097,0.426594932368846
0.273653559007573,0.429563927529726
0.247343925186676,0.432351950001134
0.222130472251275,0.434959192867803
0.197994994217239,0.437385849214465
0.17491928510044,0.439632112125851
0.152885138916746,0.441698174686694
0.131874349682028,0.443584229981726
0.111868711412156,0.445290471095679
0.0928500181229991,0.446817091113284
0.0748000638304275,0.448164283119275
0.0577006425503112,0.449332240198382
0.0415335482985201,0.450321155435339
0.026280575090924,0.451131221914876
0.0119235169433927,0.451762632721726
-0.00155583212820366,0.452215580940622
-0.0141756781079953,0.452490259656295
-0.0259542269801124,0.452586861953477
-0.036909684728685,0.4525055809169
-0.0470602573378431,0.452246609631296
-0.0564241507917169,0.451810141181398
-0.0650195710744367,0.451196368651937
-0.0728647241701323,0.450405485127645
-0.0799778160629339,0.449437683693255
-0.0863770527369717,0.448293157433499
-0.0920806401763757,0.446972099433108
-0.097106784365276,0.445474702776814
-0.101473691287803,0.44380116054935
-0.105199566928086,0.441951665835448
-0.108302617270256,0.43992641171984
-0.110801048298443,0.437725591287257
-0.112713065996777,0.435349397622432
-0.114056876349387,0.432798023810097
-0.114850685340405,0.430071662934984
-0.11511269895396,0.427170508081824
-0.114861123174182,0.424094752335351
-0.114114163985202,0.420844588780295
-0.112890027371149,0.41742021050139
-0.111206919316154,0.413821810583366
-0.109083045804347,0.410049582110957
-0.106536612819857,0.406103718168894
-0.103585826346815,0.401984411841909
-0.100248892369352,0.397691856214734
-0.096544016871596,0.393226244372102
-0.198288018318201,0.49756299178036
0.0286491353471883,0.494770263417562
-0.190485671146142,0.475492051827059
-0.0784092193602577,0.373637096541636
0.0248451734819895,0.47853227834796
-0.16314738290579,0.267920360471372
-0.0618368284860647,0.357137606558351
-0.174875436588489,0.455736517448158
0.0460034938260521,0.464082274040459
-0.0432637947866128,0.339094512736653
-0.138829919579675,0.446951810842224
0.0637356975341517,0.432277707334432
-0.0231816798334147,0.319513028364308
-0.120322095672636,0.193773305311813
-0.126133721260974,0.406817070061347
0.0881782690411563,0.40011177636659
-0.0954264965022716,0.403843621840582
-0.082163285231328,0.190696137337539
-0.0913526701145946,0.17030639057105
0.136486191861513,0.383968434507476
0.124960764416271,0.155168159907904
0.13477509791442,0.145005709757507
-0.0469288524536432,0.12567157014064
-0.0475527156144723,0.332729109184083
0.0624063610865815,0.225907451123756
-0.0235348198876209,0.111129943074884
-0.0305664209407972,0.327895917796763
-0.0168067620894953,0.290384838580118
0.08911603522544,0.189311963082183
0.0953933737114516,0.179744449176218
0.101474268209722,0.170009864681489
0.10734051273612,0.160108402682728
0.112973901306517,0.150040256264666
0.118356227936782,0.139805618512036
0.123469286642786,0.12940468250957
0.128294871440397,0.118837641342
0.132814776345486,0.108104688094057
0.137010795373923,0.0972060158504743
0.140864722541578,0.0861418176959834
0.14435835186432,0.0749122867153166
0.14747347735802,0.0635176159932057
0.150191893038547,0.0519579986143828
0.152495392921772,0.0402336276635801
0.154365771023564,0.0283446962255294
0.155784821359792,0.0162913973849629
0.156734337946328,0.00407392422661268
0.157196114799041,-0.00830753016478936
0.1571519459338,-0.0208527727045111
0.156583625366476,-0.0335616103078205
0.155472947112938,-0.0464338498899856
0.153801705189057,-0.0594692983662742
0.151551693610703,-0.0726677626519544
0.148704706393744,-0.086029049662294
