0.884142871449454,-0.453608861579168
0.879171321561806,-0.455176630626471
0.974814568567984,-0.339525147769482
0.869188707781023,-0.458317336977104
0.864178083600431,-0.459890076980309
0.859154874368065,-0.461464276668688
0.854119299940197,-0.46303983739218
0.849071580173097,-0.464616660500721
0.844011934923036,-0.46619464734425
0.838940584046285,-0.467773699272702
0.833857747399115,-0.469353717636015
0.828763644837796,-0.470934603784128
0.726405039824362,-0.588270824091701
0.921525866044491,-0.370029023988907
0.698547987094831,-0.583632134269546
0.80827897257645,-0.477264853223309
0.80313183828845,-0.478848598544473
0.797974757223926,-0.480432619750061
0.792807949239149,-0.482016818190007
0.787631634190389,-0.48360109521425
0.690272985538991,-0.581935417021067
0.777251362326006,-0.486769490415377
0.772047845222923,-0.488353411292135
0.766835700480941,-0.489937016152938
0.761615147956331,-0.491520206347725
0.756386407505363,-0.493102883226433
0.751149698984308,-0.494684948138998
0.745905242249436,-0.496266302435359
0.740653257157019,-0.497846847465452
0.735393963563328,-0.499426484579214
0.730127581324632,-0.501005115126584
0.724854330297203,-0.502582640457497
0.719574430337312,-0.504158961921892
0.714288101301229,-0.505733980869706
0.708995563045225,-0.507307598650876
0.703697035425571,-0.508879716615339
0.698392738298538,-0.510450236113033
0.583681206907106,-0.622354381793275
0.687767714947416,-0.513586085107861
0.68244742843587,-0.515151217304871
0.677122251842027,-0.51671435643486
0.671792405022158,-0.518275403847766
0.666458107832535,-0.519834260893526
0.661119580129428,-0.521390828922078
0.655777041769108,-0.522945009283359
0.741965639026853,-0.432382949904723
0.639727561307575,-0.527592237862946
0.63437117888111,-0.529135881054515
0.629011885078786,-0.530676643328499
0.740308272451596,-0.413943146745207
0.618285442771641,-0.533749130523461
0.494841980658438,-0.637736363504995
0.607549993236309,-0.536808910247332
0.602179440398749,-0.538333788182451
0.596807295322954,-0.539855193299609
0.591433777865196,-0.541373026948744
0.586059107881745,-0.542887190479792
0.575307189762845,-0.545904112587376
0.569930381339938,-0.547406673863788
0.564553299816421,-0.548905170421862
0.559176165048565,-0.550399503611536
0.553799196892641,-0.551889574782747
0.548422615204918,-0.553375285285433
0.543046639841669,-0.55485653646953
0.532297387513672,-0.557805266281708
0.521553198758817,-0.560734975018781
0.516183552861994,-0.562192449858996
0.505450257310911,-0.565092147232468
0.500087047369193,-0.566534172465601
0.610231873949444,-0.458779247288322
0.489368602434758,-0.569402082774345
0.478662256474129,-0.572247815205976
0.565971825181366,-0.468290045116223
0.462629270593809,-0.576473103957737
0.457292896874951,-0.577869589635891
0.45196086703717,-0.57925993894439
0.322999363702003,-0.675349066317132
0.435993039372991,-0.583393182151332
0.430680583622222,-0.584757999480586
0.425373571033883,-0.586116187189871
0.420072221464244,-0.587467646629125
0.414776754769577,-0.588812279148286
0.509219139288823,-0.490659166166063
0.398927850498113,-0.592804228684578
0.278436222098966,-0.684554042761052
0.388395359390291,-0.595429585190489
0.383139806927138,-0.59673118453777
0.377891676332853,-0.598025266414519
0.362194014325905,-0.601861420720942
0.256657575908576,-0.720903852032009
0.346571063964507,-0.605626366390312
0.459644135316017,-0.504857150270237
0.433964342601486,-0.511313161918858
0.310441403277225,-0.614119355215238
0.183830953670927,-0.721552692133835
0.295110363707124,-0.61762770199887
0.290022042893003,-0.618778893416966
0.284945101360622,-0.6199207916634
0.279879758966252,-0.62105329808811
0.274826235566165,-0.622176314041033
0.264755525173921,-0.624393479931267
0.34984367650484,-0.524840356362635
0.254734729034055,-0.626571500133599
0.24974359844944,-0.627645583976646
0.244765605996733,-0.628709585447529
0.239800971532203,-0.629763405896185
0.234849914912121,-0.630806946672553
0.229912655992759,-0.631840109126569
0.108844993097872,-0.741769372260436
0.220080410681274,-0.633874904467295
0.215185864001694,-0.63487634005388
0.205441021876211,-0.63684679380918
0.200591166142849,-0.637815614677769
0.190937684616241,-0.639719951146512
0.181347308718257,-0.641579222923591
0.0705906764078372,-0.744589399510483
0.171821797299064,-0.643392640808503
0.16708391540969,-0.64428190791624
0.162362909208827,-0.645159415600747
0.157658998552744,-0.646025065211962
0.152972403297713,-0.646878758099822
0.139018708501635,-0.649367109922642
0.134403573413518,-0.650171989416454
0.129806853007805,-0.650964418936597
0.125228767140769,-0.651744299833008
0.1071071661848,-0.654736364180083
0.00171076749362249,-0.762944940305597
0.0937224010811893,-0.656843818038135
0.0805211764771593,-0.658831231478088
0.0718252584356273,-0.660088169316053
0.169118932195104,-0.548903509105155
0.0504654325449676,-0.662986743730298
0.0420781068556579,-0.664046593772411
0.0337829078227141,-0.665048357314581
0.0296704054430563,-0.66552721002303
0.0255815942963023,-0.665991245156304
-0.0712097996462667,-0.782000203450769
0.0134595068161708,-0.667293458604457
0.00946765916373959,-0.667697236936408
0.00550060202556604,-0.668085704442871
0.00155855525792095,-0.668458762473785
-0.00624962774070095,-0.669158255508708
-0.129431785770875,-0.786461215624001
-0.0177688280529016,-0.670089457742897
-0.0253170138140549,-0.670630416769493
-0.0327581226924299,-0.671106581091881
-0.0400903958378606,-0.671517161509557
-0.0473120744001806,-0.671861368822022
-0.0508808910719973,-0.672008335938642
-0.054421399529224,-0.672138413828772
-0.05793337991559,-0.672251503842347
-0.0614166123748245,-0.672347507329306
-0.0648708770506568,-0.672426325639585
-0.0816999887093073,-0.672559186788593
-0.0946194325953686,-0.672346080221173
-0.00606160622991078,-0.573655743520609
-0.100893035886823,-0.672130891473873
-0.103982538372708,-0.671995792959106
-0.107040214943671,-0.671842226816845
-0.113059210915747,-0.671479297049587
-0.0228059518654081,-0.568467175386498
-0.124705618204917,-0.670527485382372
-0.127534357395843,-0.670241883645891
-0.222838937099968,-0.776277640473156
-0.135818186953006,-0.669269142868215
-0.138511267945953,-0.668905921919371
-0.143793817505062,-0.668120427086877
-0.151455312932701,-0.666793072750182
-0.156385525620619,-0.665807610883018
-0.161171725572268,-0.664740781101107
-0.163510271131316,-0.664176606616965
-0.165812153937484,-0.663591794203949
-0.174648660507951,-0.661044192261881
-0.176763931705662,-0.66035471045355
-0.184842999028759,-0.657383498427088
-0.190495025204368,-0.654928378172691
-0.195791363420384,-0.652275974501082
-0.197476741727661,-0.65134753881754
-0.206732910102716,-0.64530485738533
-0.209486889117768,-0.643108427466057
-0.212072231494226,-0.640819580825013
-0.213301114302305,-0.63964025460867
-0.214487178381923,-0.638437528261696
-0.216729970930695,-0.635961480575605
-0.102341978780943,-0.517641294207598
-0.106013163639691,-0.539487689042338
-0.220692057610796,-0.630724243033091
-0.221572234615608,-0.629354953569944
-0.222407834041793,-0.627961474775665
-0.223944420733199,-0.625101554593457
-0.226472989496575,-0.619087101652689
-0.22699038989679,-0.617521535338725
-0.326540778917781,-0.713163543949099
-0.228877948340554,-0.60931705279313
-0.229443013735216,-0.604089491082899
-0.229535471450546,-0.602295566581966
-0.229522074360072,-0.596758200185722
-0.229419952396858,-0.594860218255617
-0.229067904933218,-0.590985372797994
-0.227766439881518,-0.582917393291344
-0.227315339014426,-0.580833512832772
-0.226260716761346,-0.5765847986669
-0.225001401441265,-0.57222748916897
-0.223535634204018,-0.567760795138482
-0.222724781475781,-0.56548618229837
-0.215572869080048,-0.548784389680898
-0.119278089118123,-0.449903558423303
-0.208854411091391,-0.536006531799518
-0.204166165268127,-0.527994695662224
-0.202492569017735,-0.525265971481339
-0.200763182518908,-0.522508026816123
-0.198977785915374,-0.519720763016511
-0.195238082969101,-0.514057883413856
-0.193283336913821,-0.511182070310686
-0.191271701328752,-0.508276543472871
-0.184893258832095,-0.499380694050927
-0.180352485487076,-0.493299750511922
-0.177994895741581,-0.490213869614919
-0.165326122033405,-0.474326427852386
-0.261981350149246,-0.566202636977784
-0.151169153199249,-0.457666547704908
-0.148156757598322,-0.454240793918529
-0.14508351505473,-0.450783550696376
-0.135496507205266,-0.440221897914645
-0.121848634928259,-0.425692857334361
-0.0833157688597347,-0.387096940335555
-0.0616329135097315,-0.366557704831206
-0.0431016829033057,-0.349519257358201
-0.0285028072947005,-0.336382160660257
-0.0235019233052858,-0.331934362085715
0.0134111262093952,-0.299826915204286
0.0189594660708532,-0.295099973726239
0.178425087507178,-0.160200835149221
0.0846213811832334,-0.240749686431387
0.0109611040873752,-0.323305387386089
0.151849510717165,-0.187519483511779
