-0.866293915210388,0.351778162871231
-0.856000730048141,0.352909385356003
-0.84577131080174,0.353998820164773
-0.835605439449497,0.355046695762343
-0.825502897969725,0.356053240613515
-0.815463468340734,0.357018683183091
-0.805486932540835,0.357943251935872
-0.795573072548341,0.35882717533666
-0.785721670341563,0.359670681850257
-0.775932507898813,0.360473999941466
-0.7662053671984,0.361237358075087
-0.756540030218639,0.361960984715922
-0.746936278937839,0.362645108328773
-0.737393895334313,0.363289957378443
-0.727912661386371,0.363895760329732
-0.718492359072325,0.364462745647443
-0.709132770370487,0.364991141796378
-0.699833677259169,0.365481177241337
-0.690594861716681,0.365933080447124
-0.681416105721335,0.366347079878539
-0.672297191251443,0.366723404000385
-0.663237900285317,0.367062281277464
-0.654238014801267,0.367363940174576
-0.645297316777605,0.367628609156525
-0.636415588192643,0.367856516688111
-0.627592611024692,0.368047891234137
-0.618828167252064,0.368202961259404
-0.61012203885307,0.368321955228715
-0.601474007806021,0.368405101606871
-0.59288385608923,0.368452628858673
-0.584351365681007,0.368464765448924
-0.575876318559664,0.368441739842425
-0.567458496703513,0.368383780503978
-0.559097682090865,0.368291115898386
-0.550793656700032,0.368163974490449
-0.542546202509324,0.368002584744969
-0.534355101497054,0.367807175126749
-0.526220135641534,0.36757797410059
-0.518141086921073,0.367315210131294
-0.510117737313985,0.367019111683663
-0.50214986879858,0.366689907222499
-0.49423726335317,0.366327825212602
-0.486379702956067,0.365933094118776
-0.478576969585581,0.365505942405822
-0.470828845220026,0.365046598538541
-0.463135111837711,0.364555290981736
-0.455495551416948,0.364032248200209
-0.447909945936049,0.36347769865876
-0.440378077373326,0.362891870822192
-0.43289972770709,0.362274993155308
-0.425474678915652,0.361627294122907
-0.418102712977324,0.360949002189793
-0.410783611870417,0.360240345820767
-0.403517157573243,0.359501553480631
-0.396303132064114,0.358732853634186
-0.38914131732134,0.357934474746235
-0.382031495323234,0.35710664528158
-0.374973448048107,0.356249593705021
-0.367966957474269,0.355363548481362
-0.361011805580034,0.354448738075403
-0.354107774343712,0.353505390951946
-0.347254645743615,0.352533735575794
-0.340452201758053,0.351534000411748
-0.33370022436534,0.350506413924609
-0.326998495543786,0.349451204579181
-0.320346797271703,0.348368600840264
-0.313744911527402,0.34725883117266
-0.307192620289194,0.346122124041171
-0.300689705535392,0.344958707910599
-0.294235949244307,0.343768811245746
-0.287831133394249,0.342552662511413
-0.281475039963531,0.341310490172402
-0.275167450930465,0.340042522693515
-0.268908148273361,0.338748988539555
-0.262696913970532,0.337430116175321
-0.256533530000287,0.336086134065618
-0.25041777834094,0.334717270675245
-0.244349440970802,0.333323754469006
-0.238328299868184,0.331905813911701
-0.232354137011397,0.330463677468133
-0.226426734378753,0.328997573603104
-0.220545873948564,0.327507730781414
-0.214711337699141,0.325994377467867
-0.208922907608796,0.324457742127263
-0.203180365655839,0.322898053224405
-0.197483493818583,0.321315539224095
-0.191832074075339,0.319710428591133
-0.186225888404419,0.318082949790323
-0.180664718784134,0.316433331286465
-0.175148347192795,0.314761801544363
-0.169676555608713,0.313068589028816
-0.164249126010202,0.311353922204627
-0.158865840375571,0.309618029536599
-0.153526480683133,0.307861139489532
-0.148230828911199,0.306083480528229
-0.14297866703808,0.304285281117491
-0.137769777042088,0.302466769722121
-0.132603940901534,0.300628174806919
-0.127480940594731,0.298769724836688
-0.122400558099988,0.29689164827623
-0.117362575395619,0.294994173590346
-0.112366774459934,0.293077529243839
-0.107412937271244,0.291141943701509
-0.102500845807862,0.289187645428159
-0.0976302820480994,0.28721486288859
-0.0928010279702665,0.285223824547605
-0.0880128655526754,0.283214758870005
-0.0832655767736376,0.281187894320592
-0.0785589436114646,0.279143459364167
-0.073892748044468,0.277081682465534
-0.0692667720509589,0.275002792089492
-0.0646807976092491,0.272907016700844
-0.0601346066976501,0.270794584764393
-0.0556279812944733,0.268665724744939
-0.0511607033780302,0.266520665107285
-0.0467325549266322,0.264359634316232
-0.042343317918591,0.262182860836582
-0.037992774332218,0.259990573133137
-0.0336807061458246,0.257782999670699
-0.0294068953377223,0.255560368914069
-0.0251711238862227,0.25332290932805
-0.0209731737696373,0.251070849377443
-0.0168128269662774,0.248804417527049
-0.0126898654544547,0.246523842241671
-0.00860407121248058,0.244229351986111
-0.00455522621866655,0.24192117522517
-0.000543112451324046,0.23959954042365
0.00343248811123538,0.237264676046353
0.0073717934907002,0.23491681055808
0.011275021708759,0.232556172423635
0.0151423907871003,0.230182990107817
0.0189741187474125,0.227797492075429
0.0227704236113842,0.225399906791273
0.0265315234007039,0.222990462720151
0.0302576361370602,0.220569388326865
0.0339489798421415,0.218136912076215
0.0376057725376362,0.215693262433005
0.041228232245233,0.213238667862035
0.0448165769866203,0.210773356828108
0.0483710247834869,0.208297557796026
0.0518917936575208,0.20581149923059
0.0553791016304109,0.203315409596602
0.0588331667238456,0.200809517358863
0.0622542069595134,0.198294050982176
0.0656424403591028,0.195769238931343
0.0689980849443022,0.193235309671165
0.0723213587368004,0.190692491666444
0.0756124797582857,0.188141013381982
0.0788716660304467,0.18558110328258
0.0820991355749719,0.183012989833041
0.0852951064135496,0.180436901498166
0.0884597965678686,0.177853066742757
0.0915934240596173,0.175261714031615
0.0946962069104842,0.172663071829544
0.0977683631421579,0.170057368601343
0.100810110776327,0.167444832811816
0.103821667834679,0.164825692925764
0.106803252338904,0.162200177407989
0.10975508231069,0.159568514723292
0.112677375771725,0.156930933336476
0.115570350743697,0.154287661712342
0.118434225248296,0.151638928315691
0.12126921730721,0.148984961611327
0.124075544942127,0.14632599006405
0.126853426174736,0.143662242138662
0.129603079026726,0.140993946299966
0.132324721519784,0.138321331012763
0.135018571675599,0.135644624741854
0.137684847515861,0.132964055952042
0.140323767062256,0.130279853108128
0.142935548336475,0.127592244674914
0.145520409360205,0.124901459117203
0.148078568155135,0.122207724899795
0.150610242742953,0.119511270487492
0.153115651145349,0.116812324345097
0.155595011384009,0.114111114937411
0.158048541480624,0.111407870729236
0.160476459456881,0.108702820185374
0.16287898333447,0.105996191770626
0.165256331135077,0.103288213949794
0.167608720880393,0.100579115187681
0.169936370592105,0.0978691239490874
0.172239498291902,0.0951584686988156
0.174518322001473,0.0924473779016672
0.176773059742506,0.0897360800224442
0.179003929536689,0.0870248035259484
0.181211149405711,0.0843137768769813
0.183394937371261,0.0816032285403449
0.185555511455028,0.0788933869808411
0.187693089678698,0.0761844806632716
0.189807890063962,0.0734767380524381
0.191900130632507,0.0707703876131425
0.193970029406023,0.0680656578101866
0.196017804406197,0.0653627771083722
0.198043673654718,0.062661973972501
0.200047855173275,0.0599634768673748
0.202030566983556,0.0572675142577955
0.20399202710725,0.054574314608565
0.205932453566045,0.0518841063844848
0.20785206438163,0.0491971180503568
0.209751077575693,0.0465135780709831
0.211629711169922,0.043833714911165
0.213488183186007,0.0411577570357047
0.215326711645636,0.0384859329094037
0.217145514570497,0.0358184709970641
0.218944809982279,0.0331555997634874
0.220724815902669,0.0304975476734756
0.222485750353358,0.0278445431918304
0.224227831356033,0.0251968147833537
0.225951276932383,0.0225545909128471
0.227656305104096,0.0199181000451126
0.229343133892861,0.0172875706449519
0.231011981320367,0.0146632311771668
0.232663065408301,0.0120453101065591
0.234296604178352,0.00943403589793067
0.23591281565221,0.00682963701608313
0.237511917851562,0.00423234192581851
0.239094128798096,0.00164237909193839
0.240659666513502,-0.000940023020755271
0.242208749019469,-0.00351463594746081
0.243741594337683,-0.00608123122337623
0.245258420489834,-0.00863958038370005
0.246759445497611,-0.0111894549636301
0.248244887382702,-0.0137306264983649
0.249714964166795,-0.0162628665231025
0.25116989387158,-0.0187859465730411
0.252609894518743,-0.0212996381833789
0.254035184129975,-0.0238037128893142
0.255445980726963,-0.0262979422260451
0.256842502331397,-0.0287820977287699
0.258224966964964,-0.0312559509326866
0.259593592649353,-0.0337192733729937
0.260948597406252,-0.0361718365848891
0.262290199257351,-0.0386134121035713
0.263618616224337,-0.0410437714642383
0.264934066328899,-0.0434626862020884
0.266236767592726,-0.0458699278523196
0.267526938037506,-0.0482652679501305
0.268804795684927,-0.0506484780307188
0.270070558556679,-0.0530193296292832
0.271324444674449,-0.0553775942810215
0.272566672059926,-0.0577230435211323
0.2737974587348,-0.0600554488848134
0.275017022720757,-0.0623745819072632
0.276225582039487,-0.0646802141236799
0.277423354712678,-0.0669721170692617
0.278610558762019,-0.0692500622792068
0.279787412209198,-0.0715138212887134
0.280954133075904,-0.0737631656329796
0.282110939383825,-0.0759978668472038
0.28325804915465,-0.0782176964665841
0.284395680410067,-0.0804224260263187
0.285524051171765,-0.0826118270616058
0.286643379461432,-0.0847856711076436
0.287753883300757,-0.0869437296996303
0.288855780711428,-0.0890857743727642
0.289949289715134,-0.0912115766622433
0.291034628333563,-0.0933209081032661
0.292112014588405,-0.0954135402310305
0.293181666501346,-0.0974892445807348
0.294243802094077,-0.0995477926875773
0.295298639388284,-0.101588956086756
0.296346396405658,-0.103612506313469
0.297387291167886,-0.105618214902916
0.298421541696657,-0.107605853390293
0.29944936601366,-0.109575193310799
0.300470982140582,-0.111526006199632
0.301486608099112,-0.113458063591992
0.30249646191094,-0.115371137023074
0.303500761597753,-0.117264998028079
0.30449972518124,-0.119139418142204
0.30549357068309,-0.120994168900648
0.30648251612499,-0.122829021838608
0.30746677952863,-0.124643748491282
0.308446578915698,-0.12643812039387
0.309422132307883,-0.128211909081569
0.310393657726873,-0.129964886089577
0.311361373194356,-0.131696822953093
0.312325496732021,-0.133407491207315
0.313286246361557,-0.13509666238744
0.314243840104652,-0.136764108028668
0.315198495982994,-0.138409599666196
0.316150432018272,-0.140032908835223
0.317099866232176,-0.141633807070947
0.318047016646392,-0.143212065908565
0.31899210128261,-0.144767456883277
0.319935338162518,-0.14629975153028
0.320876945307804,-0.147808721384773
0.321817140740158,-0.149294137981954
0.322756142481267,-0.150755772857021
0.323694168552821,-0.152193397545172
0.324631436976507,-0.153606783581605
0.325568165774015,-0.154995702501519
0.326504572967032,-0.156359925840112
0.327440876577248,-0.157699225132582
0.32837729462635,-0.159013371914127
0.329314045136027,-0.160302137719945
0.330251346127968,-0.161565294085236
0.331189415623862,-0.162802612545196
0.332128471645396,-0.164013864635024
0.33306873221426,-0.165198821889918
0.334010415352141,-0.166357255845077
0.334953739080728,-0.167488938035698
0.335898921421711,-0.168593639996981
0.336846180396777,-0.169671133264122
0.337795734027614,-0.170721189372321
0.338747800335912,-0.171743579856775
0.339702597343359,-0.172738076252683
0.340660343071643,-0.173704450095243
0.341621255542453,-0.174642472919652
0.342585552777478,-0.175551916261111
0.343553452798405,-0.176432551654815
0.344525173626924,-0.177284150635964
0.345500933284723,-0.178106484739757
0.34648094979349,-0.17889932550139
0.347465441174914,-0.179662444456062
0.348454625450683,-0.180395613138973
0.349448720642487,-0.181098603085318
0.350447944772013,-0.181771185830298
0.35145251586095,-0.18241313290911
0.352462651930986,-0.183024215856952
0.353478571003811,-0.183604206209023
0.354500491101112,-0.18415287550052
0.355528630244578,-0.184669995266642
0.356563206455897,-0.185155337042588
0.357604437756759,-0.185608672363555
0.358652542168851,-0.186029772764741
0.359707737713862,-0.186418409781345
0.360770242413481,-0.186774354948565
0.361840274289396,-0.187097379801599
0.362918051363296,-0.187387255875646
0.364003791656869,-0.187643754705903
0.365097713191803,-0.187866647827568
0.366200033989787,-0.188055706775841
0.36731097207251,-0.188210703085919
0.368430745461661,-0.188331408293
0.369559572178927,-0.188417593932283
0.370697670245997,-0.188469031538966
0.37184525768456,-0.188485492648246
0.373002552516304,-0.188466748795323
0.374169772762917,-0.188412571515394
0.375347136446089,-0.188322732343658
0.376534861587508,-0.188197002815313
0.377733166208862,-0.188035154465556
0.37894226833184,-0.187836958829587
0.38016238597813,-0.187602187442603
0.38139373716942,-0.187330611839803
0.3826365399274,-0.187022003556384
0.383891012273758,-0.186676134127546
0.385157372230182,-0.186292775088485
0.386435837818361,-0.185871697974401
0.387726627059984,-0.185412674320492
0.389029957976738,-0.184915475661956
0.390346048590312,-0.18437987353399
0.391675116922396,-0.183805639471794
0.393017380994676,-0.183192545010565
0.394373058828843,-0.182540361685502
0.395742368446584,-0.181848861031803
0.397125527869588,-0.181117814584665
0.398522755119543,-0.180346993879288
0.399934268218138,-0.17953617045087
0.401360285187062,-0.178685115834607
0.402801024048003,-0.1777936015657
0.404256702822649,-0.176861399179346
0.405727539532689,-0.175888280210743
0.407213752199812,-0.17487401619509
0.408715558845705,-0.173818378667584
0.410233177492058,-0.172721139163424
0.411766826160559,-0.171582069217809
0.413316722872897,-0.170400940365935
0.41488308565076,-0.169177524143002
0.416466132515836,-0.167911592084208
0.418066081489814,-0.16660291572475
0.419683150594383,-0.165251266599828
0.421317557851231,-0.163856416244639
0.422969521282046,-0.162418136194381
0.424639258908518,-0.160936197984253
0.426326988752334,-0.159410373149453
0.428032928835184,-0.157840433225179
0.429757297178755,-0.156226149746629
0.431500311804735,-0.154567294249002
0.433262190734815,-0.152863638267495
0.435043151990682,-0.151114953337308
0.436843413594025,-0.149321010993637
0.438663193566532,-0.147481582771682
0.440502709929891,-0.145596440206641
0.442362180705792,-0.143665354833711
0.444241823915922,-0.141688098188091
0.446141857581971,-0.139664441804979
0.448062499725626,-0.137594157219573
0.450003968368577,-0.135477015967072
0.451966481532511,-0.133312789582674
0.453950257239118,-0.131101249601577
0.455955513510085,-0.128842167558978
0.457982468367102,-0.126535314990078
0.460031339831857,-0.124180463430072
0.462102345926037,-0.121777384414161
0.464195704671333,-0.119325849477541
0.466311634089432,-0.116825630155412
0.468450352202023,-0.114276497982971
0.468450352202023,-0.114276497982971
0.470570429831925,-0.111712433470507
0.472630550405526,-0.109167584576746
0.474631100849869,-0.106641974009541
0.476572468091999,-0.104135624476745
0.478455039058959,-0.101648558686213
0.480279200677791,-0.0991807993457959
0.482045339875539,-0.0967323691633488
0.483753843579246,-0.0943032908467245
0.485405098715957,-0.0918935871037764
0.486999492212712,-0.0895032806423577
0.488537410996557,-0.0871323941703218
0.490019241994535,-0.0847809503955222
0.491445372133689,-0.0824489720258119
0.492816188341061,-0.0801364817690446
0.494132077543696,-0.0778435023330733
0.495393426668637,-0.0755700564257516
0.496600622642927,-0.0733161667549328
0.497754052393609,-0.07108185602847
0.498854102847726,-0.0688671469542168
0.499901160932323,-0.0666720622400265
0.500895613574442,-0.0644966245937523
0.501837847701126,-0.0623408567232476
0.502728250239419,-0.0602047813363658
0.503567208116365,-0.0580884211409602
0.504355108259006,-0.0559917988448841
0.505092337594385,-0.0539149371559909
0.505779283049547,-0.0518578587821338
0.506416331551534,-0.0498205864311664
0.507003870027389,-0.0478031428109418
0.507542285404157,-0.0458055506293133
0.508031964608879,-0.0438278325941344
0.508473294568601,-0.0418700114132585
0.508866662210364,-0.0399321097945387
0.509212454461212,-0.0380141504458285
0.509511058248189,-0.0361161560749812
0.509762860498338,-0.0342381493898501
0.509968248138701,-0.0323801530982886
0.510127608096323,-0.0305421899081499
0.510241327298247,-0.0287242825272875
0.510309792671516,-0.0269264536635547
0.510333391143173,-0.0251487260248048
0.510312509640261,-0.0233911223188912
0.510247535089824,-0.0216536652536671
0.510138854418906,-0.0199363775369859
0.509986854554549,-0.018239281876701
0.509791922423797,-0.0165624009806657
0.509554444953692,-0.0149057575567333
0.50927480907128,-0.0132693743127572
0.508953401703602,-0.0116532739565906
0.508590609777701,-0.010057479196087
0.508186820220622,-0.00848201273909973
0.507742419959408,-0.00692689729348202
0.507257795921102,-0.00539215556708728
0.506733335032747,-0.00387781026776879
0.506169424221386,-0.00238388410337993
0.505566450414063,-0.000910399781774034
0.504924800537822,0.000542619989195567
0.504244861519704,0.00197515250167556
0.503527020286754,0.00338717504781259
0.502771663766016,0.0047786649197533
0.501979178884532,0.00614959940964438
0.501149952569345,0.00749995580963247
0.500284371747499,0.00882971141186428
0.499382823346037,0.0101388435084864
0.498445694292003,0.0114273293916456
0.49747337151244,0.0126951463534884
0.496466241934391,0.0139422716861616
0.495424692484899,0.0151686826818118
0.494349110091008,0.0163743566325857
0.493239881679761,0.0175592708306299
0.492097394178201,0.0187234025680911
0.490922034513372,0.0198667291371159
0.489714189612317,0.0209892278298511
0.488474246402079,0.0220908759384433
0.487202591809702,0.0231716507550391
0.485899612762229,0.0242315295717853
0.484565696186702,0.0252704896808284
0.483201229010166,0.0262885083743152
0.481806598159664,0.0272855629443923
0.480382190562239,0.0282616306832063
0.478928393144934,0.029216688882904
0.477445592834793,0.030150714835632
0.475934176558859,0.0310636858335369
0.474394531244175,0.0319555791687655
0.472827043817785,0.0328263721334643
0.471232101206731,0.0336760420197801
0.469610090338057,0.0345045661198596
0.467961398138808,0.0353119217258493
0.466286411536024,0.0360980861298959
0.464585517456751,0.0368630366241462
0.462859102828031,0.0376067505007467
0.461107554576908,0.0383292050518442
0.459331259630425,0.0390303775695852
0.457530604915626,0.0397102453461165
0.455705977359552,0.0403687856735848
0.453857763889249,0.0410059758441366
0.451986351431759,0.0416217931499187
0.450092126914125,0.0422162148830777
0.448175477263391,0.0427892183357602
0.4462367894066,0.0433407808001131
0.444276450270796,0.0438708795682828
0.442294846783021,0.0443794919324161
0.440292365870319,0.0448665951846596
0.438269394459733,0.04533216661716
0.436226319478308,0.045776183522064
0.434163527853084,0.0461986231915182
0.432081406511108,0.0465994629176693
0.42998034237942,0.046978679992664
0.427860722385066,0.0473362517086488
0.425722933455087,0.0476721553577706
0.423567362516528,0.0479863682321759
0.421394396496432,0.0482788676240114
0.419204422321842,0.0485496308254237
0.4169978269198,0.0487986351285596
0.414774997217352,0.0490258578255657
0.41253632014154,0.0492312762085887
0.410282182619406,0.0494148675697751
0.408012971577995,0.0495766092012718
0.40572907394435,0.0497164783952253
0.403430876645515,0.0498344524437823
0.401118766608531,0.0499305086390895
0.398793130760443,0.0500046242732936
0.396454356028295,0.0500567766385411
0.394102829339128,0.0500869430269788
0.391738937619988,0.0500951007307534
0.389363067797916,0.0500812270420114
0.386975606799956,0.0500452992528996
0.384576941553152,0.0499872946555647
0.382167458984547,0.0499071905421532
0.379747546021184,0.0498049642048119
0.377317589590106,0.0496805929356873
0.374877976618358,0.0495340540269263
0.372429094032981,0.0493653247706754
0.369971328761019,0.0491743824590813
0.367505067729516,0.0489612043842907
0.365030697865516,0.0487257678384502
0.36254860609606,0.0484680501137065
0.360059179348193,0.0481880285022063
0.357562804548958,0.0478856802960961
0.355059868625398,0.0475609827875228
0.352550758504556,0.0472139132686329
0.350035861113476,0.0468444490315732
0.347515563379201,0.0464525673684902
0.344990252228775,0.0460382455715306
0.34246031458924,0.0456014609328412
0.33992613738764,0.0451421907445685
0.337388107551019,0.0446604122988593
0.334846612006419,0.0441561028878601
0.332302037680884,0.0436292398037177
0.329754771501457,0.0430798003385788
0.327205200395182,0.0425077617845899
0.324653711289101,0.0419131014338977
0.322100691110258,0.041295796578649
0.319546526785697,0.0406558245109904
0.316991605242461,0.0399931625230684
0.314436313407592,0.03930778790703
0.311881038208135,0.0385996779550216
0.309326166571132,0.0378688099591898
0.306772085423628,0.0371151612116815
0.304219181692664,0.0363387090046433
0.301667842305285,0.0355394306302218
0.299118454188534,0.0347173033805636
0.296571404269454,0.0338723045478155
0.294027079475088,0.0330044114241241
0.29148586673248,0.0321136013016361
0.288948152968673,0.0311998514724982
0.28641432511071,0.0302631392288569
0.283884770085635,0.029303441862859
0.281359874820491,0.0283207366666512
0.278840026242321,0.02731500093238
0.276325611278169,0.0262862119521922
0.273817016855077,0.0252343470182344
0.27131462990009,0.0241593834226533
0.26881883734025,0.0230612984575955
0.2663300261026,0.0219400694152078
0.263848583114185,0.0207956735876367
0.261374895302047,0.019628088267029
0.25890934959323,0.0184372907455313
0.256452332914776,0.0172232583152902
0.25400423219373,0.0159859682684525
0.251565434357134,0.0147253978971648
0.249136326332032,0.0134415244935737
0.246717295045468,0.0121343253498259
0.244308727424483,0.0108037777580681
0.241911010396123,0.00944985901044701
0.239524530887429,0.00807254639910918
0.237149675825446,0.00667181721620132
0.234786832137217,0.00524764875387015
0.232436386749784,0.00380001830426227
0.230098726590192,0.00232890315952431
0.227774238585483,0.000834280611802983
0.225463309662701,-0.000683872046754998
0.22316632674889,-0.00222557752400304
0.220883676771091,-0.00379085852779448
0.21861574665635,-0.00537973776598263
0.216362923331709,-0.00699223794642083
0.214125593724211,-0.00862838177696239
0.211904144760899,-0.0102881919654607
0.209698963368818,-0.0119716912197691
0.20751043647501,-0.0136789022477409
0.205338951006518,-0.0154098477572294
0.203184893890386,-0.017164550456088
0.201048652053658,-0.01894303305217
0.198930612423376,-0.0207453182533287
0.196831161926584,-0.0225714287674175
0.194750687490324,-0.0244213873022897
0.192689576041642,-0.0262952165657987
0.190648214507578,-0.0281929392657978
0.188626989815178,-0.0301145781101403
0.186626288891485,-0.0320601558066795
0.18464649866354,-0.0340296950632689
0.182688006058389,-0.0360232185877616
0.180751198003074,-0.0380407490880112
0.178836461424638,-0.0400823092718709
0.176944183250125,-0.0421479218471941
0.175074750406579,-0.0442376095218339
0.173228549821041,-0.046351395003644
0.171405968420557,-0.0484893010004774
0.169607393132168,-0.0506513502201877
0.167833210882919,-0.052837565370628
0.166083808599852,-0.0550479691596519
0.164359573210011,-0.0572825842951125
0.16266089164044,-0.0595414334848633
0.160988150818181,-0.0618245394367575
0.159341737670277,-0.0641319248586486
0.157722039123773,-0.0664636124583898
0.156129442105712,-0.0688196249438345
0.154564333543136,-0.0711999850228359
0.153027100363089,-0.0736047154032477
0.151518129492614,-0.0760338387929228
0.150037807858755,-0.0784873778997148
0.148586522388555,-0.0809653554314769
0.147164660009057,-0.0834677940960626
0.145772607647305,-0.085994716601325
0.144410752230341,-0.0885461456551177
0.14307948068521,-0.0911221039652938
0.141779179938954,-0.0937226142397068
0.140510236918617,-0.09634769918621
0.139273038551242,-0.0989973815126567
0.138067971763872,-0.1016716839269
0.136895423483551,-0.104370629136794
0.135755780637322,-0.107094239850191
0.134649430152228,-0.109842538774945
0.133576758955313,-0.11261554861891
0.13253815397362,-0.115413292089938
0.131534002134191,-0.118235791895882
0.130564690364071,-0.121083070744597
0.129630605590303,-0.123955151343936
0.12873213473993,-0.126852056401751
0.127869664739996,-0.129773808625897
0.127043582517543,-0.132720430724226
0.126254274999615,-0.135691945404592
0.125502129113255,-0.138688375374848
0.124787531785507,-0.141709743342848
0.124110869943414,-0.144756072016445
0.123472530514018,-0.147827384103492
0.122872900424365,-0.150923702311842
0.122312366601496,-0.15404504934935
0.121791315972455,-0.157191447923867
0.121310135464286,-0.160362920743249
0.120869212004031,-0.163559490515347
0.120468932518734,-0.166781179948015
0.120109683935439,-0.170028011749107
0.119791853181188,-0.173300008626476
0.119515827183025,-0.176597193287976
0.119281992867994,-0.179919588441459
0.119090737163136,-0.183267216794778
0.118942446995497,-0.186640101055788
0.118837509292119,-0.190038263932342
0.118776310980045,-0.193461728132293
0.118759238986319,-0.196910516363494
0.118786680237983,-0.200384651333798
0.118859021662082,-0.20388415575106
0.118976650185659,-0.207409052323131
0.119139952735757,-0.210959363757867
0.119349316239419,-0.214535112763119
0.119605127623688,-0.218136322046742
0.119907773815608,-0.221763014316588
0.120257641742223,-0.225415212280511
0.120655118330574,-0.229092938646365
0.121100590507707,-0.232796216122002
0.121594445200663,-0.236525067415276
0.122137069336487,-0.240279515234041
0.122728849842222,-0.244059582286149
0.12337017364491,-0.247865291279454
0.124061427671596,-0.25169666492181
0.124802998849322,-0.255553725921069
0.125595274105132,-0.259436496985085
0.126438640366069,-0.263345000821712
0.127333484559176,-0.267279260138802
0.128280193611498,-0.271239297644209
0.129279154450076,-0.275225136045786
0.130330754001955,-0.279236798051388
0.131435379194177,-0.283274306368866
0.132593416953787,-0.287337683706075
0.133805254207826,-0.291426952770867
0.135071277883339,-0.295542136271096
0.136391874907369,-0.299683256914616
0.137767432206959,-0.303850337409279
0.139198336709153,-0.30804340046294
0.140684975340993,-0.312262468783451
0.142227735029524,-0.316507565078665
0.143827002701788,-0.320778712056437
0.145483165284828,-0.325075932424618
0.147196609705689,-0.329399248891064
0.148967722891412,-0.333748684163627
0.150796891769043,-0.33812426095016
0.152684503265623,-0.342526001958517
0.154630944308196,-0.346953929896551
0.156636601823806,-0.351408067472115
0.158701862739495,-0.355888437393063
0.160827113982308,-0.360395062367248
0.163012742479287,-0.364927965102524
0.165259135157476,-0.369487168306743
0.167566678943918,-0.37407269468776
0.169935760765656,-0.378684566953426
0.172366767549734,-0.383322807811597
0.174860086223194,-0.387987439970125
0.177416103713081,-0.392678486136863
0.180035206946437,-0.397395969019665
0.182717782850306,-0.402139911326384
0.185464218351731,-0.406910335764873
0.188274900377756,-0.411707265042986
0.191150215855423,-0.416530721868576
0.194090551711776,-0.421380728949497
0.197096294873859,-0.426257308993602
0.200167832268714,-0.431160484708744
0.203305550823385,-0.436090278802775
0.206509837464915,-0.441046713983552
0.209781079120348,-0.446029812958924
0.213119662716727,-0.451039598436748
0.216525975181095,-0.456076093124875
0.220000403440495,-0.46113931973116
0.223543334421971,-0.466229300963455
0.227155155052566,-0.471346059529613
0.230836252259323,-0.476489618137489
0.234587012969286,-0.481659999494936
0.238407824109498,-0.486857226309806
0.242299072607002,-0.492081321289953
0.246261145388842,-0.497332307143231
0.25029442938206,-0.502610206577493
0.254399311513701,-0.507915042300591
0.258576178710807,-0.513246837020381
0.262825417900422,-0.518605613444714
0.267147416009589,-0.523991394281444
0.271542559965351,-0.529404202238425
0.276011236694752,-0.53484406002351
0.280553833124834,-0.540310990344552
0.285170736182642,-0.545805015909404
0.289862332795219,-0.551326159425921
0.294629009889608,-0.556874443601954
0.299471154392851,-0.562449891145358
0.304389153231993,-0.568052524763986
0.309383393334077,-0.573682367165691
0.314454261626146,-0.579339441058327
0.319602145035243,-0.585023769149746
0.324827430488412,-0.590735374147803
0.330130504912696,-0.59647427876035
0.335511755235138,-0.602240505695241
0.340971568382782,-0.60803407766033
0.346510331282671,-0.613855017363469
0.352128430861848,-0.619703347512512
0.357826254047356,-0.625579090815312
0.363604187766239,-0.631482269979722
0.36946261894554,-0.637412907713597
0.375401934512303,-0.643371026724789
0.38142252139357,-0.649356649721151
0.387524766516385,-0.655369799410537
0.393709056807792,-0.661410498500801
0.399975779194833,-0.667478769699795
0.406325320604552,-0.673574635715373
0.412758067963992,-0.679698119255388
0.419274408200197,-0.685849243027694
0.42587472824021,-0.692028029740144
0.432559415011073,-0.698234502100591
0.439328855439831,-0.704468682816889
0.446183436453527,-0.710730594596891
0.453123544979204,-0.71702026014845
0.460149567943905,-0.723337702179419
0.467261892274674,-0.729682943397653
0.474460904898554,-0.736056006511003
0.481746992742587,-0.742456914227325
0.489120542733819,-0.74888568925447
0.496581941799291,-0.755342354300293
0.504131576866047,-0.761826932072646
0.511769834861131,-0.768339445279383
0.519497102711585,-0.774879916628358
0.527313767344454,-0.781448368827423
0.53522021568678,-0.788044824584433
0.543216834665606,-0.794669306607239
0.551304011207976,-0.801321837603696
0.559482132240934,-0.808002440281657
0.567751584691522,-0.814711137348976
0.576112755486784,-0.821447951513505
0.584566031553763,-0.828212905483098
0.593111799819503,-0.835006021965608
0.601750447211046,-0.84182732366889
0.610482360655436,-0.848676833300795
0.619307927079717,-0.855554573569177
