-0.909108754583049,-0.604793570665262
-0.909158303198138,-0.612339227302928
-0.905152792834723,-0.575235107443768
-0.824828177579508,-0.630640475521036
-0.853875907532409,-0.614434754576749
-0.907024404337353,-0.605523021819965
-0.845398065486748,-0.623308505045816
-0.820513840898093,-0.566136491683964
-0.841223233234345,-0.553260008963274
-0.883850704369222,-0.541512346762801
-0.838660105172832,-0.581453435922682
-0.89758841579828,-0.562014014201148
-0.852755309118382,-0.615391352073643
-0.878041667184641,-0.533889967079404
-0.856837930836432,-0.578984357434757
-0.855749513308402,-0.578171339330156
-0.823748281413353,-0.537412212540845
-0.820896757524944,-0.57520074513292
-0.852132579146377,-0.57583505504636
-0.892476722333018,-0.534410144691191
-0.825224696310247,-0.623615971949949
-0.811506539058727,-0.593386915183243
-0.807656511096053,-0.601869098164552
-0.800209308759087,-0.532125195616697
-0.843350396284659,-0.571617794598976
-0.860289293620491,-0.553603052598502
-0.832319306218298,-0.613722518989784
-0.831104741759572,-0.540408771076659
-0.843232097544905,-0.519306363560538
-0.832572299165473,-0.567993297615565
-0.816796448104753,-0.52313438193012
-0.860174762569676,-0.579262703260557
-0.836987995313204,-0.528895137401253
-0.824318655462144,-0.5658977969409
-0.822125202520304,-0.565413296647972
-0.825778347141653,-0.553566517650904
-0.801766274727401,-0.525142458802812
-0.815238832200909,-0.564053023112771
-0.812842640209931,-0.563630409307608
-0.848401556263062,-0.602561614086014
-0.798083358446145,-0.591160495262388
-0.805357186759935,-0.562453886698419
-0.75864461796971,-0.569782509051079
-0.800123292402722,-0.561744842073671
-0.802457524676058,-0.564856977182071
-0.794698076517387,-0.561095298265084
-0.79299425755463,-0.529176873094033
-0.748073042120605,-0.574072604674133
-0.795313694233706,-0.510897310906321
-0.78328585885143,-0.559972168380007
-0.818709110308598,-0.588726068306012
-0.825385264161771,-0.59791607524311
-0.732256211830442,-0.54698862747146
-0.771144891140229,-0.55907940761043
-0.759005704077569,-0.604713610802015
-0.764808737698339,-0.558717825196217
-0.763106651988224,-0.533707629797073
-0.737061179940409,-0.57730197274733
-0.754980983693404,-0.558279659784412
-0.751620315003334,-0.558161075413467
-0.794869661486515,-0.523305882003158
-0.725652898669557,-0.509742793235471
-0.737661988207351,-0.587193654136531
-0.757831532863677,-0.52656969130286
-0.73609532374408,-0.51113598548368
-0.719131141974708,-0.516983048183259
-0.681697282283412,-0.574571746123712
-0.669387859749253,-0.542941328474116
-0.71198177942571,-0.557736940234069
-0.716306845164382,-0.581571957946447
-0.753098136695807,-0.604618966334178
-0.661850290623055,-0.589509233393827
-0.669436931395427,-0.519080735018486
-0.656018574877206,-0.586112587993712
-0.688413125107882,-0.558161486254791
-0.684359347100181,-0.558275586183959
-0.724851999740899,-0.527131546613803
-0.684014005818412,-0.592746056099583
-0.681788557113769,-0.536972602179251
-0.636957250206372,-0.592383091361721
-0.663574710869144,-0.559027067025361
-0.628159345891731,-0.566174836818198
-0.657710070003694,-0.54003027621511
-0.603695891748595,-0.576939327762792
-0.633398670652387,-0.521664108093519
-0.654769419914322,-0.566920361120194
-0.637548742860804,-0.560316505710217
-0.583318306783568,-0.567079444719844
-0.603836334243296,-0.537794877218071
-0.624116115615317,-0.561114804009388
-0.619578941057963,-0.561403125731236
-0.615012584736237,-0.561702426060168
-0.610417427234171,-0.562012625473796
-0.6057938491358,-0.562333644449735
-0.624294320736586,-0.538515610274508
-0.610542231131826,-0.529657023950036
-0.568437556950142,-0.530060311903275
-0.601686738061941,-0.522226432949941
-0.582262970140553,-0.564098249480539
-0.555490839731006,-0.560939437886441
-0.558203401745379,-0.605486882977282
-0.602145558961382,-0.561422375643922
-0.558078663842752,-0.566121415211066
-0.553167577731258,-0.566556200894882
-0.587274064066094,-0.610799201303394
-0.581116588860159,-0.590751446095254
-0.559943346583429,-0.557442588196403
-0.541726932168937,-0.53533329373092
-0.513568309068464,-0.585935280840081
-0.507940061356409,-0.570903667577859
-0.497655022190922,-0.57197245787383
-0.488618297085346,-0.58969832072995
-0.468672454552086,-0.619349383901021
-0.459908108904505,-0.598411785610301
-0.521116509672465,-0.590120448466672
-0.455141944451957,-0.612810997014621
-0.503285651800259,-0.586659780881244
-0.461057850122397,-0.575992251227905
-0.47115732449704,-0.623599337197623
-0.450442778807557,-0.577217861466926
-0.462373342887532,-0.581679962025354
-0.464785246233083,-0.579024111876117
-0.40541846953269,-0.544823827291386
-0.464299061912361,-0.541125116558102
-0.418219937778783,-0.581090743769942
-0.412798389789888,-0.581763980025
-0.396343333323975,-0.586611150205445
-0.436916205484581,-0.552491352262877
-0.36895372803612,-0.600442471175066
-0.364870059512584,-0.562691193515436
-0.352393627808124,-0.61295736028518
-0.40454725381807,-0.588165148944657
-0.384356999570069,-0.636223087884292
-0.353862715198617,-0.58053547094231
-0.350623739188238,-0.553203603378657
-0.401378673762802,-0.566602569778504
-0.346789591075956,-0.590422090442428
-0.345465527031447,-0.575206409763207
-0.335644212687275,-0.591963514778177
-0.33005895873715,-0.592744174020954
-0.291521207960065,-0.635116440967266
-0.36090881411013,-0.611229661844127
-0.326526818974989,-0.613389468087914
-0.290763160154781,-0.598387045362484
-0.285125610089778,-0.599217680805787
-0.279483235638568,-0.600054205423415
-0.25214164672093,-0.639635497346878
-0.23343375567733,-0.612999990752767
-0.236702952305427,-0.617712622055662
-0.251212318030593,-0.604322382842887
-0.213220870838283,-0.580374454010064
-0.276870809664937,-0.642315614829944
-0.234216232209484,-0.606948869953709
-0.216819150302187,-0.60004141893086
-0.21720755421925,-0.609621918320119
-0.246118532567459,-0.619332622939665
-0.176121053314125,-0.639722199564295
-0.172043751502674,-0.562544868497428
-0.183384062208505,-0.655803273032558
-0.188859684466617,-0.614174636745961
-0.167643989965445,-0.658097744126129
-0.209463253327825,-0.59217798154791
-0.202849803909536,-0.64504797756807
-0.185890263426893,-0.581067557474445
-0.183012473592753,-0.621602735859555
-0.193538005249483,-0.594617981679315
-0.179614395065233,-0.607587456548567
-0.132334933643167,-0.623610430330404
-0.143550369842386,-0.653594842512274
-0.109856359323665,-0.627493978974475
-0.104253198580808,-0.628473624892291
-0.0930693205877554,-0.630442870579371
-0.0874893645056267,-0.631432311303862
-0.0617074180457435,-0.622174061796763
-0.0563411708262192,-0.59137735923883
-0.0816859937978995,-0.65454888571562
-0.0652583065672183,-0.635420337885805
-0.030872276536295,-0.616302922903723
-0.0166193476853296,-0.653326052199788
-0.0486888741759715,-0.638440908063607
-0.0107050623981535,-0.6303470248308
-0.0267543157181254,-0.642503653139948
0.0196833841411603,-0.604114637497513
-0.0468439424535999,-0.618394565648543
-0.0114916959873577,-0.628594303480903
-0.0198038237414573,-0.60375012445591
0.0573442714221701,-0.622231745426798
-0.0292084522932522,-0.690175069529317
0.0744215553497635,-0.641625264769906
0.0243505446279027,-0.609386728114434
0.000882879517983666,-0.692161758602082
0.0534941700338816,-0.658015334824516
0.0292938334121591,-0.618218165799306
0.0299298354313539,-0.632093592933987
0.0742479271619154,-0.662202319124574
0.0796561708067227,-0.655974100503609
0.132688627730871,-0.698830553392343
0.0469925944919167,-0.690462995030825
0.0911776375219453,-0.66581714014649
0.121733418242934,-0.669986751766822
0.15070774922938,-0.652808122153262
0.114775232392207,-0.670605768812524
0.165823502738055,-0.642013565267056
0.171718141347755,-0.632541249516287
0.107719826578251,-0.625140691639026
0.109276676424448,-0.650925090597249
0.144217121240844,-0.676914112388852
0.153833209733693,-0.679014597065858
0.158602439891335,-0.680064050957038
0.168061369108882,-0.682160984232819
0.216406035268175,-0.721469354747371
0.186840003401636,-0.676549712135493
0.193812940566301,-0.645860521533929
0.195774505929209,-0.688430262395672
0.241579985604049,-0.696645338399314
0.197980970880275,-0.713476346944603
0.177083924711425,-0.696531478309645
0.205016403246389,-0.681824901957957
0.215786864514644,-0.683645023709504
0.239568217519122,-0.698769149706429
0.292539802223418,-0.722713171549617
0.266176762444714,-0.684138445201609
0.242574085409557,-0.719695586542039
0.256176462380051,-0.702851392082287
0.260242584172089,-0.703866198597447
0.264273569026783,-0.704878544436312
0.268269036360096,-0.705888350076495
0.294463055052338,-0.681145710074029
0.286309021017569,-0.671487549622704
0.313494435780244,-0.689861142053822
0.287144580460049,-0.738774228868537
0.316171801656788,-0.673924632407152
0.287537243612993,-0.765389842877898
0.276690510287002,-0.706974339699048
0.31680485151228,-0.718748482632767
0.305447375567996,-0.689795316517104
0.330389014326638,-0.722589338368355
0.308745285889215,-0.717229132839651
0.348176921081218,-0.73724689419799
0.34013360412465,-0.725428556681121
0.343295288597186,-0.726366648477613
0.346413082699598,-0.727300450582911
0.333343080516466,-0.684566129492574
0.314352094065547,-0.747096732500925
0.311815995074665,-0.7095880458447
0.382195270685526,-0.73683603751961
0.263628129195432,-0.616280394898264
0.484789504213728,-0.651096532041032
0.260470797285728,-0.856076753509326
0.491572408304622,-0.800980340146414
0.316320200007036,-0.646609823228236
0.252282136077124,-0.874091298164492
0.398965887609815,-0.744953193062569
0.343131638751876,-0.676187197371741
0.307117570391787,-0.854435356868847
0.52433670990289,-0.846834181968647
0.501781612257706,-0.856425354750547
0.262981558098343,-0.633684286467078
0.367849061667466,-0.798682546912472
0.387540346222083,-0.75951289055975
0.448675467257668,-0.737422450767118
0.50759510178014,-0.820467609943159
0.541353437811936,-0.649923941976297
0.436782794758947,-0.735287890694046
0.577848994978784,-0.694008509760794
0.321862786766358,-0.8752438548278
0.434367291149888,-0.762933799102355
0.560811012262611,-0.64410921244226
0.334913335041142,-0.90737814477368
0.526099627278046,-0.857553718653174
0.305066242003199,-0.843342810168097
0.294410598898866,-0.619881153907641
0.293763909415708,-0.642064466357141
0.554881804595602,-0.675231861920816
0.53926853074881,-0.882509686769325
0.446067503667171,-0.770205407904423
0.412450017866207,-0.778015692991138
0.413357590687693,-0.811053992396996
0.404669051761442,-0.782831967301046
0.393778474295575,-0.806793960158208
0.420249675764496,-0.730102396764796
0.464223011181612,-0.787564085889843
0.450478195679482,-0.812340889370269
0.390561554388241,-0.822256680037118
0.395246647035645,-0.779135380553642
0.429765225587474,-0.778511799184476
0.442288346824247,-0.81256294113957
0.40951900893429,-0.82491287030377
0.462856653506409,-0.74497636605908
0.405978090931499,-0.787069306073188
0.418226044202127,-0.781385760232802
0.383335998442735,-0.760776407922835
0.411331069398128,-0.757646462042447
0.43493506331946,-0.795399548328562
0.431443909621568,-0.803999700275365
0.377922334666479,-0.762871735903229
0.441965377065788,-0.736227784713533
0.381130158758797,-0.815778056450915
0.387315580083391,-0.795766106126226
0.347789909989765,-0.798565797296197
0.397553157748829,-0.78801448688581
0.402562924029899,-0.788214024171802
0.375358648400593,-0.820255154369818
0.367441019538555,-0.768720998116177
0.371199845207782,-0.7853637267639
0.341304720791934,-0.753410158826326
0.378208064015968,-0.74463602804847
0.317807072638479,-0.801075293886611
0.363883704509342,-0.779722312675317
0.346520964525125,-0.785736987373244
0.383397156014062,-0.75878908245931
0.326070775473928,-0.79387439827037
0.322057841432815,-0.785555712579444
0.293950632908316,-0.7446223971219
0.297655036292519,-0.747397760779895
0.275296511274215,-0.747206394852649
0.300457078677129,-0.784742829435078
0.283952503752769,-0.827794526483225
0.320358939024889,-0.772109060639183
0.279023758092208,-0.78302414230005
0.274757401193074,-0.78257460601673
0.270497858793876,-0.782090418095183
0.279809344574507,-0.827214804126999
0.219203820925025,-0.777014179674166
0.240873503381147,-0.777752984073579
0.232920263423487,-0.753052283505516
0.219921967660151,-0.773673220219777
0.259879161841831,-0.7386649323309
0.229044535405915,-0.724458721824882
0.190887201768401,-0.766657385232764
0.186768037826578,-0.765535482795644
0.182656097230558,-0.764384460545193
0.15820650495259,-0.796099521274272
0.176135858559335,-0.765245196685817
0.130354038171785,-0.726268931802568
0.152841674264666,-0.757198011921574
0.150022949173369,-0.754159579689688
0.14193825843665,-0.751330600758835
0.0994963846633419,-0.75502426696425
0.133883317712574,-0.748396733064922
0.132312726500087,-0.742828329258408
0.155039235324241,-0.768090739224636
0.106641793066396,-0.720163593946524
0.106421842856365,-0.686055245278166
0.047548535793443,-0.757286775771909
0.0783448160658015,-0.725099792238572
0.070533482471905,-0.721402679467344
0.0386027040652349,-0.733294747147174
0.0550044263446216,-0.713752793767944
0.0564692338830732,-0.705633527826196
0.035770233104164,-0.703732806018666
-0.00104567677665768,-0.665074182187365
0.023404730393542,-0.64956597538508
0.0172861604532681,-0.680090723378566
0.031283819511132,-0.658830323993358
0.00165199986915225,-0.684515035168035
0.0386917543290552,-0.632467485717196
-0.0170186393340319,-0.673240335679416
-0.0281223498942253,-0.666288345089934
-0.028894139302732,-0.641760813260265
-0.0827682625634824,-0.633069383975342
-0.0945636403406495,-0.663932794675205
-0.0615910392730963,-0.629187465936873
-0.0421127504473736,-0.588196061619551
-0.0499062130663988,-0.585962998695642
-0.0504521264014983,-0.640272161442116
-0.087569428003877,-0.668476662304909
-0.152104975241421,-0.581975421769802
-0.125938055928747,-0.570230798846068
-0.139046350234425,-0.57420971104239
-0.0988931526350372,-0.632415581000328
-0.16762693204348,-0.573912765817695
-0.152011942538475,-0.577320234898185
-0.158769238506485,-0.591826343059654
-0.141273955243007,-0.553565924940306
-0.206217017053613,-0.570238335642615
-0.213589779336531,-0.575573265118999
-0.18871726438865,-0.547456432223344
-0.181406464070091,-0.491885421298903
-0.222608154316735,-0.579278409551809
-0.222957856202929,-0.496728307824727
-0.204647610574218,-0.51347678362714
-0.231721329225092,-0.554844852169323
-0.184806082263211,-0.561055043766967
-0.238505561480098,-0.541651730747349
-0.243495060359118,-0.542449679504899
-0.264906495774665,-0.481722434087207
-0.267962200945386,-0.479005869506933
-0.274044562554969,-0.473585217174777
-0.320004247183887,-0.442321771701559
-0.286092545718878,-0.462801195590562
-0.292057855771591,-0.457442041062234
-0.33617422726546,-0.414126082545781
-0.297905105463953,-0.464746180933136
-0.323828801847616,-0.420795704638933
-0.334447195790805,-0.441901985423742
-0.318412809851986,-0.433662106368659
-0.386453947095198,-0.41237940645155
-0.371158563394384,-0.379176555343113
-0.365971282624858,-0.390789085155383
-0.375211490554679,-0.429210404269119
-0.397754104049886,-0.383340238966475
-0.379394741975565,-0.37883792890152
-0.384691212054518,-0.374156034134375
-0.415584711163643,-0.347387617908385
-0.451150744097178,-0.373163597343459
-0.42748732924769,-0.359937641546916
-0.399708564948267,-0.2833762037398
-0.416077877532911,-0.347916903511775
-0.479348224682113,-0.285496540892418
-0.46133245419817,-0.310495850098277
-0.459783407883467,-0.280792991302155
-0.452394997919473,-0.333953361656505
-0.479405928204486,-0.297346198192951
-0.500982727550682,-0.254249745384523
-0.488173673913275,-0.291366416905837
-0.50440558627297,-0.284742239177363
-0.451457546386189,-0.292026736181656
-0.460660963230362,-0.314689180797775
-0.500985548965355,-0.283187966449077
-0.520241608166609,-0.237339799414516
-0.511348002989925,-0.277134097701595
-0.517427319613532,-0.273848821789721
-0.548635581868085,-0.22484187742971
-0.523402376921712,-0.270832522748004
-0.479350458697008,-0.242535015780881
-0.520017032367104,-0.296036349585076
-0.565375772149762,-0.231443647659429
-0.536935771638435,-0.264880464881091
-0.538822153264075,-0.264158145623191
-0.551695375667206,-0.260034612712154
-0.558036577275737,-0.231500601112766
-0.533654771831225,-0.228076683945356
-0.560532879672746,-0.258122800149868
-0.56226436189341,-0.257847218909288
-0.577303042681294,-0.257027976374691
-0.564992035647361,-0.263696052446759
-0.592315480932608,-0.231634358322162
-0.58504307405105,-0.280602724272542
-0.634827638289708,-0.292511318684008
-0.605781766846422,-0.265794093933421
-0.611202315122351,-0.269583877580706
-0.613836619391566,-0.271745542835208
-0.628569054543564,-0.288583126191797
-0.605138805755109,-0.258914297174042
-0.626384168307965,-0.276173903656369
-0.647964350422359,-0.292210623357325
-0.637356979620719,-0.303646142423069
-0.617767401692426,-0.278154766374528
-0.678943388675156,-0.328366221960328
-0.644063774455762,-0.295528289303553
-0.654849087437215,-0.35260464210675
-0.614018134009385,-0.365707757350495
-0.650722509925191,-0.367657164056993
-0.70828265311678,-0.357033307405726
-0.668306756506322,-0.353789593050937
-0.638917431948087,-0.43801539283995
-0.66581233763716,-0.40928175752885
-0.716918878308121,-0.441982097845955
-0.719249956750692,-0.443310480486905
-0.673246794615758,-0.481229991096946
-0.676633893039052,-0.551677305371487
