0.00241224544307705,-0.977841617399282
0.00236447759012603,-0.967392275411404
0.0023480558226224,-0.957034042396437
0.0023627301156189,-0.946766544380718
0.00240825044416829,-0.936589407390587
0.00248436678332331,-0.926502257452381
0.00259082910813672,-0.91650472059244
0.00272738739366126,-0.906596422837102
0.00289379161494968,-0.896776990212705
0.00308979174705473,-0.887046048745589
0.00331513776502916,-0.877403224462091
0.00356957964392573,-0.86784814338855
0.00385286735879716,-0.858380431551305
0.100494548315657,-0.756292901254302
0.00450498019667567,-0.839705619691056
0.106186320400376,-0.721486195200221
-0.104580389032243,-0.938581212709138
-0.0866783321326095,-0.910774432927202
0.00614435480645218,-0.803387971965002
0.00662256267462474,-0.794521373519306
0.00712761617919416,-0.785739152520614
0.00765926529521321,-0.777040934995265
0.00821725999773463,-0.768426346969596
0.00880135026181116,-0.759895014469948
-0.0824649050223781,-0.864966645577562
0.0100468173748406,-0.743080620154064
0.0107076941738989,-0.734796810390506
0.0113936664347234,-0.726594760258322
0.0121044841323668,-0.71847409578385
0.0128398972418818,-0.710434442993429
0.0135996557383211,-0.702475427913397
0.0143835095967375,-0.694596676570094
-0.0750603278773709,-0.80614899024994
0.0160225032997127,-0.679078469199026
0.016877143094377,-0.671438265223938
0.0177548781512293,-0.663876829090932
0.0186554584453225,-0.656393786826347
0.0195786339517093,-0.648988764456522
0.0205241546454425,-0.641661388007794
0.0214917705015748,-0.634411283506503
-0.0758080957928014,-0.738314270211129
0.0234922876012476,-0.620141394451585
0.0245246887948937,-0.613120861950634
0.0255781850511499,-0.606176105502474
0.0266525263450689,-0.599306751133443
-0.0626883231017536,-0.702138040663049
0.0288627439461065,-0.585792752738123
0.0299981202033305,-0.579147360764511
0.0311533413984284,-0.572575874975383
0.0335223185024567,-0.55965312605593
0.0359676750586134,-0.547021514190472
0.0372183705688717,-0.540813949718839
0.0384874108673204,-0.53467804758972
0.0397745459290121,-0.528613433829453
0.147873607427731,-0.429861536264026
-0.0712257684272671,-0.623884182036482
0.0437420194440734,-0.51084358302516
0.045099033309265,-0.505060383003692
-0.0604255497143231,-0.589587088135059
0.0478633449302215,-0.493701864488733
0.0492701426360918,-0.488125798047919
0.0506930349056272,-0.482618028186666
0.0521317717138805,-0.477178180931313
0.0535861030359043,-0.471805882308199
0.0550557788467514,-0.466500758343662
0.0565405491214746,-0.46126243506404
0.0580401638351267,-0.456090538495673
0.0595543729627603,-0.450984694664899
0.0610829264794282,-0.445944529598056
0.0626255743601832,-0.440969669321483
0.176402304004968,-0.345673050581342
0.0657521531141654,-0.431214367244502
0.0673355839374981,-0.42643317749677
0.0689321090251289,-0.421715796644662
0.0705414783521105,-0.417061850714516
0.0737977496243371,-0.407942767725468
0.0754441515196876,-0.403476882719242
0.0771023975546,-0.399072936740333
-0.023239952473769,-0.495487240490912
0.0804534219433211,-0.390449365969819
0.0821457002472353,-0.386228993230892
0.0838488225909224,-0.382069063624636
0.085562538949435,-0.377969203177389
0.087286599297826,-0.37392903791549
0.089020753611148,-0.369948193865278
0.192521587925684,-0.26616160137908
-0.026629360745423,-0.472075888329225
0.0942812800912277,-0.358357849248147
0.0960533100148014,-0.354610550308067
0.0978341837785699,-0.350920702711366
0.099623651357586,-0.347287932484384
0.101421462726902,-0.343711865653457
0.103227367861572,-0.340192128244926
0.105041116736647,-0.336728346285128
0.106862459327181,-0.333320145800403
0.110526925554835,-0.326668993361522
0.112369549142061,-0.323425293460044
0.114218766344956,-0.320235679138993
0.116074327138574,-0.317099776424706
0.117935981497966,-0.314017211343522
0.119803479398187,-0.310987609921781
0.121676570814288,-0.30801059818582
0.123555005721322,-0.305085802161978
0.125438534094343,-0.302212847876593
0.127326905908402,-0.299391361356005
0.129219871138553,-0.296620968626551
0.0189499572265157,-0.396388089815882
0.133018581747339,-0.291231968646402
0.134923827076081,-0.288612613448384
0.136832665721126,-0.286042856146854
0.244032907677439,-0.186316467004299
0.140660122860333,-0.281050639338616
0.142578241304601,-0.278627431884584
0.144498952965383,-0.276252326432395
0.146422007817731,-0.273924949008388
0.148347155836698,-0.271644925638901
0.150274146997337,-0.269411882350273
0.152202731274701,-0.267225445168842
0.156063679079813,-0.262990893232925
0.248702098354346,-0.151244207022435
0.159927999052455,-0.25893827804186
0.161860798539233,-0.256979261791493
0.163793690993051,-0.255064607806355
0.165726426388963,-0.253193942112784
0.167658754702022,-0.251366890737118
0.16959042590728,-0.249583079705696
0.0613165906611448,-0.339101240993471
0.173450796894604,-0.24614368278094
0.179230174443404,-0.2412995406341
0.181152652477965,-0.239767318221252
0.183072723230095,-0.238275718337019
0.0838768548217008,-0.349545657543908
0.186904642787271,-0.235412890259748
0.296483923945391,-0.127657502453016
0.192628216881117,-0.23141396776691
0.194528593414766,-0.23015824960747
0.198316624085929,-0.22776045345388
0.200203778173549,-0.226617627512407
0.202086024729265,-0.225511684362933
0.314014373982651,-0.126600399510233
0.205834795145196,-0.223408950545338
0.209560935134144,-0.221449260211803
0.308161285687926,-0.110751600383493
0.310512755581079,-0.108843099354999
0.215103337630395,-0.218771386705038
0.216937323032778,-0.217947042839747
0.218764150678732,-0.217156216003503
0.222395332601562,-0.215673617523507
0.224199186828545,-0.214981097932433
0.225994883199309,-0.214320599475759
0.229560802272393,-0.213094170070967
0.231330524924819,-0.212527491175526
0.233091089621237,-0.21199133751984
0.234842246336701,-0.211485335130248
0.236583745046263,-0.211009110033086
0.240036768347893,-0.210144495821414
0.241747792890067,-0.209755358759579
0.243448159326549,-0.209394503095531
0.245137617632394,-0.209061554855607
0.246815917782653,-0.208756140066146
0.144473929633484,-0.316026446800104
0.253412536328893,-0.207802335939704
0.255031295327017,-0.207628978797637
0.256637396019872,-0.207480911264064
0.258230588382511,-0.207357759365324
0.259810622389987,-0.207259149127755
0.261377248017353,-0.207184706577696
0.264469274031963,-0.207106828645463
0.270481424402178,-0.207224630190012
0.391756192446171,-0.117299099627135
0.277653669696164,-0.207853949435534
0.279039892816317,-0.208040349190002
0.382450895311167,-0.102947229897813
0.281762112918402,-0.208470692815009
0.28309760985044,-0.208713888738226
0.284415698003211,-0.208975268770369
0.285716127351767,-0.209254458937778
0.286998647871163,-0.20955108526679
0.288263009536451,-0.209864773783745
0.290736256204912,-0.210541841486836
0.291944641158191,-0.210904472725649
0.29430368417811,-0.211676060109503
0.295453842194856,-0.212084268307222
0.296584091182862,-0.212506920877253
0.297694181117182,-0.212943643845934
0.299852883724975,-0.213857805084603
0.302933494110334,-0.215325225590951
0.303917379198644,-0.215838517504646
0.304879355058637,-0.216363262001362
0.305819171665366,-0.216899085107437
0.306736578993883,-0.217445612849209
0.308503165716493,-0.218569286345201
0.309351845060691,-0.219145684152098
0.31017711502689,-0.219731290700047
0.31097872559014,-0.220325732015385
0.311756426725495,-0.220928634124453
0.313943573314718,-0.222784365477416
0.31462313648902,-0.223417371024785
0.315277540110692,-0.224056967497576
0.316509868596351,-0.225354437324776
0.317638558572118,-0.226673783169726
0.318163414056423,-0.227340724664703
0.318661609838414,-0.228012013243133
0.319132895893143,-0.228687274931354
0.319577022195662,-0.229366135755706
0.319993738721025,-0.230048221742526
0.320382795444284,-0.230733158918153
0.320743942340492,-0.231420573308926
0.321657423817336,-0.233493940035504
0.322122278542611,-0.234881714411825
0.322469493360947,-0.236270422280853
0.322765365326365,-0.238348689844147
0.322803002478492,-0.239038671339866
0.437758969692361,-0.127287824607274
0.205416490384338,-0.347290266936413
0.322729453076576,-0.241095057119627
0.322641949573348,-0.241774752898211
0.322522535843912,-0.242450942313356
0.322370961863322,-0.243123251391403
0.321970333048889,-0.244454732641553
0.321121937319902,-0.246413502647
0.320772151308493,-0.247054676255562
0.320388454871299,-0.247689351711394
0.319970597983373,-0.248317155040836
0.319518330619768,-0.248937712270226
0.319031402755535,-0.249550649425902
0.318509564365728,-0.250155592534203
0.430900477474339,-0.150736349048874
0.316732085793391,-0.251918717838242
0.424267192077121,-0.16009734295239
0.315367963659929,-0.253047308286933
0.314631411592786,-0.253596433664093
0.217609868356712,-0.371220091929587
0.312200791090336,-0.255178642722897
0.31131609607269,-0.255683076806067
0.309433473612467,-0.256655247725794
0.308435046119997,-0.257122236615028
0.307398207752691,-0.257575995825626
0.192876729279511,-0.350490839935088
0.305208298293784,-0.258442329316269
0.300356547780263,-0.259999785312828
0.299043832590584,-0.260350465510457
0.29629691896304,-0.261002787528273
0.193632534439896,-0.378040752296476
0.293386360838262,-0.261587231885089
0.190061716785036,-0.364281524205973
0.181577928154985,-0.382113966172142
0.287066310298698,-0.262540520458556
0.285380894541196,-0.26273174439303
0.191210169106047,-0.372660062742974
0.280067679375268,-0.263186396916525
0.276308895770657,-0.263386576128968
0.274363761845313,-0.263454667073239
0.272374466471346,-0.263500926944661
0.268262391277757,-0.263526457574314
0.26613911140824,-0.263504980385221
0.38034380593103,-0.163107880317422
0.257191876196583,-0.263182062217288
0.158696953271071,-0.376782460648441
0.358304041352355,-0.155887376383089
0.2449673199104,-0.262217095306751
0.237065645063027,-0.261320794184347
0.234335763118276,-0.26096689647223
0.231557469300799,-0.26058481013502
0.343006809493157,-0.16944720157389
0.222929616362541,-0.259265679636213
0.219955174804689,-0.258767099062014
0.213857055671652,-0.257679388459752
0.210732878046572,-0.257089510484366
0.102865770080285,-0.369771500615897
0.204333036554554,-0.255815839316777
0.201056872637722,-0.255131298177251
0.197729546573744,-0.254414454702356
0.183903620347432,-0.25121657797585
0.180316733173518,-0.250332613219184
0.176677183702776,-0.249414102285181
0.172984721910257,-0.248460671200178
0.169239097771014,-0.247471945990514
0.248966710757959,-0.127550875563939
0.149704791000796,-0.241985818994125
0.145634942257321,-0.240777475589603
0.128803921820405,-0.235561242831988
0.124457010220686,-0.234159599989395
0.120053935974876,-0.232718175338203
0.111078299445197,-0.229714484715378
0.20243036334878,-0.12170620254438
0.20958483585853,-0.128403679467081
0.0876388600681085,-0.221482898351538
0.0827774837554745,-0.219709756179745
0.0778576945722247,-0.2178934664364
0.0627453495493086,-0.212181972040441
-0.0491723620982914,-0.318988179694727
0.0523738047235863,-0.20815171506825
0.0470982877927499,-0.206068686448704
0.0363665147703905,-0.201764959074406
0.0253920893674673,-0.197275178362089
0.0141730113844021,-0.192596352522461
-0.0943909066569234,-0.308475457406018
-0.093440920766914,-0.304860902406328
-0.0090071031204659,-0.182659598304106
-0.0209721400414248,-0.177395686346795
-0.0270492785063507,-0.174688537748292
-0.0331898303408376,-0.171930762105008
0.0612864954954766,-0.0675416084481302
-0.0519944663111348,-0.163349933169856
-0.0648525409298362,-0.157369389138724
-0.0713788235055798,-0.154299997779864
-0.0779702696255146,-0.151177361560594
-0.0846271293145884,-0.148001106507251
-0.0913496525977479,-0.144770858646174
-0.098138089499941,-0.141486244003702
-0.104992690046114,-0.138146888606173
-0.111913704261216,-0.134752418479926
-0.118901382170192,-0.131302459651299
-0.12595597379799,-0.127796638146632
-0.140266898309843,-0.120615911214526
-0.154848477996351,-0.113207245894319
-0.169376335518586,-0.105737291018421
-0.176498510274333,-0.102042496903456
-0.183526656456033,-0.0983744255788306
-0.190461129635835,-0.0947330274758058
-0.204050479278347,-0.0875300526596053
-0.223740845531632,-0.0769244003788538
-0.230120747715197,-0.07344200066193
-0.242607355663933,-0.0665561303806432
-0.248714772573403,-0.0631525606788036
-0.159931775604113,0.0620249926104059
-0.266497741908022,-0.053098718503641
-0.176076631029832,0.0686682125096368
-0.2834792561671,-0.0432791357805097
-0.294359753815405,-0.0368622305219294
-0.299668915798684,-0.0336924741534767
-0.315076321250821,-0.0243373952666095
-0.334419282052635,-0.0122218833610369
-0.339043063007713,-0.00925659039250494
-0.34358277140894,-0.00631663228964091
-0.348038762828466,-0.00340195948370664
-0.352411392838442,-0.000512522405963781
-0.360907990918339,0.0051908428399005
-0.365032670132561,0.00800487014549845
-0.369075410225831,0.0107938599978579
-0.380715551501434,0.0190111005228881
-0.388072468903159,0.0243649823669172
-0.391631041285869,0.0270047884433492
-0.395110163552677,0.0296199040477104
-0.398510191275732,0.0322103787487392
-0.401831480027185,0.0347762621151738
-0.408239262903882,0.0398344531192133
-0.414336356759968,0.044794873609735
-0.420125606172643,0.0496579201366448
-0.422905678143075,0.0520530520855909
-0.428238494472879,0.0567707811981568
-0.43079194997655,0.059093477499253
-0.541355657166708,-0.0325143260271891
-0.565991943236001,-0.0209382362096747
-0.448555665660176,0.0768135528569911
-0.450448472659659,0.0789216189264032
-0.45401955964496,0.083067000754478
-0.342972187546,0.195713791465767
-0.461712462895498,0.0930200583864119
-0.559401714144871,-0.0100189082242954
-0.466620158639025,0.100563653463623
-0.469588665477106,0.105979101892009
-0.470444394623254,0.107738373281499
-0.472615240672155,0.11287924715239
-0.473207927465775,0.114547390239288
-0.473735742601638,0.116192875172383
-0.474199041651893,0.117815751520414
-0.474933513784182,0.120993876736237
-0.475205398010515,0.122549224741505
-0.47541418843984,0.124082162436662
-0.475524178656596,0.131412431166617
-0.473648386194771,0.139479573275187
-0.473127785687693,0.140747453610593
-0.472548713821557,0.141993568029485
-0.471911526168511,0.143217966100601
-0.470464225790289,0.145601811474459
-0.467866296124884,0.149015946145385
-0.574256750871065,0.0524550304107469
-0.4636202962849,0.153268491932551
-0.462421507231002,0.154278452806514
-0.461168513683845,0.155267242588822
-0.459861671215576,0.156234910848213
-0.458501335398346,0.157181507153426
-0.452532170082813,0.160758164207258
-0.447511038967417,0.163221830346932
-0.442034068906163,0.165499417848154
-0.340605124150005,0.265144270112999
-0.546926273821697,0.078824803939476
-0.429751013738269,0.169501710358972
-0.425273280266735,0.170673444844345
-0.418207037903958,0.172280194383112
-0.296217763022199,0.279050434924697
-0.400137255766244,0.175332239380226
-0.391738225629294,0.1763447503784
-0.388853844740448,0.176643216443698
-0.495347542508501,0.083337476579158
-0.37381265971899,0.177844995357711
-0.466464200499417,0.0762785997021895
-0.344249553483222,0.178803495623076
-0.340776115649889,0.178815623618647
-0.33372031789807,0.178783851214301
-0.330138669123886,0.17874004995186
-0.221507579785556,0.279841555456841
-0.307918678948364,0.17808955436397
-0.292436096474327,0.177290299000236
-0.166058363069481,0.283269740582081
-0.268265230771717,0.175550959495044
-0.24302624453202,0.173172589436087
-0.238721294617461,0.172714818248286
-0.225644781103161,0.171237279754548
-0.212333238948079,0.169604444808811
-0.198796268600261,0.167817651767009
-0.171084445118604,0.163787544818936
-0.152168206616399,0.160766939207561
-0.147387195212918,0.159970508729068
-0.142586114242564,0.159157665757793
-0.128066009651767,0.156621157574651
-0.123188206135423,0.155743160319626
-0.113378079556515,0.15393872143104
-0.0985319244048543,0.151111695682892
-0.0885513257899629,0.149147345209228
-0.0633295044965659,0.143960527289316
-0.0480252690594358,0.140661202096671
-0.0377570621950588,0.138384463763588
-0.032604410507433,0.137223086841865
-0.011878445404177,0.132425350724323
-0.00666989240092414,0.131188107430967
0.0142618993573452,0.126089384263804
0.0459132132940376,0.117997502093056
0.0671499867173695,0.112311675448125
0.0724729078450206,0.110854268350605
0.0778006089370995,0.109382580216048
0.0831327344214558,0.10789666061319
0.0991521015066922,0.1033540086822
0.125906347760317,0.0955029191801215
0.285689825790895,0.197996186217565
0.179462211968486,0.0787730350440683
0.216833750482204,0.0662684319036501
0.344502707881119,0.157539781292197
0.243390203497853,0.0569473007097089
0.143438385308822,-0.0374889650799148
0.275036290458818,0.0453435588984318
0.280282151236082,0.0433659217914661
0.290746255170207,0.0393736535775336
0.311554036536648,0.0312425290743352
0.35260824510072,0.0144050311639734
0.492830451018216,0.0999402064529824
0.402638789120369,-0.00768771755166837
0.407550794517225,-0.00995918044332005
0.412444823260916,-0.012241751972762
0.431834060261037,-0.0214821330936666
0.446169810117553,-0.0285266307629676
0.492548334556229,-0.0526970574478091
0.581584162685295,-0.106721231560174
0.689110311360524,-0.00379804928311706
0.604587616115058,-0.122919997233857
0.615635448155186,-0.131139902850346
0.629873613909633,-0.142221756421844
0.633342878266223,-0.145013671395067
0.653372757861242,-0.161941537716489
0.662866599847672,-0.170516625165317
0.557712669616107,-0.282024680719979
0.683601530023009,-0.190804087498786
0.689148529186081,-0.196670444393081
0.704740813747153,-0.214450071053327
