-0.349931088548419,-0.55029604182449
-0.353002136592819,-0.5430741667604
-0.356030021547894,-0.535913279472394
-0.359015003055521,-0.528813167109074
-0.361957340757578,-0.521773616819043
-0.364857294295943,-0.514794415750903
-0.367715123312493,-0.507875351053256
-0.370531087449106,-0.501016209874703
-0.373305446347661,-0.494216779363848
-0.376038459650033,-0.487476846669292
-0.378730386998102,-0.480796198939638
-0.381381488033745,-0.474174623323486
-0.38399202239884,-0.467611906969441
-0.386562249735264,-0.461107837026103
-0.389092429684896,-0.454662200642075
-0.391582821889612,-0.448274784965959
-0.394033685991291,-0.441945377146357
-0.396445281631811,-0.43567376433187
-0.398817868453048,-0.429459733671102
-0.401151706096881,-0.423303072312655
-0.403447054205188,-0.41720356740513
-0.405704172419846,-0.41116100609713
-0.407923320382733,-0.405175175537256
-0.410104757735727,-0.399245862874111
-0.412248744120705,-0.393372855256297
-0.414355539179545,-0.387555939832416
-0.416425402554126,-0.38179490375107
-0.418458593886323,-0.376089534160861
-0.420455372818017,-0.370439618210392
-0.422415998991083,-0.364844943048264
-0.4243407320474,-0.35930529582308
-0.426229831628845,-0.353820463683441
-0.428083557377297,-0.34839023377795
-0.429902168934633,-0.34301439325521
-0.43168592594273,-0.337692729263821
-0.433435088043467,-0.332425028952386
-0.435149914878721,-0.327211079469508
-0.43683066609037,-0.322050667963788
-0.438477601320291,-0.316943581583828
-0.440090980210363,-0.311889607478231
-0.441671062402462,-0.306888532795599
-0.443218107538468,-0.301940144684534
-0.444732375260257,-0.297044230293638
-0.446214125209707,-0.292200576771512
-0.447663617028696,-0.28740897126676
-0.449081110359102,-0.282669200927983
-0.450466864842802,-0.277981052903783
-0.451821140121674,-0.273344314342763
-0.453144195837596,-0.268758772393525
-0.454436291632445,-0.26422421420467
-0.4556976871481,-0.259740426924801
-0.456928642026438,-0.25530719770252
-0.458129415909336,-0.25092431368643
-0.459300268438673,-0.246591562025131
-0.460441459256326,-0.242308729867226
-0.461553248004173,-0.238075604361318
-0.462635894324092,-0.233891972656009
-0.46368965785796,-0.2297576218999
-0.464714798247655,-0.225672339241594
-0.465711575135055,-0.221635911829692
-0.466680248162037,-0.217648126812798
-0.46762107697048,-0.213708771339513
-0.46853432120226,-0.209817632558439
-0.469420240499256,-0.205974497618178
-0.470279094503346,-0.202179153667333
-0.471111142856407,-0.198431387854505
-0.471916645200317,-0.194730987328296
-0.472695861176953,-0.19107773923731
-0.473449050428193,-0.187471430730147
-0.474176472595916,-0.183911848955411
-0.474878387321998,-0.180398781061702
-0.475555054248318,-0.176932014197624
-0.476206733016753,-0.173511335511778
-0.476833683269181,-0.170136532152766
-0.47743616464748,-0.166807391269191
-0.478014436793527,-0.163523700009654
-0.4785687593492,-0.160285245522759
-0.479099391956377,-0.157091814957106
-0.479606594256935,-0.153943195461298
-0.480090625892753,-0.150839174183937
-0.480551746505708,-0.147779538273626
-0.480990215737678,-0.144764074878966
-0.481406293230539,-0.141792571148559
-0.481800238626171,-0.138864814231008
-0.482172311566452,-0.135980591274914
-0.482522771693257,-0.13313968942888
-0.482851878648466,-0.130341895841508
-0.483159892073956,-0.1275869976614
-0.483447071611605,-0.124874782037159
-0.483713676903291,-0.122205036117385
-0.48395996759089,-0.119577547050682
-0.484186203316282,-0.116992101985651
-0.484392643721343,-0.114448488070895
-0.484579548447952,-0.111946492455015
-0.484747177137986,-0.109485902286614
-0.484895789433323,-0.107066504714294
-0.48502564497584,-0.104688086886657
-0.485137003407416,-0.102350435952305
-0.485230124369928,-0.100053339059841
-0.485305267505253,-0.0977965833578657
-0.48536269245527,-0.0955799559949819
-0.485402658861856,-0.0934032441197918
-0.48542542636689,-0.0912662348808972
-0.485431254612247,-0.0891687154269005
-0.485420403239808,-0.0871104729064037
-0.485393131891448,-0.0850912944680089
-0.485349700209046,-0.0831109672603182
-0.48529036783448,-0.0811692784319338
-0.485215394409627,-0.0792660151314578
-0.485125039576365,-0.0774009645074923
-0.485019562976572,-0.0755739137086392
-0.484899224252125,-0.0737846498835009
-0.484764283044902,-0.0720329601806794
-0.484614998996782,-0.0703186317487769
-0.484451631749641,-0.0686414517363952
-0.484274440945357,-0.0670012072921368
-0.484083686225808,-0.0653976855646037
-0.483879627232873,-0.0638306737023979
-0.483662523608427,-0.0622999588541216
-0.48343263499435,-0.0608053281683769
-0.483190221032519,-0.0593465687937659
-0.482935541364812,-0.0579234678788907
-0.482668855633106,-0.0565358125723535
-0.482390423479279,-0.0551833900227562
-0.48210050454521,-0.0538659873787012
-0.481799358472774,-0.0525833917887904
-0.481487244903851,-0.051335390401626
-0.481164423480318,-0.0501217703658101
-0.480831153844053,-0.0489423188299448
-0.480487695636934,-0.0477968229426322
-0.480134308500837,-0.0466850698524744
-0.479771252077642,-0.0456068467080736
-0.479398786009225,-0.0445619406580319
-0.479017169937465,-0.0435501388509513
-0.478626663504239,-0.042571228435434
-0.478227526351424,-0.041624996560082
-0.4778200181209,-0.0407112303734977
-0.477404398454542,-0.0398297170242828
-0.47698092699423,-0.0389802436610397
-0.47654986338184,-0.0381625974323705
-0.476111467259251,-0.0373765654868773
-0.47566599826834,-0.0366219349731621
-0.475213716050985,-0.035898493039827
-0.474754880249063,-0.0352060268354743
-0.474289750504453,-0.034544323508706
-0.473818586459032,-0.0339131702081242
-0.473341647754678,-0.033312354082331
-0.472859194033268,-0.0327416622799286
-0.472371484936681,-0.032200881949519
-0.471878780106793,-0.0316898002397044
-0.471381339185484,-0.0312082042990868
-0.470879421814629,-0.0307558812762684
-0.470373287636108,-0.0303326183198514
-0.469863196291798,-0.0299382025784378
-0.469349407423576,-0.0295724212006297
-0.468832180673321,-0.0292350613350292
-0.46831177568291,-0.0289259101302385
-0.46778845209422,-0.0286447547348597
-0.46726246954913,-0.0283913822974948
-0.466734087689518,-0.028165579966746
-0.46620356615726,-0.0279671348912155
-0.465671164594235,-0.0277958342195053
-0.46513714264232,-0.0276514651002174
-0.464601759943394,-0.0275338146819542
-0.464065276139333,-0.0274426701133175
-0.463527950872016,-0.0273778185429097
-0.462990043783321,-0.0273390471193327
-0.462451814515124,-0.0273261429911887
-0.461913522709304,-0.0273388933070798
-0.461375428007738,-0.0273770852156082
-0.460837790052305,-0.0274405058653758
-0.460300868484882,-0.0275289424049849
-0.459764922947346,-0.0276421819830376
-0.459230213081576,-0.0277800117481359
-0.458696998529448,-0.0279422188488819
-0.458165538932842,-0.0281285904338779
-0.457636093933634,-0.0283389136517259
-0.457108923173703,-0.028572975651028
-0.456584286294925,-0.0288305635803863
-0.456062442939179,-0.029111464588403
-0.455543652748343,-0.0294154658236801
-0.455028175364294,-0.0297423544348198
-0.454516270428909,-0.0300919175704242
-0.454008197584067,-0.0304639423790953
-0.453504216471646,-0.0308582160094354
-0.453004586733523,-0.0312745256100464
-0.452509568011575,-0.0317126583295306
-0.452019419947681,-0.0321724013164901
-0.451534402183718,-0.0326535417195268
-0.451054774361565,-0.0331558666872431
-0.450580796123098,-0.0336791633682409
-0.450112727110195,-0.0342232189111224
-0.449650826964734,-0.0347878204644897
-0.449195355328594,-0.035372755176945
-0.448746571843651,-0.0359778101970902
-0.448304736151783,-0.0366027726735276
-0.447870107894868,-0.0372474297548593
-0.447442946714784,-0.0379115685896873
-0.447023512253409,-0.0385949763266137
-0.446612064152619,-0.0392974401142408
-0.446208862054294,-0.0400187471011706
-0.445814165600311,-0.0407586844360052
-0.445428234432546,-0.0415170392673467
-0.445051328192879,-0.0422935987437973
-0.444683706523187,-0.043088150013959
-0.444325629065347,-0.0439004802264339
-0.443977355461237,-0.0447303765298243
-0.443639145352736,-0.0455776260727321
-0.44331125838172,-0.0464420160037595
-0.442993954190068,-0.0473233334715087
-0.442687492419657,-0.0482213656245816
-0.442392132712364,-0.0491358996115805
-0.442108134710069,-0.0500667225811075
-0.441835758054648,-0.0510136216817646
-0.441575262387978,-0.051976384062154
-0.441326907351939,-0.0529547968708778
-0.441090952588407,-0.0539486472565381
-0.440867657739261,-0.054957722367737
-0.440657282446377,-0.0559818093530766
-0.440460086351634,-0.0570206953611591
-0.44027632909691,-0.0580741675405864
-0.440106270324081,-0.0591420130399609
-0.439950169675027,-0.0602240190078846
-0.439808286791624,-0.0613199725929595
-0.439680881315751,-0.0624296609437878
-0.439568212889284,-0.0635528712089717
-0.439470541154102,-0.0646893905371131
-0.439388125752083,-0.0658390060768144
-0.439321226325104,-0.0670015049766774
-0.439270102515043,-0.0681766743853044
-0.439235013963778,-0.0693643014512975
-0.439216220313186,-0.0705641733232588
-0.439213981205145,-0.0717760771497903
-0.439228556281533,-0.0729998000794943
-0.439260205184227,-0.0742351292609728
-0.439309187555106,-0.075481851842828
-0.439375763036047,-0.0767397549736618
-0.439460191268928,-0.0780086258020766
-0.439562731895626,-0.0792882514766743
-0.439683644558019,-0.0805784191460572
-0.439823188897985,-0.0818789159588272
-0.439981624557402,-0.0831895290635865
-0.440159211178147,-0.0845100456089372
-0.440356208402098,-0.0858402527434815
-0.440572875871133,-0.0871799376158214
-0.44080947322713,-0.0885288873745591
-0.441066260111966,-0.0898868891682967
-0.441343496167519,-0.0912537301456362
-0.441641441035666,-0.0926291974551799
-0.441960354358286,-0.0940130782455298
-0.442300495777256,-0.0954051596652879
-0.442662124934454,-0.0968052288630566
-0.443045501471758,-0.0982130729874377
-0.443450885031045,-0.0996284791870335
-0.443878535254193,-0.101051234610446
-0.44432871178308,-0.102481126406278
-0.444801674259583,-0.10391794172313
-0.44529768232558,-0.105361467709606
-0.44581699562295,-0.106811491514306
-0.446359873793569,-0.108267800285835
-0.446926576479316,-0.109730181172792
-0.447517363322067,-0.111198421323781
-0.448132493963702,-0.112672307887404
-0.448772228046097,-0.114151628012263
-0.44943682521113,-0.115636168846959
-0.45012654510068,-0.117125717540096
-0.450841647356623,-0.118620061240274
-0.451582391620838,-0.120118987096097
-0.452349037535201,-0.121622282256167
-0.453141844741592,-0.123129733869084
-0.453961072881888,-0.124641129083452
-0.454806981597965,-0.126156255047873
-0.455679830531703,-0.127674898910949
-0.456579879324979,-0.129196847821282
-0.45750738761967,-0.130721888927473
-0.458462615057655,-0.132249809378126
-0.45944582128081,-0.133780396321842
-0.460457265931015,-0.135313436907224
-0.461497208650145,-0.136848718282873
-0.46256590908008,-0.138386027597391
-0.463663626862697,-0.139925151999381
-0.464790621639873,-0.141465878637445
-0.465947153053487,-0.143007994660185
-0.467133480745416,-0.144551287216203
-0.468349864357537,-0.146095543454101
-0.469596563531729,-0.147640550522481
-0.470873837909869,-0.149186095569946
-0.472181947133836,-0.150731965745097
-0.473521150845506,-0.152277948196537
-0.474891708686757,-0.153823830072867
-0.476293880299468,-0.155369398522691
-0.477727925325515,-0.156914440694609
-0.479194103406777,-0.158458743737224
-0.480692674185131,-0.160002094799139
-0.482223897302455,-0.161544281028954
-0.483788032400627,-0.163085089575273
-0.485385339121525,-0.164624307586698
-0.487016077107026,-0.16616172221183
-0.488680505999007,-0.167697120599272
-0.490378885439347,-0.169230289897626
-0.492111475069924,-0.170761017255493
-0.493878534532615,-0.172289089821477
-0.495680323469298,-0.173814294744179
-0.49751710152185,-0.175336419172201
-0.499389128332149,-0.176855250254146
-0.501296663542074,-0.178370575138615
-0.503239966793501,-0.179882180974211
-0.505219297728308,-0.181389854909535
-0.507234915988374,-0.18289338409319
-0.509287081215576,-0.184392555673779
-0.511376053051791,-0.185887156799902
-0.513502091138898,-0.187376974620162
-0.515665455118773,-0.188861796283162
-0.517866404633296,-0.190341408937503
-0.520105199324343,-0.191815599731788
-0.522382098833792,-0.193284155814618
-0.524697362803522,-0.194746864334596
-0.527051250875409,-0.196203512440324
-0.529444022691331,-0.197653887280404
-0.531875937893167,-0.199097776003438
-0.534347256122793,-0.200534965758028
-0.536858237022088,-0.201965243692777
-0.539409140232929,-0.203388396956286
-0.542000225397195,-0.204804212697157
-0.544631752156762,-0.206212478063993
-0.547303980153508,-0.207612980205396
-0.550017169029312,-0.209005506269968
-0.552771578426051,-0.210389843406311
-0.555567467985603,-0.211765778763026
-0.558405097349844,-0.213133099488717
-0.561284726160654,-0.214491592731986
-0.56420661405991,-0.215841045641433
-0.567171020689489,-0.217181245365663
-0.57017820569127,-0.218511979053276
-0.57322842870713,-0.219833033852874
-0.576321949378946,-0.221144196913061
-0.579459027348597,-0.222445255382437
-0.58263992225796,-0.223735996409606
-0.585864893748913,-0.225016207143169
-0.589134201463333,-0.226285674731728
-0.592448105043099,-0.227544186323886
-0.595806864130088,-0.228791529068244
-0.599210738366178,-0.230027490113405
-0.602659987393246,-0.231251856607971
-0.606154870853171,-0.232464415700543
-0.609695648387829,-0.233664954539725
-0.613282579639099,-0.234853260274117
-0.616915924248859,-0.236029120052323
-0.620595941858986,-0.237192321022945
-0.624322892111358,-0.238342650334583
-0.628097034647852,-0.239479895135842
-0.631918629110347,-0.240603842575321
-0.635787935140719,-0.241714279801625
-0.639705212380848,-0.242810993963355
-0.64367072047261,-0.243893772209113
-0.647684719057883,-0.2449624016875
-0.651747467778545,-0.24601666954712
-0.655859226276474,-0.247056362936575
-0.660020254193547,-0.248081269004466
-0.664230811171643,-0.249091174899395
-0.668491156852637,-0.250085867769965
-0.67280155087841,-0.251065134764778
-0.677162252890838,-0.252028763032436
-0.681573522531799,-0.252976539721541
-0.686035619443171,-0.253908251980695
-0.690548803266831,-0.2548236869585
-0.695113333644658,-0.255722631803559
-0.699729470218528,-0.256604873664473
-0.70439747263032,-0.257470199689844
-0.709117600521912,-0.258318397028276
-0.71389011353518,-0.259149252828369
-0.718715271312003,-0.259962554238726
-0.723593333494259,-0.260758088407949
-0.728524559723825,-0.261535642484641
-0.733509209642579,-0.262295003617402
-0.738547542892399,-0.263035958954836
-0.743639819115162,-0.263758295645545
-0.748786297952747,-0.26446180083813
-0.75398723904703,-0.265146261681193
-0.75924290203989,-0.265811465323338
-0.764553546573204,-0.266457198913166
-0.76991943228885,-0.267083249599278
-0.775340818828706,-0.267689404530278
-0.78081796583465,-0.268275450854767
-0.786351132948559,-0.268841175721347
-0.79194057981231,-0.269386366278621
-0.797586566067783,-0.269910809675191
-0.803289351356854,-0.270414293059658
-0.809049195321401,-0.270896603580625
-0.814866357603302,-0.271357528386694
-0.820741097844434,-0.271796854626468
-0.826673675686675,-0.272214369448547
-0.832664350771904,-0.272609860001534
-0.838713382741998,-0.272983113434032
-0.844821031238834,-0.273333916894643
-0.85098755590429,-0.273662057531968
-0.857213216380244,-0.27396732249461
-0.863498272308574,-0.274249498931171
-0.869842983331157,-0.274508373990252
-0.876247609089871,-0.274743734820457
