0.0667387602141378,0.587587095701413
0.0637475132616073,0.576183101692764
0.0608150306202931,0.564847292541512
0.0579409828804598,0.553579528740437
0.0551250406323717,0.542379670782319
0.0523668744662931,0.531247579159936
0.0496661549724883,0.520183114366066
0.0470225527412218,0.50918613689349
0.0444357383627579,0.498256507234986
0.0419053824273609,0.487394085883333
0.0394311555252952,0.476598733331311
0.0370127282468252,0.465870310071697
0.0346497711822152,0.455208676597272
0.0323419549217295,0.444613693400815
0.0300889500556326,0.434085220975104
0.0278904271741887,0.423623119812918
0.0257460568676623,0.413227250407037
0.0236555097263176,0.402897473250239
0.0216184563404191,0.392633648835304
0.0196345673002311,0.38243563765501
0.017703513196018,0.372303300202137
0.015824964618044,0.362236496969464
0.0139985921565736,0.35223508844977
0.0122240664018712,0.342298935135833
0.010501057944201,0.332427897520433
0.00882923737382741,0.32262183609635
0.00720827528101482,0.31288061135636
0.00563784225602757,0.303204083793245
0.00411760888913002,0.293592113899783
0.00264724577058652,0.284044562168753
0.00122642349066142,0.274561289092934
-0.000145187360380926,0.265142155165105
-0.00146791619227615,0.255787020878045
-0.00274209241475991,0.246495746724534
-0.00396804543756783,0.237268193197349
-0.00514610467043558,0.228104220789271
-0.00627659952309879,0.219003689993079
-0.00735985940529311,0.20996646130155
-0.00839621372675419,0.200992395207465
-0.00938599189721766,0.192081352203603
-0.0103295233264192,0.183233192782742
-0.0112271374240944,0.174447777437661
-0.0120791635999789,0.16572496666114
-0.0128859312638084,0.157064620945958
-0.0136477698253186,0.148466600784893
-0.0143650086942449,0.139930766670725
-0.0150379772803233,0.131456979096233
-0.0156670049932891,0.123045098554195
-0.0162524212428782,0.114694985537391
-0.0167945554388261,0.1064065005386
-0.0172937369908685,0.0981795040506014
-0.017750295308741,0.0900138565661733
-0.0181645598021793,0.0819094185780952
-0.0185368598809191,0.0738660505791462
-0.0188675249546959,0.065883613062105
-0.0191568844332454,0.0579619665197511
-0.0194052677263033,0.0501009714448634
-0.0196130042436052,0.0423004883302208
-0.0197804233948867,0.0345603776686024
-0.0199078545898835,0.0268804999527872
-0.0199956272383313,0.0192607156755544
-0.0200440707499656,0.011700885329683
-0.0200535145345222,0.00420086940795186
-0.0200242880017366,-0.00323947159685989
-0.0199567205613445,-0.010620277191973
-0.0198511416230817,-0.0179416868846087
-0.0197078805966836,-0.0252038401819879
-0.0195272668918859,-0.0324068765913314
-0.0193096299184244,-0.0395509356198604
-0.0190552990860346,-0.0466361567747956
-0.0187646038044522,-0.0536626795633581
-0.0184378734834128,-0.060630643492769
-0.0180754375326521,-0.0675401880702489
-0.0176776253619057,-0.074391452803019
-0.0172447663809093,-0.0811845771983003
-0.0167771899993984,-0.0879197007633137
-0.0162752256271089,-0.09459696300528
-0.0157392026737762,-0.10121650343142
-0.015169450549136,-0.107778461548956
-0.0145662986629241,-0.114282976865107
-0.013930076424876,-0.120730188887095
-0.0132611132447273,-0.127120237122141
-0.0125597385322138,-0.133453261077466
-0.011826281697071,-0.13972940026029
-0.0110610721490347,-0.145948794177836
-0.0102644392978404,-0.152111582337322
-0.0094367125532238,-0.158217904245972
-0.00857822132492053,-0.164267899411005
-0.00768929502266629,-0.170261707339643
-0.00677026305619668,-0.176199467539106
-0.00582145483524732,-0.182081319516615
-0.00484319976955389,-0.187907402779393
-0.00383582726885203,-0.193677856834658
-0.0027996667428774,-0.199392821189633
-0.00173504760136559,-0.205052435351538
-0.000642299254052302,-0.210656838827594
0.000478248889326831,-0.216206171125023
0.00162626741903619,-0.221700571751044
0.0028014269253401,-0.22714018021288
0.00400339799850294,-0.232525136017751
0.00523185122878907,-0.237855578672878
0.0064864572064628,-0.243131647685482
0.00776688652178852,-0.248353482562784
0.00907280976503059,-0.253521222812005
0.0104038975264534,-0.258635007940366
0.0117598203963212,-0.263694977455087
0.0131402489648984,-0.268701270863391
0.0145448538224494,-0.273654027672497
0.0159733055592385,-0.278553387389627
0.01742527476553,-0.283399489522001
0.0189004320315884,-0.288192473576841
0.020398447947678,-0.292932479061368
0.0219189931040631,-0.297619645482803
0.0234617380910082,-0.302254112348366
0.0250263534987774,-0.306836019165278
0.0266125099176353,-0.311365505440761
0.0282198779378461,-0.315842710682035
0.0298481281496743,-0.320267774396322
0.0314969311433841,-0.324640836090841
0.0331659575092399,-0.328962035272816
0.0348548778375061,-0.333231511449465
0.0365633627184471,-0.337449404128011
0.0382910827423271,-0.341615852815673
0.0400377084994106,-0.345730997019674
0.0418029105799619,-0.349794976247234
0.0435863595742454,-0.353807930005574
0.0453877260725254,-0.357769997801915
0.0472066806650662,-0.361681319143478
0.0490428939421322,-0.365542033537483
0.0508960364939878,-0.369352280491153
0.0527657789108974,-0.373112199511707
0.0546517917831253,-0.376821930106367
0.0565537457009358,-0.380481611782354
0.0584713112545933,-0.384091384046889
0.0604041590343621,-0.387651386407192
0.0623519596305067,-0.391161758370485
0.0643143836332913,-0.394622639443988
0.0662911016329804,-0.398034169134923
0.0682817842198382,-0.401396486950511
0.0702861019841292,-0.404709732397972
0.0723037255161176,-0.407974044984527
0.0743343254060679,-0.411189564217398
0.0763775722442444,-0.414356429603805
0.0784331366209114,-0.417474780650969
0.0805006891263334,-0.420544756866111
0.0825799003507746,-0.423566497756453
0.0846704408844994,-0.426540142829215
0.0867719813177722,-0.429465831591618
0.0888841922408573,-0.432343703550883
0.0910067442440191,-0.435173898214231
0.093139307917522,-0.437956555088883
0.0952815538516302,-0.44069181368206
0.0974331526366082,-0.443379813500983
0.0995937748627203,-0.446020694052873
0.101763091120231,-0.448614594844951
0.103940771999404,-0.451161655384437
0.106126488090505,-0.453662015178554
0.108319909983797,-0.456115813734521
0.110520708269545,-0.458523190559559
0.112728553538013,-0.46088428516089
0.114943116379466,-0.463199237045735
0.117164067384168,-0.465468185721314
0.119391077142383,-0.467691270694849
0.121623816244375,-0.469868631473561
0.12386195528041,-0.472000407564669
0.126105164840751,-0.474086738475397
0.128353115515663,-0.476127763712963
0.13060547789541,-0.478123622784589
0.132861922570256,-0.480074455197498
0.135122120130466,-0.481980400458908
0.137385741166304,-0.483841598076041
0.139652456268035,-0.485658187556119
0.141921936025923,-0.487430308406361
0.144193851030232,-0.48915810013399
0.146467871871226,-0.490841702246225
0.14874366913917,-0.492481254250289
0.151020913424329,-0.494076895653402
0.153299275316966,-0.495628765962784
0.155578425407346,-0.497137004685657
0.157858034285734,-0.498601751329242
0.160137772542393,-0.50002314540076
0.162417310767588,-0.501401326407432
0.164696319551584,-0.502736433856478
0.166974469484645,-0.50402860725512
0.169251431157034,-0.505277986110578
0.171526875159017,-0.506484709930074
0.173800472080858,-0.507648918220829
0.176071892512821,-0.508770750490063
0.178340807045171,-0.509850346244997
0.180606886268171,-0.510887844992853
0.182869800772087,-0.511883386240851
0.185129221147182,-0.512837109496213
0.187384817983722,-0.513749154266158
0.18963626187197,-0.514619660057909
0.19188322340219,-0.515448766378687
0.194125373164647,-0.516236612735711
0.196362381749606,-0.516983338636203
0.19859391974733,-0.517689083587385
0.200819657748085,-0.518353987096476
0.203039266342134,-0.518978188670698
0.205252416119742,-0.519561827817273
0.207458777671173,-0.52010504404342
0.209658021586691,-0.520607976856361
0.211849818456562,-0.521070765763317
0.214033838871048,-0.521493550271509
0.216209753420415,-0.521876469888158
0.218377232694928,-0.522219664120484
0.220535947284849,-0.522523272475709
0.222685567780444,-0.522787434461053
0.224825764771977,-0.523012289583738
0.226956208849712,-0.523197977350984
0.229076570603915,-0.523344637270013
0.231186520624848,-0.523452408848046
0.233285729502776,-0.523521431592303
0.235373867827965,-0.523551845010005
0.237450606190677,-0.523543788608374
0.239515615181178,-0.523497401894629
0.241568565389732,-0.523412824375993
0.243609127406603,-0.523290195559687
0.245636971822056,-0.52312965495293
0.247651769226354,-0.522931342062945
0.249653190209763,-0.522695396396951
0.251640905362546,-0.522421957462171
0.253614585274969,-0.522111164765824
0.255573900537295,-0.521763157815133
0.257518521739788,-0.521378076117317
0.259448119472713,-0.520956059179599
0.261362364326335,-0.520497246509198
0.263260926890918,-0.520001777613336
0.265143477756725,-0.519469791999233
0.267009687514023,-0.518901429174112
0.268859226753074,-0.518296828645192
0.270691766064143,-0.517656129919695
0.272506976037494,-0.516979472504841
0.274304527263393,-0.516266995907852
0.276084090332103,-0.515518839635948
0.277845335833888,-0.514735143196351
0.279587934359013,-0.513916046096281
0.281311556497743,-0.51306168784296
0.283015872840341,-0.512172207943608
0.284700553977073,-0.511247745905446
0.286365270498201,-0.510288441235695
0.288009692993992,-0.509294433441577
0.289633492054708,-0.508265862030312
0.291236338270615,-0.507202866509121
0.292817902231977,-0.506105586385225
0.294377854529058,-0.504974161165845
0.295915865752122,-0.503808730358202
0.297431606491435,-0.502609433469517
0.298924747337259,-0.501376410007011
0.30039495887986,-0.500109799477905
0.301841911709502,-0.498809741389419
0.303265276416449,-0.497476375248776
0.304664723590966,-0.496109840563195
0.306039923823317,-0.494710276839898
0.307390547703766,-0.493277823586106
0.308716265822578,-0.491812620309039
0.310016748770017,-0.490314806515919
0.311291667136347,-0.488784521713966
0.312540691511833,-0.487221905410402
0.31376349248674,-0.485627097112448
0.31495974065133,-0.484000236327323
0.31612910659587,-0.482341462562251
0.317271260910623,-0.48065091532445
0.318385874185853,-0.478928734121143
0.319472617011825,-0.47717505845955
0.320531159978804,-0.475390027846892
0.321561173677053,-0.473573781790391
0.322562328696837,-0.471726459797267
0.32353429562842,-0.46984820137474
0.324476745062067,-0.467939146030033
0.325389347588042,-0.465999433270366
0.326271773796609,-0.46402920260296
0.327123694278034,-0.462028593535036
0.327944779622579,-0.459997745573814
0.32873470042051,-0.457936798226517
0.32949312726209,-0.455845891000364
0.330219730737585,-0.453725163402577
0.330914181437258,-0.451574754940377
0.331576149951374,-0.449394805120985
0.332205306870197,-0.447185453451621
0.332801322783992,-0.444946839439506
0.333363868283023,-0.442679102591863
0.333892613957554,-0.440382382415911
0.33438723039785,-0.438056818418871
0.334847388194175,-0.435702550107965
0.335272757936793,-0.433319716990413
0.335663010215969,-0.430908458573436
0.336017815621966,-0.428468914364256
0.336336844745051,-0.426001223870093
0.336619768175486,-0.423505526598169
0.336866256503536,-0.420981962055703
0.337075980319466,-0.418430669749918
0.337248610213539,-0.415851789188034
0.337383816776021,-0.413245459877272
0.337481270597176,-0.410611821324853
0.337540642267267,-0.407951013037998
0.337561602376559,-0.405263174523927
0.337543821515317,-0.402548445289863
0.337486970273806,-0.399806964843026
0.337390719242288,-0.397038872690636
0.337254739011029,-0.394244308339916
0.337078700170293,-0.391423411298085
0.336862273310345,-0.388576321072364
0.336605129021448,-0.385703177169976
0.336306937893868,-0.382804119098139
0.335967370517868,-0.379879286364077
0.335586097483712,-0.376928818475009
0.335162789381666,-0.373952854938157
0.334697116801994,-0.370951535260741
0.334188750334959,-0.367924998949982
0.333637360570827,-0.364873385513102
0.333042618099861,-0.361796834457321
0.332404193512326,-0.358695485289861
0.331721757398486,-0.355569477517941
0.330994980348606,-0.352418950648784
0.330223532952951,-0.34924404418961
0.329407085801783,-0.34604489764764
0.328545309485368,-0.342821650530096
0.32763787459397,-0.339574442344197
0.326684451717854,-0.336303412597165
0.325684711447284,-0.333008700796221
0.324638324372523,-0.329690446448587
0.323544961083838,-0.326348789061482
0.322404292171491,-0.322983868142128
0.321215988225747,-0.319595823197745
0.319979719836871,-0.316184793735556
0.318695157595126,-0.31275091926278
0.317361972090778,-0.309294339286639
0.315979833914091,-0.305815193314353
0.314548413655329,-0.302313620853144
0.313067381904756,-0.298789761410233
0.311536409252636,-0.29524375449284
0.309955166289235,-0.291675739608187
0.308323323604816,-0.288085856263494
0.306640551789644,-0.284474243965982
0.304906521433984,-0.280841042222873
0.303120903128098,-0.277186390541387
0.301283367462252,-0.273510428428745
0.299393585026711,-0.269813295392169
0.297451226411738,-0.266095130938878
0.295455962207598,-0.262356074576095
0.293407463004555,-0.25859626581104
0.291305399392874,-0.254815844150934
0.289149441962819,-0.251014949102998
0.286939261304654,-0.247193720174453
0.284674528008644,-0.24335229687252
0.282354912665053,-0.23949081870442
0.279980085864145,-0.235609425177373
0.277549718196185,-0.231708255798602
0.275063480251437,-0.227787450075326
0.272521042620166,-0.223847147514767
0.269922075892635,-0.219887487624146
0.26726625065911,-0.215908609910683
0.264553237509854,-0.2119106538816
0.261782707035132,-0.207893759044117
0.258954329825208,-0.203858064905456
0.256067776470347,-0.199803710972838
0.253122717560813,-0.195730836753483
0.250118823686869,-0.191639581754612
0.247055765438782,-0.187530085483447
0.243933213406815,-0.183402487447207
0.240750838181232,-0.179256927153116
0.237508310352297,-0.175093544108392
0.234205300510276,-0.170912477820258
0.230841479245433,-0.166713867795934
0.227416517148031,-0.162497853542641
0.223930084808335,-0.158264574567599
0.220381852816609,-0.154014170378032
0.216771491763119,-0.149746780481158
0.213098672238127,-0.145462544384199
0.2093630648319,-0.141161601594375
0.2055643401347,-0.136844091618909
0.201702168736792,-0.132510153965021
0.197776221228441,-0.128159928139931
0.193786168199911,-0.123793553650861
0.189731680241467,-0.119411170005032
0.185612427943372,-0.115012916709664
0.181428081895891,-0.110598933271979
0.177178312689288,-0.106169359199198
0.172862790913829,-0.101724333998541
0.168481187159776,-0.0972639971772294
0.164033172017395,-0.0927884882424846
0.159518416076949,-0.0882979467015269
0.154936589928704,-0.0837925120615779
0.150287364162924,-0.079272323829858
0.145570409369872,-0.0747375215135885
0.140785396139813,-0.0701882446199901
0.135931995063013,-0.0656246326562841
0.131009876729734,-0.0610468251296911
0.126018711730241,-0.0564549615474324
0.120958170654799,-0.0518491814167286
0.115827924093672,-0.047229624244801
0.110627642637124,-0.0425964295388702
0.105356996875421,-0.0379497368061576
0.100015657398825,-0.0332896855538837
0.0946032947976016,-0.0286164152892699
0.0891195796620149,-0.0239300655195367
0.0835641825823297,-0.0192307757519055
0.0779367741488097,-0.0145186854935968
