-0.4142435452699,0.929557394634244
-0.400423271324411,0.852909419031353
-0.358648677508844,0.861299000086176
-0.310956539886787,0.858984487249448
-0.373539561695543,0.873639256161342
-0.368210981342435,0.86475881161225
-0.325686545947981,0.787211228259541
-0.336750150716143,0.828642360897833
-0.339657121288026,0.777378121899116
-0.44434373013246,0.637376203999673
-0.278395537831695,0.810938984776341
-0.306279890720778,0.762039105147025
-0.288674066135172,0.778512756255977
-0.259616533732114,0.727326228679015
-0.28903420554405,0.729734213379661
-0.344739285197457,0.655685758994012
-0.391369473321182,0.665650765192841
-0.238157797502623,0.681715514720455
-0.220617719548507,0.714102581085157
-0.260537749284691,0.676759864012786
-0.214109484378185,0.709579180892917
-0.249227938486398,0.655873320988949
-0.218092897708086,0.615920775415127
-0.235532632365783,0.633636449443544
-0.187867524650427,0.646936363466565
-0.226765302466214,0.614619432781793
-0.189836204538808,0.62471054958612
-0.240754469656898,0.628019940120686
-0.214771803570758,0.628223901442989
-0.208982116527517,0.619846283939951
-0.241236149725102,0.591460071714527
-0.189026391280998,0.510373049743484
-0.167072901424362,0.526772626117069
-0.182492437145555,0.534185556244978
-0.179474660135475,0.543717391157211
-0.171565235634934,0.51450854719263
-0.206193335410511,0.510006692964888
-0.116068215024109,0.457399167354649
-0.248693752033309,0.373229497965708
-0.167810627652729,0.473301818295157
-0.134466511460298,0.423258918692468
-0.138513220944338,0.426805600000316
-0.133783722109314,0.44699581061548
-0.19150111028092,0.371240567482545
-0.132151981322859,0.409682395431929
-0.139240410957656,0.427991812012129
-0.081535982359304,0.424774121444122
-0.134702008622942,0.393294893676821
-0.0594465032714057,0.366833208289594
-0.128657148717259,0.352386842414352
-0.210934790087317,0.27225938556085
0.00863253751392569,0.456604294783479
-0.0859182745284079,0.325013550276143
-0.0689102748255124,0.369611468617105
-0.0857376030733658,0.336104106197103
-0.107723268869798,0.342141422045209
-0.0605076765287786,0.31828750017434
-0.0553963628885147,0.309415643685871
-0.0503019903496995,0.30058659758684
-0.0256477371435447,0.27075773286155
-0.0278816175436215,0.238777082938904
-0.0348528107233094,0.250593036610116
-0.0728163968443766,0.26809037245759
0.0384509335663873,0.413220806604424
-0.0356754090694711,0.272480123163812
-0.015124907573842,0.2399808814912
-0.0159916039645581,0.251296652135739
0.0362951771171715,0.19170035285605
-0.000314053090785069,0.21464786816475
-0.0870889987678361,0.110757860486982
0.00946931953017578,0.197972556112268
0.0143335190819299,0.189698870410332
-0.0242024292071469,0.219070050067885
0.0240063985873136,0.173279375113005
-0.011642795016771,0.132973691716945
0.0336045238543019,0.157030295234981
0.0383752806080618,0.148969628807174
-0.0251387608728682,-0.00586465102336085
0.0347879931101175,0.0895371132525263
0.187808850848118,0.262240274121912
0.0572670533817376,0.117152485307672
0.0714260613444759,0.14723010951071
0.0210426605858841,0.0920161884556509
0.0712320079567992,0.0937360645697831
0.0516524997298901,0.0869377062465515
0.0804432560956839,0.0783375127786754
0.0850189360433762,0.0707019167681269
0.0958918135513599,0.0412121636371044
0.0941098616145885,0.0555580199749743
0.0986248888058398,0.0480496933755435
0.103119479979342,0.0405837640963252
0.115888674840221,0.0808673555861234
0.102627311054175,0.0652810800639555
0.156953240525302,0.0160271143569598
0.215876553243718,0.113339011358742
0.170718052783509,0.021949333181155
0.151523588015769,-0.00995987074742578
0.0103554703861843,-0.119520449850098
0.186131956648753,-0.0639513331378022
0.161145708071492,0.0164149305111688
0.127261226993478,-0.0217120206737027
0.0591063860171784,-0.143072181167826
0.155420810004021,-0.0457050949401687
0.137803795750107,-0.014159164760884
0.161746161384803,-0.0696671967637124
0.168011758480598,-0.0663262743875092
0.143846849381297,-0.0974417471961603
0.127585069718157,-0.120169680726297
0.180403055674081,-0.0865677367644561
0.227232142807254,-0.0759658774783458
0.099859694851073,-0.179129179688543
0.192591752748841,-0.106429830598169
0.152541107866841,-0.157561161514807
0.177902777901066,-0.098794901381592
0.18306760774202,-0.0947750238727608
0.234853642586269,-0.0997593742839454
0.17243455000952,-0.172463421293568
0.192630274555162,-0.109129060456999
0.220227592125644,-0.151301351873614
0.262522097817053,-0.157613894530271
0.274146043816033,-0.178815496562001
0.12643865594068,-0.275443185213262
0.235502630811695,-0.176017431711802
0.340079793192566,-0.0740062297283792
0.126058237935469,-0.279662362674887
0.221240393774261,-0.176200110296393
0.253201962325392,-0.191880396773645
0.2042625702007,-0.177738398233809
0.245039205801451,-0.188425495275613
0.306977322066619,-0.187299396226231
0.221725806264279,-0.213852295433332
0.249105416763342,-0.259636262466504
0.271992126755128,-0.234871444505052
0.394724807757402,-0.136416502190139
0.278991933121781,-0.246139726893203
0.284104629128967,-0.298538089815769
0.373008485327154,-0.176904925764119
0.329237001723921,-0.213587224817297
0.253291462244958,-0.265175152930366
0.31371754204815,-0.239503286624981
0.324829418659535,-0.28419529512622
0.311344928018851,-0.293159536851073
0.210888149009723,-0.388716280808235
0.324093542103819,-0.304976609204816
0.350295670429797,-0.297363780664076
0.29857993592678,-0.306913205249573
0.322232374443053,-0.296449825627849
0.421442505692526,-0.165759539194602
0.247346231912372,-0.443394500388665
0.303485271346593,-0.358753031757407
0.331266483705964,-0.330273092859931
0.353157712037332,-0.349541284849505
0.33732220904923,-0.340039700973062
0.366194260160559,-0.313736752872955
0.358992172168043,-0.384807989377673
0.394567731367025,-0.382632267067335
0.299414634744749,-0.315061361398364
0.443148645962052,-0.267486461578645
0.352544234604495,-0.41179515032778
0.253021745706529,-0.46370458669388
0.360443707762916,-0.377443802491739
0.276421937642943,-0.462490721044068
0.391265448469257,-0.346281723016995
0.414702511957241,-0.398415909011638
0.409585320874303,-0.352545398610888
0.273322235060329,-0.507162540271661
0.524720693320253,-0.310389441966623
0.397501696417477,-0.452678762342684
0.27914361721606,-0.52290494039343
0.367402812505013,-0.425903358578787
0.411490127241486,-0.425966666829459
0.380746582258219,-0.377307750242149
0.28377586221586,-0.533804954206983
0.39414331191288,-0.432566271802387
0.396531375995682,-0.436516909219336
0.398889720689312,-0.440426246531206
0.2882239562572,-0.541184892405863
0.373549059232099,-0.473389688898616
0.25374424932188,-0.596768253341403
0.547809259314361,-0.378238703271982
0.363379800455269,-0.425232914055916
0.446397023917969,-0.414602424955694
0.438607949323686,-0.481900244112877
0.452593374728824,-0.45439453659872
0.379639440118206,-0.478190783028666
0.434753889559897,-0.465110857873244
0.547732730191311,-0.407043766019113
0.41138910437867,-0.487764427414152
0.427790736409898,-0.489875891223426
0.4145787531795,-0.497511568202202
0.398103915487192,-0.540583968252116
0.524030175056316,-0.368035934132637
0.315133594457333,-0.607937418461754
0.463259493173883,-0.468263368693585
0.424642036374097,-0.522498484685911
0.439647349988758,-0.509959849658414
0.395052862479228,-0.488337886579644
0.443033245032562,-0.516008867435782
0.481354388923376,-0.474114521716623
0.43388182575971,-0.513437887031353
0.447762372697263,-0.490326071964139
0.444433065736485,-0.518848772641802
0.592132531411913,-0.458603473504537
0.417864550543219,-0.562621839043207
0.453862855990526,-0.535889506183721
0.41034521526975,-0.498216979368188
0.456661705933124,-0.541201279382815
0.519045119950908,-0.40690374526193
0.45932769865383,-0.546349504438497
0.494621148302329,-0.575298431930724
0.461859960423569,-0.551334284618073
0.456483180015135,-0.560464363745025
0.444303363127148,-0.581531283182985
0.461614523838579,-0.525001418201053
0.506953102322652,-0.556197888473668
0.467599808090384,-0.56308184142575
0.428414566073843,-0.533938179883416
0.50321230218083,-0.545119542734999
0.503368931971971,-0.544167225026508
0.489948804555213,-0.551024165006908
0.47248472449014,-0.5738101267301
0.494349528380597,-0.572914706160461
0.474196252243503,-0.577816406266482
0.505131597393056,-0.608420252680666
0.445090415125572,-0.604709855260201
0.476501057606038,-0.583520754082789
0.429798637569373,-0.6034087623939
0.465383753948462,-0.555817676458051
0.595076449850806,-0.496690312195255
0.47907956997909,-0.590557626546463
0.479635155421279,-0.592215337035482
0.449500628595086,-0.626587362543601
0.387521897051158,-0.711255275348551
0.509417989203251,-0.636013373100825
0.465757486806365,-0.619818657615715
0.481873365919064,-0.599895489139846
0.526749723026964,-0.518628025971515
0.502926657617188,-0.626706549148522
0.482780587066367,-0.604017324832759
0.447463111860268,-0.648391461730056
0.521080802136628,-0.622703697618007
0.483357425217711,-0.607774894826034
0.356732757614218,-0.683125256606102
0.483556981661281,-0.610077743767262
0.522226308491733,-0.575021308202139
0.446960367225514,-0.623882794317947
0.483576628517961,-0.613228978765938
0.374681669134599,-0.756971609049676
0.437946405457469,-0.584136773092138
0.472320537848385,-0.571404575379748
0.462553913823288,-0.66517980117606
0.49664944411526,-0.628670759091948
0.474676232415138,-0.581380204446302
0.452372714251236,-0.661266243804481
0.371950609058298,-0.684294768091405
0.454885523114198,-0.652768685601673
0.451621866854732,-0.665228717961549
0.495041878063604,-0.613214665263656
0.512832659448841,-0.584380807690547
0.479715276415407,-0.622690252614219
0.522222403548701,-0.635582023686385
0.460000062335463,-0.577680402848773
0.477896866197429,-0.623907721470498
0.475392224928625,-0.579547733476527
0.338059381438639,-0.718179341945024
0.520878702918333,-0.61055961905656
0.578521399672803,-0.523606670473759
0.378871958288276,-0.725037702699928
0.512840816933775,-0.656115271330607
0.472272247954252,-0.625343338763039
0.480593364680456,-0.669423263597294
0.478974091068887,-0.61547269957911
0.528673487639772,-0.538362540310815
0.46138003365403,-0.664592758575457
0.477605559848859,-0.586921473340694
0.465888864457065,-0.625010821634837
0.48244512599101,-0.594139916223499
0.488265227935613,-0.655194714803844
0.462688921678107,-0.631073383108474
0.429052848973912,-0.583974292305027
0.419953621613491,-0.597300777142465
0.458038473085028,-0.623238435714634
0.435945832059619,-0.661441821801509
0.450201068662812,-0.592123602186095
0.45497657908978,-0.661489848246465
0.451978224741085,-0.62125829489192
0.589417568505872,-0.550270053758316
0.448697483153113,-0.620028969219709
0.446994075748656,-0.619354537747837
0.40470200081019,-0.613975996966797
0.443460641638129,-0.617886202074625
0.410611770658229,-0.637209818295635
0.439757653684556,-0.61625865548488
0.43784230397629,-0.61538521036734
0.487945515204477,-0.48412758457829
0.433883347016131,-0.613519041028994
0.431839521331968,-0.612526342625014
0.472466325401181,-0.613870254224886
0.427622629474803,-0.610421782889508
0.4136113864158,-0.647457614422692
0.45581013411398,-0.577977347164235
0.420972552224944,-0.60696722959358
0.503015844644947,-0.477870388187407
0.563000509058831,-0.54626590811449
0.414787104751914,-0.560234793170117
0.368786301744978,-0.622854173119691
0.399285231325281,-0.591841307115372
0.406492523257116,-0.598987631641039
0.315372881406523,-0.713364523971473
0.418985357443257,-0.632221503811563
0.440795511005778,-0.605860375091394
0.395955724126097,-0.592876061838364
0.393210092384718,-0.591249307985529
0.434757622576986,-0.601649326236528
0.387584346038671,-0.58787725695615
0.393880933483832,-0.634101433589492
0.382246120102924,-0.543977392438816
0.391199154529121,-0.566851196306044
0.387821334377442,-0.607277975577697
0.390437721269145,-0.586736126754766
0.409577338313602,-0.567200231178517
0.37982903896264,-0.540290696802027
0.511744676935861,-0.498599296554523
0.353852536127177,-0.548836612814606
0.356737560847709,-0.568649491522574
0.286205064237295,-0.689550203961568
0.360582497199083,-0.523101020817188
0.304514160915999,-0.528402800117778
0.343114112213583,-0.559855474871751
0.339592176410715,-0.557558657914444
0.346155058761001,-0.55398383108048
0.284582854597898,-0.568320351915278
0.329696663092607,-0.565794185309195
0.224417908921394,-0.640853687043941
0.350569810650157,-0.575605603928575
0.345996422234641,-0.585925191730597
0.313626368767037,-0.540381281656063
0.287796874761432,-0.553601393195424
0.269511435240914,-0.499804661630501
0.301789163769708,-0.532431156673828
0.281322229351204,-0.527328366717409
0.301104210212823,-0.537632882994676
0.385277382104841,-0.429084173066155
0.285337353379118,-0.521282667233786
0.281104231532096,-0.518397716144675
0.272718260032982,-0.481180143145007
0.27249302022586,-0.512510509850424
0.265723170409501,-0.492426584509825
0.256047513296353,-0.483837027273225
0.259212145994014,-0.503386633745179
0.295333788005241,-0.512773970361582
0.240662290331105,-0.478600616464681
0.24549178184795,-0.493911387445211
0.271214272055514,-0.502541827239223
0.22794324111043,-0.529633450062602
0.235590113398779,-0.521356344381019
0.147017929178277,-0.599246150554702
0.200290576928078,-0.47592053365789
0.216720788470658,-0.473908178369744
0.211751906949243,-0.470437997541827
0.232703460940292,-0.455555724408613
0.201664261568173,-0.463380912648565
0.19654527927625,-0.459794034400047
0.156596507221369,-0.445507059739534
0.186156449408956,-0.452503670841302
0.181199625222976,-0.497334773716535
0.184387098383506,-0.462807057355458
0.170194403157379,-0.441276801475115
0.164772270488813,-0.437456876912555
0.154852533670992,-0.477491273035897
0.153775173977814,-0.429700653077165
0.154891232113867,-0.406108128542884
0.142573574460763,-0.421789349017506
0.121091527413213,-0.386984370769601
0.00657114309703637,-0.526493090947844
0.229317523443226,-0.248140623391329
0.0966886268646351,-0.451712822255139
0.0912658480669485,-0.405150036053331
0.107733020582548,-0.397125988165986
0.0317898524531397,-0.542617690609023
0.0968378447826046,-0.372581899138958
0.0896122250733148,-0.384272131828379
0.0834674512671005,-0.379910239710918
0.106676173810526,-0.329735701991577
0.100502172639342,-0.387847127198173
0.0647180749131655,-0.366592924061545
0.149028028927901,-0.258832572825887
0.00243006064904689,-0.378608310609152
-0.0694106694312036,-0.459396529689568
0.0403573834508651,-0.362200733078851
0.035110064229354,-0.304964802005315
-0.0894708987534446,-0.435154238753457
0.128387325937659,-0.221048735484127
0.0256971231655632,-0.28059288213821
0.0138773290433265,-0.322331902869173
-0.0514521683957258,-0.454681051011282
-0.100196053418005,-0.409637752855325
-0.015057678276456,-0.309855268047603
-0.022054539540808,-0.304877082458027
0.00683925814053357,-0.256887061891549
0.00963233081708265,-0.291806574993547
-0.0361471404823842,-0.294861398231868
-0.030222021128759,-0.293106934729347
0.0448944863079174,-0.183686687146473
-0.056834591139178,-0.280302099141084
-0.0495728585469849,-0.320461331378267
-0.189560717892416,-0.375514029185299
-0.0576102504984688,-0.249590082571641
-0.0834079199652101,-0.261900061775908
-0.0799001381502228,-0.227184129888877
-0.0962666878472229,-0.253126476347395
-0.102590057111924,-0.248845457183072
-0.108843115432974,-0.244634540475434
-0.0724243209001686,-0.214582974281909
-0.248606655036295,-0.402509262308958
-0.0336780756198486,-0.119240402129963
-0.23023397444742,-0.392926588010503
-0.00507817216099726,-0.100060083034515
-0.144900286845705,-0.220823835602615
-0.150668844212756,-0.217094957983085
-0.121806550633104,-0.192607286737639
-0.262280269017541,-0.323372500403031
-0.294834933208586,-0.315185907842514
-0.0557729487833609,-0.102734848984166
-0.178495345151063,-0.199458716192283
-0.183859307072227,-0.19613092756832
-0.202968669155731,-0.178710456935326
-0.16357581204713,-0.204292946788587
-0.199553450650162,-0.186540902380674
-0.171094093302313,-0.217599523318184
-0.209687502518285,-0.180472236834581
-0.225161736571316,-0.146241517447979
-0.219561144523197,-0.174660426248797
-0.195247097999938,-0.122156348452313
-0.228776876895253,-0.169154677650992
-0.233888136319276,-0.16641888960277
-0.222787535309779,-0.151090132221032
-0.246866834142909,-0.149151517672169
-0.273078627046212,-0.176234818444288
-0.272283078967549,-0.181511472571043
-0.303630511238669,-0.166962963009482
-0.229837992526806,-0.124236043828263
-0.388973857384288,-0.246241354241839
-0.269309350868021,-0.147175949590532
-0.232247592112504,-0.14367830672436
-0.237687865586419,-0.105721376123749
-0.301735225404907,-0.113555157776872
-0.318718289167332,-0.123652026418071
-0.303508947099607,-0.176221926651224
-0.283900551111848,-0.122450797864755
-0.31181513408612,-0.154678061245496
-0.322831649951087,-0.141706315236318
-0.352346845425608,-0.115557180746428
-0.308063827539872,-0.128520294264937
-0.346006532086771,-0.120800474094204
-0.315100381105416,-0.125484104562202
-0.31474447593182,-0.128707254284853
-0.307403848640277,-0.135352098054194
-0.328980104114858,-0.166403757223162
-0.32847669081412,-0.120086830842122
-0.296694280570941,-0.108750018835118
-0.286413535747092,-0.128372254404551
-0.337907860459074,-0.116619830154508
-0.431471502961261,-0.185195042133307
-0.228779670610505,-0.00744037029114009
-0.373263736029121,-0.1396370440205
-0.349695408498124,-0.112755858841693
-0.347392952484759,-0.0984291140301982
-0.32031071415311,-0.0704747833494517
-0.357955155476205,-0.110416054924229
-0.3605992162023,-0.109740786277162
-0.322654555885748,-0.0836188864276508
-0.365725200037073,-0.108545388376443
-0.349364885379886,-0.142194902186505
-0.370636827918043,-0.107554776783922
-0.373012943701884,-0.107135491022103
-0.328150476031588,-0.139189331130189
-0.377607149608346,-0.106447409905083
-0.417719695443224,-0.111730904435829
-0.404327730577268,-0.0801719452457515
-0.274232041946563,0.013520048042278
-0.392348709883746,-0.0919886473206683
-0.369315502166416,-0.0808977426454168
-0.388156289898409,-0.0722809254339287
-0.43422732568264,-0.123923904302138
-0.359439562350613,-0.0565945472258234
-0.395727930599081,-0.105772769961996
-0.406818604601367,-0.149148412884465
-0.399200472015972,-0.106146237657382
-0.399446685798778,-0.0596280867234563
-0.405527647066738,-0.140939785228756
-0.404040947703538,-0.107052446802835
-0.405557313070973,-0.107445545482141
-0.434954760629885,-0.0603636746879802
-0.408445998795693,-0.108366426692265
-0.382819352486487,-0.105930828219707
-0.401560203576135,-0.137114724772871
-0.402343194162844,-0.156672281985174
-0.400198274666018,-0.145131429943874
-0.393697106493917,-0.135265051200802
-0.382276687917379,-0.0944575804831138
-0.400216382372827,-0.149734402048796
-0.463906905961732,-0.077966662838924
-0.399651617199609,-0.128384085070023
-0.350849278702599,-0.0378617211683152
-0.420992165720909,-0.11653782434719
-0.462919225451604,-0.109182555927642
-0.467942912367368,-0.0846208252910099
-0.326129139346869,-0.0368535472034046
-0.384519425688343,-0.104291688291688
-0.403929090492203,-0.145092887719601
-0.391002433285826,-0.110223220856647
-0.409716762731345,-0.111786345676322
-0.426710572799928,-0.125617843135298
-0.427231921928663,-0.126929301833706
-0.427711195546299,-0.128278939946136
-0.452983298111864,-0.0853882474007191
-0.428544612769928,-0.13109151468325
-0.414416924684481,-0.175399137093887
-0.429213017514118,-0.134053087887016
-0.459689456530355,-0.108355847895518
-0.459401428323205,-0.166818339187959
-0.404364487947845,-0.136802168088334
-0.406148873041842,-0.148684050309132
-0.415032441985031,-0.154867540074486
-0.474281420641892,-0.186517849095064
-0.471251869056912,-0.141730658979751
-0.290337645509484,-0.0629919807376819
-0.430237610403551,-0.149157542817599
-0.430156610559183,-0.151009149818768
-0.44028301205277,-0.198806491033391
-0.439343260513452,-0.189410869633113
-0.323028809321266,-0.0652994098693944
-0.429455716936823,-0.15874778277118
-0.472057876930602,-0.137065207091348
-0.428882971404494,-0.162812083161684
-0.46403660895887,-0.119846974876858
-0.423017965756496,-0.186245163904566
-0.403337119449362,-0.217536113822853
-0.427303848114069,-0.171318254473167
-0.546082459379599,-0.286834970413532
-0.430877044578251,-0.187769470332256
-0.425748712556714,-0.178018494298673
-0.409772153667378,-0.215828074822978
-0.433649787733612,-0.146778998678761
-0.451630892498724,-0.159802054881146
-0.436701755456203,-0.210414854080438
-0.42886848283492,-0.182736789005926
-0.412917566404304,-0.153052453100852
-0.380649845840754,-0.202590935397947
-0.373962885605445,-0.149593798105025
-0.390028231029186,-0.177770148217106
-0.384043334172665,-0.250325227218493
-0.457692045599616,-0.166234602746746
-0.446382221966008,-0.159527198982564
-0.390297228948287,-0.19868396566439
-0.45790991317278,-0.194453883060274
-0.413477084156359,-0.215335006122059
-0.40736532442429,-0.220791942072397
-0.330990058135796,-0.12822210384745
-0.381848770859196,-0.236958025972054
-0.364751307554116,-0.188391326672188
-0.4568223255459,-0.256926881831835
-0.447559067953272,-0.202055560114718
-0.451099323105039,-0.271242277259182
-0.404086881907435,-0.237590091233596
-0.371925160490688,-0.235507098874646
-0.450287158988849,-0.393904907718201
-0.366493272420305,-0.230243984511158
-0.384441801452701,-0.26338412587591
-0.537778465063176,-0.392737413884825
-0.395856570447967,-0.255229743250454
-0.395622933338008,-0.305005498773634
-0.434170276161582,-0.241756110632675
-0.391380637910733,-0.264330682413684
-0.425665919656997,-0.222615698488412
-0.36963870385874,-0.314418587134924
-0.354657085518789,-0.299140822745073
-0.383574634066089,-0.324966288598701
-0.353151824761655,-0.27608865168677
-0.381744226827036,-0.283052946168588
-0.283746914411219,-0.183569205618424
-0.373506571325446,-0.278209288296649
-0.376598551322884,-0.292657534407797
-0.358958609275301,-0.333488130832882
-0.41143687948028,-0.345506793441897
-0.263895374013779,-0.173545185817085
-0.369414682749651,-0.305697322755304
-0.337144398214999,-0.328545076810771
-0.339842675835917,-0.311709075124733
-0.249043989711062,-0.199133857920537
-0.370350982382232,-0.274066171909457
-0.376469182557828,-0.328347867304493
-0.357982442769876,-0.325717436976013
-0.331874548257129,-0.366504703312229
-0.355583862563906,-0.332986823082702
-0.313981682302465,-0.381103081355723
-0.349948910208635,-0.339342207227169
-0.356560128355653,-0.358985863726668
-0.3456053856113,-0.336786968859622
-0.343719913119772,-0.349692647393531
-0.300489272625806,-0.32785232126945
-0.333365933396296,-0.395163266735625
-0.299286047222668,-0.312652866438424
-0.361295313501043,-0.356002234800774
-0.379759935764577,-0.341169910045508
-0.35418572124502,-0.348334249605739
-0.310587545518469,-0.357946153369224
-0.327231399775315,-0.401085971603306
-0.315815754980594,-0.416076735920149
-0.321795646724248,-0.38489624769165
-0.157034461542921,-0.253145327284188
-0.302273840508182,-0.437189913341706
-0.268550842470141,-0.386548871153081
-0.315393233256112,-0.415292582915796
-0.303807906736651,-0.426926963977449
-0.451484107808676,-0.533069275193088
-0.32505128937853,-0.448544712849888
-0.303108427964506,-0.413680669382088
-0.287936464478929,-0.457860594644797
-0.298295481184985,-0.42094243784282
-0.226240198704017,-0.275165980267431
-0.300254359317421,-0.451567401267507
-0.314551440538167,-0.430989780874601
-0.314967985555099,-0.405286703136227
-0.343871720666893,-0.555731854048418
-0.258163113977098,-0.431035936835026
-0.257410944488803,-0.487153098620587
-0.27134221054864,-0.47586105902567
-0.299583069661263,-0.456065663545105
-0.235689898031181,-0.410396100432802
-0.241632204556128,-0.467234278726318
-0.221723619080656,-0.46773168034852
-0.2512245593562,-0.465514952023
-0.228423418778762,-0.513712995619588
-0.285814326469395,-0.506220519692493
-0.235973909949428,-0.5018753970101
-0.357104487095366,-0.590584136736851
-0.261410795568192,-0.471001987301787
-0.214735998104842,-0.509433508294431
-0.343976968530615,-0.603843353156221
-0.200370204955012,-0.494115533610922
-0.254534252808387,-0.511697498094129
-0.251504698163139,-0.517791837471231
-0.237105811776528,-0.509036425007099
-0.175944609997994,-0.370711628126922
-0.1896256469582,-0.529608377725592
-0.215937067828069,-0.48334053918894
-0.226444632307004,-0.523716203244072
-0.112423981744015,-0.454245597528953
-0.176902540306554,-0.520530758049007
-0.206029994820827,-0.549613403906884
-0.215697980265672,-0.538342356926087
-0.206641341572609,-0.58768142312041
-0.162015633074401,-0.546466742335087
-0.231592226534586,-0.532245290350418
-0.252732174308782,-0.563955832625148
-0.17084737331196,-0.516446469552072
-0.196412411675271,-0.523829711696991
-0.301699301946583,-0.682464981379895
-0.194018435853344,-0.567354447917264
-0.191296378313953,-0.570952395323372
-0.188572542434195,-0.574542962072906
-0.19114304326539,-0.626263876810832
-0.18312063217523,-0.581700713872438
-0.174658542893132,-0.584029168882341
-0.129657211508496,-0.629700291755462
-0.174936282494357,-0.592374238336102
-0.129620380748676,-0.606646890722186
-0.19435816739562,-0.579191306822381
-0.15751868322019,-0.632977289045643
-0.182690187127222,-0.603615214476498
-0.163744537727273,-0.613329166437554
-0.15857137859078,-0.6134634323023
-0.189627442498617,-0.629237739700391
-0.0636772192199489,-0.502958689621611
-0.150405627410385,-0.623862365452369
-0.126279079737583,-0.584931172482143
-0.178868074552497,-0.653228799221295
-0.0942962975533376,-0.597935194622085
-0.115584593192026,-0.680504922033252
-0.232056406013031,-0.757155363101284
-0.134144534198156,-0.644327063205286
-0.131446677296121,-0.647691041770107
-0.0656881522941044,-0.525239661547864
-0.278348733559679,-0.768428968249918
-0.123379718284002,-0.657696542711509
-0.119734326917147,-0.637248726923066
-0.0839834286529266,-0.64670098098431
-0.23149503512217,-0.748596742092826
-0.111035917731023,-0.697132684563054
-0.12535027606634,-0.678460127840565
-0.107390224619873,-0.677290694284775
-0.0786278776163845,-0.659286524448431
-0.190760718791467,-0.736719938446448
-0.0269878853871052,-0.610594472942094
-0.0978337731968352,-0.654732729632618
-0.0455812689921367,-0.652579725488979
-0.122039566917897,-0.712410310495622
-0.136186959603675,-0.678766962037375
-0.126905772027702,-0.680330449573931
-0.0650262462570645,-0.686437657000334
-0.0813078852856037,-0.708555469102413
-0.0726453462022806,-0.70269951377661
-0.120422323269524,-0.689660029917675
-0.0736552001796696,-0.717557289674915
0.0776435873825,-0.603968222262829
-0.0453302399919566,-0.690034292855083
-0.0660950656540342,-0.726369951086845
-0.017924372337063,-0.69078137592697
-0.0376764911454014,-0.690831536093889
-0.0523759343605699,-0.736374912109777
-0.0561716466084868,-0.737811455205164
-0.0997115992901967,-0.72059115818768
-0.141656355497688,-0.846183859045063
-0.0526524383702505,-0.791282575302949
0.0594550117738475,-0.631150683621959
-0.0316898737697265,-0.781510799105892
-0.00379699837878271,-0.734159272858122
-0.0494981549742737,-0.794674609543267
-0.0167511247704063,-0.804030483733926
-0.0302025191494156,-0.764592767540405
0.00988727408681199,-0.755599846265655
-0.0299417049707532,-0.767302984569798
0.00499264913990302,-0.737167277106795
-0.0044130788020169,-0.746244947396531
-0.0360166258963114,-0.819788171015713
0.00195351778894791,-0.778599793013278
-0.0186057836031768,-0.779669161039823
-0.0163872679999485,-0.782059197670857
-0.0141856149244466,-0.78442077823851
-0.0552415488818947,-0.819775092755026
-0.0167572998878899,-0.756491196501555
-0.0157013801791812,-0.762078072052864
-0.00555311050796477,-0.793576341226252
-0.0194831829071893,-0.795008775779242
-0.032452134102905,-0.843978120753989
-0.016748745871346,-0.78728132127733
0.00278766303184463,-0.802251812603658
-0.0121114089086994,-0.84256088015743
0.00684316811473435,-0.806403315289424
0.13798502921913,-0.762708420846509
-0.0387290489973772,-0.792832855094068
-0.0334250641297627,-0.85674151777181
0.022106824825474,-0.854461169399061
0.0166292691999885,-0.816219005079536
-0.00154052445714914,-0.821844901389305
0.174654679447391,-0.698623905823206
0.0222481395224072,-0.821709918621674
-0.0725933184142395,-0.899258868610137
0.0128630551775207,-0.8708313771797
0.0243998489932242,-0.810684342606684
0.0502896544067637,-0.852870522737601
0.0311678482094101,-0.830170413159426
0.0521653052489992,-0.818179353526954
-0.0046174106240727,-0.789742813553252
0.0362405665732165,-0.834818456034657
0.0378833101039406,-0.836294568423779
0.0285721871807901,-0.880665289336653
0.00970612574818802,-0.857288328875391
0.0426632150986948,-0.840498860828938
0.0470924779640874,-0.858258390877468
-0.0715353577908825,-0.962375610726058
0.0070484104118459,-0.877171414008728
0.0470375542803535,-0.853408045554442
0.0820448908386491,-0.82739343849001
0.0272966061155228,-0.819811812346997
0.081669901650497,-0.891732600359757
0.0834834072008916,-0.892966624858461
0.139380267500134,-0.78500958657226
0.0503959275652767,-0.844005855155352
0.0961122945371502,-0.807900446162941
-0.00886825612384025,-0.943238730695067
0.0606436055305715,-0.854651365180706
0.061831918277106,-0.855454045831096
0.167766134569904,-0.747281709388422
0.109398542528143,-0.820219887474243
0.0652205696171514,-0.857606429909845
0.0198581320732073,-0.904507673279969
0.0248735088989361,-0.901953041409939
0.068339033869183,-0.859368818598456
0.0631585293547212,-0.810518872323869
0.0702642510272436,-0.860322947852523
0.0367918874806599,-0.887015307835073
0.1078812265307,-0.902370035866851
0.177448875440461,-0.768855077713394
0.0533335587507485,-0.877463159455502
0.0745231464467666,-0.861917403710405
0.0525960852055149,-0.88397207170481
0.0759992888856484,-0.862232330561131
0.0700531677291867,-0.815398340965047
0.188386017293647,-0.733846842289102
0.0779629895740777,-0.862351055926863
0.0656641544282978,-0.878628494230423
0.0791019165316149,-0.862190813685163
0.0796194955687193,-0.862037945021297
0.084417661480896,-0.894641672742623
0.0341717113177741,-0.855336940322769
0.196342121900132,-0.784093803250704
0.0946358126975714,-0.84015693290966
