-0.128906600253744,0.982720582754042
-0.125735151960553,0.974911884425937
-0.122568234911701,0.967155756882044
-0.119405965772099,0.959451967144987
-0.116248461206656,0.951800282237393
-0.113095837880281,0.944200469181885
-0.109948212457884,0.936652295001088
-0.106805701604375,0.929155526717629
-0.103668421984664,0.921709931354132
-0.10053649026366,0.914315275933222
-0.0974100231062736,0.906971327477524
-0.0942891371774136,0.899677853009663
-0.0911739491419901,0.892434619552265
-0.0880645756649127,0.885241394127955
-0.0849611334110911,0.878097943759357
-0.0818637390454351,0.871004035469097
-0.0787725092328544,0.8639594362798
-0.0756875606382587,0.85696391321409
-0.0726090099265576,0.850017233294594
-0.0695369737626608,0.843119163543936
-0.0664715688114782,0.836269470984742
-0.0634129117379194,0.829467922639636
-0.060361119206894,0.822714285531243
-0.0573163078833118,0.816008326682189
-0.0542785944320825,0.809349813115099
-0.0512480955181158,0.802738511852598
-0.0482249278063214,0.79617418991731
-0.045209207961609,0.789656614331861
-0.0422010526488884,0.783185552118877
-0.0392005785330691,0.776760770300982
-0.0362079022790609,0.770382035900802
-0.0332231405517736,0.76404911594096
-0.0302464100161167,0.757761777444084
-0.0272778273370001,0.751519787432797
-0.0243175091793335,0.745322912929725
-0.0213655722080264,0.739170920957492
-0.0184221330879887,0.733063578538725
-0.01548730848413,0.727000652696048
-0.0125612150613601,0.720981910452086
-0.00964396948458862,0.715007118829464
-0.0067356884187253,0.709076044850808
-0.00383648852867983,0.703188455538742
-0.000946486479361894,0.697344117915892
0.00193420106431878,0.691542799004882
0.00480545743745246,0.685784265828339
0.0076671659751295,0.680068285408886
0.0105192100124402,0.67439462476915
0.0133614728844747,0.668763050931754
0.0161938379263235,0.663173330919325
0.0190161884730769,0.657625231754487
0.021828407859825,0.652118520459866
0.0246303794216583,0.646652964058086
0.0274219864936669,0.641228329571773
0.0302031124109413,0.635844384023552
0.0329736405085717,0.630500894436047
0.0357334541216483,0.625197627831885
0.0384824365852616,0.619934351233689
0.0412204712345017,0.614710831664086
0.0439474414044591,0.6095268361457
0.0466632304302239,0.604382131701157
0.0493677216468865,0.599276485353081
0.0520607983895371,0.594209664124098
0.0547423439932662,0.589181435036832
0.0574122417931639,0.584191565113909
0.0600703751243206,0.579239821377954
0.0627166273218265,0.574325970851593
0.065350881720772,0.569449780557449
0.0679730216562473,0.564611017518149
0.0705829304633428,0.559809448756317
0.0731804914771488,0.555044841294578
0.0757655880327555,0.550316962155558
0.0783381034652532,0.545625578361882
0.0808979211097322,0.540970456936174
0.0834449243012829,0.536351364901061
0.0859789963749956,0.531768069279166
0.0885000206659604,0.527220337093115
0.0910078805092678,0.522707935365534
0.0935024592400079,0.518230631119047
0.0959836401932713,0.513788191376279
0.098451306704148,0.509380383159856
0.100905342107728,0.505006973492403
0.103345629739103,0.500667729396544
0.105772052933362,0.496362417894905
0.108184495025595,0.492090806010111
0.110582839350893,0.487852660764787
0.112966969244346,0.483647749181558
0.115336768041045,0.47947583828305
0.11769211907608,0.475336695091886
0.120032905684541,0.471230086630694
0.122359011201518,0.467155779922097
0.124670318962102,0.46311354198872
0.126966712301382,0.459103139853189
0.12924807455445,0.45512434053813
0.131514289056396,0.451176911066166
0.13376523914231,0.447260618459923
0.136000808147281,0.443375229742026
0.138220879406401,0.439520511935101
0.14042533625476,0.435696232061772
0.142614062027448,0.431902157144665
0.144786940059555,0.428138054206404
0.146943853686172,0.424403690269615
0.149084686242389,0.420698832356923
0.151209321063295,0.417023247490953
0.153317641483983,0.41337670269433
0.155409530839541,0.409758964989679
0.157484872465061,0.406169801399625
0.159543549695632,0.402608978946793
0.161585445866344,0.399076264653809
0.163610444312289,0.395571425543298
0.165618428368556,0.392094228637884
0.167609281370235,0.388644440960193
0.169582886652417,0.38522182953285
0.171539127550193,0.38182616137848
0.173477887398652,0.378457203519708
0.175399049532885,0.375114722979159
0.177302497287982,0.371798486779459
0.179188113999033,0.368508261943232
0.181055783001129,0.365243815493103
0.18290538762936,0.362004914451698
0.184736811218816,0.358791325841642
0.186549937104588,0.35560281668556
0.188344648621766,0.352439154006076
0.190120829105439,0.349300104825817
0.1918783618907,0.346185436167407
0.193617130312636,0.343094915053471
0.195337017706341,0.340028308506634
0.197037907406902,0.336985383549522
0.198719682749411,0.333965907204759
0.200382227068958,0.330969646494971
0.202025423700633,0.327996368442783
0.203649155979527,0.32504584007082
0.205253307240729,0.322117828401706
0.206837760819331,0.319212100458068
0.208402400050422,0.31632842326253
0.209947108269093,0.313466563837717
0.211471768810434,0.310626289206255
0.212976265009535,0.307807366390768
0.214460480201486,0.305009562413882
0.215924297721379,0.302232644298222
0.217367600904303,0.299476379066412
0.218790273085348,0.296740533741078
0.220192197599605,0.294024875344846
0.221573257782164,0.291329170900339
0.222933336968116,0.288653187430184
0.22427231849255,0.285996691957005
0.225590085690557,0.283359451503427
0.226886521897228,0.280741233092076
0.228161510447652,0.278141803745577
0.22941493467692,0.275560930486555
0.230646677920122,0.272998380337634
0.231856623512348,0.270453920321441
0.233044654788689,0.267927317460599
0.234210655084236,0.265418338777735
0.235354507734077,0.262926751295473
0.236476096073305,0.260452322036438
0.237575303437008,0.257994818023256
0.238652013160277,0.255554006278552
0.239706108578203,0.25312965382495
0.240737473025876,0.250721527685076
0.241745989838386,0.248329394881555
0.242731542350824,0.245953022437012
0.243694013898279,0.243592177374072
0.244633287815842,0.241246626715361
0.245549247438603,0.238916137483502
0.246441776101653,0.236600476701123
0.247310757140082,0.234299411390847
0.24815607388898,0.232012708575299
0.248977609683438,0.229740135277105
0.249775247858545,0.227481458518891
0.250548871749393,0.22523644532328
0.251298364691071,0.223004862712898
0.252023610018669,0.22078647771037
0.252724491067279,0.218581057338322
0.25340089117199,0.216388368619378
0.254052693667892,0.214208178576164
0.254679781890076,0.212040254231304
0.255282039173633,0.209884362607424
0.255859348853651,0.207740270727149
0.256411594265223,0.205607745613103
0.256938658743438,0.203486554287913
0.257440425623386,0.201376463774203
0.257916778240157,0.199277241094598
0.258367599928843,0.197188653271724
0.258792774024533,0.195110467328205
0.259192183862317,0.193042450286666
0.259565712777287,0.190984369169734
0.259913244104531,0.188935991000031
0.260234661179141,0.186897082800185
0.260529847336206,0.18486741159282
0.260798685910818,0.182846744400561
0.261041060238065,0.180834848246033
0.26125685365304,0.178831490151861
0.261445949490831,0.176836437140671
0.26160823108653,0.174849456235088
0.261743581775226,0.172870314457736
0.261851884892009,0.17089877883124
0.261933023771971,0.168934616378227
0.261986881750202,0.16697759412132
0.262013342161791,0.165027479083146
0.262012288341829,0.163084038286328
0.261983603625406,0.161147038753493
0.261927171347613,0.159216247507265
0.261842874843539,0.15729143157027
0.261730597448276,0.155372357965132
0.261590222496913,0.153458793714477
0.261421633324542,0.15155050584093
0.261224713266251,0.149647261367115
0.260999345657131,0.147748827315659
0.260745413832273,0.145854970709185
0.260462801126767,0.14396545857032
0.260151390875704,0.142080057921688
0.259811066414173,0.140198535785915
0.259441711077264,0.138320659185625
0.259043208200069,0.136446195143443
0.258615441117677,0.134574910681996
0.258158293165179,0.132706572823907
0.257671647677665,0.130840948591802
0.257155387990225,0.128977805008306
0.25660939743795,0.127116909096044
0.25603355935593,0.125258027877642
0.255427757079255,0.123400928375723
0.254791873943016,0.121545377612915
0.254125793282302,0.119691142611841
0.253429398432204,0.117837990395126
0.252702572727813,0.115985687985396
0.251945199504219,0.114134002405277
0.251157162096511,0.112282700677392
0.250338343839781,0.110431549824367
0.249488628069118,0.108580316868827
0.248607898119614,0.106728768833398
0.247696037326357,0.104876672740704
0.246752929024439,0.103023795613371
0.245778456548949,0.101169904474023
0.244772503234979,0.0993147663452862
0.243734952417618,0.097458148249785
0.242665687431957,0.0955998172101447
0.241564591613085,0.0937395402489905
0.240431548296094,0.0918770843889473
0.239266440816074,0.0900122166526405
0.238069152508114,0.088144704062695
0.236839566707305,0.086274313641736
0.235577566748738,0.0844008124123884
0.234283035967502,0.0825239673972776
0.232955857698689,0.0806435456190285
0.231595915277388,0.0787593141002664
0.230203092038689,0.0768710398636162
0.228777271317684,0.0749784899317031
0.227318336449461,0.0730814313271521
0.225826170769112,0.0711796310725885
0.224300657611727,0.0692728561906372
0.222741680312396,0.0673608737039236
0.22114912220621,0.0654434506350724
0.219522866628258,0.0635203540067091
0.217862796913631,0.0615913508414584
0.216168796397419,0.0596562081619458
0.214440748414713,0.0577146929907962
0.212678536300603,0.0557665723506348
0.210882043390179,0.0538116132640865
0.209051153018531,0.0518495827537766
0.207185748520751,0.0498802478423302
0.205285713231927,0.0479033755523723
0.20335093048715,0.0459187329065281
0.201381283621512,0.0439260869274227
0.199376655970101,0.0419252046376811
0.197336930868009,0.0399158530599285
0.195261991650325,0.03789779921679
0.193151721652139,0.0358708101308907
0.191006004208543,0.0338346528248556
0.188824722654627,0.0317890943213101
0.18660776032548,0.0297339016428789
0.184355000556193,0.0276688418121875
0.182066326681857,0.0255936818518606
0.179741622037561,0.0235081887845237
0.177380769958396,0.0214121296328016
0.174983653779452,0.0193052714193197
0.17255015683582,0.0171873811667027
0.17008016246259,0.0150582258975761
0.167573553994851,0.0129175726345648
0.165030214767695,0.010765188400294
0.162450028116212,0.00860084021738871
0.159832877375492,0.00642429510847416
0.157178645880625,0.00423532009617526
0.154487216966701,0.00203368220311735
0.151758473968812,-0.000180851548074693
0.148992300222047,-0.00240851413477552
0.146188579061496,-0.00464953853436029
0.14334719382225,-0.00690415772420368
0.140468027839399,-0.00917260468168075
0.137550964448033,-0.0114551123841662
0.134595886983243,-0.0137519138090352
0.131602678780119,-0.0160632419336623
0.128571223173751,-0.0183893297354228
0.12550140349923,-0.0207304101916912
0.122393103091645,-0.0230867162798427
0.119246205286088,-0.0254584809772518
0.116060593417648,-0.0278459372612939
0.112836150821416,-0.0302493181093436
0.109572760832482,-0.0326688564987759
0.106270306785936,-0.0351047854069655
0.102928672016869,-0.0375573378112876
0.0995477398603711,-0.0400267466891168
0.096127393651532,-0.0425132450178283
0.0926675167254426,-0.0450170657747966
0.0891679924171929,-0.047538441937397
0.0856287040618733,-0.0500776064830041
0.0820495349945742,-0.052634792388993
0.0784303685503857,-0.0552102326327384
0.0747710880643982,-0.0578041601916154
0.071071576871702,-0.0604168080429987
0.0673317183073873,-0.0630484091642634
0.0635513957065447,-0.0656991965327841
0.0597304924042641,-0.068369403125936
0.0558688917356361,-0.0710592619210939
0.0519664770357507,-0.0737690058956326
0.0480231316396985,-0.076498868026927
0.0440387388825696,-0.0792490812923523
0.0400131820994545,-0.0820198786692829
0.0359463446254431,-0.0848114931350941
0.0318381097956262,-0.0876241576671605
0.0276883609450937,-0.0904581052428573
0.0234969814089362,-0.093313568839559
0.0192638545222436,-0.0961907814346409
0.0149888636201067,-0.0990899760054777
0.0106718920376153,-0.102011385529444
0.00631282310986013,-0.104955242983916
0.00191154017193111,-0.107921781346267
-0.00253207344108111,-0.110911233593872
-0.00701813439408661,-0.113923832704107
-0.0115467593519947,-0.116959811654346
-0.0161180649797154,-0.120019403421964
-0.0207321679421581,-0.123102840984336
-0.025389184904233,-0.126210357318838
-0.0300892325308492,-0.129342185402843
-0.0348324274869169,-0.132498558213727
-0.0396188864373454,-0.135679708728864
-0.0444487260470449,-0.13888586992563
-0.0493220629809245,-0.1421172747814
-0.0542390139038945,-0.145374156273548
-0.0591996954808641,-0.148656747379449
-0.0642042243767434,-0.151965281076478
-0.0692527172564417,-0.155299990342011
-0.0743452907848692,-0.158661108153421
-0.0794820616269351,-0.162048867488084
-0.0846631464475495,-0.165463501323375
-0.0898886619116218,-0.168905242636668
-0.095158724684062,-0.172374324405339
-0.10047345142978,-0.175870979606762
-0.105832958813684,-0.179395441218313
-0.111237363500686,-0.182947942217366
-0.116686782155694,-0.186528715581295
-0.122181331443618,-0.190137994287477
-0.127721128029369,-0.193776011313286
-0.133306288577855,-0.197442999636096
-0.138936929753986,-0.201139192233283
-0.144613168222673,-0.204864822082222
-0.150335120648824,-0.208620122160287
-0.156102903697349,-0.212405325444853
-0.16191663403316,-0.216220664913296
-0.167776428321163,-0.22006637354299
-0.173682403226271,-0.22394268431131
-0.179634675413391,-0.22784983019563
-0.185633361547435,-0.231788044173327
-0.191678578293311,-0.235757559221774
-0.19777044231593,-0.239758608318347
-0.203909070280201,-0.24379142444042
-0.210094578851034,-0.247856240565369
-0.216327084693338,-0.251953289670568
-0.222606704472024,-0.256082804733392
-0.228933554852,-0.260245018731217
-0.235307752498177,-0.264440164641416
-0.241729414075464,-0.268668475441365
-0.248198656248772,-0.272930184108439
-0.254715595683009,-0.277225523620012
-0.261280349043086,-0.281554726953461
-0.267893032993911,-0.285918027086158
-0.274553764200396,-0.29031565699548
-0.281262659327449,-0.294747849658801
-0.288019835039981,-0.299214838053497
-0.2948254080029,-0.303716855156941
-0.301679494881117,-0.308254133946509
-0.308582212339541,-0.312826907399576
-0.315533677043083,-0.317435408493517
-0.322534005656651,-0.322079870205706
-0.329583314845156,-0.326760525513519
-0.336681721273507,-0.33147760739433
-0.343829341606613,-0.336231348825515
-0.351026292509386,-0.341021982784447
-0.358272690646734,-0.345849742248503
-0.365568652683566,-0.350714860195057
-0.372914295284794,-0.355617569601484
-0.380309735115325,-0.360558103445158
-0.387755088840071,-0.365536694703455
-0.395250473123941,-0.37055357635375
-0.402796004631844,-0.375608981373417
-0.410391800028691,-0.380703142739831
-0.41803797597939,-0.385836293430368
-0.425734649148852,-0.391008666422402
-0.433481936201986,-0.396220494693308
-0.441279953803703,-0.40147201122046
-0.449128818618911,-0.406763448981235
