0.950701924854867,-0.668951981892234
0.939737458012252,-0.656984087940794
0.928866357635567,-0.645078671416902
0.918088199219406,-0.633235697858604
0.907402558258363,-0.621455132803949
0.896809010247031,-0.609736941790981
0.886307130680003,-0.598081090357747
0.875896495051874,-0.586487544042295
0.865576678857236,-0.574956268382672
0.855347257590685,-0.563487228916923
0.845207806746811,-0.552080391183095
0.835157901820211,-0.540735720719235
0.825197118305477,-0.52945318306339
0.815325031697204,-0.518232743753607
0.805541217489983,-0.507074368327932
0.79584525117841,-0.495978022324411
0.786236708257077,-0.484943671281092
0.776715164220579,-0.473971280736021
0.767280194563508,-0.463060816227245
0.75793137478046,-0.45221224329281
0.748668280366026,-0.441425527470763
0.739490486814802,-0.430700634299152
0.730397569621379,-0.420037529316021
0.721389104280352,-0.409436178059419
0.712464666286316,-0.398896546067391
0.703623831133862,-0.388418598877986
0.694866174317585,-0.378002302029248
0.686191271332078,-0.367647621059225
0.677598697671936,-0.357354521505964
0.669088028831751,-0.347122968907511
0.660658840306117,-0.336952928801913
0.652310707589628,-0.326844366727216
0.644043206176877,-0.316797248221468
0.635855911562459,-0.306811538822715
0.627748399240966,-0.296887204069003
0.619720244706992,-0.287024209498379
0.611771023455132,-0.27722252064889
0.603900310979977,-0.267482103058583
0.596107682776123,-0.257802922265504
0.588392714338162,-0.2481849438077
0.580754981160689,-0.238628133223218
0.573194058738296,-0.229132456050104
0.565709522565578,-0.219697877826405
0.558300948137128,-0.210324364090167
0.550967910947539,-0.201011880379438
0.543709986491407,-0.191760392232264
0.536526750263322,-0.182569865186692
0.52941777775788,-0.173440264780768
0.522382644469675,-0.164371556552539
0.515420925893299,-0.155363706040051
0.508532197523346,-0.146416678781352
0.501716034854411,-0.137530440314488
0.494972013381085,-0.128704956177506
0.488299708597964,-0.119940191908452
0.481698695999641,-0.111236113045373
0.475168551080709,-0.102592685126316
0.468708849335762,-0.0940098736893275
0.462319166259393,-0.0854876442724539
0.455999077346197,-0.077025962413742
0.449748158090766,-0.0686247936512386
0.443565983987695,-0.0602841035229902
0.437452130531577,-0.0520038575670436
0.431406173217005,-0.0437840213214455
0.425427687538573,-0.0356245603242425
0.419516248990875,-0.0275254401134813
0.413671433068505,-0.0194866262272086
0.407892815266055,-0.0115080842034709
0.40217997107812,-0.00358977958031509
0.396532475999294,0.00426832210421213
0.390949905524169,0.0120662553120642
0.385431835147339,0.0198040545051945
0.379977840363399,0.0274817541455563
0.374587496666941,0.0350993886951029
0.36926037955256,0.0426569926157875
0.363996064514848,0.0501546003695638
0.358794127048399,0.0575922464183847
0.353654142647808,0.0649699652242039
0.348575686807667,0.0722877912489743
0.343558335022571,0.0795457589546497
0.338601662787112,0.086743902803183
0.333705245595885,0.0938822572565278
0.328868658943483,0.100960856776637
0.3240914783245,0.107979735825465
0.319373279233528,0.114938928864964
0.314713637165163,0.121838470357088
0.310112127613998,0.128678394763789
0.305568326074625,0.135458736547023
0.301081808041639,0.142179530168741
0.296652149009633,0.148840810090896
0.292278924473201,0.155442610775444
0.287961709926937,0.161984966684336
0.283700080865434,0.168467912279526
0.279493612783285,0.174891482022967
0.275341881175085,0.181255710376613
0.271244461535427,0.187560631802417
0.267200929358904,0.193806280762332
0.263210860140111,0.199992691718312
0.25927382937364,0.206119899132309
0.255389412554086,0.212187937466278
0.251557185176041,0.218196841182172
0.2477767227341,0.224146644741944
0.244047600722856,0.230037382607547
0.240369394636903,0.235869089240934
0.236741679970835,0.24164179910406
0.233164032219244,0.247355546658876
0.229636026876725,0.253010366367338
0.226157239437871,0.258606292691397
0.222727245397276,0.264143360093007
0.219345620249533,0.269621603034122
0.216011939489237,0.275041055976695
0.212725778610979,0.280401753382679
0.209486713109356,0.285703729714027
0.206294318478958,0.290947019432693
0.203148170214382,0.296131657000631
0.200047843810219,0.301257676879793
0.196992914761064,0.306325113532133
0.19398295856151,0.311334001419604
0.191017550706152,0.316284375004159
0.188096266689581,0.321176268747752
0.185218682006393,0.326009717112337
0.18238437215118,0.330784754559866
0.179592912618537,0.335501415552292
0.176843878903056,0.34015973455157
0.174136846499332,0.344759746019652
0.171471390901958,0.349301484418492
0.168847087605527,0.353784984210043
0.166263512104634,0.358210279856259
0.163720239893872,0.362577405819092
0.161216846467834,0.366886396560496
0.158752907321115,0.371137286542425
0.156327997948307,0.375330110226831
0.153941693844004,0.379464902075668
0.151593570502801,0.38354169655089
0.14928320341929,0.38756052811445
0.147010168088065,0.3915214312283
0.144774040003719,0.395424440354395
0.142574394660848,0.399269589954688
0.140410807554043,0.403056914491131
0.138282854177898,0.406786448425679
0.136190110027008,0.410458226220284
0.134132150595965,0.414072282336901
0.132108551379364,0.417628651237482
0.130118887871798,0.42112736738398
0.12816273556786,0.424568465238349
0.126239669962145,0.427951979262543
0.124349266549245,0.431277943918514
0.122491100823755,0.434546393668217
0.120664748280268,0.437757362973603
0.118869784413377,0.440910886296627
0.117105784717677,0.444006998099242
0.11537232468776,0.447045732843401
0.113668979818221,0.450027124991058
0.111995325603653,0.452951209004166
0.110350937538649,0.455818019344677
0.108735391117804,0.458627590474547
0.10714826183571,0.461379956855727
0.105589125186962,0.464075152950171
0.104057556666153,0.466713213219833
0.102553131767877,0.469294172126666
0.101075425986727,0.471818064132623
0.0996240148172965,0.474284923699658
0.0981984737541798,0.476694785289723
0.09679837829197,0.479047683364772
0.095423303925261,0.481343652386759
0.0940728261486462,0.483582726817637
0.0927465204567194,0.485764941119359
0.091443962344074,0.487890329753878
0.0901647273053037,0.489958927183148
0.0889083908350021,0.491970767869122
0.0876745284277629,0.493925886273754
0.0864627155781795,0.495824316858996
0.0852725277808456,0.497666094086803
0.0841035405303548,0.499451252419127
0.0829553293213009,0.501179826317921
0.0818274696482772,0.50285185024514
0.0807195370058775,0.504467358662736
0.0796311068886953,0.506026386032663
0.0785617547913242,0.507528966816874
0.0775110562083579,0.508975135477322
0.0764785866343899,0.51036492647596
0.075463921564014,0.511698374274743
0.0744666364918236,0.512975513335624
0.0734863069124124,0.514196378120554
0.0725225083203738,0.515361003091489
0.0715748162103018,0.516469422710382
0.0706428060767897,0.517521671439184
0.0697260534144312,0.518517783739851
0.0688241337178199,0.519457794074335
0.0679366224815494,0.52034173690459
0.0670630952002133,0.521169646692569
0.0662031273684052,0.521941557900224
0.0653562944807187,0.522657504989511
0.0645221720317475,0.523317522422382
0.0637003355160851,0.523921644660789
0.0628903604283251,0.524469906166688
0.0620918222630611,0.52496234140203
0.0613042965148868,0.525398984828769
0.0605273586783958,0.525779870908859
0.0597605842481816,0.526105034104253
0.0590035487188378,0.526374508876904
0.0582558275849581,0.526588329688766
0.0575169963411361,0.526746531001791
0.0567866304819654,0.526849147277934
0.0560643055020395,0.526896212979147
0.0553495968959521,0.526887762567384
0.0546420801582968,0.526823830504598
0.0539413307836672,0.526704451252743
0.0532469242666569,0.526529659273772
0.0525584361018595,0.526299489029637
0.0518754417838686,0.526013974982294
0.0511975168072778,0.525673151593693
0.0505242366666807,0.52527705332579
0.049855176856671,0.524825714640538
0.0491899128718422,0.524319169999889
0.0485280202067879,0.523757453865798
0.0478690743561018,0.523140600700216
0.0472126508143774,0.522468644965099
0.0465583250762083,0.521741621122398
0.0459056726361883,0.520959563634068
0.0452542689889107,0.520122506962062
0.0446036896289693,0.519230485568333
0.0439535100509577,0.518283533914834
0.0433033057494695,0.517281686463519
0.0426526522190982,0.516224977676341
0.0420011249544376,0.515113442015253
0.0413482994500811,0.513947113942209
0.0406937512006224,0.512726027919162
0.0400370557006551,0.511450218408066
0.0393777884447728,0.510119719870872
0.0387155249275692,0.508734566769537
0.0380498406436377,0.507294793566011
0.0373803110875721,0.505800434722249
0.0367065117539659,0.504251524700204
0.0360280181374127,0.502648097961829
0.0353444057325062,0.500990188969078
0.0346552500338398,0.499277832183903
0.0339601265360074,0.497511062068259
0.0332586107336023,0.495689913084099
0.0325502781212184,0.493814419693375
0.0318347041934491,0.491884616358042
0.0311114644448881,0.489900537540052
0.0303801343701289,0.48786221770136
0.0296402894637652,0.485769691303917
0.0288915052203906,0.483622992809678
0.0281333571345987,0.481422156680596
0.027365420700983,0.479167217378624
0.0265872714141373,0.476858209365716
0.025798484768655,0.474495167103825
0.0249986362591299,0.472078125054903
0.0241873013801555,0.469607117680905
0.0233640556263254,0.467082179443784
0.0225284744922332,0.464503344805494
0.0216801334724725,0.461870648227986
0.020818608061637,0.459184124173216
0.0199434737543202,0.456443807103135
0.0190543060451157,0.453649731479698
0.0181506804286172,0.450801931764858
0.0172321723994182,0.447900442420568
0.0162983574521125,0.444945297908782
0.0153488110812934,0.441936532691452
0.0143831087815548,0.438874181230532
0.01340082604749,0.435758277987976
0.0124015383736929,0.432588857425736
0.0113848212547569,0.429365954005767
0.0103502501852758,0.426089602190021
0.00929740065984299,0.422759836440451
0.00822584817305223,0.419376691219012
0.00713516821949704,0.415940200987656
0.00602493629377108,0.412450400208337
0.00489472789046791,0.408907323343008
0.00374411850418115,0.405311004853622
0.00257268362950441,0.401661479202133
0.00137999876103134,0.397958780850494
0.000165639393355455,0.394202944260658
-0.00107081897892954,0.390394003894579
-0.00232980086123019,0.386531994214209
-0.00361173075895267,0.382616949681504
-0.00491703317750358,0.378648904758414
-0.00624613262228918,0.374627893906895
-0.00759945359871596,0.370553951588899
-0.00897742061219027,0.36642711226638
-0.0103804581681185,0.36224741040129
-0.011808990771907,0.358014880455584
-0.0132634429289623,0.353729556891215
-0.0147442391446907,0.349391474170135
-0.0162518039244986,0.345000666754298
-0.0177865617737924,0.340557169105659
-0.0193489371979785,0.336061015686169
-0.0209393547024633,0.331512240957782
-0.0225582387926532,0.326910879382452
-0.0242060139739545,0.322256965422131
-0.0258831047517737,0.317550533538774
-0.0275899356315172,0.312791618194334
-0.0293269311185914,0.307980253850763
-0.0310945157184026,0.303116474970015
-0.0328931139363574,0.298200316014044
-0.0347231502778619,0.293231811444803
-0.0365850492483227,0.288210995724245
-0.0384792353531461,0.283137903314323
-0.0404061330977386,0.278012568676992
-0.0423661669875065,0.272835026274203
-0.0443597615278562,0.267605310567911
-0.0463873412241941,0.262323456020068
-0.0484493305819268,0.256989497092629
-0.0505461541064603,0.251603468247546
-0.0526782363032014,0.246165403946773
-0.0548460016775561,0.240675338652263
-0.0570498747349311,0.235133306825969
-0.0592902799807327,0.229539342929846
-0.0615676419203673,0.223893481425845
-0.0638823850592412,0.21819575677592
-0.066234933902761,0.212446203442026
-0.0686257129563328,0.206644855886114
-0.0710551467253633,0.200791748570139
-0.0735236597152587,0.194886915956053
-0.0760316764314255,0.188930392505811
-0.07857962137927,0.182922212681364
-0.0811679190641987,0.176862410944668
-0.0837969939916179,0.170751021757674
-0.0864672706669342,0.164588079582337
-0.0891791735955535,0.15837361888061
-0.0919331272828828,0.152107674114445
-0.094729556234328,0.145790279745797
-0.097568884955296,0.139421470236618
-0.100451537951193,0.133001280048862
-0.103377939727425,0.126529743644483
-0.106348514789399,0.120006895485433
-0.10936368764252,0.113432770033666
-0.112423882792197,0.106807401751136
-0.115529524743834,0.100130825099795
-0.118681038002838,0.0934030745415967
-0.121878847074617,0.0866241845384946
-0.125123376464575,0.0797941895524425
-0.12841505067812,0.072913124045393
-0.131754294220657,0.0659810224792999
-0.135141531597594,0.058997919316116
-0.138577187314337,0.0519638490177954
-0.142061685876291,0.0448788460462907
-0.145595451788864,0.0377429448635558
-0.149178909557462,0.0305561799315433
-0.152812483687491,0.0233185857122074
-0.156496598684358,0.0160301966675007
-0.160231679053468,0.00869104725937718
-0.164018149300229,0.00130117194978938
-0.167856433930047,-0.00613939479930857
-0.171746957448329,-0.013630618525964
-0.175690144360479,-0.0211724647682231
-0.179686419171906,-0.028764899064133
-0.183736206388015,-0.0364078869517397
-0.187839930514213,-0.0441013939690908
-0.191998016055906,-0.051845385654232
-0.196210887518501,-0.0596398275452108
-0.200478969407403,-0.0674846851800733
-0.20480268622802,-0.0753799240968666
-0.209182462485758,-0.0833255098336369
-0.213618722686023,-0.0913214079284314
-0.218111891334221,-0.0993675839192962
-0.22266239293576,-0.107464003344279
-0.227270651996044,-0.115610631741425
-0.231937093020482,-0.123807434648782
-0.236662140514478,-0.132054377604396
-0.241446218983441,-0.140351426146314
-0.246289752932774,-0.148698545812583
-0.251193166867887,-0.157095702141249
-0.256156885294184,-0.165542860670359
-0.261181332717072,-0.17403998693796
-0.266266933641958,-0.182587046482098
-0.271414112574247,-0.19118400484082
-0.276623294019347,-0.199830827552173
-0.281894902482664,-0.208527480154204
-0.287229362469603,-0.217273928184958
-0.292627098485572,-0.226070137182483
-0.298088535035977,-0.234916072684825
-0.303614096626225,-0.243811700230032
-0.30920420776172,-0.252756985356149
-0.314859292947871,-0.261751893601224
-0.320579776690084,-0.270796390503303
-0.326366083493764,-0.279890441600433
-0.332218637864318,-0.289034012430659
-0.338137864307153,-0.298227068532031
-0.344124187327675,-0.307469575442592
-0.350178031431291,-0.316761498700392
-0.356299821123406,-0.326102803843475
-0.362489980909428,-0.33549345640989
-0.368748935294762,-0.344933421937681
-0.375077108784815,-0.354422665964898
-0.381474925884994,-0.363961154029584
-0.387942811100704,-0.373548851669789
-0.394481188937353,-0.383185724423557
-0.401090483900346,-0.392871737828936
-0.40777112049509,-0.402606857423973
-0.414523523226991,-0.412391048746714
-0.421348116601457,-0.422224277335206
-0.428245325123892,-0.432106508727496
-0.435215573299704,-0.442037708461629
-0.442259285634299,-0.452017842075654
-0.449376886633083,-0.462046875107616
-0.456568800801463,-0.472124773095563
-0.463835452644845,-0.48225150157754
-0.471177266668636,-0.492427026091595
-0.471177266668636,-0.492427026091595
-0.478525174238138,-0.50256218825202
-0.485809864321047,-0.512568153397561
-0.49303139782636,-0.522445372652948
-0.500189835663073,-0.532194297142912
-0.507285238740183,-0.541815377992183
-0.514317667966686,-0.551309066325489
-0.521287184251579,-0.560675813267561
-0.528193848503859,-0.569916069943129
-0.535037721632521,-0.579030287476923
-0.541818864546562,-0.588018916993672
-0.548537338154979,-0.596882409618106
-0.555193203366768,-0.605621216474955
-0.561786521090927,-0.614235788688949
-0.56831735223645,-0.622726577384819
-0.574785757712335,-0.631094033687292
-0.581191798427578,-0.6393386087211
-0.587535535291176,-0.647460753610973
-0.593817029212126,-0.65546091948164
-0.600036341099423,-0.66333955745783
-0.606193531862064,-0.671097118664275
-0.612288662409046,-0.678734054225703
-0.618321793649366,-0.686250815266845
-0.624292986492019,-0.69364785291243
-0.630202301846002,-0.700925618287189
-0.636049800620313,-0.70808456251585
-0.641835543723946,-0.715125136723144
-0.647559592065899,-0.722047792033802
-0.653222006555168,-0.728852979572551
-0.658822848100751,-0.735541150464123
-0.664362177611642,-0.742112755833248
-0.669840055996839,-0.748568246804654
-0.675256544165339,-0.754908074503073
-0.680611703026137,-0.761132690053233
-0.68590559348823,-0.767242544579865
-0.691138276460615,-0.773238089207698
-0.696309812852289,-0.779119775061463
-0.701420263572247,-0.784888053265889
-0.706469689529486,-0.790543374945706
-0.711458151633004,-0.796086191225643
-0.716385710791795,-0.801516953230432
-0.721252427914857,-0.806836112084801
-0.726058363911186,-0.81204411891348
-0.730803579689779,-0.8171414248412
-0.735488136159633,-0.822128480992689
-0.740112094229743,-0.827005738492679
-0.744675514809106,-0.831773648465898
-0.749178458806719,-0.836432662037077
-0.753620987131579,-0.840983230330945
-0.758003160692681,-0.845425804472233
-0.762325040399022,-0.849760835585669
-0.766586687159599,-0.853988774795985
-0.770788161883408,-0.85811007322791
-0.774929525479446,-0.862125182006173
-0.779010838856709,-0.866034552255504
-0.783032162924194,-0.869838635100634
-0.786993558590897,-0.873537881666292
-0.790895086765815,-0.877132743077208
-0.794736808357944,-0.880623670458112
-0.798518784276281,-0.884011114933734
-0.802241075429822,-0.887295527628803
-0.805903742727564,-0.890477359668049
-0.809506847078502,-0.893557062176203
-0.813050449391635,-0.896535086277994
-0.816534610575958,-0.899411883098151
-0.819959391540468,-0.902187903761406
-0.82332485319416,-0.904863599392487
-0.826631056446033,-0.907439421116124
-0.829878062205082,-0.909915820057048
-0.833065931380303,-0.912293247339988
-0.836194724880694,-0.914572154089674
-0.83926450361525,-0.916752991430835
-0.842275328492969,-0.918836210488203
-0.845227260422847,-0.920822262386505
-0.848120360313879,-0.922711598250473
-0.850954689075063,-0.924504669204836
-0.853730307615396,-0.926201926374325
-0.856447276843873,-0.927803820883668
-0.859105657669492,-0.929310803857596
-0.861705511001247,-0.930723326420838
-0.864246897748138,-0.932041839698124
-0.866729878819159,-0.933266794814186
-0.869154515123307,-0.93439864289375
-0.871520867569579,-0.935437835061549
-0.873828997066971,-0.936384822442312
-0.87607896452448,-0.937240056160768
-0.878270830851102,-0.938003987341648
-0.880404656955834,-0.93867706710968
-0.882480503747672,-0.939259746589597
-0.884498432135613,-0.939752476906126
-0.886458503028653,-0.940155709183997
-0.888360777335788,-0.940469894547942
-0.890205315966016,-0.940695484122689
-0.891992179828333,-0.940832929032968
-0.893721429831734,-0.940882680403509
-0.895393126885217,-0.940845189359042
-0.897007331897779,-0.940720907024298
-0.898564105778415,-0.940510284524005
-0.900063509436123,-0.940213772982893
-0.901505603779898,-0.939831823525693
-0.902890449718737,-0.939364887277134
-0.904218108161637,-0.938813415361946
-0.905488640017594,-0.938177858904859
-0.906702106195605,-0.937458669030603
-0.907858567604666,-0.936656296863907
-0.908958085153774,-0.935771193529502
-0.910000719751925,-0.934803810152117
-0.910986532308116,-0.933754597856482
-0.911915583731343,-0.932624007767328
-0.912787934930602,-0.931412491009383
-0.913603646814891,-0.930120498707377
-0.914362780293205,-0.928748481986041
-0.915065396274542,-0.927296891970105
-0.915711555667897,-0.925766179784297
-0.916301319382267,-0.924156796553349
-0.916834748326649,-0.922469193401989
-0.91731190341004,-0.920703821454948
-0.917732845541435,-0.918861131836956
-0.918097635629831,-0.916941575672742
-0.918406334584225,-0.914945604087036
-0.918659003313613,-0.912873668204568
-0.918855702726992,-0.910726219150069
-0.918996493733357,-0.908503708048267
-0.919081437241707,-0.906206586023892
-0.919110594161036,-0.903835304201675
-0.919084025400343,-0.901390313706345
-0.919001791868622,-0.898872065662632
-0.918863954474871,-0.896281011195267
-0.918670574128087,-0.893617601428978
-0.918421711737265,-0.890882287488496
-0.918117428211402,-0.88807552049855
-0.917757784459495,-0.88519775158387
-0.91734284139054,-0.882249431869187
-0.916872659913534,-0.87923101247923
-0.916347300937473,-0.876142944538729
-0.915766825371353,-0.872985679172413
-0.915131294124172,-0.869759667505013
-0.914440768104925,-0.866465360661258
-0.91369530822261,-0.863103209765878
-0.912894975386222,-0.859673665943604
-0.912039830504758,-0.856177180319164
-0.911129934487215,-0.852614204017289
-0.910165348242589,-0.848985188162709
-0.909146132679877,-0.845290583880153
-0.908072348708075,-0.841530842294351
-0.90694405723618,-0.837706414530034
-0.905761319173188,-0.83381775171193
-0.904524195428095,-0.829865304964771
-0.903232746909899,-0.825849525413285
-0.901887034527595,-0.821770864182202
-0.90048711919018,-0.817629772396253
-0.899033061806651,-0.813426701180167
-0.897524923286004,-0.809162101658674
-0.895962764537237,-0.804836424956503
-0.894346646469343,-0.800450122198386
-0.892676629991322,-0.796003644509051
-0.890952776012169,-0.791497443013228
-0.88917514544088,-0.786931968835648
-0.887343799186453,-0.782307673101039
-0.885458798157883,-0.777625006934133
-0.883520203264167,-0.772884421459658
-0.881528075414302,-0.768086367802345
-0.879482475517284,-0.763231297086923
-0.87738346448211,-0.758319660438123
-0.875231103217776,-0.753351908980674
-0.873025452633279,-0.748328493839305
-0.870766573637614,-0.743249866138748
-0.868454527139779,-0.738116477003731
-0.866089374048771,-0.732928777558984
-0.863671175273585,-0.727687218929238
-0.861199991723218,-0.722392252239222
-0.858675884306667,-0.717044328613666
-0.856098913932928,-0.7116438991773
-0.853469141510998,-0.706191415054854
-0.850786627949873,-0.700687327371057
-0.848051434158549,-0.695132087250639
-0.845263621046024,-0.689526145818331
-0.842423249521293,-0.683869954198862
-0.839530380493353,-0.678163963516962
-0.836585074871201,-0.67240862489736
-0.833587393563833,-0.666604389464787
-0.830537397480246,-0.660751708343973
-0.827435147529435,-0.654851032659647
-0.824280704620398,-0.648902813536538
-0.821074129662132,-0.642907502099379
-0.817815483563633,-0.636865549472896
-0.814504827233896,-0.630777406781821
-0.811142221581918,-0.624643525150884
-0.807727727516698,-0.618464355704814
-0.804261405947229,-0.612240349568342
-0.80074331778251,-0.605971957866196
-0.797173523931536,-0.599659631723107
-0.793552085303305,-0.593303822263805
-0.789879062806812,-0.586904980613019
-0.786154517351054,-0.58046355789548
-0.782378509845028,-0.573980005235916
-0.77855110119773,-0.56745477375906
-0.774672352318156,-0.560888314589638
-0.770742324115304,-0.554281078852383
-0.766761077498169,-0.547633517672023
-0.762728673375749,-0.540946082173289
-0.758645172657039,-0.53421922348091
-0.754510636251036,-0.527453392719616
-0.750325125066737,-0.520649041014137
-0.746088700013138,-0.513806619489203
-0.741801421999235,-0.506926579269543
-0.737463351934025,-0.500009371479888
-0.733074550726506,-0.493055447244967
-0.728635079285672,-0.486065257689511
-0.724144998520521,-0.479039253938248
-0.719604369340049,-0.471977887115909
-0.715013252653252,-0.464881608347224
-0.710371709369128,-0.457750868756923
-0.705679800396672,-0.450586119469735
-0.700937586644881,-0.44338781161039
-0.696145129022752,-0.436156396303618
-0.691302488439281,-0.428892324674149
-0.686409725803465,-0.421596047846713
-0.6814669020243,-0.414268016946039
-0.676474078010782,-0.406908683096858
-0.671431314671909,-0.399518497423899
-0.666338672916675,-0.392097911051892
-0.66119621365408,-0.384647375105568
-0.656003997793117,-0.377167340709655
-0.650762086242785,-0.369658258988883
-0.64547053991208,-0.362120581067983
-0.640129419709997,-0.354554758071685
-0.634738786545534,-0.346961241124717
-0.629298701327687,-0.339340481351811
-0.623809224965453,-0.331692929877695
-0.618270418367828,-0.324019037827101
-0.612682342443808,-0.316319256324756
-0.607045058102391,-0.308594036495392
-0.601358626252572,-0.300843829463739
-0.595623107803348,-0.293069086354525
-0.589838563663715,-0.285270258292481
-0.584005054742672,-0.277447796402337
-0.578122641949212,-0.269602151808823
-0.572191386192333,-0.261733775636668
-0.566211348381032,-0.253843119010602
-0.560182589424306,-0.245930633055356
-0.554105170231149,-0.237996768895658
-0.54797915171056,-0.230041977656239
-0.541804594771534,-0.222066710461829
-0.535581560323069,-0.214071418437157
-0.52931010927416,-0.206056552706954
-0.522990302533804,-0.198022564395949
-0.516622201010997,-0.189969904628871
-0.510205865614737,-0.181899024530452
-0.503741357254019,-0.17381037522542
-0.497228736837841,-0.165704407838506
-0.490668065275198,-0.157581573494439
-0.484059403475087,-0.14944232331795
-0.477402812346504,-0.141287108433767
-0.470698352798447,-0.133116379966622
-0.463946085739911,-0.124930589041243
-0.457146072079894,-0.116730186782361
-0.45029837272739,-0.108515624314705
-0.443403048591398,-0.100287352763005
-0.436460160580914,-0.0920458232519918
-0.429469769604933,-0.0837914869063945
-0.422431936572453,-0.0755247948509427
-0.415346722392471,-0.0672461982103668
-0.408214187973981,-0.0589561481093962
-0.401034394225982,-0.0506550956727611
-0.393807402057469,-0.0423434920251909
-0.38653327237744,-0.0340217882914161
-0.379212066094889,-0.0256904355961657
-0.371843844118815,-0.0173498850641703
-0.364428667358214,-0.00900058782015917
-0.356966596722082,-0.000642994988862805
-0.349457693119415,0.00772244230498972
-0.34190201745921,0.0160952729366679
-0.334299630650463,0.0244750457814425
-0.326650593602173,0.0328613097145829
-0.318954967223333,0.0412536136113602
-0.311212812422941,0.0496515063470436
-0.303424190109994,0.0580545367969041
-0.295589161193488,0.0664622538362112
-0.287707786582419,0.0748742063402357
-0.279780127185785,0.0832899431842469
-0.271806243912581,0.091709013243516
-0.263786197671805,0.100130965393312
-0.255720049372451,0.108555348508906
-0.247607859923518,0.116981711465568
-0.239449690234001,0.125409603138568
-0.231245601212897,0.133838572403176
-0.222995653769203,0.142268168134662
-0.214699908811915,0.150697939208297
-0.206358427250029,0.159127434499351
-0.197971269992543,0.167556202883093
-0.189538497948452,0.175983793234794
-0.181060172026753,0.184409754429724
-0.172536353136443,0.192833635343153
-0.163967102186517,0.201254984850352
-0.155352480085973,0.209673351826591
-0.146692547743808,0.218088285147139
-0.137987366069016,0.226499333687267
-0.129236995970596,0.234906046322245
-0.120441498357543,0.243307971927344
-0.111600934138855,0.251704659377832
-0.102715364223526,0.260095657548981
-0.0937848495205554,0.268480515316061
-0.0848094509389376,0.276858781554342
-0.0757892293876702,0.285230005139093
-0.0667242457757489,0.293593734945586
-0.057614561012171,0.30194951984909
-0.0484602360059322,0.310296908724876
-0.03926133166603,0.318635450448213
-0.0300179089014599,0.326964693894372
-0.0207300286212191,0.335284187938623
-0.0113977517343034,0.343593481456236
-0.00202113914971019,0.351892123322481
0.00739974822356493,0.360179662412629
0.0168648494765246,0.368455647601949
0.0263741037001732,0.376719627765712
0.0359274499855133,0.384971151779188
0.0455248274235494,0.393209768517647
0.055166175105284,0.401435026856359
0.0648514321217216,0.409646475670595
0.0745805375638647,0.417843663835624
0.0843534305227177,0.426026140226717
0.0941700500892832,0.434193453719143
0.104030335354566,0.442345153188174
0.113934225409568,0.450480787509078
0.123881659345294,0.458599905557127
0.133872576252746,0.46670205620759
0.14390691522293,0.474786788335739
0.153984615346847,0.482853650816841
0.164105615715502,0.490902192526169
0.174269855419897,0.498931962338992
0.184477273551038,0.50694250913058
0.194727809199926,0.514933381776203
0.205021401457566,0.522904129151133
0.21535798941496,0.530854300130637
0.225737512163114,0.538783443589988
0.236159908793028,0.546691108404455
0.246625118395709,0.554576843449308
0.257133080062159,0.562440197599817
0.267683732883381,0.570280719731253
0.278277015950379,0.578097958718885
0.288912868354157,0.585891463437985
0.299591229185718,0.593660782763821
0.310312037536065,0.601405465571664
0.321075232496202,0.609125060736785
0.331880753157133,0.616819117134453
0.342728538609861,0.624487183639939
0.353618527945389,0.632128809128513
0.364550660254721,0.639743542475444
0.375524874628861,0.647330932556004
0.386541110158812,0.654890528245462
0.397599305935578,0.662421878419088
0.408699401050161,0.669924531952153
0.419841334593566,0.677398037719927
0.431025045656795,0.684841944597679
0.442250473330854,0.692255801460681
0.453517556706744,0.699639157184202
0.46482623487547,0.706991560643512
0.476176446928035,0.714312560713881
0.487568131955443,0.721601706270581
0.499001229048696,0.72885854618888
0.510475677298799,0.736082629344049
0.521991415796755,0.743273504611358
0.533548383633568,0.750430720866078
0.54514651990024,0.757553826983478
0.556785763687777,0.764642371838828
0.568466054087179,0.7716959043074
0.580187330189453,0.778713973264462
0.591949531085601,0.785696127585286
0.603752595866626,0.79264191614514
0.615596463623532,0.799550887819296
0.627481073447323,0.806422591483024
0.639406364429002,0.813256576011594
0.651372275659572,0.820052390280275
0.663378746230037,0.826809583164338
0.675425715231401,0.833527703539054
0.687513121754667,0.840206300279692
0.699640904890839,0.846844922261522
0.711809003730919,0.853443118359815
0.724017357365912,0.860000437449842
0.736265904886821,0.86651642840687
0.74855458538465,0.872990640106172
0.760883337950401,0.879422621423018
0.77325210167508,0.885811921232677
0.785660815649688,0.892158088410419
0.79810941896523,0.898460671831515
0.810597850712708,0.904719220371236
0.823126049983128,0.91093328290485
0.835693955867491,0.917102408307628
0.848301507456802,0.923226145454841
0.860948643842064,0.929304043221759
0.873635304114281,0.935335650483651
0.886361427364455,0.941320516115788
0.899126952683592,0.94725818899344
0.911931819162692,0.953148217991878
0.924775965892762,0.958990151986371
0.937659331964804,0.964783539852189
0.950581856469822,0.970527930464603
0.963543478498818,0.976222872698882
0.976544137142797,0.981867915430298
