0.805621153170789,0.660048689253288
0.715772371673931,-0.52408189705152
0.856761969438978,-0.897527763015342
0.651169360431852,0.179256800412938
0.445576751424727,1.25604136384122
-0.748258682832769,0.55117065546002
-0.274478915884967,-0.561771775832544
