0.94878240911674,0.269400227258247
0.941884820224367,0.265330325793371
0.935045391171612,0.261256497513788
0.928263926751835,0.257178837071747
0.921540231758396,0.253097439119499
0.914874110984657,0.249012398309292
0.908265369223975,0.244923809293376
0.901713811269712,0.240831766724002
0.895219241915229,0.236736365253418
0.888781465953884,0.232637699533875
0.882400288179039,0.228535864217623
0.876075513384053,0.22443095395691
0.869806946362287,0.220323063403988
0.863594391907101,0.216212287211105
0.857437654811854,0.212098720030511
0.851336539869908,0.207982456514456
0.845290851874622,0.20386359131519
0.839300395619356,0.199742219084962
0.833364975897471,0.195618434476023
0.827484397502326,0.191492332140621
0.821658465227283,0.187364006731006
0.8158869838657,0.183233552899429
0.810169758210939,0.179101065298139
0.804506593056359,0.174966638579386
0.798897293195321,0.170830367395419
0.793341663421184,0.166692346398488
0.78783950852731,0.162552670240844
0.782390633307057,0.158411433574734
0.776994842553786,0.15426873105241
0.771651941060858,0.150124657326122
0.766361733621632,0.145979307048117
0.761124025029469,0.141832774870648
0.755938620077729,0.137685155445962
0.750805323559772,0.133536543426311
0.745723940268957,0.129387033463943
0.740694274998646,0.125236720211108
0.735716132542199,0.121085698320057
0.730789317692976,0.116934062443038
0.725913635244336,0.112781907232302
0.72108888998964,0.108629327340098
0.716314886722248,0.104476417418676
0.711591430235521,0.100323272120286
0.706918325322817,0.0961699860971773
0.702295376777499,0.0920166540015994
0.697722389392925,0.0878633704858026
0.693199167962456,0.0837102302020363
0.688725517279452,0.0795573278025502
0.684301242137274,0.0754047579395942
0.679926147329281,0.0712526152654179
0.675600037648833,0.067100994432271
0.671322717889291,0.0629499900924032
0.667093992844015,0.0587996968980644
0.662913667306366,0.0546502095015042
0.658781546069702,0.0505016225549723
0.654697433927385,0.0463540307107184
0.650661135672774,0.0422075286209922
0.64667245609923,0.0380622109380436
0.642731200000113,0.0339181723141222
0.638837172168783,0.0297755074014777
0.6349901773986,0.0256343108523598
0.631190020482924,0.0214946773190184
0.627436506215116,0.0173567014537029
0.623729439388535,0.0132204779086633
0.620068624796543,0.00908610133614923
0.616453867232498,0.00495366638841037
0.612884971489762,0.000823267717696544
0.609361742361693,-0.00330500002374266
0.605883984641653,-0.00743104218365748
0.602451503123002,-0.0115547641097981
0.5990641025991,-0.0156760711499149
0.595721587863307,-0.0197948686517582
0.592423763708982,-0.0239110619630782
0.589170434929487,-0.0280245564316251
0.585961406318182,-0.0321352574051493
0.582796482668426,-0.0362430702314012
0.57967546877358,-0.0403479002581308
0.576598169427003,-0.0444496528330885
0.573564389422057,-0.0485482333040246
0.570573933552101,-0.0526435470186895
0.567626606610495,-0.0567354993248332
0.5647222133906,-0.0608239955702062
0.561860558685776,-0.0649089411025587
0.559041447289383,-0.068990241269641
0.55626468399478,-0.0730678014192034
0.553530073595329,-0.0771415268989961
0.55083742088439,-0.0812113230567695
0.548186530655321,-0.0852770952402738
0.545577207701485,-0.0893387487972592
0.54300925681624,-0.0933961890754761
0.540482482792948,-0.0974493214226748
0.537996690424967,-0.101498051186606
0.535551684505659,-0.105542283715019
0.533147269828383,-0.109581924355664
0.5307832511865,-0.113616878456293
0.52845943337337,-0.117647051364654
0.526175621182353,-0.121672348428499
0.523931619406809,-0.125692674995578
0.521727232840098,-0.129707936413641
0.51956226627558,-0.133718038030438
0.517436524506617,-0.13772288519372
0.515349812326567,-0.141722383251236
0.513301934528791,-0.145716437550737
0.511292695906649,-0.149704953439974
0.509321901253502,-0.153687836266697
0.507389355362708,-0.157664991378656
0.50549486302763,-0.1616363241236
0.503638229041626,-0.165601739849282
0.501819258198057,-0.16956114390345
0.500037755290283,-0.173514441633855
0.498293525111665,-0.177461538388247
0.496586372455562,-0.181402339514377
0.494916102115334,-0.185336750359995
0.493282518884342,-0.189264676272852
0.491685427555946,-0.193186022600696
0.490124632923506,-0.19710069469128
0.488599939780383,-0.201008597892352
0.487111152919935,-0.204909637551664
0.485658077135524,-0.208803719016965
0.48424051722051,-0.212690747636006
0.482858277968253,-0.216570628756538
0.481511164172112,-0.220443267726309
0.480198980625449,-0.224308569893072
0.478921532121624,-0.228166440604575
0.477678623453995,-0.23201678520857
0.476470059415925,-0.235859509052806
0.475295644800772,-0.239694517485035
0.474155184401897,-0.243521715853005
0.47304848301266,-0.247341009504467
0.471975345426422,-0.251152303787173
0.470935576436542,-0.254955504048871
0.46992898083638,-0.258750515637312
0.468955363419298,-0.262537243900247
0.468014528978654,-0.266315594185426
0.46710628230781,-0.270085471840599
0.466230428200125,-0.273846782213516
0.465386771448959,-0.277599430651927
0.464575116847672,-0.281343322503584
0.463795269189626,-0.285078363116236
0.463047033268179,-0.288804457837633
0.462330213876693,-0.292521512015526
0.461644615808527,-0.296229430997665
0.460990043857041,-0.299928120131801
0.460366302815595,-0.303617484765683
0.459773197477551,-0.307297430247061
0.459210532636267,-0.310967861923687
0.458678113085104,-0.314628685143311
0.458175743617423,-0.318279805253682
0.457703229026583,-0.321921127602551
0.457260374105944,-0.325552557537668
0.456846983648867,-0.329174000406784
0.456462862448712,-0.332785361557649
0.456107815298839,-0.336386546338013
0.455781646992608,-0.339977460095626
0.45548416232338,-0.343558008178239
0.455215166084514,-0.347128095933601
0.45497446306937,-0.350687628709464
0.45476185807131,-0.354236511853578
0.454577155883692,-0.357774650713692
0.454420161299878,-0.361301950637557
0.454290679113226,-0.364818316972924
0.454188514117099,-0.368323655067542
0.454113471104855,-0.371817870269162
0.454065354869854,-0.375300867925535
0.454043970205458,-0.37877255338441
0.454049121905025,-0.382232831993537
0.454080614761917,-0.385681609100668
0.454138253569494,-0.389118790053552
0.454221843121115,-0.392544280199939
0.454331188210141,-0.39595798488758
0.454466093629931,-0.399359809464226
0.454626364173847,-0.402749659277626
0.454811804635248,-0.40612743967553
0.455022219807494,-0.40949305600569
0.455257414483946,-0.412846413615855
0.455517193457963,-0.416187417853775
0.455801361522907,-0.419515974067201
0.456109723472136,-0.422831987603883
0.456442084099012,-0.426135363811572
0.456798248196894,-0.429426008038017
0.457178020559143,-0.432703825630969
0.457581205979118,-0.435968721938179
0.45800760925018,-0.439220602307396
0.458457035165689,-0.44245937208637
0.458929288519005,-0.445684936622853
0.459424174103489,-0.448897201264594
0.4599414967125,-0.452096071359344
0.460481061139399,-0.455281452254852
0.461042672177545,-0.45845324929887
0.4616261346203,-0.461611367839147
0.462231253261022,-0.464755713223434
0.462857832893073,-0.467886190799481
0.463505678309812,-0.471002705915038
0.464174594304601,-0.474105163917856
0.464864385670797,-0.477193470155685
0.465574857201763,-0.480267529976275
0.466305813690858,-0.483327248727376
0.467057059931442,-0.486372531756739
0.467828400716875,-0.489403284412114
0.468619640840518,-0.492419412041251
0.469430585095731,-0.495420819991901
0.470261038275874,-0.498407413611813
0.471110805174306,-0.501379098248739
0.471979690584389,-0.504335779250428
0.472867499299483,-0.50727736196463
0.473774036112947,-0.510203751739097
0.474699105818141,-0.513114853921578
0.475642513208427,-0.516010573859823
0.476604063077164,-0.518890816901583
0.477583560217711,-0.521755488394608
0.47858080942343,-0.524604493686649
0.479595615487681,-0.527437738125454
0.480627783203823,-0.530255127058776
0.481677117365217,-0.533056565834364
0.482743422765223,-0.535841959799969
0.483826504197202,-0.53861121430334
0.484926166454512,-0.541364234692228
0.486042214330515,-0.544100926314384
0.487174452618571,-0.546821194517557
0.488322686112039,-0.549524944649498
0.489486719604281,-0.552212082057957
0.490666357888656,-0.554882512090685
0.491861405758523,-0.557536140095431
0.493071668007245,-0.560172871419946
0.49429694942818,-0.56279261141198
0.495537054814689,-0.565395265419284
0.496791788960131,-0.567980738789608
0.498060956657868,-0.570548936870702
0.499344362701259,-0.573099765010316
0.500641811883664,-0.575633128556201
0.501953108998444,-0.578148932856107
0.503278058838959,-0.580647083257784
0.504616466198569,-0.583127485108982
0.505968135870633,-0.585590043757452
0.507332872648513,-0.588034664550945
0.508710481325569,-0.590461252837209
0.51010076669516,-0.592869713963997
0.511503533550646,-0.595259953279057
0.512918586685389,-0.59763187613014
0.514345730892747,-0.599985387864997
0.515784770966082,-0.602320393831377
0.517235511698753,-0.604636799377031
0.51869775788412,-0.60693450984971
0.520171314315545,-0.609213430597163
0.521655985786386,-0.611473466967142
0.523151577090004,-0.613714524307395
0.524657893019759,-0.615936507965674
0.526174738369011,-0.618139323289728
0.527701917931121,-0.620322875627308
0.529239236499449,-0.622487070326165
0.530786498867354,-0.624631812734048
0.532343509828198,-0.626757008198708
0.533910074175339,-0.628862562067895
0.535485996702139,-0.630948379689359
0.537071082201957,-0.633014366410851
0.538665135468154,-0.635060427580121
0.540267961294089,-0.637086468544919
0.541879364473124,-0.639092394652995
0.543499149798618,-0.641078111252101
0.54512712206393,-0.643043523689985
0.546763086062423,-0.644988537314399
0.548406846587455,-0.646913057473092
0.550058208432386,-0.648816989513816
0.551716976390578,-0.650700238784319
0.553382955255389,-0.652562710632353
0.555055949820181,-0.654404310405667
0.556735764878313,-0.656224943452013
0.558422205223146,-0.658024515119139
0.560115075648039,-0.659802930754798
0.561814180946353,-0.661560095706738
0.563519325911449,-0.66329591532271
0.565230315336685,-0.665010294950465
0.566946954015423,-0.666703139937752
0.568669046741022,-0.668374355632323
0.570396398306843,-0.670023847381926
0.572128813506246,-0.671651520534313
0.573866097132591,-0.673257280437234
0.575608053979238,-0.674841032438439
0.577354488839547,-0.676402681885679
0.579105206506879,-0.677942134126703
0.580860011774593,-0.679459294509261
0.582618709436051,-0.680954068381106
0.584381104284611,-0.682426361089985
0.586147001113634,-0.683876077983651
0.587916204716481,-0.685303124409852
0.589688519886511,-0.68670740571634
0.591463751417084,-0.688088827250864
0.593241704101561,-0.689447294361175
0.595022182733303,-0.690782712395023
0.596804992105668,-0.692094986700159
0.598589937012018,-0.693384022624333
0.600376822245712,-0.694649725515294
0.60216545260011,-0.695892000720794
0.603955632868574,-0.697110753588582
0.605747167844462,-0.698305889466409
0.607539862321135,-0.699477313702025
0.609333521091954,-0.700624931643181
0.611127948950278,-0.701748648637626
0.612922950689467,-0.702848370033112
0.614718331102882,-0.703924001177387
0.616513894983883,-0.704975447418203
0.61830944712583,-0.70600261410331
0.620104792322083,-0.707005406580458
0.621899735366003,-0.707983730197397
0.623694081050948,-0.708937490301878
0.625487634170281,-0.709866592241651
0.627280199517361,-0.710770941364466
0.629071581885547,-0.711650443018073
0.630861586068201,-0.712505002550224
0.632650016858682,-0.713334525308667
0.63443667905035,-0.714138916641153
0.636221377436566,-0.714918081895433
0.63800391681069,-0.715671926419258
0.639784101966082,-0.716400355560376
0.641561737696102,-0.717103274666538
0.64333662879411,-0.717780589085496
0.645108580053467,-0.718432204164998
0.646877396267532,-0.719058025252796
0.648642882229666,-0.719657957696639
0.650404842733229,-0.720231906844278
0.652163082571581,-0.720779778043463
0.653917406538082,-0.721301476641944
0.655667619426093,-0.721796907987473
0.657413526028973,-0.722265977427798
0.659154931140083,-0.72270859031067
0.660891639552783,-0.72312465198384
0.662623456060432,-0.723514067795057
0.664350185456393,-0.723876743092073
0.666071632534023,-0.724212583222637
0.667787602086684,-0.7245214935345
0.669497898907736,-0.724803379375411
0.671202327790538,-0.725058146093122
0.672900693528452,-0.725285699035382
0.674592800914837,-0.725485943549942
0.676278454743053,-0.725658784984552
0.67795745980646,-0.725804128686963
0.67962962089842,-0.725921880004924
0.681294742812291,-0.726011944286186
0.682952630341434,-0.726074226878499
0.684603088279209,-0.726108633129613
0.686245921418976,-0.726115068387279
0.687880934554096,-0.726093437999247
0.689507932477929,-0.726043647313267
0.691126719983834,-0.72596560167709
0.692737101865173,-0.725859206438466
0.694338882915304,-0.725724366945145
0.695931867927589,-0.725560988544877
0.697515861695387,-0.725368976585413
0.699090669012059,-0.725148236414503
0.700656094670964,-0.724898673379897
0.702211943465464,-0.724620192829345
0.703758020188917,-0.724312700110598
0.705294129634685,-0.723976100571407
0.706820076596127,-0.723610299559521
0.708335665866604,-0.72321520242269
0.709840702239475,-0.722790714508665
0.711334990508101,-0.722336741165197
0.712818335465843,-0.721853187740035
0.714290541906059,-0.721339959580929
0.715751414622111,-0.720796962035631
0.717200758407359,-0.72022410045189
0.718638378055162,-0.719621280177457
0.720064078358881,-0.718988406560081
0.721477664111876,-0.718325384947514
0.722878940107507,-0.717632120687505
0.724267711139135,-0.716908519127804
0.725643782000119,-0.716154485616163
0.727006957483819,-0.715369925500331
0.728357042383597,-0.714554744128059
0.729693841492811,-0.713708846847096
0.731017159604823,-0.712832139005193
0.732326801512992,-0.711924525950101
0.733622572010678,-0.71098591302957
0.734904275891243,-0.710016205591349
0.736171717948044,-0.70901530898319
0.737424702974444,-0.707983128552842
0.738663035763802,-0.706919569648056
0.739886521109478,-0.705824537616582
0.741094963804833,-0.70469793780617
0.742288168643226,-0.703539675564571
0.743465940418018,-0.702349656239535
0.744628083922569,-0.701127785178812
0.745774403950238,-0.699873967730152
0.746904705294388,-0.698588109241307
0.748018792748376,-0.697270115060025
0.749116471105564,-0.695919890534057
0.750197545159312,-0.694537341011154
0.75126181970298,-0.693122371839066
0.752309099529927,-0.691674888365544
0.753339189433515,-0.690194795938336
0.754351894207104,-0.688681999905194
0.755347018644053,-0.687136405613869
0.756324367537722,-0.685557918412109
0.757283745681472,-0.683946443647666
0.758224957868664,-0.68230188666829
0.759147808892656,-0.680624152821731
0.76005210354681,-0.678913147455739
0.760937646624486,-0.677168775918065
0.761804242919043,-0.675390943556459
0.762651697223842,-0.673579555718671
0.763479814332242,-0.671734517752452
0.763479814332242,-0.671734517752452
0.764281515144993,-0.669858438485775
0.765049932949216,-0.667954173225889
0.765785191117839,-0.666021997039453
0.766487413023785,-0.664062184993126
0.767156722039979,-0.662075012153568
0.767793241539348,-0.660060753587439
0.768397094894815,-0.658019684361397
0.768968405479306,-0.655952079542104
0.769507296665746,-0.653858214196217
0.770013891827059,-0.651738363390397
0.770488314336172,-0.649592802191302
0.770930687566009,-0.647421805665594
0.771341134889494,-0.645225648879932
0.771719779679554,-0.643004606900973
0.772066745309113,-0.640758954795379
0.772382155151096,-0.638488967629809
0.772666132578429,-0.636194920470923
0.772918800964035,-0.633877088385379
0.773140283680841,-0.631535746439838
0.773330704101772,-0.629171169700959
0.773490185599752,-0.626783633235402
0.773618851547706,-0.624373412109826
0.77371682531856,-0.62194078139089
0.773784230285239,-0.619486016145255
0.773821189820667,-0.617009391439579
0.77382782729777,-0.614511182340523
0.773804266089473,-0.611991663914745
0.7737506295687,-0.609451111228906
0.773667041108378,-0.606889799349665
0.77355362408143,-0.604308003343681
0.773410501860782,-0.601705998277614
0.773237797819359,-0.599084059218124
0.773035635330086,-0.59644246123187
0.772804137765889,-0.593781479385512
0.772543428499691,-0.591101388745708
0.772253630904419,-0.58840246437912
0.771934868352997,-0.585684981352406
0.77158726421835,-0.582949214732225
0.771210941873403,-0.580195439585238
0.770806024691082,-0.577423930978104
0.770372636044311,-0.574634963977482
0.769910899306016,-0.571828813650032
0.769420937849121,-0.569005755062413
0.768902875046552,-0.566166063281286
0.768356834271234,-0.563310013373309
0.767782938896091,-0.560437880405143
0.767181312294049,-0.557549939443446
0.766552077838033,-0.554646465554878
0.765895358900967,-0.551727733806099
0.765211278855778,-0.548794019263768
0.764499961075389,-0.545845596994545
0.763761528932727,-0.54288274206509
0.762996105800715,-0.539905729542061
0.762203815052279,-0.536914834492119
0.761384780060345,-0.533910331981923
0.760539124197837,-0.530892497078132
0.75966697083768,-0.527861604847407
0.758768443352799,-0.524817930356406
0.757843665116119,-0.521761748671789
0.756892759500566,-0.518693334860216
0.755915849879065,-0.515612963988346
0.75491305962454,-0.512520911122839
0.753884512109916,-0.509417451330355
0.752830330708119,-0.506302859677552
0.751750638792073,-0.503177411231091
0.750645559734705,-0.50004138105763
0.749515216908937,-0.49689504422383
0.748359733687697,-0.49373867579635
0.747179233443909,-0.49057255084185
0.745973839550497,-0.487396944426989
0.744743675380387,-0.484212131618426
0.743488864306505,-0.481018387482822
0.742209529701774,-0.477815987086836
0.74090579493912,-0.474605205497126
0.739577783391468,-0.471386317780354
0.738225618431744,-0.468159599003178
0.736849423432872,-0.464925324232258
0.735449321767777,-0.461683768534253
0.734025436809384,-0.458435206975823
0.732577891930619,-0.455179914623628
0.731106810504406,-0.451918166544327
0.72961231590367,-0.448650237804579
0.728094531501337,-0.445376403471045
0.726553580670332,-0.442096938610383
0.724989586783579,-0.438812118289254
0.723402673214004,-0.435522217574316
0.721792963334532,-0.43222751153223
0.720160580518087,-0.428928275229655
0.718505648137595,-0.42562478373325
0.716828289565981,-0.422317312109674
0.71512862817617,-0.419006135425589
0.713406787341087,-0.415691528747652
0.711662890433657,-0.412373767142524
0.709897060826804,-0.409053125676864
0.708109421893455,-0.405729879417332
0.706300097006534,-0.402404303430587
0.704469209538967,-0.399076672783289
0.702616882863677,-0.395747262542097
0.700743240353591,-0.392416347773671
0.698848405381633,-0.38908420354467
0.696932501320729,-0.385751104921754
0.694995651543802,-0.382417326971583
0.69303797942378,-0.379083144760815
0.691059608333586,-0.375748833356111
0.689060661646146,-0.37241466782413
0.687041262734384,-0.369080923231532
0.685001534971225,-0.365747874644976
0.682941601729596,-0.362415797131122
0.680861586382421,-0.359084965756628
0.678761612302624,-0.355755655588156
0.676641802863131,-0.352428141692364
0.674502281436867,-0.349102699135912
0.672343171396757,-0.345779602985459
0.670164596115726,-0.342459128307665
0.667966678966699,-0.339141550169189
0.665749543322601,-0.335827143636692
0.663513312556358,-0.332516183776832
0.661258110040893,-0.32920894565627
0.658984059149133,-0.325905704341663
0.656691283254003,-0.322606734899674
0.654379905728426,-0.31931231239696
0.652050049945329,-0.316022711900181
0.649701839277637,-0.312738208475996
0.647335397098274,-0.309459077191067
0.644950846780166,-0.306185593112051
0.642548311696236,-0.302918031305609
0.640127915219412,-0.299656666838399
0.637689780722618,-0.296401774777082
0.635234031578779,-0.293153630188318
0.632760791160819,-0.289912508138764
0.630270182841664,-0.286678683695082
0.627762329994239,-0.283452431923931
0.625237355991469,-0.28023402789197
0.622695384206279,-0.277023746665859
0.620136538011594,-0.273821863312256
0.617560940780339,-0.270628652897823
0.614968715885439,-0.267444390489219
0.61235998669982,-0.264269351153102
0.609734876596405,-0.261103809956132
0.607093508948121,-0.25794804196497
0.604436007127893,-0.254802322246274
0.601762494508645,-0.251666925866704
0.599073094463302,-0.24854212789292
0.59636793036479,-0.245428203391581
0.593647125586033,-0.242325427429347
0.590910803499957,-0.239234075072877
0.588159087479487,-0.236154421388831
0.585392100897547,-0.233086741443868
0.582609967127063,-0.230031310304649
0.57981280954096,-0.226988403037831
0.577000751512162,-0.223958294710076
0.574173916413596,-0.220941260388042
0.571332427618186,-0.217937575138389
0.568476408498856,-0.214947514027777
0.565605982428533,-0.211971352122864
0.562721272780141,-0.209009364490312
0.559822402926604,-0.206061826196779
0.556909496240849,-0.203129012308924
0.553982676095801,-0.200211197893408
0.551042065864383,-0.19730865801689
0.548087788919522,-0.194421667746029
0.545119968634142,-0.191550502147485
0.542138728381169,-0.188695436287917
0.539144191533527,-0.185856745233986
0.536136481464142,-0.18303470405235
0.533115721545939,-0.180229587809669
0.530082035151841,-0.177441671572603
0.527035545654776,-0.174671230407811
0.523976376427668,-0.171918539381952
0.520904650843441,-0.169183873561687
0.517820492275021,-0.166467508013675
0.514724024095333,-0.163769717804575
0.511615369677302,-0.161090778001047
0.508494652393852,-0.15843096366975
0.50536199561791,-0.155790549877345
0.5022175227224,-0.153169811690489
0.499061357080247,-0.150569024175844
0.495893622064376,-0.147988462400069
0.492714441047713,-0.145428401429822
0.489523937403182,-0.142889116331765
0.486322234503708,-0.140370882172555
0.483109455722216,-0.137873974018853
0.479885724431632,-0.135398666937319
0.476651164004881,-0.132945235994611
0.473405897814887,-0.13051395625739
0.470150049234575,-0.128105102792315
0.466883741636871,-0.125718950666045
0.4636070983947,-0.12335577494524
0.460320242880986,-0.12101585069656
0.457023298468655,-0.118699452986664
0.453716388530632,-0.116406856882211
0.450399636439842,-0.114138337449862
0.44707316556921,-0.111894169756275
0.443737099291661,-0.109674628868111
0.44039156098012,-0.107479989852028
0.437036674007512,-0.105310527774687
0.433672561746762,-0.103166517702746
0.430299347570795,-0.101048234702866
0.426917154852536,-0.0989559538417062
0.423526106964911,-0.0968899501859257
0.420126327280844,-0.0948504988021841
0.41671793917326,-0.0928378747571412
0.413301066015085,-0.0908523531174564
0.409875831179243,-0.0888942089497894
0.40644235803866,-0.0869637173207994
0.40300076996626,-0.0850611532971462
0.399551190334969,-0.0831867919454893
0.396093742517711,-0.0813409083324883
0.392628549887412,-0.0795237775248026
0.389155735816997,-0.0777356745890919
0.385675423679391,-0.0759768745920155
0.382187736847519,-0.0742476526002333
0.378692798694305,-0.0725482836804045
0.375190732592676,-0.0708790428991889
0.371681661915555,-0.0692402053232458
0.368165710035869,-0.0676320460192349
0.364643000326541,-0.0660548400538157
0.361113656160498,-0.0645088624936478
0.357577800910664,-0.0629943884053906
0.354035557949964,-0.0615116928557038
0.350487050651324,-0.0600610509112468
0.346932402387667,-0.0586427376386793
0.343371736531921,-0.0572570281046607
0.339805176457008,-0.0559041973758506
0.336232845535855,-0.0545845205189085
0.332654867141387,-0.0532982726004941
0.329071364646528,-0.0520457286872667
0.325482461424204,-0.050827163845886
0.32188828084734,-0.0496428531430115
0.31828894628886,-0.0484930716453028
0.314684581121691,-0.0473780944194192
0.311075308718756,-0.0462981965320207
0.30746125245298,-0.0452536530497663
0.30384253569729,-0.044244739039316
0.30021928182461,-0.0432717295673291
0.296591614207865,-0.0423348997004652
0.29295965621998,-0.0414345245053837
0.28932353123388,-0.0405708790487445
0.28568336262249,-0.0397442383972067
0.282039273758735,-0.0389548776174302
0.278391388015541,-0.0382030717760744
0.274739828765832,-0.0374890959397987
0.271084719382534,-0.0368132251752629
0.26742618323857,-0.0361757345491264
0.263764343706868,-0.0355768991280488
0.260099324160351,-0.0350169939786895
0.256431247971944,-0.0344962941677083
0.252760238514573,-0.0340150747617644
0.249086419161163,-0.0335736108275177
0.245409913284638,-0.0331721774316275
0.241730844257924,-0.0328110496407534
0.238049335453947,-0.032490502521555
0.234365510245629,-0.0322108111406917
0.230679492005898,-0.0319722505648232
0.226991404107678,-0.031775095860609
0.223301369923894,-0.0316196220947086
0.219609512827471,-0.0315061043337816
0.215915956191334,-0.0314348176444874
0.212220823388408,-0.0314060370934858
0.208524237791618,-0.031420037747436
0.20482632277389,-0.0314770946729979
0.201127201708148,-0.0315774829368307
0.197426997967317,-0.0317214776055942
0.193725834924323,-0.0319093537459479
0.19002383595209,-0.0321413864245512
0.186321124423544,-0.0324178507080638
0.182617823711609,-0.0327390216631451
0.178914057189211,-0.0331051743564548
0.175209948229275,-0.0335165838546523
0.171505620204725,-0.0339735252243973
0.167801196488487,-0.0344762735323491
0.164096800453486,-0.0350251038451675
0.160392555472646,-0.0356202912295118
0.156688584918894,-0.0362621107520417
0.152985012165153,-0.0369508374794168
0.14928196058435,-0.0376867464782965
0.145579553549408,-0.0384701128153403
0.141877914433254,-0.0393012115572079
0.138177166608812,-0.0401803177705588
0.134477433449007,-0.0411077065220525
0.130778838326764,-0.0420836528783485
0.127081504615009,-0.0431084319061065
0.123385555686665,-0.0441823186719859
0.11969111491466,-0.0453055882426462
0.115998305671916,-0.046478515684747
0.112307251331361,-0.047701376064948
0.108618075265917,-0.0489744444499085
0.104930900848512,-0.0502979959062882
0.101245851452069,-0.0516723055007466
0.0975630504495136,-0.0530976482999431
0.0938826212137709,-0.0545742993705375
0.0902046871177663,-0.0561025337791892
0.0865293715344243,-0.0576826265925577
0.0828567978366703,-0.0593148528773026
0.0791870893974291,-0.0609994877000835
0.075520369589626,-0.0627368061275598
0.0718567617861859,-0.0645270832263912
0.068196389360034,-0.066370594063237
0.064539375684095,-0.068267613704757
0.0608858441312944,-0.0702184172176106
0.0572359180745569,-0.0722232796684575
0.0535897208868078,-0.074282476123957
0.0499473759409719,-0.0763962816507688
0.0463090066099745,-0.0785649713155524
0.0426747362667404,-0.0807888201849674
0.0390446882841949,-0.0830681033256732
0.0354189860352628,-0.0854030958043295
0.0317977528928695,-0.0877940726875957
0.0281811122299396,-0.0902413090421315
0.0245691874193985,-0.0927450799345963
0.020962101834171,-0.0953056604316498
0.0173599788471824,-0.0979233255999513
0.0137629418313576,-0.100598350506161
0.0101711141596217,-0.103331010216937
0.00658461920489954,-0.10612157979894
0.00300358034011655,-0.10897033431883
-0.000571879061802547,-0.111877548843265
-0.00414163562793242,-0.114843498438906
-0.00770556598534834,-0.117868458172411
-0.0112635467611249,-0.120952703110442
-0.0148154545823375,-0.124096508319656
-0.0183611660760606,-0.127300148866713
-0.0219005578693696,-0.130563899818274
-0.0254335065893391,-0.133888036240998
-0.0289598888630442,-0.137272833201543
-0.0324795813175598,-0.140718565766571
-0.035992460579961,-0.144225509002739
-0.0394984032773225,-0.147793937976709
-0.0429972860367196,-0.151424127755138
-0.0464889854852268,-0.155116353404688
-0.0499733782499194,-0.158870889992017
-0.0534503409578722,-0.162688012583785
-0.0569197502361603,-0.166567996246652
-0.0603814827118584,-0.170511116047276
-0.0638354150120417,-0.174517647052318
-0.067281423763785,-0.178587864328437
-0.0707193855941634,-0.182722042942293
-0.0741491771302515,-0.186920457960545
-0.0775706749991248,-0.191183384449853
-0.0809837558278576,-0.195511097476877
-0.0843882962435256,-0.199903872108275
-0.087784172873203,-0.204361983410707
-0.0911712623439653,-0.208885706450833
-0.0945494412828871,-0.213475316295313
-0.0979185863170437,-0.218131088010806
-0.10127857407351,-0.222853296663971
-0.10462928117936,-0.227642217321469
-0.10797058426167,-0.232498125049958
-0.111302359947515,-0.237421294916098
-0.114624484863968,-0.242412001986549
-0.117936835638107,-0.24747052132797
-0.121239288897004,-0.252597128007021
-0.124531721267735,-0.257792097090362
-0.127814009377376,-0.263055703644651
-0.131086029853001,-0.268388222736548
-0.134347659321685,-0.273789929432714
-0.137598774410503,-0.279261098799807
-0.14083925174653,-0.284802005904487
-0.14406896795684,-0.290412925813414
-0.14728779966851,-0.296094133593247
-0.150495623508613,-0.301845904310645
-0.153692316104226,-0.307668513032269
-0.156877754082422,-0.313562234824777
-0.160051814070276,-0.31952734475483
-0.163214372694864,-0.325564117889087
-0.166365306583261,-0.331672829294206
-0.169504492362541,-0.337853754036849
-0.17263180665978,-0.344107167183675
-0.175747126102052,-0.350433343801342
-0.178850327316433,-0.356832558956511
-0.181941286929997,-0.363305087715841
-0.185019881569819,-0.369851205145991
-0.188085987862974,-0.376471186313622
-0.191139482436538,-0.383165306285392
-0.194180241917584,-0.389933840127962
-0.197208142933189,-0.39677706290799
-0.200223062110427,-0.403695249692137
-0.203224876076373,-0.410688675547062
-0.206213461458101,-0.417757615539424
-0.209188694882688,-0.424902344735883
-0.212150452977207,-0.432123138203098
-0.215098612368735,-0.43942027100773
-0.218033049684344,-0.446794018216437
-0.220953641551112,-0.454244654895879
-0.223860264596112,-0.461772456112716
-0.22675279544642,-0.469377696933607
-0.22963111072911,-0.477060652425212
-0.232495087071258,-0.48482159765419
-0.235344601099938,-0.492660807687201
-0.238179529442226,-0.500578557590904
-0.240999748725196,-0.50857512243196
-0.243805135575923,-0.516650777277026
-0.246595566621483,-0.524805797192764
-0.24937091848895,-0.533040457245832
-0.252131067805398,-0.54135503250289
-0.254875891197904,-0.549749798030598
-0.257605265293542,-0.558225028895615
-0.260319066719387,-0.566781000164601
-0.263017172102514,-0.575417986904215
