-0.585241786486537,0.0380782341924484
-0.581893366742034,0.0418551595584607
-0.578523800942013,0.0455766012098441
-0.575133332494068,0.0492428879258757
-0.571722204805796,0.0528543484858326
-0.568290661284791,0.0564113116689918
-0.564838945338648,0.0599141062546305
-0.561367300374964,0.0633630610220257
-0.557875969801334,0.0667585047504546
-0.554365197025353,0.0701007662191941
-0.550835225454617,0.0733901742075213
-0.547286298496721,0.0766270574947135
-0.54371865955926,0.0798117448600476
-0.54013255204983,0.0829445650828007
-0.536528219376027,0.0860258469422499
-0.532905904945444,0.0890559192176723
-0.52926585216568,0.0920351106883449
-0.525608304444328,0.0949637501335449
-0.521933505188984,0.0978421663325493
-0.518241697807244,0.100670688064635
-0.514533125706703,0.10344964410908
-0.510808032294956,0.10617936324516
-0.507066660979598,0.108860174252153
-0.503309255168226,0.111492405909336
-0.499536058268435,0.114076386995986
-0.495747313687819,0.116612446291379
-0.491943264833976,0.119100912574794
-0.488124155114498,0.121542114625507
-0.484290227936984,0.123936381222795
-0.480441726709027,0.126284041145936
-0.476578894838224,0.128585423174206
-0.472701975732169,0.130840856086882
-0.468811212798458,0.133050668663242
-0.464906849444687,0.135215189682563
-0.46098912907845,0.137334747924122
-0.457058295107344,0.139409672167195
-0.453114590938964,0.14144029119106
-0.449158259980905,0.143426933774994
-0.445189545640763,0.145369928698275
-0.441208691326133,0.147269604740178
-0.43721594044461,0.149126290679982
-0.433211536403791,0.150940315296963
-0.429195722611269,0.152712007370398
-0.425168742474642,0.154441695679565
-0.421130839401504,0.156129709003741
-0.41708225679945,0.157776376122202
-0.413023238076076,0.159382025814226
-0.408954026638978,0.160946986859089
-0.404874865895752,0.16247158803607
-0.400785999253991,0.163956158124444
-0.396687670121292,0.16540102590349
-0.392580121905251,0.166806520152484
-0.388463598013462,0.168172969650703
-0.384338341853521,0.169500703177424
-0.380204596833024,0.170790049511924
-0.376062606359566,0.172041337433482
-0.371912613840742,0.173254895721372
-0.367754862684148,0.174431053154874
-0.363589596297379,0.175570138513263
-0.359417058088031,0.176672480575816
-0.355237491463699,0.177738408121812
-0.351051139831979,0.178768249930527
-0.346858246600466,0.179762334781238
-0.342659055176754,0.180720991453221
-0.338453808968441,0.181644548725755
-0.334242751383122,0.182533335378117
-0.330026125828391,0.183387680189583
-0.325804175711843,0.18420791193943
-0.321577144441076,0.184994359406936
-0.317345275423684,0.185747351371377
-0.313108812067261,0.186467216612031
-0.308867997779405,0.187154283908175
-0.30462307596771,0.187808882039085
-0.300374290039772,0.18843133978404
-0.296121883403186,0.189021985922316
-0.291866099465548,0.18958114923319
-0.287607181634452,0.190109158495939
-0.283345373317495,0.19060634248984
-0.279080917922272,0.191073029994171
-0.274814058856378,0.191509549788208
-0.270545039527409,0.191916230651228
-0.26627410334296,0.19229340136251
-0.262001493710626,0.192641390701328
-0.257727454038004,0.192960527446962
-0.253452227732688,0.193251140378688
-0.249176058202274,0.193513558275782
-0.244899188854357,0.193748109917523
-0.240621863096533,0.193955124083186
-0.236344324336397,0.19413492955205
-0.232066815981545,0.194287855103391
-0.227789581439571,0.194414229516487
-0.223512864118072,0.194514381570613
-0.219236907424643,0.194588640045049
-0.21496195476688,0.19463733371907
-0.210688249552377,0.194660791371953
-0.20641603518873,0.194659341782977
-0.202145555083535,0.194633313731417
-0.197877052644387,0.194583035996551
-0.193610771278881,0.194508837357656
-0.189346954394613,0.19441104659401
-0.185085845399179,0.194289992484888
-0.180827687700173,0.194146003809569
-0.176572724705191,0.193979409347329
-0.172321199821829,0.193790537877445
-0.168073356457683,0.193579718179195
-0.163829438020346,0.193347279031856
-0.159589687917416,0.193093549214704
-0.155354349556486,0.192818857507017
-0.151123666345154,0.192523532688071
-0.146897881691014,0.192207903537145
-0.142677239001661,0.191872298833515
-0.138461981684691,0.191517047356457
-0.1342523531477,0.19114247788525
-0.130048596798283,0.19074891919917
-0.125850956044035,0.190336700077495
-0.121659674292552,0.189906149299501
-0.117474994951429,0.189457595644465
-0.113297161428262,0.188991367891665
-0.109126417130646,0.188507794820377
-0.104963005466176,0.18800720520988
-0.100807169842448,0.187489927839449
-0.0966591536670577,0.186956291488362
-0.0925192003476,0.186406624935896
-0.0883875532916704,0.185841256961328
-0.0842644559068646,0.185260516343935
-0.0801501516007779,0.184664731862994
-0.0760448837810056,0.184054232297783
-0.0719488958551432,0.183429346427578
-0.0678624312307862,0.182790403031657
-0.06378573331553,0.182137730889296
-0.05971904551697,0.181471658779773
-0.0556626112427016,0.180792515482364
-0.0516166739003203,0.180100629776347
-0.0475814768974216,0.179396330441
-0.0435572636416008,0.178679946255598
-0.0395442775404533,0.177951805999419
-0.0355427620015747,0.17721223845174
-0.0315529604325602,0.176461572391839
-0.0275751162410055,0.175700136598991
-0.0236094728345057,0.174928259852476
-0.0196562736206566,0.174146270931568
-0.0157157620070534,0.173354498615546
-0.0117881814012915,0.172553271683687
-0.00787377521096637,0.171742918915268
-0.00397278684367362,0.170923769089565
-8.54597070085034e-05,0.170096150985856
0.00378796279143359,0.169260393383418
0.00764723724405714,0.168416825061528
0.0114921202432667,0.167565774799464
0.0153223683814668,0.166707571376501
0.0191377382510622,0.165842543571918
0.0229379864444574,0.164971020164991
0.0267228695540568,0.164093329934998
0.0304921441722651,0.163209801661215
0.034245566891487,0.162320764122919
0.0379828943041268,0.161426546099389
0.0417038830025892,0.1605274763699
0.0454082895792789,0.15962388371373
0.0490958706266002,0.158716096910156
0.0527663827369579,0.157804444738455
0.0564195825027565,0.156889255977904
0.0600552265164005,0.15597085940778
0.0636730713702946,0.155049583807361
0.0672728736568432,0.154125757955923
0.070854389968451,0.153199710632743
0.0744173768975225,0.152271770617099
0.0779615910364624,0.151342266688267
0.0814867889776751,0.150411527625525
0.0849927273135653,0.14947988220815
0.0884791626365374,0.148547659215419
0.0919458515389963,0.147615187426609
0.0953925506133462,0.146682795620996
0.0988190164519918,0.145750812577859
0.102225005647338,0.144819567076474
0.105610274791789,0.143889387896118
0.108974580477749,0.142960603816068
0.112317679297623,0.142033543615602
0.115639327843816,0.141108536073997
0.118939282708732,0.140185909970529
0.122217300484776,0.139265994084475
0.125473137764352,0.138349117195114
0.128706551139864,0.137435608081721
0.131917297203719,0.136525795523574
0.135105132548319,0.13562000829995
0.13826981376607,0.134718575190127
0.141411097449376,0.13382182497338
0.144528740190641,0.132930086428987
0.147622498582271,0.132043688336226
0.15069212921667,0.131162959474374
0.153737388686242,0.130288228622707
0.156758033583393,0.129419824560502
0.159753820500525,0.128558076067037
0.162724506030045,0.127703311921589
0.165669846764357,0.126855860903434
0.168589599295865,0.126016051791851
0.171483520216973,0.125184213366115
0.174351366120087,0.124360674405505
0.177192893597612,0.123545763689296
0.18000785924195,0.122739809996767
0.182796019645508,0.121943142107195
0.185557131400689,0.121156088799855
0.188290951099899,0.120378978854026
0.190997235335541,0.119612141048985
0.193675740700021,0.118855904164008
0.196326223785743,0.118110596978373
0.198948441185112,0.117376548271357
0.201542149490531,0.116654086822236
0.204107105294406,0.115943541410289
0.206643065189142,0.115245240814792
0.209149785767142,0.114559513815022
0.211627023620812,0.113886689190256
0.214074535342555,0.113227095719771
0.216492077524778,0.112581062182845
0.218879406759883,0.111948917358754
0.221236279640276,0.111330990026775
0.223562452758361,0.110727608966187
0.225857682706543,0.110139102956265
0.228121726077226,0.109565800776287
0.230354339462815,0.109008031205529
0.232555279455715,0.10846612302327
0.23472430264833,0.107940405008786
0.236861165633065,0.107431205941353
0.238965625002323,0.10693885460025
0.241037437348511,0.106463679764754
0.243076359264032,0.10600601021414
0.245082147341291,0.105566174727687
0.247054558172692,0.105144502084672
0.248993348350641,0.104741321064371
0.250898274467541,0.104356960446062
0.252769093115797,0.103991749009022
0.254605560887814,0.103646015532527
0.256407434375997,0.103320088795856
0.258174470172749,0.103014297578284
0.259906424870476,0.10272897065909
0.261603055061582,0.10246443681755
0.263264117338472,0.102221024832941
0.26488936829355,0.10199906348454
0.26647856451922,0.101798881551625
0.268031462607888,0.101620807813472
0.269547819151958,0.101465171049359
0.271027390743835,0.101332300038563
0.272469933975922,0.10122252356036
0.273875205440625,0.101136170394029
0.275242961730349,0.101073569318845
0.276572959437497,0.101035049114086
0.277864955154474,0.101020938559029
0.279118705473685,0.101031566432952
0.280333966987535,0.10106726151513
0.281510496288428,0.101128352584842
0.282648049968768,0.101215168421365
0.283746384620961,0.101328037803975
0.284805256837411,0.101467289511949
0.285824423210521,0.101633252324565
0.286803640332698,0.1018262550211
0.287742664796345,0.102046626380831
0.288641253193867,0.102294695183035
0.289499162117669,0.102570790206988
0.290316148160155,0.102875240231969
0.29109196791373,0.103208374037254
0.291826377970798,0.10357052040212
0.292519134923764,0.103962008105845
0.293169995365032,0.104383165927705
0.293778715887007,0.104834322646977
0.294345053082094,0.105315807042939
0.294868763542698,0.105827947894867
0.295349603861221,0.10637107398204
0.295787330630071,0.106945514083733
0.29618170044165,0.107551596979224
0.296532469888364,0.10818965144779
0.296839395562616,0.108860006268708
0.297102234056812,0.109562990221255
0.297320741963357,0.110298932084709
0.297494675874654,0.111068160638345
0.297623792383108,0.111871004661443
0.297707848081124,0.112707792933277
0.297746599561107,0.113578854233126
0.297739803415461,0.114484517340267
0.29768721623659,0.115425111033977
0.2975885946169,0.116400964093532
0.297443695148794,0.11741240529821
0.297252274424677,0.118459763427288
0.297014089036955,0.119543367260044
0.29672889557803,0.120663545575753
0.296396450640309,0.121820627153694
0.296016510816195,0.123014940773143
0.295588832698094,0.124246815213377
0.295113172878409,0.125516579253673
0.294589287949546,0.12682456167331
0.294016934503908,0.128171091251563
0.293395869133901,0.129556496767709
0.292725848431929,0.130981107001027
0.292006628990396,0.132445250730792
0.291237967401707,0.133949256736282
0.290419620258267,0.135493453796774
0.289551344152481,0.137078170691546
0.288632895676752,0.138703736199873
0.287664031423486,0.140370479101034
0.286644507985087,0.142078728174305
0.285574081953959,0.143828812198964
0.284452509922507,0.145621059954287
0.283279548483136,0.147455800219552
0.282054954228251,0.149333361774035
0.280778483750255,0.151254073397015
0.279449893641553,0.153218263867767
0.278068940494551,0.155226261965569
0.276635380901652,0.157278396469698
0.275148971455261,0.159374996159431
0.273609468747783,0.161516389814045
0.272016629371622,0.163702906212818
0.270370209919183,0.165934874135026
0.26866996698287,0.168212622359946
0.266915657155089,0.170536479666856
0.265107037028243,0.172906774835033
0.263243863194737,0.175323836643753
0.261325892246975,0.177787993872294
0.259352880777363,0.180299575299933
0.257324585378305,0.182858909705947
0.255240762642205,0.185466325869612
0.253101169161468,0.188122152570207
0.250905561528498,0.190826718587008
0.248653696335701,0.193580352699293
0.24634533017548,0.196383383686337
0.243980219640241,0.199236140327419
0.241558121322387,0.202138951401816
0.239078791814324,0.205092145688804
0.236541987708456,0.208096051967661
0.233947465597187,0.211150999017663
0.231294982072922,0.214257315618088
0.228584293728066,0.217415330548214
0.225815157155023,0.220625372587316
0.222987328946198,0.223887770514672
0.220100565693996,0.22720285310956
0.21715462399082,0.230570949151256
0.214149260429076,0.233992387419037
0.211084231601168,0.23746749669218
0.2079592940995,0.240996605749963
0.204774204516478,0.244580043371663
0.201528719444505,0.248218138336556
0.198222595475987,0.25191121942392
0.194855589203328,0.255659615413032
0.191427457218933,0.259463655083168
0.187937956115205,0.263323667213607
0.18438684248455,0.267239980583624
0.180773872919372,0.271212923972498
0.177098804012076,0.275242826159505
0.173361392355066,0.279330015923923
0.169561394540748,0.283474822045027
0.165698567161524,0.287677573302097
0.161772666809801,0.291938598474407
0.157783450077983,0.296258226341237
0.153730673558473,0.300636785681862
0.149614093843678,0.30507460527556
0.145433467526,0.309572013901608
0.141188551197846,0.314129340339283
0.136879101451619,0.318746913367861
0.132504874879724,0.323425061766621
0.128065628074566,0.32816411431484
0.123561117628549,0.332964399791793
0.118991100134078,0.337826246976759
0.114355332183557,0.342749984649014
0.109653570369391,0.347735941587836
0.104885571283984,0.352784446572502
0.100051091519742,0.357895828382288
0.0951498876690678,0.363070415796472
0.0901817163243671,0.368308537594331
0.085146334078044,0.373610522555142
0.0800434975225035,0.378976699458181
0.0748729632501496,0.384407397082728
0.0696344878533874,0.389902944208056
0.064327827924621,0.395463669613446
0.0589527400562554,0.401089902078173
0.0535089808406948,0.406781970381514
0.0479963068703441,0.412540203302747
0.0424144747376075,0.418364929621148
0.03676324103489,0.424256478115996
0.0310423623545957,0.430215177566566
0.0252515952891297,0.436241356752135
0.0193906964308961,0.442335344451982
0.0134594223722998,0.448497469445382
0.00745752970574506,0.454728060511614
0.00138477502363686,0.461027446429954
-0.00475908508162078,0.46739595597968
-0.0109742940176227,0.473833917940067
-0.0172610951919648,0.480341661090394
-0.0236197320122421,0.486919514209938
-0.0300504478860506,0.493567806077975
-0.036553486220985,0.500286865473783
-0.0431290904246414,0.507077021176639
-0.0497775039046147,0.513938601965819
-0.0564989700685008,0.520871936620601
-0.0632937323238947,0.527877353920263
-0.0701620340783922,0.53495518264408
-0.0771041187395884,0.542105751571331
-0.0841202297150791,0.549329389481292
-0.0912106104124592,0.55662642515324
-0.0983755042393248,0.563997187366453
-0.105615154603271,0.571442004900207
-0.112929804911893,0.57896120653378
-0.120319698572786,0.586555121046448
-0.127785078993547,0.594224077217489
-0.127785078993547,0.594224077217489
-0.135265658185494,0.601867966458091
-0.142701037665827,0.609386841140828
-0.150091295100959,0.616781271487054
-0.157436508157305,0.624051827718128
-0.164736754501279,0.631199080055405
-0.171992111799294,0.63822359872024
-0.179202657717764,0.64512595393399
-0.186368469923103,0.651906715918012
-0.193489626081725,0.65856645489366
-0.200566203860044,0.665105741082291
-0.207598280924473,0.671525144705262
-0.214585934941427,0.677825235983928
-0.22152924357732,0.684006585139646
-0.228428284498565,0.690069762393771
-0.235283135371576,0.696015337967659
-0.242093873862767,0.701843882082667
-0.248860577638553,0.707555964960151
-0.255583324365346,0.713152156821467
-0.262262191709561,0.71863302788797
-0.268897257337611,0.723999148381018
-0.275488598915912,0.729251088521965
-0.282036294110875,0.734389418532168
-0.288540420588916,0.739414708632984
-0.295001056016448,0.744327529045768
-0.301418278059885,0.749128449991876
-0.307792164385641,0.753818041692665
-0.31412279266013,0.75839687436949
-0.320410240549765,0.762865518243708
-0.326654585720961,0.767224543536674
-0.332855905840132,0.771474520469745
-0.339014278573691,0.775616019264277
-0.345129781588052,0.779649610141625
-0.351202492549629,0.783575863323147
-0.357232489124837,0.787395349030198
-0.363219848980088,0.791108637484133
-0.369164649781797,0.79471629890631
-0.375066969196377,0.798218903518085
-0.380926884890243,0.801617021540812
-0.386744474529809,0.804911223195849
-0.392519815781488,0.808102078704551
-0.398252986311694,0.811190158288275
-0.403944063786841,0.814176032168377
-0.409593125873343,0.817060270566212
-0.415200250237614,0.819843443703137
-0.420765514546067,0.822526121800508
-0.426288996465117,0.825108875079681
-0.431770773661178,0.827592273762012
-0.437210923800663,0.829976888068857
-0.442609524549986,0.832263288221572
-0.447966653575561,0.834452044441513
-0.453282388543802,0.836543726950037
-0.458556807121123,0.838538905968499
-0.463789986973938,0.840438151718256
-0.468982005768661,0.842242034420663
-0.474132941171704,0.843951124297077
-0.479242870849484,0.845565991568854
-0.484311872468413,0.847087206457349
-0.489340023694905,0.848515339183919
-0.494327402195373,0.84985095996992
-0.499274085636233,0.851094639036709
-0.504180151683898,0.85224694660564
-0.509045678004781,0.853308452898071
-0.513870742265297,0.854279728135356
-0.51865542213186,0.855161342538853
-0.523399795270883,0.855953866329918
-0.52810393934878,0.856657869729906
-0.532767932031965,0.857273922960174
-0.537391850986852,0.857802596242077
-0.541975773879855,0.858244459796972
-0.546519778377388,0.858600083846215
-0.551023942145864,0.858870038611161
-0.555488342851698,0.859054894313168
-0.559913058161303,0.859155221173591
-0.564298165741094,0.859171589413785
-0.568643743257484,0.859104569255108
-0.572949868376887,0.858954730918915
-0.577216618765716,0.858722644626563
-0.581444072090387,0.858408880599407
-0.585632306017312,0.858014009058803
-0.589781398212906,0.857538600226108
-0.593891426343582,0.856983224322678
-0.597962468075755,0.856348451569868
-0.601994601075838,0.855634852189036
-0.605987903010245,0.854842996401536
-0.60994245154539,0.853973454428725
-0.613858324347687,0.853026796491959
-0.617735599083549,0.852003592812594
-0.621574353419391,0.850904413611987
-0.625374665021627,0.849729829111492
-0.62913661155667,0.848480409532467
-0.632860270690935,0.847156725096267
-0.636545720090834,0.845759346024249
-0.640193037422783,0.844288842537769
-0.643802300353195,0.842745784858182
-0.647373586548483,0.841130743206845
-0.650906973675062,0.839444287805114
-0.654402539399346,0.837686988874345
-0.657860361387748,0.835859416635893
-0.661280517306682,0.833962141311115
-0.664663084822563,0.831995733121368
-0.668008141601804,0.829960762288007
-0.671315765310819,0.827857799032389
-0.674586033616021,0.825687413575868
-0.677819024183826,0.823450176139802
-0.681014814680646,0.821146656945547
-0.684173482772895,0.818777426214458
-0.687295106126988,0.816343054167891
-0.690379762409338,0.813844111027204
-0.69342752928636,0.811281167013751
-0.696438484424466,0.808654792348889
-0.699412705490072,0.805965557253974
-0.70235027014959,0.803214031950362
-0.705251256069435,0.80040078665941
-0.70811574091602,0.797526391602472
-0.71094380235576,0.794591417000906
-0.713735518055068,0.791596433076067
-0.716490965680359,0.788542010049312
-0.719210222898045,0.785428718141996
-0.721893367374542,0.782257127575475
-0.724540476776262,0.779027808571107
-0.727151628769621,0.775741331350246
-0.72972690102103,0.772398266134249
-0.732266371196905,0.768999183144472
-0.73477011696366,0.765544652602271
-0.737238215987708,0.762035244729002
-0.739670745935463,0.75847152974602
-0.742067784473339,0.754854077874684
-0.744429409267751,0.751183459336347
-0.746755697985111,0.747460244352367
-0.749046728291833,0.743685003144099
-0.751302577854332,0.7398583059329
-0.753523324339022,0.735980722940125
-0.755709045412316,0.732052824387131
-0.757859818740628,0.728075180495274
-0.759975721990372,0.724048361485909
-0.762056832827963,0.719972937580394
-0.764103228919813,0.715849479000084
-0.766114987932337,0.711678555966334
-0.768092187531948,0.707460738700502
-0.770034905385061,0.703196597423943
-0.77194321915809,0.698886702358013
-0.773817206517447,0.694531623724069
-0.775656945129548,0.690131931743465
-0.777462512660806,0.68568819663756
-0.779233986777635,0.681200988627708
-0.780971445146448,0.676670877935266
-0.782674965433661,0.672098434781589
-0.784344625305686,0.667484229388035
-0.785980502428937,0.662828831975958
-0.787582674469829,0.658132812766715
-0.789151219094774,0.653396741981662
-0.790686213970188,0.648621189842156
-0.792187736762484,0.643806726569552
-0.793655865138076,0.638953922385205
-0.795090676763378,0.634063347510474
-0.796492249304803,0.629135572166713
-0.797860660428766,0.624171166575278
-0.79919598780168,0.619170700957526
-0.800498309089959,0.614134745534812
-0.801767701960018,0.609063870528494
-0.803004244078269,0.603958646159926
-0.804208013111128,0.598819642650465
-0.805379086725007,0.593647430221467
-0.806517542586321,0.588442579094288
-0.807623458361483,0.583205659490285
-0.808696911716908,0.577937241630812
-0.809737980319009,0.572637895737226
-0.810746741834201,0.567308192030885
-0.811723273928897,0.561948700733143
-0.81266765426951,0.556559992065356
-0.813579960522456,0.55114263624888
-0.814460270354147,0.545697203505073
-0.815308661430998,0.540224264055289
-0.816125211419422,0.534724388120885
-0.816909997985834,0.529198145923217
-0.817663098796647,0.523646107683641
-0.818384591518275,0.518068843623513
-0.819074553817132,0.512466923964189
-0.819733063359632,0.506840918927025
-0.820360197812189,0.501191398733378
-0.820956034841217,0.495518933604604
-0.821520652113129,0.489824093762057
-0.822054127294339,0.484107449427095
-0.822556538051262,0.478369570821074
-0.823027962050311,0.472611028165349
-0.8234684769579,0.466832391681277
-0.823878160440443,0.461034231590214
-0.824257090164355,0.455217118113516
-0.824605343796047,0.449381621472539
-0.824922999001936,0.443528311888639
-0.825210133448434,0.437657759583172
-0.825466824801955,0.431770534777494
-0.825693150728914,0.425867207692962
-0.825889188895723,0.419948348550931
-0.826055016968798,0.414014527572757
-0.826190712614552,0.408066314979798
-0.826296353499398,0.402104280993407
-0.826372017289751,0.396128995834943
-0.826417781652025,0.39014102972576
-0.826433724252633,0.384140952887215
-0.826419922757989,0.378129335540664
-0.826376454834508,0.372106747907463
-0.826303398148603,0.366073760208967
-0.826200830366687,0.360030942666535
-0.826068829155176,0.35397886550152
-0.825907472180482,0.34791809893528
-0.82571683710902,0.34184921318917
-0.825497001607204,0.335772778484546
-0.825248043341447,0.329689365042765
-0.824970039978163,0.323599543085183
-0.824663069183766,0.317503882833156
-0.82432720862467,0.311402954508039
-0.823962535967289,0.305297328331189
-0.823569128878037,0.299187574523962
-0.823147065023328,0.293074263307714
-0.822696422069575,0.286957964903801
-0.822217277683193,0.280839249533579
-0.821709709530595,0.274718687418405
-0.821173795278195,0.268596848779633
-0.820609612592407,0.262474303838621
-0.820017239139645,0.256351622816725
-0.819396752586323,0.2502293759353
-0.818748230598855,0.244108133415703
-0.818071750843655,0.23798846547929
-0.817367390987136,0.231870942347416
-0.816635228695712,0.225756134241438
-0.815875341635798,0.219644611382712
-0.815087807473806,0.213536943992594
-0.814272703876152,0.20743370229244
-0.813430108509249,0.201335456503607
-0.81256009903951,0.195242776847449
-0.81166275313335,0.189156233545324
-0.810738148457183,0.183076396818588
-0.809786362677422,0.177003836888596
-0.808807473460481,0.170939123976704
-0.807801558472775,0.164882828304269
-0.806768695380717,0.158835520092647
-0.80570896185072,0.152797769563193
-0.8046224355492,0.146770146937264
-0.803509194142569,0.140753222436217
-0.802369315297242,0.134747566281406
-0.801202876679633,0.128753748694188
-0.800009955956154,0.12277233989592
-0.798790630793221,0.116803910107957
-0.797544978857248,0.110849029551655
-0.796273077814647,0.104908268448371
-0.794975005331833,0.0989821970194595
-0.79365083907522,0.0930713854862782
-0.792300656711221,0.0871764040701823
-0.790924535906251,0.0812978229925284
-0.789522554326724,0.075436212474672
-0.788094789639053,0.0695921427379696
-0.786641319509652,0.063766184003777
-0.785162221604935,0.0579589064934508
-0.783657573591316,0.0521708804283462
-0.782127453135209,0.0464026760298202
-0.780571937903028,0.0406548635192282
-0.778991105561186,0.0349280131179268
-0.777385033776098,0.0292226950472714
-0.775753800214177,0.0235394795286189
-0.774097482541837,0.0178789367833246
-0.772416158425493,0.0122416370327453
-0.770709905531557,0.0066281504982364
-0.768978801526445,0.00103904740115457
-0.767222924076569,-0.00452510203714468
-0.765442350848344,-0.0100637275953047
-0.763637159508184,-0.0155762590519699
-0.761807427722502,-0.0210621261857838
-0.759953233157712,-0.0265207587753908
-0.758074653480228,-0.0319515865994342
-0.756171766356465,-0.0373540394365586
-0.754244649452835,-0.0427275470654073
-0.752293380435754,-0.0480715392646248
-0.750318036971634,-0.0533854458128545
-0.748318696726889,-0.0586686964887407
-0.746295437367935,-0.063920721070927
-0.744248336561183,-0.0691409493380577
-0.742177471973049,-0.0743288110687764
-0.740082921269946,-0.0794837360417273
-0.737964762118288,-0.0846051540355539
-0.735823072184489,-0.0896924948289006
-0.733657929134962,-0.094745188200411
-0.731469410636122,-0.0997626639287292
-0.729257594354383,-0.104744351792499
-0.727022557956159,-0.109689681570365
-0.724764379107862,-0.114598083040969
-0.722483135475908,-0.119468985982958
-0.72017890472671,-0.124301820174973
-0.717851764526682,-0.129096015395661
-0.715501792542237,-0.133851001423663
-0.713129066439791,-0.138566208037624
-0.710733663885756,-0.143241065016188
-0.708315662546546,-0.147875002138
-0.705875140088576,-0.152467449181702
-0.703412174178259,-0.157017835925939
-0.700926842482009,-0.161525592149354
-0.698419222666241,-0.165990147630593
-0.695889392397367,-0.170410932148298
-0.693337429341802,-0.174787375481113
-0.690763411165959,-0.179118907407683
-0.688167415536253,-0.183404957706651
-0.685549520119098,-0.187644956156662
-0.682909802580907,-0.191838332536359
-0.680248340588094,-0.195984516624385
-0.677565211807073,-0.200082938199386
-0.674860493904258,-0.204133027040005
-0.672134264546063,-0.208134212924886
-0.669386601398902,-0.212085925632672
-0.666617582129188,-0.215987594942009
-0.663827284403336,-0.219838650631538
-0.661015785887759,-0.223638522479906
-0.658183164248871,-0.227386640265755
-0.655329497153087,-0.231082433767729
-0.652454862266819,-0.234725332764473
-0.649559337256483,-0.23831476703463
-0.646642999788491,-0.241850166356844
-0.643705927529258,-0.245330960509759
-0.640748198145197,-0.248756579272019
-0.637769889302723,-0.252126452422269
-0.634771078668249,-0.255440009739151
-0.63175184390819,-0.25869668100131
-0.628712262688958,-0.261895895987389
-0.625652412676968,-0.265037084476034
-0.622572371538634,-0.268119676245887
-0.61947221694037,-0.271143101075592
-0.61635202654859,-0.274106788743794
-0.613211878029707,-0.277010169029136
-0.610051849050135,-0.279852671710262
-0.606872017276289,-0.282633726565817
-0.603672460374582,-0.285352763374443
-0.600453256011427,-0.288009211914786
-0.59721448185324,-0.290602501965489
-0.593956215566433,-0.293132063305195
-0.590678534817421,-0.295597325712549
-0.587381517272618,-0.297997718966195
-0.584065240598437,-0.300332672844777
-0.580729782461292,-0.302601617126938
-0.577375220527598,-0.304803981591323
-0.574001632463768,-0.306939196016575
-0.570609095936215,-0.309006690181338
-0.567197688611354,-0.311005893864257
-0.5637674881556,-0.312936236843975
-0.560318572235364,-0.314797148899136
-0.556851018517063,-0.316588059808384
-0.553364904667108,-0.318308399350363
-0.549860308351915,-0.319957597303717
-0.546337307237897,-0.321535083447089
-0.542795978991468,-0.323040287559124
-0.539236401279041,-0.324472639418467
-0.535658651767032,-0.325831568803759
-0.532062808121853,-0.327116505493646
-0.528448948009919,-0.328326879266771
-0.524817149097643,-0.329462119901779
-0.52116748905144,-0.330521657177313
-0.517500045537723,-0.331504920872017
-0.513814896222905,-0.332411340764535
-0.510112118773402,-0.333240346633511
-0.506391790855627,-0.33399136825759
-0.502653990135993,-0.334663835415414
-0.498898794280915,-0.335257177885628
-0.495126280956806,-0.335770825446875
-0.491336527830081,-0.3362042078778
-0.487529612567153,-0.336556754957047
-0.483705612834436,-0.336827896463259
-0.479864606298344,-0.337017062175081
-0.476006670625291,-0.337123681871156
-0.47213188348169,-0.337147185330128
-0.468240322533957,-0.337087002330641
-0.464332065448504,-0.33694256265134
-0.460407189891745,-0.336713296070867
-0.456465773530095,-0.336398632367867
-0.452507894029967,-0.335998001320985
-0.448533629057774,-0.335510832708863
-0.444543056279932,-0.334936556310145
-0.440536253362854,-0.334274601903477
-0.436513297972953,-0.333524399267501
-0.432474267776644,-0.332685378180861
-0.428419240440341,-0.331756968422202
-0.424348293630456,-0.330738599770167
-0.420261505013406,-0.3296297020034
-0.416158952255602,-0.328429704900546
-0.412040713023459,-0.327138038240247
-0.407906864983391,-0.325754131801149
-0.403757485801812,-0.324277415361894
-0.399592653145135,-0.322707318701128
-0.395412444679775,-0.321043271597493
-0.391216938072145,-0.319284703829634
-0.38700621098866,-0.317431045176194
-0.382780341095733,-0.315481725415818
-0.378539406059778,-0.313436174327149
-0.374283483547209,-0.311293821688832
-0.37001265122444,-0.30905409727951
-0.365726986757884,-0.306716430877828
-0.361426567813956,-0.304280252262428
-0.35711147205907,-0.301744991211956
-0.352781777159639,-0.299110077505055
-0.348437560782077,-0.296374940920368
-0.344078900592798,-0.293539011236541
-0.339705874258216,-0.290601718232216
