-0.202553995926493,0.931110740005572
-0.135573534079779,0.810474883154647
-0.0769808288492798,0.678293073355238
-0.0290153482661053,0.588913880848975
0.0421228186783669,0.503187046857016
0.049401621762514,0.359928708238733
0.0683436189793437,0.302499774315641
0.0857433338609618,0.218382542900501
0.0696571162752611,0.1517929094896
0.198813074571746,-0.0397754949176825
-0.00873754747467642,0.113662596376837
-0.0209139064579134,0.0235587267134208
-0.0546258589187495,-0.219866856227116
0.150520699462234,-0.0688690858449982
-0.0784969724772115,-0.346191366705803
-0.0945810048825328,-0.379968184940211
-0.0118909896503898,-0.343573570888265
-0.0452715070348568,-0.379724748139007
-0.103485474032036,-0.401510893604685
-0.233285004808369,-0.311389736117999
-0.165736773275418,-0.473672507607103
-0.263031148826123,-0.406816768092301
-0.150636365642668,-0.667231321028912
-0.193939162892206,-0.453143928370778
-0.233454915427925,-0.665448786639713
-0.474426630065626,-0.7019011726984
-0.427198330586556,-0.637460949127532
-0.389987802172537,-0.729853026622399
-0.374774118336137,-0.794658408691981
-0.446913852704064,-0.557858109513602
-0.588280239677782,-0.688651012418621
-0.65271081655018,-0.689649178001417
-0.593626557671113,-0.628006056454873
-0.594095726411722,-0.871987976027027
-0.611300834018294,-0.879219706820152
-0.849486067076632,-0.89375089358822
-0.760649974557366,-0.819944996588839
-0.87098001898631,-0.740431316393142
-0.677297308637081,-0.774121713361915
-0.688266829943295,-0.793810178927412
