-0.14141250821629,-0.566695789367995
-0.140898924126802,-0.566644133110603
-0.140348505283268,-0.566574862510567
-0.139761479900006,-0.566487998554829
-0.139138076191335,-0.566383562230329
-0.138478522371571,-0.566261574524009
-0.137783046655033,-0.566122056422809
-0.13705187725604,-0.565965028913671
-0.136285242388908,-0.565790512983536
-0.135483370267958,-0.565598529619345
-0.134646489107506,-0.565389099808038
-0.133774827121871,-0.565162244536558
-0.13286861252537,-0.564917984791845
-0.131928073532322,-0.564656341560841
-0.130953438357046,-0.564377335830485
-0.129944935213858,-0.56408098858772
-0.128902792317078,-0.563767320819487
-0.127827237881022,-0.563436353512727
-0.126718500120011,-0.56308810765438
-0.12557680724836,-0.562722604231388
-0.124402387480389,-0.562339864230692
-0.123195469030416,-0.561939908639233
-0.121956280112759,-0.561522758443952
-0.120685048941735,-0.561088434631791
-0.119382003731663,-0.56063695818969
-0.118047372696862,-0.56016835010459
-0.116681384051648,-0.559682631363433
-0.115284266010341,-0.559179822953159
-0.113856246787258,-0.55865994586071
-0.112397554596718,-0.558123021073028
-0.110908417653038,-0.557569069577051
-0.109389064170537,-0.556998112359723
-0.107839722363532,-0.556410170407984
-0.106260620446343,-0.555805264708776
-0.104651986633286,-0.555183416249038
-0.10301404913868,-0.554544646015713
-0.101347036176844,-0.553888974995741
-0.0996511759620943,-0.553216424176064
-0.0979266967087503,-0.552527014543622
-0.0961738266311297,-0.551820767085358
-0.0943927939435506,-0.551097702788211
-0.0925838268603312,-0.550357842639123
-0.0907471535957895,-0.549601207625035
-0.0888830023642435,-0.548827818732888
-0.0869916013800116,-0.548037696949624
-0.0850731788574116,-0.547230863262183
-0.0831279630107618,-0.546407338657506
-0.0811561820543801,-0.545567144122535
-0.0791580642025847,-0.544710300644211
-0.0771338376696938,-0.543836829209474
-0.0750837306700254,-0.542946750805266
-0.0730079714178976,-0.542040086418528
-0.0709067881276285,-0.541116857036201
-0.0687804090135362,-0.540177083645226
-0.0666290622899387,-0.539220787232544
-0.0644529761711543,-0.538247988785096
-0.062252378871501,-0.537258709289824
-0.0600274986052969,-0.536252969733669
-0.0577785635868601,-0.535230791103571
-0.0555058020305086,-0.534192194386471
-0.0532094421505607,-0.533137200569312
-0.0508897121613343,-0.532065830639033
-0.0485468402771477,-0.530978105582576
-0.0461810547123188,-0.529874046386882
-0.0437925836811658,-0.528753674038893
-0.0413816553980068,-0.527617009525548
-0.0389484980771598,-0.52646407383379
-0.0364933399329431,-0.525294887950559
-0.0340164091796746,-0.524109472862797
-0.0315179340316725,-0.522907849557445
-0.0289981427032549,-0.521690039021443
-0.0264572634087398,-0.520456062241733
-0.0238955243624454,-0.519205940205256
-0.0213131537786898,-0.517939693898953
-0.0187103798717911,-0.516657344309765
-0.0160874308560673,-0.515358912424633
-0.0134445349458366,-0.514044419230498
-0.0107819203554171,-0.512713885714302
-0.00809981529912674,-0.511367332862985
-0.00539844799128381,-0.510004781663489
-0.00267804664620637,-0.508626253102755
6.11605217875621e-05,-0.507231768167723
0.00281894529837984,-0.505821347845335
0.00559507946925235,-0.504395013122532
0.008389334820087,-0.502952784986255
0.0112014831365657,-0.501494684423446
0.0140312962043704,-0.500020732421044
0.0168785458091829,-0.498530949965992
0.0197430037366852,-0.49702535804523
0.0226244417725591,-0.4955039776457
0.0255226317024866,-0.493966829754343
0.0284373453121495,-0.492413935358099
0.0313683543872298,-0.49084531544391
0.0343154307134094,-0.489260990998716
0.0372783460763701,-0.48766098300946
0.0402568722617939,-0.486045312463082
0.0432507810553627,-0.484414000346523
0.0462598442427583,-0.482767067646724
0.0492838336096628,-0.481104535350627
0.0523225209417578,-0.479426424445172
0.0553756780247255,-0.477732755917301
0.0584430766442476,-0.476023550753955
0.0615244885860062,-0.474298829942074
0.064619685635683,-0.472558614468599
0.0677284395789599,-0.470802925320474
0.070850522201519,-0.469031783484637
0.0739857052890421,-0.46724520994803
0.077133760627211,-0.465443225697594
0.0802944600017077,-0.463625851720271
0.0834675751982141,-0.461793109003001
0.0866528780024121,-0.459945018532725
0.0898501401999836,-0.458081601296385
0.0930591335766105,-0.456202878280922
0.0962796299179747,-0.454308870473277
0.0995114010097581,-0.452399598860391
0.102754218637643,-0.450475084429204
0.10600785458731,-0.448535348166659
0.109272080644442,-0.446580411059696
0.112546668594722,-0.444610294095256
0.115831390223829,-0.442625018260281
0.119126017317448,-0.440624604541711
0.122430321661259,-0.438609073926487
0.125744075040944,-0.436578447401551
0.129067049242186,-0.434532745953844
0.132399016050666,-0.432471990570307
0.135739747252066,-0.430396202237881
0.139089014632068,-0.428305401943507
0.142446589976354,-0.426199610674125
0.145812245070606,-0.424078849416679
0.149185751700506,-0.421943139158107
0.152566881651735,-0.419792500885352
0.155955406709976,-0.417626955585354
0.15935109866091,-0.415446524245055
0.162753729290219,-0.413251227851396
0.166163070383586,-0.411041087391317
0.169578893726692,-0.408816123851761
0.173000971105218,-0.406576358219667
0.176429074304848,-0.404321811481978
0.179862975111263,-0.402052504625633
0.183302445310144,-0.399768458637575
0.186747256687174,-0.397469694504744
0.190197181028035,-0.395156233214082
0.193651990118408,-0.392828095752529
0.197111455743975,-0.390485303107027
0.200575349690419,-0.388127876264517
0.20404344374342,-0.385755836211939
0.207515509688662,-0.383369203936236
0.210991319311826,-0.380968000424347
0.214470644398594,-0.378552246663215
0.217953256734647,-0.37612196363978
0.221438928105668,-0.373677172340983
0.224927430297338,-0.371217893753765
0.22841853509534,-0.368744148865068
0.231912014285356,-0.366255958661833
0.235407639653066,-0.363753344131
0.238905182984154,-0.361236326259512
0.242404416064301,-0.358704926034308
0.245905110679189,-0.35615916444233
0.2494070386145,-0.353599062470519
0.252909971655915,-0.351024641105816
0.256413681589117,-0.348435921335163
0.259917940199788,-0.345832924145499
0.263422519273609,-0.343215670523768
0.266927190596263,-0.340584181456909
0.270431725953431,-0.337938477931863
0.273935897130795,-0.335278580935573
0.277439475914037,-0.332604511454978
0.280942234088839,-0.32991629047702
0.284443943440883,-0.32721393898864
0.287944375755851,-0.324497477976779
0.291443302819424,-0.321766928428378
0.294940496417285,-0.319022311330379
0.298435728335116,-0.316263647669722
0.301928770358598,-0.313490958433349
0.305419394273413,-0.3107042646082
0.308907371865244,-0.307903587181217
0.312392474919771,-0.305088947139341
0.315874475222678,-0.302260365469513
0.319353144559645,-0.299417863158673
0.322828254716356,-0.296561461193764
0.326299577478491,-0.293691180561726
0.329766884631732,-0.2908070422495
0.333229947961762,-0.287909067244027
0.336688539254263,-0.284997276532249
0.340142430294916,-0.282071691101107
0.343591392869403,-0.279132331937541
0.347035198763406,-0.276179220028493
0.350473619762607,-0.273212376360903
0.353906427652688,-0.270231821921714
0.357333394219331,-0.267237577697866
0.360754291248217,-0.264229664676299
0.36416889052503,-0.261208103843956
0.367576963835449,-0.258172916187778
0.370978282965159,-0.255124122694704
0.374372619699839,-0.252061744351677
0.377759745825173,-0.248985802145638
0.381139433126842,-0.245896317063528
0.384511453390528,-0.242793310092287
0.387875578401913,-0.239676802218857
0.391231579946678,-0.236546814430179
0.394579229810507,-0.233403367713194
0.39791829977908,-0.230246483054844
0.401248561638079,-0.227076181442068
0.404569787173188,-0.223892483861809
0.407881748170086,-0.220695411301008
0.411184216414457,-0.217484984746605
0.414476963691982,-0.214261225185541
0.417759761788342,-0.211024153604759
0.421032382489221,-0.207773790991198
0.4242945975803,-0.2045101583318
0.42754617884726,-0.201233276613506
0.430786898075784,-0.197943166823257
0.434016527051554,-0.194639849947995
0.437234837560251,-0.191323346974659
0.440441601387558,-0.187993678890193
0.443636590319155,-0.184650866681535
0.446819576140726,-0.181294931335628
0.449990330637952,-0.177925893839413
0.453148625596515,-0.174543775179831
0.456294232802097,-0.171148596343823
0.459426924040379,-0.167740378318329
0.462546471097045,-0.164319142090292
0.465652645757774,-0.160884908646652
0.468745219808251,-0.157437698974349
0.471823965034155,-0.153977534060327
0.47488865322117,-0.150504434891525
0.477939056154977,-0.147018422454884
0.480974945621259,-0.143519517737346
0.483996093405696,-0.140007741725852
0.487002271293971,-0.136483115407342
0.489993251071766,-0.132945659768759
0.492968804524762,-0.129395395797042
0.495928703438642,-0.125832344479134
0.498872719599088,-0.122256526801975
0.501800624791781,-0.118667963752506
0.504712190802404,-0.115066676317668
0.507607189416637,-0.111452685484404
0.510485392420164,-0.107826012239652
0.513346571598665,-0.104186677570355
0.516190498737824,-0.100534702463454
0.519016945623321,-0.0968701079058905
0.521825684040839,-0.0931929148846043
0.52461648577606,-0.0895031443865373
0.527389122614665,-0.0858008173986304
0.530143366342337,-0.0820859549078248
0.532878988744757,-0.0783585779010615
0.535595761607607,-0.0746187073652817
0.538293456716569,-0.0708663642874263
0.540971845857325,-0.0671015696544368
0.543630700815557,-0.0633243444532537
0.546269793376947,-0.0595347096708187
0.548888895327177,-0.0557326862940724
0.551487778451928,-0.0519182953099563
0.554066214536883,-0.0480915577054112
0.556623975367723,-0.0442524944673784
0.559160832730131,-0.0404011265827987
0.561676558409788,-0.0365374750386136
0.564170924192376,-0.0326615608217639
0.566643701863577,-0.0287734049191909
0.569094663209073,-0.0248730283178354
0.571523580014546,-0.0209604520046388
0.573930224065677,-0.0170356969665419
0.576314367148149,-0.0130987841904862
0.578675781047644,-0.00914973466341237
0.581014237549843,-0.00518856937226185
0.583329508440429,-0.00121530930397538
0.585621365505082,0.00277002455450552
0.587889580529486,0.00676741121624021
0.590133925299322,0.0107768296942872
0.592354171600272,0.0147982590017056
0.594550091218018,0.0188316781515542
0.596721455938241,0.0228770661568922
0.598868037546624,0.026934402030778
0.600989607828849,0.0310036647862711
0.603085938570597,0.0350848334364298
0.605156801557551,0.0391778869943136
0.607201968575392,0.0432828044729808
0.609221211409802,0.0473995648854908
0.611214301846463,0.0515281472449022
0.613181011671057,0.0556685305642742
0.615121112669266,0.0598206938566653
0.617034376626771,0.0639846161351348
0.618920575329255,0.0681602764127413
0.620779480562401,0.072347653702544
0.622610864111888,0.0765467270176015
0.6244144977634,0.080757475370973
0.626190153302618,0.0849798777757171
0.627937602515224,0.089213913244893
0.6296566171869,0.0934595607915592
0.631346969103328,0.0977167994287752
0.633008430050191,0.101985608169599
0.634640771813169,0.106265966027091
0.636243766177944,0.110557852014309
0.637817184930199,0.114861245144311
0.639360799855616,0.119176124430158
0.640874382739876,0.123502468884908
0.642357705368662,0.127840257521619
0.643810539527654,0.132189469353352
0.645232657002536,0.136550083393163
0.646623829578989,0.140922078654114
0.647983829042694,0.145305434149261
0.649312427179335,0.149700128891665
0.650609395774592,0.154106141894385
0.651874506614148,0.158523452170478
0.653107531483684,0.162952038733005
0.654308242168883,0.167391880595023
0.655476410455425,0.171842956769592
0.656611808128995,0.176305246269772
0.657714206975272,0.180778728108619
0.658783378779939,0.185263381299195
0.659819095328679,0.189759184854556
0.660821128407172,0.194266117787763
0.6617892498011,0.198784159111875
0.662723231296147,0.203313287839949
0.663622844677993,0.207853482985046
0.66448786173232,0.212404723560224
0.665318054244811,0.216966988578541
0.666113194001147,0.221540257053058
0.66687305278701,0.226124507996832
0.667597402388082,0.230719720422923
0.668286014590045,0.235325873344389
0.668938661178581,0.23994294577429
0.669555113939372,0.244570916725683
0.670135144658099,0.24920976521163
0.670678525120444,0.253859470245187
0.671185027112091,0.258520010839415
0.671654422418719,0.263191366007371
0.672086482826012,0.267873514762115
0.672480980119651,0.272566436116706
0.672837686085318,0.277270109084203
0.673156372508695,0.281984512677664
0.673436811175464,0.286709625910149
0.673678773871306,0.291445427794716
0.673882032381905,0.296191897344424
0.67404635849294,0.300949013572333
0.674171523990096,0.305716755491501
0.674257300659052,0.310495102114986
0.674303460285492,0.315284032455849
0.674309774655097,0.320083525527147
0.674276015553549,0.32489356034194
0.67420195476653,0.329714115913287
0.674087364079722,0.334545171254246
0.673932015278807,0.339386705377877
0.673735680149467,0.344238697297238
0.673498130477383,0.349101126025388
0.673219138048237,0.353973970575387
0.672898474647712,0.358857209960292
0.672535912061489,0.363750823193164
0.67213122207525,0.36865478928706
0.671684176474678,0.37356908725504
0.671194547045453,0.378493696110163
0.670662105573258,0.383428594865487
0.670086623843775,0.388373762534072
0.669467873642686,0.393329178128976
0.668805626755672,0.398294820663258
0.668099654968416,0.403270669149978
0.667349730066599,0.408256702602194
0.666555623835904,0.413252900032965
0.665717108062012,0.418259240455349
0.664833954530604,0.423275702882407
0.663905935027364,0.428302266327196
0.662932821337973,0.433338909802776
0.661914385248112,0.438385612322205
0.660850398543465,0.443442352898543
0.659740633009712,0.448509110544848
0.658584860432535,0.453585864274179
0.657382852597617,0.458672593099596
0.656134381290639,0.463769276034156
0.654839218297283,0.46887589209092
0.653497135403231,0.473992420282945
0.652107904394166,0.479118839623291
0.650671297055768,0.484255129125017
0.64918708517372,0.489401267801182
0.647655040533704,0.494557234664844
0.646074934921401,0.499723008729062
0.644446540122494,0.504898569006896
0.642769627922665,0.510083894511403
0.641043970107595,0.515278964255644
0.639269338462966,0.520483757252677
0.63744550477446,0.525698252515561
0.635572240827759,0.530922429057354
0.633649318408545,0.536156265891117
0.6316765093025,0.541399742029907
0.629653585295306,0.546652836486784
0.627580318172644,0.551915528274805
0.625456479720197,0.557187796407032
0.623281841723646,0.562469619896521
0.621056175968674,0.567760977756333
0.618779254240962,0.573061848999526
0.616450848326192,0.578372212639158
0.614070730010046,0.58369204768829
0.611638671078206,0.589021333159979
0.609154443316354,0.594360048067285
0.606617818510172,0.599708171423267
0.604028568445341,0.605065682240983
0.601386464907544,0.610432559533493
0.598691279682462,0.615808782313854
0.595942784555778,0.621194329595127
0.593140751313173,0.62658918039037
0.590284951740329,0.631993313712643
0.590284951740329,0.631993313712643
0.587416444747564,0.637351150071182
0.584576295130489,0.642607400538626
0.581764283502727,0.647762479973128
0.578980190477904,0.652816803232844
0.576223796669641,0.657770785175929
0.573494882691563,0.662624840660538
0.570793229157294,0.667379384544826
0.568118616680456,0.672034831686949
0.565470825874675,0.676591596945061
0.562849637353572,0.681050095177317
0.560254831730772,0.685410741241872
0.557686189619899,0.689673949996883
0.555143491634576,0.693840136300503
0.552626518388426,0.697909715010888
0.550135050495074,0.701883100986192
0.547668868568143,0.705760709084572
0.545227753221257,0.709542954164182
0.542811485068038,0.713230251083176
0.540419844722112,0.716823014699711
0.538052612797101,0.720321659871942
0.535709569906629,0.723726601458023
0.53339049666432,0.727038254316109
0.531095173683797,0.730257033304356
0.528823381578684,0.733383353280919
0.526574900962605,0.736417629103952
0.524349512449182,0.739360275631612
0.522146996652041,0.742211707722052
0.519967134184804,0.744972340233429
0.517809705661095,0.747642588023896
0.515674491694538,0.75022286595161
0.513561272898756,0.752713588874725
0.511469829887373,0.755115171651397
0.509399943274012,0.75742802913978
0.507351393672298,0.75965257619803
0.505323961695853,0.761789227684301
0.503317427958302,0.763838398456749
0.501331573073268,0.76580050337353
0.499366177654374,0.767675957292796
0.497421022315245,0.769465175072706
0.495495887669504,0.771168571571412
0.493590554330774,0.772786561647071
0.491704802912679,0.774319560157837
0.489838414028843,0.775767981961865
0.487991168292889,0.777132241917311
0.486162846318442,0.77841275488233
0.484353228719124,0.779609935715076
0.482562096108559,0.780724199273705
0.480789229100371,0.781755960416372
0.479034408308184,0.782705634001232
0.47729741434562,0.78357363488644
0.475578027826305,0.784360377930151
0.473876029363861,0.785066277990521
0.472191199571911,0.785691749925704
0.470523319064081,0.786237208593855
0.468872168453992,0.78670306885313
0.467237528355269,0.787089745561684
0.465619179381536,0.787397653577671
0.464016902146416,0.787627207759247
0.462430477263532,0.787778822964567
0.46085968534651,0.787852914051786
0.45930430700897,0.787849895879059
0.457764122864539,0.787770183304541
0.456238913526838,0.787614191186388
0.454728459609493,0.787382334382754
0.453232541726125,0.787075027751794
0.45175094049036,0.786692686151664
0.450283436515821,0.786235724440519
0.44882981041613,0.785704557476513
0.447389842804913,0.785099600117803
0.445963314295792,0.784421267222541
0.444550005502392,0.783669973648885
0.443149697038335,0.78284613425499
0.441762169517245,0.781950163899009
0.440387203552747,0.780982477439099
0.439024579758463,0.779943489733413
0.437674078748018,0.778833615640109
0.436335481135034,0.77765327001734
0.435008567533136,0.776402867723262
0.433693118555947,0.775082823616029
0.43238891481709,0.773693552553798
0.431095736930191,0.772235469394722
0.429813365508871,0.770708988996957
0.428541581166754,0.769114526218658
0.427280164517465,0.767452495917981
0.426028896174627,0.76572331295308
0.424787556751863,0.76392739218211
0.423555926862798,0.762065148463226
0.422333787121054,0.760136996654585
0.421120918140255,0.75814335161434
0.419917100534025,0.756084628200646
0.418722114915988,0.75396124127166
0.417535741899767,0.751773605685535
0.416357762098987,0.749522136300428
0.415187956127269,0.747207247974492
0.414026104598238,0.744829355565884
0.412871988125519,0.742388873932758
0.411725387322733,0.73988621793327
0.410586082803506,0.737321802425574
0.409453855181459,0.734696042267825
0.408328485070219,0.732009352318179
0.407209753083407,0.729262147434791
0.406097439834647,0.726454842475816
0.404991325937563,0.723587852299409
0.40389119200578,0.720661591763725
0.402796818652919,0.717676475726919
0.401707986492605,0.714632919047146
0.400624476138462,0.711531336582561
0.399546068204113,0.70837214319132
0.398472543303182,0.705155753731578
0.397403682049292,0.701882583061488
0.396339265056067,0.698553046039208
0.395279072937131,0.695167557522891
0.394222886306107,0.691726532370694
0.393170485776619,0.68823038544077
0.39212165196229,0.684679531591275
0.391076165476745,0.681074385680364
0.390033806933606,0.677415362566193
0.388994356946497,0.673702877106916
0.387957596129043,0.669937344160688
0.386923305094866,0.666119178585665
0.385891264457591,0.662248795240002
0.38486125483084,0.658326608981852
0.383833056828238,0.654353034669373
0.382806451063408,0.650328487160719
0.381781218149973,0.646253381314045
0.380757138701558,0.642128131987506
0.379733993331786,0.637953154039256
0.37871156265428,0.633728862327453
0.377689627282665,0.629455671710249
0.376667967830564,0.625133997045801
0.375646364911599,0.620764253192263
0.374624599139396,0.616346855007791
0.373602451127578,0.61188221735054
0.372579701489768,0.607370755078664
0.37155613083959,0.602812883050319
0.370531519790668,0.598209016123661
0.369505648956624,0.593559569156843
0.368478298951084,0.588864957008022
0.367449250387669,0.584125594535351
0.366418283880005,0.579341896596988
0.365385180041715,0.574514278051085
0.364349719486422,0.569643153755799
0.363311682827749,0.564728938569285
0.362270850679322,0.559772047349697
0.361227003654762,0.554772894955191
0.360179922367694,0.549731896243922
0.359129387431742,0.544649466074045
0.358075179460528,0.539526019303715
0.357017079067678,0.534361970791088
0.355954866866813,0.529157735394317
0.354888323471558,0.523913727971559
0.353817229495537,0.518630363380968
0.352741365552373,0.5133080564807
0.35166051225569,0.507947222128909
0.35057445021911,0.502548275183751
0.34948296005626,0.497111630503381
0.34838582238076,0.491637702945954
0.347282817806236,0.486126907369625
0.346173726946311,0.480579658632548
0.345058330414608,0.47499637159288
0.343936408824751,0.469377461108776
0.342807742790364,0.463723342038389
0.34167211292507,0.458034429239876
0.340529299842494,0.452311137571392
0.339379084156258,0.446553881891091
0.338221246479985,0.440763077057129
0.337055567427301,0.434939137927661
0.335881827611828,0.429082479360842
0.334699807647191,0.423193516214826
0.333509288147012,0.41727266334777
0.332310049724915,0.411320335617828
0.331101872994524,0.405336947883155
0.329884538569463,0.399322915001907
0.328657827063355,0.393278651832237
0.327421519089824,0.387204573232303
0.326175395262493,0.381101094060258
0.324919236194986,0.374968629174258
0.323652822500927,0.368807593432458
0.322375934793939,0.362618401693012
0.321088353687646,0.356401468814077
0.319789859795672,0.350157209653807
0.318480233731639,0.343886039070356
0.317159256109173,0.337588371921881
0.315826707541896,0.331264623066537
0.314482368643431,0.324915207362478
0.313126020027404,0.31854053966786
0.311757442307436,0.312141034840837
0.310376416097153,0.305717107739565
0.308982722010177,0.299269173222199
0.307576140660132,0.292797646146893
0.306156452660642,0.286302941371804
0.30472343862533,0.279785473755086
0.303276879167821,0.273245658154894
0.301816554901737,0.266683909429383
0.300342246440702,0.260100642436708
0.29885373439834,0.253496272035025
0.297350799388274,0.246871213082489
0.295833222024128,0.240225880437254
0.294300782919526,0.233560688957476
0.292753262688092,0.22687605350131
0.291190441943448,0.220172388926911
0.289612101299219,0.213450110092434
0.288018021369029,0.206709631856033
0.2864079827665,0.199951369075866
0.284781766105256,0.193175736610085
0.283139151998922,0.186383149316847
0.28147992106112,0.179574022054306
0.279803853905474,0.172748769680618
0.278110731145609,0.165907807053937
0.276400333395147,0.15905154903242
0.274672441267712,0.15218041047422
0.272926835376928,0.145294806237493
0.271163296336418,0.138395151180394
0.269381604759806,0.131481860161078
0.267581541260716,0.1245553480377
0.265762886452772,0.117616029668416
0.263925420949596,0.11066431991138
0.262068925364812,0.103700633624748
0.260193180312045,0.0967253856666735
0.258297966404918,0.0897389908953135
0.256383064257054,0.0827418641688218
0.254448254482077,0.0757344203453543
0.25249331769361,0.0687170742830655
0.250518034505278,0.061690240840111
0.248522185530704,0.0546543348746453
0.246505551383511,0.0476097712448242
0.244467912677323,0.0405569648088021
0.242409050025764,0.0334963304247346
0.240328744042458,0.0264282829507764
0.238226775341027,0.019353237245083
0.236102924535096,0.0122716081658091
0.233956972238288,0.00518381057111006
0.231788699064227,-0.00190974068085931
0.229597885626536,-0.00900863073194341
0.22738431253884,-0.0161124447239878
0.225147760414761,-0.0232207677988368
0.222888009867924,-0.0303331850983357
0.220604841511951,-0.0374492817643291
0.218298035960467,-0.0445686429386624
0.215967373827096,-0.0516908537631799
0.21361263572546,-0.0588154993797271
0.211233602269183,-0.0659421649301484
0.20883005407189,-0.0730704355562892
0.206401771747203,-0.0801998963999937
0.203948535908746,-0.0873301326031076
0.201470127170144,-0.0944607293074751
0.198966326145019,-0.101591271654942
0.196436913446995,-0.108721344787352
0.193881669689696,-0.115850533846551
0.191300375486745,-0.122978423974384
0.188692811451767,-0.130104600312695
0.186058758198384,-0.137228648003329
0.18339799634022,-0.144350152188132
0.180710306490899,-0.151468698008948
0.177995469264045,-0.158583870607622
0.17525326527328,-0.165695255126
0.17248347513223,-0.172802436705925
0.169685879454517,-0.179905000489243
0.166860258853765,-0.187002531617798
0.164006393943597,-0.194094615233437
0.161124065337638,-0.201180836478003
0.158213053649511,-0.208260780493341
0.155273139492839,-0.215334032421297
0.152304103481246,-0.222400177403715
0.149305726228356,-0.229458800582441
0.146277788347792,-0.236509487099318
0.143220070453179,-0.243551822096193
0.140132353158139,-0.250585390714909
0.137014417076296,-0.257609778097312
0.133866042821274,-0.264624569385247
0.130687011006696,-0.271629349720559
0.127477102246186,-0.278623704245092
0.124236097153368,-0.285607218100692
0.120963776341866,-0.292579476429203
0.117659920425302,-0.299540064372471
0.114324310017301,-0.306488567072339
0.110956725731486,-0.313424569670654
0.107556948181481,-0.32034765730926
0.10412475798091,-0.327257415130001
0.100659935743395,-0.334153428274724
0.0971622620825614,-0.341035281885272
0.0936315176120319,-0.347902561103491
0.0900674829454301,-0.354754851071225
0.08646993869638,-0.36159173693032
0.0828386654785049,-0.368412803822621
0.0791734439054288,-0.375217636889971
0.0754740545907749,-0.382005821274217
0.0717402781481671,-0.388776942117203
0.067971895191229,-0.395530584560774
0.0641686863335841,-0.402266333746774
0.0603304321888561,-0.40898377481705
0.0564569133706687,-0.415682492913445
0.0525479104926452,-0.422362073177805
0.0486032041684097,-0.429022100751975
0.0446225750115853,-0.435662160777799
0.0406058036357962,-0.442281838397122
0.0365526706546654,-0.44888071875179
0.0324629566818171,-0.455458386983647
0.0283364423308745,-0.462014428234538
0.0241729082154615,-0.468548427646307
0.0199721349492015,-0.475059970360801
0.0157339031457183,-0.481548641519864
0.0114579934186354,-0.488014026265341
0.0071441863815765,-0.494455709739075
0.00279226264816505,-0.500873277082914
-0.00159799716797494,-0.507266313438701
-0.00602681245322034,-0.513634403948281
-0.0104944025939471,-0.5199771337535
-0.015000986976532,-0.526294087996202
-0.019546784987351,-0.532584851818232
-0.0241320160127809,-0.538849010361435
-0.0287568994391976,-0.545086148767655
-0.0334216546529779,-0.551295852178739
-0.038126501040498,-0.55747770573653
-0.0428716579881344,-0.563631294582874
-0.0476573448822631,-0.569756203859615
-0.0524837811092611,-0.5758520187086
-0.0573511860555041,-0.581918324271671
-0.0622597791073691,-0.587954705690674
-0.0672097796512319,-0.593960748107455
-0.0722014070734694,-0.599936036663858
-0.0772348807604577,-0.605880156501727
-0.0823104200985732,-0.611792692762909
-0.0874282444741922,-0.617673230589248
-0.0925885732736914,-0.623521355122588
-0.0977916258834468,-0.629336651504775
-0.103037621689835,-0.635118704877653
-0.108326780079232,-0.640867100383067
-0.113659320438015,-0.646581423162864
-0.11903546215256,-0.652261258358886
-0.124455424609243,-0.657906191112979
-0.12991942719444,-0.663515806566989
-0.135427689294529,-0.66908968986276
-0.140980430295885,-0.674627426142136
-0.146577869584885,-0.680128600546963
-0.152220226547904,-0.685592798219086
-0.157907720571321,-0.691019604300349
-0.16364057104151,-0.696408603932599
-0.169418997344849,-0.701759382257678
-0.175243218867713,-0.707071524417433
-0.181113454996479,-0.712344615553708
-0.187029925117524,-0.717578240808348
-0.192992848617224,-0.722771985323198
-0.199002444881954,-0.727925434240103
-0.205058933298092,-0.733038172700909
-0.211162533252014,-0.738109785847458
-0.217313464130097,-0.743139858821598
-0.223511945318716,-0.748127976765172
-0.229758196204248,-0.753073724820026
-0.23605243617307,-0.757976688128004
-0.242394884611558,-0.762836451830951
-0.248785760906087,-0.767652601070713
-0.255225284443036,-0.772424720989134
-0.261713674608779,-0.777152396728059
-0.268251150789693,-0.781835213429332
-0.274837932372155,-0.7864727562348
-0.281474238742542,-0.791064610286306
-0.288160289287229,-0.795610360725697
-0.294896303392593,-0.800109592694815
-0.301682500445009,-0.804561891335508
-0.308519099830856,-0.808966841789619
-0.315406320936508,-0.813324029198992
-0.322344383148344,-0.817633038705474
-0.329333505852737,-0.82189345545091
-0.336373908436066,-0.826104864577143
-0.343465810284706,-0.830266851226019
-0.350609430785034,-0.834379000539384
-0.357804989323427,-0.83844089765908
-0.36505270528626,-0.842452127726955
-0.37235279805991,-0.846412275884852
-0.379705487030753,-0.850320927274617
-0.387110991585166,-0.854177667038094
-0.394569531109526,-0.857982080317129
-0.402081324990208,-0.861733752253565
-0.409646592613588,-0.865432267989249
-0.417265553366044,-0.869077212666025
-0.424938426633952,-0.872668171425737
-0.432665431803688,-0.876204729410232
-0.440446788261628,-0.879686471761354
-0.448282715394149,-0.883112983620946
-0.456173432587628,-0.886483850130856
-0.464119159228439,-0.889798656432927
-0.472120114702961,-0.893056987669004
-0.480176518397569,-0.896258428980933
-0.48828858969864,-0.899402565510558
-0.496456547992549,-0.902488982399724
-0.504680612665675,-0.905517264790276
-0.512961003104392,-0.90848699782406
-0.521297938695077,-0.911397766642918
-0.529691638824107,-0.914249156388698
-0.538142322877857,-0.917040752203243
-0.546650210242705,-0.919772139228399
-0.555215520305028,-0.922442902606011
-0.563838472451199,-0.925052627477922
-0.572519286067598,-0.927600898985979
-0.581258180540599,-0.930087302272027
-0.59005537525658,-0.932511422477909
-0.598911089601916,-0.934872844745471
-0.607825542962984,-0.937171154216559
