-0.46338162935603,0.831224881644834
-0.463925934966381,0.820582850564933
-0.464434068004511,0.810021068642062
-0.464906218456574,0.799539201874082
-0.465342576308724,0.789136916258852
-0.465743331547116,0.778813877794231
-0.466108674157902,0.76856975247808
-0.466438794127236,0.758404206308257
-0.466733881441274,0.748316905282624
-0.466994126086168,0.73830751539904
-0.467219718048072,0.728375702655363
-0.46741084731314,0.718521133049455
-0.467567703867527,0.708743472579174
-0.467690477697385,0.699042387242382
-0.467779358788869,0.689417543036936
-0.467834537128132,0.679868605960698
-0.467856202701329,0.670395242011526
-0.467844545494614,0.660997117187281
-0.467799755494139,0.651673897485822
-0.467722022686059,0.642425248905009
-0.467611537056529,0.633250837442702
-0.467468488591701,0.624150329096761
-0.467293067277729,0.615123389865045
-0.467085463100768,0.606169685745413
-0.466845866046972,0.597288882735727
-0.466574466102493,0.588480646833845
-0.466271453253487,0.579744644037627
-0.465937017486106,0.571080540344933
-0.465571348786505,0.562488001753623
-0.465174637140838,0.553966694261556
-0.464747072535258,0.545516283866592
-0.464288844955919,0.537136436566592
-0.463800144388976,0.528826818359414
-0.463281160820582,0.520587095242918
-0.46273208423689,0.512416933214965
-0.462153104624055,0.504315998273413
-0.461544411968231,0.496283956416123
-0.460906196255571,0.488320473640954
-0.46023864747223,0.480425215945767
-0.459541955604361,0.47259784932842
-0.458816310638117,0.464838039786774
-0.458061902559654,0.457145453318688
-0.457278921355124,0.449519755922022
-0.456467557010682,0.441960613594636
-0.455627999512482,0.43446769233439
-0.454760438846676,0.427040658139143
-0.45386506499942,0.419679177006755
-0.452942067956867,0.412382914935085
-0.451991637705171,0.405151537921995
-0.451013964230486,0.397984711965342
-0.450009237518965,0.390882103062987
-0.448977647556762,0.38384337721279
-0.447919384330032,0.376868200412611
-0.446834637824928,0.369956238660309
-0.445723598027604,0.363107157953744
-0.444586454924214,0.356320624290775
-0.443423398500912,0.349596303669263
-0.442234618743851,0.342933862087067
-0.441020305639186,0.336332965542047
-0.43978064917307,0.329793280032063
-0.438515839331657,0.323314471554974
-0.437226066101102,0.31689620610864
-0.435911519467557,0.310538149690921
-0.434572389417177,0.304239968299676
-0.433208865936115,0.298001327932766
-0.431821139010526,0.291821894588051
-0.430409398626564,0.285701334263389
-0.428973834770381,0.27963931295664
-0.427514637428133,0.273635496665665
-0.426031996585972,0.267689551388323
-0.424526102230053,0.261801143122473
-0.42299714434653,0.255969937865977
-0.421445312921556,0.250195601616692
-0.419870797941286,0.24447780037248
-0.418273789391873,0.238816200131199
-0.41665447725947,0.23321046689071
-0.415013051530233,0.227660266648872
-0.413349702190315,0.222165265403545
-0.411664619225869,0.216725129152589
-0.409957992623049,0.211339523893863
-0.40823001236801,0.206008115625228
-0.406480868446905,0.200730570344542
-0.404710750845888,0.195506554049666
-0.402919849551113,0.190335732738459
-0.401108354548734,0.185217772408782
-0.399276455824904,0.180152339058494
-0.397424343365778,0.175139098685454
-0.395552207157509,0.170177717287523
-0.393660237186252,0.165267860862559
-0.391748623438159,0.160409195408424
-0.389817555899385,0.155601386922976
-0.387867224556084,0.150844101404076
-0.38589781939441,0.146137004849583
-0.383909530400516,0.141479763257356
-0.381902547560557,0.136872042625256
-0.379877060860685,0.132313508951143
-0.377833260287056,0.127803828232875
-0.375771335825823,0.123342666468314
-0.373691477463139,0.118929689655318
-0.371593875185159,0.114564563791747
-0.369478718978037,0.110246954875461
-0.367346198827925,0.10597652890432
-0.365196504720979,0.101752951876183
-0.363029826643352,0.0975758897889109
-0.360846354581198,0.0934450086403627
-0.358646278520671,0.0893599744283981
-0.356429788447925,0.0853204531508769
-0.354197074349113,0.0813261108056589
-0.351948326210389,0.077376613390604
-0.349683734017907,0.0734716269035718
-0.347403487757822,0.0696108173424219
-0.345107777416286,0.0657938507050141
-0.342796792979454,0.0620203929892084
-0.34047072443348,0.0582901101928642
-0.338129761764517,0.0546026683138415
-0.33577409495872,0.0509577333499999
-0.333403914002242,0.0473549712991992
-0.331019408881237,0.043794048159299
-0.328620769581858,0.0402746299281593
-0.326208186090261,0.0367963826036395
-0.323781848392598,0.0333589721835998
-0.321341946475024,0.0299620646658995
-0.318888670323692,0.0266053260483986
-0.316422209924756,0.0232884223289567
-0.31394275526437,0.0200110195054336
-0.311450496328689,0.0167727835756891
-0.308945623103865,0.0135733805375828
-0.306428325576052,0.0104124763889746
-0.303898793731406,0.00728973712772404
-0.301357217556078,0.00420482875169119
-0.298803787036224,0.0011574172587354
-0.296238692157996,-0.00185283135328336
-0.29366212290755,-0.00482625108650533
-0.291074269271039,-0.00776317594307083
-0.288475321234616,-0.0106639399251202
-0.285865468784435,-0.0135288770347937
-0.283244901906652,-0.0163583212742313
-0.280613810587418,-0.0191526066455736
-0.277972384812888,-0.0219120671509607
-0.275320814569216,-0.0246370367925329
-0.272659289842556,-0.0273278495724305
-0.269988000619062,-0.0299848394927936
-0.267307136884887,-0.0326083405557627
-0.264616888626185,-0.0351986867634779
-0.261917445829111,-0.0377562121180794
-0.259208998479818,-0.0402812506217076
-0.25649173656446,-0.0427741362765027
-0.25376585006919,-0.0452352030846049
-0.251031528980163,-0.0476647850481546
-0.248288963283533,-0.050063216169292
-0.245538342965453,-0.0524308304501573
-0.242779858012077,-0.0547679618928908
-0.24001369840956,-0.0570749444996328
-0.237240054144054,-0.0593521122725234
-0.234459115201714,-0.0615997992137031
-0.231671071568693,-0.063818339325312
-0.228876113231147,-0.0660080666094904
-0.226074430175227,-0.0681693150683786
-0.223266212387089,-0.0703024187041168
-0.220451649852886,-0.0724077115188452
-0.217630932558772,-0.0744855275147042
-0.214804250490901,-0.076536200693834
-0.211971793635426,-0.0785600650583748
-0.209133751978501,-0.080557454610467
-0.206290315506282,-0.0825287033522507
-0.20344167420492,-0.0844741452858662
-0.200588018060571,-0.0863941144134539
-0.197729537059387,-0.0882889447371539
-0.194866421187523,-0.0901589702591065
-0.191998860431133,-0.092004524981452
-0.18912704477637,-0.0938259429063306
-0.186251164209389,-0.0956235580358826
-0.183371408716343,-0.0973977043722482
-0.180487968283386,-0.0991487159175678
-0.177601032896672,-0.100876926673981
-0.174710792542355,-0.10258267064363
-0.171817437206589,-0.104266281828652
-0.168921156875527,-0.10592809423119
-0.166022141535323,-0.107568441853383
-0.163120581172132,-0.109187658697372
-0.160216665772106,-0.110786078765296
-0.157310585321401,-0.112364036059296
-0.15440252980617,-0.113921864581512
-0.151492689212566,-0.115459898334085
-0.148581253526743,-0.116978471319155
-0.145668412734857,-0.118477917538861
-0.142754356823059,-0.119958570995345
-0.139839275777504,-0.121420765690747
-0.136923359584346,-0.122864835627206
-0.13400679822974,-0.124291114806863
-0.131089781699838,-0.125699937231859
-0.128172499980794,-0.127091636904333
-0.125255143058763,-0.128466547826426
-0.122337900919898,-0.129825004000278
-0.119420963550353,-0.13116733942803
-0.116504520936282,-0.132493888111821
-0.113588763063838,-0.133804984053792
-0.110673879919177,-0.135100961256083
-0.107760061488451,-0.136382153720834
-0.104847497757814,-0.137648895450186
-0.101936378713421,-0.138901520446279
-0.0990268943414249,-0.140140362711254
-0.0961192346279797,-0.141365756247249
-0.0932135895592393,-0.142578035056407
-0.0903101491213576,-0.143777533140866
-0.0874091033004883,-0.144964584502767
-0.0845106420827856,-0.146139523144251
-0.0816149554544029,-0.147302683067458
-0.0787222334014945,-0.148454398274527
-0.075832665910214,-0.1495950027676
-0.0729464429667153,-0.150724830548817
-0.0700637545571523,-0.151844215620317
-0.0671847906676789,-0.152953491984241
-0.0643097412844487,-0.154052993642729
-0.061438796393616,-0.155143054597922
-0.0585721459813342,-0.15622400885196
-0.0557099800337575,-0.157296190406983
-0.0528524885370396,-0.158359933265131
-0.0499998614773344,-0.159415571428544
-0.0471522888407957,-0.160463438899364
-0.0443099606135774,-0.16150386967973
-0.0414730667818333,-0.162537197771782
-0.0386417973317175,-0.16356375717766
-0.0358163422493835,-0.164583881899506
-0.0329968915209854,-0.165597905939458
-0.030183635132677,-0.166606163299658
-0.0273767630706122,-0.167608987982246
-0.0245764653209446,-0.168606713989361
-0.0217829318698285,-0.169599675323145
-0.0189963527034173,-0.170588205985737
-0.0162169178078652,-0.171572639979278
-0.0134448171693259,-0.172553311305908
-0.0106802407739533,-0.173530553967767
-0.00792337860790127,-0.174504701966995
-0.00517442065732368,-0.175476089305733
-0.00243355690837421,-0.176445049986121
0.000299022652792982,-0.1774119180103
0.0030231280400243,-0.178377027380409
0.00573856926716566,-0.179340712098588
0.00844515634806349,-0.180303306166979
0.0111426992965636,-0.181265143587721
0.0138310081265125,-0.182226558362954
0.0165098928517559,-0.183187884494819
0.0191791634861404,-0.184149455985457
0.0218386300435117,-0.185111606837006
0.0244881025377164,-0.186074671051609
0.0271273909826002,-0.187038982631404
0.0297563053920095,-0.188004875578532
0.0323746557797904,-0.188972683895133
0.0349822521597891,-0.189942741583348
0.0375789045458515,-0.190915382645317
0.0401644229518241,-0.19189094108318
0.0427386173915527,-0.192869750899078
0.0453012978788837,-0.19385214609515
0.0478522744276631,-0.194838460673537
0.0503913570517371,-0.195829028636379
0.0529183557649518,-0.196824183985817
0.0554330805811534,-0.19782426072399
0.0579353415141879,-0.19882959285304
0.0604249485779018,-0.199840514375105
0.0629017117861407,-0.200857359292327
0.0653654411527513,-0.201880461606846
0.0678159466915792,-0.202910155320801
0.0702530384164711,-0.203946774436334
0.0726765263412727,-0.204990652955585
0.0750862204798304,-0.206042124880693
0.0774819308459901,-0.207101524213799
0.0798634674535982,-0.208169184957044
0.0822306403165007,-0.209245441112567
0.0845832594485439,-0.210330626682508
0.0869211348635737,-0.211425075669009
0.0892440765754364,-0.21252912207421
0.091551894597978,-0.213643099900249
0.0938443989450449,-0.214767343149269
0.0961213996304829,-0.215902185823408
0.0983827066681385,-0.217047961924809
0.100628130071858,-0.218205005455609
0.102857479855486,-0.219373650417951
0.105070566032871,-0.220554230813973
0.107267198617858,-0.221747080645817
0.109447187624293,-0.222952533915623
0.111610343066022,-0.224170924625531
0.113756474956891,-0.225402586777681
0.115885393310747,-0.226647854374213
0.117996908141436,-0.227907061417268
0.120090829462804,-0.229180541908986
0.122166967288696,-0.230468629851507
0.12422513163296,-0.231771659246971
0.126265132509441,-0.233089964097519
0.128286779931986,-0.234423878405292
0.13028988391444,-0.235773736172428
0.13227425447065,-0.237139871401069
0.134239701614461,-0.238522618093355
0.136186035359721,-0.239922310251426
0.138113065720275,-0.241339281877422
0.140020602709969,-0.242773866973483
0.141908456342649,-0.24422639954175
0.143776436632162,-0.245697213584364
0.145624353592354,-0.247186643103464
0.14745201723707,-0.24869502210119
0.149259237580158,-0.250222684579683
0.151045824635463,-0.251769964541083
0.152811588416831,-0.253337195987531
0.154556338938108,-0.254924712921166
0.156279886213141,-0.256532849344129
0.157982040255776,-0.258161939258561
0.159662611079858,-0.2598123166666
0.161321408699234,-0.261484315570389
0.162958243127751,-0.263178269972066
0.164572924379254,-0.264894513873772
0.166165262467589,-0.266633381277648
0.167735067406603,-0.268395206185833
0.169282149210141,-0.270180322600469
0.170806317892051,-0.271989064523695
0.172307383466177,-0.273821765957651
0.173785155946367,-0.275678760904477
0.175239445346465,-0.277560383366315
0.176670061680319,-0.279466967345304
0.178076814961775,-0.281398846843585
0.179459515204678,-0.283356355863297
0.180817972422876,-0.285339828406582
0.182151996630213,-0.287349598475578
0.183461397840536,-0.289386000072427
0.184745986067692,-0.291449367199269
0.186005571325526,-0.293540033858244
0.187239963627884,-0.295658334051493
0.188448972988613,-0.297804601781155
0.189632409421559,-0.299979171049371
0.190790082940568,-0.30218237585828
0.191921803559487,-0.304414550210025
0.19302738129216,-0.306676028106743
0.194106626152435,-0.308967143550577
0.195159348154157,-0.311288230543666
0.196185357311173,-0.31363962308815
0.197184463637329,-0.31602165518617
0.198156477146471,-0.318434660839866
0.199101207852445,-0.320878974051378
0.200018465769097,-0.323354928822846
0.200908060910273,-0.325862859156411
0.20176980328982,-0.328403099054214
0.202603502921584,-0.330975982518393
0.203408969819411,-0.333581843551089
0.204186013997146,-0.336221016154444
0.204934445468637,-0.338893834330596
0.205654074247729,-0.341600632081687
0.206344710348268,-0.344341743409856
0.207006163784101,-0.347117502317244
0.207638244569074,-0.349928242805991
0.208240762717032,-0.352774298878237
0.208813528241823,-0.355656004536123
0.209356351157291,-0.358573693781789
0.209869041477284,-0.361527700617375
0.210351409215647,-0.36451835904502
0.210803264386226,-0.367546003066867
0.211224417002869,-0.370610966685054
0.21161467707942,-0.373713583901723
0.211973854629726,-0.376854188719013
0.212301759667633,-0.380033115139064
0.212598202206987,-0.383250697164018
0.212862992261635,-0.386507268796013
0.213095939845423,-0.389803164037191
0.213296854972195,-0.393138716889692
0.2134655476558,-0.396514261355655
0.213601827910083,-0.399930131437222
0.21370550574889,-0.403386661136532
0.213776391186067,-0.406884184455725
0.213814294235461,-0.410423035396943
0.213819024910917,-0.414003547962325
0.213790393226281,-0.417626056154011
0.213728209195401,-0.421290893974143
0.213632282832121,-0.424998395424858
0.213502424150289,-0.4287488945083
0.213338443163749,-0.432542725226607
0.21314014988635,-0.436380221581919
0.212907354331935,-0.440261717576378
0.212639866514353,-0.444187547212123
0.212337496447448,-0.448158044491294
0.212000054145067,-0.452173543416033
0.211627349621056,-0.456234377988478
0.211219192889261,-0.460340882210771
0.210775393963529,-0.464493390085051
0.210295762857706,-0.468692235613459
0.209780109585637,-0.472937752798135
0.209228244161168,-0.47723027564122
0.208639976598147,-0.481570138144853
0.208015116910419,-0.485957674311175
0.20735347511183,-0.490393218142326
0.206654861216226,-0.494877103640446
0.205919085237454,-0.499409664807676
0.20514595718936,-0.503991235646157
0.204335287085789,-0.508622150158027
0.203486884940588,-0.513302742345428
0.202600560767604,-0.518033346210499
0.201676124580682,-0.522814295755381
0.200713386393668,-0.527645924982215
0.199712156220408,-0.53252856789314
0.198672244074749,-0.537462558490297
0.197593459970537,-0.542448230775825
0.196475613921618,-0.547485918751866
0.195318515941838,-0.55257595642056
