-0.41884648824049,-0.467984041650471
-0.417224708314434,-0.459897757124678
-0.310846852243153,-0.341938430158839
-0.414063170481577,-0.443815493478431
-0.41252319982067,-0.435819477204516
-0.411010286160705,-0.427853513194434
-0.409524323124629,-0.419917582871454
-0.40806520433539,-0.412011667658845
-0.406632823415935,-0.404135748979877
-0.512226928768117,-0.49098256955997
-0.403847849678161,-0.388473826915945
-0.402495044105736,-0.380687786377519
-0.506263112095252,-0.468314243189278
-0.399868263668545,-0.365205453404097
-0.398594076049673,-0.357509123815641
-0.498665418614164,-0.442150082224888
-0.301215885857516,-0.236128371953494
-0.293750134923415,-0.234489079684968
-0.393756194107762,-0.327022284659802
-0.392610908870413,-0.319475101786688
-0.391491084978209,-0.311957692526451
-0.390396616054098,-0.304470038302362
-0.389327395721025,-0.297012120537689
-0.496047948922511,-0.392115788650633
-0.387264275319784,-0.282185420079673
-0.386270162497508,-0.274816600232869
-0.498818763262757,-0.374688845060274
-0.484528295274417,-0.369313829039623
-0.383436337019427,-0.25288803930051
-0.494715782733898,-0.33732039929012
-0.477501287729753,-0.347336016044697
-0.380823047106346,-0.231225936168893
-0.380000461945738,-0.224064361278222
-0.379201955228583,-0.216932318502934
-0.284243691731886,-0.100251595215715
-0.377676751616423,-0.202756754991588
-0.376949841967312,-0.195713197102068
-0.469396742016636,-0.289565331548095
-0.375566875097759,-0.181714436171686
-0.374910605123211,-0.174759195977362
-0.268782394745312,-0.0610608550386435
-0.373667960209309,-0.160936903246798
-0.373081372515847,-0.154069813557098
-0.372517799495307,-0.147232070215477
-0.371977134770637,-0.140423654645206
-0.371459271964782,-0.133644548269555
-0.37096410470069,-0.126894732511794
-0.370491526601308,-0.120174188795191
-0.370041431289582,-0.113482898543018
-0.36961371238846,-0.106820843178542
-0.486825772167949,-0.218825457133683
-0.368824978309811,-0.0935843628057654
-0.481569756245837,-0.185714516921953
-0.255236677411806,0.0333604736177453
-0.367807040845032,-0.0739484394860806
-0.367511346489412,-0.067461403336459
-0.367237283905023,-0.0610034720374239
-0.366984746714811,-0.0545746270122446
-0.366753628541725,-0.0481748496841909
-0.366543823008709,-0.0418041214765325
-0.366355223738712,-0.035462423812539
-0.36618772435468,-0.0291497381154801
-0.36604121847956,-0.0228660458086257
-0.485760320084642,-0.130545002926841
-0.365810761747843,-0.0103855670586085
-0.36572659813714,-0.00418874346198528
-0.263877599710359,0.121703124441961
-0.365619868540777,0.00811816505814242
-0.365597089801012,0.0142282871351074
-0.471681868296933,-0.0863160064072435
-0.365612172553048,0.0263619598064913
-0.365649821290743,0.0323855475543708
-0.365707399766817,0.038380327679349
-0.365784801604219,0.0443463187581563
-0.365881920425895,0.0502835393675232
-0.365998649854791,0.0561920080841797
-0.366134883513855,0.0620717434848563
-0.366290515026033,0.0679227641462832
-0.366465438014272,0.0737450886451907
-0.366659546101519,0.0795387355583094
-0.366872732910722,0.0853037234623692
-0.367104892064825,0.0910400709341007
-0.367355917186778,0.0967477965502342
-0.367625701899525,0.1024269188875
-0.367914139826015,0.108077456522628
-0.368221124589193,0.113699428032349
-0.4870382818371,0.0237651133961649
-0.368890309117405,0.124857746982491
-0.369252296128331,0.130394131576373
-0.369632404467734,0.135902024351768
-0.483316331836722,0.0331780533215267
-0.370446559623755,0.146832408754023
-0.272148696224651,0.255373542719076
-0.476523099378328,0.0610375986266946
-0.48804593032653,0.0484436795617673
-0.372287645287173,0.168352093112837
-0.275104926633699,0.272232700381992
-0.276550760891259,0.297927531225642
-0.485383126609981,0.0811535401624306
-0.374406757976256,0.189417988969671
-0.374979180043388,0.194613697805923
-0.375568446914358,0.199781137744452
-0.376174452212113,0.20492032736199
-0.3767970895596,0.210031285235266
-0.377436252579765,0.215114029941011
-0.378091834895557,0.220168580055956
-0.37876373012992,0.225194954156829
-0.379451831905803,0.230193170820363
-0.48687945678511,0.128264609614443
-0.380876229573913,0.24010520614233
-0.381612312712033,0.245019061954225
-0.382364176883461,0.2499048346357
-0.383131715711141,0.254762542763487
-0.383914822818022,0.259592204914316
-0.38471339182705,0.264393839664917
-0.385527316361171,0.269167465592019
-0.386356490043333,0.273913101272355
-0.387200806496482,0.278630765282653
-0.388060159343566,0.283320476199645
-0.388934442207531,0.28798225260006
-0.389823548711323,0.292616113060629
-0.39072737247789,0.297222076158082
-0.391645807130179,0.301800160469149
-0.392578746291136,0.306350384570561
-0.286540384234642,0.422383227679919
-0.394487712630843,0.315367326451342
-0.395463527055486,0.31983408138417
-0.396453420480585,0.324273050414265
-0.487889730763456,0.215790927947633
-0.398475018823937,0.333067705073173
-0.399506510988084,0.337423427855448
-0.400551656644473,0.341751439041909
-0.300814854664813,0.459306791609049
-0.402682482925769,0.350324400934316
-0.309881926322067,0.465530190818888
-0.313241833724533,0.478416794860825
-0.405978464113206,0.362976471222589
-0.407103296804937,0.367138602945511
-0.408241038349539,0.371273153109732
-0.409391582369958,0.375380140291984
-0.410554822489141,0.379459583068995
-0.411730652330036,0.383511500017497
-0.412918965515589,0.38753590971422
-0.414119655668747,0.391532830735894
-0.415332616412457,0.395502281659249
-0.416557741369665,0.399444281061015
-0.507807965951225,0.291959529200914
-0.419044058416364,0.407245999606705
-0.420305037751749,0.411105755904089
-0.42157775579242,0.414938134986805
-0.422862106161323,0.418743155431585
-0.322904411862034,0.525781712674576
-0.541814971597137,0.313241306665275
-0.426783887466898,0.429994250705607
-0.4281137033782,0.433690022365943
-0.534433722742748,0.325599075514953
-0.430806530152652,0.440999787000489
-0.432169328261695,0.444613817128161
-0.433542907682546,0.448200637231738
-0.340283757538108,0.556251654886974
-0.436321984951456,0.45529272167353
-0.437727270045409,0.458798023165206
-0.439142910942957,0.46227618893971
-0.440568801267046,0.46572723757377
-0.442004834640624,0.469151187644118
-0.443450904686637,0.472548057727484
-0.444906905028031,0.475917866400599
-0.446372729287755,0.479260632240191
-0.447848271088754,0.482576373822993
-0.449333424053975,0.485865109725734
-0.342519986291855,0.587864917907781
-0.3546797130399,0.586532703966479
-0.453845486164441,0.495569469120895
-0.455368020016021,0.498750368070696
-0.456899633146556,0.501904354224088
-0.458440219178995,0.505031446157801
-0.459989671736284,0.508131662448565
-0.461547884441371,0.511205021673111
-0.4631147509172,0.514251542408168
-0.464690164786721,0.517271243230469
-0.466274019672879,0.520264142716741
-0.467866209198622,0.523230259443717
-0.362308539978802,0.619600910565094
-0.471075166660647,0.529082218926699
-0.472691721842823,0.531968098836165
-0.474316186156371,0.534827270293256
-0.475948453224237,0.537659751874702
-0.477588416669369,0.540465562157232
-0.479235970114712,0.543244719717577
-0.594251318335731,0.451329081895549
-0.594093821803607,0.455879806263476
-0.484223106681484,0.551422461832807
-0.485899956357145,0.554095194271716
-0.487583864147751,0.556741366872092
-0.489274723676251,0.559360998210664
-0.49097242856559,0.561954106864164
-0.492676872438716,0.564520711409322
-0.494387948918576,0.567060830422868
-0.496105551628116,0.569574482481532
-0.610611614130565,0.474457293554901
-0.61697089246129,0.47983861011367
-0.501296453364287,0.576956822695537
-0.503039097222017,0.579364792701978
-0.614822870221598,0.481955946959505
-0.506542261593667,0.584101629077898
-0.50830256935348,0.586430532600839
-0.510068552326549,0.588733117782741
-0.398066015704989,0.69651601312912
-0.513617118404239,0.593259407430348
-0.515399488754753,0.595483149049514
-0.51718710881031,0.597680646634562
-0.518979872193856,0.599851918762222
-0.520777672528338,0.601996984009225
-0.522580403436703,0.604115860952301
-0.524387958541897,0.60620856816818
-0.526200231466868,0.608275124233593
-0.528017115834561,0.61031554772527
-0.529838505267926,0.612329857219941
-0.628562537788169,0.504937279049183
-0.533494373823451,0.616280208525188
-0.535328640191506,0.618216287489223
-0.537166986117019,0.620126326763175
-0.539009305222935,0.622010344923771
-0.540855491132203,0.623868360547745
-0.542705437467768,0.625700392211824
-0.544559037852579,0.627506458492741
-0.54641618590958,0.629286577967224
-0.548276775261721,0.631040769212005
-0.550140699531946,0.632769050803813
-0.552007852343203,0.63447144131938
-0.436991648537103,0.744333383415665
-0.555751418080601,0.637798623428708
-0.557627618252635,0.639423452175931
-0.559506621457488,0.641022464153832
-0.561388321318108,0.642595677939144
-0.656076648545056,0.54383320337534
-0.565159385498433,0.645664785238916
-0.567048537064031,0.647160715906838
-0.568939959777184,0.64863092268909
-0.666459856315447,0.553872619192435
-0.572729193137936,0.651494238903509
-0.482330344321214,0.757517131452029
-0.457642939293767,0.74807253170682
-0.578427417359386,0.655596748500877
-0.580330233039742,0.656913002080451
-0.582234575228279,0.658203661811469
-0.584140337547944,0.659468746270659
-0.586047413621685,0.660708274034753
-0.587955697072447,0.661922263680481
-0.589865081523177,0.663110733784574
-0.591775460596823,0.664273702923761
-0.593686727916331,0.665411189674773
-0.595598777104648,0.66652321261434
-0.597511501784721,0.667609790319193
-0.599424795579497,0.668670941366061
-0.601338552111922,0.669706684331676
-0.603252665004943,0.670717037792767
-0.605167027881507,0.671702020326065
-0.70146705621474,0.582006660863209
-0.608996078077053,0.673595946916203
-0.610910552641928,0.674504928126503
-0.612824851682133,0.675388612715931
-0.614738868820615,0.676247019261217
-0.616652497680322,0.677080166339093
-0.618565631884199,0.677888072526287
-0.620478165055195,0.67867075639953
-0.622389990816254,0.679428236535554
-0.52465109180275,0.781896153281377
-0.626211094600355,0.68086765990286
-0.73926806419652,0.578965644622165
-0.630028092220076,0.682206491242048
-0.631934785275661,0.682838231342924
-0.633840132658992,0.683444879166962
-0.635744027993014,0.684026453290891
-0.637646364900676,0.684582972291442
-0.639547037004925,0.685114454745345
-0.641445937928706,0.685620919229332
-0.643342961294966,0.686102384320131
-0.645238000726653,0.686558868594474
-0.748367034850587,0.568692258174155
-0.649021702278094,0.687396969000711
-0.650910151643742,0.687778622286066
-0.652796191566603,0.688135369061885
-0.654679715669625,0.6884672279049
-0.656560617575755,0.688774217391839
-0.658438790907939,0.689056356099434
-0.660314129289123,0.689313662604415
-0.764961134795969,0.59798361577828
-0.664055875690283,0.689753853313456
-0.665922070956153,0.689936774670977
-0.66778500576281,0.690094938132805
-0.669644573733203,0.69022836227567
-0.671500668490278,0.690337065676303
-0.673353183656981,0.690421066911433
-0.675202012856261,0.690480384557793
-0.677047049711063,0.690515037192111
-0.678888187844334,0.690525043391118
-0.680725320879021,0.690510421731544
-0.774110569469272,0.577819792654112
-0.684387146144432,0.690407369143576
-0.686211625621049,0.690318975368642
-0.68803167449087,0.690206028042049
-0.689847186376841,0.690068545740527
-0.691658054901909,0.689906547040805
-0.693464173689021,0.689720050519616
-0.695265436361124,0.689509074753688
-0.697061736541164,0.689273638319752
-0.698852967852089,0.689013759794539
-0.700639023916846,0.688729457754779
-0.795809965958112,0.595464112614337
-0.704195184799639,0.688087657438538
-0.600922699444833,0.799639884613559
-0.589873594372764,0.799143278076311
-0.820317091403057,0.579600666108161
-0.711240723020862,0.686511792007622
-0.712987573804949,0.68605704551448
-0.714728398326441,0.685578024120633
-0.716463090208286,0.685074746402811
-0.718191543073431,0.684547230937746
-0.719913650544822,0.683995496302166
-0.721629306245406,0.683419561072804
-0.72333840379813,0.682819443826388
-0.725040836825941,0.682195163139649
-0.726736498951786,0.681546737589318
-0.728425283798611,0.680874185752125
-0.730107084989364,0.680177526204799
-0.731781796146991,0.679456777524072
-0.835207567920937,0.575185142318744
-0.735109522854654,0.677943087069335
-0.736762325650585,0.677150182448785
-0.738407612905176,0.676333263001755
-0.740045278241376,0.675492347304975
-0.741675215282132,0.674627453935175
-0.743297317650389,0.673738601469085
-0.744911478969095,0.672825808483437
-0.746517592861196,0.67188909355496
-0.74811555294964,0.670928475260384
-0.749705252857374,0.669943972176441
-0.751286586207343,0.668935602879859
-0.752859446622495,0.66790338594737
-0.754423727725777,0.666847339955704
-0.861982336879297,0.563008592312245
-0.757526126488518,0.664663835101761
-0.75906403139387,0.663536413392945
-0.760592931479139,0.662385236931873
-0.762112720367272,0.661210324295275
-0.763623291681216,0.660011694059883
-0.765124539043917,0.658789364802425
-0.766616356078323,0.657543355099632
-0.76809863640738,0.656273683528235
-0.769571273654035,0.654980368664964
-0.771034161441234,0.65366342908655
-0.772487193391926,0.652322883369721
-0.773930263129056,0.65095875009121
-0.775363264275571,0.649571047827746
-0.874905306055176,0.530076072407615
-0.778198635288544,0.64672501065288
-0.779600792400897,0.64526671289494
-0.780992455414421,0.643784920458968
-0.782373517952065,0.642279651921694
-0.783743873636776,0.64075092585985
-0.785103416091499,0.639198760850165
-0.786452038939183,0.637623175469369
-0.787789635802773,0.636024188294194
-0.789116100305217,0.634401817901369
-0.790431326069461,0.632756082867625
-0.791735206718453,0.631087001769691
-0.793027635875138,0.629394593184299
-0.794308507162465,0.627678875688179
-0.795577714203379,0.62593986785806
-0.796835150620827,0.624177588270674
-0.798080710037757,0.62239205550275
-0.799314286077116,0.620583288131018
-0.800535772361849,0.618751304732211
-0.801745062514904,0.616896123883056
-0.893899268693656,0.51569696784022
-0.804126628917767,0.613116244140629
-0.805298692413469,0.611191582400817
-0.806458134269279,0.609243797517579
-0.807604848108146,0.607272908067647
-0.808738727553016,0.605278932627749
-0.809859666226835,0.603261889774618
-0.810967557752551,0.601221798084982
-0.81206229575311,0.599158676135573
-0.813143773851459,0.59707254250312
-0.814211885670545,0.594963415764355
-0.815266524833315,0.592831314496006
-0.707616819703769,0.702530039760402
-0.817334959681692,0.588498262677482
-0.818348542613195,0.586297349280767
-0.933637318670014,0.477542882778795
-0.820333907605559,0.581826840396083
-0.821305476912315,0.579557282061574
-0.822262828923382,0.577264879234595
-0.823205857261707,0.574949650491876
-0.824134455550238,0.572611614410146
-0.825048517411921,0.570250789566137
-0.825947936469703,0.567867194536579
-0.82683260634653,0.565460847898201
-0.82770242066535,0.563031768227735
-0.82770242066535,0.563031768227735
-0.828546106862137,0.560584926977864
-0.829352606167004,0.558125364017278
-0.830122132894105,0.555653200546716
-0.830854901357597,0.553168557766918
-0.831551125871636,0.550671556878624
-0.832211020750376,0.548162319082575
-0.832834800307974,0.545640965579508
-0.833422678858584,0.543107617570165
-0.833974870716363,0.540562396255285
-0.952361172975007,0.418751555019934
-0.834973051610046,0.535436818511873
-0.835419469274262,0.532856704484821
-0.835831057502269,0.53026520195519
-0.83620803060822,0.527662432123722
-0.836550602906273,0.525048516191154
-0.836858988710583,0.522423575358228
-0.837133402335306,0.519787730825684
-0.741322218714854,0.627495340969097
-0.837581170302607,0.514483815464696
-0.742371369599832,0.604647655094344
-0.837895621321424,0.509137739714109
-0.83800338876054,0.506449194694566
-0.838078469904999,0.503750473179842
-0.83812107906896,0.501041696370677
-0.838131430566577,0.498322985467811
-0.838109738712006,0.495594461671984
-0.838056217819401,0.492856246183936
-0.837971082202919,0.490108460204406
-0.837854546176716,0.487351224934133
-0.837706824054945,0.484584661573859
-0.837528130151764,0.481808891324322
-0.837318678781327,0.479024035386262
-0.837078684257791,0.47623021496042
-0.83680836089531,0.473427551247534
-0.836507923008039,0.470616165448344
-0.836177584910136,0.467796178763591
-0.835817560915754,0.464967712394014
-0.83542806533905,0.462130887540353
-0.835009312494179,0.459285825403347
-0.834561516695296,0.456432647183736
-0.834084892256557,0.45357147408226
-0.833579653492118,0.45070242729966
-0.833046014716134,0.447825628036673
-0.83248419024276,0.444941197494041
-0.831894394386152,0.442049256872503
-0.831276841460466,0.439149927372798
-0.830631745779856,0.436243330195667
-0.948921119354442,0.319249509181084
-0.82925978341049,0.430408817612085
-0.931347193587749,0.321755431753727
-0.827780221791297,0.424546688727674
-0.827000627048404,0.421605571174507
-0.826194775435522,0.418657913148352
-0.825362881266805,0.415703835849948
-0.720305382035536,0.51093680540814
-0.823621822518488,0.409776908239355
-0.8227130865672,0.406804300328646
-0.821779165316699,0.403825757948647
-0.917341459636422,0.296398030496406
-0.819836624174681,0.39785135458374
-0.818828432911475,0.394855736000312
-0.714136575479303,0.48233291659867
-0.816739280571447,0.388848271035204
-0.815658748122935,0.385836667055004
-0.814554530574299,0.382819977010693
-0.813426842239695,0.379798322103011
-0.812275897433277,0.376771823532698
-0.811101910469202,0.373740602500492
-0.809905095661624,0.370704780207135
-0.8086856673247,0.367664477853365
-0.907373912873503,0.244991402129892
-0.920565359660655,0.267733020855515
-0.804893844279401,0.35851790243698
-0.908441006427213,0.243775737857148
-0.802256823695318,0.352400007204224
-0.800906214779579,0.349335369703516
-0.799534492533581,0.346267100547573
-0.798141871271481,0.343195320937136
-0.69139642085686,0.456857910081109
-0.795294788955592,0.337041715155739
-0.793840756530117,0.333960131386258
-0.901568702487936,0.234684061855148
-0.790872780714877,0.327788008093429
-0.789359265953425,0.324697710971562
-0.787826352374958,0.321604751800378
-0.786274254293633,0.318509251780618
-0.784703186023603,0.315411332113021
-0.783113361879027,0.312311113998328
-0.781504996174058,0.309208718637278
-0.779878303222852,0.30610426723061
-0.67761560876606,0.401912388243132
-0.776570792838351,0.299889681083382
-0.774890404033367,0.296779788744301
-0.773192545238768,0.293668325162561
-0.679013641086962,0.396230886469753
-0.769745274937348,0.287441169074067
-0.767996292058837,0.284325718968791
-0.879316536876489,0.177902519914017
-0.764448702416992,0.278091680639882
-0.76265052428197,0.274973334817728
-0.76083637635642,0.271854266158093
-0.7590064729545,0.268734595861719
-0.757161028390364,0.265614445129343
-0.755300256978168,0.262493935161708
-0.753424373032067,0.259373187159551
-0.751533590866218,0.256252322323612
-0.749628124794774,0.253131461854632
-0.747708189131893,0.250010726953351
-0.651230035364675,0.363218537740963
-0.743825766288439,0.243770118656841
-0.631017720356354,0.332557993382817
-0.739888036849098,0.237531467040002
-0.737898967941359,0.234413177988307
-0.855085249398635,0.138540931450556
-0.733881493320521,0.228179279402068
-0.731853516235734,0.225063912269004
-0.729812998386907,0.221949761510295
-0.632698120372504,0.331429565668161
-0.725695197653761,0.215725593918903
-0.723618343397752,0.212615819487701
-0.721529805634326,0.209507746233813
-0.719429798677639,0.20640149535798
-0.717318536841846,0.203297188060941
-0.715196234441103,0.200194945543437
-0.713063105789566,0.197094889006207
-0.710919365201389,0.19399713964999
-0.708765226990728,0.190901818675526
-0.70660090547174,0.187809047283556
-0.704426614958579,0.184718946674819
-0.7022425697654,0.181631638050055
-0.70004898420636,0.178547242610003
-0.697846072595613,0.175465881555403
-0.695634049247317,0.172387676086995
-0.693413128475624,0.169312747405519
-0.691183524594692,0.166241216711714
-0.688945451918675,0.16317320520632
-0.68669912476173,0.160108834090078
-0.684444757438012,0.157048224563726
-0.682182564261675,0.153991497828004
-0.58148571483167,0.246218962223202
-0.677635557607772,0.147890177531412
-0.675351172758515,0.14484582637202
-0.673059819313263,0.141805842806217
-0.67076171158617,0.138770348034744
-0.668457063891393,0.13573946325834
-0.666146090543086,0.132713309677745
-0.663829005855405,0.129692008493698
-0.661506024142506,0.126675680906939
-0.659177359718544,0.123664448118208
-0.656843226897674,0.120658431328244
-0.654503839994053,0.117657751737788
-0.652159413321836,0.11466253054758
-0.649810161195178,0.111672888958358
-0.647456297928234,0.108688948170863
-0.64509803783516,0.105710829385834
-0.642735595230112,0.102738653804012
-0.640369184427245,0.0997725426261354
-0.637999019740714,0.0968126170529445
-0.635625315484676,0.093858998285179
-0.633248285973285,0.0909118075235787
-0.630868145520697,0.0879711659688834
-0.628485108441068,0.0850371948218326
-0.626099389048553,0.0821100152831663
-0.623711201657307,0.0791897485536242
-0.621320760581487,0.0762765158339461
-0.618928280135247,0.0733704383248715
-0.616533974632742,0.0704716372271404
-0.61413805838813,0.0675802337414924
-0.611740745715564,0.0646963490686675
-0.723606645519578,-0.0417499034909107
-0.606942788343196,0.0589516209644451
-0.604542572271704,0.0560910199345274
-0.602141817028882,0.0532384225203915
-0.599740736928883,0.0503939499227773
-0.597339546285865,0.0475577233424244
-0.594938459413982,0.0447298639800728
-0.59253769062739,0.0419104930364621
-0.590137454240245,0.039099731712332
-0.587737964566701,0.0362977012084223
-0.678741125829361,-0.0752824311177245
-0.582942082617042,0.0307203174642233
-0.580546118969237,0.0279452066254133
-0.578151759291655,0.0251793114097827
-0.575759217898454,0.0224227530180714
-0.573368709103787,0.0196756526510189
-0.570980447221811,0.0169381315093651
-0.56859464656668,0.0142103107938496
-0.566211521452551,0.0114923117052124
-0.563831286193579,0.00878425544419308
-0.561454155103919,0.00608626321153134
-0.559080342497726,0.003398456207967
-0.556710062689157,0.000720955634239878
-0.446488031365241,0.104623231855218
-0.551980958721512,-0.004602641420744
-0.644516339825892,-0.123832372964156
-0.547268557714225,-0.00988355834750231
-0.647705283082315,-0.116840031492169
-0.542574574180541,-0.015120825540117
-0.540235024751689,-0.0177227874842711
-0.537900722633705,-0.0203134733926701
-0.535571882140743,-0.0228927620645742
-0.533248717586959,-0.0254605322992436
-0.628337181255488,-0.137563354014948
-0.528620273553549,-0.0305610326539196
-0.526315422702233,-0.0330935203724467
-0.524017105046717,-0.03561400485078
-0.521725534901157,-0.0381223648881801
-0.519440926579708,-0.0406184792839069
-0.517163494396526,-0.0431022268372209
-0.514893452665766,-0.0455734863473821
-0.512631015701584,-0.0480321366136511
-0.510376397818135,-0.0504780564352879
-0.508129813329574,-0.0529111246115529
-0.505891476550058,-0.0553312199417061
-0.503661601793741,-0.057738221225008
-0.50144040337478,-0.0601320072607187
-0.499228095607329,-0.0625124568480987
-0.497024892805544,-0.0648794487864079
-0.494831009283581,-0.0672328618749068
-0.492646659355595,-0.0695725749128555
-0.490472057335741,-0.0718984666995144
-0.488307417538176,-0.0742104160341436
-0.486152954277054,-0.0765083017160034
-0.484008881866531,-0.0787920025443541
-0.481875414620763,-0.081061397318456
-0.479752766853905,-0.0833163648375692
-0.477641152880112,-0.085556783900954
-0.475540787013541,-0.0877825333078707
-0.473451883568346,-0.0899934918575796
-0.471374656858683,-0.0921895383493408
-0.469309321198707,-0.0943705515824146
-0.467256090902575,-0.0965364103560613
-0.465215180284441,-0.0986869934695412
-0.463186803658461,-0.100822179722114
-0.46117117533879,-0.102941847913041
-0.459168509639585,-0.105045876841582
-0.457179020875,-0.107134145306997
-0.455202923359191,-0.109206532108546
-0.453240431406314,-0.11126291604549
-0.451291759330523,-0.113303175917089
-0.449357121445975,-0.115327190522603
-0.447436732066824,-0.117334838661292
-0.339172218307796,-0.0189781722228389
-0.44363955608134,-0.121300550735238
-0.441763198103316,-0.123258372269014
-0.439901945887313,-0.125199342533008
-0.438056013747484,-0.127123340326478
-0.436225615997987,-0.129030244448684
-0.434410966952976,-0.130919933698888
-0.432612280926607,-0.13279228687635
-0.540041992202633,-0.234647611290433
-0.429063655186417,-0.136484500210086
-0.427314144100907,-0.138304117964881
-0.42558145329066,-0.140105914843974
-0.423865797069833,-0.141889769646626
-0.42216738975258,-0.143655561172097
-0.514008864028945,-0.238992219269075
-0.418823179085422,-0.147132469588537
-0.417177804363827,-0.148843344078026
-0.325416994955952,-0.0401422298114211
-0.413941587715383,-0.152209327615844
-0.412351174416845,-0.153864194262694
-0.41077951022097,-0.155500149227184
-0.409226809441914,-0.157117071308575
-0.407693286393832,-0.158714839306127
-0.40617915539088,-0.160293332019101
-0.404684630747213,-0.161852428246756
-0.403209926776987,-0.163392006788354
-0.30407450379924,-0.0725137653408115
-0.400320838113479,-0.166412126010415
-0.398906882048508,-0.167892424289399
-0.3975136039136,-0.169352720079367
-0.39614121802291,-0.170792892179577
-0.50418025407452,-0.274892326312714
-0.393459980230806,-0.173612380507769
-0.392151556957704,-0.17499145433427
-0.390864883185442,-0.176349919668056
-0.389600173228175,-0.177687655308386
-0.38835764140006,-0.17900454005452
-0.387137502015251,-0.18030045270572
-0.385939969387904,-0.181575272061245
-0.384765257832175,-0.182828876920355
-0.383613581662219,-0.184061146082311
-0.382485155192192,-0.185271958346372
-0.381380192736249,-0.1864611925118
-0.498471705879025,-0.28272497906448
-0.379241517123237,-0.188774441743796
-0.378208232594479,-0.189898214408883
-0.377199269336427,-0.190999924172378
-0.376214841663237,-0.192079449833541
-0.375255163889063,-0.193136670191631
-0.374320450328063,-0.194171464045909
-0.37341091529439,-0.195183710195635
-0.372526773102201,-0.19617328744007
-0.371668238065651,-0.197140074578473
-0.370835524498895,-0.198083950410105
-0.37002884671609,-0.199004793734227
-0.36924841903139,-0.199902483350098
-0.368494455758951,-0.200776898056978
-0.367767171212928,-0.201627916654129
-0.367066779707478,-0.202455417940809
-0.366393495556755,-0.20325928071628
-0.365747533074915,-0.204039383779802
-0.365129106576113,-0.204795605930635
-0.364538430374506,-0.205527825968038
-0.363975718784247,-0.206235922691274
-0.363441186119494,-0.2069197748996
-0.362935046694401,-0.207579261392279
-0.465071270930583,-0.317540104445669
-0.362008804819819,-0.208824652427734
-0.36158913099864,-0.20941031456903
-0.454439493147261,-0.327341700537143
-0.360837749159286,-0.210506966095061
-0.249553425935557,-0.102880602031077
-0.360205083818305,-0.211503245940746
-0.359933805620094,-0.211963443481609
-0.359692849488942,-0.212398184500167
-0.359482429739005,-0.212807347795679
-0.35930276068444,-0.213190812167405
-0.359154056639401,-0.213548456414607
-0.359036531918043,-0.213880159336543
-0.358950400834523,-0.214185799732476
-0.358895877702996,-0.214465256401663
-0.358873176837617,-0.214718408143367
-0.249109290386707,-0.121104214652214
-0.358924099161926,-0.215145312041363
-0.358998150979925,-0.215318821796177
-0.359104882320694,-0.215465541820547
-0.359244507498389,-0.215585350913734
-0.255003849926529,-0.102552735668748
-0.359623296621178,-0.215743751503601
-0.359862889194584,-0.215782100598801
-0.360136232861537,-0.21579305395986
-0.360443541936193,-0.215776490386036
-0.360785030732708,-0.215732288676592
-0.361160913565237,-0.215660327630787
-0.244849116385638,-0.111164151359647
-0.36201671859496,-0.215432642727134
-0.362497069420465,-0.215276676467807
-0.363012671538606,-0.215092466069159
-0.363563739263539,-0.214879890330452
-0.364150486909419,-0.214638828050946
-0.364773128790401,-0.2143691580299
-0.26882124948857,-0.11227977834046
-0.248627756566931,-0.119638697505804
-0.274806989041806,-0.11405577779837
-0.367626924948468,-0.213001976515529
-0.368432252717296,-0.212587449775691
-0.36927476060616,-0.212143588089874
-0.370154662929215,-0.21167027025734
-0.371072174000616,-0.211167375077349
-0.471325346189986,-0.306501431463551
-0.373020879645081,-0.210072367872036
-0.258358791405356,-0.103814337851484
-0.269490439391309,-0.107824376535685
-0.376231361578265,-0.208204996939643
-0.377379025737012,-0.207522092459373
-0.378565798843194,-0.206808762226468
-0.379791895210966,-0.206064885040188
-0.381057529154484,-0.205290339699792
-0.382362914987904,-0.204485005004542
-0.38370826702538,-0.203648759753697
-0.38509379958107,-0.202781482746518
-0.386519726969127,-0.201883052782265
-0.387986263503708,-0.200953348660198
-0.389493623498967,-0.199992249179577
-0.391042021269061,-0.198999633139664
-0.392631671128146,-0.197975379339717
-0.511968795496754,-0.287870143859342
-0.395935584369906,-0.195831473656765
-0.397650276380893,-0.194711579372281
-0.399407077737492,-0.193559562524804
-0.401206202753858,-0.192375301913596
-0.403047865744148,-0.191158676337916
-0.404932281022516,-0.189909564597025
-0.406859662903117,-0.188627845490183
-0.408830225700108,-0.187313397816651
-0.410844183727644,-0.185966100375687
-0.412901751299881,-0.184585831966554
-0.415003142730973,-0.18317247138851
-0.417148572335077,-0.181725897440817
-0.419338254426347,-0.180245988922734
-0.533419797796116,-0.297175709379568
-0.423851233327011,-0.17718568337244
-0.426174958764715,-0.17560504393875
-0.428543793946208,-0.173990585131712
-0.430957953185645,-0.172342185750585
-0.433417650797182,-0.17065972459463
-0.435923101094975,-0.168943080463108
-0.438474518393178,-0.167192132155278
-0.441072117005947,-0.165406758470401
-0.443716111247439,-0.163586838207736
-0.446406715431807,-0.161732250166545
-0.449144143873209,-0.159842873146087
-0.557910341025804,-0.261775081444516
-0.454760330783732,-0.155959267364414
-0.457639517881164,-0.153964796201718
-0.575004736302367,-0.269325729725504
-0.463541150931149,-0.14986991132891
