0.260653303021239,0.842261724540045
0.26394936527118,0.840489291587812
0.267188088560141,0.838704537927149
0.270369788271483,0.836907538020204
0.27349477978857,0.835098366329125
0.276563378494762,0.833277097316058
0.27957589977342,0.831443805443152
0.282532659007907,0.829598565172554
0.285433971581585,0.827741450966411
0.288280152877814,0.82587253728687
0.291071518279956,0.823991898596079
0.293808383171374,0.822099609356186
0.296491062935428,0.820195744029338
0.29911987295548,0.818280377077682
0.301695128614892,0.816353582963366
0.304217145297026,0.814415436148536
0.306686238385243,0.812466011095342
0.309102723262904,0.810505382265929
0.311466915313372,0.808533624122445
0.313779129920007,0.806550811127039
0.316039682466172,0.804557017741857
0.318248888335229,0.802552318429046
0.320407062910538,0.800536787650755
0.322514521575461,0.798510499869129
0.324571579713361,0.796473529546318
0.326578552707598,0.794425951144469
0.328535755941534,0.792367839125728
0.330443504798531,0.790299267952243
0.332302114661951,0.788220312086162
0.334111900915155,0.786131045989632
0.335873178941504,0.7840315441248
0.337586264124361,0.781921880953815
0.339251471847087,0.779802130938823
0.340869117493043,0.777672368541971
0.342439516445592,0.775532668225408
0.343962984088094,0.77338310445128
0.345439835803912,0.771223751681735
0.346870386976407,0.769054684378921
0.34825495298894,0.766875977004984
0.349593849224874,0.764687704022073
0.35088739106757,0.762489939892335
0.352135893900389,0.760282759077917
0.353339673106693,0.758066236040966
0.354499044069844,0.75584044524363
0.355614322173203,0.753605461148057
0.356685822800133,0.751361358216394
0.357713861333994,0.749108210910787
0.358698753158148,0.746846093693386
0.359640813655957,0.744575081026337
0.360540358210782,0.742295247371787
0.361397702205985,0.740006667191884
0.362213161024928,0.737709414948775
0.362987050050973,0.735403565104609
0.36371968466748,0.733089192121531
0.364411380257812,0.73076637046169
0.36506245220533,0.728435174587234
0.365673215893396,0.726095678960308
0.366243986705371,0.723747958043062
0.366775080024617,0.721392086297642
0.367266811234495,0.719028138186196
0.367719495718368,0.716656188170871
0.368133448859597,0.714276310713815
0.368508986041543,0.711888580277174
0.368846422647568,0.709493071323097
0.369146074061035,0.707089858313732
0.369408255665303,0.704679015711224
0.369633282843735,0.702260617977722
0.369821470979693,0.699834739575373
0.369973135456538,0.697401454966325
0.370088591657632,0.694960838612726
0.370168154966336,0.692512964976721
0.370212140766012,0.690057908520459
0.370220864440021,0.687595743706087
0.370194641371726,0.685126544995754
0.370133786944488,0.682650386851605
0.370038616541669,0.680167343735789
0.369909445546629,0.677677490110453
0.369746589342731,0.675180900437744
0.369550363313337,0.67267764917981
0.369321082841807,0.670167810798799
0.369059063311504,0.667651459756857
0.368764620105789,0.665128670516132
0.368438068608024,0.662599517538772
0.368079724201571,0.660064075286923
0.36768990226979,0.657522418222734
0.367268918196044,0.654974620808352
0.366817087363695,0.652420757505924
0.366334725156103,0.649860902777598
0.365822146956631,0.64729513108552
0.365279668148639,0.64472351689184
0.364707604115491,0.642146134658703
0.364106270240547,0.639563058848257
0.363475981907169,0.636974363922651
0.362817054498719,0.63438012434403
0.362129803398557,0.631780414574543
0.361414543990047,0.629175309076337
0.360671591656549,0.62656488231156
0.359901261781425,0.623949208742358
0.359103869748037,0.62132836283088
0.358279730939746,0.618702419039272
0.357429160739913,0.616071451829683
0.356552474531902,0.61343553566426
0.355649987699073,0.610794745005149
0.354722015624787,0.608149154314498
0.353768873692407,0.605498838054456
0.352790877285293,0.602843870687169
0.351788341786809,0.600184326674784
0.350761582580314,0.59752028047945
0.349710915049172,0.594851806563313
0.348636654576743,0.592178979388521
0.347539116546388,0.589501873417222
0.346418616341471,0.586820563111562
0.345275469345352,0.58413512293369
0.344109990941393,0.581445627345752
0.342922496512955,0.578752150809896
0.341713301443401,0.57605476778827
0.340482721116091,0.573353552743021
0.339231070914388,0.570648580136296
0.337958666221653,0.567939924430243
0.336665822421247,0.565227660087009
0.335352854896533,0.562511861568742
0.334020079030871,0.559792603337589
0.332667810207624,0.557069959855697
0.331296363810153,0.554344005585214
0.32990605522182,0.551614814988288
0.328497199825987,0.548882462527066
0.327070113006014,0.546147022663694
0.325625110145263,0.543408569860321
0.324162506627097,0.540667178579094
0.322682617834877,0.537922923282161
0.321185759151964,0.535175878431668
0.31967224596172,0.532426118489764
0.318142393647507,0.529673717918596
0.316596517592686,0.52691875118031
0.315034933180619,0.524161292737056
0.313457955794667,0.521401417050979
0.311865900818193,0.518639198584227
0.310259083634557,0.515874711798949
0.308637819627122,0.513108031157291
0.307002424179248,0.5103392311214
0.305353212674298,0.507568386153425
0.303690500495634,0.504795570715512
0.302014603026616,0.502020859269809
0.300325835650607,0.499244326278463
0.298624513750967,0.496466046203623
0.29691095271106,0.493686093507434
0.295185467914245,0.490904542652045
0.293448374743886,0.488121468099603
0.291699988583343,0.485336944312256
0.289940624815978,0.482551045752151
0.288170598825154,0.479763846881435
0.28639022599423,0.476975422162255
0.284599821706569,0.474185846056761
0.282799701345533,0.471395193027097
0.280990180294484,0.468603537535413
0.279171573936782,0.465810954043855
0.277344197655789,0.463017517014571
0.275508366834868,0.460223300909708
0.273664396857379,0.457428380191414
0.271812603106685,0.454632829321837
0.269953300966146,0.451836722763123
0.268086805819126,0.44904013497742
0.266213433048984,0.446243140426875
0.264333498039083,0.443445813573636
0.262447316172784,0.44064822887985
0.26055520283345,0.437850460807666
0.258657473404441,0.435052583819229
0.256754443269119,0.432254672376688
0.254846427810846,0.42945680094219
0.252933742412984,0.426659043977882
0.251016702458894,0.423861475945912
0.249095623331937,0.421064171308427
0.247170820415476,0.418267204527576
0.245242609092872,0.415470650065504
0.243311304747486,0.412674582384359
0.241377222762681,0.40987907594629
0.239440678521817,0.407084205213443
0.237501987408257,0.404290044647966
0.235561464805362,0.401496668712006
0.233619426096493,0.398704151867711
0.231676186665013,0.395912568577227
0.229732061894283,0.393121993302704
0.227787367167664,0.390332500506287
0.225842417868518,0.387544164650124
0.223897529380207,0.384757060196364
0.221953017086092,0.381971261607152
0.220009196369536,0.379186843344637
0.218066382613899,0.376403879870966
0.216124891202543,0.373622445648287
0.21418503751883,0.370842615138746
0.212247136946121,0.368064462804492
0.210311504867778,0.365288063107671
0.208378456667164,0.362513490510432
0.206448307727638,0.359740819474922
0.204521373432563,0.356970124463287
0.202597969165301,0.354201479937675
0.200678410309213,0.351434960360235
0.198763012247661,0.348670640193113
0.196852090364006,0.345908593898456
0.19494596004161,0.343148895938413
0.193044936663835,0.34039162077513
0.191149335614042,0.337636842870755
0.189259472275593,0.334884636687436
0.187375662031849,0.332135076687319
0.185498220266172,0.329388237332553
0.183627462361924,0.326644193085284
0.181763703702467,0.323903018407661
0.179907259671161,0.32116478776183
0.178058445651369,0.318429575609939
0.176217577026452,0.315697456414135
0.174384969179772,0.312968504636566
0.17256093749469,0.310242794739379
0.170745797354568,0.307520401184722
0.168939864142768,0.304801398434742
0.167143453242651,0.302085860951586
0.165356880037579,0.299373863197403
0.163580459910913,0.296665479634338
0.161814508246016,0.293960784724541
0.160059340426248,0.291259852930158
0.158315271834972,0.288562758713336
0.156582617855548,0.285869576536223
0.154861693871339,0.283180380860967
0.153152815265707,0.280495246149714
0.151456297422012,0.277814246864613
0.149772455723616,0.275137457467811
0.148101605553882,0.272464952421454
0.14644406229617,0.269796806187692
0.144800141333842,0.26713309322867
0.143170158050261,0.264473888006537
0.141554427828787,0.261819264983439
0.139953266052782,0.259169298621525
0.138366988105607,0.256524063382942
0.136795909370625,0.253883633729837
0.135240345231198,0.251248084124357
0.133700611070685,0.24861748902865
0.13217702227245,0.245991922904863
0.130669894219854,0.243371460215145
0.129179542296258,0.240756175421641
0.127706281885024,0.238146142986501
0.126250428369514,0.23554143737187
0.124812297133089,0.232942133039897
0.123392203559111,0.230348304452729
0.121990463030942,0.227760026072513
0.120607390931942,0.225177372361397
0.119243302645475,0.222600417781528
0.117898513554901,0.220029236795053
0.116573339043582,0.217463903864121
0.115268094494879,0.214904493450879
0.113983095292155,0.212351080017473
0.11271865681877,0.209803738026051
0.111475094458088,0.207262541938762
0.110252723593468,0.204727566217751
0.109051859608272,0.202198885325167
0.107872817885864,0.199676573723157
0.106715913809603,0.197160705873868
0.105581462762851,0.194651356239449
0.104469780128971,0.192148599282045
0.103381181291323,0.189652509463806
0.10231598163327,0.187163161246877
0.101274496538173,0.184680629093407
0.100257041389394,0.182204987465543
0.0992639315702938,0.179736310825433
0.0982954824642346,0.177274673635223
0.0973520094545777,0.174820150357061
0.096433827924685,0.172372815453096
0.095541253257918,0.169932743385473
0.0946746008376384,0.167500008616341
0.0938341860472077,0.165074685607847
0.0930203242699876,0.162656848822138
0.0922333308893396,0.160246572721362
0.0914735212886255,0.157843931767666
0.0907412108512068,0.155449000423198
0.0900367149604451,0.153061853150105
0.0893603489997021,0.150682564410534
0.0887124283523394,0.148311208666634
0.0880932684017185,0.14594786038055
0.0875031845312012,0.143592594014432
0.0869424921241489,0.141245484030425
0.0864115065639234,0.138906604890679
0.0859105432338863,0.136576031057339
0.0854399175173991,0.134253836992554
0.0849999447978236,0.13194009715847
0.0845909404585212,0.129634886017237
0.0842132198828537,0.127338278030999
0.0838670984541826,0.125050347661906
0.0835528915558696,0.122771169372105
0.0832709145712762,0.120500817623742
0.0830214828837641,0.118239366878966
0.082804911876695,0.115986891599924
0.0826215169334304,0.113743466248763
0.0824716134373319,0.111509165287631
0.0823555167717612,0.109284063178674
0.0822735423200798,0.107068234384042
0.0822260054656495,0.10486175336588
0.0822132215918318,0.102664694586337
0.0822355060819883,0.10047713250756
0.0822931743194807,0.0982991415916956
0.0823865416876705,0.0961307963008921
0.0825159235699194,0.0939721710972967
0.082681635349589,0.0918233404430569
0.0828839924100409,0.08968437880032
0.0831233101346367,0.0875553606312335
0.0833999039067381,0.0854363603979448
0.0837140891097067,0.0833274525626012
0.084066181126904,0.0812287115873504
0.0844564953416918,0.0791402119343395
0.0848853471374315,0.0770620280657162
0.0853530518974849,0.0749942344436278
0.0858599250052135,0.0729369055302217
0.0864062818439791,0.0708901157876454
0.0869924377971431,0.0688539396780463
0.0876187082480672,0.0668284516635717
0.0882854085801129,0.0648137262063693
0.0889928541766421,0.0628098377685862
0.0897413604210162,0.06081686081237
0.0905312426965969,0.0588348697998681
0.0913628163867458,0.056863939193228
0.0922363968748244,0.054904143454597
0.0931522995441945,0.0529555570461226
0.0941108397782177,0.0510182544299522
0.0951123329602555,0.0490923100682332
0.0961570944736695,0.0471777984231131
0.0972454397018215,0.0452747939567392
0.098377684028073,0.043383371131259
0.0995541428357855,0.04150360440882
0.100775131508321,0.0396355682515694
0.102040965429041,0.0377793371216549
0.103351959981306,0.0359349854812237
0.104708430548479,0.0341025877924234
0.106110692513922,0.0322822185174012
0.107559061260995,0.0304739521183048
0.109053852173061,0.0286778630572814
0.110595380633481,0.0268940257964786
0.112183962025616,0.0251225147980436
0.113819911732829,0.0233634045241241
0.115503545138481,0.0216167694368673
0.117235177625933,0.0198826839984207
0.119015124578547,0.0181612226709317
0.120843701379685,0.0164524599165479
0.122721223412709,0.0147564701974164
0.124648006060979,0.0130733279756849
0.126624364707858,0.0114031077135007
0.128650614736708,0.00974588387301131
0.130727071530889,0.00810173091636399
0.132854050473763,0.00647072330570636
0.135031866948693,0.00485293550318567
0.13726083633904,0.00324844197094949
0.139541274028164,0.00165731717114512
0.141873495399429,7.9635565920104e-05
0.144257815836195,-0.00148452838257827
0.146694550721825,-0.00303510021220242
0.149184015439679,-0.00457200546080508
0.151726525373119,-0.00609516966623869
0.154322395905508,-0.00760451836635596
0.156971942420206,-0.0090999770990093
0.159675480300576,-0.0105814714020515
0.162433324929978,-0.0120489268133349
0.165245791691775,-0.0135022688707123
0.168113195969328,-0.014941423112036
0.171035853145998,-0.0163663150751589
0.174014078605148,-0.0177768702979334
0.177048187730139,-0.0191730143182121
0.180138495904333,-0.0205546726738475
0.183285318511091,-0.0219217709026923
0.186488970933774,-0.023274234542599
0.189749768555745,-0.0246119891314202
0.193068026760365,-0.0259349602070085
0.196444060930996,-0.0272430733072165
0.199878186450999,-0.0285362539698966
0.203370718703735,-0.0298144277329016
0.206921973072568,-0.0310775201340839
0.210532264940857,-0.0323254567112963
0.214201909691965,-0.0335581630023911
0.217931222709254,-0.0347755645452211
0.221720519376084,-0.0359775868776387
0.225570115075818,-0.0371641555374966
0.229480325191818,-0.0383351960626473
0.233451465107444,-0.0394906339909435
0.237483850206058,-0.0406303948602377
0.241577795871023,-0.0417544042083824
0.245733617485699,-0.0428625875732302
0.249951630433449,-0.0439548704926338
0.254232150097634,-0.0450311785044457
0.258575491861615,-0.0460914371465184
0.262981971108754,-0.0471355719567046
0.267451903222413,-0.0481635084728568
0.271985603585953,-0.0491751722328276
0.276583387582736,-0.0501704887744696
0.281245570596124,-0.0511493836356353
0.285972468009479,-0.0521117823541773
0.290764395206161,-0.0530576104679483
0.295621667569532,-0.0539867935148007
0.300544600482955,-0.0548992570325872
0.30553350932979,-0.0557949265591603
0.3105887094934,-0.0566737276323726
0.315710516357145,-0.0575355857900768
0.320899245304388,-0.0583804265701252
0.326155211718491,-0.0592081755103706
0.331478730982813,-0.0600187581486655
0.336870118480719,-0.0608121000228625
