-0.958070171143819,-0.421863892268809
-0.911729467272937,-0.413070689662934
-0.960527981024753,-0.466372173977109
-0.969623065385959,-0.443126153509896
-0.912977593046719,-0.418901084952541
-0.901848869506103,-0.460667022007598
-0.895496839383734,-0.417967272301338
-0.930732851753332,-0.431426855333392
-0.966121366880335,-0.413482761362406
-0.922932553024161,-0.433593899296056
-0.919034126276838,-0.434585375431449
-0.915136846685456,-0.43551606349724
-0.911240713308341,-0.436386395364194
-0.907345725203818,-0.43719680290308
-0.90345188143021,-0.437947717984664
-0.942844640302919,-0.429684623856225
-0.897410911687658,-0.442072622606775
-0.891777206678136,-0.439847827193279
-0.887887930811443,-0.440365091153328
-0.925393864277437,-0.476510590647688
-0.903551276139806,-0.394937523700008
-0.876226937179911,-0.441574611895749
-0.921609838410696,-0.457428505197288
-0.834553477880254,-0.484697581012737
-0.863907791085562,-0.402703206027575
-0.860694856441941,-0.442404796739584
-0.856814671188676,-0.442475488253385
-0.880242724936884,-0.460492768082322
-0.849057696007891,-0.442455668739767
-0.845180904197023,-0.442366021453882
-0.841305241650269,-0.44222379164297
-0.836178953869737,-0.443432744624874
-0.798804774300461,-0.428039525070488
-0.847648315014329,-0.481239337547944
-0.784080974496176,-0.423600868614317
-0.785577707581514,-0.437114193878664
-0.819302406715801,-0.455167297079471
-0.814207144117525,-0.439792149410246
-0.777675643174697,-0.432915735593752
-0.773943497921228,-0.478112846382996
-0.784972984645254,-0.451883371111012
-0.755407710112077,-0.4375539565014
-0.843674467154645,-0.424524416162542
-0.791023963114836,-0.435786295522631
-0.814400087317248,-0.420546883610152
-0.783305174803792,-0.434074113597607
-0.745421092081705,-0.413771976632548
-0.73113112205495,-0.479714927912527
-0.771735346462897,-0.431164375941334
-0.767880961016078,-0.43010513360065
-0.764027685999873,-0.429001946150279
-0.802308926661274,-0.4129022263288
-0.739816757660866,-0.422838330526771
-0.713582607174275,-0.427832757089161
-0.748625671407698,-0.424158382667289
-0.744777934419439,-0.42284194773
-0.695573819470884,-0.395723403505694
-0.762635729678086,-0.399858644067865
-0.733241348371349,-0.418646247090704
-0.680391209707631,-0.458783949419114
-0.725555802353109,-0.415648102182657
-0.698636771619301,-0.389989826074882
-0.739251917774833,-0.379536904248
-0.717320608066641,-0.405203686237467
-0.710197903649494,-0.409184932957736
-0.679117607610913,-0.454590739843372
-0.741308015019695,-0.383583773594144
-0.655724010906972,-0.403330392635288
-0.695137742414503,-0.416095223699144
-0.691025190080907,-0.400266201873323
-0.679644616631504,-0.408100416896777
-0.683363752424991,-0.396448532483788
-0.640602249124963,-0.434119430210458
-0.675706673624128,-0.392493087283019
-0.669829498604679,-0.350295423225211
-0.668053946144918,-0.388403321237152
-0.680876637872369,-0.426878585315948
-0.660405562453961,-0.384182689312325
-0.656582997174889,-0.382024378322219
-0.620388452340923,-0.417560472630295
-0.648941115041183,-0.377613925640459
-0.620521886860706,-0.331101793145755
-0.594379562159241,-0.397531493009734
-0.647925136318272,-0.39252158772666
-0.633670318104626,-0.36842978985222
-0.626663144900452,-0.347839264987257
-0.669316315703886,-0.321146253555304
-0.622228537153941,-0.361237465318578
-0.574074142544789,-0.313194151868102
-0.614606057991088,-0.356304192408865
-0.64272004418369,-0.340365534373004
-0.61192730966615,-0.32188043439526
-0.554749308590005,-0.376110505691097
-0.61604060051445,-0.339836286480186
-0.550897588996889,-0.32281453670493
-0.603974680645426,-0.312230813065624
-0.618533503089973,-0.32209995012953
-0.551464046626993,-0.337776951133505
-0.540960278312408,-0.382333087639856
-0.621488107371208,-0.308051715411268
-0.57275892320438,-0.32735690273646
-0.568961031488392,-0.324585175329345
-0.565164201235916,-0.321791960092435
-0.580948158994912,-0.315795472043898
-0.541958548789476,-0.349937009910699
-0.54699011686842,-0.344225127741043
-0.549987476027625,-0.310412858262186
-0.546195938967581,-0.307518681937808
-0.542405457720999,-0.304605609008237
-0.538616031346203,-0.301674071344241
-0.553052454768648,-0.270265607056459
-0.545171813091105,-0.291146422560007
-0.558910980105919,-0.278489202771418
-0.523468855731381,-0.289771910759349
-0.551757851363033,-0.31462324209619
-0.508585720395916,-0.31914910017737
-0.560614377172305,-0.302457069528317
-0.500205290031958,-0.239405044791363
-0.495221687835953,-0.2505082968247
-0.538015030004753,-0.301908825217847
-0.499025793530473,-0.255405917463095
-0.532795968754167,-0.289756727975625
-0.441007841871267,-0.260614363167039
-0.532641384802882,-0.28759357629934
-0.481900579999586,-0.255778910374932
-0.490763651824004,-0.211342460873503
-0.474356265874852,-0.249431309462609
-0.445986873940443,-0.287225167041694
-0.475296607327195,-0.202857705934356
-0.46304757674583,-0.239830804816415
-0.459280085151609,-0.236611269876697
-0.457128859532143,-0.197646267507725
-0.451748203486299,-0.230145741135381
-0.476566303882944,-0.182618200341926
-0.465346051865591,-0.241567492354058
-0.410361893805846,-0.186630235317626
-0.4366968198813,-0.217120940586716
-0.452322972063859,-0.245303416820211
-0.44547836048388,-0.253593069997819
-0.39947518784502,-0.200247392904808
-0.424707375477726,-0.17537732106748
-0.449314483519837,-0.250120600438778
-0.371218961454835,-0.176863246483968
-0.37065630161468,-0.231521061309994
-0.427311052199191,-0.155217638533969
-0.402891282492498,-0.187484464104689
-0.399140224376234,-0.184173336416249
-0.372682873708793,-0.216040947126436
-0.374092275889885,-0.132866384354861
-0.428161225728072,-0.152876613594425
-0.370990640781995,-0.177399864562914
-0.380400201283429,-0.167595530710275
-0.404302897853961,-0.193441512366856
-0.35792225732308,-0.183698948986857
-0.386706878703332,-0.119576717766029
-0.377465492264208,-0.146603128125987
-0.323768128890486,-0.103035801511575
-0.318828763506355,-0.162412684047808
-0.354206746536482,-0.144403134862954
-0.316020924373171,-0.170781969590142
-0.308313129269737,-0.17475337554134
-0.34961694039773,-0.115493676715494
-0.339261250163248,-0.131209669765517
-0.335527388477461,-0.127922364531739
-0.312202522396777,-0.112382345109055
-0.305094521415062,-0.0722761371458303
-0.28344122139472,-0.130046225340687
-0.329652137940822,-0.106370082956124
-0.299272815801792,-0.064195067837729
-0.337417186099218,-0.102540377005508
-0.309842422723358,-0.0953738834465223
-0.305692526758163,-0.101850573485542
-0.301967658889,-0.0986264090192783
-0.33929334011223,-0.0511391604242643
-0.294520906022748,-0.0922060369415297
-0.318843147317232,-0.0405067192007636
-0.287078124041427,-0.0858258198086003
-0.274733260186458,-0.111226296116372
-0.294927526991345,-0.0876277245084755
-0.273098718990946,-0.0884762311856469
-0.272204442599978,-0.0731996702417475
-0.306570085536553,-0.0619768254008556
-0.304710144362351,-0.0181156507568425
-0.211266961305119,-0.0754878227714595
-0.230755016467733,-0.103972227662858
-0.244367213225529,-0.0477422206900978
-0.226790388368565,-0.0905475107842429
-0.247432269505698,-0.0530117950027732
-0.255588911590043,-0.012512888461856
-0.251666668495116,-0.0663265539419095
-0.228142253261302,-0.0266547525385188
-0.252801459500474,-0.0808157498645463
-0.24712386665126,-0.0261568243906895
-0.223973737115661,-0.0337034599780107
-0.220270533020386,-0.0307809075417047
-0.187367629307549,-0.0719817312412525
-0.243677187564426,-0.013572540386121
-0.209166760294252,-0.0221270346251386
-0.205467446099854,-0.0192817780196243
-0.217824477021733,0.0273138707905747
-0.160404529856845,0.0126393460894847
-0.189561975071154,0.00548696645930014
-0.195905518757155,0.0132134549689071
-0.232526991563084,-0.0496004515740173
-0.183291900516504,-0.00265383019031765
-0.177082705075337,0.0108824205874165
-0.159951070919689,-0.00476397317270719
-0.174697793794525,-0.0187409531834689
-0.163618164329737,-0.0309302078010802
-0.214303481971809,0.0427836333494558
-0.172055912942863,-0.0025571311393108
-0.112365862865733,0.0525878360006215
-0.140840544519983,-0.0125909903398134
-0.150093620369648,0.0207067872796168
-0.169141301297295,-0.014606090658811
-0.156698146659251,0.0557187377644989
-0.129978917316917,0.018555138538067
-0.0870155300551414,0.0588831664516156
-0.131683635200713,0.0327642027010907
-0.128004495796217,0.0350902901185797
-0.124326306737578,0.0373869046153432
-0.0771515979724246,0.0835208230000033
-0.150976865034171,0.0664362525358713
-0.113297432220041,0.0440955918736115
-0.158787305713921,0.0267098896091371
-0.105949583673584,0.0484127678114336
-0.0542797615463631,0.00758314585833422
-0.118365719305387,0.0432051219357853
-0.0949348937182512,0.054646970951289
-0.131879696217362,0.0333917767802375
-0.0811683848352524,0.0349062987567691
-0.0839286805999381,0.0605809362724804
-0.0802618222409103,0.0624901898007056
-0.0765959019859622,0.0643643560882331
-0.0791052858760327,0.0386542124730399
-0.0692668720216053,0.0680056994581259
-0.0524757001544591,0.119558423133568
-0.0928111391249648,0.0277262103262252
-0.0662814083628095,0.118651634446436
-0.0618033256016798,0.0480419593970071
-0.0509606480148563,0.0764648002169479
-0.0170564483530415,0.0896712432317767
-0.0726472968324876,0.0404107406002275
-0.0200937145380857,0.130088859822937
-0.0512614300114455,0.0555367674187961
-0.032677688275092,0.0839603458049004
-0.0124584889997779,0.0959199006147387
-0.0253709920070406,0.0866766762107585
0.00103549135835607,0.114448315424477
-0.0543416252992707,0.071155782074354
-0.0465430707464678,0.090790859715738
-0.0549744362964266,0.0846247491472565
-0.00712040448929442,0.0927325516983983
-0.0034730485641816,0.0938142803108741
0.045021917748883,0.052292775244643
-0.0288433419298654,0.135295929310706
0.0251640250126059,0.13531588589595
0.0231627122866284,0.129108752014696
0.0147499749613275,0.0985519380558002
-0.010673217125287,0.0924222286916011
-0.000722748932462443,0.0687649823262
0.0435854639195747,0.0754454781338578
0.0293119429621724,0.101510969624771
0.0667490977911252,0.124173907080443
0.0417114939319522,0.139401881899599
0.0499136167772801,0.14062946970441
0.0352124866543583,0.152547165601645
0.0575401990292204,0.126697906276836
0.0214563005729462,0.0946447100113267
0.0442199384886372,0.0946885461011723
0.0320803669486515,0.0890493627198948
0.096355750126514,0.0664344014441495
0.0799187432867032,0.143509455185344
0.0536134112403888,0.151100020437339
0.0948789586553407,0.105654775419827
0.0679503917488001,0.104230598344552
0.101700217038399,0.0588318518540274
0.133766679772529,0.0600229387683296
0.087414841025067,0.105383760415866
0.0801646217418722,0.0620926661931376
0.0483631006255178,0.0846239495134717
0.09828351668471,0.104597075793354
0.0747541891935777,0.102631030164457
0.105524839078336,0.103792094621523
0.0858455603535814,0.111406395151212
0.076289571711882,0.0855661729710421
0.125705362660943,0.0875096723476908
0.0968180209110989,0.0664131215204274
0.123612585165301,0.100772612581656
0.172657677568919,0.0615105786597907
0.0938096149819554,0.0882382809828945
0.11281150546497,0.0678604238290312
0.138066839719839,0.0972927221085463
0.103789175814537,0.0959026849118262
0.148343249496041,0.095102356399767
0.114918367902655,0.0531810648773574
0.199241177474225,0.117492588087793
0.156114828895099,0.0915671315350925
0.146554115596281,0.0648225192815409
0.18231972423448,0.1050955793419
0.208325571249791,0.0656630702143114
0.173993670151184,0.0630621207615029
0.188860797511029,0.092702912120931
0.177743488722191,0.0826074305300082
0.146300117239236,0.0422850793772016
0.180317683893022,0.0873526251069985
0.188546044113584,0.0772457844031167
0.192145157814896,0.0753250535002461
0.19821481906381,0.0516068303703477
0.162576954296928,0.0746466360613073
0.250735828052974,0.0799327159737239
0.206532947252388,0.0669630356987744
0.192522267471388,0.0689233616715246
0.240809186517536,0.0353598663091471
0.217314717061262,0.0599663810667018
0.220906917301869,0.0574937373964971
0.23249583748122,0.0145160260442732
0.247032537988381,0.0795578089836026
0.280284541234435,0.0744962836361701
0.235267128230542,0.0468895188643188
0.277043780401374,0.0437024928621115
0.264381827295956,0.0716684093203685
0.246028293258507,0.0381749365397784
0.242620812431056,0.00432924855469652
0.271450794927263,0.0790618640325188
0.286764388999995,0.0718009596118168
0.266810799544948,0.0376026351552174
0.263946513794281,0.0221657621938759
0.311712599460169,-0.00188390432056965
0.258755232437878,0.0192256589275862
0.265994603042352,-0.0204140934176429
0.290576029377967,-0.0130128519329119
0.330400648939136,0.0202129068954809
0.285420383512291,0.000438208602403956
0.284862593085886,0.0221177704370325
0.314221473911164,-0.0332350856755102
0.25173610791344,-0.0146158910340913
0.299719424203974,-0.0156151926118888
0.326240916495728,-0.0302277966740363
0.33866692447905,-0.0340830730684714
0.268532947785745,-0.0753631242067739
0.314005037244467,-0.0329555325661092
0.317574349496655,-0.0374949407635313
0.353715965800294,-0.0094538278271407
0.32636281470379,-0.0127100320368734
0.316639293923206,-0.0240474043443838
0.283651514323154,-0.0294690234863838
0.335408411793736,-0.0614395145422008
0.3865088714331,-0.029532273546806
0.307146728551078,-0.0596847473278045
0.364408143196676,-0.100509320929799
0.361483635085901,-0.0602343745548743
0.319494461815809,-0.0954443755722433
0.372483101451587,-0.124235956977271
0.360341273295702,-0.0985336101283176
0.328169918232232,-0.0900636070708769
0.367457524907913,-0.109915424359994
0.371014418238621,-0.11573907436418
0.324606402803973,-0.165869765670828
0.378125744657617,-0.127654019503083
0.381680179629256,-0.133746178379334
0.336177226342279,-0.140112318699664
0.437145490446774,-0.173102463052341
0.435291309857999,-0.196973192822165
0.395889753235829,-0.159022799580901
0.399440109775853,-0.16557111065927
0.450414999363531,-0.132285010309337
0.369471643491076,-0.218261041339674
0.38406217273904,-0.165716218887949
0.398462857131792,-0.199114176688678
0.451883709328965,-0.215355425025948
0.385305289404617,-0.195176782704203
0.424269898173481,-0.214024202447102
0.38090842568552,-0.196808998003881
0.410198240591572,-0.277138018751805
0.449762603312426,-0.188911705005786
0.482748799065185,-0.266215285117707
0.432387414800726,-0.268193977256163
0.460852568816512,-0.249465635699457
0.399865678653565,-0.24220957617218
0.497463133910052,-0.310859689692744
0.454172516863386,-0.246250203743139
0.497683675017767,-0.327668913205233
0.463208440697473,-0.299681147859189
0.513765242824463,-0.264293944728834
0.478581156975135,-0.340951313353417
0.427370392789435,-0.33004096756301
0.49740635102696,-0.363465457658099
0.505103378974329,-0.359975463744555
0.484406974199689,-0.351481695121941
0.476571856034495,-0.351973403104593
0.505307404341074,-0.3837318966117
0.494995559713381,-0.378765166338294
0.510050525082701,-0.385887596665896
0.518659707899454,-0.417604977328123
0.505577058302429,-0.406986316625581
0.552819311571516,-0.437637149191997
0.46389707860325,-0.429227585426029
0.554310685401941,-0.462189871932665
0.496784694451859,-0.449002579864521
0.516120606959774,-0.418553353566238
0.570448217709729,-0.437362994705468
0.513889783496779,-0.482303773740271
0.57557445039953,-0.428968421427894
0.533355584495749,-0.484870541927377
0.534701363661069,-0.466137134480109
0.50134820944046,-0.507917642547366
0.560383276210066,-0.466169557968553
0.527071176694522,-0.535375234667545
0.549319823314152,-0.530059947268496
0.550343228796561,-0.513933056542922
0.585143147355549,-0.52813881524749
0.558304838322319,-0.55545466979083
0.597198064679957,-0.513655970109027
0.576695238898365,-0.549930272639239
0.520724194308081,-0.589537180554676
0.592336888565077,-0.595536739602865
0.559027900691484,-0.640975800208826
0.586532287875004,-0.62935253312581
0.577585313982773,-0.609810599642951
0.580151049152694,-0.617025558879161
0.613129262012063,-0.578495902362646
0.587678080202395,-0.680593867640624
0.579457894211214,-0.621992834839907
0.575626337429421,-0.685417309911733
0.59228970113989,-0.651079953987755
0.594581289356838,-0.657491356633256
0.566720442817392,-0.712423259833705
0.61929344983333,-0.67140326290143
0.581762447318976,-0.66585838430856
0.607744759040878,-0.711888276208136
0.636020986772277,-0.729866164679648
0.587361019878425,-0.707797868618235
0.584178889686148,-0.708141123887756
0.632331354103888,-0.706332333987358
0.622114542587318,-0.711463952609377
0.589145807560919,-0.692744911675026
0.655308387925126,-0.691902129008699
0.587772787649773,-0.770185055569522
0.62039564344291,-0.729101190297306
0.622084807276082,-0.733729704329948
0.623732936430404,-0.738235801859822
0.656358128186218,-0.78488809030798
0.626907155040777,-0.746883378175989
0.628433776665968,-0.751026172344648
0.629920427950589,-0.755049180775266
0.649085140940264,-0.740368553430538
0.62885173764676,-0.760524069780174
0.648932685847074,-0.752859780629363
0.630507922360559,-0.778837900457656
0.671419240126347,-0.733175356300569
0.638015859242281,-0.77670856156629
0.639230168510878,-0.779911485183712
0.640406636115467,-0.782999884592548
0.641545528140618,-0.785974417483979
0.646562863598202,-0.821516667298551
0.643711649790886,-0.791584514479356
0.644739411585143,-0.794221393965666
0.645730662138242,-0.796747037699299
0.617938760538319,-0.807503782149881
0.64760469385925,-0.801467248673262
0.637377491870269,-0.763070777875837
0.634688876713531,-0.806830145948177
0.624865357724742,-0.826757682961668
0.611253189211942,-0.794530264632959
0.651669452361424,-0.811367188819059
0.65237819202979,-0.813026623413825
0.65305281521813,-0.814580741476551
0.653693588011014,-0.81603020069842
0.697073666521268,-0.791823977477505
0.635579403963173,-0.834075604971417
0.694776787016181,-0.865869353977712
0.62205867967686,-0.825986422893461
0.656399009003555,-0.821730633386259
0.671244716388692,-0.825417730671183
0.657253537592337,-0.823301213766754
0.652828175467641,-0.807353732610405
0.684141078776207,-0.845327379499204
0.622750580429498,-0.794344758870057
0.683673639097872,-0.874517709886946
0.629970238456814,-0.828501006109319
0.672075655990415,-0.831561739077734
0.683810201301997,-0.872887367239528
0.659424069957306,-0.825660258127167
0.659559423924443,-0.825524621896043
0.695281456166265,-0.845681116141422
0.671438894616075,-0.780190859769185
0.612612043043045,-0.872398352461201
0.659810231061063,-0.824053872975706
0.659801611085087,-0.823457423202571
0.688760295403125,-0.773636559396143
0.63744477511207,-0.855072508160331
0.682106368428737,-0.785861042315277
0.659489826677768,-0.820176304673281
0.638708531852571,-0.839746330818406
0.665621464615182,-0.818270838308156
0.658972269011657,-0.816793795720821
0.650738960923942,-0.807039708804515
0.658496117378696,-0.814109764617626
0.617283888102863,-0.860777724527351
0.657917558650614,-0.811088651857553
0.692692848158931,-0.814411238000426
0.657238721503972,-0.807735718970055
0.619264943404521,-0.787707507073056
0.656423098388118,-0.853944719413327
0.700849443945125,-0.795158631123733
0.624956871195259,-0.812658571922361
0.645461718334988,-0.813764957600275
0.690504709855918,-0.811737606872329
0.654103831712426,-0.793463333691856
0.621305784984513,-0.788898028495775
0.631466780582569,-0.830690469628423
0.652414863172021,-0.786177906152131
0.65188534574773,-0.799330899291302
0.687913044110048,-0.80667246677622
0.613249233829537,-0.806738104200147
0.649857874588974,-0.775416193663919
0.609334690727162,-0.784198605649578
0.654195623459798,-0.775423451233791
0.615595248486855,-0.773417677256613
0.646967889981655,-0.76349556960857
0.646195358835309,-0.760339266346232
0.695074863260138,-0.726444402456431
0.645635159883509,-0.728474640214857
0.624443482169505,-0.73104022849373
0.650690442137882,-0.765107180393742
0.622123343482141,-0.694410951473806
0.641160366515198,-0.739972452105801
0.640257050344163,-0.736345955739026
0.658276346049884,-0.717010342836301
0.595142039122332,-0.718161548615063
0.637442450749287,-0.725081859330848
0.612825628043138,-0.759401191316973
0.635481502630265,-0.717258532547338
0.634476462307733,-0.71325466347571
0.603067627408586,-0.701901637854863
0.650199307729473,-0.73923000714368
0.620569142365798,-0.745014103776335
0.656938434902494,-0.64849063017199
0.650984155059909,-0.736161274656007
0.635914654689834,-0.736724825074805
0.639053234687377,-0.645425437335131
0.624861406644006,-0.639470616941496
0.662194045839417,-0.683428714822573
0.665246822332518,-0.643583199349597
0.602316752091937,-0.61850244823847
0.621242305742617,-0.660670038823767
0.666612087776042,-0.633968564427006
0.628984176462064,-0.691106177573001
0.617627137318588,-0.646293710662487
0.631077027098564,-0.680222590879769
0.615156424258112,-0.636454754916611
0.640877260081188,-0.627807508703687
0.615201332474977,-0.610665120088967
0.64881134001401,-0.647294040644731
0.610079135314992,-0.616189151575349
0.570845655808721,-0.565033571589761
0.620481684641911,-0.573644282022945
0.638254094771541,-0.633403467066113
0.636482033080034,-0.546984727751136
0.596520916711232,-0.618211728220116
0.602155474993314,-0.584400439881512
0.561551191901741,-0.607675365702082
0.569983564316147,-0.584122692827519
0.598070733671679,-0.567918920961858
0.641672819147985,-0.58758593242455
0.592524284913649,-0.569933090100481
0.595422197039763,-0.573654398604928
0.559753969346062,-0.528339545423821
0.591105575420255,-0.539641236053875
0.563607647191997,-0.56238140782455
0.597394827792928,-0.559090019919
0.586843834561268,-0.522218471495952
0.5704649361028,-0.480417796394078
0.571285129355455,-0.54624786418035
0.582528890061997,-0.504475295537182
0.55577057688396,-0.52458762900065
0.619831015655433,-0.459918050177485
0.578167926205837,-0.486429465839475
0.554549023156542,-0.521109812524665
0.605184756963254,-0.444641974667027
0.532653627052359,-0.427425460649124
0.572294139344627,-0.461928257126007
0.547281515445614,-0.417169928815895
0.569336677556429,-0.449500875874893
0.526481529951207,-0.461302168931966
0.578392649755981,-0.477726178703057
0.564880761329971,-0.430653630931839
0.569673477874719,-0.430062898801992
0.541715397047652,-0.391827356150591
0.576602551555554,-0.361713713729421
0.543902835731516,-0.356899559082029
0.557419377139455,-0.398735607261854
0.520170399498408,-0.418429568743902
0.516896088625651,-0.407127872846483
0.509762527491664,-0.414769156415299
0.590112916009312,-0.368621951985979
0.560585229772908,-0.323499920701156
0.536775679403397,-0.345159799029453
0.560446472332799,-0.397828627599087
0.545464327974736,-0.346533702288925
0.537155598892706,-0.317154756718742
0.587456613709477,-0.329096865852263
0.512878781208567,-0.306726450100154
0.567116413934143,-0.304978274917819
0.538033787200537,-0.313327594523214
0.525052867373126,-0.304544248255415
0.531599033493594,-0.271625896451256
0.533607765362201,-0.293231898841226
0.486899513558271,-0.320322584251046
0.517951823743266,-0.30682890341366
0.52921475128432,-0.273028883701318
0.542859724098018,-0.281257818646362
0.524187156938191,-0.228898970330577
0.524861929250287,-0.252736306765402
0.481210895786211,-0.205508799762244
0.511100227656314,-0.194393223296189
0.5362431482524,-0.209290199824444
0.470621102714203,-0.268821969722052
0.517716054381709,-0.21876454967886
0.516305598447347,-0.211953498153186
0.517577973643961,-0.170571081781119
0.513505534294537,-0.198319956522929
0.470769455184533,-0.226989188661283
0.512209521117658,-0.165516392550253
0.50936154862366,-0.177850912997995
0.507996247220539,-0.171025534299865
0.506639402868621,-0.164200069658795
0.523337860762975,-0.155250385889049
0.46157726458993,-0.179782934152596
0.4794092520117,-0.185009179506115
0.538448625337694,-0.117555355956555
0.494757120373769,-0.103206185332716
0.468113662603782,-0.0827009068000104
0.5463121702792,-0.164733988578482
0.45726292619353,-0.0978840208702713
0.520299185420254,-0.0697286094032277
0.48272005308303,-0.143392566308903
0.526214751374597,-0.136388899641413
0.48864088339737,-0.0968358717644652
0.503517864128063,-0.10902158763178
0.523489080762397,-0.0569610523823048
0.487482521241866,-0.0622550168936973
0.436632971646779,-0.0612101273456622
0.485124813668493,-0.0487913242461192
0.514100444921773,-0.0392826699617348
0.482820092388984,-0.0353746415918783
0.481688266820853,-0.028685573240214
0.433917064880462,-0.0575312676508873
0.44178793511433,-0.00967419261917329
0.478378123417799,-0.00870335238122863
0.477304073665794,-0.00207313246417543
0.430134934784092,-0.0447764436717628
0.454226525458839,-0.00257481389737216
0.442218411625424,0.0624205330154332
0.508889122189607,-0.00521634072265797
0.438057401032169,0.0451098017906601
0.471186380588318,0.0373416847780204
0.470223682770486,0.0438435988240016
0.516373561126095,0.0551674754004304
0.427125541770628,0.0940103933706376
0.467438484199959,0.0632209491479344
0.416824125068267,0.0355155631774112
0.450029765749441,0.0581416727863384
0.464813215729861,0.0823919002360307
0.46397490799014,0.0887332815430284
0.463155434599859,0.0950490988368721
0.462355061643587,0.10133869442638
0.441206282459854,0.0877195041902715
0.496738458920698,0.0701529050937819
0.460071206224531,0.120043574057072
0.495171760906015,0.124393588677658
0.460392632205806,0.122547622506488
0.457968833756087,0.138488781466195
0.457309614205848,0.144576409772261
0.476120305420113,0.166032622261109
0.415273506854494,0.125708472547103
0.471626209883781,0.188460944821665
0.456298143314824,0.127636148711825
0.487790826069728,0.217585674806925
0.412928581727551,0.200999713053672
0.410379698303931,0.233618714243531
0.496644456622728,0.2413156248351
0.473171651077218,0.157127128394614
0.45192892373894,0.203612595929426
0.477219267391419,0.253749085345197
0.404906252621109,0.235581002990938
0.450768463898245,0.220611203885967
0.457553569842296,0.225505429620541
0.450117821580081,0.231744539246522
0.443727742891645,0.280678158719837
0.492837889413631,0.193440708764282
0.43982554689573,0.287833906520429
0.441350926614766,0.212696046006075
0.456337190889169,0.270555273376029
0.474094087811937,0.246059252106576
0.44864898484884,0.269374203273573
0.409006955719715,0.291156358149335
0.448469072682825,0.279721829262331
0.406124000647651,0.266297193612143
0.44839962107783,0.289880383962466
0.496197878011366,0.280684610480757
0.480649148066285,0.296480601781781
0.464217690192551,0.2833071518953
0.490853869741933,0.304223382385513
0.402325456119278,0.28329095596481
0.44887531639459,0.319169005036583
0.40619444539818,0.326169378487888
0.439382355280534,0.360020619246276
0.402216327649101,0.342110508863242
0.409918386441514,0.372145275566825
0.410744485703489,0.355700159683931
0.424298733318114,0.35481332290365
0.450787673545286,0.350939002475173
0.451221445941644,0.345343256395303
0.451614527713347,0.359511811259257
0.490365580132937,0.369318951740119
0.413250286273426,0.367924475891782
0.459515541931149,0.39046029262498
0.45365602766141,0.375950784430999
0.475375193033248,0.408880221987137
0.407530837423229,0.359420322374959
0.459764935948242,0.420421120084412
0.456228774269138,0.391412488211139
0.482389982727749,0.346853074795684
0.423592826591631,0.436430540903426
0.458517209101291,0.402342111897503
0.507268054365488,0.369801698494657
0.498686925892574,0.455482374687512
0.505522918265144,0.461210313909202
0.449300136072746,0.424627868457978
0.463036125113555,0.419235718654051
0.417042256910788,0.382796974002383
0.465096600443967,0.42551496377684
0.496585117907512,0.413188001123093
0.467304788175226,0.431513060845543
0.505125171381056,0.470996902383052
0.50199629624333,0.390614461300443
0.506092242348663,0.419328213180267
0.491262373095328,0.465464119293558
0.473485468697009,0.445243751993626
0.515280327685041,0.492379860937982
0.441406555004445,0.493885884750228
0.487897523243902,0.495442834763469
0.479126649066664,0.454884215726882
0.447274712580148,0.446599297155787
0.482185305096112,0.459241948659105
0.483775080867987,0.461302888472479
0.485405509924056,0.463284333595785
0.447783963518336,0.470210681074011
0.487863298113362,0.45207569062355
0.461235220748676,0.515196747991043
0.47674497603737,0.502339948732326
0.469130006842781,0.490515051105931
0.496056703964473,0.473466785138013
0.497979156377865,0.474873352077752
0.487832155614552,0.451127574459554
0.453227366911245,0.485521189743031
0.498702488392229,0.49629601613832
0.506099446484689,0.479645480729663
0.543288593970805,0.511115210827886
0.531105677808459,0.450089854460092
0.547871039895252,0.469569317803875
0.525579271183356,0.474050926377734
0.48928909456511,0.519595007247317
0.519600592307414,0.484168910356384
0.545185113722662,0.495519486900553
0.524461678464565,0.484953070553832
0.542299847588503,0.531184131845079
0.481046030684486,0.438621117677649
0.535233502423026,0.527843494925951
0.485206773993068,0.456762740348646
0.508986227408096,0.491072918367367
0.519924258357127,0.530309408589879
0.542937661185852,0.484744674276136
0.526867992337907,0.528524261609209
0.505144271760698,0.498385443178436
0.567219689315456,0.481739931667744
0.541606474027416,0.514844216488419
0.557564597037318,0.481691403056353
0.568759445207837,0.50652320771012
0.563757684718992,0.479770912751498
0.566928645756913,0.478658212159285
0.570149573038985,0.477442997685637
0.622121379901983,0.442380019559563
0.591855498543868,0.492058751910045
0.588025646544541,0.464406238786202
0.583538266300179,0.471543847153077
0.587013016071555,0.469806197904534
0.590539328594503,0.467962088627467
0.594117469953591,0.466010861630693
0.611257390065682,0.508647473649139
0.629013691917352,0.464514570148748
0.605165527893408,0.459507897410313
0.58467082656001,0.416660898474917
0.60715359992713,0.500182284859388
0.585493036485909,0.449374658479792
0.620638017983069,0.449297730442214
0.594789872252822,0.464837394791945
0.673402888408696,0.457937191025058
