0.544612931844759,0.0291731944174056
0.542420928344589,0.0238066439600605
0.540266397083394,0.0185283550901903
0.538149005497434,0.0133378013829448
0.53606842102297,0.00823445641347389
0.534024311096262,0.00321779375692756
0.532016343153572,-0.00171271301154434
0.53004418463116,-0.0065575903167919
0.528107502965288,-0.0113173645836652
0.526205965592215,-0.0159925622370144
0.524339239948203,-0.0205837097016896
0.522506993469512,-0.0250913334025409
0.520708893592404,-0.0295159597644183
0.518944607753139,-0.033858115212172
0.517213803387978,-0.0381183261706521
0.515516147933181,-0.0422971190647087
0.51385130882501,-0.0463950203191918
0.512218953499726,-0.0504125563589517
0.510618749393588,-0.0543502536088383
0.509050363942859,-0.0582086384937018
0.507513464583798,-0.0619882374383924
0.506007718752668,-0.06568957686776
0.504532793885727,-0.0693131832066548
0.503088357419237,-0.0728595828799269
0.50167407678946,-0.0763293023124264
0.500289619432656,-0.0797228679290035
0.498934652785085,-0.0830408061545081
0.497608844283008,-0.0862836434137904
0.496311861362687,-0.0894519061317006
0.495043371460382,-0.0925461207330887
0.493803042012353,-0.0955668136428047
0.492590540454863,-0.0985145112856989
0.491405534224171,-0.101389740086621
0.490247690756538,-0.104193026470422
0.489116677488225,-0.106924896861951
0.488012161855493,-0.109585877686059
0.486933811294603,-0.112176495367595
0.485881293241815,-0.11469727633141
0.484854275133391,-0.117148747002354
0.483852424405591,-0.119531433805277
0.482875408494675,-0.121845863165029
0.481922894836906,-0.12409256150646
0.480994550868543,-0.12627205525442
0.480090044025847,-0.12838487083376
0.47920904174508,-0.130431534669329
0.478351211462501,-0.132412573185977
0.477516220614373,-0.134328512808556
0.476703736636954,-0.136179879961914
0.475913426966508,-0.137967201070901
0.475144959039293,-0.139691002560369
0.474398000291572,-0.141351810855167
0.473672218159604,-0.142950152380145
0.472967280079651,-0.144486553560153
0.472282853487973,-0.145961540820042
0.471618605820832,-0.147375640584661
0.470974204514488,-0.148729379278861
0.470349317005201,-0.150023283327491
0.469743610729233,-0.151257879155402
0.469156753122845,-0.152433693187444
0.468588411622297,-0.153551251848467
0.46803825366385,-0.154611081563321
0.467505946683765,-0.155613708756856
0.466991158118302,-0.156559659853923
0.466493555403724,-0.157449461279371
0.466012805976289,-0.15828363945805
0.46554857727226,-0.159062720814811
0.465100536727896,-0.159787231774504
0.464668351779459,-0.160457698761978
0.46425168986321,-0.161074648202085
0.463850218415409,-0.161638606519673
0.463463604872318,-0.162150100139594
0.463091516670196,-0.162609655486696
0.462733621245305,-0.163017798985831
0.462389586033906,-0.163375057061849
0.462059078472258,-0.163681956139599
0.461741765996625,-0.163939022643931
0.461437316043265,-0.164146782999696
0.46114539604844,-0.164305763631744
0.460865673448411,-0.164416490964925
0.460597815679438,-0.164479491424089
0.460341490177782,-0.164495291434087
0.460096364379705,-0.164464417419767
0.459862105721466,-0.164387395805981
0.459638381639326,-0.164264753017578
0.459424859569548,-0.164097015479408
0.459221206948391,-0.163884709616323
0.459027091212115,-0.163628361853171
0.458842179796983,-0.163328498614802
0.458666140139254,-0.162985646326068
0.45849863967519,-0.162600331411818
0.458339345841051,-0.162173080296902
0.458187926073098,-0.16170441940617
0.458044047807592,-0.161194875164473
0.457907378480794,-0.16064497399666
0.457777585528965,-0.160055242327581
0.457654336388364,-0.159426206582087
0.457537298495254,-0.158758393185028
0.457426139285895,-0.158052328561254
0.457320526196548,-0.157308539135615
0.457220126663473,-0.156527551332961
0.457124608122932,-0.155709891578142
0.457033638011185,-0.154856086296008
0.456946883764492,-0.15396666191141
0.456864012819116,-0.153042144849197
0.456784692611316,-0.15208306153422
0.456708590577354,-0.151089938391328
0.45663537415349,-0.150063301845372
0.456564710775985,-0.149003678321202
0.4564962678811,-0.147911594243668
0.456429712905095,-0.146787576037621
0.456364713284232,-0.145632150127909
0.456300936454771,-0.144445842939383
0.456238049852974,-0.143229180896894
0.4561757209151,-0.141982690425292
0.456113617077411,-0.140706897949426
0.456051405776167,-0.139402329894147
0.45598875444763,-0.138069512684304
0.45592533052806,-0.136708972744749
0.455860801453717,-0.13532123650033
0.455794834660863,-0.133906830375899
0.45572709758576,-0.132466280796305
0.455657257664666,-0.131000114186398
0.455584982333843,-0.129508856971028
0.455509939029553,-0.127993035575046
0.455431795188055,-0.126453176423302
0.455350218245611,-0.124889805940645
0.455264875638481,-0.123303450551927
0.455175434802926,-0.121694636681996
0.455081563175207,-0.120063890755703
0.454982928191586,-0.118411739197898
0.454879197288321,-0.116738708433432
0.454770037901675,-0.115045324887154
0.454655117467909,-0.113332114983914
0.454534103423282,-0.111599605148563
0.454406663204057,-0.10984832180595
0.454272464246492,-0.108078791380926
0.454131173986851,-0.106291540298341
0.453982459861393,-0.104487094983045
0.453825989306378,-0.102665981859888
0.453661429758069,-0.10082872735372
0.453488448652725,-0.098975857889392
0.453306713426608,-0.0971078998917528
0.453115891515978,-0.095225379785653
0.452915650357096,-0.0933288239959428
0.452705657386223,-0.0914187589474723
0.45248558003962,-0.0894957110650915
0.452255085753547,-0.0875602067736506
0.452013841964266,-0.0856127724979996
0.451761516108037,-0.0836539346629888
0.451497775621121,-0.0816842196934681
0.451222287939778,-0.0797041540142877
0.45093472050027,-0.0777142640502976
0.450634740738858,-0.075715076226348
0.450322016091802,-0.0737071169672891
0.449996213995362,-0.0716909126979708
0.449657001885801,-0.0696669898432432
0.449304047199378,-0.0676358748279566
0.448937017372355,-0.065598094076961
0.448555579840991,-0.0635541740151064
0.448159402041549,-0.061504641067243
0.447748151410289,-0.0594500216582209
0.447321495383471,-0.0573908422128903
0.446879101397357,-0.0553276291561011
0.446420636888207,-0.0532609089127035
0.445945769292282,-0.0511912079075477
0.445454166045843,-0.0491190525654836
0.44494549458515,-0.0470449693113614
0.444419422346465,-0.0449694845700312
0.443875616766049,-0.0428931247663432
0.443313745280161,-0.0408164163251474
0.442733475325064,-0.0387398856712939
0.442134474337017,-0.0366640592296328
0.441516409752281,-0.0345894634250143
0.440878949007119,-0.0325166246822884
0.440221759537789,-0.0304460694263051
0.439544508780553,-0.0283783240819147
0.438846864171672,-0.0263139150739673
0.438128493147406,-0.0242533688273129
0.437389063144017,-0.0221972117668015
0.436628241597765,-0.0201459703172835
0.435845695944911,-0.0181001709036088
0.435041093621715,-0.0160603399506275
0.43421410206444,-0.0140270038831898
0.433364388709344,-0.0120006891261457
0.43249162099269,-0.00998192210434531
0.431595466350739,-0.00797122924263886
0.430675592219749,-0.00596913696587625
0.429731666035984,-0.00397617169890779
0.428763355235703,-0.00199285986658344
0.427770327255167,-1.97278937534018e-05
0.426752249530637,0.00194269779473233
0.425708789498374,0.00389389077402361
0.424639614594639,0.0058333246192703
0.423544392255692,0.00776047290562232
0.422422789917795,0.00967480920822959
0.421274475017207,0.011575807102242
0.420099114990191,0.0134629401628094
0.418896377273007,0.0153356819650818
0.417665929301914,0.0171935060842089
0.416407438513175,0.0190358860953408
0.415120572343051,0.0208622955736273
0.413804998227801,0.0226722080942184
0.412460383603687,0.0244650972322638
0.411086395906969,0.0262404365629136
0.409682702573909,0.0279976996613175
0.408248971040768,0.0297363601026256
0.406784868743805,0.0314558914619876
0.405290063119281,0.0331557673145537
0.403764221603459,0.0348354612354734
0.402207011632598,0.0364944467998969
0.400618100642959,0.038132197582974
0.398997156070803,0.0397481871598545
0.397343845352391,0.0413418891056885
0.395657835923983,0.0429127769956258
0.393938795221841,0.0444603244048162
0.392186390682226,0.0459840049084098
0.390400289741397,0.0474832920815562
0.388580159835616,0.0489576594994057
0.386725668401144,0.0504065807371078
0.384836482874242,0.0518295293698127
0.382912270691169,0.0532259789726701
0.380952699288188,0.0545954031208301
0.378957436101559,0.0559372753894423
0.376926148567542,0.0572510693536569
0.374858504122399,0.0585362585886236
0.37275417020239,0.0597923166694924
0.370612814243776,0.0610187171714131
0.368434103682819,0.0622149336695358
0.366217705955778,0.0633804397390101
0.363963288498914,0.0645147089549862
0.361670518748489,0.0656172148926137
0.359339064140763,0.0666874311270428
0.356968592111997,0.0677248312334231
0.354558770098452,0.0687288887869047
0.352109265536389,0.0696990773626376
0.349619745862068,0.0706348705357714
0.34708987851175,0.0715357418814561
0.344519330921696,0.0724011649748417
0.341907770528167,0.0732306133910781
0.339254864767423,0.074023560705315
0.336560281075726,0.0747794804927025
0.333823686889337,0.0754978463283905
0.331044749644515,0.0761781317875287
0.328223136777522,0.0768198104452672
0.325358515724619,0.0774223558767558
0.322450553922066,0.0779852416571445
0.319498918806125,0.0785079413615831
0.316503277813055,0.0789899285652214
0.313463298379119,0.0794306768432095
0.310378647940576,0.0798296597706972
0.307248993933688,0.0801863509228345
0.304074003794715,0.0805002238747711
0.300853344959918,0.080770752201657
0.297586684865559,0.0809974094786421
0.294273690947897,0.0811796692808764
0.290914030643193,0.0813170051835096
0.287507371387709,0.0814088907616918
0.284053380617705,0.0814547995905727
0.280551725769442,0.0814542052453023
0.27700207427918,0.0814065813010306
0.273404093583182,0.0813114013329073
0.269757451117707,0.0811681389160824
0.266061814319016,0.0809762676257058
0.26231685062337,0.0807352610369274
0.258522227467029,0.080444592724897
0.254677612286256,0.0801037362647646
0.25078267251731,0.0797121652316801
0.246837075596452,0.0792693532007934
0.242840488959943,0.0787747737472544
0.238792580044044,0.0782279004462129
0.234693016285016,0.0776282068728189
0.230541465119119,0.0769751666022223
0.226337593982614,0.0762682532095729
0.222081070311763,0.0755069402700207
0.217771561542825,0.0746907013587155
0.213408735112062,0.0738190100508073
0.208992258455735,0.0728913399214461
0.204521799010104,0.0719071645457814
0.19999702421143,0.0708659574989635
0.195417601495974,0.0697671923561421
0.190783198299996,0.0686103426924673
0.186093482059759,0.0673948820830886
0.181348120211521,0.0661202841031563
0.176546780191545,0.06478602232782
0.171689129436091,0.06339157033223
0.166774835381419,0.0619364016915357
0.161803565463791,0.0604199899808873
0.156774987119468,0.0588418087754346
0.15168876778471,0.0572013316503276
0.146544574895777,0.0554980321807161
0.141342075888932,0.05373138394175
0.136080938200434,0.0519008605085792
0.130760829266545,0.0500059354563537
0.125381416523524,0.0480460823602233
0.119942367407634,0.0460207747953379
0.114443349355135,0.0439294863368474
0.108884029802287,0.0417716905599017
0.103264076185352,0.0395468610396508
0.0975831559405904,0.0372544713512445
0.0918409365042625,0.0348939950698326
0.0860370853126297,0.0324649057705651
0.0801712698019523,0.029966677028592
0.0742431574084918,0.0273987824190631
0.0682524155685082,0.0247606955171282
0.0621987117182631,0.0220518898979374
0.0560817132940166,0.0192718391366404
0.0499010877320301,0.0164200168083873
0.0436565024685639,0.0134958964883278
0.0373476249398794,0.0104989517516119
0.0309741225822367,0.0074286561733895
0.0245356628318972,0.00428448332881048
0.0180319131251212,0.00106590679302471
0.0114625408981701,-0.00222759985881775
0.00482721358730409,-0.0055965630515673
-0.00187440137121542,-0.00904150921007378
-0.00864263654112821,-0.0125629647591874
-0.0154778244861729,-0.0161614561237583
-0.0223802977700893,-0.0198375097286365
-0.0293503889566159,-0.0235916519986721
-0.0363884306094927,-0.0274244093587153
-0.0434947552924581,-0.031336308233616
-0.0506696955692519,-0.0353278750482247
-0.0579135840036127,-0.039399636227391
-0.0652267531592805,-0.0435521181959655
-0.0726095355999937,-0.0477858473787977
-0.0800622638894919,-0.0521013502007384
-0.0875852705915142,-0.0564991530866371
-0.0951788882697999,-0.0609797824613443
-0.102843449488088,-0.0655437647497098
-0.110579286810118,-0.0701916263765841
-0.118386732799629,-0.0749238937668168
-0.12626612002036,-0.0797410933452585
-0.134217781036049,-0.0846437515367588
-0.142242048410438,-0.0896323947661683
-0.150339254707264,-0.0947075494583367
-0.158509732490267,-0.0998697420381144
-0.166753814323186,-0.105119498930351
-0.175071832769761,-0.110457346559898
-0.183464120393729,-0.115883811351603
-0.191931009758832,-0.121399419730319
-0.200472833428807,-0.127004698120894
-0.209089923967394,-0.132700172948179
-0.217782613938332,-0.138486370637023
-0.226551235905361,-0.144363817612278
-0.235396122432219,-0.150333040298793
-0.244317606082646,-0.156394565121418
-0.253316019420381,-0.162548918505003
-0.262391695009164,-0.168796626874399
-0.271544965412732,-0.175138216654455
-0.280776163194826,-0.181574214270022
-0.290085620919185,-0.188105146145949
-0.299473671149548,-0.194731538707087
-0.308940646449654,-0.201453918378287
-0.318486879383242,-0.208272811584397
-0.328112702514052,-0.215188744750268
-0.337818448405822,-0.222202244300751
-0.347604449622292,-0.229313836660694
-0.357471038727202,-0.23652404825495
-0.367418548284289,-0.243833405508366
-0.377447310857295,-0.251242434845795
-0.387557659009956,-0.258751662692085
-0.397749925306014,-0.266361615472087
-0.408024442309206,-0.274072819610651
-0.418381542583273,-0.281885801532627
-0.428821558691954,-0.289801087662865
-0.439344823198987,-0.297819204426215
-0.449951668668111,-0.305940678247528
-0.460642427663067,-0.314166035551653
-0.471417432747593,-0.32249580276344
-0.482277016485429,-0.330930506307741
-0.493221511440312,-0.339470672609403
-0.504251250175984,-0.348116828093279
-0.515366565256183,-0.356869499184218
-0.526567789244648,-0.36572921230707
-0.537855254705118,-0.374696493886685
-0.549229294201333,-0.383771870347913
-0.560690240297031,-0.392955868115605
-0.572238425555953,-0.40224901361461
-0.583874182541836,-0.411651833269778
-0.595597843818421,-0.421164853505961
-0.607409741949446,-0.430788600748007
-0.619310209498652,-0.440523601420767
-0.631299579029775,-0.450370381949091
-0.643378183106558,-0.460329468757829
-0.655546354292737,-0.470401388271831
-0.667804425152053,-0.480586666915947
-0.680152728248244,-0.490885831115028
-0.692591596145051,-0.501299407293924
-0.705121361406211,-0.511827921877483
-0.717742356595464,-0.522471901290558
-0.73045491427655,-0.533231871957997
-0.743259367013208,-0.544108360304652
-0.756156047369176,-0.555101892755371
-0.769145287908195,-0.566212995735005
-0.782227421194003,-0.577442195668404
-0.795402779790339,-0.58879001898042
-0.808671696260942,-0.6002569920959
-0.822034503169553,-0.611843641439696
-0.835491533079909,-0.623550493436657
-0.849043118555751,-0.635378074511634
