0.422317462983167,-0.80813444968838
0.391563328958645,-0.846540870527418
0.412883130983355,-0.779565613308329
0.394556977857913,-0.807711638274257
0.385506654835769,-0.80757143142539
0.36427911919689,-0.783706659968695
0.36770856579268,-0.807292140669815
0.317349544472367,-0.824711361213324
0.344655270157339,-0.770883316728071
0.355129302890339,-0.815015116864042
0.315018090227743,-0.799841346166686
0.324961139916955,-0.806600678230991
0.336203394685773,-0.788736915723803
0.294016911838387,-0.840304065831044
0.277309711014785,-0.765677167794452
0.292536721687517,-0.806054768592405
0.284673882711965,-0.805919337765596
0.299324591144143,-0.817102887247873
0.269237555592781,-0.805649764104513
0.266938474796169,-0.800348027121232
0.285354176583916,-0.755507887266516
0.246800939423272,-0.805248692365213
0.239512033217098,-0.805115897124997
0.232317498539363,-0.804983557195778
0.243987066847545,-0.810062684908756
0.194434419286882,-0.764704393115987
0.211296455296436,-0.804589315121426
0.204475738352102,-0.804458842283519
0.226268034000688,-0.804634732643236
0.175220804418041,-0.792539244074067
0.229487147779091,-0.769877598742497
0.183768351635198,-0.840489318996746
0.208901674168677,-0.827742121710958
0.139010866672796,-0.847866272639413
0.159301222283087,-0.803559179733678
0.153210532579849,-0.803432661145565
0.147209445510588,-0.803306657469973
0.149715607081292,-0.806065661233564
0.135474611921855,-0.803056213195284
0.129740131726313,-0.802931781765652
0.1678530418449,-0.799228947332564
0.141389278989344,-0.810791241921186
0.113064035478555,-0.802561705324398
0.10767989538214,-0.802439434408969
0.102382423215419,-0.802317715083923
0.0971712521403558,-0.802196551933993
0.0920460153189145,-0.80207594954391
0.0870063459130598,-0.801955912498407
0.0820518770847564,-0.801836445382219
0.0984186374125341,-0.839806412818699
0.0723970738086612,-0.801599239276711
0.113141503483561,-0.784956192991028
0.0534179361885023,-0.786821984907202
0.0792495621831115,-0.793907773810344
0.0728036453124494,-0.784195424313738
0.0951633838974768,-0.793712061545017
0.0436440435137776,-0.813977894895247
0.0412351553439717,-0.800787644636505
0.0371125161992275,-0.800674128973745
0.0317160608628583,-0.806814959357401
0.0291103671491857,-0.800448963317076
0.025230123567817,-0.800337322492632
-0.0176750068191665,-0.845626320123167
0.0230540206947337,-0.780162630805007
0.014079738141426,-0.84840280565774
0.0554043415430282,-0.835833258781504
0.00257982181809539,-0.807876899976774
-0.0249512223083751,-0.813378738606764
0.0309079417729073,-0.801148045660471
-0.0479726605919021,-0.75109706305318
-0.0196884739486954,-0.823946840099197
-0.0456706135956986,-0.803520389429598
-0.0122489804214772,-0.799152133692599
-0.0651646354853548,-0.826029344898507
-0.0180606711349739,-0.798945365134482
0.0115062127419573,-0.788090634486193
-0.0235711780461005,-0.798741371444746
0.0151555697217128,-0.790519423679696
-0.0121791086998262,-0.828381970146884
0.00838694095509269,-0.776461860734055
-0.0262528332185955,-0.80253865972328
-0.00482763018906421,-0.843167462941322
-0.0198517209404716,-0.809086964075556
-0.040528499584478,-0.798049775155795
-0.073937969831563,-0.808142262488512
-0.0666238865696192,-0.748556011394919
-0.0467086702161201,-0.797764309746932
-0.0724724183006415,-0.771887351987639
-0.0504737031029896,-0.797577735502573
-0.0238919232304881,-0.783942914310328
-0.101462244552606,-0.770521117849692
-0.0474398739022579,-0.781158610020066
-0.0571647809638669,-0.797213718531947
-0.0763013259137099,-0.845749391332544
-0.102291089401511,-0.802252484205929
-0.0283222483066738,-0.792273672251913
-0.0627567729694885,-0.796862121437856
-0.0583535854798106,-0.754394897623298
-0.0399035525330371,-0.802181393780418
-0.0570738759312036,-0.828982989410083
-0.0672731567541266,-0.796523237643189
-0.0186139199041027,-0.8348916749785
-0.0302246907985598,-0.776344639741642
-0.101089107967533,-0.761202507827622
-0.0584786394822077,-0.752412467745925
-0.0913922048379423,-0.79757997782661
-0.0570829275388293,-0.775029010715147
-0.0713596819467726,-0.839791040866484
-0.0947617079003737,-0.757734211021607
-0.0736239345203615,-0.795808751945093
-0.0373024263346385,-0.775499340533925
-0.0743387801459869,-0.795659255680837
-0.12375650446719,-0.813690702886598
-0.100981366193513,-0.779320126678475
-0.074949043604922,-0.795441497887816
-0.0691659395164516,-0.755183798767165
-0.113110877129803,-0.813915564435461
-0.120713110469786,-0.825313889838474
-0.122078425817177,-0.822747296715173
-0.100834779021529,-0.752700187548834
-0.0266877961644701,-0.797020268926777
-0.0770578246398991,-0.81851927021223
-0.115207998718305,-0.748068981961423
-0.0356091855281808,-0.807456193533825
-0.0696268915310154,-0.820996214721403
-0.0794357792345208,-0.79066574477374
-0.0709669783543274,-0.826360734491366
-0.0916108657292111,-0.752692872452533
-0.0834882209002436,-0.782278812492939
-0.0841584674513173,-0.747213340503804
-0.0692307968044272,-0.794416462975412
-0.0683924150877508,-0.794360282370309
-0.0537001891526193,-0.823550157364211
-0.0874853273548911,-0.76472563415239
-0.0923627728928656,-0.840546027275565
-0.0644986947757123,-0.7941451562658
-0.0984135627019765,-0.806133267664654
-0.0993711742116283,-0.809132530934492
-0.061021472889078,-0.79399401619163
-0.0817685965851634,-0.79203136910186
-0.077852697850985,-0.811882812627797
-0.0570778861555613,-0.793851760377336
-0.0816197318376309,-0.774554358945543
-0.0244556963148991,-0.795261200379272
-0.0980661706750167,-0.750480857696557
-0.0511114331907124,-0.793676119872275
-0.00921870035226875,-0.827025914823085
-0.0669242766396825,-0.834528426346076
-0.0868293502703779,-0.800441019244237
-0.0925240040535126,-0.761359462886412
-0.0425479831433037,-0.793479536371528
-0.034453415121777,-0.833716812923022
-0.0551687407171851,-0.822051161897982
0.0131498994697717,-0.743784709955957
0.00760171996929696,-0.842083641561695
-0.0327991265985399,-0.793309006790238
-0.0539812744008097,-0.79969204391523
-0.0325908865163591,-0.79186768560095
-0.0263998931307975,-0.793219433328901
-0.0237766032307147,-0.752324804777688
-0.00189674549516236,-0.770918468475969
-0.0411230399370372,-0.782274486287759
0.00185263564590352,-0.779226445782217
0.00139751215061043,-0.815030911294549
-0.035905969072098,-0.812820726073217
-0.001360686826722,-0.769477771338873
-0.007954369051246,-0.817177094986617
-0.004839807232456,-0.793009465166556
-0.00223345089238043,-0.792991674727139
-0.0395871998378441,-0.750555383786256
0.00310133447550051,-0.792959472478937
0.0127925113670735,-0.787052701298885
0.00859643784011785,-0.792931805636461
0.058111052699336,-0.800834231921237
0.0142489244971876,-0.792908710877573
0.158301186256929,-0.654419228188512
0.153874833221495,-0.933125860395837
-0.112360541982709,-0.695572251497285
0.0771511139692616,-0.730708647757173
-0.0766900491256835,-0.88820829697425
-0.0563929709088985,-0.886629336259485
0.0352296514318933,-0.792864413916343
0.0184306200028573,-0.74855341826751
0.0868582250830654,-0.802710119017659
-0.0665511944341436,-0.896294250760218
0.0974332415002335,-0.807197467429454
-0.0496863709407332,-0.690701906472513
-0.086401027390041,-0.870003473310695
-0.0840820424638696,-0.716933271830243
0.0847351160304568,-0.760482514120012
0.0791534844293246,-0.834601457682415
-0.0495496036989685,-0.897352136553895
0.166744578375466,-0.711041854954019
-0.0371221624017308,-0.885586832897401
0.192604728726802,-0.686305176068126
0.0823637891317786,-0.792951482230363
0.063445324289202,-0.793324486022623
0.199082127440312,-0.904990862955072
0.211789726796929,-0.902248876640819
0.253817973782076,-0.85937109030819
0.212276286844824,-0.909361427167157
-0.0213733619263257,-0.847600375725954
0.202038662277486,-0.62833514267975
0.0171938535442182,-0.729333346774774
-0.0075345465875528,-0.872822732654718
0.0259236780478272,-0.888264687411996
0.119165867993133,-0.771433053528387
0.158578930967626,-0.824066976301463
0.145694731811224,-0.778909360143141
0.0946953435536667,-0.81589494923814
0.135091371503256,-0.778165930988199
0.188269591271944,-0.746737159269219
0.147645839849693,-0.793387387895998
0.11134280171521,-0.780020663487389
0.118923643093992,-0.839889593250954
0.125665550713246,-0.783274777189631
0.120126886176064,-0.796456378161385
0.19823581598896,-0.778572494049121
0.155377268694301,-0.835513390304309
0.176701872255096,-0.793677013196168
0.20890052453291,-0.771435727678688
0.161281140025389,-0.833840966391759
0.167276136554493,-0.749666325372039
0.193799687360456,-0.793872299576889
0.239972141202459,-0.754611348169339
0.215188768715881,-0.752538945455791
0.206841021997274,-0.794033205159628
0.172786398312552,-0.745646042073127
0.215633539331191,-0.794147420889205
0.220058185756855,-0.794206626110517
0.201523111670057,-0.832773118393283
0.23416012530519,-0.765584815182916
0.271965205714549,-0.768937238415865
0.218608183035396,-0.750423830958773
0.242450621950803,-0.794523809171617
0.249338784509504,-0.746963390585139
0.241930896315369,-0.78865501170453
0.273963884835582,-0.818582835978584
0.264140060896486,-0.784117864812144
0.243551393532439,-0.815562430029064
0.22921159291936,-0.784229287434262
0.253644091239827,-0.761701322986259
0.294676737885782,-0.791794567055179
0.287986630324728,-0.809537535905362
0.28640993758555,-0.786654940376795
0.293110382195477,-0.795348018959366
0.29779855158483,-0.795431721665526
0.302498920782669,-0.795516906662801
0.286936669068283,-0.780890848937372
0.287723204192937,-0.750638446965273
0.338174303203578,-0.837987733123793
0.339360677137993,-0.839570020962737
0.284614286863686,-0.771052653909204
0.301844901565377,-0.749850805933949
0.35888872584334,-0.779639108541388
0.31842952969394,-0.770709007926328
0.369700841863182,-0.787896117142774
0.327906639973909,-0.793866276545563
0.383908987383957,-0.815883789721968
0.327021012162577,-0.812037644948165
0.364546991620624,-0.796761286172161
0.388819175957346,-0.842197307808929
0.3742189859044,-0.796975674173882
0.417789135598977,-0.815528458776399
0.383916301787847,-0.797196284762953
0.367923191428794,-0.783537951448987
0.418149447233123,-0.808038833122945
0.398503333946778,-0.797538948230659
0.432640269912233,-0.840412545490365
0.408251114498158,-0.797775275753746
0.38550307056063,-0.8060720996705
0.400126041634783,-0.830651334278358
0.439033525584811,-0.798592918116522
0.447575157853325,-0.780552327696297
0.405486943300884,-0.781378941211103
0.474498293703631,-0.824820419217184
0.445816150961128,-0.768187523231542
0.406921747857197,-0.787344769923906
0.470184284267485,-0.773088291835825
0.457157075189527,-0.799052911324359
0.462054241929477,-0.799189583963441
0.472767185084489,-0.776947779616319
0.467592109205427,-0.767007819221977
0.436248084419377,-0.834932966777283
0.500003020941947,-0.789931284093818
0.485654910781137,-0.776232266903546
0.50811156130862,-0.781062649065872
0.497472975620251,-0.841775364120607
0.501190944804124,-0.80034232438655
0.531338425089426,-0.767854627266163
0.510950383393441,-0.80064716629654
0.515824374509503,-0.800802110988197
0.520694057722453,-0.800958744283938
0.562955457066832,-0.76095208318009
0.578662536653288,-0.844034117938727
0.553753938376039,-0.82437197155209
0.540122374782421,-0.801602255202404
0.57264654556982,-0.797022715619399
0.521502114298398,-0.8241414397412
0.55913184258755,-0.842350565241675
0.549082556311638,-0.828619350017171
0.564266822723102,-0.802445187610312
0.521602901665041,-0.81929325476611
0.558914551752196,-0.776728790976187
0.57866071079019,-0.802971723794131
0.548852885780945,-0.769646506296889
0.542652690470719,-0.757318938730004
0.640119756660863,-0.807881607788083
0.597723774469445,-0.803698268313173
0.601801341288832,-0.784850133083595
0.633296052251092,-0.81100419849784
0.601452722560579,-0.847256507945204
0.632146355197275,-0.797199309747132
0.628491035274536,-0.791183537161275
0.591059499393495,-0.791551755764019
0.63675893492555,-0.769341379594144
0.635320305007336,-0.805236444912072
0.66055579890929,-0.767986627235635
0.662011740665823,-0.835268418218677
0.653614686702643,-0.816815782317889
0.653806816597428,-0.806048663837709
0.656623302212287,-0.818654510659948
0.662961862507766,-0.806465684329589
0.695603861777396,-0.815792569457876
0.626496928291385,-0.828572879184377
0.676575915161589,-0.807104957010222
0.681080861037606,-0.807321730760781
0.685568659679268,-0.807540353581067
0.664612286123795,-0.805859189212338
0.682931826579505,-0.855327606176836
0.696730028223386,-0.75884888154682
0.711825385029378,-0.784141690984385
0.726738079070001,-0.856071726873194
0.712114816677805,-0.808891177712105
0.71647231321399,-0.809122872393003
0.755335117024209,-0.836635247524778
0.69597827320432,-0.764219889614064
0.688398939675008,-0.812857494546333
0.714913376635566,-0.858763995372432
0.737951230054627,-0.810309723705987
0.729873788163817,-0.766896970340412
0.746391951755417,-0.810797792836822
0.750578521317499,-0.81104470187095
0.750090740971755,-0.839266589274273
0.744206886239298,-0.794538949791202
0.787997732295281,-0.823222406345508
0.785557002251413,-0.846269844713236
0.745417379968792,-0.8477414943189
0.775201749857369,-0.812566687475829
0.818200814077471,-0.83840877956918
0.771045778774928,-0.800708331412954
0.787177877880451,-0.81335394249131
0.791117773301708,-0.813620282092917
0.767167212135574,-0.816464454676459
0.845269741167618,-0.799134368786217
0.83041556130753,-0.774876757327648
0.805886551267793,-0.862997144207441
0.824370556299174,-0.803662980029705
0.815862400850412,-0.85848171863222
0.793587250619163,-0.813494561799728
0.821645461438779,-0.815822241843303
0.825331985481258,-0.816106460950283
0.828988522958139,-0.816392689592635
0.791692612508496,-0.806021258482777
0.848333585553645,-0.796102242706547
0.839774547614844,-0.817263478579246
0.843307470448981,-0.81755779121041
0.801421707406149,-0.845464531938247
0.865044135681903,-0.76933780225549
0.854717052087886,-0.846444170574638
0.870836663462179,-0.864877302330176
0.844085538356489,-0.84078003576302
0.863823932251288,-0.819366509102774
0.868114409261755,-0.837927562867523
0.895413514115144,-0.807319078941553
0.837836009975589,-0.771679152528809
0.839870014976605,-0.809847770232977
0.879988747375536,-0.82093038109071
0.883115609830031,-0.82124938582265
0.886206249472326,-0.821570478030416
0.850567632225062,-0.821404091876425
0.862950948701424,-0.813182515926766
0.888398865042858,-0.786250537038886
0.883884197628745,-0.84862201325769
0.901103266169542,-0.823207411672294
0.903968865339885,-0.823541125014408
0.946613663651436,-0.784918608034755
0.958489974941997,-0.848105759679514
0.912331451428077,-0.824555000793414
0.941661024462678,-0.849686704591066
0.872004443890417,-0.834860969436348
0.92398755692987,-0.87388093025662
0.922921377605717,-0.825936723084992
0.92546637988347,-0.826287521351266
0.909298276188812,-0.800534288446091
0.91564522589247,-0.80234315205075
0.891382429648416,-0.810853112295486
0.949209892961554,-0.822127595877055
0.937558173770527,-0.828073948079541
0.939847321181348,-0.828437752597706
