-0.30124542106614,-0.847735998671485
-0.292605741284709,-0.840635962608586
-0.284055992188204,-0.833595079017951
-0.275595759961646,-0.826613097568695
-0.26722463079006,-0.819689767929935
-0.258942190858468,-0.812824839770784
-0.250748026351895,-0.806018062760359
-0.242641723455363,-0.799269186567775
-0.234622868353897,-0.792577960862148
-0.226691047232518,-0.785944135312593
-0.218845846276251,-0.779367459588226
-0.211086851670118,-0.772847683358161
-0.203413649599144,-0.766384556291515
-0.195825826248351,-0.759977828057403
-0.188322967802763,-0.75362724832494
-0.180904660447403,-0.747332566763242
-0.173570490367295,-0.741093533041425
-0.166320043747461,-0.734909896828603
-0.159152906772925,-0.728781407793892
-0.152068665628711,-0.722707815606408
-0.145066906499842,-0.716688869935267
-0.13814721557134,-0.710724320449583
-0.13130917902823,-0.704813916818472
-0.124552383055535,-0.698957408711049
-0.117876413838277,-0.693154545796431
-0.111280857561481,-0.687405077743732
-0.10476530041017,-0.681708754222069
-0.0983293285693666,-0.676065324900555
-0.0919725282240947,-0.670474539448308
-0.0856944855593775,-0.664936147534442
-0.0794947867602381,-0.659449898828072
-0.0733730180117002,-0.654015542998315
-0.0673287654987868,-0.648632829714286
-0.0613616154065215,-0.6433015086451
-0.0554711539199273,-0.638021329459873
-0.0496569672240279,-0.632792041827719
-0.0439186415038464,-0.627613395417756
-0.0382557629444062,-0.622485139899098
-0.0326679177307306,-0.61740702494086
-0.0271546920478428,-0.612378800212158
-0.0217156720807663,-0.607400215382107
-0.0163504440145244,-0.602471020119824
-0.0110585940341404,-0.597590964094422
-0.00583970832463761,-0.592759796975019
-0.00069337307103938,-0.587977268430729
0.00438082554163094,-0.583243128130668
0.00938330132835014,-0.578557125743951
0.0143144681040948,-0.573919010939694
0.0191747396838415,-0.569328533387012
0.0239645298825671,-0.564785442755021
0.0286842525152481,-0.560289488712835
0.0333343213968614,-0.555840420929572
0.0379151503423835,-0.551437989074345
0.0424271531667911,-0.547081942816271
0.0468707436850609,-0.542772031824465
0.0512463357121696,-0.538508005768042
0.0555543430630938,-0.534289614316119
0.0597951795528102,-0.530116607137809
0.0639692589962956,-0.525988733902229
0.0680769952085264,-0.521905744278495
0.0721188020044795,-0.517867387935722
0.0760950931991316,-0.513873414543024
0.0800062826074591,-0.509923573769519
0.083852784044439,-0.50601761528432
0.0876350113250479,-0.502155288756544
0.0913533782642622,-0.498336343855307
0.095008298677059,-0.494560530249723
0.0986001863784146,-0.490827597608907
0.102129455183306,-0.487137295601977
0.105596518906709,-0.483489373898046
0.109001791363602,-0.47988358216623
0.11234568636896,-0.476319670075646
0.115628617737761,-0.472797387295408
0.11885099928498,-0.469316483494631
0.122013244825596,-0.465876708342432
0.125115768174583,-0.462477811507926
0.12815898314692,-0.459119542660228
0.131143303557582,-0.455801651468453
0.134069143221547,-0.452523887601718
0.13693691595379,-0.449286000729137
0.13974703556929,-0.446087740519826
0.142499915883022,-0.442928856642901
0.145195970709963,-0.439809098767476
0.147835613865089,-0.436728216562668
0.150419259163378,-0.433685959697592
0.152947320419807,-0.430682077841364
0.15542021144935,-0.427716320663098
0.157838346066987,-0.42478843783191
0.160202138087692,-0.421898179016917
0.162512001326444,-0.419045293887232
0.164768349598217,-0.416229532111972
0.16697159671799,-0.413450643360253
0.169122156500739,-0.410708377301189
0.17122044276144,-0.408002483603896
0.17326686931507,-0.40533271193749
0.175261849976607,-0.402698811971085
0.177205798561025,-0.400100533373798
0.179099128883303,-0.397537625814744
0.180942254758417,-0.395009838963039
0.182735590001343,-0.392516922487797
0.184479548427059,-0.390058626058135
0.18617454385054,-0.387634699343167
0.187820990086764,-0.38524489201201
0.189419300950707,-0.382888953733778
0.190969890257346,-0.380566634177588
0.192473171821658,-0.378277683012554
0.193929559458619,-0.376021849907793
0.195339466983205,-0.373798884532419
0.196703308210395,-0.371608536555548
0.198021496955164,-0.369450555646296
0.199294447032488,-0.367324691473777
0.200522572257345,-0.365230693707108
0.201706286444712,-0.363168312015404
0.202846003409564,-0.36113729606778
0.20394213696688,-0.359137395533352
0.204995100931634,-0.357168360081236
0.206005309118805,-0.355229939380546
0.206973175343368,-0.353321883100399
0.2078991134203,-0.351443940909909
0.208783537164579,-0.349595862478192
0.20962686039118,-0.347777397474364
0.21042949691508,-0.34598829556754
0.211191860551257,-0.344228306426835
0.211914365114686,-0.342497179721366
0.212597424420345,-0.340794665120247
0.21324145228321,-0.339120512292594
0.213846862518257,-0.337474470907523
0.214414068940464,-0.335856290634148
0.214943485364807,-0.334265721141585
0.215435525606263,-0.332702512098951
0.215890603479808,-0.33116641317536
0.216309132800419,-0.329657174039927
0.216691527383074,-0.328174544361769
0.217038201042747,-0.32671827381
0.217349567594417,-0.325288112053736
0.217626040853059,-0.323883808762093
0.217868034633651,-0.322505113604186
0.218075962751169,-0.321151776249131
0.21825023902059,-0.319823546366043
0.218391277256891,-0.318520173624037
0.218499491275047,-0.317241407692229
0.218575294890037,-0.315986998239734
0.218619101916836,-0.314756694935668
0.218631326170421,-0.313550247449146
0.218612381465769,-0.312367405449285
0.218562681617857,-0.311207918605198
0.21848264044166,-0.310071536586002
0.218372671752157,-0.308958009060813
0.218233189364324,-0.307867085698745
0.218064607093136,-0.306798516168914
0.217867338753571,-0.305752050140435
0.217641798160606,-0.304727437282425
0.217388399129218,-0.303724427263998
0.217107555474382,-0.30274276975427
0.216799681011076,-0.301782214422357
0.216465189554276,-0.300842510937373
0.216104494918959,-0.299923408968435
0.215718010920102,-0.299024658184657
0.215306151372681,-0.298146008255156
0.214869330091673,-0.297287208849046
0.214407960892055,-0.296448009635444
0.213922457588803,-0.295628160283464
0.213413233996894,-0.294827410462223
0.212880703931305,-0.294045509840835
0.212325281207012,-0.293282208088416
0.211747379638992,-0.292537254874082
0.211147413042222,-0.291810399866948
0.210525795231678,-0.291101392736129
0.209882940022338,-0.290409983150741
0.209219261229177,-0.289735920779899
0.208535172667172,-0.289078955292719
0.2078310881513,-0.288438836358317
0.207107421496539,-0.287815313645807
0.206364586517863,-0.287208136824306
0.205602997030251,-0.286617055562928
0.204823066848679,-0.28604181953079
0.204025209788123,-0.285482178397006
0.20320983966356,-0.284937881830692
0.202377370289967,-0.284408679500964
0.20152821548232,-0.283894321076936
0.200662789055597,-0.283394556227726
0.199781504824773,-0.282909134622447
0.198884776604826,-0.282437805930216
0.197973018210732,-0.281980319820147
0.197046643457468,-0.281536425961357
0.19610606616001,-0.281105874022961
0.195151700133336,-0.280688413674074
0.194183959192421,-0.280283794583811
0.193203257152243,-0.279891766421289
0.192210007827779,-0.279512078855623
0.191204625034004,-0.279144481555928
0.190187522585895,-0.278788724191319
0.18915911429843,-0.278444556430912
0.188119813986585,-0.278111727943823
0.187070035465336,-0.277789988399167
0.186010192549661,-0.277479087466059
0.184940699054536,-0.277178774813616
0.183861968794937,-0.276888800110951
0.182774415585841,-0.276608913027182
0.181678453242226,-0.276338863231422
0.180574495579067,-0.276078400392789
0.179462956411341,-0.275827274180397
0.178344249554025,-0.275585234263361
0.177218788822096,-0.275352030310798
0.176086988030531,-0.275127411991823
0.174949260994305,-0.27491112897555
0.173806021528396,-0.274702930931096
0.17265768344778,-0.274502567527576
0.171504660567435,-0.274309788434105
0.170347366702336,-0.2741243433198
0.16918621566746,-0.273945981853775
0.168021621277785,-0.273774453705146
0.166853997348286,-0.273609508543028
0.165683757693941,-0.273450896036537
0.164511316129725,-0.273298365854788
0.163337086470617,-0.273151667666897
0.162161482531592,-0.273010551141979
0.160984918127626,-0.27287476594915
0.159807807073698,-0.272744061757525
0.158630563184783,-0.27261818823622
0.157453600275859,-0.272496895054349
0.156277332161901,-0.272379931881029
0.155102172657886,-0.272267048385376
0.153928535578792,-0.272157994236503
0.152756834739594,-0.272052519103528
0.15158748395527,-0.271950372655565
0.150420897040796,-0.27185130456173
0.149257487811149,-0.271755064491138
0.148097670081306,-0.271661402112905
0.146941857666242,-0.271570067096146
0.145790464380936,-0.271480809109977
0.144643904040363,-0.271393377823513
0.1435025904595,-0.27130752290587
0.142366937453324,-0.271222994026162
0.141237358836812,-0.271139540853507
0.14011426842494,-0.271056913057018
0.138998080032685,-0.270974860305812
0.137889207475023,-0.270893132269004
0.136788064566932,-0.270811478615709
0.135695065123387,-0.270729649015043
0.134610622959366,-0.270647393136122
0.133535151889846,-0.27056446064806
0.132469065729802,-0.270480601219974
0.131412778294212,-0.270395564520978
0.130366703398053,-0.270309100220189
0.1293312548563,-0.270220957986721
0.128306846483931,-0.27013088748969
0.127293892095922,-0.270038638398212
0.12629280550725,-0.269943960381402
0.125304000532892,-0.269846603108376
0.124327890987824,-0.269746316248249
0.123364890687024,-0.269642849470136
0.122415413445467,-0.269535952443153
0.12147987307813,-0.269425374836415
0.12055868339999,-0.269310866319038
0.119652258226024,-0.269192176560138
0.118761011371209,-0.269069055228829
0.11788535665052,-0.268941251994228
0.117025707878936,-0.268808516525449
0.116182478871431,-0.268670598491609
0.115356083442984,-0.268527247561822
0.114546935408571,-0.268378213405204
0.113755448583168,-0.268223245690871
0.112982036781752,-0.268062094087938
0.112227113819299,-0.26789450826552
0.111491093510788,-0.267720237892733
0.110774389671193,-0.267539032638693
0.110077416115492,-0.267350642172515
0.109400586658662,-0.267154816163314
0.108744315115679,-0.266951304280206
0.10810901530152,-0.266739856192306
0.107495101031161,-0.26652022156873
0.106902986119579,-0.266292150078593
0.106333084381752,-0.26605539139101
0.105785809632654,-0.265809695175098
0.105261575687264,-0.265554811099972
0.104760796360558,-0.265290488834746
0.104283885467512,-0.265016478048538
0.103831256823104,-0.264732528410461
0.103403324242309,-0.264438389589631
0.103000501540106,-0.264133811255165
0.102623202531469,-0.263818543076177
0.102271841031376,-0.263492334721783
0.101946830854804,-0.263154935861098
0.101648585816729,-0.262806096163238
0.101377519732128,-0.262445565297318
0.101134046415978,-0.262073092932454
0.100918579683255,-0.261688428737761
0.100731533348935,-0.261291322382354
0.100573321227997,-0.26088152353535
0.100444357135416,-0.260458781865863
0.100345054886169,-0.26002284704301
0.100275828295232,-0.259573468735905
0.100237091177583,-0.259110396613664
0.100229257348198,-0.258633380345402
0.100252740622053,-0.258142169600235
0.100307954814126,-0.257636514047279
0.100395313739393,-0.257116163355648
0.100515231212831,-0.256580867194459
0.100668121049416,-0.256030375232826
0.100854397064125,-0.255464437139866
0.101074473071934,-0.254882802584693
0.101328762887822,-0.254285221236424
0.101617680326763,-0.253671442764173
0.101941639203735,-0.253041216837056
0.102301053333714,-0.252394293124189
0.102696336531678,-0.251730421294687
0.103127902612602,-0.251049351017665
0.103596165391464,-0.250350831962239
0.10410153868324,-0.249634613797525
0.104644436302907,-0.248900446192637
0.105225272065441,-0.248148078816692
0.105844459785819,-0.247377261338804
0.106502413279018,-0.24658774342809
0.107199546360015,-0.245779274753665
0.107936272843786,-0.244951604984643
0.108713006545307,-0.244104483790142
0.109530161279556,-0.243237660839275
0.11038815086151,-0.242350885801159
0.111287389106144,-0.241443908344909
0.112228289828435,-0.240516478139641
0.113211266843361,-0.23956834485447
0.114236733965898,-0.238599258158511
0.115305105011023,-0.237608967720879
0.116416793793711,-0.236597223210692
0.117572214128941,-0.235563774297063
0.118771779831688,-0.234508370649108
0.120015904716929,-0.233430761935943
0.121305002599642,-0.232330697826684
0.122639487294802,-0.231207927990445
0.124019772617386,-0.230062202096342
0.125446272382371,-0.228893269813491
0.126919400404734,-0.227700880811007
0.128439570499451,-0.226484784758005
0.130007196481499,-0.225244731323602
0.131622692165855,-0.223980470176912
0.133286471367495,-0.222691750987051
0.134998947901396,-0.221378323423134
0.136760535582535,-0.220039937154277
0.138571648225888,-0.218676341849596
0.140432699646432,-0.217287287178205
0.142344103659144,-0.21587252280922
0.144306274079,-0.214431798411758
0.146319624720977,-0.212964863654932
0.148384569400052,-0.211471468207859
0.150501521931201,-0.209951361739655
0.152670896129402,-0.208404293919433
0.15489310580963,-0.206830014416311
0.157168564786863,-0.205228272899404
0.159497686876076,-0.203598819037826
0.161880885892248,-0.201941402500694
0.164318575650354,-0.200255772957122
0.166811169965371,-0.198541680076228
0.169359082652275,-0.196798873527124
0.171962727526045,-0.195027102978929
0.174622518401655,-0.193226118100756
0.177338869094083,-0.191395668561721
0.180112193418306,-0.18953550403094
0.1829429051893,-0.187645374177528
0.185831418222042,-0.1857250286706
0.188778146331508,-0.183774217179273
0.191783503332675,-0.181792689372661
0.19484790304052,-0.179780194919881
0.19797175927002,-0.177736483490047
0.201155485836151,-0.175661304752274
0.20439949655389,-0.173554408375679
0.207704205238213,-0.171415544029377
0.211070025704098,-0.169244461382484
0.214497371766521,-0.167040910104114
0.217986657240458,-0.164804639863383
0.221538295940886,-0.162535400329407
0.225152701682782,-0.160232941171302
0.228830288281123,-0.157897012058182
0.232571469550885,-0.155527362659163
0.236376659307046,-0.153123742643361
0.24024627136458,-0.15068590167989
0.244180719538466,-0.148213589437868
0.24818041764368,-0.145706555586408
0.252245779495199,-0.143164549794627
0.256377218907999,-0.140587321731639
0.260575149697057,-0.137974621066561
0.26483998567735,-0.135326197468508
0.269172140663854,-0.132641800606595
0.273572028471546,-0.129921180149938
0.278040062915402,-0.127164085767652
0.2825766578104,-0.124370267128853
0.287182226971517,-0.121539473902656
0.291857184213727,-0.118671455758176
0.29660194335201,-0.11576596236453
0.30141691820134,-0.112822743390832
0.306302522576695,-0.109841548506198
0.311259170293051,-0.106822127379744
0.316287275165386,-0.103764229680585
0.321387251008675,-0.100667605077836
0.326559511637896,-0.0975320032406129
0.331804470868025,-0.0943571738380311
0.337122542514038,-0.0911428665392063
0.342514140390913,-0.0878888310132536
0.347979678313626,-0.0845948169292887
0.353519570097154,-0.0812605739564269
