-0.361055425359387,-0.528882027395312
-0.357668127435633,-0.53112459625142
-0.354305189426333,-0.533350609834078
-0.35096646798055,-0.535559984681205
-0.347651819747347,-0.537752637330721
-0.344361101375785,-0.539928484320543
-0.341094169514928,-0.54208744218859
-0.337850880813839,-0.544229427472781
-0.334631091921579,-0.546354356711036
-0.331434659487213,-0.548462146441272
-0.328261440159801,-0.550552713201408
-0.325111290588408,-0.552625973529363
-0.321984067422096,-0.554681843963056
-0.318879627309927,-0.556720241040405
-0.315797826900965,-0.55874108129933
-0.312738522844271,-0.560744281277748
-0.309701571788909,-0.562729757513579
-0.306686830383941,-0.564697426544742
-0.30369415527843,-0.566647204909155
-0.300723403121438,-0.568579009144736
-0.297774430562029,-0.570492755789405
-0.294847094249264,-0.572388361381081
-0.291941250832208,-0.574265742457681
-0.289056756959921,-0.576124815557125
-0.286193469281468,-0.577965497217332
-0.28335124444591,-0.579787703976219
-0.28052993910231,-0.581591352371707
-0.277729409899732,-0.583376358941714
-0.274949513487237,-0.585142640224157
-0.272190106513889,-0.586890112756957
-0.269451045628749,-0.588618693078032
-0.266732187480882,-0.5903282977253
-0.264033388719349,-0.592018843236681
-0.261354505993213,-0.593690246150093
-0.258695395951536,-0.595342423003454
-0.256055915243382,-0.596975290334684
-0.253435920517814,-0.598588764681701
-0.250835268423893,-0.600182762582424
-0.248253815610682,-0.601757200574771
-0.245691418727245,-0.603311995196662
-0.243147934422644,-0.604847062986015
-0.240623219345941,-0.60636232048075
-0.2381171301462,-0.607857684218783
-0.235629523472482,-0.609333070738035
-0.233160255973851,-0.610788396576423
-0.230709184299369,-0.612223578271868
-0.228276165098099,-0.613638532362287
-0.225861055019104,-0.615033175385599
-0.223463710711446,-0.616407423879724
-0.221083988824189,-0.617761194382579
-0.218721746006393,-0.619094403432083
-0.216376838907123,-0.620406967566155
-0.214049124175442,-0.621698803322714
-0.211738458460411,-0.622969827239679
-0.209444698411093,-0.624219955854968
-0.207167700676551,-0.6254491057065
-0.204907321905848,-0.626657193332194
-0.202663418748047,-0.627844135269968
-0.200435847852209,-0.629009848057742
-0.198224465867399,-0.630154248233433
-0.196029129442678,-0.631277252334961
-0.193849695227109,-0.632378776900245
-0.191686019869755,-0.633458738467202
-0.189537960019678,-0.634517053573753
-0.187405372325942,-0.635553638757815
-0.185288113437609,-0.636568410557307
-0.183186040003741,-0.637561285510148
-0.181099008673401,-0.638532180154257
-0.179026876095652,-0.639481011027553
-0.176969498919557,-0.640407694667954
-0.174926733794178,-0.641312147613379
-0.172898437368578,-0.642194286401746
-0.17088446629182,-0.643054027570974
-0.168884677212966,-0.643891287658984
-0.166898926781079,-0.644705983203691
-0.164927071645222,-0.645498030743016
-0.162968968454457,-0.646267346814878
-0.161024473857848,-0.647013847957195
-0.159093444504456,-0.647737450707885
-0.157175737043344,-0.648438071604867
-0.155271208123575,-0.649115627186062
-0.153379714394213,-0.649770033989386
-0.151501112504318,-0.650401208552758
-0.149635259102955,-0.651009067414098
-0.147782010839186,-0.651593527111324
-0.145941224362073,-0.652154504182355
-0.144112756320679,-0.652691915165109
-0.142296463364067,-0.653205676597506
-0.1404922021413,-0.653695705017464
-0.13869982930144,-0.654161916962902
-0.13691920149355,-0.654604228971738
-0.135150175366692,-0.655022557581891
-0.13339260756993,-0.65541681933128
-0.131646354752326,-0.655786930757824
-0.129911273562942,-0.656132808399441
-0.128187220650841,-0.65645436879405
-0.126474052665087,-0.656751528479571
-0.124771626254741,-0.657024203993921
-0.123079798068866,-0.657272311875018
-0.121398424756526,-0.657495768660783
-0.119727362966782,-0.657694490889134
-0.118066469348698,-0.65786839509799
-0.116415600551336,-0.658017397825268
-0.114774613223758,-0.658141415608889
-0.113143364015028,-0.65824036498677
-0.111521709574208,-0.65831416249683
-0.109909506550361,-0.658362724676989
-0.108306611592549,-0.658385968065164
-0.106712881349835,-0.658383809199275
-0.105128172471282,-0.658356164617241
-0.103552341605953,-0.658302950856979
-0.10198524540291,-0.658224084456409
-0.100426740511216,-0.658119481953449
-0.0988766835799333,-0.657989059886019
-0.0973349312581249,-0.657832734792037
-0.0958013401948533,-0.657650423209421
-0.0942757670391814,-0.657442041676091
-0.0927580684401718,-0.657207506729965
-0.0912481010468872,-0.656946734908962
-0.0897457215083901,-0.656659642751
-0.0882507864737434,-0.656346146793999
-0.0867631525920097,-0.656006163575876
-0.0852826765122517,-0.655639609634551
-0.083809214883532,-0.655246401507943
-0.0823426243549134,-0.65482645573397
-0.0808827615754585,-0.654379688850552
-0.0794294831942299,-0.653906017395605
-0.0779826458602905,-0.65340535790705
-0.0765421062227029,-0.652877626922805
-0.0751077209305297,-0.652322740980789
-0.0736793466328335,-0.651740616618921
-0.0722568399786773,-0.651131170375119
-0.0708400576171235,-0.650494318787302
-0.0694288561972349,-0.649829978393388
-0.0680230923680741,-0.649138065731297
-0.0666226227787038,-0.648418497338948
-0.0652273040781868,-0.647671189754258
-0.0638369929155856,-0.646896059515147
-0.062451545939963,-0.646093023159533
-0.0610708198003817,-0.645261997225335
-0.0596946711459043,-0.644402898250473
-0.0583229566255935,-0.643515642772864
-0.056955532888512,-0.642600147330427
-0.0555922565837225,-0.641656328461081
-0.0542329843602876,-0.640684102702745
-0.0528775728672701,-0.639683386593337
-0.0515258787537326,-0.638654096670777
-0.0501777586687377,-0.637596149472982
-0.0488330692613483,-0.636509461537873
-0.0474916671806269,-0.635393949403366
-0.0461534090756363,-0.634249529607382
-0.044818151595439,-0.633076118687838
-0.0434857513890979,-0.631873633182654
-0.0421560651056756,-0.630641989629749
-0.0408289493942347,-0.62938110456704
-0.0395042609038379,-0.628090894532447
-0.038181856283548,-0.626771276063889
-0.0368615921824276,-0.625422165699284
-0.0355433252495393,-0.624043479976551
-0.034226912133946,-0.622635135433608
-0.0329122094847102,-0.621197048608375
-0.0315990739508946,-0.61972913603877
-0.0302873621815618,-0.618231314262712
-0.0289769308257747,-0.616703499818119
-0.0276676365325959,-0.615145609242911
-0.026359335951088,-0.613557559075006
-0.0250518857303137,-0.611939265852323
-0.0237451425193358,-0.610290646112779
-0.0224389629672168,-0.608611616394296
-0.0211332037230195,-0.60690209323479
-0.0198277214358066,-0.605161993172181
-0.0185223727546407,-0.603391232744387
-0.0172170143285845,-0.601589728489327
-0.0159115028067007,-0.59975739694492
-0.014605694838052,-0.597894154649085
-0.013299447071701,-0.59599991813974
-0.0119926161567104,-0.594074603954804
-0.0106850587421431,-0.592118128632196
-0.00937663147706141,-0.590130408709834
-0.00806719101052825,-0.588111360725637
-0.0067565939916063,-0.586060901217525
-0.00544469706935816,-0.583978946723415
-0.0041313568928465,-0.581865413781226
-0.00281643011113405,-0.579720218928878
-0.00149977337328353,-0.577543278704288
-0.000181243328357547,-0.575334509645377
0.0011393033745812,-0.573093828290061
0.00246201008647005,-0.57082115117626
0.00378702015824626,-0.568516394841893
0.00511447694084718,-0.566179475824879
0.00644452378521016,-0.563810310663136
0.00777730404227249,-0.561408815894582
0.00911296106297148,-0.558974908057138
0.0104516381982444,-0.556508503688721
0.0117934787990287,-0.554009519327249
0.0131386262162617,-0.551477871510643
0.0144872238008806,-0.54891347677682
0.0158394149038227,-0.5463162516637
0.0171953428760255,-0.543686112709201
0.0185551510684261,-0.541022976451241
0.019918982831962,-0.53832675942774
0.0212869815175705,-0.535597378176616
0.0226592904761888,-0.532834749235788
0.0240360530587543,-0.530038789143175
0.0254174126162042,-0.527209414436695
0.0268035124994761,-0.524346541654267
0.028194496059507,-0.52145008733381
0.0295905066472345,-0.518519968013243
0.0309916876135956,-0.515556100230484
0.032398182309528,-0.512558400523452
0.0338101340859687,-0.509526785430065
0.0352276862938552,-0.506461171488244
0.0366509822841247,-0.503361475235905
0.0380801654077146,-0.500227613210968
0.0395153790155622,-0.497059501951352
0.0409567664586049,-0.493857057994976
0.0424044710877798,-0.490620197879757
0.0438586362540245,-0.487348838143616
0.045319405308276,-0.48404289532447
0.046786921601472,-0.480702285960238
0.0482613284845495,-0.477326926588839
0.0497427693084459,-0.473916733748192
0.0512313874240986,-0.470471623976216
0.0527273261824449,-0.466991513810828
0.0542307289344221,-0.463476319789949
0.0557417390309675,-0.459925958451497
0.0572604998230184,-0.456340346333389
0.0587871546615122,-0.452719399973546
0.0603218468973861,-0.449063035909886
0.0618647198815775,-0.445371170680327
0.0634159169650237,-0.441643720822789
0.0649755814986621,-0.437880602875189
0.0665438568334299,-0.434081733375448
0.0681208863202645,-0.430247028861482
0.0697068133101031,-0.426376405871213
0.0713017811538832,-0.422469780942556
0.072905933202542,-0.418527070613433
0.0745194128070168,-0.414548191421761
0.076142363318245,-0.410533059905459
0.0777749280871639,-0.406481592602446
0.0794172504647108,-0.402393706050641
0.081069473801823,-0.398269316787962
0.0827317414494378,-0.394108341352328
0.0844041967584927,-0.389910696281658
0.0860869830799247,-0.38567629811387
0.0877802437646714,-0.381405063386883
0.08948412216367,-0.377096908638617
0.0911987616278579,-0.372751750406988
0.0929243055081722,-0.368369505229918
0.0946608971555505,-0.363950089645323
0.0964086799209299,-0.359493420191124
0.098167797155248,-0.354999413405238
0.0999383922094417,-0.350467985825584
0.101720608434449,-0.345899053990081
0.103514589181206,-0.341292534436648
0.105320477800651,-0.336648343703204
0.107138417643722,-0.331966398327667
0.108968552061355,-0.327246614847955
0.110811024404487,-0.322488909801989
0.112665978024057,-0.317693199727685
0.114533556271001,-0.312859401162964
0.116413902496256,-0.307987430645744
0.118307160050761,-0.303077204713943
0.120213472285452,-0.298128639905481
0.122132982551267,-0.293141652758275
0.124065834199143,-0.288116159810246
0.126012170580017,-0.283052077599311
0.127972135044826,-0.277949322663389
0.129945870944509,-0.272807811540399
0.131933521630002,-0.267627460768259
0.133935230452242,-0.262408186884889
0.135951140762168,-0.257149906428208
0.137981395910715,-0.251852535936133
0.140026139248822,-0.246515991946583
0.142085514127426,-0.241140190997478
0.144159663897464,-0.235725049626736
0.146248731909874,-0.230270484372276
0.148352861515592,-0.224776411772016
0.150472196065557,-0.219242748363876
0.152606878910705,-0.213669410685773
0.154757053401974,-0.208056315275627
0.156922862890301,-0.202403378671356
0.159104450726623,-0.19671051741088
0.161301960261878,-0.190977648032116
0.163515534847003,-0.185204687072984
0.165745317832936,-0.179391551071403
0.167991452570613,-0.17353815656529
0.170254082410972,-0.167644420092565
0.172533350704951,-0.161710258191147
0.174829400803486,-0.155735587398953
0.177142376057515,-0.149720324253904
0.179472419817975,-0.143664385293917
0.181819675435804,-0.137567687056912
0.184184286261939,-0.131430146080807
0.186566395647318,-0.125251678903521
0.188966146942876,-0.119032202062972
0.191383683499553,-0.11277163209708
0.193819148668285,-0.106469885543763
0.196272685800009,-0.100126878940939
0.198744438245664,-0.093742528826528
0.201234549356185,-0.0873167517384482
0.203743162482511,-0.0808494642146181
0.206270420975578,-0.074340582792957
0.208816468186325,-0.0677900240113831
0.211381447465689,-0.0611977044078155
0.213965502164606,-0.0545635405201724
0.216568775634014,-0.0478874488863734
0.21919141122485,-0.0411693460443361
0.221833552288052,-0.0344091485319804
0.224495342174558,-0.0276067728872241
0.227176924235303,-0.0207621356479865
0.229878441821226,-0.0138751533521859
0.232600038283265,-0.00694574253774144
0.235341856972355,2.61802574285375e-05
0.238104041239435,0.0070406984954049
0.240886734435443,0.0140978956382694
0.243690079911314,0.0211978551481028
0.246514221017987,0.0283406604869869
0.249359301106399,0.0355263951170023
0.252225463527487,0.042755142500231
0.255112851632189,0.0500269860987537
0.258021608771441,0.0573420093746522
0.260951878296182,0.0647002957900072
0.263903803557348,0.0721019288069006
0.266877527905877,0.0795469918874128
0.269873194692707,0.0870355684936261
0.272890947268773,0.0945677420876209
0.275930928985015,0.102143596131479
0.278993283192368,0.109763214087282
0.282078153241772,0.11742667941711
0.285185682484161,0.125134075583045
0.288316014270475,0.132885486047169
0.29146929195165,0.140680994271561
0.294645658878624,0.148520683718305
0.297845258402334,0.156404637849481
0.301068233873717,0.16433294012717
0.304314728643711,0.172305674013454
0.307584886063253,0.180322922970414
0.31087884948328,0.18838477046013
0.31419676225473,0.196491299944686
0.31753876772854,0.20464259488616
0.320905009255647,0.212838738746636
0.324295630186989,0.221079814988194
0.327710773873502,0.229365907072916
0.331150583666125,0.237697098462882
0.334615202915794,0.246073472620175
0.338104774973447,0.254495113006874
0.341619443190021,0.262962103085063
0.345159350916454,0.271474526316821
0.348724641503683,0.28003246616423
0.352315458302644,0.288636006089372
0.355931944664276,0.297285229554328
0.359574243939516,0.305980220021178
0.363242499479301,0.314721060952005
0.366936854634569,0.323507835808889
0.370657452756256,0.332340628053912
0.3744044371953,0.341219521149155
0.378177951302638,0.350144598556699
0.381978138429209,0.359115943738626
0.385805141925948,0.368133640157017
0.389659105143793,0.377197771273953
0.393540171433683,0.386308420551515
0.397448484146553,0.395465671451785
0.401384186633341,0.404669607436844
0.405347422244985,0.413920311968774
0.409338334332422,0.423217868509655
0.413357066246589,0.432562360521568
0.417403761338424,0.441953871466596
0.421478562958864,0.451392484806819
0.425581614458846,0.460878284004318
0.429713059189307,0.470411352521175
0.433873040501185,0.479991773819472
0.438061701745417,0.489619631361289
0.442279186272941,0.499295008608708
0.446525637434693,0.509017989023809
0.450801198581612,0.518788656068675
0.455106013064634,0.528607093205387
0.459440224234697,0.538473383896025
0.463803975442738,0.548387611602671
0.468197410039695,0.558349859787407
0.472620671376504,0.568360211912313
0.477073902804103,0.578418751439471
0.481557247673429,0.588525561830962
0.48607084933542,0.598680726548868
0.490614851141013,0.608884329055269
0.495189396441146,0.619136452812247
0.499794628586755,0.629437181281884
0.504430690928778,0.63978659792626
0.509097726818152,0.650184786207456
0.513795879605815,0.660631829587555
0.518525292642703,0.671127811528637
0.523286109279755,0.681672815492784
0.528078472867908,0.692266924942077
0.532902526758098,0.702910223338597
0.537758414301264,0.713602794144425
0.542646278848342,0.724344720821643
0.547566263750269,0.735136086832331
0.552518512357984,0.745976975638572
0.557503168022424,0.756867470702447
0.562520374094525,0.767807655486036
