-0.0471800322686855,0.399096770625554
0.614091157664296,0.296565865977535
-0.670865707028081,-0.221475350058481
-0.829481666114116,0.267255089940477
-0.988097625200152,0.755985529939435
0.115883853343901,-0.409798720570874
-0.549271854816721,-0.598260143542095
