0.11381720703176,0.443073760340048
0.110875352325078,0.446303035512903
0.107959811751303,0.449453882829669
0.105070442317141,0.452526739654709
0.102207101029302,0.455522043352388
0.0993696448944922,0.458440231287071
0.0965579309194206,0.461281740823119
0.0937718161107947,0.464047009324898
0.0910111574753227,0.466736474156771
0.0882758120197123,0.469350572683103
0.0855656367506714,0.471889742268257
0.0828804886749081,0.474354420276596
0.0802202247991303,0.476745044072487
0.0775847021300458,0.479062051020291
0.0749737776743626,0.481305878484373
0.0723873084387886,0.483476963829096
0.0698251514300318,0.485575744418826
0.0672871636548,0.487602657617925
0.0647732021198013,0.489558140790758
0.0622831238317435,0.491442631301689
0.0598167857973345,0.493256566515081
0.0573740450232824,0.495000383795298
0.0549547585162949,0.496674520506705
0.0525587832830801,0.498279414013665
0.0501859763303459,0.499815501680542
0.0478361946648001,0.5012832208717
0.0455092952931508,0.502683008951503
0.0432051352221058,0.504015303284315
0.0409235714583731,0.5052805412345
0.0386644610086606,0.506479160166422
0.0364276608796761,0.507611597444444
0.0342130280781278,0.508678290432931
0.0320204196107235,0.509679676496246
0.029849692484171,0.510616192998754
0.0277007037051784,0.511488277304819
0.0255733102804535,0.512296366778804
0.0234673692167044,0.513040898785073
0.0213827375206388,0.51372231068799
0.0193192721989648,0.514341039851919
0.0172768302583902,0.514897523641224
0.0152552687056231,0.515392199420269
0.0132544445473712,0.515825504553419
0.0112742147903426,0.516197876405035
0.00931443644124523,0.516509752339484
0.00737496650678692,0.516761569721128
0.00545566199367562,0.516953765914332
0.0035563799086193,0.517086778283459
0.00167697725832585,0.517161044192874
-0.000182688950496772,0.51717700100694
-0.00202276171114069,0.517135086090021
-0.00384338401689794,0.517035736806481
-0.0056446988610606,0.516879390520685
-0.00742684923692073,0.516666484596995
-0.00918997813777041,0.516397456399777
-0.0109342285569018,0.516072743293393
-0.0126597434876068,0.515692782642208
-0.0143666659231776,0.515258011810586
-0.0160551388569062,0.51476886816289
-0.0177253052820848,0.514225789063485
-0.0193773081920054,0.513629211876735
-0.0210112905799601,0.512979573967003
-0.0226273954392409,0.512277312698653
-0.0242257657631399,0.511522865436049
-0.0258065445449492,0.510716669543556
-0.0273698747779608,0.509859162385537
-0.0289158994554669,0.508950781326356
-0.0304447615707595,0.507991963730376
-0.0319566041171307,0.506983146961963
-0.0334515700878726,0.505924768385479
-0.0349298024762771,0.50481726536529
-0.0363914442756365,0.503661075265757
-0.0378366384792428,0.502456635451247
-0.039265528080388,0.501204383286121
-0.0406782560723642,0.499904756134746
-0.0420749654484635,0.498558191361483
-0.043455799201978,0.497165126330698
-0.0448209003261997,0.495725998406754
-0.0461704118144208,0.494241244954016
-0.0475044766599332,0.492711303336846
-0.0488232378560291,0.491136610919609
-0.0501268383960005,0.489517605066669
-0.0514154212731396,0.48785472314239
-0.0526891294807383,0.486148402511135
-0.0539481060120887,0.484399080537269
-0.055192493860483,0.482607194585156
-0.0564224360192132,0.48077318201916
-0.0576380754815714,0.478897480203643
-0.0588395552408496,0.476980526502971
-0.0600270182903399,0.475022758281508
-0.0612006076233345,0.473024612903616
-0.0623604662331253,0.470986527733661
-0.0635067371130044,0.468908940136006
-0.064639563256264,0.466792287475014
-0.065759087656196,0.464637007115051
-0.0668654533060926,0.462443536420479
-0.0679588031992458,0.460212312755663
-0.0690392803289477,0.457943773484967
-0.0701070276884905,0.455638355972754
-0.071162188271166,0.453296497583389
-0.0722049050702665,0.450918635681235
-0.073235321079084,0.448505207630657
-0.0742535792909106,0.446056650796018
-0.0752598226990382,0.443573402541682
-0.0762541942967592,0.441055900232013
-0.0772368370773654,0.438504581231376
-0.078207894034149,0.435919882904133
-0.079167508160402,0.433302242614649
-0.0801158224494165,0.430652097727288
-0.0810529798944846,0.427969885606414
-0.0819791234888984,0.42525604361639
-0.0828943962259499,0.422511009121581
-0.0837989410989311,0.41973521948635
-0.0846929011011343,0.416929112075062
-0.0855764192258515,0.414093124252081
-0.0864496384663746,0.411227693381769
-0.0873127018159959,0.408333256828492
-0.0881657522680073,0.405410251956613
-0.089008932815701,0.402459116130496
-0.0898423864523689,0.399480286714505
-0.0906662561713033,0.396474201073003
-0.0914806849657961,0.393441296570356
-0.0922858158291395,0.390382010570927
-0.0930817917546255,0.387296780439078
-0.0938687557355461,0.384186043539176
-0.0946468507651935,0.381050237235583
-0.0954162198368598,0.377889798892664
-0.0961770059438369,0.374705165874782
-0.096929352079417,0.371496775546301
-0.0976734012368922,0.368265065271586
-0.0984092964095545,0.365010472414999
-0.099137180590696,0.361733434340906
-0.0998571967736087,0.358434388413669
-0.100569487951585,0.355113771997654
-0.101274197117916,0.351772022457224
-0.101971467265895,0.348409577156742
-0.102661441388814,0.345026873460572
-0.103344262479964,0.34162434873308
-0.104020073532638,0.338202440338628
-0.104689017540128,0.33476158564158
-0.105351237495725,0.331302222006301
-0.106006876392723,0.327824786797154
-0.106656077224412,0.324329717378504
-0.107298982984086,0.320817451114713
-0.107935736665035,0.317288425370146
-0.108566481260553,0.313743077509168
-0.109191359763931,0.310181844896142
-0.109810515168462,0.306605164895431
-0.110424090467437,0.3030134748714
-0.111032228654148,0.299407212188412
-0.111635072721888,0.295786814210833
-0.112232765663949,0.292152718303025
-0.112825450473623,0.288505361829352
-0.113413270144201,0.284845182154179
-0.113996367668976,0.281172616641869
-0.11457488604124,0.277488102656786
-0.115148968254285,0.273792077563294
-0.115718757301404,0.270084978725758
-0.116284396175887,0.26636724350854
-0.116846027871028,0.262639309276006
-0.117403795380118,0.258901613392518
-0.117957841696449,0.255154593222441
-0.118508309813314,0.251398686130138
-0.119055342724004,0.247634329479975
-0.119599083421812,0.243861960636313
-0.12013967490003,0.240082016963519
-0.120677260151949,0.236294935825955
-0.121211982170863,0.232501154587985
-0.121743983950062,0.228701110613973
-0.122273408482839,0.224895241268283
-0.122800398762486,0.22108398391528
-0.123325097782295,0.217267775919326
-0.123847648535559,0.213447054644786
-0.124368194015569,0.209622257456025
-0.124886877215617,0.205793821717405
-0.125403841128995,0.20196218479329
-0.125919228748996,0.198127784048046
-0.126433183068912,0.194291056846035
-0.126945847082034,0.190452440551621
-0.127457363781655,0.186612372529169
-0.127967876161067,0.182771290143042
-0.128477527213561,0.178929630757604
-0.128986459932431,0.17508783173722
-0.129494817310967,0.171246330446252
-0.130002742342463,0.167405564249066
-0.130510378020209,0.163565970510024
-0.131017867337499,0.159727986593492
-0.131525353287625,0.155892049863832
-0.132032978863877,0.152058597685409
-0.132540887059549,0.148228067422586
-0.133049220867933,0.144400896439728
-0.13355812328232,0.140577522101199
-0.134067737296003,0.136758381771362
-0.134578205902273,0.132943912814581
-0.135089672094424,0.129134552595221
-0.135602278865746,0.125330738477644
-0.136116169209532,0.121532907826216
-0.136631486119074,0.1177414980053
-0.137148372587665,0.113956946379259
-0.137666971608595,0.110179690312459
-0.138187426175158,0.106410167169262
-0.138709879280645,0.102648814314033
-0.139234473918348,0.098896069111136
-0.13976135308156,0.0951523689249344
-0.140290659763572,0.0914181511197921
-0.140822536957678,0.0876938530600734
-0.141357127657167,0.0839799121101417
-0.141894574855334,0.0802767656343616
-0.142435021545469,0.0765848509970965
-0.142978610720865,0.0729046055627106
-0.143525485374815,0.0692364666955676
-0.144075788500609,0.0655808717600316
-0.14462966309154,0.0619382581204664
-0.145187252140901,0.0583090631412362
-0.145748698641983,0.0546937241867045
-0.146314145588078,0.0510926786212356
-0.146883735972478,0.0475063638091932
-0.147457612788476,0.0439352171149413
-0.148035919029364,0.0403796759028438
-0.148618797688433,0.0368401775372647
-0.149206391758976,0.0333171593825677
-0.149798844234285,0.0298110588031171
-0.150396298107652,0.0263223131632764
-0.150998896372369,0.0228513598274099
-0.151606782021727,0.0193986361598812
-0.15222009804902,0.0159645795250545
-0.152838987447539,0.0125496272872936
-0.153463593210576,0.00915421681096242
-0.154094058331423,0.00577878546042478
-0.154730525803373,0.00242377060004487
-0.155373138619717,-0.000910390405813671
-0.156022039773747,-0.00422326019278665
-0.156677372258757,-0.00751440139651045
-0.157339279068037,-0.0107833766526208
-0.158007903194879,-0.0140297485967542
-0.158683387632577,-0.0172530798645463
-0.159365875374421,-0.0204529330916335
-0.160055509413704,-0.0236288709136515
-0.160752432743719,-0.0267804559662368
-0.161456788357756,-0.0299072508850252
-0.162168719249109,-0.033008818305653
-0.162888368411068,-0.036084720863756
-0.163615878836928,-0.0391345211949706
-0.164351393519978,-0.0421577819349325
-0.165095055453512,-0.0451540657192781
-0.165847007630822,-0.0481229351836433
-0.166607393045199,-0.0510639529636642
-0.167376354689936,-0.0539766816949769
-0.168154035558324,-0.0568606840132176
-0.168940578643657,-0.0597155225540221
-0.169736126939225,-0.0625407599530267
-0.170540823438322,-0.0653359588458673
-0.171354811134238,-0.0681006818681803
-0.172178233020266,-0.0708344916556014
-0.173011232089699,-0.0735369508437669
-0.173853951335828,-0.0762076220683128
-0.174706533751946,-0.0788460679648752
-0.175569122331343,-0.0814518511690901
-0.176441860067314,-0.0840245343165938
-0.177324889953148,-0.086563680043022
-0.17821835498214,-0.0890688509840112
-0.17912239814758,-0.0915396097751971
-0.180037162442761,-0.0939755190522161
-0.180962790860975,-0.096376141450704
-0.181899426395514,-0.0987410396062971
-0.182847212039669,-0.101069776154631
-0.183806290786734,-0.103361913731343
-0.18477680563,-0.105617014972068
-0.185758899562759,-0.107834642512442
-0.186752715578304,-0.110014358988102
-0.187758396669926,-0.112155727034683
-0.188776085830917,-0.114258309287822
-0.18980592605457,-0.116321668383154
-0.190848060334176,-0.118345366956317
-0.191902631663028,-0.120328967642945
-0.192969783034418,-0.122272033078675
-0.194049657441638,-0.124174125899143
-0.195142397877979,-0.126034808739986
-0.196248147336735,-0.127853644236838
-0.197367048811196,-0.129630195025337
-0.198499245294656,-0.131364023741118
-0.199644879780406,-0.133054693019817
-0.200804095261738,-0.134701765497071
-0.201977034731944,-0.136304803808516
-0.203163841184317,-0.137863370589787
-0.204364657612148,-0.139377028476521
-0.20557962700873,-0.140845340104353
-0.206808892367354,-0.142267868108921
-0.208052596681313,-0.143644175125859
-0.209310882943899,-0.144973823790805
-0.210583894148404,-0.146256376739393
-0.211871773288119,-0.147491396607261
-0.213174663356338,-0.148678446030044
-0.214492707346351,-0.149817087643378
-0.215826048251452,-0.1509068840829
-0.217174829064932,-0.151947397984245
-0.218539192780083,-0.152938191983049
-0.219919282390198,-0.15387882871495
-0.221315240888568,-0.154768870815582
-0.222727211268485,-0.155607880920581
-0.224155336523242,-0.156395421665585
-0.225599759646131,-0.157131055686228
-0.227060623630443,-0.157814345618148
-0.228538071469471,-0.158444854096979
-0.230032246156507,-0.159022143758359
-0.231543290684843,-0.159545777237923
-0.233071348047771,-0.160015317171307
-0.234616561238583,-0.160430326194148
-0.236179073250572,-0.160790366942081
-0.237759027077028,-0.161095002050743
-0.239356565711245,-0.161343794155769
-0.240971832146514,-0.161536305892796
-0.242604969376127,-0.16167209989746
-0.244256120393378,-0.161750738805396
-0.245925428191556,-0.161771785252242
-0.247613035763956,-0.161734801873632
-0.249319086103868,-0.161639351305204
-0.251043722204584,-0.161484996182593
-0.252787087059398,-0.161271299141435
-0.254549323661601,-0.160997822817366
-0.256330575004485,-0.160664129846023
-0.258130984081341,-0.160269782863041
-0.259950693885464,-0.159814344504056
-0.261789847410143,-0.159297377404706
-0.263648587648671,-0.158718444200625
-0.265527057594341,-0.158077107527449
-0.267425400240445,-0.157372930020816
-0.269343758580274,-0.15660547431636
-0.271282275607121,-0.155774303049719
-0.273241094314277,-0.154878978856527
-0.275220357695035,-0.153919064372422
-0.277220208742687,-0.152894122233039
-0.279240790450525,-0.151803715074014
-0.28128224581184,-0.150647405530983
-0.283344717819926,-0.149424756239583
-0.285428349468074,-0.14813532983545
-0.287533283749577,-0.146778688954219
-0.289659663657725,-0.145354396231527
-0.291807632185812,-0.143862014303009
-0.293977332327129,-0.142301105804303
-0.296168907074969,-0.140671233371043
-0.298382499422623,-0.138971959638866
-0.300618252363384,-0.137202847243409
-0.302876308890544,-0.135363458820306
-0.305156811997394,-0.133453357005195
-0.307459904677228,-0.131472104433711
-0.309785729923336,-0.12941926374149
-0.312134430729011,-0.127294397564169
-0.314506150087545,-0.125097068537383
-0.316901030992231,-0.122826839296769
-0.31931921643636,-0.120483272477963
-0.321760849413224,-0.1180659307166
-0.324226072916115,-0.115574376648317
-0.326715029938326,-0.11300817290875
-0.329227863473148,-0.110366882133535
-0.331764716513874,-0.107650066958308
-0.334325732053796,-0.104857290018705
-0.336911053086205,-0.101988113950363
-0.339520822604394,-0.0990421013889164
-0.342155183601655,-0.0960188149700026
-0.34481427907128,-0.092917817329257
-0.347498252006561,-0.089738671102316
-0.350207245400791,-0.0864809389248155
-0.35294140224726,-0.0831441834323919
-0.355700865539262,-0.0797279672606808
-0.358485778270088,-0.0762318530453187
-0.36129628343303,-0.0726554034219413
-0.364132524021381,-0.068998181026185
-0.366994643028432,-0.0652597484936857
-0.369882783447476,-0.0614396684600796
-0.372797088271805,-0.0575375035610026
-0.37573770049471,-0.053552816432091
-0.378704763109484,-0.0494851697089805
-0.381698419109419,-0.0453341260273078
-0.384718811487808,-0.0410992480227083
-0.387766083237941,-0.0367800983308185
-0.390840377353111,-0.0323762395872743
-0.393941836826611,-0.027887234427712
-0.397070604651731,-0.0233126454877672
-0.400226823821766,-0.0186520354030766
-0.403410637330005,-0.0139049668092758
-0.406622188169742,-0.00907100234200117
-0.409861619334269,-0.00414970463688845
-0.413129073816877,0.000859363670425845
-0.416424694610859,0.00595663994430609
-0.419748624709507,0.0111425615491158
-0.423101007106113,0.0164175658492193
-0.426481984793968,0.02178209020898
-0.429891700766366,0.0272365719927624
-0.433330298016598,0.0327814485649299
-0.436797919537955,0.038417157289847
-0.440294708323732,0.044144135531877
-0.443820807367218,0.0499628206553843
-0.447376359661707,0.0558736500247325
-0.45096150820049,0.0618770610042858
-0.45457639597686,0.0679734909584079
-0.458221165984108,0.0741633772514629
-0.461895961215527,0.0804471572478145
-0.465600924664409,0.0868252683118269
-0.469336199324045,0.0932981478078637
-0.473101928187729,0.0998662331002893
