0.000829952796474132,-0.961919399137246
0.117247772063018,0.260794328881619
-0.81041415346308,0.071213433623327
0.224787035522458,-0.338525540896207
1.259988224508,-0.74826451541574
-0.759177440180724,-0.679752875984644
-0.675573177855723,0.350580844880322
