-0.68705666159469,-0.638986603935762
-0.674925446796901,-0.641501238813485
-0.662905954545612,-0.643976099953982
-0.65099774113074,-0.646411296816296
-0.639200362842207,-0.64880693885947
-0.627513375969933,-0.651163135542547
-0.615936336803836,-0.65347999632457
-0.604468801633837,-0.655757630664581
-0.623122719453877,-0.669950374762254
-0.581860468441812,-0.660195657854743
-0.584489676500913,-0.679232363822361
-0.549021759811288,-0.695649449054142
-0.537938326767415,-0.668605811128821
-0.527224895687858,-0.670611925227957
-0.49760665137973,-0.657117115172907
-0.5177108866242,-0.673194355014381
-0.466643149735721,-0.628126368603376
-0.485426277423403,-0.678253968518258
-0.45948156319033,-0.646052950406852
-0.514973292385955,-0.707613129816956
-0.427782769793825,-0.693438018443946
-0.445294530761134,-0.685289404872629
-0.474329908236585,-0.689678255455349
-0.425844860079218,-0.6885818346297
-0.429916910066429,-0.688289503349039
-0.419616812179187,-0.723528958244158
-0.414855438277506,-0.688394176968427
-0.353140954020931,-0.675327498838806
-0.378989469704504,-0.69616284141897
-0.389341211516752,-0.723588256620902
-0.309693478215688,-0.67662143851284
-0.347147593795616,-0.674376479349926
-0.365854155708776,-0.726482098772258
-0.299383472343823,-0.727617304106266
-0.300226777368911,-0.74111234563203
-0.266770857290104,-0.722479564327386
-0.323373318700928,-0.69851374858218
-0.31492966967335,-0.71087426074813
-0.283290266970545,-0.736350493215866
-0.276559393560184,-0.710639002795108
-0.262952530986683,-0.703590586809967
-0.25309624317863,-0.713454258704828
-0.237918097506329,-0.715155578554345
-0.23046687991456,-0.715953911629143
-0.204634160271222,-0.724154081576678
-0.215837936669381,-0.717446471374034
-0.185892355580972,-0.719555856449132
-0.171674837068017,-0.687131534997107
-0.194571595996312,-0.719426686865251
-0.180840241726465,-0.720575691464151
-0.185976131727436,-0.706691315272936
-0.167461711105629,-0.721588806431257
-0.137476559389587,-0.683205337319733
-0.15794401517526,-0.710512056521181
-0.137913348412215,-0.726033825455928
-0.186928239703396,-0.723026985144914
-0.155136195589428,-0.744916720974386
-0.0776654012164068,-0.750830564111515
-0.117404831499576,-0.724299883428606
-0.111529340156193,-0.724489668554488
-0.105737173914181,-0.724646685321894
-0.100027889063461,-0.724771043189867
-0.0944010418939525,-0.72486285161745
-0.0888561886955751,-0.724922220063686
-0.0727091558264292,-0.72490678010474
-0.0674878414117757,-0.724837483216017
-0.0623463024178528,-0.724736293641162
-0.0572840951345805,-0.724603320839217
-0.0523007758518788,-0.724438674269226
-0.0473959008596673,-0.724242463390232
-0.0425690264478662,-0.724014797661277
-0.0378197089063951,-0.723755786541405
-0.0331475045251741,-0.723465539489658
-0.0285519695941231,-0.72314416596508
-0.0240326604031618,-0.722791775426714
-0.0152209444011885,-0.721994381144787
-0.0109276501700161,-0.721549596319313
-0.00670880683861309,-0.721074232316221
-0.00256397069689938,-0.720568398594557
0.00150730196520521,-0.720032204613361
0.0170656320191337,-0.717586015274132
0.0279837048176092,-0.715437954037743
0.0314824432057242,-0.714662818505849
0.0349116115049511,-0.713858307845811
0.0382716534253699,-0.713024531516672
0.0415630126770606,-0.712161598977475
0.0479414580145787,-0.710348703105078
0.0510294315205662,-0.709398958689965
0.0540504971981461,-0.708420495900965
0.0598936799084038,-0.706377853037479
0.0654745558259925,-0.704221650186964
0.0681677380127363,-0.703101237414178
0.0707966746315532,-0.701952763021764
0.0733618093925233,-0.700776336468764
0.0783024481812438,-0.69834006471718
0.0806788396291542,-0.697080438436682
0.085245985182476,-0.694478752361488
0.0874376267080477,-0.693136911484879
0.091639265807413,-0.690371781348849
0.0936501508013668,-0.688948711007514
0.0974942702282176,-0.686022107073421
0.0993283920812748,-0.684518792398748
0.101104480307526,-0.682988948531048
0.102822978617053,-0.681432684929365
0.10608898032625,-0.678241336360219
0.107637371146082,-0.676606470310841
0.109129946889508,-0.674945622363653
0.11056715126661,-0.673258901977695
0.111949427987467,-0.671546418612011
0.11327722076216,-0.669808281725643
0.114550973300768,-0.668044600777636
0.116938132510051,-0.664441044532874
0.118052426600887,-0.662601388154204
0.119114455295958,-0.660736625550067
0.12108349133913,-0.656932219501559
0.121991386107391,-0.654992794975274
0.123656147687661,-0.65104005021386
0.124413901919831,-0.649026948896815
0.125122496726798,-0.646989507567603
0.125782375818642,-0.644927835685267
0.126393982905442,-0.642842042708849
0.12695776169728,-0.640732238097393
0.127474155904235,-0.638598531309941
0.127943609236388,-0.636441031805537
0.128743468116605,-0.632055092482042
0.129360888018573,-0.627575295799253
0.129602292627914,-0.62530047459573
0.129952709713709,-0.620681533759643
0.130062609610324,-0.618337633045165
0.130154010661389,-0.613581518318555
0.130136399235999,-0.611169523224508
0.130077171456768,-0.608735048922025
0.129976771033776,-0.606278204870147
0.129835641677102,-0.603799100527919
0.129654227096827,-0.601297845354382
0.129172317105795,-0.596229320349557
0.128158405694242,-0.588463138083583
0.127744597684044,-0.5858312765621
0.126805887614606,-0.580503509124157
0.126281872975526,-0.577807822125782
0.125126743039048,-0.572353388865439
0.12449651516181,-0.569594861521558
0.123831770292011,-0.566815606313927
0.120836495088824,-0.555493496026769
0.120005820907429,-0.552612243386036
0.119143291993955,-0.549710919635811
0.118249352058482,-0.546789634235137
0.115383503220871,-0.537907102720854
0.114368356298204,-0.534907065308815
0.10767996271144,-0.516502970443178
0.105233523586056,-0.510217043783699
0.101372653240999,-0.500649387320414
0.100036481524438,-0.497423601942405
0.0944575522526289,-0.48434054655362
0.0930064778836848,-0.481025351532451
0.0885251332157537,-0.470974882996095
0.0854352392370186,-0.464188262334913
0.0838609241178572,-0.460769387890369
0.079025830762158,-0.450411821609433
0.0773782293444538,-0.446926016730164
0.0757134156273141,-0.443423752889821
0.0740318333208192,-0.439905139547448
0.0653879228008188,-0.422070661371624
0.0618285083201354,-0.414826254653584
0.0489774567924443,-0.388989152105062
0.0470975908552328,-0.385238431317385
0.0452080556899478,-0.381473112372365
0.0433092950066693,-0.377693304729044
0.0414017525154776,-0.373899117846467
0.0394858719264525,-0.370090661183674
0.0375620969496744,-0.366268044199711
0.0356308712952231,-0.36243137635362
0.033692638673179,-0.358580767104443
0.0317478427936221,-0.354716325911223
0.0258785127106755,-0.343041105257741
0.0219409443859491,-0.335190471850995
0.017987772073094,-0.32728713768511
0.0160064436963185,-0.323315981465099
0.0100488142055615,-0.311325869765302
0.00607012801216578,-0.303269687356066
0.00408003608584085,-0.299223092145765
0.00209003655320489,-0.295164306877066
-0.0038749705817693,-0.282915905311012
-0.00784304535183933,-0.274691360724108
-0.0196669592394187,-0.24974443035341
-0.0235696614589319,-0.241340606934328
-0.0332083262221324,-0.22014645536344
-0.0370072379014972,-0.211597256165714
-0.042633918855061,-0.198699545378016
-0.0463320718295133,-0.19005307388098
-0.048163926888122,-0.185715767218019
-0.049983709380879,-0.181369225890821
-0.051790975597704,-0.177013559358428
-0.0535852818285173,-0.172648877079883
-0.0623468833395998,-0.150694060561386
-0.0657452741891454,-0.141852854797429
-0.0707179286883672,-0.128530269245541
-0.0739445672201828,-0.119609304629149
-0.0831608068837853,-0.0926676867831117
-0.0846245684651505,-0.088152502545848
-0.0860664958589017,-0.0836304917432916
-0.0874861453549586,-0.0791017638344861
-0.091606989356163,-0.0654763720610023
-0.0955113587152352,-0.0517944668568212
-0.0967626390451895,-0.0472217840574728
-0.0979880917968086,-0.0426432598242189
-0.101505047480854,-0.0288737331114529
-0.109636550811591,0.00807473609305762
-0.113720717743772,0.0313182443399486
-0.115774319787358,0.0453129925225291
-0.116970618433529,0.054661268341219
-0.119330789120849,0.0780901257164973
-0.120013309112852,0.0874826371581278
-0.120296748207906,0.092182948290954
-0.12115993642992,0.120434694936354
-0.121160085448123,0.125150611067594
-0.120733795907144,0.144031095495281
-0.119953424974684,0.158206054860708
-0.119603191300251,0.162933237733271
-0.119207163093878,0.167661336382806
-0.118275948244993,0.17711984317662
-0.117739874182319,0.181850032402813
-0.117156230747385,0.186580699569806
-0.115844460920416,0.196043029890022
-0.109689605918045,0.229160150666664
-0.105038165131099,0.248073061488984
-0.103741960926108,0.252798926627668
-0.0895827518157844,0.29526620027267
-0.0858072469050887,0.304682541804009
-0.0580650885336526,0.36095103093738
