0.771704367397187,0.853043503927116
0.719572277809808,0.792743695103194
0.723924738510331,0.806282208404345
0.721544400856767,0.802444750287873
0.725365002336218,0.807617042958891
0.697122058527806,0.791897740314816
0.730088293442852,0.80189373438347
0.734994762350005,0.764176472471895
0.716094412910354,0.776584042758467
0.706643172090244,0.779020220650666
0.70088814058534,0.746527287330364
0.674917211620379,0.775923244872013
0.732783775307674,0.755196362850941
0.699659901612264,0.744681352189572
0.684059821588055,0.72721505390657
0.663516207939321,0.749432828618458
0.674842732021086,0.739738495882084
0.685193104912248,0.746774272526349
0.682390321063892,0.742666353899882
0.666629800041771,0.754596529139611
0.652173518377217,0.719656459546324
0.717927693787645,0.700937095359122
0.670301505625693,0.696492407836671
0.668877326214575,0.709611890945956
0.654639185014683,0.680986881645014
0.648858365259323,0.739744563095792
0.648395033557204,0.697840722202984
0.656016977154751,0.704974288550496
0.643236477613977,0.670347503412044
0.649886453983659,0.696430382549064
0.642009037431802,0.678686678809776
0.640515408942151,0.683506657153845
0.648971863984083,0.651078434335537
0.644526012990813,0.649726921073058
0.642284045873664,0.657205337827777
0.601378589467858,0.67365877552225
0.621166935753888,0.657289570260977
0.617866478564793,0.652874341677817
0.647670819296931,0.661278643957636
0.607840275972211,0.639554063223807
0.601786482735358,0.615628047262059
0.631673559569471,0.615948067281072
0.597632035249017,0.626125858755076
0.594189992847223,0.621626687716021
0.611198952802641,0.576507330687886
0.59503460949972,0.621680439817912
0.578276151416201,0.616801507595615
0.538318158866194,0.57573149705818
0.573142497106576,0.594402291352414
0.578658425222059,0.563530529024969
0.565718265555941,0.62337419705856
0.57558555738513,0.598593415037088
0.579408340817942,0.556424301435673
0.549310020383877,0.543781299639215
0.535103568430827,0.528499177498023
0.564850557162622,0.538886610968653
0.540533904989307,0.538448602050244
0.53667009174199,0.548240057828813
0.518944719442463,0.487168562948184
0.516479778257066,0.573144435888853
0.515474659427846,0.522657203412511
0.521639790521321,0.529534507605523
0.520451289665186,0.519665902494558
0.539240484347125,0.538098248816455
0.476245801465996,0.513867951730859
0.496143737490654,0.506730700457838
0.494589963061456,0.503397121659002
0.482099244159452,0.466531925398084
0.487010766050049,0.487028858015583
0.48309958064474,0.482274671134599
0.475242076455117,0.472749759812171
0.476315462101448,0.495650559109084
0.459393479102956,0.453639070981577
0.455845386235827,0.464315528845973
0.451406354250766,0.444056312934038
0.447397953348532,0.43925874100922
0.421001439553113,0.403955708745456
0.43935271468877,0.429652154938931
0.435316372970036,0.42484351822604
0.427217484851844,0.415216501026208
0.42315543449118,0.410398497971846
0.416760306295365,0.418734882208166
0.4150073612637,0.400754446535675
0.429175688181663,0.405056223926529
0.435111226541968,0.367747020974578
0.413052849157831,0.400285092391857
0.398622269327238,0.381439446409641
0.407602143382758,0.380411147126111
0.338807578580305,0.347677090018143
0.368530901289735,0.355891143005444
0.353721159293024,0.370764857104883
0.374117261095384,0.338109120058574
0.404066913561318,0.315006843314481
0.35306771538463,0.328226502309099
0.324020331451076,0.284744363366156
0.365117271038854,0.347235149562095
0.32482307485803,0.307095437859125
0.337828893774869,0.312993680216764
0.334676802709723,0.314302239291933
0.328001979104399,0.299208857467042
0.309992727061146,0.278817507607425
0.30164861341981,0.288678013740824
0.311183291322817,0.272433013794157
0.304432596284416,0.263997795064455
0.320913384257339,0.259242809672315
0.302850956578085,0.270248661187568
0.300015225164901,0.245211577756165
0.286062682381704,0.250993909273529
0.271355674069145,0.242570862503207
0.285466502272197,0.246924534377497
0.280977278119654,0.255814147274351
0.265081700242169,0.227005251269822
0.260020263570514,0.224442050711622
0.210512872550516,0.161768774719496
0.241852415161512,0.226891733019961
0.250478629721704,0.200937158828447
0.23995184043057,0.19836701329005
0.232748778733051,0.170728002112292
0.199022567131485,0.206608143744898
0.202207429515937,0.185344356712237
0.20007907382228,0.162106743154291
0.186731609180539,0.125339409239287
0.228983567186644,0.174038564833374
0.202465447805932,0.155797616064619
0.180551734203347,0.138441713263824
0.18973970727121,0.163845834705242
0.151933151185544,0.182540705634595
0.192300402599387,0.0955430750152455
0.147125743027131,0.139579508190863
0.202583410277028,0.12959101876716
0.178761667065399,0.103746580564497
0.15120251526751,0.0901764001278139
0.13344176101878,0.108952955312086
0.127876299725459,0.0938609615896368
0.137012268266158,0.0797323637345228
0.145132352792493,0.071608716990676
0.132204656395791,0.0537546337741242
0.11964456998434,0.109729379929537
0.139524489227645,0.0827372355333242
0.112927921760939,0.0544926824726128
0.104216726738736,0.0416780624918894
0.0421960086429583,0.0643719802903722
0.0733594546021489,0.00318699001729653
0.0909823783294456,0.0125015217103712
0.0776176546085302,0.0145272372387618
0.0461211919421235,0.0148845859284955
0.0477009035241474,0.0390270272291161
0.0344615191988997,0.00573997360629325
0.0581793317077107,-0.0293326108487758
0.0508594208645556,-0.0158300240768369
0.020767640646966,0.0156275971595961
0.0433409572417565,-0.0243765015445982
0.0491265694092052,-0.0159187324968877
0.0284859216959045,-0.0412902755460624
0.00705947499461958,-0.0346059594971002
-0.0159065933924187,-0.0358660102443741
0.00791657082274048,-0.0288634935190885
0.0462643872130596,-0.0651929439496163
-0.0109989715514544,-0.0864830602632616
-0.0193261484093934,-0.0926222076612158
-0.0343664024440526,-0.128190820479835
-0.0225077799466727,-0.0976205581556727
-0.014177733358267,-0.14787440385756
-0.0315905007431733,-0.0915078471422411
-0.0481373472524835,-0.131190454948655
-0.0763511773370645,-0.15184382962683
-0.0452500030949418,-0.131385809120988
-0.0643003379170258,-0.148340559543571
-0.0674494265174543,-0.152039096512702
-0.0840214483309767,-0.163590421639009
-0.0461645126126485,-0.186999457054112
-0.0993697429450554,-0.206516892675012
-0.0904602920780802,-0.1469846626365
-0.105980399537358,-0.168775281153368
-0.0975509854511464,-0.182915705192656
-0.114641337448649,-0.206990517743576
-0.0908491025458288,-0.204823177952847
-0.114547858348066,-0.208252460676037
-0.11727342473723,-0.211570969696575
-0.143178394285145,-0.217259736700206
-0.13383731955266,-0.234448683684601
-0.124942349207999,-0.22568787665046
-0.133048092231073,-0.230970305081601
-0.150509890708137,-0.239790184678655
-0.147791958685642,-0.249462968602878
-0.149338532046418,-0.272265977456347
-0.14791297788602,-0.271935617744827
-0.161451451911239,-0.267008197541951
-0.163618847312949,-0.269837428472586
-0.165754385100299,-0.272639020761913
-0.167857817253892,-0.275412785693644
-0.162968496742547,-0.281788693085319
-0.171967372582223,-0.280876078619159
-0.173972999718167,-0.283565229180365
-0.177884712836627,-0.288857594918228
-0.17979030278035,-0.291460432662307
-0.185303029916729,-0.299093300799663
-0.187071764665937,-0.301578412759524
-0.161135459020581,-0.308703907729908
-0.190504484603593,-0.306458738252626
-0.195387970317228,-0.313551649681389
-0.183718746877738,-0.298327394603385
-0.201393091960761,-0.322576128788602
-0.205016702483551,-0.34155680623738
-0.222142555608573,-0.331545866016508
-0.258252512557518,-0.336409817486433
-0.201686663116161,-0.35494280808492
-0.229926407418715,-0.356260987132876
-0.220847897139163,-0.35675477761073
-0.233692273908096,-0.346249135259678
-0.222205390144647,-0.359872563463458
-0.223925811532184,-0.364283450383107
-0.251916095249175,-0.375312694634245
-0.224589575917633,-0.332140239296026
-0.228141080534792,-0.410947321164508
-0.210230521149823,-0.383646057711611
-0.226889770615142,-0.377650406508808
-0.226891189741716,-0.378641250440936
-0.212865613509833,-0.409942867558706
-0.182133256117152,-0.419081914790406
-0.225234827904185,-0.385176706603685
-0.219761679927361,-0.370417393465488
-0.222115602475306,-0.381210529050373
-0.198729595895209,-0.42588583025095
-0.211414139786804,-0.390504491504944
-0.217659132310836,-0.378196681459949
-0.207451501975571,-0.390183369299088
-0.223731382072461,-0.369236711683496
-0.201429150058465,-0.389145454347588
-0.198533687831471,-0.393233715253471
-0.196349579315153,-0.387903099056074
-0.190780162156668,-0.38625743735198
-0.198195996784837,-0.378850745268757
-0.17814500249933,-0.381735813346827
-0.18831889400199,-0.337643725496559
-0.189288650753795,-0.408110268162464
-0.114286071352352,-0.36700832305371
-0.0953176520487683,-0.339491854861307
-0.102934245802573,-0.344409842387949
-0.097221809866007,-0.335558628445496
-0.0576243950658882,-0.318017609881926
0.00477547167842002,-0.305595455486016
0.0231822692340336,-0.30527001187126
-0.0110974101571897,-0.315155411425782
0.00469427407918502,-0.320356203694049
