-0.127781667621548,-0.127998135148691
-0.0970582268463159,-0.137722585796081
-0.108095562530309,-0.14037426451172
-0.152794727553823,-0.148032908631875
-0.101007289236441,-0.10847613666475
-0.0952257243093586,-0.100228206236937
-0.100624096574133,-0.154025407955216
-0.125163306531469,-0.178660970382525
-0.0668157924565612,-0.146939628176819
-0.0756594946359277,-0.129490625835583
-0.0526999228645251,-0.150440814575914
-0.0457733767860529,-0.152101511478908
-0.0389338308401053,-0.153702735043413
-0.0474109427793817,-0.197292516942602
-0.0208996905757317,-0.140910778678868
-0.0261442499353228,-0.174815597631794
-0.0174437890416656,-0.176735734785722
-0.00602555401995609,-0.160828762842957
-0.0041547857319237,-0.14793297282057
0.0147615650530901,-0.209380319784963
0.020830506179999,-0.173428232682602
0.0187803795074246,-0.16549406571962
0.00196844832488104,-0.184692173773545
0.0306862240012169,-0.167489093213981
0.0248212665352259,-0.176685098337517
0.049853586002215,-0.168331665715879
0.0479335837405704,-0.170067325274789
0.0604996418894573,-0.180969790165224
0.0698649976273621,-0.176489384571409
0.0794632347883915,-0.1902783237369
0.0748108715885276,-0.109590895241895
0.0750783819278976,-0.173282430521512
0.0646221832478202,-0.191098715943494
0.0642386810715955,-0.188661156601472
0.0678911252071843,-0.18023646445542
0.0953854859126444,-0.174905467747254
0.100270306491838,-0.175182274511047
0.0919180824385179,-0.194740540781741
0.110043703120219,-0.161321892130399
0.114471183378709,-0.175708699010642
0.100851355501843,-0.193120853000929
0.143415738467361,-0.208276634398459
0.144643885476187,-0.200126297883068
0.110486524286157,-0.159021647124263
0.134623161088765,-0.17176529439647
0.118894435960935,-0.18893182286484
0.145017664439291,-0.17520775092359
0.166325936101622,-0.192428468765849
0.120927553926384,-0.183867894578996
0.165863375552122,-0.193287026944319
0.194626425319232,-0.185748490885046
0.155639850238522,-0.151307055003566
0.163985534109976,-0.190367021853606
0.170796527700265,-0.177208300385549
0.198994801532579,-0.163917067216925
0.166930615044641,-0.157713154911463
0.182619916962388,-0.170486898922487
0.186004265402468,-0.169766976719413
0.187608179382488,-0.168795445702039
0.188869361911967,-0.183365000866371
0.231410956599068,-0.198356934905559
0.17735247200868,-0.178644495732197
0.201936429774411,-0.165518898157864
0.204928056898766,-0.164541990947188
0.184640647207921,-0.167184333897599
0.194737155287872,-0.159156218082462
0.21352132344059,-0.161362862917808
0.214491751228383,-0.154668003894248
0.199131940057496,-0.15531316156154
0.206044421358852,-0.144290106001618
0.224105163240298,-0.15655722134279
0.219825885930036,-0.157037111706312
0.239623780446531,-0.133973266927392
0.231403205476318,-0.152539897063997
0.228601301261207,-0.14747252599329
0.230439193061982,-0.179953967874874
0.262592674053911,-0.16265949878697
0.255023892329547,-0.145227603425219
0.253268900683444,-0.165866823656534
0.244405971574653,-0.143483157008739
0.226018995140803,-0.16974774074057
0.270668095184501,-0.157579671303767
0.261687565221294,-0.171627389150121
0.251932748954056,-0.136717964674349
0.253675799007449,-0.134938891377317
0.290395684054964,-0.163571741722477
0.281474328614894,-0.152820699856539
0.278844530891634,-0.134636136628123
0.295277956415454,-0.148232916209818
0.276742775297412,-0.0968854526146104
0.263003695251783,-0.123553561921845
0.291384335319536,-0.129139875973952
0.265693026100801,-0.119495872455567
0.254048183939242,-0.123239616215247
0.283412606687902,-0.135266929478629
0.267110084295594,-0.120145298029766
0.270463060400413,-0.111003094983012
0.271531363113691,-0.108803277594766
0.274094164065642,-0.0900299763215876
0.263607531423871,-0.113878608053687
0.274445285335695,-0.10202542049233
0.264667049916185,-0.140541869742386
0.276149854479302,-0.0973616097533922
0.261714980028815,-0.0823247640330506
0.270326739495585,-0.0941114440537217
0.306540624379653,-0.106658536980975
0.248164402851497,-0.103708642104993
0.261138243440837,-0.0748080595084128
0.287705447111423,-0.0767836616453087
0.280672135436042,-0.0801665005377037
0.281140770644333,-0.077603930463545
0.249629953070172,-0.0640367367288864
0.285485083535231,-0.0691508441750692
0.282290342582976,-0.0697645805673575
0.223793941292147,-0.0893835458032423
0.261081835962242,-0.0392755786112306
0.28306474343924,-0.0617049771932139
0.283241578916793,-0.0589710988584228
0.294953247325594,-0.0705277101910461
0.285609366837192,-0.0503265055130603
0.283534410557158,-0.0506322362455607
0.290673788598225,-0.00765027607237059
0.290203349584134,-0.0449178734967935
0.319627139086595,-0.0762500913525396
0.306026055260369,-0.0399423721751435
0.326057980294203,-0.0595490487742081
0.272496986258937,-0.0216019086920922
0.288498101638893,-0.0225248686470935
0.285983772896011,-0.0539628575815848
0.308621196172581,0.00835770414967855
0.282070464453627,-0.0214534822484467
0.273863089405846,-0.0249623748748646
0.247868059020333,0.026774701186896
0.291261433607042,-0.0343003543022626
0.314727789127433,-0.0266946751503181
0.280030727701809,-0.00614369046086283
0.269813709117838,0.0191403745131888
0.29170656312237,0.0125949286562744
0.309214372981931,-0.013404727407986
0.276530670068768,0.0266186517985408
0.246666411593025,0.0110698803944062
0.299491525365135,-0.0101683302778284
0.275847232794081,0.0159911941271632
0.280823055385171,-0.00830009995383393
0.335961418400019,0.0306484442415116
0.273613388910234,0.0257022574360651
0.274797639829034,0.0469995327210813
0.264591253220755,0.0363664560563343
0.287036600538626,0.0402696328745006
0.253729267997264,0.0423925344556678
0.282447213053415,0.00978089082782072
0.280214753556555,0.0299130196716454
0.262321422354693,0.0516934864550424
0.258849894510303,0.0371750181870637
0.280968014150309,0.091187114562182
0.264449112550951,0.0588974040869484
0.288795709040928,0.0266464966377839
0.241940450608057,0.0964042540879943
0.261230593594694,0.0690677417499293
0.206155569220423,0.055519495954224
0.275138103035761,0.074270875356708
0.276337800675994,0.0706773663048853
0.242551569838878,0.0937277403569428
0.263279889369878,0.0786122800736546
0.23838451185206,0.0660881011804846
0.26911191735711,0.0766465550233213
0.27466263816678,0.0605167807480636
0.278413954033051,0.10600986310942
0.2561064582198,0.108487551400605
0.245494437307381,0.125663089369124
0.255888222066939,0.114329255728483
0.259744012890039,0.122969756057355
0.243823097195848,0.117454294281075
0.271536236196357,0.1491759580381
0.240050367211058,0.143483652549138
0.231523598356769,0.119113953800788
0.24521752232406,0.109061755419476
0.216583927740258,0.160265548536653
0.274053036080736,0.175110514209007
0.233905792139121,0.142017110815349
0.213233483586997,0.133185049428838
0.230954331506957,0.149056631261096
0.272898257828419,0.179930263953943
0.251280339202654,0.167214920298827
0.226442180922036,0.159623594984519
0.207009081321983,0.139817674960012
0.178770293244315,0.19470136371929
0.225418543845179,0.151200892203649
0.252847201471277,0.168405131517862
0.21800357672243,0.165274074660043
0.22650397540546,0.170576526988963
0.232196216395952,0.186474930300207
0.18816822675068,0.177965825588144
0.212405973146835,0.191293331758029
0.21524197503002,0.206206715779436
0.213106767712976,0.171248805688736
0.228079856095965,0.225511877614939
0.218391874434484,0.206116170039964
0.219734856887167,0.224565279162675
0.20275198797879,0.212287878619019
0.212687518756491,0.218292577875426
0.174921109931499,0.225997217376174
0.218563505234592,0.196291230170991
0.216177892309051,0.250539341520592
0.194607245308486,0.22964794003532
0.19713829981016,0.267959025553411
0.190278954354621,0.225182636696065
0.180007305321326,0.215598678109563
0.168144694860004,0.263372405815696
0.186431050830958,0.246839163135257
0.18479692457176,0.25025337256877
0.232355597651311,0.287328514599121
0.181533338764706,0.25705501109404
0.179904767735609,0.260441753896978
0.178278936968639,0.263818654867571
0.175080142448244,0.297608605456899
0.175037273258595,0.27054155873408
0.17342232883428,0.273886875341177
0.171811901709609,0.277220977538288
0.163277514667324,0.248028347606937
0.168606376396717,0.283854166124914
0.179085756350762,0.301600857548411
0.179121596710646,0.303518833181393
0.202974530962667,0.293302548598519
0.162269080779358,0.296970872024297
0.16070271401482,0.300216865308028
0.159144418624962,0.303448899026492
0.157594638869163,0.306666630035281
0.174283477638679,0.328541091532713
0.13986123895322,0.295423023813269
0.153000835999916,0.316230575359491
0.155483041873681,0.338685273155463
0.149989023679337,0.322528734379732
0.151190244939173,0.346707742509296
0.140251660425856,0.329112579359945
0.147913409657506,0.330000569869209
0.162372451659581,0.360716259345734
0.156110827059808,0.299289275943394
0.176127706730726,0.358699507908791
0.104756708593579,0.343531627905467
0.123790679224334,0.343593506534554
0.137040649116687,0.350020918772697
0.163612443905627,0.362587140939648
0.154899428374154,0.364540930830857
0.135125692624542,0.355560912216959
0.13824971512316,0.343779029276397
0.135607972484148,0.392549837571974
0.145590726069638,0.385428143051707
0.173671502156112,0.342915174454814
0.125329461272126,0.392698003798263
0.141142487387088,0.36521202125089
0.121107987838849,0.358207054012258
0.122917184728338,0.381457827210818
0.121744746500267,0.384183244080095
0.115842106355569,0.379071669227156
0.118608999028362,0.428949527089247
0.137222731869763,0.375427385146804
0.117264542554827,0.394845804025618
0.16635478655396,0.421000419237187
0.11468311595648,0.410216063209985
0.0843140943209248,0.387390635345978
0.0692871284027651,0.403960053967954
0.129414159192909,0.428365182896299
0.111221752068927,0.410084575464054
0.110942138180587,0.414843555548833
0.114626919901586,0.411502985871307
0.107563853186728,0.394462765324274
0.107686366241918,0.419708350624839
0.0910009783930281,0.416709374390191
0.13240488007118,0.408239116776135
0.116860550316854,0.399597672385106
0.109462223807181,0.381214128061246
0.102451192109167,0.457269925972167
0.10931008906335,0.414131318561936
0.0923131316340844,0.449103727038242
0.101927080081802,0.437572101440694
0.131284437248134,0.4494310635244
0.10078121679071,0.441733734175165
0.0933981018718633,0.410939737352418
0.144541171523905,0.420181021982237
0.123127817863928,0.431354214617156
0.0935206379646792,0.433740663398071
0.105036710556034,0.419100470709762
0.0981059919154575,0.453444377967301
0.0909102725865348,0.471697613074811
0.0878568318561396,0.447755146449035
0.0617729087520339,0.480307100277048
0.0766318753357877,0.448472280254767
0.0712363944517888,0.487528133382507
0.106785966433926,0.458776523512167
0.0741993262197444,0.486974592652289
0.135203871858638,0.465489952152951
0.0964072353721562,0.468701500386947
0.0964017449522474,0.47021656026645
0.0964345355448216,0.471694326760802
0.0858598332045638,0.495869565912408
0.0817191948234552,0.460518714092168
0.0817581107480249,0.52325925682136
0.108824158103101,0.50657168447909
0.0604761397392371,0.437743679479615
0.0975396972696157,0.487701098091554
0.0826042029430296,0.473585023553638
0.0981282878603368,0.48213271952098
0.132350548415377,0.487713936610423
0.0989656342206073,0.484345363750812
0.0994488370695384,0.485390255477441
0.122229474417776,0.45922757020226
0.136273708341423,0.486980539286723
0.0808171064132647,0.505822792975966
0.101822212309422,0.48915227975914
0.0995186585226576,0.479854595568845
0.103279457867172,0.490777962303358
0.0823438658129122,0.485657530633614
0.110650847540065,0.521655879333264
0.106457229943609,0.488043313060668
0.106752835233466,0.49350494242213
0.107740205723669,0.494075438907417
0.111371791249747,0.481299389293861
0.109860887898085,0.495080531613834
0.110995088101057,0.495514441546144
0.112179120060379,0.495902136338642
0.10551626494795,0.476393110864527
0.114698456285586,0.496537507926559
0.121308993851174,0.529739203761174
0.135464902520071,0.507719336561571
0.113783963188195,0.504731971636641
0.135201641258953,0.507798225622959
0.0920387823023616,0.467452349294878
0.118133209358292,0.486176845458329
0.119677366800371,0.516367924050646
0.126857923316264,0.497161759803709
0.128619425714468,0.497018440527204
0.162480000389079,0.493442725782874
0.130467371826118,0.487948596382651
0.149561699895045,0.539132819261788
0.109474697167687,0.466656484058809
0.113436407189254,0.487651622315654
0.140362409428923,0.495089524486417
0.142519381356412,0.494586669068166
0.123179005927421,0.498923432325936
0.147008587524446,0.493422410436442
0.14934171028375,0.49276032093415
0.157794038761256,0.502688229721794
0.153951996181547,0.472598772996355
0.152608354609521,0.491113697328866
0.133167149216766,0.531758478732185
0.178756287331237,0.493740712049668
0.16460771063449,0.487646723212524
0.167367401079642,0.486601077459781
0.176472341987323,0.441826727072265
0.172912530402444,0.450025262336529
0.176024541122733,0.483125769657684
0.176526608925163,0.483625214178936
0.200493400781877,0.46107206347275
0.198989843980259,0.489016529995465
0.178825994081711,0.447581785537148
0.171444351076282,0.488881254638247
0.195080113737436,0.474621603609179
0.198486948638195,0.472998853080937
0.214070080384588,0.471078050600935
0.188281039062031,0.495390041887256
0.209112177610879,0.467771642287738
0.175788138162696,0.477981382365543
0.210944921531099,0.462866013665006
0.252042455667688,0.469067573979289
0.243278944205366,0.426277435299718
0.260081477064551,0.462972234530652
0.218072998320488,0.458216954223814
0.236322283411532,0.453436851521563
0.242536101214274,0.455181676341818
0.219243744464143,0.4377516486422
0.262315143949219,0.455855529172863
0.25974064254173,0.452124537672028
0.246166388063121,0.459306006885369
0.257817004973512,0.401940934399317
0.252942992388484,0.453364074710687
0.282653854783928,0.470223102403268
0.294016840303878,0.438627852345818
0.261359778185965,0.470618326798251
0.290104537239753,0.404425501556355
0.291215041469329,0.421612396442637
0.296278905052492,0.418532081627125
0.30142014447353,0.415384276718377
0.286232603713925,0.451896634873691
0.336664110201722,0.380552850401095
0.326172955059727,0.388245237441467
0.271192517847968,0.413792925807488
0.350174685223196,0.405959705663534
0.336255291223415,0.39065806983034
0.339612661669184,0.391431095616058
0.325601529539449,0.403503620053127
0.351246514764879,0.383960359516318
0.357185946830541,0.380118780732647
0.39480098461743,0.353058558141259
0.369312043294394,0.372221485975651
0.375499596211344,0.368165083713507
0.379454466123839,0.37422065583369
0.388125932712185,0.359835053699874
0.399115316441968,0.365932944661176
0.401090205164814,0.351213102071049
0.431314810234242,0.338703742371929
0.407116575652652,0.346432233983755
0.385763283098404,0.348822367204676
0.42348411567166,0.362860908215775
0.41112013803042,0.326784048598892
0.432808583115044,0.329459066512227
0.436953146070657,0.340961800796287
0.444879405666856,0.322964065054732
0.429423962619466,0.31447642859213
0.474337406028089,0.340682622987037
0.4744364926216,0.315937307315811
0.446122099402594,0.316597480861278
0.473520577708017,0.299563148553792
0.477791011951218,0.280448134963735
0.477098818001981,0.314384156868936
0.489676923127186,0.286948347044807
0.516892785169315,0.295752308370515
0.51134023191085,0.243726455244412
0.505072597282419,0.274451058269938
0.493951171446616,0.289081950676247
0.514918680664639,0.266184431589838
0.545501904022944,0.26034713743001
0.534266689670759,0.253050298472393
0.542770537121668,0.2552129484447
0.533621587446512,0.249805894894514
0.521733312464299,0.289115424687746
0.552848143286474,0.228892004297898
0.546794731278088,0.237656458279943
0.550524987519924,0.188072895579313
0.548209582829068,0.236861311832422
0.585713271396349,0.233044347351771
0.563239056718064,0.22163501245889
0.538203574985087,0.214085174935641
0.620858957444447,0.23178475137414
0.559944796198952,0.239341232453329
0.596194899772382,0.245497575218594
0.548805201505641,0.197251374534665
0.561028306497074,0.169131615063096
0.604515980335133,0.193045624364303
0.59237628953296,0.190194788812412
0.613000027350397,0.178778662553821
0.598896187461898,0.182458938844559
0.599765641998784,0.180816040352817
0.605116196191356,0.174772308435245
0.608114660061037,0.170947378249576
0.626570264943003,0.213006295798451
0.613890342719808,0.163334143285288
0.605364372819439,0.143252925126604
0.599570129443094,0.151029606470112
0.622006261735029,0.152005420463696
0.63167997161643,0.135358671710407
0.627056088218742,0.144513354193698
0.629473867148375,0.140785358963462
0.627924434782857,0.139092286625627
0.634096992292706,0.133365299681587
0.636303072871208,0.129673177777577
0.63843932169647,0.125992955796605
0.666841522361221,0.0960104349358471
0.642503792814884,0.118668095899033
0.609099284460666,0.11839013276958
0.648202449504776,0.137238910085369
0.640032751434849,0.102750783065451
0.649810910016533,0.104159902428183
0.629436344640925,0.0818023208159391
0.68134414692858,0.11731360489604
0.654583717241905,0.0934016816839601
0.679573301120254,0.0914755973941332
0.654613916039507,0.0679651629868244
0.668853262692164,0.0680479004369479
0.633298069122284,0.0906421049780037
0.661220093025197,0.0757031413181098
0.679526831859757,0.0807183124903753
0.63739431025122,0.0365289271509038
0.660899282600023,0.0447179199840358
0.689919129174999,0.0480706494168807
0.640059402218297,0.0589105348294976
0.667065090150736,0.0548429536894858
0.667819691177367,0.0514059481434634
0.670790101212485,0.0638077433469604
0.667762184388326,0.0514479487324081
0.683250497651601,0.0528390796722546
0.670224229588994,0.0377702721670916
0.670673733677688,0.0343892950940007
0.6710633199245,0.0310194369369395
0.689695592025194,0.0146350644138058
0.681552118704749,0.0162918194166838
0.671876243432671,0.0209762867000805
0.707377423242042,0.021460716542926
0.666031385071062,0.0423880429393627
0.67216312491239,0.0110321653648126
0.657092485455643,-0.0119551793034976
0.672067029419536,0.00445738151526708
0.657898279552838,0.0050937753023787
0.668807132265745,-0.0174309308116382
0.671499205099299,-0.00532342722181124
0.692863160736059,-0.0143568897765825
0.681195461201281,0.0119839361657417
0.677660836644087,-0.0243437101532243
0.672460941773717,0.00503032822179451
0.650197492880738,-0.024462497546626
0.649555160930638,-0.0018900044281532
0.651799306373915,-0.023547962936191
0.656286376655527,-0.0310000585552039
0.673079642243555,-0.0516846629901919
0.666053888781754,-0.0372303430329423
0.662937472016924,-0.0699668992139051
0.67815624636408,-0.068111528356713
0.636026373453208,-0.0416809510211192
0.682655419813592,-0.0332956969302059
0.661364287752841,-0.0527888978038205
0.693456589545665,-0.0446433855889915
0.750372277623537,0.0414122097444924
0.556026934835217,0.0411643573122094
0.541299619816153,0.036666435024079
0.762909252703164,-0.159926531662819
0.648973566633385,-0.0424462706779358
0.759461177144815,0.0201135897625422
0.581575923206092,0.0287554981120498
0.645831956700044,-0.104918987208686
0.648280688643587,-0.0831342799421302
0.656282055971827,-0.0946796866592654
0.550954980366475,-0.18468783326215
0.759485298099481,-0.207429894429754
0.741504887698466,0.0225416819368694
0.639978486038789,-0.0979283388559326
0.578445088620214,-0.171408455356603
0.71447592742481,-0.199985378119076
0.747666797105453,0.0362652333837275
0.529687567239058,-0.0221802882555206
0.478295274160766,-0.194931373950601
0.628551507248279,-0.115354695204632
0.551055423422244,-0.23367490649666
0.601481754594339,-0.131946710448554
0.529221671963861,-0.224188508585095
0.511939958666663,-0.0149829871688627
0.646758343029503,-0.14486985164982
0.509323794252548,-0.0369153192382781
0.726482261254755,-0.0132912718158194
0.724566664213406,-0.0120642463493419
0.496095095224041,-0.237284269017458
0.732735592849094,-0.0137317205771506
0.518815855916965,-0.0735003512304691
0.601565123942054,-0.142188221438087
0.581884787033028,-0.155334578509399
0.608046955821358,-0.150270533407505
0.593496388804877,-0.157401706386585
0.600878842657012,-0.174952962682421
0.588169972450871,-0.162847802020661
0.538221230035545,-0.174157152357236
0.565552109159317,-0.190778213491446
0.581655988337722,-0.183359702920629
0.577087464979192,-0.173629360130616
0.574229464429938,-0.176301869819563
0.571337248771954,-0.178965285425464
0.575229408820362,-0.162224914111798
0.554945042212878,-0.22301098777314
0.574725649732308,-0.158987554103416
0.559433578690767,-0.189528585542317
0.568777737699338,-0.161133616870702
0.518574962316266,-0.185363844171255
0.550164559401422,-0.197356990141063
0.54701184142208,-0.199948694425274
0.546789415146993,-0.157334337932768
0.513088603008188,-0.206257050447286
0.537284919923162,-0.195101889640253
0.503856459177892,-0.199598156856455
0.504566327930822,-0.166711644244568
0.531078976199828,-0.216234427003041
0.502290413053174,-0.249945075620537
0.537968454113935,-0.227646475615884
0.517290470213811,-0.222879985493481
0.513291864870231,-0.238311474775264
0.510372632541533,-0.227880777985543
0.507405602280204,-0.196718350558254
0.52021981607082,-0.243966220735751
0.509661912421898,-0.225583667842602
0.494557057318381,-0.244301878186845
0.495294043157128,-0.234864555267197
0.517887748710815,-0.233574383712391
0.500468074341923,-0.266486789041729
0.495106228461088,-0.223486033503191
0.477954634727015,-0.249966164987098
0.4611242937664,-0.276908182609668
0.470481975707955,-0.254782478866125
0.466711213902831,-0.257178325285602
0.462917986809846,-0.259566003259969
0.498084186614169,-0.258726453563169
0.452150967341948,-0.300393239438608
0.469951723558151,-0.279536226079642
0.431541648014316,-0.297582280176985
0.443627723393594,-0.271382878871636
0.452077394654735,-0.271789244046993
0.435767212378647,-0.276053462417022
0.419680992594892,-0.287329323908225
0.42782859003313,-0.280692297819901
0.425098762635723,-0.298131250047296
0.426134308380041,-0.273356618882511
0.415780623453319,-0.287591529365267
0.42818722706226,-0.298358640475871
0.40205573799949,-0.282452679018974
0.409877443370054,-0.300360322083485
0.399470694605265,-0.296681546082166
0.411559223603843,-0.263907017674148
0.388075183264297,-0.295360088849463
0.401638825943022,-0.270065528374776
0.384810631300053,-0.32849585909398
0.405804599450217,-0.317363630286367
0.399823255278244,-0.354745086943931
0.375612390154551,-0.319526294439806
0.366095623165774,-0.314494949193889
0.384945094123134,-0.339034102255025
0.347903480555558,-0.325804869558224
0.347856896407302,-0.339401315992454
0.329143784266195,-0.350784240249478
0.344792483544325,-0.325385414097305
0.353288182082327,-0.369528303964731
0.336188508606863,-0.329690292958551
0.298275493840324,-0.313029530750345
0.308166886639149,-0.311604454783343
0.313434961783217,-0.33225151342076
0.326747653320498,-0.342256970019443
0.295168034407045,-0.347610565452207
0.340587504646954,-0.330091584296493
0.305756336165396,-0.344530739171641
0.301373364729552,-0.346622410211378
0.296982615281934,-0.348707069853424
0.292584455004445,-0.350784747023964
0.274230908750233,-0.33929287938173
0.283767370687461,-0.35491926965527
0.259347280794183,-0.357975375666511
0.274925049233818,-0.359026209514779
0.268985839601848,-0.326800977946091
0.266060428098731,-0.363105798011976
0.261620673105403,-0.365135407815171
0.283404259345968,-0.359878392817825
0.252728110176686,-0.369174403161681
0.23559880721426,-0.370077648654189
0.244059677132761,-0.372794012983221
0.239362141156992,-0.37518276942453
0.199173283348497,-0.383763470084689
0.227478977923909,-0.35996584465824
0.225972434951009,-0.381131677807529
0.221505638134272,-0.383101569395206
0.244726278739034,-0.375394292509158
0.192867985674388,-0.417202025994264
0.20809970398646,-0.388972415504865
0.166127585512046,-0.395944319994315
0.199161466625608,-0.392854244962015
0.199580509250199,-0.397464465361752
0.206346826743346,-0.395223354528411
0.172224807375398,-0.409630578987912
0.181295935422837,-0.400541982140701
0.178036972321691,-0.387590160332436
0.172374516491351,-0.404348352681204
0.178517229738827,-0.433945975766929
0.163464578613423,-0.408130033068459
0.141566986686639,-0.404826870300219
0.151993911640338,-0.390381817369145
0.136362439775747,-0.375322450370339
0.145690895839106,-0.41562024902116
0.189935629022707,-0.414817224547107
0.136833025853152,-0.419329247405574
0.113326802276916,-0.40341516051938
0.0813816115748472,-0.437605561408813
0.135672196434366,-0.463732248948391
0.11918991595974,-0.426676182037948
0.115949467655926,-0.40393256146153
0.110410550962716,-0.430314581104876
0.0828824073483243,-0.433806921095101
0.0948778100215016,-0.439338857670141
0.0598189153670086,-0.459094268000733
0.0919166288082705,-0.454411585193873
0.0825475242238548,-0.418542008053044
0.0662588334420861,-0.468668962505605
0.0799543910386129,-0.442868817954831
0.0756428979275765,-0.444639788598816
0.0731978803625529,-0.451251882231564
0.0493053246542813,-0.449537379180125
0.0797526681133498,-0.426736616037591
0.0585100799548218,-0.451668598814298
0.0708693757816461,-0.445685864486405
0.0579839405647147,-0.439708797879719
0.0457867340384978,-0.444464810210943
0.0190887504856651,-0.467173960563039
0.0304983248816339,-0.495037107445787
-0.00603778159717906,-0.455048279329517
0.0290198392302868,-0.463761442736189
0.0340519064055975,-0.496040117143962
0.0263501231410013,-0.459654530767477
0.0342804210089867,-0.459017900868965
-0.0137587681956377,-0.495939627132521
0.0120979770354336,-0.45910009368655
-0.00504777230075515,-0.436859183960024
0.00549084161696388,-0.478326752742662
-0.0291075504208534,-0.500357592551646
-0.0118402323719428,-0.481507707147383
-0.0104476173332698,-0.49284739121227
-0.0157897602615616,-0.482251721996447
-0.0197565462509022,-0.483902679234038
-0.0237039387912563,-0.485548765611665
-0.0337613182220831,-0.481065515441173
-0.0315390747973958,-0.488826441491763
-0.0446745612239867,-0.459828778662687
-0.0392922308247627,-0.492084981046226
-0.0413835808479949,-0.489955515070522
-0.0215440011335151,-0.480679434232341
-0.0452508451214645,-0.529765480110104
-0.0545408531223092,-0.498545576816183
-0.0395631431091263,-0.524394092082435
-0.0620304444820541,-0.501748095850645
-0.065740275078012,-0.503342511896895
-0.0694263060421572,-0.504932404197406
-0.0554641340868054,-0.482087244989586
-0.0767255003474011,-0.508098733265952
-0.0803379293246952,-0.509675227886358
-0.0696854533207069,-0.469901344127885
-0.0751868066027251,-0.524436977233648
-0.0633694634572692,-0.529881009679917
-0.0945312898206375,-0.515937415219862
-0.123712162653817,-0.549072578987923
-0.0929415473335458,-0.492412179461401
-0.044733000363951,-0.507982443612505
-0.104220260143346,-0.519732486143543
-0.0910272049227488,-0.530037638617284
-0.111226884189277,-0.544418860765123
-0.130130564423601,-0.520131909630623
-0.121611130993345,-0.528257609022473
-0.124866431109793,-0.52977905535238
-0.120889778764359,-0.525834386077451
-0.139722974219513,-0.549806582697986
-0.116432039484714,-0.535830773186378
-0.163449200815059,-0.51686027595391
-0.151914607295253,-0.542414714147495
-0.111447376966195,-0.515508498578132
-0.146791801462225,-0.540317903511699
-0.143390298069264,-0.55635260558456
-0.147638868288377,-0.516101261502748
-0.155706552432199,-0.544776531439809
-0.188489377381093,-0.534506280138902
-0.161138710819763,-0.551205391572016
-0.202478118494694,-0.598603309507466
-0.170752599013255,-0.565134583361869
-0.16988530409337,-0.552133108894506
-0.172615874795167,-0.553593514357292
-0.147984757418862,-0.543149397196016
-0.170939856865872,-0.532047654258511
-0.172811783112738,-0.562314187530786
-0.183175319437492,-0.559399733654105
-0.185722635147347,-0.560842582470653
-0.188232198313107,-0.562282006736511
-0.188667129414447,-0.542000529219086
-0.227634900509255,-0.540306344801062
-0.180196597754805,-0.577087443117882
-0.197885581897153,-0.56800603681674
-0.200200874613906,-0.569428772221924
-0.202476211695151,-0.570848256633531
-0.215951864963884,-0.572443101088293
-0.184735750179316,-0.594824618358564
-0.214907306848599,-0.584048020093468
-0.241322836779349,-0.545858356376178
-0.21324071120218,-0.577897926204384
-0.218819125848878,-0.559387196511632
-0.221474872815026,-0.57495549088686
-0.244376877907489,-0.591094409501518
-0.225213024877441,-0.573095410426402
-0.199469247332926,-0.564081675039692
-0.224200701754197,-0.58757107673754
-0.232245291086768,-0.581570523025569
-0.240211239616921,-0.627220099140599
-0.213937592198103,-0.572247975117511
-0.241487047837159,-0.584578920074226
-0.233148018133821,-0.593141475859968
-0.234687930580399,-0.594510119087125
-0.236181278117231,-0.595876031992044
-0.231806555157877,-0.569719548859296
-0.239026809734045,-0.598599782539905
-0.19818856814919,-0.612935174967571
-0.261581242812974,-0.560777285206562
-0.242936690788609,-0.602665654099538
-0.257938405736792,-0.605775852491124
-0.245300050122357,-0.605363403103351
-0.243225747874397,-0.582595512450788
-0.243336267647658,-0.618109503826052
-0.245395243022241,-0.665422857384191
-0.249429802955063,-0.610729145567396
-0.250335731386563,-0.61206455084791
-0.251190321543587,-0.613397601846595
-0.257776869390791,-0.632092848098034
-0.236354517919039,-0.632809978981304
-0.245917272760831,-0.594828820681104
-0.249767406049931,-0.603642129807453
-0.254680346845009,-0.620028555029094
-0.257386387004765,-0.638754108774924
-0.275560578445482,-0.627650171947398
-0.24872891792861,-0.60930013956135
-0.256510825591574,-0.625293890973106
-0.256831837999229,-0.626604990093713
-0.23676426136396,-0.633575173773139
-0.257307363806439,-0.629221108979747
-0.257461142842191,-0.630526186597547
