-0.796031295833525,-0.0949649602401367
-0.915010149509283,-0.193378047345485
-0.775331575352012,-0.0715164727545876
-0.906409040757959,-0.189447520680675
-0.902086746331083,-0.187472463364836
-0.875818735385783,-0.188482395257215
-0.941278742118548,-0.171671719043416
-0.778473216731567,-0.0397419819094767
-0.920978679269513,-0.145318192170781
-0.858943930150564,-0.211083814238408
-0.857471530826301,-0.217898501589889
-0.916179576380869,-0.203815763152441
-0.878806987880217,-0.148934060172638
-0.862570743586247,-0.169409593873618
-0.906502622890989,-0.174220874046417
-0.890979438665413,-0.155905204528441
-0.894815019046207,-0.206362149840489
-0.838130304182367,-0.195983286434998
-0.840174625974873,-0.159157455343496
-0.835660520364639,-0.157088948369954
-0.831135265059223,-0.155014498790537
-0.874555576053134,-0.127333837989418
-0.833201171918289,-0.135341716285981
-0.84381335396034,-0.120808236098332
-0.930391934557308,-0.217883646309502
-0.808348908116464,-0.144554369054783
-0.778354341497516,-0.190888512457163
-0.790210304197565,-0.106170466721769
-0.794556399344951,-0.138209278913267
-0.789940008941251,-0.136082962344564
-0.786401820905249,-0.139836749759924
-0.899794935443167,-0.223250010291782
-0.681700418100678,-0.0315147674804662
-0.771385468983949,-0.12752222136644
-0.766725612982148,-0.125368347053147
-0.762057678004617,-0.123209068955176
-0.757381868765987,-0.121044422993939
-0.752698389980888,-0.118874445090851
-0.748007446363949,-0.116699171167323
-0.743309242629801,-0.114518637144769
-0.738603983493075,-0.112332878944603
-0.7338918736684,-0.110141932488237
-0.729173117870407,-0.107945833697084
-0.724447920813725,-0.105744618492557
-0.811638476293748,-0.207615172124916
-0.714979021782818,-0.101326982529037
-0.710235729237852,-0.0991106336128687
-0.705486814292719,-0.0968893119689796
-0.700732481662049,-0.0946630535187827
-0.695972936060472,-0.0924318941836909
-0.691208382202617,-0.0901958698851175
-0.686439024803115,-0.0879550165444756
-0.681665068576598,-0.0857093700831783
-0.676886718237694,-0.0834589664226387
-0.672104178501033,-0.0812038414842698
-0.667317654081246,-0.078944031189485
-0.662527349692963,-0.0766795714596972
-0.657733470050815,-0.0744104982163196
-0.558655496073913,0.0268471332071552
-0.543665472465531,0.0213352945103702
-0.741078429755697,-0.165953126405789
-0.638526293236168,-0.0652887885351734
-0.633717608044144,-0.0629971865450435
-0.628906575886035,-0.0607011865698025
-0.624093401476472,-0.0584008245308635
-0.501379991729814,0.057275638753465
-0.72050333380053,-0.165769197143785
-0.609643071885356,-0.0514739252459898
-0.491926057997641,0.0566557094647579
-0.600002560668894,-0.046834840630158
-0.595180831757838,-0.0445090605587067
-0.590358393597738,-0.0421791698734491
-0.585535450903226,-0.0398452044957986
-0.580712208388931,-0.0375072003471681
-0.575888870769483,-0.0351651933489709
-0.686993012170106,-0.133524746511392
-0.56624272907365,-0.0304693144895285
-0.561420334426525,-0.0281155144711096
-0.556598663532768,-0.0257578552887764
-0.55177792110701,-0.023396372863942
-0.54695831186388,-0.0210311031180195
-0.542140040518009,-0.0186620819724221
-0.632374964036522,-0.111282351243171
-0.532508330376562,-0.0139129291678548
-0.436514356119271,0.0981710696743288
-0.522884428399713,-0.00914920182154513
-0.518075917259588,-0.0067619624987697
-0.513269972304502,-0.00437118730479801
-0.508466798249086,-0.00197691216104324
-0.619946477494827,-0.112681210838154
-0.498869581695784,0.00282199429016325
-0.494075948627159,0.00522655375478871
-0.489285905316725,0.00763446948354477
-0.484499656479111,0.0100457055550184
-0.479717406828948,0.0124602260477964
-0.474939361080867,0.0148779950404657
-0.470165723949497,0.0172989766116132
-0.465396700149468,0.0197231348398257
-0.555139972733637,-0.0875736308342766
-0.455873311401956,0.0245808375817934
-0.451119355883733,0.0270143102527224
-0.446370832555372,0.0294508158950639
-0.441627946131504,0.0318903185874049
-0.436890901326758,0.0343327824083322
-0.548149816331596,-0.078433092632716
-0.427435155433155,0.0392264497502933
-0.328139421821147,0.149315933617793
-0.418005232591605,0.0441315305496424
-0.413300466601925,0.0465882611923046
-0.408602770519149,0.0490477374350744
-0.403912349057906,0.0515099233565387
-0.399229406932828,0.0539747830352844
-0.394554148858544,0.0564422805498984
-0.389886779549685,0.0589123799789675
-0.485839995424074,-0.0442118403912587
-0.380576526086759,0.0638602408948186
-0.375934051361954,0.0663379305387744
-0.371300284261094,0.0688180784115329
-0.366675429498809,0.0713006485916809
-0.36205969178973,0.0737856051578053
-0.357453275848486,0.0762729121884931
-0.352856386389709,0.078762533762331
-0.348269228128027,0.081254433957906
-0.343692005778071,0.083748576853805
-0.339124924054473,0.0862449265286148
-0.33456818767186,0.0887434470609223
-0.330022001344865,0.0912441025293144
-0.325486569788116,0.093746857012378
-0.320962097716245,0.0962516745886999
-0.410123276751509,-0.00858180919772061
-0.423461801025398,-0.00935871678208998
-0.307456485556195,0.103778146663085
-0.302977898570134,0.106290857398309
-0.298511294642101,0.108805451619726
-0.294056878486726,0.111321893405922
-0.289614854818639,0.113840146835485
-0.285185428352472,0.116360175987002
-0.280768803802853,0.118881944939058
-0.276365185884413,0.121405417770242
-0.271974779311782,0.12393055855914
-0.26759778879959,0.126457331384339
-0.263234419062468,0.128985700324426
-0.258884874815046,0.131515629457987
-0.254549360771953,0.13404708286361
-0.250228081647821,0.136580024619882
-0.245921242157278,0.139114418805388
-0.241629047014956,0.141650229498717
-0.237351700935485,0.144187420778455
-0.233089408633495,0.146725956723189
-0.228842374823615,0.149265801411506
-0.224610804220477,0.151806918921993
-0.22039490153871,0.154349273333236
-0.314968523855816,0.0376843844717921
-0.21201091879781,0.159437549172339
-0.207843248167938,0.161983398757374
-0.203692064317958,0.164530341557512
-0.1995575719625,0.167078341651342
-0.195439975816195,0.169627363117449
-0.094847010437991,0.273248527768604
-0.187256291009562,0.174728326480845
-0.183190611778495,0.177280196535307
-0.179142647615101,0.179832944276395
-0.0792623812247012,0.289919223758593
-0.171100683349853,0.184940929132794
-0.167107092677259,0.18749609440528
-0.0505928227538632,0.304291102448346
-0.159175717825284,0.192608591031756
-0.155238343075162,0.195165850542921
-0.151320116395125,0.197723736290819
-0.147421242499803,0.200282212354038
-0.143541926103825,0.202841242811164
-0.139682371921822,0.205400791740784
-0.135842784668425,0.207960823221486
-0.132023369058263,0.210521301331855
-0.128224329805966,0.21308219015048
-0.124445871626164,0.215643453755946
-0.120688199233489,0.218205056226841
-0.11695151734257,0.220766961641751
-0.113236030668037,0.223329134079264
-0.10954194392452,0.225891537617966
-0.197851276086938,0.116263529589828
-0.102218789089056,0.231016894313285
-0.208059584513614,0.117086108074647
0.0217808324577625,0.330394235447981
-0.0913996741842384,0.238705764579855
-0.203408521978838,0.143096689466308
-0.0842997308172969,0.243831815823477
-0.0807842132485979,0.246394775000821
-0.0772919380425868,0.248957641986636
-0.073823109913894,0.251520380859509
-0.0703779335771495,0.254082955698027
-0.0669566137469835,0.256645330580777
-0.0635593551380264,0.259207469586346
-0.0601863624649082,0.26176933679332
-0.056837840442259,0.264330896280287
-0.0535139937847091,0.266892112125833
-0.0502150272068888,0.269452948408545
-0.0469411454234281,0.272013369207011
-0.150057422940552,0.176532186322237
-0.130559946338599,0.172974070299413
-0.0372720559855056,0.279691779482795
-0.0341005605257853,0.282250179130142
-0.0309551734335756,0.284807983686176
-0.0278360994235065,0.287365157229485
-0.0247435432102085,0.289921663838655
-0.0216777095083114,0.292477467592274
-0.0186388030324458,0.295032532568927
0.0878605884539014,0.410704529309032
-0.012642590617329,0.300140302505686
-0.00968569410733815,0.302692935622966
-0.00675654368189946,0.305244686277629
-0.00385534405564283,0.30779551854826
-0.000982299943198719,0.310345396513449
0.00186238394080296,0.31289428425178
0.00467850288173183,0.315442145841842
0.110303104764004,0.41257908600555
0.0102242270758507,0.320534646891502
0.0129534228997804,0.323079214508276
-0.0772121383058818,0.231038699077076
0.0183234584282291,0.328164804318642
0.0209638887034877,0.330705754669408
0.0235743210332625,0.333245427422013
0.0261545507029229,0.335783786655043
0.138527789550202,0.445276693755476
-0.0767028942766766,0.234611142147934
0.0337119766049176,0.343390624022553
0.0361693484878195,0.345923369963152
0.0385954941374565,0.348454622777112
0.040990208839198,0.350984346543017
0.0433532878784142,0.353512505339456
0.0456845265404747,0.356039063245015
0.14493745341902,0.454562342562202
0.0502506638746081,0.361087232697841
-0.0656367143025645,0.262665604857668
0.0546869831245568,0.36612856753019
0.0568559491813865,0.368646582160154
0.0589918465732794,0.371162780370758
0.0610944705856054,0.373677126240591
0.0631636165037343,0.376189583848239
0.065199079613036,0.37870011727229
0.0672006551988802,0.381208690591329
0.0691681385466369,0.383715267883944
0.0711013249416756,0.386219813228723
0.0730000096693664,0.38872229070425
0.074863988015079,0.391222664389114
0.0766930552641833,0.393720898361902
0.078487006702049,0.3962169567012
0.080245637614046,0.398710803485595
0.0819687432855441,0.401202402793674
0.0836561190019132,0.403691718704024
0.199950200153572,0.496790594568751
0.187265285632744,0.517606964957345
0.088501819273944,0.411145606834569
0.090044228023495,0.413625429939872
0.205382258306233,0.51042400890832
0.0930185802231268,0.41857765121468
0.0944501142439471,0.421049977541359
-0.0102368483612428,0.320241827815735
0.0972008745544462,0.425986881966203
0.0985196914148645,0.42845138822154
0.0998005264592217,0.430913215943605
0.101043174972888,0.433372329210983
-0.00767824744032544,0.340757358272462
0.103413093549625,0.438282268696027
-0.00429876390896644,0.350607312714493
0.105627809428035,0.443180919305368
0.106676454568792,0.445625921478116
0.107685684891077,0.4480679936677
0.108655295680259,0.450507099952705
0.109585082221709,0.452943204411719
0.110474839800795,0.455376271123328
0.111324363702889,0.457806264166119
0.112133449213359,0.46023314761868
0.112901891617576,0.462656885559597
0.113629486200909,0.465077442067456
0.114316028248728,0.467494781220846
0.114961313046404,0.469908867098352
0.115565135879305,0.472319663778562
0.116127292032802,0.474727135340062
0.116647576792265,0.47713124586144
0.117125785443062,0.479531959421282
0.117561713270565,0.481929240098175
0.117955155560143,0.484323051970706
0.118305907597166,0.486713359117462
0.118613764667003,0.489100125617029
0.118878522055024,0.491483315547996
0.229293987862052,0.584032533324399
0.1192779189271,0.496238822018472
0.119412148981893,0.498611066715155
0.119502460496351,0.500979591157585
0.119548648755842,0.503344359424348
0.119550509045736,0.50570533559403
0.119507836651403,0.50806248374522
0.119420426858213,0.510415767956503
0.119288074951536,0.512765152306467
0.119110576216742,0.515110600873698
0.1188877259392,0.517452077736783
0.11861931940428,0.51978954697431
0.0191008970672525,0.42420114316058
0.117945018703786,0.524452318887035
0.117538715108952,0.526777549719406
0.117086036398219,0.529098629240567
0.116586777856958,0.531415521529103
0.116040734770537,0.533728190663601
0.115447702424328,0.536036600722649
0.114807476103699,0.538340715784833
0.114119851094021,0.54064049992874
0.113384622680664,0.542935917232958
0.010941408647658,0.448823516513681
0.111770536784389,0.54751350763667
0.110891269872212,0.549795608893338
0.109963580697834,0.552073199624665
0.108987264546626,0.554346243909235
0.107962116703957,0.556614705825637
0.106887932455197,0.558878549452457
0.105764507085716,0.561137738868282
0.104591635880884,0.563392238151699
-0.0134148845170482,0.44998629720804
0.102096737106646,0.567887022635657
0.100774300107979,0.570127235993371
0.0994015984154401,0.572362615533025
0.0979784273143992,0.574593125333205
0.0965045820902261,0.576818729472498
0.0949798580282903,0.579039392029492
0.205352568483575,0.678095171431413
0.0917769545326108,0.583465748710926
0.0900983656696066,0.585671370992541
0.0883680791103191,0.587871908006204
0.0865858901401183,0.590067323830501
0.0847515940443739,0.59225758254402
0.17529278621293,0.691162333415946
0.0809258616177335,0.596622484953069
0.18403997861504,0.702410182068595
0.0768892441133567,0.600966327862046
-0.0206399484465979,0.505797466078982
0.16489740362447,0.699408592876544
0.0704353258300075,0.607441977038147
0.176948342806725,0.728833686725787
0.0658643306192331,0.611731913947485
0.0634977039633929,0.613868625875496
0.0610767183210772,0.615999785557184
0.0586011689776557,0.618125357071136
0.0560708512184983,0.620245304495939
0.0534855603289747,0.62235959191018
0.0508450915944549,0.624468183392445
0.0481492403003085,0.626571043021322
0.0453978017319056,0.628668134875397
0.0425905711746157,0.630759423033257
0.0397273439138089,0.63284487157349
-0.0782013753181254,0.525454193866442
0.128126981869743,0.747818189476441
0.0307996347639844,0.639065820274289
-0.0795221847174265,0.532547428348012
0.024564092044963,0.643183262760775
0.0213605855558202,0.645232919245565
0.0180996493607491,0.647276484662835
0.0147810787451196,0.649313923091173
0.0114046689943013,0.651345198609164
0.107844142606517,0.762481981151181
0.00447751322857826,0.655389117228456
-0.112245958052926,0.542853346781598
-0.00268345565346162,0.659407953149408
-0.00635213179967573,0.661407875294472
-0.0100798753688598,0.663401419000713
-0.0138668910756435,0.665388548346715
-0.0177133836346575,0.667369227411067
-0.0216195577605317,0.669343420272354
-0.0255856181678965,0.671311091009165
-0.0296117695713817,0.673272203700085
-0.033698216685618,0.675226722423701
-0.0378451642252351,0.677174611258602
-0.0420528169048636,0.679115834283373
-0.0463213794391332,0.6810503555766
-0.0506510565426746,0.682978139216873
-0.0550420529301176,0.684899149282776
-0.0594945733160926,0.686813349852897
-0.0640088224152296,0.688720705005823
-0.068585004942159,0.69062117882014
-0.0732233256115107,0.692514735374436
-0.196755511593477,0.595871351537037
-0.0826872002360024,0.696280953017312
-0.0875131636204027,0.698153542263065
-0.0924020840057461,0.700019070563144
-0.097354166106663,0.701877501996136
-0.102369614637783,0.703728800640628
-0.107448634313737,0.705572930575207
-0.204068934132881,0.587826293341166
-0.117798205958668,0.709239540628972
-0.123069167356904,0.711061948905332
-0.128404518758495,0.712877044786126
-0.13380446487807,0.714684792349942
-0.13926921043026,0.716485155675365
-0.144798960129696,0.718278098840983
-0.150393918691006,0.720063585925384
-0.156054290828822,0.721841581007153
-0.161780281257773,0.723612048164877
-0.0492177265020017,0.824604883912637
-0.173429935847603,0.72713025502254
-0.179354009437742,0.728877922879652
-0.185344520177538,0.730617919127067
-0.185344520177538,0.730617919127067
-0.304783706450516,0.615618238972087
-0.197193912920855,0.733982296586574
-0.202970835715949,0.735583883371689
-0.110817180448087,0.850346041095419
-0.214232061470332,0.73862697859889
-0.219717535356551,0.740068937259476
-0.339846163743475,0.624491957521642
-0.114223622343151,0.860186244697427
-0.235600426612896,0.744079158740175
-0.240705498442457,0.745311431430887
-0.245716933416516,0.746491845402255
-0.250635316998538,0.74762062576353
-0.255461234651988,0.748697997623961
-0.26019527184033,0.749724186092797
-0.376023078842075,0.654165732448623
-0.269390046675553,0.751623913292686
-0.273851955249363,0.752497902242238
-0.278224325211925,0.753321608237196
-0.282507742026705,0.754095256386808
-0.286702791157167,0.754819071800325
-0.290810058066776,0.755493279586997
-0.194087268307236,0.874689929904372
-0.298763587077296,0.756693772716804
-0.302611020105137,0.757220508278439
-0.306373012765984,0.757698536650228
-0.310050150523303,0.75812808294142
-0.421140700567833,0.667586660061073
-0.427898908115302,0.649276934373951
-0.320578289008742,0.75912808042392
-0.323921861786598,0.759365949485226
-0.432950833066124,0.646220527081124
-0.330363810047164,0.759699843114048
-0.333463356456804,0.759796317900063
-0.336482731670636,0.759846111479481
-0.339422521152124,0.759849448961551
-0.342283310364733,0.759806555455524
-0.345065684771928,0.759717656070648
-0.347770229837174,0.759582975916175
-0.350397531023936,0.759402740101353
-0.35294817379568,0.759177173735433
-0.355422743615868,0.758906501927665
-0.357821825947968,0.758590949787297
-0.360146006255443,0.758230742423581
-0.362395870001759,0.757826104945766
-0.364572002650381,0.757377262463102
-0.366674989664773,0.756884440084839
-0.3687054165084,0.756347862920226
-0.370663868644728,0.755767756078514
-0.372550931537221,0.755144344668951
-0.374367190649344,0.754477853800789
-0.376113231444562,0.753768508583277
-0.480592280914362,0.657815343657826
-0.379396999938144,0.752222155537202
-0.380935898563438,0.751385597927139
-0.382406920725686,0.750507086404725
-0.383810651888354,0.74958684607921
-0.385147677514906,0.748625102059844
-0.386418583068809,0.747622079455877
-0.387623954013526,0.746578003376558
-0.482948925199345,0.643466374074578
-0.389840433929263,0.744367591228867
-0.390852713827213,0.743201705378994
-0.391801800969838,0.741995666490769
-0.392688280820601,0.740749699673441
-0.393512738842969,0.739464030036262
-0.394275760500406,0.73813888268848
-0.394977931256377,0.736774482739345
-0.395619836574348,0.735371055298108
-0.396202061917781,0.733928825474018
-0.278459879766561,0.845860062325123
-0.503435615265564,0.624649276254861
-0.397596512735516,0.729371572797128
-0.397945872815455,0.727776384534125
-0.398238480238182,0.726143519434518
-0.489938611559739,0.624802820575357
-0.398655778965862,0.722765659162493
-0.398781641197744,0.721021114208574
-0.398853092626275,0.71923979285505
-0.398870718714919,0.717421920211173
-0.398835104927141,0.715567721386191
-0.398746836726407,0.713677421489354
-0.39860649957618,0.711751245629912
-0.280483192807628,0.828812360360981
-0.39817196028111,0.707792166460212
-0.397878929063196,0.705759713368455
-0.397536170749651,0.703692284751092
-0.397144270803938,0.701590105717373
-0.396703814689523,0.699453401376548
-0.39621538786987,0.697282396837868
-0.395679575808444,0.695077317210581
-0.395096963968711,0.692838387603937
-0.394468137814136,0.690565833127188
-0.393793682808182,0.688259878889581
-0.393074184414316,0.685920750000368
-0.392310228096002,0.683548671568798
-0.391502399316704,0.681143868704121
-0.50860544326941,0.588132605193437
-0.389757466229021,0.676236990112444
-0.388821532847564,0.673735364603945
-0.387844068858984,0.671201915099338
-0.386825659726746,0.668636866707873
-0.385766890914315,0.666040444538799
-0.384668347885155,0.663412873701368
-0.383530616102731,0.660754379304828
-0.382354281030509,0.65806518645843
-0.485506131170125,0.555197123808778
-0.379888142870529,0.652595605853057
-0.3785995107097,0.649815668312583
-0.377274617112933,0.647005932759249
-0.375914047543692,0.644166624302306
-0.374518387465442,0.641297968051003
-0.488283261837126,0.534708173552695
-0.371624137635774,0.635473512602319
-0.465610965825539,0.524533550748706
-0.368596551331649,0.629534367287195
-0.367034220660328,0.626522348702842
-0.263579279272957,0.728803239645235
-0.363815411596492,0.620414545226806
-0.362160104130908,0.617319210553623
-0.360474975327498,0.614196554069328
-0.358760610649729,0.611046800883172
-0.357017595561065,0.607870176104405
-0.355246515524971,0.604666904842276
-0.353447956004913,0.601437212206037
-0.351622502464354,0.598181323304936
-0.34977074036676,0.594899463248222
-0.347893255175597,0.591591857145147
-0.345990632354328,0.58825873010496
-0.344063457366418,0.58490030723691
-0.342112315675334,0.581516813650248
-0.340137792744539,0.578108474454223
-0.225949699636203,0.67416140734532
-0.336120945017677,0.571218159671086
-0.227441413709221,0.660317286923341
-0.332017597893553,0.564231163761496
-0.32993495071618,0.560701973157406
-0.327832435079887,0.557149287599453
-0.325710636448137,0.553573332196885
-0.323570140284396,0.549974332058954
-0.32141153205213,0.546352512294909
-0.319235397214802,0.542708098014
-0.317042321235878,0.539041314325477
-0.314832889578823,0.535352386338589
-0.312607687707101,0.531641539162586
-0.310367301084179,0.527908997906719
-0.308112315173519,0.524154987680237
-0.305843315438588,0.52037973359239
-0.303560887342851,0.516583460752427
-0.301265616349772,0.512766394269599
-0.298958087922817,0.508928759253156
-0.296638887525449,0.505070780812347
-0.17453000417632,0.613922000731787
-0.291967812673339,0.497294694094631
-0.289617109145525,0.493377036036223
-0.28725707550116,0.489439934990449
-0.192667647585478,0.598360998490031
-0.282511359716633,0.481508304373803
-0.280126848503401,0.477514225021429
-0.277735349027477,0.473501603118688
-0.179608249291434,0.56758208087345
-0.272933727141412,0.465421632099106
-0.2705247756582,0.461354733200763
-0.268111177766156,0.457270192189053
-0.265693518928744,0.453168234173226
-0.263272384609429,0.44904908426253
-0.260848360271677,0.444912967566216
-0.258422031378951,0.440760109193534
-0.255993983394718,0.436590734253734
-0.253564801782442,0.432405067856066
-0.251135072005587,0.428203335109778
-0.24870537952762,0.423985761124121
-0.246276309812004,0.419752571008346
-0.243848448322205,0.415503989871702
-0.241422380521688,0.411240242823438
-0.238998691873917,0.406961554972804
-0.236577967842357,0.402668151429052
-0.234160793890474,0.398360257301429
-0.231747755481733,0.394038097699186
-0.229339438079597,0.389701897731573
-0.226936427147533,0.385351882507841
-0.224539308149005,0.380988277137237
-0.222148666547478,0.376611306729013
-0.219765087806417,0.372221196392418
-0.217389157389287,0.367818171236703
-0.215021460759553,0.363402456371116
-0.21266258338068,0.358974276904908
-0.210313110716132,0.354533857947329
-0.207973628229375,0.350081424607629
-0.205644721383874,0.345617201995057
-0.203326975643093,0.341141415218862
-0.201020976470498,0.336654289388296
-0.198727309329553,0.332156049612608
-0.196446559683723,0.327646921001048
-0.194179312996474,0.323127128662865
-0.19192615473127,0.318596897707309
-0.189687670351576,0.314056453243631
-0.187464445320857,0.30950602038108
-0.185257065102577,0.304945824228905
-0.183066115160203,0.300376089896358
-0.180892180957199,0.295797042492687
-0.0610443360290982,0.381554515877185
-0.176597701623159,0.286611908908974
-0.174478327419054,0.282006272947432
-0.172378310808178,0.277392224351766
-0.170298237253997,0.272769988231226
-0.168238692219975,0.268139789695062
-0.166200261169578,0.263501853852523
-0.16418352956627,0.258856405812859
-0.162189082873516,0.254203670685321
-0.160217506554781,0.249543873579157
-0.15826938607353,0.244877239603619
-0.156345306893228,0.240203993867955
-0.15444585447734,0.235524361481416
-0.152571614289332,0.230838567553252
-0.150723171792666,0.226146837192711
-0.14890111245081,0.221449395509045
-0.147106021727227,0.216746467611503
-0.145338485085383,0.212038278609334
-0.143599087988742,0.207325053611789
-0.14188841590077,0.202607017728118
-0.140207054284931,0.19788439606757
-0.138555588604691,0.193157413739395
-0.136934604323513,0.188426295852843
-0.135344686904864,0.183691267517164
-0.0219770114299532,0.296057958309144
-0.13226039450901,0.174210379935424
-0.130767190458735,0.169464970907863
-0.129307395124848,0.164716551868174
-0.0196424555430949,0.253941344957609
-0.126490372460097,0.155211584189412
-0.125134316056163,0.150455485768838
-0.123814010222477,0.145697277773137
-0.122530040422503,0.140937185311556
-0.121282992119707,0.136175433493347
-0.120073450777553,0.13141224742776
-0.118902001859507,0.126647852224043
-0.230021106060983,0.0176915023230678
-0.116675723149596,0.117116334839222
-0.115622064284661,0.112349662876617
-0.114608839697693,0.107582682212882
-0.219468034274919,-0.00392413758516343
-0.112706035211519,0.098048695219024
-0.111817626239242,0.0932821391073995
-0.110971993398792,0.0885161747316451
-0.110169722153633,0.08375102720101
-0.109411397967231,0.0789869216247446
-0.206745374211465,-0.0174014374968468
-0.017167578323835,0.169179266618579
-0.107405962395215,0.0647031077146627
-0.106829281078489,0.0599454210483734
0.0038610180150562,0.146969489386254
-0.105817127036746,0.0504367753269003
-0.201514542163583,-0.0589811173813541
-0.104997154207048,0.0409386004819005
-0.104660699405378,0.0361940024112026
-0.104374046297114,0.0314526973873727
-0.104137780345721,0.0267149105196604
-0.103952487014663,0.0219808669173158
-0.103818751767407,0.0172507916895884
-0.103737160067416,0.0125249099457284
-0.103708297378155,0.00780344679498532
-0.103732749163091,0.00308662734660933
-0.103811100885686,-0.00162532329015014
-0.103943938009407,-0.00633218000604271
-0.220212123377698,-0.107867157682015
-0.222586372662146,-0.108298268951022
-0.197190765558564,-0.138436146828696
-0.203442648271281,-0.117010730132452
-0.105445895866167,-0.0297821759487628
-0.105917940129404,-0.0344537418452091
-0.2074730747963,-0.150217029765652
-0.107038365055483,-0.0437766394720055
-0.107687916645254,-0.0484275209838559
-0.108397808270801,-0.0530710574823411
-0.109168625395587,-0.0577070238582115
-0.110000953483077,-0.0623351950022171
-0.110895377996738,-0.0669553458051083
-0.00131851645239105,0.0326075428642735
-0.112872858156426,-0.0761706859505473
-0.227740497548454,-0.185071479301709
-0.115105749582372,-0.08535124342053
-0.116319438178853,-0.0899279158791005
-0.210019667760637,-0.206839255992736
-0.118944228456159,-0.0990529226971509
-0.120356501063913,-0.103600806838131
-0.229521566977004,-0.208865601681683
-0.123383728534947,-0.112666211037752
-0.124999854325157,-0.117183280877893
-0.126685102103116,-0.121689629065922
-0.128440057332288,-0.126185030492587
-0.130265305476139,-0.130669260048641
-0.132161431998133,-0.135142092624832
-0.134129022361736,-0.139603303111912
-0.234875630729184,-0.254794520789105
-0.138280936467627,-0.148489957381734
-0.140466431136845,-0.152914950945978
-0.14272573150153,-0.157327421984111
-0.145059423025149,-0.161727145386882
-0.147468091171166,-0.166113896045042
-0.149952321403046,-0.170487448849341
-0.152512699184253,-0.17484757869053
-0.155149809978254,-0.179194060459357
-0.049994756811622,-0.0697638052251845
-0.0502665002628199,-0.0809690400879311
-0.163527395071661,-0.192149366239178
-0.166477292551482,-0.196439004626064
-0.16950685036142,-0.200713869394341
-0.172616653964941,-0.204973735434758
-0.175807288825509,-0.209218377638065
-0.179079340406589,-0.213447570895013
-0.182433394171646,-0.217661090096352
-0.185870035584145,-0.221858710132832
-0.189389850107552,-0.226040205895202
-0.19299342320533,-0.230205352274214
-0.287339406511415,-0.348101697436341
-0.200454186977862,-0.238485696445162
-0.204312548579546,-0.242600444018599
-0.318548771637492,-0.338587534499868
-0.212288158531074,-0.250777964595148
-0.216406577807847,-0.25484028737976
-0.220612853903247,-0.258884685016265
-0.224907572280739,-0.262910932395412
-0.335204362254183,-0.3637718945772
-0.233764677735856,-0.270908075944635
-0.238328235740411,-0.274878521896211
-0.242982577880917,-0.278829917153429
-0.24772828962084,-0.282762036607041
-0.252565956423643,-0.286674655147797
-0.257496163752792,-0.290567547666446
-0.262519497071753,-0.294440489053738
-0.267636541843989,-0.298293254200425
-0.375467804461645,-0.409392879397632
-0.278154107602148,-0.30593735533498
-0.283555799515,-0.309728241104349
-0.289053544734989,-0.313498050196113
-0.294647928725577,-0.317246557501021
-0.300339536950232,-0.320973537909824
-0.306128954872416,-0.324678766313272
-0.312016767955596,-0.328362017602116
-0.318003561663236,-0.332023066667104
-0.3240899214588,-0.335661688398988
-0.225162981109072,-0.244601843463813
-0.336563681167565,-0.342870749426443
-0.342952252007695,-0.346440738503514
-0.457277939969444,-0.453151633192956
-0.356035702976774,-0.353510508238095
-0.362731754032653,-0.357009838677105
-0.369531469420711,-0.360485166018261
-0.274951733386201,-0.244357227976605
-0.383444235047227,-0.367362910970014
-0.294294231565082,-0.264640860706957
-0.39777868356404,-0.374141942219355
-0.405105502564971,-0.377493877432497
-0.41253949867887,-0.380820458892285
-0.420081257369204,-0.384121461489472
-0.427731364099437,-0.387396660114806
-0.435490404333034,-0.390645829659039
-0.443358963533459,-0.393868745012919
-0.451337627164179,-0.397065181067198
-0.459426980688657,-0.400234912712625
-0.46762760957036,-0.40337771483995
-0.47594009927275,-0.406493362339925
-0.484365035259295,-0.409581630103298
-0.492903002993457,-0.41264229302082
-0.501554587938704,-0.415675125983242
-0.510320375558498,-0.418679903881312
-0.519200951316306,-0.421656401605783
-0.528196900675592,-0.424604394047403
-0.537308809099821,-0.427523656096922
-0.546537262052458,-0.430413962645092
-0.555882844996969,-0.433275088582662
-0.565346143396817,-0.436106808800382
-0.574927742715468,-0.438908898189003
-0.584628228416387,-0.441681131639274
-0.493069398532617,-0.346803404393327
-0.604388200818888,-0.447135130287769
-0.6144488584474,-0.449816445267493
-0.624630744312039,-0.452467003871869
-0.634934443876271,-0.455086580991645
-0.64536054260356,-0.457674951517573
-0.655909625957372,-0.460231890340403
-0.66658227940117,-0.462757172350885
-0.677379088398422,-0.465250572439769
-0.68830063841259,-0.467711865497805
-0.69934751490714,-0.470140826415743
-0.710520303345537,-0.472537230084334
-0.721819589191246,-0.474900851394327
-0.733245957907732,-0.477231465236473
-0.74479999495846,-0.479528846501522
-0.756482285806894,-0.481792770080225
-0.7682934159165,-0.48402301086333
-0.780233970750742,-0.486219343741589
-0.792304535773086,-0.488381543605751
-0.804505696446997,-0.490509385346568
-0.816838038235939,-0.492602643854788
-0.829302146603376,-0.494661094021162
-0.841898607012776,-0.49668451073644
-0.744532756105441,-0.393323849592297
-0.867490925811318,-0.50062534337671
