-0.630662706636493,0.16655232882452
-0.619003937987,0.163050882062765
-0.607471192257857,0.159566234195438
-0.496741175672755,0.246316246762972
-0.584781157473451,0.152647051721903
-0.573622562374606,0.149212375404614
-0.562587378108942,0.145794214559588
-0.551674951654668,0.142392498331284
-0.540884629989991,0.139007155864163
-0.530215760093121,0.135638116302681
-0.519667688942263,0.132285308791299
-0.509239763515628,0.128948662474475
-0.498931330791422,0.125628106496668
-0.488741737747854,0.122323570002337
-0.478670331363131,0.11903498213594
-0.468716458615462,0.115762272041938
-0.458879466483054,0.112505368864788
-0.449158701944116,0.10926420174895
-0.439553511976855,0.106038699838882
-0.530640876346047,-0.00658563706432573
-0.321578728574409,0.199401758947845
-0.411424859287216,0.09645547678789
-0.51026447836949,-0.0198725160344884
-0.393238324952989,0.0901436884311605
-0.38431286895816,0.0870106897893521
-0.375498416382464,0.0838928603645263
-0.366794314204108,0.0807901293011422
-0.244002229018363,0.191100336885618
-0.349714548952253,0.0746296788365344
-0.446145822024205,-0.0445960557595075
-0.333068349028258,0.0685287715511997
-0.324906203509727,0.0655004694619071
-0.316850490257786,0.0624868406008094
-0.207043956682399,0.170378692854362
-0.301055748466502,0.0565033191410347
-0.293315413883575,0.0535332848312753
-0.278145552234191,0.0476363147743074
-0.27071471912415,0.0447092373160165
-0.263385747128154,0.0417963370971328
-0.150446911007562,0.139079443275421
-0.249030774391128,0.0360127849554229
-0.242003467606513,0.0331419913215145
-0.354922119479875,-0.0772128684273327
-0.341537858125232,-0.0917754471060773
-0.331354102726739,-0.0820854571652353
-0.2148802005189,0.0217970464028981
-0.208342608650747,0.0189950132997929
-0.201901000700511,0.016206519736225
-0.195554723646399,0.0134314948566533
-0.18930312446662,0.0106698678055368
-0.18314555013938,0.0079215677273342
-0.171109863955354,0.00246466506750687
-0.165230446054983,-0.000244079225200207
-0.159442440919984,-0.00293977996715766
-0.153745195528565,-0.00562250801390662
-0.148138056858935,-0.00829233422098814
-0.0301117646285338,0.104740717993689
-0.137191487597869,-0.0135935645383134
-0.131850750962849,-0.0162251103596394
-0.121431108574879,-0.0214504176053234
-0.116350896778343,-0.0240443207407636
-0.111356220551051,-0.0266258180253242
-0.106446426871211,-0.0291949803145462
-0.0968788750667175,-0.0342965833291389
-0.0922198108984802,-0.0368291657655918
-0.0831478409210643,-0.0418582467745162
-0.0787336290683016,-0.0443548870580699
0.0222959272695141,0.0540712919942579
-0.0701454865257065,-0.0493127214610659
-0.0659702497922901,-0.0517740572915903
-0.061873365388405,-0.0542237666821872
-0.0578541802922592,-0.0566619204883977
-0.0539120414820607,-0.0590885895657627
-0.0462562906323373,-0.0639077569561214
-0.0425413725492285,-0.0663003969801971
-0.0389008886648988,-0.0686818356975919
-0.035334185957556,-0.0710521439638468
-0.0318406114054085,-0.0734113926345031
-0.0217921264622158,-0.0804234896282905
-0.138477029055019,-0.178300206183747
-0.0123782861312655,-0.0873386010611692
-0.00937832405530632,-0.0896224165177853
-0.109608594470315,-0.187741329808695
-0.00358145882417235,-0.0941586400327489
-0.000783249625413596,-0.0964111898021786
0.101351652277991,-0.00552326007236831
0.0072183205651352,-0.103107441424753
0.105081681570371,0.00791365281344629
0.0122316830719815,-0.10752115299045
0.0146440181047248,-0.109713084485117
0.0169943263527378,-0.111895160928384
0.0192832608378123,-0.114067453175792
0.0215114745817404,-0.116230032082882
0.0236796206063141,-0.118382968505196
0.0257883519333255,-0.120526333298274
0.0278383215845667,-0.122660197317657
0.0298301825818296,-0.124784631418887
-0.0778376254526421,-0.236351101683467
0.0336421907015888,-0.129005493289052
0.0354636438676692,-0.131102062769069
0.0372296004669395,-0.133189485753097
0.137123075495311,-0.0253513526029456
0.0405976360522178,-0.13733717565535
0.145738707832898,-0.0287472790700931
0.0437515216317603,-0.141449129840141
0.0452497907238605,-0.14349188317734
0.0480922466216795,-0.147551296619054
0.0494377394709822,-0.14956809843465
0.0519805200793345,-0.153576246533026
0.0531791138819679,-0.155567734526889
0.0543300473792957,-0.157550926291255
0.0554339735931099,-0.159525892681667
0.0564915455452025,-0.161492704553666
0.0575034162573655,-0.163451432762792
0.058470238751391,-0.165402148164587
0.0593926660490709,-0.167344921614592
0.0602713511721975,-0.169279823968348
0.0611069471425626,-0.171206926081395
0.0619001069819583,-0.173126298809276
-0.0542490989408529,-0.296577667604259
0.0640314999322494,-0.178838749237329
0.0652522199771172,-0.182609701615116
0.0658044764883293,-0.184484185998359
0.0663188680211163,-0.186351436985223
0.0676413829668467,-0.19191049812295
0.0680108448038535,-0.193749524079708
0.0683457067713953,-0.195581670917792
0.0689142431852522,-0.199225610660105
0.0691492236751513,-0.201037545275415
-0.0277833349100471,-0.298717636104094
0.162295141465757,-0.0961902695658429
0.0697757980297,-0.208220035326975
0.175616693926817,-0.110607755584559
0.0699102189490341,-0.211773123284522
0.0699349984204883,-0.213540375990631
0.0699323612621899,-0.215301528989018
0.0699029604959309,-0.217056653135225
0.0697664802266995,-0.220549098293262
0.0695307817871305,-0.224018278309071
0.0692010893515599,-0.227464760026981
0.0687826270943243,-0.23088911029132
-0.0332111953047742,-0.335915258217957
-0.0286013635899331,-0.33760546822662
0.0679999181742092,-0.235985379184352
0.0677002898122027,-0.237673683836601
0.067382387125532,-0.239356880758703
0.0670468631359893,-0.2410350408062
0.0659410935680493,-0.246040008256474
0.0651277794079165,-0.249352767868552
0.0623798574939875,-0.259182632289501
0.0618838135697591,-0.260805876573946
0.0603435017667888,-0.265651198334019
0.0592796740908246,-0.268861778818429
0.0587386333760233,-0.270461391420567
0.0576415633017428,-0.27364961562241
0.0565288618465052,-0.276823644191286
0.0559682819055075,-0.278405512252214
0.0554057531846467,-0.279984043971524
0.0548419287057147,-0.281559310204757
-0.0615973439914283,-0.376307715216774
0.0537130045608054,-0.284700329635154
0.052586733645116,-0.287829137387735
0.0520262257027088,-0.289389139023697
0.0514683401329827,-0.290946300306828
0.0509137299577297,-0.29250069209267
0.0498169478778111,-0.295601450594649
0.0492760820167296,-0.297147959021869
0.0487411036372894,-0.298691981373963
0.0471780236067366,-0.303309840534905
0.0461773797274283,-0.306377281951494
0.0456914396954683,-0.3079078758192
0.0434316794842915,-0.31553241097349
0.156056649827849,-0.221590090169588
-0.0577773539740025,-0.427352278398825
0.0405636549231697,-0.327650289659628
0.040283560752882,-0.329159470172849
0.0397828282519205,-0.332174907728547
0.0395634959648308,-0.333681306482106
0.0391901644263938,-0.336691818218348
0.0390374712186305,-0.338196072912113
0.0389082970808935,-0.339699754630363
0.0388032950349747,-0.341202934228639
0.0386398516660481,-0.345710168859032
0.0386380682053227,-0.347212048532821
0.0386637219453757,-0.348713780364342
0.0387174659079991,-0.350215435209135
0.14893789748701,-0.239765135861269
0.0390537693492125,-0.354720646378559
0.0394303948223944,-0.357725034576123
0.039935053708867,-0.360730815359763
0.0405729701829665,-0.363738555573807
-0.0513709285220998,-0.483883541761587
0.0413493684190294,-0.366748822062585
-0.0695242112449279,-0.490788812037042
0.04333850687439,-0.372779201241655
0.0439305053618576,-0.374289260652395
0.0452327301376902,-0.377312833001828
0.1554040268905,-0.283877824847592
-0.0694949230923379,-0.47653511091781
0.0483283755031212,-0.383375775767663
0.0521137764491486,-0.38946356158498
0.0531727986585639,-0.390989921182662
-0.0537930607666249,-0.512216039363701
0.0591765926326932,-0.39865174080824
0.0605236591654739,-0.400190605049578
0.0619210186617541,-0.401731801392585
0.0664213851495134,-0.406370091587036
0.0680264467177128,-0.407921324892134
0.0696850663583719,-0.409475244576606
0.0731655919442381,-0.412591426505842
0.074988803933029,-0.414153830461687
0.0788043914112869,-0.417287618633538
0.080798072944338,-0.418859144560626
0.0849604767072444,-0.422011814374832
0.0871305049806838,-0.423593099973032
0.106708763452418,-0.436371554276394
0.109443095123793,-0.437985945087151
0.115110307947859,-0.441226895468175
0.130467019666007,-0.449403562443127
0.133747359839627,-0.451052198286285
0.144018130412724,-0.456025986111835
0.147587147360475,-0.45769344500418
0.158739620778975,-0.462725402510276
0.196358651311023,-0.478104082686738
0.200938026682722,-0.479840546026233
0.20559969308573,-0.481582813388912
0.210344303541839,-0.483330955630316
0.215172511072842,-0.485085043605985
0.22008496870053,-0.486845148171462
0.230165246333132,-0.490383690494002
0.245933864051977,-0.495738399789893
0.251365535717411,-0.497536091860576
0.262495995817761,-0.501151084593268
0.285843667706563,-0.508461488379105
0.291910801574239,-0.510306256466316
0.397763982918853,-0.405612097725156
0.304325899536704,-0.514016889198425
0.323660417375067,-0.519636642523929
0.330297700980268,-0.521524524848552
0.349286869843667,-0.551125283569659
0.415366914934571,-0.543282830232991
0.417722090012239,-0.544779206077859
0.425675346240058,-0.546769253242868
0.45229833975219,-0.538123581438478
0.460646843762961,-0.554882693764328
0.33778083841246,-0.644791518473634
0.502094006617505,-0.565064147412739
0.531507706274836,-0.611303444053648
0.645027215061897,-0.465998105838288
0.573886286827345,-0.573633121536138
0.587558504962984,-0.584087435907825
0.589481129355243,-0.573072888279651
0.567685039839107,-0.58378974694414
0.632826713200937,-0.581251316618303
0.657313322490376,-0.627561771253774
0.727941986039038,-0.612956150883143
0.751394180838198,-0.617551864760382
0.80049770185189,-0.644266581883911
0.852480324785392,-0.630644386512948
