-0.800260102681269,-0.247812292290742
0.559407331396521,-0.622674685590915
-0.764826148117552,-0.383722617437867
0.185171016996407,0.273117966740873
1.13516818211037,0.929958550919613
0.742485081461343,-0.432271559426052
-0.172935806956367,-0.929201941656053
