-0.605980373567712,0.209477500713481
-0.621835832831768,0.222059169899199
-0.596965185416377,0.186302648151228
-0.613553147669445,0.238635900790439
-0.605836682411842,0.203659244201478
-0.602873069439522,0.182462736094814
-0.623915119516101,0.189321094144336
-0.619171380075242,0.197998853297506
-0.612113136079962,0.185185298974021
-0.626494886741712,0.186532056405931
-0.615219065282392,0.176269130510191
-0.616763809718766,0.171890234627858
-0.604344758093642,0.178708038604053
-0.608844609992239,0.188109105339152
-0.615531732607826,0.137817689307359
-0.632679517836773,0.133025510699623
-0.615531860170866,0.14053561894924
-0.629177284918688,0.11525137372322
-0.632977233355829,0.127611597515545
-0.632691339797956,0.142108061786241
-0.583579375118191,0.143797829501202
-0.631899922685213,0.130935889399374
-0.633381484655688,0.127117550769258
-0.65985486233419,0.14875272727136
-0.623255083664153,0.130781082158368
-0.650197859393145,0.0987887219762465
-0.649793498279774,0.103928092148312
-0.655168596998276,0.0745471823224375
-0.668127741282066,0.102585157812011
-0.656309241560603,0.126420959004731
-0.645014707988705,0.0983185909162148
-0.646440827178912,0.0949328494921029
-0.670641641267895,0.0957861793023563
-0.650577175237928,0.0413395460069185
-0.654249571877202,0.0667333940711366
-0.696066800581178,0.0571649238264475
-0.647095276008483,0.0899838273548032
-0.654862345555507,0.0755872869124081
-0.642914559279679,0.0645211301659118
-0.663801435421584,0.0638339907211082
-0.622432453824288,0.0361695874628061
-0.655170893230186,0.0931107399579596
-0.671391480443957,0.020065597460356
-0.677559886604549,0.0331890055970212
-0.650715466984963,0.0758789478653564
-0.648683510368365,0.0304849690036421
-0.667045069949422,0.0495790571756285
-0.664304653308291,0.0417083049677404
-0.669676485658624,0.044271952196253
-0.66427832181853,0.0534527957737155
-0.672279595386387,0.0391316507747561
-0.673570431395133,0.0366233280497173
-0.674854065974004,0.0341558381959547
-0.676130457478163,0.0317288918740702
-0.709859868015498,0.0323280958600058
-0.681758873824091,0.059108871688334
-0.687076435320083,0.0351666349325332
-0.681747580727571,0.0282201688215446
-0.642417506432412,0.0278905753715046
-0.664147206014986,0.0236851348486018
-0.671585182190041,0.00265019932205017
-0.675271840991528,0.0473122028320527
-0.663656564145392,0.0176261041283592
-0.669254431094066,0.00679929032513943
-0.689680810669138,0.0076256043695078
-0.690867036979362,0.00566261195712729
-0.694479758678934,0.0146134392583938
-0.708392681291581,0.0406140927671823
-0.682781639100851,0.0378868118509724
-0.695533681195779,-0.00182442988931508
-0.699933187082712,-0.0272453536465077
-0.68857154469446,0.0182034246892683
-0.664408879701376,0.0127165512080718
-0.700073108820794,-0.00874147554192766
-0.701187775798354,-0.0103838450952789
-0.692400178517126,-0.0282007132949504
-0.702062425532794,-0.00434548986630796
-0.682605481626609,0.00910210708703773
-0.701804096690655,-0.0197473662817191
-0.685229897730835,-0.0128654996556252
-0.705305214359145,-0.0122129243162407
-0.69962484875223,-0.00951280602627025
-0.720308462036467,-0.0312336129110997
-0.709757247569429,-0.0362325988503104
-0.723926069891579,-0.0277586893776015
-0.712901439450953,-0.0262578125514233
-0.701860959113995,-0.0208066259602844
-0.750685932749793,-0.0275036625092876
-0.715917442661649,-0.029919971430101
-0.710687944802386,-0.0467704171352817
-0.717884469432398,-0.0322102918824488
-0.737330376902861,-0.0354557260054295
-0.760986479850066,-0.0457903230620718
-0.711783341338679,-0.0567320919462764
-0.737879231015531,-0.00634974191514926
-0.722646859949705,-0.037424055344497
-0.710100393846811,-0.0804821002258775
-0.712777794748678,-0.0233836071681441
-0.70266221513215,-0.0604216741251395
-0.739687553215572,-0.0496592037354835
-0.716818192419786,-0.0417778657954038
-0.728063154986281,-0.0427563902859299
-0.72592003662046,-0.020189231909121
-0.709239568927952,-0.0505256609359253
-0.730646535140772,-0.045062712006111
-0.708091852041773,-0.0368665449406363
-0.769060203822903,-0.0573037069801235
-0.733145237838556,-0.0471395527775919
-0.747497461539385,-0.0257133223599831
-0.752937997221201,-0.0647150682590624
-0.735558138669001,-0.0489947247641151
-0.736343177521606,-0.0495652059468223
-0.757379752473137,-0.0689915632915635
-0.737884113221473,-0.050636040129423
-0.738639926779058,-0.0511369718081124
-0.758986196207942,-0.0712784811102652
-0.740122037085341,-0.0520713110372582
-0.724853873879493,-0.0504108192248218
-0.731551689239902,-0.052150165130837
-0.757684303572144,-0.0665824545042755
-0.725947406905738,-0.106727240392185
-0.766703185247499,-0.0178441957605747
-0.756104461098104,-0.0609854395827486
-0.760432542498267,-0.0490338961968383
-0.759780364824067,-0.0653447103659029
-0.746296260438997,-0.0552189786533523
-0.746931424781061,-0.0554677528617784
-0.730185769760375,-0.0441617847926537
-0.748170737442125,-0.0559081933687213
-0.742854258192156,-0.0617222317144262
-0.767039789094192,-0.0668003145764957
-0.720017126848067,-0.0493777822885129
-0.710432403133032,-0.0690318686478743
-0.69121656200928,-0.0366178032669508
-0.758400160813637,-0.0802377317214186
-0.733473181346231,-0.0231044651719627
-0.752708333202586,-0.0569509530427213
-0.709124182463603,-0.0434595221916447
-0.758548483331052,-0.0787380122685576
-0.782812965879545,-0.0349642176297723
-0.754720673930657,-0.0570733374800197
-0.717462165265868,-0.0800888925938328
-0.751668542262937,-0.0464558680172635
-0.731015663894151,-0.0551402341074326
-0.756558489531094,-0.0569544152794687
-0.756990361543723,-0.0568891506126509
-0.757411117511684,-0.056810250977957
-0.772923931091232,-0.0929816326332917
-0.732246311875758,-0.0759971963665583
-0.758526769290596,-0.0211966732977674
-0.757291115519462,-0.0755306468793669
-0.759346699112124,-0.0562213551652689
-0.767601206447041,-0.0425303590400082
-0.751380964558348,-0.0573630574317372
-0.751170241577539,-0.0540291366672027
-0.791821796580661,-0.027485239646629
-0.754424744868158,-0.0423545093143858
-0.761293863787406,-0.0551251981842821
-0.758818569716561,-0.0525377450203097
-0.761303568451419,-0.0170092213704114
-0.788021059336501,-0.0408295823815526
-0.784975813226695,-0.0200883859387876
-0.743841510501908,-0.0525867080543706
-0.762822860284509,-0.0536631769796303
-0.749864798086688,-0.0225901820679547
-0.742968501510244,-0.0451338917948547
-0.763427734439663,-0.0528144977027864
-0.770635725247319,-0.0509371162849528
-0.759689282974926,-0.0866746901435701
-0.763924693318376,-0.0518977888612537
-0.766273122483531,-0.0651016487557849
-0.764195491041652,-0.0512527132895986
-0.794370755729174,-0.0417662493777865
-0.74597490989396,-0.0969255296529417
-0.781524769538845,-0.0356313639665309
-0.779056803015059,-0.0435057444996895
-0.775439825392272,-0.0546237042434077
-0.764713780125557,-0.0491800539906063
-0.775200544742323,-0.0737884488988197
-0.75840706514515,-0.0695117415914839
-0.771762025732227,-0.023112775652894
-0.764810887856168,-0.0477069011230851
-0.764803730753804,-0.0473298426838279
-0.764783916747757,-0.0469498548344155
-0.764084797013689,-0.0801686446651773
-0.785425167087327,-0.0663049566151632
-0.794566267513338,-0.00706441261743332
-0.746954509612141,-0.0904527977931869
-0.759721830846099,-0.058489065473975
-0.777775677129249,-0.0316627500348128
-0.78014921386734,-0.0595615282009202
-0.764164758786207,-0.0438392140012794
-0.764029158629293,-0.0434458817333758
-0.772398748575899,-0.0403984574824591
-0.744445133140825,-0.0489635336594233
-0.763543751466805,-0.0422668261901982
-0.7633556080326,-0.0418750858939764
-0.744749864552351,-0.078750257863636
-0.802882384068216,-0.0205662036019997
-0.744744715958837,-0.0144162255344482
-0.762470218533216,-0.040322231517219
-0.755279453588443,-0.0538550420070044
-0.79675767265938,-0.032676685884354
-0.742283508050364,-0.0536915786484237
-0.767990818970471,-0.0360074236087182
-0.764841412323711,-0.0457407215670539
-0.775645253332699,-0.0415426307092376
-0.76040303291833,-0.037703605836466
-0.760053261747783,-0.0373444180374852
-0.765378364220926,-0.0478766483109021
-0.752786575362426,-0.0526563198484516
-0.766445342571969,-0.0392090119643327
-0.753769138107909,-0.0401240565116914
-0.73714466066241,-0.0604932589752971
-0.744444058756784,-0.0194826886815419
-0.76663345243582,-0.0437052840694213
-0.756371882092782,-0.019338681141868
-0.740944753487985,-0.071151079622869
-0.769602944956844,-0.0387333555163261
-0.786116046766491,-0.0636225346708753
-0.757491288458072,-0.025592159712172
-0.754240767887138,-0.0331982968828091
-0.75470235340259,-0.0325086386949692
-0.769369058037451,-0.0531039484706309
-0.752560009480147,-0.032418868374124
-0.761816399274667,0.000628660098599097
-0.794231846523138,-0.0184196467394989
-0.730405086315379,-0.00235344061009305
-0.750117120111805,-0.031510100436844
-0.742703801384644,-0.047778633799052
-0.75788485182683,-0.0167920726071149
-0.747705040195715,-0.0219755171804953
-0.780381473100797,-0.039410180248785
-0.740435218389775,-0.0454215191225908
-0.746014776175274,-0.0304641413832906
-0.742068577266263,-0.00689835584390169
-0.724767313561806,-0.00826316865180736
-0.732591537016013,-0.0349354756741783
-0.747806465554767,-0.0097899811635644
-0.742188921002561,-0.029923053120539
-0.741378824568984,-0.0298543669169679
-0.752309189263654,-0.0550630839266504
-0.739713373144091,-0.0297588406739876
-0.738857934863098,-0.0297325793133743
-0.772333557256987,-0.0344234506210226
-0.754044954860147,-0.0181692814546221
-0.725066832984564,-0.0422870505242992
-0.735283792902593,-0.0297776301960498
-0.704027215132977,0.000195990977581537
-0.693267447192524,-0.0226061018033264
-0.732442012098382,-0.0299771210025822
-0.731463829851397,-0.0300767234900294
-0.73047011720689,-0.0301933609857745
-0.729460832520025,-0.0303273228292156
-0.709252929365197,-0.00937749709798301
-0.727395380439863,-0.0306483769167766
-0.693650218704205,-0.0315761935865038
-0.724558491474306,-0.0232841687599606
-0.72417937088097,-0.0312671241407837
-0.723075779398346,-0.0315111081977551
-0.722455822419759,-0.0195951518485961
-0.706014381975981,-0.0526147952407914
-0.719669657033759,-0.0323603160671464
-0.718502361457198,-0.0326834350544287
-0.717319035745057,-0.0330270611227834
-0.716119638252498,-0.0333914836116085
-0.720274195707534,-0.0546419206997677
-0.677619496271744,0.0265585209642769
-0.740820465572889,-0.0582785821955739
-0.724145822396068,-0.0794011688213673
-0.711854924633964,-0.0434649863235903
-0.708583413797421,-0.0360309463807156
-0.699921681988106,-0.0397881283383497
-0.717662122749317,-0.0201128668383725
-0.711119914623439,-0.0298227404405719
-0.703232553539499,-0.0382431662932563
-0.725217658684429,-0.0494335239878212
-0.716525779654196,-0.0318269451531591
-0.709873163101091,-0.0623470947450867
-0.697617215303358,-0.0408390526673468
-0.68420048771707,-0.0204441112468246
-0.696058133187743,-0.0266854948897628
-0.69944182242244,-0.0662886771433922
-0.688205022646574,-0.0311359415736954
-0.695874160525628,-0.0275954908215837
-0.719331737162951,-0.0460020242894013
-0.666505270458338,-0.020499406469691
-0.683720767660833,-0.0665696440845323
-0.684001901400304,-0.0481784935194855
-0.681707077743797,-0.0658391924483795
-0.669974198644497,-0.0477406462136952
-0.628539070604964,-0.0444711805818686
-0.723461289893798,-0.0587781485265314
-0.675842287567865,-0.0532133779649996
-0.673759185160615,-0.0650742444796428
-0.660537941107655,-0.0456792061509961
-0.682252778356929,-0.0363787895514655
-0.669003815717859,-0.0577649202191769
-0.667250686717254,-0.0589779439857266
-0.665480070011731,-0.0602216017122742
-0.663691923956451,-0.0614961827382174
-0.680514820230093,-0.0754796831321662
-0.666444016795908,-0.04417923590036
-0.658221893243693,-0.0655083590064004
-0.656363213341006,-0.0669095266239053
-0.60355456992054,-0.0629766889044536
-0.652592599168952,-0.0698092611874683
-0.669845602270716,-0.0978886087218456
-0.621981711014837,-0.0810585082507751
-0.636328577613416,-0.0619272105355902
-0.643459533348985,-0.0793060666322711
-0.63167360723624,-0.0893481396658563
-0.625449763299033,-0.092946736296981
-0.638831906008602,-0.0810114057465232
-0.607137109995145,-0.104783807786946
-0.634737892666509,-0.0845224448454069
-0.63266361331713,-0.0863311488197923
-0.61556134100333,-0.0587737426477972
-0.610122360997895,-0.0749651288614598
-0.580724916964927,-0.0970058413384256
-0.661361713641232,-0.0736709905299604
-0.622017823993376,-0.0959180865170699
-0.619833496099385,-0.0979461829973804
-0.61763068102436,-0.100011857583238
-0.650105671954094,-0.0783579098511707
-0.613169422751849,-0.104257098429184
-0.610910896264687,-0.106437243368069
-0.608633716017136,-0.108656123770093
-0.606337840364359,-0.110914028974652
-0.589789069793732,-0.113418682166793
-0.593283959131559,-0.10942301467279
-0.573766437829801,-0.137531036314589
-0.603847963086819,-0.0960588003308157
-0.569578254841843,-0.127252094218926
-0.592167650826992,-0.125297184061546
-0.619159049949239,-0.115999994571189
-0.590165207913084,-0.129006563337124
-0.608049308535309,-0.119780057412835
-0.605066922949021,-0.16365565414487
-0.625035912398997,-0.145893469073455
-0.555015537796142,-0.141996619646666
-0.545146737703388,-0.136397091876898
-0.571951259364331,-0.180615897194429
-0.57260308434572,-0.12746717277734
-0.567027272621083,-0.15258398634117
-0.572231082927111,-0.148365627102501
-0.54838147098687,-0.174241093002402
-0.536654478574898,-0.109492236970341
-0.569912764245873,-0.20499885268063
-0.535775815795768,-0.162308685379685
-0.546402224168504,-0.177788146129053
-0.548276985379955,-0.174282174794578
-0.545519926550265,-0.177563477079365
-0.517584054761456,-0.159805421237251
-0.567937465648259,-0.171074006087558
-0.53846926988626,-0.175408265639712
-0.534293909521297,-0.191154162487318
-0.541420006333388,-0.19144899927263
-0.528561648952953,-0.19823284170415
-0.525665559898382,-0.201844028128671
-0.527517109648895,-0.240730043646103
-0.541092332538881,-0.188749010402361
-0.499059529681567,-0.186346062817481
-0.513880506831213,-0.216774503853417
-0.510883861128009,-0.220630001988257
-0.499986907782853,-0.225438200739265
-0.520128047412488,-0.234251832768656
-0.501772339853594,-0.232496035911913
-0.47758874719296,-0.27209948538188
-0.471646102377313,-0.218689909745804
-0.503923221791676,-0.267892361035322
-0.489338393695877,-0.249027142025624
-0.486178691823271,-0.253288584545662
-0.49018930945732,-0.264157453720085
-0.48633414017365,-0.290313988325414
-0.50201906459389,-0.279779852036129
-0.473333773654991,-0.270857698774199
-0.494201081036288,-0.262572616987772
-0.490734606869472,-0.283080310772951
-0.497044518216091,-0.282003212880536
-0.462240244673624,-0.29440049004585
-0.486937296120729,-0.328452016534714
-0.423670083587999,-0.303240081405448
-0.423516608364717,-0.298254450097943
-0.445510647271104,-0.292577226944837
-0.455257877219814,-0.328623995762042
-0.416365189672292,-0.301318677535685
-0.436291511871096,-0.323617661461883
-0.425362779434565,-0.302404095893284
-0.420592217219667,-0.326632249964566
-0.425746332944129,-0.339174627683182
-0.398362572287966,-0.320243888915836
-0.439018898423031,-0.34166336619264
-0.404666756916008,-0.348976211179443
-0.400892542106315,-0.344441036399404
-0.409188624636491,-0.351223089108278
-0.440255396423056,-0.374685950998454
-0.400392805970849,-0.377491579499179
-0.396684764529188,-0.383200229284972
-0.402288948774896,-0.372751601979524
-0.393025938352204,-0.382270585565453
-0.431210514340732,-0.390267541226868
-0.376885722066054,-0.408015050069057
-0.381893242709483,-0.405988523206843
-0.377131874519207,-0.400905820322765
-0.374694797581354,-0.416922586957554
-0.371147896584077,-0.422266954568215
-0.345531058724564,-0.442808396017604
-0.34728370227627,-0.446842365612482
-0.360714437728856,-0.437813927770829
-0.365525801578801,-0.422411165228142
-0.303338530600589,-0.476465307025057
-0.333513329182965,-0.46736403475233
-0.340192944907686,-0.45394990050162
-0.344005942772826,-0.462127754824322
-0.316335838610057,-0.483460550606245
-0.347993492097912,-0.483167541236979
-0.334381719868834,-0.47577397466039
-0.352427752091367,-0.493158006223069
-0.328129765836101,-0.484485210815822
-0.325052536658079,-0.488726087630306
-0.310787420099664,-0.468163413877601
-0.338221482575045,-0.509614048392773
-0.316013798346848,-0.500994280450234
-0.305281842433522,-0.504344922655494
-0.317687823593237,-0.501738865206532
-0.302990335531586,-0.515285252316588
-0.329182570736113,-0.491132683133583
-0.31968807590429,-0.523313844888603
-0.289827732297349,-0.557970594654396
-0.289203465528371,-0.520953317165919
-0.262952737903073,-0.543536531349473
-0.290594304873169,-0.53379720517174
-0.27282703107481,-0.531291417189807
-0.259050287188149,-0.536116230087258
-0.312036001125051,-0.524890728778399
-0.288796863511064,-0.548970634917208
-0.302513555470098,-0.537677159050021
-0.292522471684546,-0.576783675019929
-0.275315693582352,-0.538078233489074
-0.27005866461844,-0.558087277179497
-0.298694702087802,-0.540204498907682
-0.276134595984529,-0.580402920355003
-0.26283880313137,-0.56605632952372
-0.284209288488253,-0.560376588831608
-0.227391151500981,-0.569917523274997
-0.255874159792025,-0.57341955987522
-0.243070181299541,-0.586177610702121
-0.251370583058376,-0.577996842812936
-0.220679726166443,-0.586891414583653
-0.20286078399348,-0.564249299194853
-0.236986604714918,-0.550207400341199
-0.264325719690366,-0.590933505462182
-0.24904453539515,-0.620068992375806
-0.228038219362909,-0.608984024089798
-0.236465590723206,-0.591976186135025
-0.250121681772678,-0.587762386016968
-0.245489417966124,-0.603774532628513
-0.196469809822477,-0.600874194551146
-0.230497234956209,-0.569823092843942
-0.247432603932724,-0.602347247177977
-0.22471839753121,-0.601504916807632
-0.222850055018119,-0.602879009315431
-0.221006836703643,-0.604192956698376
-0.223319458086671,-0.580790168883712
-0.21739509196036,-0.606641925232842
-0.221247539876035,-0.59781200155795
-0.227728180869752,-0.633189454829283
-0.212934402448754,-0.612050641316526
-0.232048106486342,-0.617037635713367
-0.20270008059003,-0.606713816667962
-0.201672761924721,-0.597436448418574
-0.238265556567893,-0.603014102816
-0.203919045422872,-0.614107451533353
-0.202340961575205,-0.614784703404648
-0.22476952341036,-0.625904443845228
-0.213945622483094,-0.643007608442436
-0.207269617443864,-0.607135566325058
-0.206363398820131,-0.624925941118046
-0.208096140451176,-0.601153731953072
-0.19335122570474,-0.617693448030477
-0.201430754825367,-0.5865741437428
-0.182380240185599,-0.598306193903659
-0.201304152043468,-0.592870842714219
-0.187801557547838,-0.618560501022378
-0.209961617678277,-0.639076374237351
-0.189896252697189,-0.594685864111169
-0.187036171024254,-0.619068410000368
-0.182593974072976,-0.618598036612553
-0.181344252604241,-0.618480638059456
-0.189573552719672,-0.610717743390179
-0.190757759335944,-0.63217356631677
-0.177717583917276,-0.617830201091171
-0.176548959002884,-0.617515232618024
-0.175400182783214,-0.617151814879324
-0.168269345956906,-0.60756750914938
-0.174853008730362,-0.588444084736603
-0.172071244517095,-0.615774638927746
-0.178219403339096,-0.631298827354692
-0.166040654503208,-0.643427978062681
-0.168914818111866,-0.613975001874412
-0.167900217784001,-0.613283003278791
-0.169252084102283,-0.607955875089667
-0.165926308773815,-0.611763090435487
-0.170742618117891,-0.61868449456265
-0.164024987440725,-0.610064471961327
-0.181267087056257,-0.58308538796196
-0.169084635968646,-0.579242125226154
-0.161306129228607,-0.60718807369345
-0.156890295415436,-0.644128426443997
-0.154904974826707,-0.575029962680928
-0.158742935300432,-0.603926565616421
-0.157922335225596,-0.602755576966813
-0.162542015748044,-0.586724814276516
-0.118537967330448,-0.606271992888629
-0.155559546219125,-0.598996435147172
-0.144371598019803,-0.591193390921654
-0.154065161121059,-0.596288966899568
-0.164304707211008,-0.605802780937713
-0.152633833757573,-0.593423921025005
-0.157723158105511,-0.600775209116407
-0.13799209158215,-0.56289695205421
-0.150602097857644,-0.588837496663832
-0.134626236044901,-0.600101721477758
-0.119602438124915,-0.577270947176353
-0.169357197557753,-0.577042416690836
-0.158206433515172,-0.603191916534698
-0.162193836674904,-0.602989051460417
-0.139695211162878,-0.528820095936673
-0.133251920970213,-0.543296806779837
-0.158939016175108,-0.582205289320318
-0.149122509185243,-0.583354137733038
-0.139182157093843,-0.557059847174977
-0.143778253626572,-0.603926735444501
-0.140490384831097,-0.572905254921658
-0.176880598437301,-0.550349936267781
-0.105109245143326,-0.589076432577028
-0.148753928803521,-0.58672457079593
-0.141920941761639,-0.558923859678548
-0.167101043357753,-0.594882426545215
-0.14716807652461,-0.566299665521938
-0.154576156461806,-0.545572605296418
-0.140265509352883,-0.550126228495682
-0.186505575852599,-0.548352413237527
-0.151671822130994,-0.574106448631992
-0.139145385615452,-0.543212080855793
-0.139196306851673,-0.491363032378222
-0.13845391739834,-0.538457868262272
-0.138124257039502,-0.536038459572785
-0.152897810312271,-0.517173829210276
-0.123552878386912,-0.5555483310734
-0.148533295938586,-0.505281535391798
-0.141194338039401,-0.504576582329602
-0.136629885640698,-0.523533483629439
-0.083307664801697,-0.51972035094669
-0.116319149580743,-0.530209900837193
-0.135850280726105,-0.515717734354922
-0.203790957479852,-0.481223327101284
-0.149638595553758,-0.514322466831855
-0.135152823396047,-0.507679862729892
-0.116887931616143,-0.468203602735786
-0.164073642328358,-0.45938303324546
-0.126810046650246,-0.543955766614962
-0.135075498116578,-0.501413362102796
-0.124107877265222,-0.526444171522367
-0.133985972314684,-0.49097849929295
-0.133819075527011,-0.488118241474491
-0.149428020747243,-0.474215517037207
-0.126473073187927,-0.494313152410685
-0.162681037266238,-0.476337861791501
-0.120044684268979,-0.44886106431547
-0.124310236512617,-0.462113256202763
-0.110769500618859,-0.51288360828507
-0.136212286656585,-0.504334598531332
-0.132736932733825,-0.464515204412808
-0.132630741160026,-0.461480362252604
-0.139092348342663,-0.464865008827831
-0.119660950974196,-0.43415422821905
-0.139637418316752,-0.454441665553482
-0.132263214449776,-0.449169648156886
-0.137425041726889,-0.454085401462815
-0.145087124528296,-0.468379502227999
-0.109067643972087,-0.456407349272298
-0.115834658257795,-0.474739722899027
-0.131919831812214,-0.433424024697494
-0.129978104541283,-0.434718331078907
-0.133267771377271,-0.437423480726321
-0.0859615009023694,-0.413593030076156
-0.131724672453861,-0.420571169549327
-0.132041777346477,-0.393974052992224
-0.140313813670436,-0.464683143514552
-0.153413642823246,-0.478376039146765
-0.131588422342791,-0.407516600543818
-0.14379633062157,-0.400879118295448
-0.162026933375913,-0.394922598359098
-0.157679006577185,-0.439431213831415
-0.113087482481346,-0.41644506967002
-0.144205314061191,-0.404666841227508
-0.11032361049645,-0.381223471251639
-0.173838298906936,-0.366917712994385
-0.131449084410994,-0.380898906121448
-0.131440832672114,-0.377531374227873
-0.134656209000739,-0.425144447846904
-0.120422388405815,-0.394335609892486
-0.113401797142244,-0.366050856229882
-0.131420819139852,-0.363987995502479
-0.0933845548827837,-0.357099919065654
-0.159013172090616,-0.342063437119719
-0.168353855662526,-0.377671620016147
-0.138097080404097,-0.349603878295064
-0.131412274110995,-0.346922253439564
-0.125088950265295,-0.309355691317416
-0.131409612796034,-0.340063167812042
-0.113504424996054,-0.354801153059744
-0.139817780647674,-0.334710618437377
-0.127046840608359,-0.325086702414154
-0.131398099548276,-0.326305387756021
-0.0943497523158994,-0.336557423298072
-0.13138652477476,-0.319412729900064
-0.131378687229185,-0.315964279515342
-0.138566922003593,-0.30458789609511
-0.131358060932678,-0.309065022261333
-0.14762150662868,-0.317656950437493
-0.109048079629605,-0.32478481849112
-0.153786220765418,-0.33038239832086
-0.115568088057205,-0.308394729017156
-0.131269671541395,-0.291820739636252
-0.117836325120636,-0.313279514665876
-0.104735606615639,-0.251543520618505
-0.106177509165817,-0.279298190053028
-0.131149852556101,-0.278054185208152
-0.114076623437762,-0.281563594766984
-0.156591835894994,-0.271877591183916
-0.168251024918654,-0.261516283431551
-0.117023674323036,-0.248162275873418
-0.11799311790798,-0.302144723150635
-0.107297909062596,-0.297558254831764
-0.130800190782484,-0.254101937604966
-0.0830039175139939,-0.282172469190081
-0.130660928236051,-0.24730569798895
-0.0981475130518559,-0.235834504793813
-0.130811445472416,-0.273275958768587
-0.13041412977127,-0.237162040221092
-0.130321075000794,-0.233795850549919
-0.130222342293302,-0.230437804480776
-0.121376286988025,-0.233875331942025
-0.130007162357092,-0.223747652291714
-0.140781065217835,-0.176470215012078
-0.129767228542279,-0.217094601940179
-0.175060989194307,-0.224031998877453
-0.129501179428505,-0.210481671712439
-0.114681455934043,-0.244995283063056
-0.132036466486288,-0.221140096731029
-0.141152907439755,-0.182767080886169
-0.128885289622634,-0.197388244773436
-0.138528725386358,-0.187791435472075
-0.131995721126474,-0.186259749181322
-0.128344694044533,-0.18769593839829
-0.155411806158058,-0.205920779840591
-0.127944278508484,-0.18130090002024
-0.154287871859822,-0.179990004617444
-0.124851992235982,-0.182894708785917
-0.12212592691249,-0.187544792545606
-0.127041276683211,-0.168684003645275
-0.105316283139278,-0.155647663332263
-0.126535967553268,-0.162468182220901
-0.143532129108769,-0.134993875411915
-0.138817007717871,-0.144061526672425
-0.12570691459196,-0.153268722468364
-0.101645240089421,-0.159845830038306
-0.103071034070423,-0.168064202974364
-0.12238303310637,-0.140384904706941
-0.124461663222728,-0.141250597251416
-0.124124243109736,-0.138292834957125
-0.145779430101217,-0.170585735954559
-0.129647552727806,-0.115120435491644
-0.123046602480398,-0.129537830270665
-0.10804954012954,-0.117480467311713
-0.136278275541776,-0.168912629210339
-0.138829398978469,-0.104230945189607
-0.121450841002095,-0.118154567816282
-0.0935352662752734,-0.12967909172376
-0.0875449354504756,-0.134951516213571
-0.136859415342841,-0.131177895569123
-0.129245386649942,-0.0982769243570963
-0.119185436433623,-0.104425640852434
-0.117871093192177,-0.123987266761024
-0.11819068809173,-0.0990993563010778
-0.117673650386067,-0.0964731416472889
-0.0875254832467246,-0.107143978550516
-0.119486831439879,-0.0525743115513196
-0.116041840999674,-0.0887467356028844
-0.0950891886307046,-0.0884863500504995
-0.12404032260342,-0.0552574267240151
-0.114285413480731,-0.0812566094353857
-0.113671450560863,-0.0788141680191899
-0.0870130944303155,-0.0932337601532204
-0.0982393335048468,-0.0972887941479098
-0.106013359435111,-0.066702134498087
-0.11106862541242,-0.0693257998401629
-0.127733568821784,-0.0726496971672923
-0.109676646271189,-0.0647557362430774
-0.122881795058163,-0.0651330927580946
-0.107792026763701,-0.0454122544199948
-0.100472898169329,-0.0613795505336315
-0.106704747752909,-0.0559789414651177
-0.115170639448631,-0.0977503367261424
-0.117390221079778,-0.0728454499105849
-0.0861738749958312,-0.0252386687866402
-0.10347318611781,-0.047706711817247
-0.0957049562605738,-0.0522122999243601
-0.0984174040777849,-0.0171648402940724
-0.114594700707199,-0.0269428848818764
-0.103426705702399,-0.0216257573692101
-0.0852173833396202,-0.0399390803827033
-0.0801740376452155,-0.0251036086533378
-0.097160379704143,-0.0345170472911475
-0.0912395212751941,-0.0529509852473471
-0.127804368427653,-0.047792176482786
-0.0759155228713697,-0.0169753925858562
-0.112730520364936,-0.0461517015537678
-0.0886724716266017,-0.0218505725185468
-0.0910456800722071,-0.0245984489451784
-0.0899606292985026,-0.0230759705134589
-0.0869355425753067,-0.0440726102448481
-0.0889446671414171,0.0117501753887008
-0.0865890434235502,-0.0187400031498789
-0.0931951964758505,-0.0367802387835848
-0.0711355879189528,0.00284848638607493
-0.0570712806644243,-0.0526348482986327
-0.0850044550868016,-0.0864506604418871
-0.080571411133138,-0.0123075877962066
-0.0286821666971205,0.0126043912532798
-0.0780209745330028,-0.0100213939113313
-0.0879547848050897,-0.0269518073035831
-0.0753865622686311,-0.00790359731677324
-0.0981422257660342,-0.00473333876757938
-0.0545654310772091,0.0167585430109641
-0.071274511394594,-0.00504924984549903
-0.0698603650657407,-0.00418526914369323
-0.0684242037555588,-0.00336565147917008
-0.0764454685696636,0.0077010656666928
-0.0843384280482,-0.0285324479604704
-0.0639819281615917,-0.00117674956713511
-0.0566737201525763,0.0127084709340345
-0.0697805480268409,-0.000492529371345197
-0.082804525060668,0.00469351134557486
-0.0756856334800142,0.0241429226111202
-0.0754044665065375,-0.0123048807604837
-0.031243778616165,0.0193191450206491
-0.0373697980516622,-0.0242625593182806
-0.0281759001122158,6.05862920854288e-05
-0.0419692583336615,-0.0182976490098356
-0.068183533340095,0.0265803087148562
-0.070468358458142,-0.0173658461842395
-0.0283905155096753,0.0058942092929918
-0.0423127204552894,0.00340699288311498
-0.0404762672981464,0.00341471418889935
-0.0490227249776572,0.0151093061838371
-0.0367279562749036,0.00327631697050662
-0.0511204394013552,-0.0180516463798226
-0.0395205567427542,0.0111173236659306
-0.0309144253044732,0.00267846228125555
-0.0289249504213323,0.00237359921192646
-0.0264757351201267,-0.00199130098677783
-0.0349260362229696,0.0414369630653369
-0.0275048046000602,0.0123291331809269
-0.0359295457384074,0.0327915221896725
0.00437317543194256,0.00147937825250212
-0.0164340608178703,-0.000590560024496582
-0.00393004647299817,0.0294846835896226
-0.0158775307025593,-0.00703720013824
-0.0098247892593638,-0.00281924803041408
-0.00756666396263238,-0.00367526792097634
0.0196084936086913,-0.00141975848254602
-0.00296684013805627,-0.00555925724968876
0.0151621796717604,0.0142262158425584
-0.00148238885945957,-0.026442742226251
0.00414438133976514,-0.00882077439848541
0.0309207758862992,-0.0278450045579611
0.0135950944919872,-0.00402739267765723
0.0115134699678136,-0.012613986192969
0.0486207444285261,0.00826866024471009
0.0165717242816821,-0.015443210447347
0.019145020539802,-0.0169490793493043
-0.01095713402655,-7.32176691521126e-05
-0.00125198297913339,-0.0356216221721176
0.0611499267256369,-0.0154866736433937
0.0419649320999692,-0.0342270607529181
0.032459999944055,-0.0254060830381298
0.0359077005867115,-0.0219436711105203
0.0379984674729664,-0.0292288347985105
0.0289155041764222,-0.0378999623917165
0.0587222057780039,-0.0422593584167752
0.0465380758126819,-0.0354437698888758
0.0177030980411638,-0.0414233751574143
0.0546666456288352,-0.0228239945753466
0.0553600568690938,-0.0422447287778073
0.0583642608757065,-0.0446437032519017
0.052044640187046,-0.0460389698494942
