-0.131307763369749,-0.0673482640396876
-0.134299772784946,-0.0761859896404267
-0.137107757403035,-0.0848651541679126
-0.13973457753401,-0.0933869991578059
-0.142183093487865,-0.101752766145767
-0.144456165574593,-0.109963696667457
-0.146556654104189,-0.118021032258536
-0.148487419386646,-0.125926014454664
-0.150251321731958,-0.133679884791503
-0.15185122145012,-0.141283884804712
-0.153289978851124,-0.148739256029953
-0.154570454244966,-0.156047240002886
-0.155695507941638,-0.163209078259172
-0.156668000251135,-0.17022601233447
-0.15749079148345,-0.177099283764443
-0.158166741948578,-0.183830134084749
-0.158698711956511,-0.190419804831051
-0.159089561817245,-0.196869537539008
-0.159342151840773,-0.203180573744281
-0.159459342337089,-0.20935415498253
-0.159443993616187,-0.215391522789417
-0.15929896598806,-0.221293918700601
-0.159027119762703,-0.227062584251744
-0.158631315250109,-0.232698760978506
-0.158114412760273,-0.238203690416547
-0.157479272603188,-0.243578614101528
-0.156728755088847,-0.24882477356911
-0.155865720527246,-0.253943410354953
-0.154893029228377,-0.258935765994718
-0.153813541502235,-0.263803082024065
-0.152630117658814,-0.268546599978655
-0.151345618008107,-0.273167561394149
-0.149962902860108,-0.277667207806207
-0.148484832524811,-0.282046780750489
-0.146914267312211,-0.286307521762657
-0.1452540675323,-0.29045067237837
-0.143507093495073,-0.29447747413329
-0.141676205510524,-0.298389168563077
-0.139764263888646,-0.302186997203392
-0.137774128939434,-0.305872201589894
-0.135708660972881,-0.309446023258246
-0.133570720298981,-0.312909703744106
-0.131363167227729,-0.316264484583137
-0.129088862069117,-0.319511607310998
-0.12675066513314,-0.32265231346335
-0.124351436729792,-0.325687844575853
-0.121894037169066,-0.328619442184169
-0.119381326760957,-0.331448347823958
-0.116816165815458,-0.334175803030879
-0.114201414642563,-0.336803049340595
-0.111539933552266,-0.339331328288765
-0.108834582854562,-0.341761881411051
-0.106088222859443,-0.344095950243112
-0.103303713876903,-0.346334776320609
-0.100483916216938,-0.348479601179203
-0.0976316901895397,-0.350531666354554
-0.0947498961047028,-0.352492213382323
-0.0918413942724212,-0.354362483798171
-0.0889090450026886,-0.356143719137758
-0.085955708605499,-0.357837160936745
-0.0829842453908462,-0.359444050730792
-0.0799975156687242,-0.360965630055559
-0.0769983797491267,-0.362403140446709
-0.0739896979420477,-0.3637578234399
-0.0709743305574811,-0.365030920570793
-0.0679551379054207,-0.36622367337505
-0.0649349802958604,-0.367337323388331
-0.061916718038794,-0.368373112146295
-0.0589032114442156,-0.369332281184605
-0.0558973208221188,-0.37021607203892
-0.0529019064824977,-0.371025726244902
-0.049919828735346,-0.371762485338209
-0.0469539478906577,-0.372427590854504
-0.0440071242584266,-0.373022284329447
-0.0410822181486467,-0.373547807298698
-0.0381820898713117,-0.374005401297918
-0.0353095997364157,-0.374396307862768
-0.0324676080539523,-0.374721768528907
-0.0296589751339156,-0.374983024831998
-0.0268865612862994,-0.375181318307699
-0.0241532268210975,-0.375317890491672
-0.0214618320483039,-0.375393982919578
-0.0188152372779125,-0.375410837127077
-0.016216302819917,-0.375369694649829
-0.0136678889843115,-0.375271797023495
-0.0111728560810897,-0.375118385783736
-0.00873406442024548,-0.374910702466212
-0.00635437431177283,-0.374649988606584
-0.00403664606566557,-0.374337485740513
-0.00178373999191757,-0.373974435403658
0.000401483599477288,-0.373562079131681
0.0025161643985251,-0.373101658460242
0.00455744209523205,-0.372594414925002
0.00652245637960418,-0.372041590061621
0.00840834694164769,-0.371444425405761
0.0102122534713686,-0.37080416249308
0.0119313156587732,-0.370122042859241
0.0135626731938675,-0.369399308039903
0.0151034657666576,-0.368637199570727
0.0165508330671497,-0.367836958987374
0.0179019147853499,-0.366999827825505
0.0191538506112642,-0.366127047620779
0.0203037802348989,-0.365219859908858
0.0213488433462601,-0.364279506225402
0.0222861796353538,-0.363307228106072
0.0231129287921863,-0.362304267086528
0.0238262305067635,-0.361271864702431
0.0244232244690918,-0.360211262489441
0.024901050369177,-0.359123701983219
0.0252568478970255,-0.358010424719425
0.0254877567426433,-0.356872672233721
0.0255909165960365,-0.355711686061767
0.0255634671472113,-0.354528707739222
0.0254025480861738,-0.353324978801749
0.0251052991029301,-0.352101740785007
0.0246688598874863,-0.350860235224657
0.0240903701298486,-0.349601703656359
0.0233669695200231,-0.348327387615775
0.0224957977480158,-0.347038528638564
0.021473994503833,-0.345736368260388
0.0202986994774807,-0.344422148016907
0.0189670523589652,-0.343097109443781
0.0174761928382924,-0.341762494076671
0.0158232606054685,-0.340419543451238
0.0140053953504996,-0.339069499103142
0.0120197367633919,-0.337713602568044
0.00986342453415154,-0.336353095381604
0.00753359835278453,-0.334989219079483
0.00502739790929712,-0.333623215197341
0.00234196289369528,-0.33225632527084
-0.00052556700401471,-0.330889790835639
-0.00357805209382681,-0.3295248534274
-0.00681835268573495,-0.328162754581782
-0.0102493290897329,-0.326804735834447
-0.0138738416158146,-0.325452038721054
-0.0176947505739738,-0.324105904777266
-0.0217149162742046,-0.322767575538741
-0.0259371990265007,-0.321438292541141
-0.0303644591408561,-0.320119297320127
-0.0349995569272645,-0.318811831411358
-0.03984535269572,-0.317517136350495
-0.0449047067562164,-0.3162364536732
-0.0501804794187474,-0.314971024915132
-0.0556755309933071,-0.313722091611953
-0.0613927217898893,-0.312490895299322
-0.0673349121184878,-0.3112786775129
-0.0735049622890966,-0.310086679788349
-0.0799057326117096,-0.308916143661327
-0.0865400833963205,-0.307768310667497
-0.0934108749529234,-0.306644422342519
-0.100520967591512,-0.305545720222053
-0.10787322162208,-0.304473445841759
-0.115470497354622,-0.303428840737299
-0.123315655099131,-0.302413146444333
-0.131411555165601,-0.301427604498521
-0.139761057864027,-0.300473456435524
-0.148367023504402,-0.299551943791003
-0.157232312396719,-0.298664308100619
-0.166359784850973,-0.297811790900031
-0.175752301177158,-0.2969956337249
-0.185412721685268,-0.296217078110888
-0.195343906685295,-0.295477365593654
-0.205548716487235,-0.294777737708859
-0.216030011401082,-0.294119435992164
-0.226790651736828,-0.293503701979229
-0.237833497804468,-0.292931777205715
-0.249161409913996,-0.292404903207283
-0.260777248375406,-0.291924321519592
-0.272683873498691,-0.291491273678304
-0.284884145593846,-0.29110700121908
-0.297380924970864,-0.290772745677579
-0.310177071939739,-0.290489748589462
-0.323275446810465,-0.29025925149039
-0.336678909893036,-0.290082495916024
-0.350390321497446,-0.289960723402024
-0.364412541933688,-0.28989517548405
-0.378748431511757,-0.289887093697764
-0.393400850541647,-0.289937719578825
-0.408372659333351,-0.290048294662895
-0.423666718196863,-0.290220060485634
-0.439285887442177,-0.290454258582702
-0.455233027379287,-0.29075213048976
-0.471510998318187,-0.291114917742469
-0.488122660568871,-0.291543861876489
-0.505070874441332,-0.292040204427481
-0.522358500245564,-0.292605186931106
-0.539988398291562,-0.293240050923023
-0.557963428889319,-0.293946037938895
-0.57628645234883,-0.29472438951438
-0.594960328980087,-0.29557634718514
-0.613987919093085,-0.296503152486835
-0.633372082997817,-0.297506046955126
-0.653115681004279,-0.298586272125673
-0.673221573422462,-0.299745069534138
-0.693692620562363,-0.30098368071618
-0.714531682733973,-0.30230334720746
-0.735741620247287,-0.303705310543639
-0.7573252934123,-0.305190812260378
-0.779285562539004,-0.306761093893336
-0.801625287937394,-0.308417396978175
