0.666884486548487,0.0622775687043524
0.664006312348088,0.0598776947963246
0.661095445070689,0.057512303180219
0.658152211760061,0.0551811436031159
0.655176939459972,0.0528839658120955
0.65216995521419,0.050620519554238
0.649131586066485,0.0483905545766237
0.646062159060626,0.0461938206263329
0.642962001240381,0.0440300674504457
0.639831439649519,0.0418990447960425
0.63667080133181,0.0398005024102035
0.633480413331022,0.0377341900400089
0.630260602690924,0.035699857432539
0.627011696455285,0.033697254334874
0.623734021667874,0.0317261304940942
0.620427905372459,0.0297862356572798
0.617093674612811,0.0278773195715111
0.613731656432697,0.0259991319838683
0.610342177875886,0.0241514226414317
0.606925565986148,0.0223339412912814
0.603482147807251,0.0205464376804979
0.600012250382964,0.0187886615561612
0.596516200757056,0.0170603626653517
0.592994325973296,0.0153612907551495
0.589446953075453,0.0136911955726351
0.585874409107296,0.0120498268648885
0.582277021112594,0.01043693437899
0.578655116135115,0.00885226786201996
0.575009021218629,0.00729557706105853
0.571339063406904,0.00576661172318598
0.567645569743709,0.00426512159548255
0.563928867272813,0.00279085642502848
0.560189283037986,0.00134356595890405
0.556427144082995,-7.70000558105097e-05
0.55264277745161,-0.00147109187203497
0.5488365101876,-0.00283895974268907
0.545008669334734,-0.00418085392069256
0.54115958193678,-0.00549702465896518
0.537289575037508,-0.00678772221042671
0.533398975680686,-0.0080531968279969
0.529488110910084,-0.00929369876459548
0.52555730776947,-0.0105094782731422
0.521606893302612,-0.0117007856065569
0.517637194553281,-0.0128678710177592
0.513648538565244,-0.0140109847596689
0.509641252382272,-0.0151303770852058
0.505615663048131,-0.0162262982472896
0.501572097606593,-0.0172989984988401
0.497510883101425,-0.0183487280927771
0.493432346576396,-0.0193757372820202
0.489336815075276,-0.0203802763194892
0.485224615641833,-0.0213625954581039
0.481096075319835,-0.0223229449507841
0.476951521153053,-0.0232615750504495
0.472791280185255,-0.0241787360100198
0.468615679460209,-0.0250746780824148
0.464425046021685,-0.0259496515205542
0.460219706913452,-0.0268039065773579
0.455999989179278,-0.0276376935057455
0.451766219862932,-0.0284512625586368
0.447518726008184,-0.0292448639889516
0.443257834658802,-0.0300187480496096
0.438983872858555,-0.0307731649935306
0.434697167651212,-0.0315083650736343
0.430398046080542,-0.0322245985428405
0.426086835190314,-0.0329221156540689
0.421763862024296,-0.0336011666602393
0.417429453626258,-0.0342620018142714
0.413083937039968,-0.0349048713690851
0.408727639309196,-0.0355300255775999
0.404360887477709,-0.0361377146927358
0.399984008589278,-0.0367281889674124
0.395597329687672,-0.0373016986545495
0.391201177816658,-0.0378584940070668
0.386795880020006,-0.0383988252778842
0.382381763341484,-0.0389229427199213
0.377959154824863,-0.0394310965860979
0.37352838151391,-0.0399235371293338
0.369089770452394,-0.0404005146025487
0.364643648684085,-0.0408622792586624
0.360190343252751,-0.0413090813505946
0.355730181202161,-0.0417411711312651
0.351263489576084,-0.0421587988535936
0.346790595418289,-0.0425622147704999
0.342311825772545,-0.0429516691349037
0.337827507682621,-0.0433274121997248
0.333337968192286,-0.043689694217883
0.328843534345307,-0.044038765442298
0.324344533185456,-0.0443748761258895
0.3198412917565,-0.0446982765215773
0.315334137102208,-0.0450092168822811
0.310823396266349,-0.0453079474609208
0.306309396292693,-0.045594718510416
0.301792464225007,-0.0458697802836866
0.297272927107061,-0.0461333830336522
0.292751111982624,-0.0463857770132326
0.288227345895464,-0.0466272124753476
0.283701955889352,-0.0468579396729169
0.279175269008054,-0.0470782088588603
0.274647612295341,-0.0472882702860976
0.270119312794981,-0.0474883742075484
0.265590697550743,-0.0476787708761326
0.261062093606397,-0.0478597105447698
0.25653382800571,-0.0480314434663799
0.252006227792452,-0.0481942198938825
0.247479620010392,-0.0483482900801976
0.242954331703299,-0.0484939042782447
0.238430689914941,-0.0486313127409437
0.233909021689088,-0.0487607657212143
0.229389654069508,-0.0488825134719763
0.22487291409997,-0.0489968062461493
0.220359128824243,-0.0491038942966533
0.215848625286097,-0.0492040278764078
0.211341730529299,-0.0492974572383328
0.206838771597619,-0.0493844326353478
0.202340075534826,-0.0494652043203727
0.197845969384689,-0.0495400225463273
0.193356780190976,-0.0496091375661313
0.188872834997457,-0.0496727996327044
0.1843944608479,-0.0497312589989663
0.179921984786074,-0.049784765917837
0.175455733855749,-0.049833570642236
0.170996035100692,-0.0498779234250832
0.166543215564673,-0.0499180745192983
0.162097602291462,-0.049954274177801
0.157659522324826,-0.0499867726535112
0.153229302708534,-0.0500158201993484
0.148807270486356,-0.0500416670682327
0.144393752702061,-0.0500645635130836
0.139989076399417,-0.0500847597868209
0.135593568622193,-0.0501025061423644
0.131207556414159,-0.0501180528326338
0.126831366819082,-0.0501316501105489
0.122465326880733,-0.0501435482290294
0.118109763642879,-0.0501539974409951
0.11376500414929,-0.0501632479993657
0.109431375443735,-0.0501715501570611
0.105109204569982,-0.0501791541670009
0.1007988185718,-0.0501863102821049
0.0965005444929594,-0.0501932687552928
0.0922147093772277,-0.0502002798394844
0.0879416402683742,-0.0502075937875995
0.0836816642101676,-0.0502154608525578
0.0794351082463769,-0.0502241312872791
0.0752022994207712,-0.0502338553446831
0.0709835647771192,-0.0502448832776895
0.0667792313591899,-0.0502574653392182
0.062589626210752,-0.0502718517821888
0.0584150763755746,-0.0502882928595212
0.0542559088974267,-0.0503070388241351
0.0501124508200769,-0.0503283399289502
0.0459850291872942,-0.0503524464268863
0.0418739710428476,-0.0503796085708631
0.037779603430506,-0.0504100766138004
0.0337022533940382,-0.050444100808618
0.0296422479772131,-0.0504819314082355
0.0255999142237997,-0.0505238186655729
0.0215755791775669,-0.0505700128335497
0.0175695698822834,-0.0506207641650857
0.0135822133817183,-0.0506763229131008
0.0096138367196405,-0.0507369393305147
0.00566476693981889,-0.0508028636702471
0.0017353310860222,-0.0508743461852177
-0.00217414379798056,-0.0509516371283463
-0.00606333066842031,-0.0510349867525528
-0.00993190248152843,-0.0511246453107568
-0.013779532193536,-0.051220863055878
-0.0176058927606739,-0.0513238902408363
-0.0214106571391734,-0.0514339771185514
-0.0251934982852655,-0.051551373941943
-0.0289540891551814,-0.0516763309639309
-0.0326921027051522,-0.0518090984374348
-0.0364072118914089,-0.0519499266153746
-0.0400990896701826,-0.0520990657506699
-0.0437674089977046,-0.0522567660962405
-0.0474118428302059,-0.0524232779050062
-0.0510320641239174,-0.0525988514298867
-0.0546277458350704,-0.0527837369238017
-0.058198560919896,-0.0529781846396711
-0.0617441823346252,-0.0531824448304145
-0.0652642830354892,-0.0533967677489518
-0.068758535978719,-0.0536214036482026
-0.0722266141205458,-0.0538566027810868
-0.0756681904172008,-0.054102615400524
-0.0790829378249148,-0.0543596917594341
-0.0824705292999191,-0.0546280821107368
-0.0858306377984448,-0.0549080367073518
-0.0891629362767229,-0.055199805802199
-0.0924670976909846,-0.0555036396481979
-0.0957427949974609,-0.0558197884982685
-0.098989701152383,-0.0561485026053304
-0.102207489111982,-0.0564900322223034
-0.105395831832489,-0.0568446276021073
-0.108554402270135,-0.0572125389976618
-0.111682873381151,-0.0575940166618867
-0.114780918121769,-0.0579893108477017
-0.117848209448218,-0.0583986718080265
-0.120884420316732,-0.058822349795781
-0.123889223683539,-0.0592605950638849
-0.126862292504873,-0.0597136578652578
-0.129803299736963,-0.0601817884528197
-0.132711918336041,-0.0606652370794903
-0.135587821258338,-0.0611642539981892
-0.138430681460086,-0.0616790894618362
-0.141240171897514,-0.0622099937233512
-0.144015965526854,-0.0627572170356537
-0.146757735304338,-0.0633210096516637
-0.149465154186197,-0.0639016218243009
-0.152137895128661,-0.0644993038064849
-0.154775631087961,-0.0651143058511357
-0.15737803502033,-0.0657468782111728
-0.159944779881997,-0.0663972711395161
-0.162475538629194,-0.0670657348890853
-0.164969984218153,-0.0677525197128002
-0.167427789605103,-0.0684578758635805
-0.169848627746277,-0.069182053594346
-0.172232171597905,-0.0699253031580164
-0.174578094116218,-0.0706878748075116
-0.176886068257449,-0.0714700187957511
-0.179155766977826,-0.0722719853756549
-0.181386863233583,-0.0730940248001425
-0.183579029980949,-0.073936387322134
-0.185731940176157,-0.0747993231945488
-0.187845266775436,-0.0756830826703068
-0.189918682735019,-0.0765879160023278
-0.191951861011136,-0.0775140734435315
-0.193944474560018,-0.0784618052468377
-0.195896196337897,-0.0794313616651661
-0.197806699301003,-0.0804229929514364
-0.199675656405568,-0.0814369493585685
-0.201502740607823,-0.082473481139482
-0.203287624863999,-0.0835328385470968
-0.205029982130326,-0.0846152718343326
-0.206729485363037,-0.0857210312541091
-0.208385807518362,-0.086850367059346
-0.209998621552532,-0.0880035295029633
-0.211567600421779,-0.0891807688378804
-0.213092417082333,-0.0903823353170174
-0.214572744490425,-0.0916084791932938
-0.216008255602287,-0.0928594507196295
-0.21739862337415,-0.0941355001489442
-0.218743520762245,-0.0954368777341577
-0.220042620722803,-0.0967638337281896
-0.221295596212055,-0.0981166183839599
-0.222502120186232,-0.0994954819543881
-0.223661865601565,-0.100900674692394
-0.224774505414286,-0.102332446850898
-0.225839712580625,-0.103791048682818
-0.226857160056814,-0.105276730441076
-0.227826520799084,-0.106789742378591
-0.228747467763665,-0.108330334748282
-0.229619673906789,-0.10989875780307
-0.230442812184687,-0.111495261795873
-0.23121655555359,-0.113120096979612
-0.23194057696973,-0.114773513607207
-0.232614549389336,-0.116455761931577
-0.233238145768641,-0.118167092205642
-0.233811039063876,-0.119907754682322
-0.234332902231271,-0.121677999614537
-0.234803408227057,-0.123478077255206
-0.235222230007467,-0.125308237857249
-0.23558904052873,-0.127168731673586
-0.235903512747079,-0.129059808957136
-0.236165319618743,-0.130981719960819
-0.236374134099955,-0.132934714937556
-0.236529629146944,-0.134919044140266
-0.236631477715944,-0.136934957821868
-0.236679352763183,-0.138982706235282
-0.236672927244895,-0.141062539633429
-0.236611874117309,-0.143174708269227
-0.236495866336657,-0.145319462395597
-0.236324576859169,-0.147497052265458
-0.236097678641078,-0.149707728131731
-0.235814844638614,-0.151951740247334
-0.235475747808008,-0.154229338865188
-0.235080061105491,-0.156540774238212
-0.234627457487294,-0.158886296619327
-0.234117609909649,-0.161266156261451
-0.233550191328787,-0.163680603417505
-0.232924874700938,-0.166129888340408
-0.232241332982334,-0.16861426128308
-0.231499239129206,-0.171133972498441
-0.230698266097785,-0.173689272239411
-0.229838086844302,-0.176280410758909
-0.228918374324988,-0.178907638309856
-0.227938801496075,-0.18157120514517
-0.226899041313793,-0.184271361517772
-0.225798766734373,-0.187008357680581
-0.224637650714047,-0.189782443886518
-0.223415366209046,-0.192593870388501
-0.2221315861756,-0.195442887439451
-0.220785983569941,-0.198329745292287
-0.219378231348301,-0.20125469419993
-0.217908002466909,-0.204217984415298
-0.216374969881998,-0.207219866191312
-0.214778806549797,-0.210260589780892
-0.21311918542654,-0.213340405436957
-0.211395779468455,-0.216459563412426
-0.209608261631776,-0.219618313960221
-0.207756304872732,-0.22281690733326
-0.205839582147554,-0.226055593784462
-0.203857766412475,-0.229334623566749
-0.201810530623724,-0.23265424693304
-0.199697547737534,-0.236014714136254
-0.197518490710135,-0.239416275429311
-0.195273032497758,-0.242859181065131
-0.192960846056635,-0.246343681296634
-0.190581604342996,-0.249870026376739
-0.188134980313073,-0.253438466558367
-0.185620646923096,-0.257049252094436
-0.183038277129297,-0.260702633237868
-0.180387543887907,-0.26439886024158
-0.177668120155157,-0.268138183358494
-0.174879678887278,-0.271920852841529
-0.172021893040501,-0.275747118943605
-0.169094435571058,-0.279617231917641
-0.166096979435179,-0.283531442016557
-0.163029197589095,-0.287489999493273
-0.159890762989038,-0.291493154600709
-0.156681348591239,-0.295541157591785
-0.153400627351928,-0.299634258719419
-0.150048272227338,-0.303772708236533
-0.146623956173698,-0.307956756396046
-0.143127352147241,-0.312186653450877
-0.139558133104196,-0.316462649653946
-0.135915972000796,-0.320784995258173
-0.132200541793272,-0.325153940516478
-0.128411515437853,-0.329569735681781
-0.124548565890773,-0.334032631007001
-0.120611366108261,-0.338542876745058
-0.116599589046549,-0.343100723148871
-0.112512907661868,-0.347706420471361
-0.108350994910448,-0.352360218965448
-0.104113523748522,-0.35706236888405
-0.0998001671323205,-0.361813120480088
-0.0954105980180737,-0.366612724006482
-0.0909444893620136,-0.371461429716151
-0.0864015141203707,-0.376359487862015
-0.0817813452493766,-0.381307148696994
-0.0770836557052621,-0.386304662474008
-0.0723081184442585,-0.391352279445976
-0.0674544064225966,-0.396450249865817
-0.062522192596508,-0.401598823986453
-0.0575111499222232,-0.406798252060802
-0.0524209513559738,-0.412048784341785
-0.0472512698539904,-0.41735067108232
-0.0420017783725047,-0.422704162535329
-0.0366721498677473,-0.42810950895373
-0.0312620572959497,-0.433566960590443
-0.0257711736133426,-0.439076767698388
-0.0201991717761575,-0.444639180530486
-0.014545724740625,-0.450254449339655
-0.00881050546297685,-0.455922824378815
-0.00299318689944347,-0.461644555900886
0.0029065579937434,-0.467419894158788
0.00888905626035329,-0.473249089405441
0.0149546349441545,-0.479132391893764
0.0211036210889164,-0.485070051876677
0.0273363417384076,-0.4910623196071
0.0336531239363972,-0.497109445337953
0.0400542947266539,-0.503211679322154
0.0465401811529469,-0.509369271812626
0.0531111102590446,-0.515582473062285
0.0597674090887165,-0.521851533324054
0.0665094046857309,-0.528176702850851
0.0733374240938573,-0.534558231895596
0.080251794356864,-0.540996370711209
0.0872528425185205,-0.54749136955061
0.0943408956225952,-0.554043478666718
0.101516280712857,-0.560652948312453
0.108779324833075,-0.567320028740735
0.116130355027019,-0.574044970204484
0.123569698338456,-0.580828022956619
0.131097681811157,-0.58766943725006
0.138714632488889,-0.594569463337727
0.146420877415421,-0.60152835147254
0.154216743634524,-0.608546351907418
0.162102558189965,-0.615623714895282
0.170078648125513,-0.62276069068905
0.178145340484937,-0.629957529541643
0.186302962312007,-0.63721448170598
0.194551840650491,-0.644531797434982
0.202892302544158,-0.651909726981567
0.211324675036777,-0.659348520598657
0.219849285172116,-0.666848428539169
0.228466459993946,-0.674409701056025
0.237176526546033,-0.682032588402144
0.245979811872149,-0.689717340830445
0.25487664301606,-0.697464208593849
0.263867347021537,-0.705273441945275
0.272952250932348,-0.713145291137643
0.282131681792263,-0.721080006423873
0.291405966645049,-0.729077838056884
0.300775432534477,-0.737139036289597
0.310240406504313,-0.74526385137493
0.319801215598329,-0.753452533565804
0.329458186860292,-0.761705333115139
0.339211647333972,-0.770022500275854
0.349061924063137,-0.778404285300868
0.359009344091557,-0.786850938443103
