-0.169917622179024,0.266604564204182
0.480038265683339,0.602559071636383
0.875300191563355,-0.0685380016847799
0.732264688367588,0.281554475341563
0.589229185171821,0.631646952367906
0.93570793085428,0.18025909645935
0.116149940494679,-0.271812967999693
