-0.598324318908475,0.797108754378924
-0.60053800959124,0.785338471027848
-0.602696161009592,0.773640221316375
-0.604799028845701,0.762013900502181
-0.606846868781736,0.750459403842945
-0.608839936499866,0.738976626596344
-0.61077848768226,0.727565464020055
-0.612662778011087,0.716225811371756
-0.614493063168515,0.704957563909125
-0.616269598836715,0.693760616889839
-0.617992640697854,0.682634865571575
-0.619662444434102,0.671580205212012
-0.621279265727627,0.660596531068827
-0.6228433602606,0.649683738399697
-0.624354983715188,0.6388417224623
-0.625814391773561,0.628070378514313
-0.627221840117887,0.617369601813415
-0.628577584430337,0.606739287617283
-0.629881880393078,0.596179331183593
-0.631134983688279,0.585689627770024
-0.63233714999811,0.575270072634254
-0.63348863500474,0.564920561033959
-0.634589694390337,0.554640988226818
-0.635640583837071,0.544431249470508
-0.636641559027111,0.534291240022706
-0.637592875642625,0.524220855141091
-0.638494789365783,0.514219990083339
-0.639347555878753,0.504288540107129
-0.640151430863704,0.494426400470137
-0.640906670002806,0.484633466430042
-0.641613528978228,0.47490963324452
-0.642272263472138,0.46525479617125
-0.642883129166705,0.455668850467909
-0.643446381744099,0.446151691392175
-0.643962276886488,0.436703214201724
-0.644431070276042,0.427323314154236
-0.644853017594929,0.418011886507386
-0.645228374525318,0.408768826518854
-0.645557396749379,0.399594029446316
-0.64584033994928,0.39048739054745
-0.64607745980719,0.381448805079933
-0.646269012005278,0.372478168301444
-0.646415252225714,0.363575375469659
-0.646516436150666,0.354740321842256
-0.646572819462303,0.345972902676913
-0.646584657842795,0.337273013231308
-0.646552206974309,0.328640548763117
-0.646475722539016,0.320075404530018
-0.646355460219084,0.31157747578969
-0.646191675696682,0.30314665779981
-0.645984624653979,0.294782845818054
-0.645734562773144,0.286485935102101
-0.645441745736347,0.278255820909628
-0.645106429225755,0.270092398498313
-0.644728868923539,0.261995563125833
-0.644309320511866,0.253965210049867
-0.643848039672907,0.24600123452809
-0.64334528208883,0.238103531818182
-0.642801303441803,0.23027199717782
-0.642216359413997,0.22250652586468
-0.641590705687579,0.214807013136442
-0.64092459794472,0.207173354250781
-0.640218291867587,0.199605444465376
-0.63947204313835,0.192103179037905
-0.638686107439179,0.184666453226045
-0.637860740452241,0.177295162287473
-0.636996197859705,0.169989201479867
-0.636092735343742,0.162748466060905
-0.63515060858652,0.155572851288264
-0.634170073270207,0.148462252419622
-0.633151385076973,0.141416564712656
-0.632094799688987,0.134435683425044
-0.631000572788418,0.127519503814464
-0.629868960057434,0.120667921138592
-0.628700217178205,0.113880830655107
-0.6274945998329,0.107158127621686
-0.626252363703687,0.100499707296007
-0.624973764472737,0.0939054649357468
-0.623659057822216,0.0873752957985836
-0.622308499434296,0.0809090951421945
-0.620922344991144,0.0745067582242577
-0.61950085017493,0.0681681803024502
-0.618044270667822,0.0618932566344496
-0.616552862151989,0.0556818824779338
-0.615026880309602,0.0495339530905801
-0.613466580822828,0.043449363730066
-0.611872219373836,0.0374280096540693
-0.610244051644796,0.0314697861202672
-0.608582333317876,0.0255745883863377
-0.606887320075246,0.0197423117099581
-0.605159267599074,0.0139728513488061
-0.60339843157153,0.0082661025605589
-0.601605067674782,0.00262196060289455
-0.599779431591,-0.00295967926650961
-0.597921779002352,-0.0084789217899761
-0.596032365591007,-0.0139358717098274
-0.594111447039135,-0.0193306337683855
-0.592159279028904,-0.0246633127079735
-0.590176117242483,-0.0299340132709133
-0.588162217362042,-0.0351428401995278
-0.586117835069748,-0.0402898982361389
-0.584043226047773,-0.0453752921230694
-0.581938645978283,-0.0503991266026418
-0.579804350543448,-0.0553615064171784
-0.577640595425438,-0.0602625363090016
-0.575447636306421,-0.0651023210204339
-0.573225728868566,-0.0698809652937978
-0.570975128794043,-0.0745985738714156
-0.568696091765019,-0.0792552514956098
-0.566388873463665,-0.0838511029087028
-0.564053729572149,-0.0883862328530172
-0.561690915772639,-0.0928607460708754
-0.559300687747306,-0.0972747473045996
-0.556883301178319,-0.101628341296513
-0.554439011747844,-0.105921632788936
-0.551968075138053,-0.110154726524194
-0.549470747031114,-0.114327727244607
-0.546947283109196,-0.118440739692499
-0.544397939054468,-0.122493868610192
-0.541822970549099,-0.126487218740008
-0.539222633275258,-0.130420894824269
-0.536597182915114,-0.134295001605299
-0.533946875150836,-0.138109643825419
-0.531271965664593,-0.141864926226952
-0.528572710138553,-0.145560953552221
-0.525849364254887,-0.149197830543548
-0.523102183695762,-0.152775661943254
-0.520331424143348,-0.156294552493664
-0.517537341279814,-0.159754606937099
-0.514720190787328,-0.163155930015882
-0.511880228348061,-0.166498626472334
-0.50901770964418,-0.16978280104878
-0.506132890357855,-0.17300855848754
-0.503226026171255,-0.176176003530937
-0.500297372766548,-0.179285240921295
-0.497347185825904,-0.182336375400935
-0.494375721031492,-0.185329511712179
-0.49138323406548,-0.188264754597351
-0.488369980610038,-0.191142208798772
-0.485336216347335,-0.193961979058766
-0.482282196959539,-0.196724170119653
-0.47920817812882,-0.199428886723758
-0.476114415537346,-0.202076233613402
-0.473001164867287,-0.204666315530908
-0.469868681800812,-0.207199237218599
-0.466717222020089,-0.209675103418796
-0.463547041207287,-0.212094018873822
-0.460358395044576,-0.214456088325999
-0.457151539214125,-0.216761416517651
-0.453926729398102,-0.219010108191099
-0.450684221278676,-0.221202268088666
-0.447424270538017,-0.223338000952675
-0.444147132858293,-0.225417411525447
-0.440853063921674,-0.227440604549305
-0.437542319410328,-0.229407684766572
-0.434215155006424,-0.23131875691957
-0.430871826392132,-0.233173925750622
-0.42751258924962,-0.23497329600205
-0.424137699261057,-0.236716972416176
-0.420747412108612,-0.238405059735323
-0.417341983474455,-0.240037662701813
-0.413921669040754,-0.241614886057969
-0.410486724489679,-0.243136834546113
-0.407037405503397,-0.244603612908568
-0.403573967764079,-0.246015325887656
-0.400096666953893,-0.247372078225699
-0.396605758755008,-0.24867397466502
-0.393101498849593,-0.249921119947942
-0.389584142919818,-0.251113618816786
-0.38605394664785,-0.252251576013876
-0.38251116571586,-0.253335096281534
-0.378956055806015,-0.254364284362081
-0.375388872600486,-0.255339244997841
-0.371809871781441,-0.256260082931137
-0.368219309031049,-0.257126902904289
-0.364617440031478,-0.257939809659622
-0.361004520464899,-0.258698907939457
-0.35738080601348,-0.259404302486116
-0.35374655235939,-0.260056098041923
-0.350102015184798,-0.2606543993492
-0.346447450171872,-0.261199311150268
-0.342783113002783,-0.261690938187452
-0.339109259359698,-0.262129385203072
-0.335426144924788,-0.262514756939451
-0.33173402538022,-0.262847158138913
-0.328033156408164,-0.263126693543779
-0.324323793690789,-0.263353467896371
-0.320606192910264,-0.263527585939013
-0.316880609748757,-0.263649152414026
-0.313147299888439,-0.263718272063733
-0.309406519011477,-0.263735049630457
-0.30565852280004,-0.26369958985652
-0.301903566936299,-0.263611997484244
-0.298141907102421,-0.263472377255952
-0.294373798980576,-0.263280833913967
-0.290599498252933,-0.26303747220061
-0.28681926060166,-0.262742396858204
-0.283033341708927,-0.262395712629071
-0.279241997256903,-0.261997524255535
-0.275445482927756,-0.261547936479917
-0.271644054403655,-0.26104705404454
-0.267837967366771,-0.260494981691727
-0.264027477499271,-0.259891824163799
-0.260212840483324,-0.25923768620308
-0.2563943120011,-0.258532672551891
-0.252572147734768,-0.257776887952555
-0.248746603366496,-0.256970437147395
-0.244917934578453,-0.256113424878732
-0.241086397052809,-0.255205955888891
-0.237252246471732,-0.254248134920192
-0.233415738517392,-0.253240066714958
-0.229577128871957,-0.252181856015512
-0.225736673217597,-0.251073607564176
-0.22189462723648,-0.249915426103273
-0.218051246610775,-0.248707416375125
-0.214206787022652,-0.247449683122055
-0.210361504154279,-0.246142331086384
-0.206515653687825,-0.244785465010436
-0.20266949130546,-0.243379189636532
-0.198823272689352,-0.241923609706996
-0.19497725352167,-0.24041882996415
-0.191131689484583,-0.238864955150316
-0.187286836260261,-0.237262090007816
-0.183442949530872,-0.235610339278973
-0.179600284978585,-0.23390980770611
-0.175759098285569,-0.232160600031549
-0.171919645133993,-0.230362820997612
-0.168082181206026,-0.228516575346622
-0.164246962183838,-0.226621967820901
-0.160414243749597,-0.224679103162771
-0.156584281585472,-0.222688086114556
-0.152757331373631,-0.220649021418578
-0.148933648796245,-0.218562013817158
-0.145113489535482,-0.21642716805262
-0.141297109273511,-0.214244588867286
-0.137484763692501,-0.212014381003478
-0.133676708474621,-0.209736649203518
-0.12987319930204,-0.20741149820973
-0.126074491856927,-0.205039032764436
-0.122280841821451,-0.202619357609957
-0.118492504877781,-0.200152577488617
-0.114709736708085,-0.197638797142739
-0.110932792994534,-0.195078121314643
-0.107161929419295,-0.192470654746653
-0.103397401664538,-0.189816502181092
-0.0996394654124325,-0.187115768360281
-0.0958883763451466,-0.184368558026543
-0.0921443901448492,-0.181574975922201
-0.0884077624937098,-0.178735126789577
-0.084678749073897,-0.175849115370994
-0.0809576055675801,-0.172917046408773
-0.0772445876569277,-0.169939024645238
-0.0735399510241093,-0.166915154822711
-0.0698439513512934,-0.163845541683513
-0.0661568443206494,-0.160730289969969
-0.0624788856143458,-0.157569504424399
-0.0588103309145521,-0.154363289789127
-0.0551514359034369,-0.151111750806475
-0.0515024562631693,-0.147814992218766
-0.0478636476759183,-0.144473118768321
-0.0442352658238531,-0.141086235197464
-0.0406175663891421,-0.137654446248516
-0.037010805053955,-0.134177856663801
-0.0334152375004602,-0.13065657118564
-0.029831119410827,-0.127090694556357
-0.0262587064672243,-0.123480331518272
-0.0226982543518211,-0.11982558681371
-0.0191500187467862,-0.116126565184992
-0.015614255334289,-0.112383371374441
-0.012091219796498,-0.10859611012438
-0.00858116781558267,-0.10476488617713
-0.00508435507371151,-0.100889804275014
-0.00160103725305391,-0.0969709691603545
0.00186852996422147,-0.0930084855754742
0.00532409089594538,-0.0890024582626955
0.00876538985994911,-0.0849529919643405
0.0121921711740634,-0.0808601914227321
0.0156041791561195,-0.0767241613801923
0.0190011581239481,-0.0725450065790439
0.0223828523953807,-0.068322831761609
0.0257490062882479,-0.0640577416702104
0.0290993641203809,-0.0597498410471701
0.0324336702096107,-0.055399234634811
0.0357516688737683,-0.0510060271754552
0.0390531044306847,-0.0465703234114254
0.042337721198191,-0.0420922280850437
0.0456052634941181,-0.037571845938633
0.0488554756362971,-0.0330092817145154
0.0520881019425589,-0.0284046401550134
0.0553028867307348,-0.0237580260024494
0.0584995743186554,-0.0190695439991461
0.0616779090241521,-0.0143392988874256
0.0648376351650556,-0.00956739540961063
0.0679784970591973,-0.00475393830802325
0.0711002390244078,0.000100967675013525
0.0742026053785184,0.00499721779717789
0.0772853404393599,0.00993470731614685
0.0803481885247636,0.0149133314895985
0.0833908939525602,0.0199329855752098
0.0864132010405811,0.0249935648306589
0.0894148541066568,0.0300949645136228
0.0923955974686188,0.0352370798817797
0.0953551754442979,0.0404198061928065
0.0982933323515252,0.0456430387043813
0.101209812508131,0.0509066726741813
0.104104360231948,0.0562106033598842
0.106976719840806,0.0615547260191675
0.109826635652536,0.0669389359097089
0.112653851984969,0.0723631282891857
0.115458113155936,0.0778271984152759
0.118239163483269,0.0833310415456565
0.120996747284798,0.0888745529380056
0.123730608878354,0.0944576278500003
0.126440492581769,0.100080161539319
0.129126142712873,0.105742049263638
0.131787303589497,0.111443186280635
0.134423719529472,0.117183467847989
0.13703513485063,0.122962789223376
0.139621293870802,0.128781045664474
0.142181940907818,0.134638132428961
0.144716820279509,0.140533944774515
0.147225676303706,0.146468377958812
0.149708253298241,0.152441327239531
0.152164295580945,0.158452687874348
0.154593547469648,0.164502355120942
0.156995753282182,0.170590224236991
0.159370657336377,0.17671619048017
0.161718003950064,0.18288014910816
0.164037537441076,0.189081995378635
0.166329002127242,0.195321624549276
0.168592142326393,0.201598931877757
0.170826702356361,0.207913812621759
0.173032426534976,0.214266162038957
0.175209059180071,0.220655875387031
0.177356344609475,0.227082847923656
0.179474027141019,0.233546974906511
0.181561851092536,0.240048151593273
0.183619560781855,0.24658627324162
0.185646900526808,0.253161235109229
0.187643614645225,0.259772932453778
0.189609447454938,0.266421260532945
0.191544143273778,0.273106114604406
0.193447446419576,0.279827389925841
0.195319101210163,0.286584981754925
0.197158851963369,0.293378785349337
0.198966442997027,0.300208695966755
0.200741618628966,0.307074608864855
0.202484123177018,0.313976419301316
0.204193700959014,0.320914022533815
0.205870096292785,0.327887313820029
0.207513053496162,0.334896188417636
0.209122316886976,0.341940541584314
0.210697630783057,0.34902026857774
0.212238739502238,0.356135264655592
0.213745387362349,0.363285425075547
0.215217318681221,0.370470645095284
0.216654277776685,0.377690819972478
0.218056008966571,0.384945844964809
0.219422256568712,0.392235615329953
0.220752764900938,0.399560026325588
0.22204727828108,0.406918973209392
0.22330554102697,0.414312351239042
0.224527297456437,0.421740055672216
0.225712291887314,0.429201981766591
0.22686026863743,0.436698024779845
0.227970972024618,0.444228079969656
0.229044146366708,0.451792042593701
0.230079535981532,0.459389807909657
0.231076885186919,0.467021271175203
0.232035938300702,0.474686327648015
0.232956439640711,0.482384872585772
0.233838133524777,0.49011680124615
0.234680764270732,0.497882008886828
0.235484076196406,0.505680390765482
0.23624781361963,0.513511842139792
0.236971720858236,0.521376258267433
0.237655542230054,0.529273534406084
0.238299022052915,0.537203565813422
0.238901904644651,0.545166247747125
0.239463934323092,0.55316147546487
0.23998485540607,0.561189144224335
0.240464412211415,0.569249149283198
0.240902349056959,0.577341385899135
0.241298410260532,0.585465749329826
0.241652340139966,0.593622134832946
0.241963883013091,0.601810437666174
0.242232783197738,0.610030553087187
0.24245878501174,0.618282376353663
0.242641632772925,0.626565802723279
0.242781070799127,0.634880727453713
0.242876843408175,0.643227045802643
0.2429286949179,0.651604653027746
0.242936369646135,0.660013444386699
0.242899611910709,0.668453315137181
0.242818166029453,0.676924160536867
0.242691776320199,0.685425875843438
0.242520187100778,0.693958356314569
0.242303142689021,0.702521497207939
0.242040387402759,0.711115193781225
0.241731665559822,0.719739341292104
