0.979061950825251,-0.416118917260184
0.966518503738728,-0.40830088857755
0.954037510423573,-0.400543085730319
0.941618812780181,-0.392845320098594
0.929262252708951,-0.385207403062478
0.916967672110279,-0.377629146002075
0.904734912884563,-0.370110360297488
0.892563816932198,-0.362650857328819
0.880454226153585,-0.355250448476171
0.868405982449118,-0.347908945119649
0.856418927719194,-0.340626158639355
0.844492903864212,-0.333401900415392
0.832627752784568,-0.326235981827863
0.820823316380659,-0.319128214256872
0.809079436552882,-0.312078409082521
0.797395955201635,-0.305086377684914
0.785772714227314,-0.298151931444154
0.774209555530317,-0.291274881740344
0.76270632101104,-0.284455039953587
0.751262852569881,-0.277692217463987
0.739878992107238,-0.270986225651645
0.728554581523506,-0.264336875896667
0.717289462719083,-0.257743979579154
0.706083477594367,-0.251207348079209
0.694936468049754,-0.244726792776937
0.683848275985641,-0.23830212505244
0.672818743302425,-0.231933156285821
0.661847711900505,-0.225619697857183
0.650935023680276,-0.21936156114663
0.640080520542135,-0.213158557534265
0.629284044386481,-0.20701049840019
0.618545437113709,-0.200917195124509
0.607864540624218,-0.194878459087325
0.597241196818404,-0.188894101668741
0.586675247596665,-0.182963934248861
0.576166534859396,-0.177087768207787
0.565714900506996,-0.171265414925622
0.555320186439862,-0.165496685782471
0.54498223455839,-0.159781392158435
0.534700886762978,-0.154119345433618
0.524475984954023,-0.148510356988123
0.514307371031923,-0.142954238202053
0.504194886897073,-0.137450800455512
0.494138374449871,-0.131999855128602
0.484137675590714,-0.126601213601427
0.47419263222,-0.121254687254089
0.464303086238126,-0.115960087466693
0.454468879545488,-0.11071722561934
0.444689854042483,-0.105525913092135
0.43496585162951,-0.10038596126518
0.425296714206964,-0.0952971815185783
0.415682283675244,-0.0902593852324333
0.406122401934745,-0.0852723837868481
0.396616910885866,-0.0803359885619256
0.387165652429002,-0.0754500109377691
0.377768468464552,-0.0706142622944817
0.368425200892913,-0.0658285540121666
0.359135691614482,-0.0610926974709269
0.349899782529654,-0.0564065040508656
0.340717315538829,-0.0517697851320861
0.331588132542403,-0.0471823520946913
0.322512075440772,-0.0426440163187845
0.313488986134335,-0.0381545891844686
0.304518706523487,-0.0337138820718469
0.295601078508627,-0.0293217063610227
0.286735943990152,-0.0249778734320988
0.277923144868458,-0.0206821946651785
0.269162523043942,-0.0164344814403649
0.260453920417002,-0.0122345451377613
0.251797178888035,-0.00808219713747062
0.243192140357438,-0.00397724881959606
0.234638646725607,8.04884357592517e-05
0.226136539892941,0.00409120324849219
0.217685661759836,0.0080550842384995
0.209285854226689,0.0119723200256783
0.200936959193898,0.0158430992299251
0.192638818561859,0.0196676104711372
0.184391274230969,0.023446042369211
0.176194168101626,0.0271785835440437
0.168047342074227,0.030865422615532
0.159950638049169,0.0345067482035729
0.151903897926849,0.0381027489280632
0.143906963607664,0.0416536134088998
0.135959676992011,0.0451595302659794
0.128061879980287,0.048620688119199
0.120213414472889,0.0520372755884555
0.112414122370215,0.0554094812936458
0.104663845572662,0.0587374938546666
0.0969624259806262,0.0620215018914149
0.0893097054945052,0.0652616940237874
0.0817055260146959,0.0684582588716812
0.0741497294415956,0.071611385054993
0.0666421576756014,0.0747212611936197
0.0591826526171104,0.0777880759074582
0.0517710561665196,0.0808120178164054
0.0444072102242261,0.083793275540358
0.0370909566906271,0.086732037699213
0.0298221374661194,0.0896284929128673
0.0226005944511006,0.0924828298012176
0.0154261695459676,0.095295236984161
0.00829870465111726,0.0980659030815942
0.00121804166694697,0.100795016713414
-0.00581597750614637,0.103482766499517
-0.0128035109677656,0.106129341059801
-0.0197447168175134,0.108734929014163
-0.026639753154993,0.111299718982498
-0.0334887780798072,0.113823899584704
-0.0402919496915589,0.116307659440679
-0.0470494260898508,0.118751187170318
-0.0537613653742861,0.121154671393518
-0.0604279256444675,0.123518300730177
-0.0670492649999981,0.125842263800192
-0.0736255415404805,0.128126749223459
-0.0801569133655178,0.130371945619875
-0.0866435385747129,0.132578041609336
-0.0930855752676687,0.134745225811741
-0.099483181543988,0.136873686846985
-0.105836515503274,0.138963613334966
-0.112145735245129,0.14101519389558
-0.118410998869157,0.143028617148725
-0.124632464474959,0.145004071714297
-0.13081029016214,0.146941746212192
-0.136944634030301,0.148841829262309
-0.143035654179047,0.150704509484543
-0.149083508707979,0.152529975498792
-0.155088355716701,0.154318415924952
-0.161050353304816,0.156070019382921
-0.166969659571926,0.157784974492595
-0.172846432617635,0.159463469873871
-0.178680830541544,0.161105694146646
-0.184473011443258,0.162711835930817
-0.190223133422379,0.16428208384628
-0.19593135457851,0.165816626512933
-0.201597833011254,0.167315652550673
-0.207222726820214,0.168779350579395
-0.212806194104992,0.170207909218998
-0.218348392965192,0.171601517089378
-0.223849481500417,0.172960362810432
-0.229309617810268,0.174284635002056
-0.234728959994351,0.175574522284148
-0.240107666152266,0.176830213276604
-0.245445894383617,0.178051896599322
-0.250743802788008,0.179239760872198
-0.25600154946504,0.180393994715129
-0.261219292514317,0.181514786748012
-0.266397190035442,0.182602325590743
-0.271535400128017,0.183656799863221
-0.276634080891646,0.184678398185341
-0.281693390425931,0.185667309177
-0.286713486830476,0.186623721458095
-0.291694528204883,0.187547823648524
-0.296636672648754,0.188439804368182
-0.301540078261694,0.189299852236968
-0.306404903143305,0.190128155874777
-0.311231305393189,0.190924903901507
-0.316019443110951,0.191690284937054
-0.320769474396192,0.192424487601315
-0.325481557348515,0.193127700514188
-0.330155850067524,0.193800112295569
-0.334792510652821,0.194441911565354
-0.339391697204009,0.195053286943441
-0.343953567820691,0.195634427049727
-0.348478280602471,0.196185520504109
-0.35296599364895,0.196706755926483
-0.357416865059732,0.197198321936746
-0.36183105293442,0.197660407154795
-0.366208715372616,0.198093200200527
-0.370550010473924,0.198496889693839
-0.374855096337947,0.198871664254628
-0.379124131064286,0.19921771250279
-0.383357272752546,0.199535223058222
-0.387554679502329,0.199824384540822
-0.391716509413238,0.200085385570486
-0.395842920584876,0.200318414767111
-0.399934071116846,0.200523660750594
-0.40399011910875,0.200701312140832
-0.408011222660192,0.200851557557721
-0.411997539870775,0.200974585621159
-0.415949228840101,0.201070584951042
-0.419866447667773,0.201139744167268
-0.423749354453394,0.201182251889732
-0.427598107296568,0.201198296738333
-0.431412864296897,0.201188067332966
-0.435193783553983,0.201151752293529
-0.438941023167431,0.201089540239918
-0.442654741236842,0.201001619792031
-0.446335095861819,0.200888179569764
-0.449982245141967,0.200749408193014
-0.453596347176886,0.200585494281679
-0.457177560066182,0.200396626455654
-0.460726041909455,0.200182993334837
-0.464241950806309,0.199944783539124
-0.467725444856348,0.199682185688413
-0.471176682159173,0.1993953884026
-0.474595820814388,0.199084580301583
-0.477983018921596,0.198749950005257
-0.481338434580399,0.19839168613352
-0.484662225890402,0.19800997730627
-0.487954550951205,0.197605012143402
-0.491215567862413,0.197176979264813
-0.494445434723628,0.196726067290401
-0.497644309634453,0.196252464840062
-0.500812350694491,0.195756360533693
-0.503949716003345,0.195237942991191
-0.507056563660618,0.194697400832453
-0.510133051765913,0.194134922677376
-0.513179338418833,0.193550697145856
-0.51619558171898,0.192944912857791
-0.519181939765957,0.192317758433077
-0.522138570659368,0.191669422491611
-0.525065632498815,0.191000093653291
-0.527963283383901,0.190309960538012
-0.530831681414229,0.189599211765672
-0.533670984689402,0.188868035956167
-0.536481351309023,0.188116621729395
-0.539262939372695,0.187345157705253
-0.54201590698002,0.186553832503637
-0.544740412230602,0.185742834744443
-0.547436613224043,0.18491235304757
-0.550104668059947,0.184062576032914
-0.552744734837916,0.183193692320371
-0.555356971657553,0.182305890529839
-0.557941536618461,0.181399359281215
-0.560498587820243,0.180474287194394
-0.563028283362502,0.179530862889275
-0.56553078134484,0.178569274985754
-0.568006239866862,0.177589712103727
-0.570454817028169,0.176592362863093
-0.572876670928364,0.175577415883747
-0.575271959667051,0.174545059785587
-0.577640841343832,0.173495483188509
-0.57998347405831,0.17242887471241
-0.582300015910088,0.171345422977187
-0.584590624998769,0.170245316602737
-0.586855459423956,0.169128744208957
-0.589094677285252,0.167995894415744
-0.591308436682259,0.166846955842994
-0.593496895714581,0.165682117110605
-0.59566021248182,0.164501566838473
-0.59779854508358,0.163305493646495
-0.599912051619463,0.162094086154568
-0.602000890189073,0.160867532982589
-0.604065218892011,0.159626022750455
-0.606105195827881,0.158369744078062
-0.608120979096286,0.157098885585308
-0.610112726796829,0.155813635892089
-0.612080597029113,0.154514183618302
-0.61402474789274,0.153200717383844
-0.615945337487313,0.151873425808613
-0.617842523912436,0.150532497512504
-0.619716465267712,0.149178121115415
-0.621567319652742,0.147810485237242
-0.62339524516713,0.146429778497883
-0.62520039991048,0.145036189517234
-0.626982941982393,0.143629906915192
-0.628743029482473,0.142211119311654
-0.630480820510323,0.140780015326517
-0.632196473165546,0.139336783579678
-0.633890145547743,0.137881612691033
-0.63556199575652,0.13641469128048
-0.637212181891477,0.134936207967915
-0.638840862052219,0.133446351373235
-0.640448194338347,0.131945310116337
-0.642034336849466,0.130433272817118
-0.643599447685178,0.128910428095475
-0.645143684945085,0.127376964571305
-0.646667206728791,0.125833070864504
-0.648170171135899,0.12427893559497
-0.649652736266011,0.122714747382599
-0.651115060218731,0.121140694847287
-0.65255730109366,0.119556966608933
-0.653979616990404,0.117963751287433
-0.655382166008563,0.116361237502683
-0.656765106247741,0.114749613874581
-0.658128595807541,0.113129069023024
-0.659472792787565,0.111499791567907
-0.660797855287418,0.109861970129129
-0.662103941406701,0.108215793326586
-0.663391209245017,0.106561449780175
-0.664659816901971,0.104899128109793
-0.665909922477163,0.103229016935336
-0.667141684070197,0.101551304876702
-0.668355259780677,0.0998661805537868
-0.669550807708204,0.0981738325864881
-0.670728485952383,0.0964744495947025
-0.671888452612815,0.0947682201983268
-0.673030865789104,0.093055333017258
-0.674155883580852,0.0913359766713929
-0.675263664087663,0.0896103397806283
-0.67635436540914,0.0878786109648611
-0.677428145644884,0.0861409788439883
-0.6784851628945,0.0843976320379065
-0.67952557525759,0.0826487591665129
-0.680549540833757,0.080894548849704
-0.681557217722604,0.079135189707377
-0.682548764023734,0.0773708703594285
-0.683524337836749,0.0756017794257556
-0.684484097261253,0.0738281055262549
-0.685428200396849,0.0720500372808236
-0.686356805343139,0.0702677633093582
-0.687270070199726,0.0684814722317558
-0.688168153066214,0.0666913526679132
-0.689051212042204,0.0648975932377273
-0.689919405227301,0.0631003825610949
-0.690772890721106,0.0612999092579129
-0.691611826623224,0.0594963619480782
-0.692436371033256,0.0576899292514876
-0.693246682050805,0.055880799788038
-0.694042917775476,0.0540691621776263
-0.694825236306869,0.0522552050401493
-0.695593795744589,0.050439116995504
-0.696348754188238,0.048621086663587
-0.697090269737419,0.0468013026642955
-0.697818500491736,0.044979953617526
-0.69853360455079,0.0431572281431757
-0.699235740014185,0.0413333148611412
-0.699925064981523,0.0395084023913197
-0.700601737552409,0.0376826793536077
-0.701265915826444,0.0358563343679022
-0.701917757903231,0.0340295560541001
-0.702557421882374,0.0322025330320983
-0.703185065863474,0.0303754539217936
-0.703800847946136,0.0285485073430829
-0.704404926229962,0.026721881915863
-0.704997458814555,0.0248957662600309
-0.705578603799518,0.0230703489954833
-0.706148519284453,0.0212458187421172
-0.706707363368964,0.0194223641198293
-0.707255294152654,0.0176001737485167
-0.707792469735125,0.0157794362480761
-0.70831904821598,0.0139603402384044
-0.708835187694823,0.0121430743393985
-0.709341046271256,0.0103278271709552
-0.709836782044881,0.0085147873529714
-0.710322553115303,0.00670414350534403
-0.710798517582124,0.0048960842479698
-0.711264833544946,0.00309079820074578
-0.711721659103373,0.00128847398356862
-0.712169152357007,-0.000510699783664633
-0.712607471405452,-0.00230653448105725
-0.713036774348311,-0.00409884148871224
-0.713457219285185,-0.00588743218673287
-0.713868964315678,-0.00767211795522214
-0.714272167539394,-0.00945271017428332
-0.714666987055935,-0.0112290202240194
-0.715053580964903,-0.0130008594845337
-0.715432107365902,-0.0147680393359291
-0.715802724358535,-0.016530371158309
-0.716165590042405,-0.0182876663317763
-0.716520862517113,-0.0200397362364344
-0.716868699882265,-0.0217863922523862
-0.717209260237461,-0.0235274457597349
-0.717542701682306,-0.0252627081385836
-0.717869182316401,-0.0269919907690356
-0.71818886023935,-0.0287151050311939
-0.718501893550757,-0.0304318623051616
-0.718808440350223,-0.0321420739710419
-0.719108658737352,-0.033845551408938
-0.719402706811746,-0.0355421059989529
-0.719690742673009,-0.0372315491211898
-0.719972924420743,-0.0389136921557518
-0.720249410154552,-0.0405883464827421
-0.720520357974037,-0.0422553234822637
-0.720785925978803,-0.04391443453442
-0.721046272268451,-0.0455654910193139
-0.721301554942586,-0.0472083043170486
-0.721551932100809,-0.0488426858077271
-0.721797561842724,-0.0504684468714528
-0.722038602267933,-0.0520853988883287
-0.72227521147604,-0.053693353238458
-0.722507547566647,-0.0552921213019436
-0.722735768639358,-0.056881514458889
-0.722960032793774,-0.058461344089397
-0.7231804981295,-0.0600314215735709
-0.723397322746138,-0.0615915582915138
-0.72361066474329,-0.0631415656233289
-0.723820682220561,-0.0646812549491192
-0.724027533277552,-0.066210437648988
-0.724231376013866,-0.0677289251030383
-0.724432368529107,-0.0692365286913734
-0.724630668922878,-0.0707330597940962
-0.72482643529478,-0.0722183297913099
-0.725019825744418,-0.0736921500631178
-0.725210998371394,-0.0751543319896229
-0.725400111275311,-0.0766046869509283
-0.725587322555772,-0.0780430263271372
-0.725772790312379,-0.0794691614983527
-0.725956672644736,-0.0808829038446781
-0.726139127652446,-0.0822840647462162
-0.726320313435111,-0.0836724555830705
-0.726500388092335,-0.0850478877353438
-0.72667950972372,-0.0864101725831395
-0.726857836428869,-0.0877591215065606
-0.727035526307385,-0.0890945458857103
-0.727212737458871,-0.0904162571006917
-0.72738962798293,-0.0917240665316079
-0.727566355979165,-0.0930177855585621
-0.727743079547178,-0.0942972255616574
-0.727919956786573,-0.0955621979209969
-0.728097145796953,-0.0968125140166838
-0.728097145796953,-0.0968125140166838
-0.728245628289371,-0.098036765890366
-0.728336516343785,-0.0992238255754542
-0.728370163613149,-0.100373924439695
-0.728346923750418,-0.101487293850837
-0.728267150408548,-0.102564165176626
-0.728131197240493,-0.103604769784809
-0.727939417899209,-0.104609339043133
-0.727692166037651,-0.105578104319347
-0.727389795308773,-0.106511296981196
-0.727032659365531,-0.107409148396428
-0.72662111186088,-0.108271889932789
-0.726155506447775,-0.109099752958028
-0.725636196779172,-0.109892968839891
-0.725063536508024,-0.110651768946126
-0.724437879287288,-0.111376384644479
-0.723759578769918,-0.112067047302697
-0.723028988608869,-0.112723988288528
-0.722246462457097,-0.113347438969719
-0.721412353967556,-0.113937630714017
-0.720527016793203,-0.114494794889169
-0.719590804586991,-0.115019162862922
-0.718604071001876,-0.115510966003023
-0.717567169690812,-0.115970435677219
-0.716480454306756,-0.116397803253258
-0.715344278502662,-0.116793300098887
-0.714158995931485,-0.117157157581852
-0.71292496024618,-0.117489607069901
-0.711642525099703,-0.117790879930781
-0.710312044145009,-0.118061207532238
-0.708933871035051,-0.118300821242021
-0.707508359422786,-0.118509952427877
-0.706035862961169,-0.118688832457551
-0.704516735303155,-0.118837692698792
-0.702951330101699,-0.118956764519347
-0.701340001009755,-0.119046279286962
-0.69968310168028,-0.119106468369386
-0.697980985766228,-0.119137563134364
-0.696234006920554,-0.119139794949644
-0.694442518796213,-0.119113395182973
-0.692606875046161,-0.119058595202099
-0.690727429323352,-0.118975626374768
-0.688804535280741,-0.118864720068728
-0.686838546571285,-0.118726107651725
-0.684829816847937,-0.118560020491507
-0.682778699763652,-0.118366689955821
-0.680685548971387,-0.118146347412413
-0.678550718124095,-0.117899224229032
-0.676374560874733,-0.117625551773424
-0.674157430876255,-0.117325561413336
-0.671899681781616,-0.116999484516516
-0.669601667243771,-0.11664755245071
-0.667263740915676,-0.116269996583666
-0.664886256450285,-0.115867048283131
-0.662469567500553,-0.115438938916851
-0.660014027719437,-0.114985899852574
-0.65751999075989,-0.114508162458048
-0.654987810274868,-0.114005958101019
-0.652417839917325,-0.113479518149234
-0.649810433340218,-0.11292907397044
-0.6471659441965,-0.112354856932385
-0.644484726139128,-0.111757098402816
-0.641767132821056,-0.11113602974948
-0.63901351789524,-0.110491882340123
-0.636224235014633,-0.109824887542493
-0.633399637832193,-0.109135276724338
-0.630540080000872,-0.108423281253404
-0.627645915173628,-0.107689132497438
-0.624717497003414,-0.106933061824187
-0.621755179143186,-0.106155300601399
-0.618759315245899,-0.105356080196821
-0.615730258964508,-0.1045356319782
-0.612668363951968,-0.103694187313283
-0.609573983861234,-0.102831977569816
-0.606447472345261,-0.101949234115548
-0.603289183057005,-0.101046188318225
-0.60009946964942,-0.100123071545594
-0.596878685775461,-0.0991801151654031
-0.593627185088084,-0.0982175505453985
-0.590345321240244,-0.0972356090533276
-0.587033447884896,-0.0962345220569377
-0.583691918674994,-0.0952145209239756
-0.580321087263494,-0.0941758370221886
-0.576921307303351,-0.0931187017193237
-0.573492932447521,-0.0920433463831282
-0.570036316348957,-0.0909500023813491
-0.566551812660616,-0.0898389010817334
-0.563039775035452,-0.0887102738520283
-0.55950055712642,-0.0875643520599811
-0.555934512586476,-0.0864013670733387
-0.552341995068575,-0.0852215502598482
-0.548723358225671,-0.0840251329872568
-0.54507895571072,-0.0828123466233116
-0.541409141176677,-0.0815834225357597
-0.537714268276496,-0.0803385920923482
-0.533994690663134,-0.0790780866608243
-0.530250761989545,-0.077802137608935
-0.526482835908684,-0.0765109763044275
-0.522691266073506,-0.0752048341150489
-0.518876406136967,-0.0738839424085462
-0.51503860975202,-0.0725485325526666
-0.511178230571623,-0.0711988359151573
-0.507295622248729,-0.0698350838637653
-0.503391138436294,-0.0684575077662377
-0.499465132787272,-0.0670663389903217
-0.49551795895462,-0.0656618089037645
-0.491549970591291,-0.0642441488743129
-0.487561521350241,-0.0628135902697142
-0.483552964884426,-0.0613703644577156
-0.479524654846799,-0.0599147028060642
-0.475476944890317,-0.0584468366825069
-0.471410188667934,-0.0569669974547909
-0.467324739832606,-0.0554754164906636
-0.463220952037287,-0.0539723251578717
-0.459099178934933,-0.0524579548241626
-0.454959774178498,-0.0509325368572832
-0.450803091420939,-0.0493963026249808
-0.446629484315209,-0.0478494834950024
-0.442439306514264,-0.0462923108350952
-0.438232911671058,-0.0447250160130062
-0.434010653438549,-0.0431478303964827
-0.429772885469689,-0.0415609853532716
-0.425519961417435,-0.0399647122511201
-0.421252234934741,-0.0383592424577754
-0.416970059674562,-0.0367448073409844
-0.412673789289854,-0.0351216382684945
-0.408363777433572,-0.0334899666080526
-0.40404037775867,-0.0318500237274058
-0.399703943918104,-0.0302020409943014
-0.395354829564829,-0.0285462497764864
-0.3909933883518,-0.0268828814417078
-0.386619973931972,-0.0252121673577129
-0.3822349399583,-0.0235343388922488
-0.377838640083739,-0.0218496274130625
-0.373431427961244,-0.0201582642879012
-0.369013657243771,-0.018460480884512
-0.364585681584275,-0.016756508570642
-0.36014785463571,-0.0150465787140383
-0.355700530051031,-0.013330922682448
-0.351244061483194,-0.0116097718436182
-0.346778802585154,-0.00988335756529617
-0.342305107009866,-0.00815191121522887
-0.337823328410285,-0.00641566416116343
-0.333333820439366,-0.00467484777084699
-0.328836936750064,-0.00292969341202665
-0.324333030995334,-0.00118043245244961
-0.319822456828132,0.000572703740137182
-0.315305567901412,0.0023294837979865
-0.310782717868129,0.00408967635335124
-0.306254260381239,0.00585305003848425
-0.301720549093697,0.00761937348563853
-0.297181937658457,0.00938841532706691
-0.292638779728475,0.0111599441950222
-0.288091428956706,0.0129337287217574
-0.283540238996105,0.0147095375395254
-0.278985563499627,0.016487139280579
-0.274427756120227,0.0182663025771711
-0.269867170510861,0.0200467960615546
-0.265304160324482,0.0218283883659824
-0.260739079214047,0.0236108481227074
-0.256172280832511,0.0253939439639824
-0.251604118832828,0.0271774445220605
-0.247034946867954,0.0289611184291943
-0.242465118590843,0.0307447343176369
-0.237894987654452,0.0325280608196411
-0.233324907711734,0.0343108665674598
-0.228755232415645,0.0360929201933459
-0.22418631541914,0.0378739903295522
-0.219618510375175,0.0396538456083318
-0.215052170936704,0.0414322546619373
-0.210487650756682,0.0432089861226218
-0.205925303488064,0.0449838086226381
-0.201365482783806,0.0467564907942391
-0.196808542296862,0.0485268012696777
-0.192254835680189,0.0502945086812067
-0.187704716586739,0.0520593816610792
-0.18315853866947,0.0538211888415479
-0.178616655581336,0.0555796988548657
-0.174079420975291,0.0573346803332855
-0.169547188504292,0.0590859019090602
-0.165020311821293,0.0608331322144428
-0.160499144579249,0.0625761398816859
-0.155984040431115,0.0643146935430427
-0.151475353029847,0.0660485618307659
-0.146973436028399,0.0677775133771085
-0.142478643079727,0.0695013168143233
-0.137991327836786,0.0712197407746632
-0.13351184395253,0.0729325538903811
-0.129040545079915,0.0746395247937298
-0.124577784871897,0.0763404221169623
-0.120123916981429,0.0780350144923315
-0.115679295061467,0.0797230705520903
-0.111244272764966,0.0814043589284914
-0.106819203744882,0.0830786482537879
-0.102404441654169,0.0847457071602326
-0.0980003401457822,0.0864053042800783
-0.0936072528726772,0.088057208245578
-0.0892255334878088,0.0897011876889846
-0.0848555356441318,0.0913370112425509
-0.0804976129946017,0.0929644475385299
-0.0761521191921736,0.0945832652091743
-0.0718194078898023,0.0961932328867372
-0.0674998327404431,0.0977941192034713
-0.0631937473970509,0.0993856927916297
-0.058901505512581,0.100967722283465
-0.0546234607399882,0.10253997631123
-0.0503599667322279,0.104102223507179
-0.0461113771422549,0.105654232503563
-0.0418780456230246,0.107195771932635
-0.0376603258274918,0.108726610426649
-0.0334585714086118,0.110246516617857
-0.0292731360193394,0.111755259138513
-0.02510437331263,0.113252606620869
-0.0209526369414384,0.114738327697178
-0.01681828055872,0.116212190999692
-0.0127016578174295,0.117673965160666
-0.00860312237052246,0.119123418812351
-0.00452302787095343,0.120560320587001
-0.000461727971677983,0.121984439116868
0.00358042367434919,0.123395543034206
0.00760307341417263,0.124793400971267
0.0116058675948377,0.126177781560304
0.0155884525633888,0.12754845343357
0.0195504746668714,0.128905185223318
0.0234915802523299,0.1302477455618
0.0274114156668096,0.131575903081271
0.0313096272573551,0.132889426413982
0.0351858613710116,0.134188084192186
0.0390397643548238,0.135471645048137
0.0428709825558368,0.136739877614087
0.0466791623210953,0.137992550522289
0.0504639499976446,0.139229432404996
0.0542249919325291,0.140450291894461
0.0579619344727941,0.141654897622936
0.0616744239654843,0.142843018222676
0.0653621067576448,0.144014422325931
0.0690246291963203,0.145168878564957
0.072661637628556,0.146306155572004
0.0762727784013965,0.147426021979327
0.079857697861887,0.148528246419178
0.0834160423570721,0.14961259752381
0.0869474582339971,0.150678843925475
0.0904515918397065,0.151726754256428
0.0939280895212457,0.15275609714892
0.097376597625659,0.153766641235204
0.100796762499992,0.154758155147534
0.104188230491289,0.155730407518162
0.107550647946595,0.156683166979342
0.110883661212956,0.157616202163325
0.114186916637415,0.158529281702365
0.117460060567019,0.159422174228715
0.120702739348811,0.160294648374628
0.123914599329837,0.161146472772357
0.127095286857142,0.161977416054154
0.13024444827777,0.162787246852272
0.133361729938767,0.163575733798965
0.136446778187177,0.164342645526484
0.139499239370046,0.165087750667084
0.142518759834418,0.165810817853017
0.145504985927338,0.166511615716535
0.148457563995851,0.167189912889892
0.151376140387002,0.167845478005341
0.154260361447836,0.168478079695134
0.157109873525398,0.169087486591525
0.159924322966733,0.169673467326766
0.162703356118885,0.17023579053311
0.1654466193289,0.170774224842809
0.168153758943823,0.171288538888118
0.170824421310698,0.171778501301289
0.17345825277657,0.172243880714574
0.176054899688484,0.172684445760227
0.178614008393486,0.1730999650705
0.18113522523862,0.173490207277647
0.183618196570931,0.173854941013919
0.186062568737463,0.174193934911571
0.188467988085263,0.174506957602855
0.190834100961374,0.174793777720024
0.148588246620761,0.153310116139717
0.195446992686712,0.175287884761027
0.181853329907029,0.173381583374456
0.199898414689835,0.175674405092605
0.21667741552323,0.162892043498326
0.204185537747104,0.17595148777278
0.206266603038655,0.176048411574223
0.208862726556586,0.168895262025819
0.205408175290102,0.199867133919839
0.207095819522204,0.194297954529355
0.234203593287619,0.163381245995037
0.233614971836976,0.189832154446889
0.217215786720687,0.174140361442662
0.219634456044819,0.175928423139913
0.228459494490772,0.190770921162975
0.223057646018204,0.17563055343342
0.257047427900354,0.181123752319878
0.197783425870089,0.173579555381244
0.257965744258976,0.169478576503233
0.214635169015076,0.167176734472715
0.208250951796293,0.192133829831713
0.232228253317604,0.174006280726448
0.225746846237329,0.179315583877962
0.263765986234383,0.189247896791686
0.267120570436507,0.149420762960091
0.250987990972054,0.188051348891947
0.253064184296717,0.14414197088638
0.250279730493958,0.132184276486559
0.240763389151109,0.170673443354556
0.241785859252458,0.170066600245863
0.242758059640512,0.169426382162894
0.243679636662315,0.168752557737903
0.244550236664912,0.168044895603141
0.245369505995347,0.167303164390862
0.246137091000667,0.16652713273332
0.246852638027915,0.165716569262766
0.247515793424137,0.164871242611454
0.248126203536377,0.163990921411636
0.248683514711681,0.163075374295566
0.249187373297093,0.162124369895496
0.249637425639659,0.161137676843679
0.250033318086422,0.160115063772368
0.250374696984429,0.159056299313817
0.250661208680724,0.157961152100277
0.250892499522352,0.156829390764002
0.251068215856357,0.155660783937244
0.251188004029786,0.154455100252257
0.251251510389682,0.153212108341294
0.251258381283091,0.151931576836607
0.251208263057057,0.150613274370448
0.251100802058626,0.149256969575072
0.250935644634842,0.147862431082731
0.250712437132751,0.146429427525678
0.250430825899397,0.144957727536166
0.250090457281824,0.143447099746447
0.249690977627079,0.141897312788774
0.249232033282206,0.140308135295401
0.24871327059425,0.138679335898581
0.248134335910255,0.137010683230565
0.247494875577267,0.135301945923608
0.246794535942331,0.133552892609961
0.246032963352491,0.131763291921878
0.245209804154793,0.129932912491612
0.244324704696281,0.128061522951415
0.243377311324,0.126148891933541
0.242367270384996,0.124194788070243
0.241294228226312,0.122198979993772
0.240157831194995,0.120161236336383
0.238957725638089,0.118081325730327
0.237693557902638,0.115959016807859
0.236364974335688,0.11379407820123
0.234971621284284,0.111586278542695
0.233513145095471,0.109335386464504
0.231989192116293,0.107041170598912
0.230399408693795,0.104703399578171
0.228743441175023,0.102321842034535
0.227020935907021,0.0998962666002557
0.225231539236834,0.0974264419075865
0.223374897511507,0.09491213658878
0.221450657078086,0.0923531192760894
0.219458464283614,0.0897491586017673
0.217397965475137,0.0871000231980668
0.2152688069997,0.0844054816972407
0.213070635204348,0.081665302731542
0.210803096436125,0.0788792549332233
0.208465837042076,0.0760471069345379
0.206058503369247,0.0731686273677383
0.203580741764683,0.0702435848650777
0.201032198575427,0.0672717480588087
0.198412520148526,0.0642528855811845
0.195721352831024,0.0611867660644576
0.192958342969966,0.0580731581408813
0.190123136912397,0.0549118304427081
0.187215381005362,0.0517025516021912
0.184234721595905,0.0484450902515833
0.181180805031072,0.0451392150231374
0.178053277657908,0.0417846945491062
0.174851785823457,0.0383812974617429
0.171575975874764,0.0349287923933
0.168225494158875,0.0314269479760307
0.164799987022834,0.0278755328421877
0.161299100813687,0.0242743156240241
0.157722481878477,0.0206230649537925
0.15406977656425,0.016921549463746
0.150340631218051,0.0131695377861373
0.146534692186926,0.00936679855321964
0.142651605817917,0.00551310039724545
0.138691018458072,0.00160821195046802
0.134652576454434,-0.00234809815486015
0.130535926154048,-0.00635606128648578
0.12634071390396,-0.0104159088121563
0.122066586051214,-0.0145278720996186
0.117713188942856,-0.0186921825166201
0.113280168925929,-0.0229090714309074
0.10876717234748,-0.0271787702102282
0.104173845554553,-0.0315015102223291
0.0994998348941922,-0.0358775228349577
0.0947447867134436,-0.0403070394158606
0.0899083473593516,-0.0447902913327854
0.0849901631789614,-0.0493275099534788
0.0799898805193175,-0.0539189266456883
0.0749071457274654,-0.0585647727771606
0.0697416051504494,-0.0632652797156432
