0.411200787165945,0.0703761530972833
0.409550030396675,0.0625455064145042
0.407913734443559,0.054792706874545
0.406291819934051,0.0471173946581688
0.404684207495606,0.0395192099461392
0.403090817755679,0.0319977929192194
0.401511571341722,0.0245527837581727
0.399946388881192,0.0171838226437624
0.398395191001543,0.00989054975675192
0.396857898330228,0.00267260527790453
0.395334431494703,-0.00447037061201644
0.393824711122422,-0.0115387377322477
0.39232865784084,-0.0185328559020258
0.39084619227741,-0.0254530849405875
0.389377235059587,-0.0322997846671695
0.387921706814826,-0.0390733149010085
0.386479528170582,-0.045774035461341
0.385050619754308,-0.0524023061674039
0.383634902193459,-0.0589584868384337
0.382232296115489,-0.0654429372936672
0.380842722147854,-0.071856017352341
0.379466100918006,-0.0781980868336917
0.378102353053402,-0.0844695055569562
0.376751399181495,-0.0906706333413709
0.37541315992974,-0.0968018300061727
0.374087555925591,-0.102863455370598
0.372774507796503,-0.108855869253884
0.37147393616993,-0.114779431475267
0.370185761673327,-0.120634501853983
0.368909904934147,-0.12642144020927
0.367646286579846,-0.132140606360364
0.366394827237878,-0.137792360126502
0.365155447535698,-0.14337706132692
0.363928068100759,-0.148895069780855
0.362712609560516,-0.154346745307544
0.361508992542425,-0.159732447726224
0.360317137673938,-0.16505253685613
0.359136965582511,-0.170307372516501
0.357968396895599,-0.175497314526571
0.356811352240654,-0.180622722705579
0.355665752245133,-0.185683956872761
0.354531517536489,-0.190681376847353
0.353408568742177,-0.195615342448592
0.352296826489652,-0.200486213495715
0.351196211406367,-0.205294349807959
0.350106644119778,-0.210040111204559
0.349028045257338,-0.214723857504754
0.347960335446502,-0.219345948527779
0.346903435314725,-0.223906744092871
0.345857265489462,-0.228406604019267
0.344821746598165,-0.232845888126204
0.343796799268291,-0.237224956232918
0.342782344127293,-0.241544168158646
0.341778301802626,-0.245803883722624
0.340784592921744,-0.25000446274409
0.339801138112102,-0.254146265042279
0.338827858001154,-0.258229650436429
0.337864673216355,-0.262254978745776
0.336911504385159,-0.266222609789558
0.33596827213502,-0.270132903387009
0.335034897093394,-0.273986219357368
0.334111299887734,-0.277782917519872
0.333197401145495,-0.281523357693755
0.332293121494131,-0.285207899698256
0.331398381561097,-0.288836903352611
0.330513101973848,-0.292410728476057
0.329637203359837,-0.29592973488783
0.328770606346519,-0.299394282407167
0.32791323156135,-0.302804730853304
0.327064999631782,-0.306161440045479
0.32622583118527,-0.309464769802928
0.32539564684927,-0.312715079944888
0.324574367251235,-0.315912730290595
0.32376191301862,-0.319058080659286
0.322958204778879,-0.322151490870198
0.322163163159467,-0.325193320742567
0.321376708787839,-0.32818393009563
0.320598762291448,-0.331123678748624
0.319829244297749,-0.334012926520785
0.319068075434197,-0.336852033231351
0.318315176328246,-0.339641358699557
0.31757046760735,-0.342381262744641
0.316833869898965,-0.345072105185839
0.316105303830543,-0.347714245842387
0.315384690029541,-0.350308044533523
0.314671949123412,-0.352853861078483
0.313967001739611,-0.355352055296504
0.313269768505592,-0.357802987006823
0.312580170048809,-0.360207016028675
0.311898126996718,-0.362564502181299
0.311223559976772,-0.364875805283929
0.310556389616426,-0.367141285155804
0.309896536543135,-0.36936130161616
0.309243921384353,-0.371536214484234
0.308598464767534,-0.373666383579261
0.307960087320133,-0.37575216872048
0.307328709669604,-0.377793929727126
0.306704252443402,-0.379792026418436
0.306086636268981,-0.381746818613647
0.305475781773795,-0.383658666131996
0.3048716095853,-0.385527928792719
0.304274040330949,-0.387354966415053
0.303682994638198,-0.389140138818235
0.303098393134499,-0.3908838058215
0.302520156447309,-0.392586327244087
0.301948205204081,-0.394248062905231
0.301382460032269,-0.39586937262417
0.300822841559329,-0.397450616220139
0.300269270412715,-0.398992153512376
0.299721667219881,-0.400494344320118
0.299179952608281,-0.4019575484626
0.29864404720537,-0.403382125759061
0.298113871638603,-0.404768436028735
0.297589346535434,-0.40611683909086
0.297070392523317,-0.407427694764673
0.296556930229707,-0.408701362869411
0.296048880282059,-0.40993820322431
0.295546163307826,-0.411138575648606
0.295048699934463,-0.412302839961536
0.294556410789425,-0.413431355982338
0.294069216500166,-0.414524483530247
0.293587037694141,-0.415582582424501
0.293109794998804,-0.416606012484336
0.292637409041609,-0.417595133528988
0.292169800450011,-0.418550305377695
0.291706889851464,-0.419471887849693
0.291248597873423,-0.420360240764219
0.290794845143343,-0.421215723940509
0.290345552288677,-0.422038697197801
0.28990063993688,-0.42282952035533
0.289460028715407,-0.423588553232334
0.289023639251712,-0.424316155648048
0.28859139217325,-0.425012687421711
0.288163208107474,-0.425678508372558
0.28773900768184,-0.426313978319826
0.287318711523802,-0.426919457082752
0.286902240260814,-0.427495304480573
0.286489514520331,-0.428041880332525
0.286080454929807,-0.428559544457845
0.285674982116697,-0.429048656675769
0.285273016708455,-0.429509576805534
0.284874479332536,-0.429942664666377
0.284479290616393,-0.430348280077535
0.284087371187482,-0.430726782858244
0.283698641673257,-0.431078532827741
0.283313022701173,-0.431403889805263
0.282930434898683,-0.431703213610045
0.282550798893242,-0.431976864061326
0.282174035312306,-0.432225200978341
0.281800064783327,-0.432448584180328
0.281428807933761,-0.432647373486522
0.281060185391062,-0.432821928716161
0.280694117782685,-0.432972609688482
0.280330525736084,-0.43309977622272
0.279969329878713,-0.433203788138113
0.279610450838027,-0.433285005253897
0.27925380924148,-0.43334378738931
0.278899325716528,-0.433380494363587
0.278546920890623,-0.433395485995965
0.278196515391221,-0.433389122105681
0.277848029845777,-0.433361762511972
0.277501384881744,-0.433313767034075
0.277156501126577,-0.433245495491225
0.27681329920773,-0.43315730770266
0.276471699752659,-0.433049563487617
0.276131623388816,-0.432922622665331
0.275792990743658,-0.43277684505504
0.275455722444638,-0.432612590475981
0.275119739119211,-0.43243021874739
0.274784961394831,-0.432230089688503
0.274451309898953,-0.432012563118558
0.274118705259031,-0.431777998856791
0.273787068102519,-0.431526756722439
0.273456319056873,-0.431259196534738
0.273126378749546,-0.430975678112926
0.272797167807992,-0.430676561276238
0.272468606859668,-0.430362205843912
0.272140616532026,-0.430032971635184
0.271813117452521,-0.42968921846929
0.271486030248608,-0.429331306165468
0.271159275547741,-0.428959594542954
0.270832773977375,-0.428574443420986
0.270506446164964,-0.428176212618798
0.270180212737963,-0.427765261955629
0.269853994323825,-0.427341951250715
0.269527711550006,-0.426906640323292
0.26920128504396,-0.426459688992597
0.268874635433141,-0.426001457077868
0.268547683345004,-0.42553230439834
0.268220349407003,-0.42505259077325
0.267892554246593,-0.424562676021835
0.267564218491228,-0.424062919963331
0.267235262768363,-0.423553682416976
0.266905607705452,-0.423035323202006
0.266575173929949,-0.422508202137657
0.266243882069309,-0.421972679043167
0.265911652750986,-0.421429113737772
0.265578406602436,-0.420877866040708
0.265244064251111,-0.420319295771213
0.264908546324468,-0.419753762748522
0.26457177344996,-0.419181626791873
0.264233666255041,-0.418603247720503
0.263894145367166,-0.418018985353647
0.26355313141379,-0.417429199510543
0.263210545022367,-0.416834250010428
0.262866306820352,-0.416234496672538
0.262520337435198,-0.415630299316109
0.262172557494361,-0.415022017760378
0.261822887625294,-0.414410011824583
0.261471248455453,-0.413794641327959
0.261117560612292,-0.413176266089744
0.260761744723265,-0.412555245929174
0.260403721415826,-0.411931940665485
0.26004341131743,-0.411306710117915
0.259680735055532,-0.4106799141057
0.259315613257586,-0.410051912448077
0.258947966551047,-0.409423064964283
0.258577715563368,-0.408793731473553
0.258204780922004,-0.408164271795125
0.257829083254411,-0.407535045748236
0.257450543188042,-0.406906413152121
0.257069081350351,-0.406278733826019
0.256684618368793,-0.405652367589165
0.256297074870823,-0.405027674260796
0.255906371483895,-0.404405013660149
0.255512428835464,-0.403784745606461
0.255115167552983,-0.403167229918967
0.254714508263908,-0.402552826416906
0.254310371595693,-0.401941894919513
0.253902678175792,-0.401334795246025
0.25349134863166,-0.400731887215679
0.253076303590751,-0.400133530647712
0.252657463680519,-0.39954008536136
0.25223474952842,-0.398951911175859
0.251808081761907,-0.398369367910448
0.251377381008435,-0.397792815384361
0.250942567895459,-0.397222613416837
0.250503563050433,-0.396659121827111
0.250060287100811,-0.39610270043442
0.249612660674048,-0.395553709058002
0.249160604397598,-0.395012507517091
0.248704038898915,-0.394479455630927
0.248242884805455,-0.393954913218744
0.247777062744672,-0.39343924009978
0.247306493344019,-0.392932796093271
0.246831097230953,-0.392435941018454
0.246350795032926,-0.391949034694566
0.245865507377393,-0.391472436940843
0.24537515489181,-0.391006507576522
0.244879658203629,-0.390551606420839
0.244378937940307,-0.390108093293033
0.243872914729296,-0.389676328012338
0.243361509198053,-0.389256670397991
0.24284464197403,-0.388849480269231
0.242322233684683,-0.388455117445292
0.241794204957467,-0.388073941745412
0.241260476419834,-0.387706312988827
0.240720968699241,-0.387352590994775
0.240175602423141,-0.387013135582491
0.239624298218988,-0.386688306571213
0.239066976714238,-0.386378463780176
0.238503558536345,-0.386083967028619
0.237933964312763,-0.385805176135777
0.237358114670947,-0.385542450920887
0.23677593023835,-0.385296151203185
0.236187331642428,-0.38506663680191
0.235592239510636,-0.384854267536296
0.234990574470426,-0.384659403225581
0.234382257149255,-0.384482403689002
0.233767208174576,-0.384323628745795
0.233145348173844,-0.384183438215197
0.232516597774512,-0.384062191916444
0.231880877604037,-0.383960249668773
0.231238108289872,-0.383877971291422
0.230588210459471,-0.383815716603626
0.22993110474029,-0.383773845424621
0.229266711759782,-0.383752717573646
0.228594952145402,-0.383752692869937
0.227915746524604,-0.38377413113273
0.227229015524843,-0.383817392181261
0.226534679773574,-0.383882835834768
0.22583265989825,-0.383970821912488
0.225122876526326,-0.384081710233656
0.224405250285258,-0.38421586061751
0.223679701802498,-0.384373632883286
0.222946151705502,-0.384555386850221
0.222204520621724,-0.384761482337552
0.221454729178618,-0.384992279164515
0.220696698003639,-0.385248137150347
0.219930347724242,-0.385529416114285
0.21915559896788,-0.385836475875565
0.218372372362009,-0.386169676253424
0.217580588534082,-0.386529377067098
0.216780168111555,-0.386915938135825
0.215971031721881,-0.387329719278841
0.215153099992516,-0.387771080315383
0.214326293550912,-0.388240381064687
0.213490533024526,-0.38873798134599
0.212645739040812,-0.389264240978529
0.211791832227223,-0.38981951978154
0.210928733211214,-0.39040417757426
0.21005636262024,-0.391018574175926
0.209174641081756,-0.391663069405774
0.208283489223215,-0.392338023083042
0.207382827672073,-0.393043795026965
0.206472577055783,-0.393780745056781
0.2055526580018,-0.394549232991725
0.204622991137578,-0.395349618651036
0.203683497090573,-0.396182261853949
0.202734096488237,-0.397047522419701
0.201774709958027,-0.397945760167529
0.200805258127396,-0.398877334916669
0.199825661623799,-0.399842606486359
0.19883584107469,-0.400841934695834
0.197835717107523,-0.401875679364332
0.196825210349754,-0.402944200311089
0.195804241428836,-0.404047857355341
0.194772730972225,-0.405187010316327
0.193730599607373,-0.406362019013281
0.192677767961737,-0.407573243265442
0.19161415666277,-0.408821042892045
0.190539686337927,-0.410105777712327
0.189454277614662,-0.411427807545525
0.18835785112043,-0.412787492210875
0.187250327482685,-0.414185191527615
0.186131627328882,-0.415621265314981
0.185001671286474,-0.417096073392209
0.183860379982917,-0.418609975578537
0.182707674045666,-0.4201633316932
0.181543474102173,-0.421756501555436
0.180367700779895,-0.423389844984482
0.179180274706284,-0.425063721799573
0.177981116508797,-0.426778491819947
0.176770146814887,-0.42853451486484
0.175547286252008,-0.43033215075349
0.174312455447616,-0.432171759305131
0.173065575029164,-0.434053700339003
0.171806565624107,-0.43597833367434
0.1705353478599,-0.43794601913038
0.169251842363997,-0.439957116526359
0.167955969763852,-0.442011985681514
0.16664765068692,-0.444110986415082
0.165326805760655,-0.446254478546299
0.163993355612512,-0.448442821894403
0.162647220869945,-0.450676376278629
0.161288322160409,-0.452955501518214
0.159916580111358,-0.455280557432396
0.158531915350246,-0.45765190384041
0.157134248504529,-0.460069900561494
0.155723500201659,-0.462534907414884
0.154299591069093,-0.465047284219816
0.152862441734284,-0.467607390795528
0.151411972824687,-0.470215586961256
0.149948104967756,-0.472872232536237
0.148470758790946,-0.475577687339707
0.146979854921711,-0.478332311190904
0.145475313987506,-0.481136463909063
0.143957056615785,-0.483990505313422
0.142425003434002,-0.486894795223217
0.140879075069612,-0.489849693457685
0.13931919215007,-0.492855559836062
0.137745275302829,-0.495912754177585
0.136157245155345,-0.499021636301491
0.134555022335072,-0.502182566027017
0.132938527469463,-0.505395903173399
0.131307681185975,-0.508662007559874
0.12966240411206,-0.511981239005678
0.128002616875174,-0.515353957330049
0.126328240102772,-0.518780522352223
0.124639194422306,-0.522261293891436
0.122935400461233,-0.525796631766925
0.121216778847006,-0.529386895797927
0.11948325020708,-0.533032445803679
0.117734735168909,-0.536733641603417
0.115971154359948,-0.540490843016378
0.11419242840765,-0.544304409861799
0.112398477939472,-0.548174701958916
0.110589223582867,-0.552102079126966
0.108764585965289,-0.556086901185185
0.106924485714193,-0.560129527952811
0.105068843457034,-0.56423031924908
0.103197579821266,-0.568389634893228
0.101310615434342,-0.572607834704493
0.0994078709237192,-0.576885278502111
0.0974892669168501,-0.581222326105318
0.0955547240411898,-0.585619337333352
0.0936041629241926,-0.590076672005449
0.0916375041933129,-0.594594689940846
0.0896546684760054,-0.599173750958779
0.0876555763997243,-0.603814214878485
0.0856401485919243,-0.6085164415192
0.0836083056800595,-0.613280790700163
0.0815599682915848,-0.618107622240608
0.0794950570539542,-0.622997295959773
0.0774134925946224,-0.627950171676894
0.0753151955410438,-0.632966609211209
0.073200086520673,-0.638046968381953
0.0710680861609641,-0.643191609008363
0.068919115089372,-0.648400890909677
0.0667530939333507,-0.653675173905131
