0.869422330377921,-0.25859543358434
0.865105116733969,-0.261014534696696
0.860767921832354,-0.26342790100296
0.856410923921253,-0.26583542595287
0.852034301248841,-0.268237002996161
0.847638232063294,-0.270632525582572
0.843222894612787,-0.273021887161839
0.838788467145496,-0.275404981183699
0.834335127909596,-0.277781701097889
0.829863055153263,-0.280151940354146
0.825372427124671,-0.282515592402207
0.820863422071998,-0.284872550691809
0.816336218243417,-0.287222708672689
0.811790993887105,-0.289565959794584
0.807227927251237,-0.291902197507231
0.802647196583989,-0.294231315260367
0.798048980133536,-0.296553206503729
0.793433456148053,-0.298867764687053
0.788800802875717,-0.301174883260077
0.784151198564701,-0.303474455672538
0.779484821463183,-0.305766375374173
0.774801849819338,-0.308050535814718
0.77010246188134,-0.310326830443911
0.765386835897366,-0.312595152711489
0.760655150115591,-0.314855396067188
0.755907582784191,-0.317107453960747
0.75114431215134,-0.3193512198419
0.746365516465215,-0.321586587160386
0.741571373973991,-0.323813449365942
0.736762062925844,-0.326031699908304
0.731937761568948,-0.32824123223721
0.727098648151479,-0.330441939802396
0.722244900921614,-0.332633716053599
0.717376698127527,-0.334816454440558
0.712494218017394,-0.336990048413007
0.70759763883939,-0.339154391420684
0.702687138841691,-0.341309376913327
0.697762896272473,-0.343454898340673
0.69282508937991,-0.345590849152457
0.687873896412179,-0.347717122798418
0.682909495617455,-0.349833612728292
0.677932065243913,-0.351940212391816
0.672941783539728,-0.354036815238728
0.667938828753077,-0.356123314718763
0.662923379132135,-0.35819960428166
0.657895612925077,-0.360265577377154
0.652855708380079,-0.362321127454984
0.647803843745316,-0.364366147964886
0.642740197268964,-0.366400532356597
0.637664947199199,-0.368424174079854
0.632578271784194,-0.370436966584393
0.627480349272127,-0.372438803319953
0.622371357911173,-0.374429577736269
0.617251475949507,-0.37640918328308
0.612120881635305,-0.378377513410121
0.606979753216742,-0.38033446156713
0.601828268941994,-0.382279921203844
0.596666607059236,-0.38421378577
0.591494945816643,-0.386135948715334
0.586313463462391,-0.388046303489584
0.581122338244657,-0.389944743542487
0.575921748411614,-0.391831162323779
0.570711872211439,-0.393705453283198
0.565492887892307,-0.395567509870481
0.560264973702394,-0.397417225535364
0.555028307889875,-0.399254493727585
0.549783068702925,-0.401079207896881
0.544529434389721,-0.402891261492987
0.539267583198437,-0.404690547965643
0.533997693377249,-0.406476960764584
0.528719943174333,-0.408250393339547
0.523434510837863,-0.410010739140269
0.518141574616017,-0.411757891616488
0.512841312756968,-0.413491744217941
0.507533903508892,-0.415212190394363
0.502219525119966,-0.416919123595493
0.496898355838365,-0.418612437271068
0.491570573912263,-0.420292024870823
0.486236357589836,-0.421957779844497
0.480895885119261,-0.423609595641826
0.475549334748712,-0.425247365712547
0.470196884726365,-0.426870983506397
0.464838713300396,-0.428480342473113
0.459474998718979,-0.430075336062432
0.454105919230291,-0.431655857724092
0.448731653082506,-0.433221800907828
0.443352378523801,-0.434773059063379
0.437968273802351,-0.43630952564048
0.432579517166331,-0.43783109408887
0.427186286863918,-0.439337657858284
0.421788761143285,-0.44082911039846
0.416387118252609,-0.442305345159135
0.410981536440066,-0.443766255590046
0.405572193953831,-0.44521173514093
0.400159269042078,-0.446641677261523
0.394742939952985,-0.448055975401564
0.389323384934726,-0.449454523010788
0.383900782235477,-0.450837213538933
0.378475310103412,-0.452203940435735
0.373047146786709,-0.453554597150932
0.367616470533542,-0.454889077134261
0.362183459592087,-0.456207273835458
0.356748292210519,-0.457509080704261
0.351311146637013,-0.458794391190407
0.345872201119746,-0.460063098743632
0.340431633906893,-0.461315096813673
0.334989623246629,-0.462550278850268
0.329546347387129,-0.463768538303154
0.32410198457657,-0.464969768622067
0.318656713063126,-0.466153863256744
0.313210711094973,-0.467320715656923
0.307764156920287,-0.46847021927234
0.302317228787244,-0.469602267552732
0.296870104944018,-0.470716753947837
0.291422963638785,-0.47181357190739
0.28597598311972,-0.472892614881131
0.280529341635,-0.473953776318794
0.275083217432799,-0.474996949670118
0.269637788761293,-0.476022028384838
0.264193233868658,-0.477028905912693
0.258749731003069,-0.478017475703419
0.253307458412702,-0.478987631206753
0.247866594345731,-0.479939265872432
0.242427317050333,-0.480872273150193
0.236989804774683,-0.481786546489773
0.231554235766957,-0.48268197934091
0.226120788275329,-0.483558465153339
0.220689640547977,-0.484415897376797
0.215260970833074,-0.485254169461023
0.209834957378796,-0.486073174855753
0.20441177843332,-0.486872807010724
0.19899161224482,-0.487652959375672
0.193574637061471,-0.488413525400335
0.188161031131451,-0.48915439853445
0.182750972702933,-0.489875472227754
0.177344640024094,-0.490576639929983
0.171942211343108,-0.491257795090876
0.166543864908152,-0.491918831160168
0.161149778967401,-0.492559641587596
0.15576013176903,-0.493180119822898
0.150375101561215,-0.493780159315811
0.144994866592132,-0.494359653516071
0.139619605109955,-0.494918495873415
0.13424949536286,-0.495456579837582
0.128884715599024,-0.495973798858306
0.12352544406662,-0.496470046385327
0.118171859013826,-0.496945215868379
0.112824138688816,-0.497399200757201
0.107482461339765,-0.497831894501529
0.10214700521485,-0.498243190551101
0.0968179485622458,-0.498632982355653
0.0914954696301276,-0.499001163364922
0.0861797466666713,-0.499347627028646
0.0808709579200521,-0.499672266796561
0.0755692816384457,-0.499974976118404
0.0702748960700275,-0.500255648443912
0.064987979462973,-0.500514177222822
0.0597087100654578,-0.500750455904872
0.0544372661256572,-0.500964377939797
0.0491738258917466,-0.501155836777336
0.0439185676119019,-0.501324725867225
0.0386716695342984,-0.501470938659201
0.0334333099071114,-0.501594368603
0.0282036669785165,-0.501694909148361
0.0229829189966893,-0.50177245374502
0.0177712442098053,-0.501826895842714
0.0125688208660398,-0.501858128891179
0.00737582721356839,-0.501866046340154
0.00219244150056663,-0.501850541639374
-0.00298115802479001,-0.501811508238577
-0.00814479311432614,-0.5017488395875
-0.0132982855198663,-0.501662429135879
-0.0184414569932347,-0.501552170333453
-0.0235741292862562,-0.501417956629957
-0.0286961241507552,-0.501259681475129
-0.0338072633385561,-0.501077238318705
-0.0389073686014836,-0.500870520610423
-0.0439962616913619,-0.50063942180002
-0.0490737643600159,-0.500383835337232
-0.0541396983592699,-0.500103654671797
-0.0591938854409483,-0.499798773253452
-0.0642361473568758,-0.499469084531933
-0.0692663058588769,-0.499114481956977
-0.074284182698776,-0.498734858978322
-0.0792895996283977,-0.498330109045704
-0.0842823783995664,-0.497900125608861
-0.0892623407641068,-0.497444802117529
-0.0942293084738432,-0.496964032021445
-0.0991831032806003,-0.496457708770346
-0.104123546936202,-0.495925725813971
-0.109050461192474,-0.495367976602054
-0.11396366780124,-0.494784354584333
-0.118862988514325,-0.494174753210546
-0.123748245083552,-0.493539065930429
-0.128619259260748,-0.492877186193719
-0.133475852797735,-0.492189007450153
-0.13831784744634,-0.491474423149468
-0.143145064958385,-0.490733326741402
-0.147957327085696,-0.48996561167569
-0.152754455580098,-0.48917117140207
-0.157536272193414,-0.48834989937028
-0.162302598677469,-0.487501689030055
-0.167053256784088,-0.486626433831134
-0.171788068265095,-0.485724027223252
-0.176506854872315,-0.484794362656147
-0.181209438357573,-0.483837333579556
-0.185895640472692,-0.482852833443216
-0.190565282969497,-0.481840755696864
-0.195218187599813,-0.480800993790237
-0.199854176115465,-0.479733441173071
-0.204473070268276,-0.478637991295104
-0.209074691810072,-0.477514537606073
-0.213658862492677,-0.476362973555714
-0.218225404067915,-0.475183192593765
-0.22277413828761,-0.473975088169963
-0.227304886903588,-0.472738553734044
-0.231817471667673,-0.471473482735746
-0.23631171433169,-0.470179768624806
-0.240787436647462,-0.46885730485096
-0.245244460366815,-0.467505984863945
-0.249682607241572,-0.4661257021135
-0.254101699023559,-0.464716350049359
-0.2585015574646,-0.463277822121261
-0.26288200431652,-0.461810011778942
-0.267242861331142,-0.46031281247214
-0.271583950260292,-0.458786117650591
-0.275905092855794,-0.457229820764032
-0.280206110869472,-0.455643815262201
-0.284486826053151,-0.454027994594834
-0.288747060158656,-0.452382252211668
-0.292986634937811,-0.45070648156244
-0.29720537214244,-0.449000576096888
-0.301403093524368,-0.447264429264748
-0.305579620835421,-0.445497934515756
-0.30973477582742,-0.443700985299651
-0.313868380252193,-0.441873475066169
-0.317980255861562,-0.440015297265048
-0.322070224407354,-0.438126345346023
-0.326138107641391,-0.436206512758832
-0.330183727315499,-0.434255692953212
-0.334206905181502,-0.4322737793789
-0.338207462991225,-0.430260665485633
-0.342185222496491,-0.428216244723148
-0.346140005449127,-0.426140410541181
-0.350071633600955,-0.424033056389471
-0.353979928703802,-0.421894075717754
-0.35786471250949,-0.419723361975766
-0.361725806769845,-0.417520808613245
-0.365563033236691,-0.415286309079927
-0.369376213661853,-0.413019756825551
-0.373165169797155,-0.410721045299852
-0.376929723394422,-0.408390067952568
-0.380669696205478,-0.406026718233435
-0.384384909982148,-0.403630889592191
-0.388075186476256,-0.401202475478573
-0.391740347439627,-0.398741369342317
-0.395380214624085,-0.396247464633161
-0.398994609781455,-0.393720654800841
-0.402583354663561,-0.391160833295095
-0.406146271022228,-0.388567893565659
-0.409683180609281,-0.38594172906227
-0.413193905176543,-0.383282233234666
-0.416678266475839,-0.380589299532584
-0.420136086258995,-0.377862821405759
-0.423567186277833,-0.37510269230393
-0.42697138828418,-0.372308805676833
-0.430348514029858,-0.369481054974206
-0.433698385266694,-0.366619333645785
-0.437020823746511,-0.363723535141307
-0.440315651221135,-0.360793552910509
-0.443582689442388,-0.357829280403129
-0.446821760162096,-0.354830611068902
-0.450032685132084,-0.351797438357567
-0.453215286104176,-0.348729655718859
-0.456369384830196,-0.345627156602517
-0.459494803061969,-0.342489834458277
-0.462591362551319,-0.339317582735876
-0.465658885050072,-0.33611029488505
-0.468697192310051,-0.332867864355538
-0.471706106083081,-0.329590184597076
-0.474685448120987,-0.3262771490594
-0.477635040175592,-0.322928651192249
-0.480554703998722,-0.319544584445358
-0.483444261342201,-0.316124842268465
-0.486303533957854,-0.312669318111307
-0.489132343597505,-0.30917790542362
-0.491930512012978,-0.305650497655143
-0.494697860956098,-0.302086988255611
-0.49743421217869,-0.298487270674762
-0.500139387432578,-0.294851238362332
-0.502813208469587,-0.291178784768059
-0.50545549704154,-0.28746980334168
-0.508066074900264,-0.283724187532931
-0.510644763797581,-0.27994183079155
-0.513191385485317,-0.276122626567273
-0.515705761715296,-0.272266468309838
-0.518187714239343,-0.268373249468982
-0.520637064809283,-0.26444286349444
-0.523053635176938,-0.260475203835952
-0.525437247094135,-0.256470163943252
-0.527787722312698,-0.252427637266079
-0.530104882584451,-0.24834751725417
-0.532388549661218,-0.24422969735726
-0.534638545294825,-0.240074071025088
-0.536854691237096,-0.23588053170739
-0.539036809239854,-0.231648972853904
-0.541184721054926,-0.227379287914366
-0.543298248434135,-0.223071370338512
-0.545377213129305,-0.218725113576081
-0.547421436892262,-0.21434041107681
-0.54943074147483,-0.209917156290434
-0.551404948628833,-0.205455242666691
-0.553343880106095,-0.200954563655319
-0.555247357658442,-0.196415012706053
-0.557115203037698,-0.191836483268632
-0.558947237995688,-0.187218868792791
-0.560743284284235,-0.182562062728268
-0.562503163655164,-0.177865958524801
-0.564226697860301,-0.173130449632125
-0.565913708651469,-0.168355429499978
-0.567564017780492,-0.163540791578097
-0.569177446999196,-0.158686429316219
-0.570753818059405,-0.15379223616408
-0.572292952712943,-0.148858105571418
-0.573794672711636,-0.143883930987971
-0.575258799807307,-0.138869605863473
-0.57668515575178,-0.133815023647664
-0.578073562296881,-0.128720077790279
-0.579423841194435,-0.123584661741055
-0.580735814196264,-0.118408668949731
-0.582009303054195,-0.113191992866042
-0.583244129520051,-0.107934526939725
-0.584440115345657,-0.102636164620518
-0.585597082282838,-0.0972967993581577
-0.586714852083417,-0.0919163246023808
-0.587793246499221,-0.0864946338029241
-0.588832087282072,-0.0810316204095251
-0.589831196183796,-0.0755271778719203
-0.590790394956217,-0.0699811996398471
-0.591709505351159,-0.0643935791630419
-0.592588349120448,-0.0587642098912423
-0.593426748015907,-0.0530929852741849
-0.594224523789361,-0.0473797987616069
-0.594981498192635,-0.0416245438032448
-0.595697492977553,-0.0358271138488363
-0.59637232989594,-0.0299874023481177
-0.597005830699619,-0.0241053027508265
-0.597597817140417,-0.0181807085066992
-0.598148110970156,-0.0122135130654732
-0.598656533940663,-0.00620360987688512
-0.59912290780376,-0.0001508923906723
-0.599547054311273,0.00594474594342874
-0.599928795215027,0.0120834116756805
-0.600267952266845,0.0182652113563466
-0.600564347218552,0.0244902515356894
-0.600817801821973,0.0307586387639725
-0.601028137828932,0.0370704795914586
-0.601195176991255,0.043425880568411
-0.601318741060764,0.0498249482450923
-0.601398651789285,0.0562677891717661
-0.601434730928642,0.0627545098986947
-0.601426800230661,0.0692852169761419
-0.601374681447164,0.0758600169543701
-0.601278196329977,0.0824790163836428
-0.601137166630925,0.0891423218142226
-0.600951414101831,0.095850039796373
-0.600720760494521,0.102602276880356
-0.600445027560819,0.109399139616437
-0.600124037052549,0.116240734554876
-0.599757610721535,0.123127168245938
-0.599345570319604,0.130058547239885
-0.598887737598578,0.137034978086981
-0.598383934310282,0.144056567337488
-0.597833982206542,0.15112342154167
-0.597237703039181,0.15823564724979
-0.596594918560024,0.16539335101211
-0.595905450520895,0.172596639378893
-0.595169120673619,0.179845618900404
-0.594385750770021,0.187140396126904
-0.593555162561924,0.194481077608657
-0.592677177801154,0.201867769895925
-0.591751618239535,0.209300579538972
-0.590778305628892,0.216779613088061
-0.589757061721049,0.224304977093455
-0.58868770826783,0.231876778105417
-0.58757006702106,0.239495122674209
-0.586403959732564,0.247160117350096
-0.585189208154165,0.254871868683339
-0.583925634037689,0.262630483224202
-0.582613059134961,0.270436067522949
-0.581251305197803,0.278288728129841
-0.579840193978043,0.286188571595142
-0.578379547227502,0.294135704469115
-0.576869186698007,0.302130233302024
-0.575308934141381,0.31017226464413
-0.57369861130945,0.318261905045698
-0.572038039954037,0.32639926105699
-0.570327041826967,0.334584439228269
-0.568565438680065,0.342817546109798
-0.566753052265155,0.35109868825184
-0.566753052265155,0.35109868825184
-0.564907816450578,0.359349045278135
-0.563047908636959,0.367490012048703
-0.561173515874543,0.375522017968229
-0.559284825213579,0.383445492441402
-0.557382023704314,0.391260864872905
-0.555465298396993,0.398968564667425
-0.553534836341866,0.406569021229649
-0.551590824589179,0.414062663964261
-0.54963345018918,0.42144992227595
-0.547662900192115,0.428731225569399
-0.545679361648231,0.435907003249295
-0.543683021607777,0.442977684720325
-0.541674067120999,0.449943699387174
-0.539652685238144,0.456805476654528
-0.537619063009459,0.463563445927073
-0.535573387485193,0.470218036609496
-0.533515845715592,0.476769678106483
-0.531446624750902,0.483218799822718
-0.529365911641372,0.489565831162889
-0.527273893437249,0.495811201531681
-0.52517075718878,0.50195534033378
-0.523056689946212,0.507998676973873
-0.520931878759792,0.513941640856645
-0.518796510679767,0.519784661386783
-0.516650772756386,0.525528167968972
-0.514494852039894,0.531172590007898
-0.512328935580539,0.536718356908248
-0.510153210428569,0.542165898074707
-0.50796786363423,0.547515642911962
-0.50577308224777,0.552768020824698
-0.503569053319435,0.557923461217601
-0.501355963899474,0.562982393495358
-0.499134001038134,0.567945247062655
-0.496903351785661,0.572812451324177
-0.494664203192302,0.57758443568461
-0.492416742308306,0.582261629548641
-0.490161156183919,0.586844462320956
-0.487897631869389,0.59133336340624
-0.485626356414962,0.595728762209179
-0.483347516870886,0.600031088134461
-0.481061300287408,0.60424077058677
-0.478767893714775,0.608358238970792
-0.476467484203235,0.612383922691214
-0.474160258803035,0.616318251152721
-0.471846404564421,0.620161653760001
-0.469526108537642,0.623914559917737
-0.467199557772944,0.627577399030617
-0.464866939320574,0.631150600503328
-0.46252844023078,0.634634593740554
-0.460184247553809,0.638029808146981
-0.457834548339909,0.641336673127296
-0.455479529639326,0.644555618086185
-0.453119378502307,0.647687072428333
-0.4507542819791,0.650731465558427
-0.448384427119952,0.653689226881153
-0.446010000975111,0.656560785801197
-0.443631190594823,0.659346571723245
-0.441248183029335,0.662047014051982
-0.438861165328895,0.664662542192094
-0.436470324543751,0.667193585548269
-0.434075847724149,0.669640573525192
-0.431677921920336,0.672003935527548
-0.42927673418256,0.674284100960024
-0.426872471561068,0.676481499227306
-0.424465321106107,0.67859655973408
-0.422055469867924,0.680629711885032
-0.419643104896767,0.682581385084847
-0.417228413242883,0.684452008738213
-0.414811581956518,0.686242012249814
-0.412392798087921,0.687951825024337
-0.409972248687338,0.689581876466468
-0.407550120805017,0.691132595980893
-0.405126601491205,0.692604412972299
-0.402701877796148,0.693997756845369
-0.400276136770095,0.695313057004792
-0.397849565463292,0.696550742855253
-0.395422350925987,0.697711243801438
-0.392994680208427,0.698794989248033
-0.390566740360859,0.699802408599723
-0.38813871843353,0.700733931261196
-0.385710801476688,0.701589986637137
-0.38328317654058,0.702371004132232
-0.380856030675452,0.703077413151166
-0.378429550931553,0.703709643098627
-0.376003924359128,0.704268123379301
-0.373579338008427,0.704753283397871
-0.371155978929695,0.705165552559027
-0.36873403417318,0.705505360267452
-0.366313690789129,0.705773135927833
-0.36389513582779,0.705969308944857
-0.361478556339409,0.706094308723208
-0.359064139374235,0.706148564667574
-0.356652071982513,0.70613250618264
-0.354242541214491,0.706046562673092
-0.351835734120417,0.705891163543616
-0.349431837750538,0.705666738198898
-0.3470310391551,0.705373716043625
-0.344633525384352,0.705012526482482
-0.342239483488539,0.704583598920155
-0.339849100517911,0.70408736276133
-0.337462563522713,0.703524247410694
-0.335080059553193,0.702894682272931
-0.332701775659598,0.702199096752729
-0.330327898892175,0.701437920254774
-0.327958616301172,0.70061158218375
-0.325594114936836,0.699720511944345
-0.323234581849414,0.698765138941244
-0.320880204089153,0.697745892579134
-0.3185311687063,0.6966632022627
-0.316187662751103,0.695517497396628
-0.313849873273809,0.694309207385604
-0.311517987324665,0.693038761634315
-0.309192191953918,0.691706589547447
-0.306872674211815,0.690313120529684
-0.304559621148605,0.688858783985714
-0.302253219814533,0.687344009320223
-0.299953657259847,0.685769225937896
-0.297661120534794,0.684134863243419
-0.295375796689622,0.682441350641478
-0.293097872774578,0.680689117536761
-0.290827535839909,0.678878593333952
-0.288564972935862,0.677010207437737
-0.286310371112684,0.675084389252802
-0.284063917420622,0.673101568183834
-0.281825798909925,0.671062173635519
-0.279596202630838,0.668966635012542
-0.27737531563361,0.66681538171959
-0.275163324968487,0.664608843161348
-0.272960417685717,0.662347448742503
-0.270766780835546,0.66003162786774
-0.268582601468223,0.657661809941746
-0.266408066633994,0.655238424369207
-0.264243363383106,0.652761900554808
-0.262088678765807,0.650232667903236
-0.259944199832344,0.647651155819176
-0.257810113632964,0.645017793707315
-0.255686607217914,0.642333010972339
-0.253573867637442,0.639597237018933
-0.251472081941794,0.636810901251784
-0.249381437181219,0.633974433075577
-0.247302120405962,0.631088261895
-0.245234318666272,0.628152817114737
-0.243178219012395,0.625168528139474
-0.24113400849458,0.622135824373899
-0.239101874163072,0.619055135222696
-0.23708200306812,0.615926890090552
-0.235074582259969,0.612751518382152
-0.233079798788869,0.609529449502184
-0.231097839705065,0.606261112855332
-0.229128892058806,0.602946937846283
-0.227173142900337,0.599587353879723
-0.225230779279907,0.596182790360338
-0.223301988247763,0.592733676692813
-0.221386956854152,0.589240442281835
-0.219485872149321,0.58570351653209
-0.217598921183517,0.582123328848264
-0.215726291006987,0.578500308635043
-0.21386816866998,0.574834885297113
-0.212024741222741,0.571127488239159
-0.210196195715518,0.567378546865869
-0.208382719198559,0.563588490581928
-0.206584498722111,0.559757748792021
-0.20480172133642,0.555886750900835
-0.203034574091734,0.551975926313056
-0.2012832440383,0.548025704433371
-0.199547918226366,0.544036514666464
-0.197828783706178,0.540008786417022
-0.196126027527985,0.535942949089731
-0.194439836742032,0.531839432089277
-0.192770398398568,0.527698664820346
-0.191117899547839,0.523521076687624
-0.189482527240092,0.519307097095797
-0.187864468525576,0.515057155449552
-0.186263910454537,0.510771681153573
-0.184681040077222,0.506451103612547
-0.183116044443878,0.502095852231161
-0.181569110604754,0.497706356414099
-0.180040425610095,0.493283045566049
-0.178530176510149,0.488826349091695
-0.177038550355164,0.484336696395725
-0.175565734195386,0.479814516882824
-0.174111915081063,0.475260239957678
-0.172677280062443,0.470674295024973
-0.171262016189771,0.466057111489396
-0.169866310513296,0.461409118755632
-0.168490350083264,0.456730746228367
-0.167134321949923,0.452022423312286
-0.165798413163521,0.447284579412078
-0.164482810774303,0.442517643932426
-0.163187701832518,0.437722046278018
-0.161913273388413,0.432898215853539
-0.160659712492235,0.428046582063675
-0.15942720619423,0.423167574313113
-0.158215941544647,0.418261622006537
-0.157026105593733,0.413329154548635
-0.155857885391734,0.408370601344093
-0.154711467988899,0.403386391797595
-0.153587040435473,0.398376955313829
-0.152484789781705,0.39334272129748
-0.151404903077841,0.388284119153235
-0.150347567374129,0.383201578285779
-0.149312969720817,0.378095528099799
-0.14830129716815,0.372966397999979
-0.147312736766377,0.367814617391008
-0.146347475565744,0.362640615677569
-0.1454057006165,0.35744482226435
-0.14448759896889,0.352227666556036
-0.143593357673163,0.346989577957314
-0.142723163779565,0.341730985872869
-0.141877204338344,0.336452319707388
-0.141055666399747,0.331154008865556
-0.14025873701402,0.32583648275206
-0.139486603231413,0.320500170771585
-0.13873945210217,0.315145502328818
-0.138017470676541,0.309772906828444
-0.137320846004771,0.30438281367515
-0.136649765137109,0.298975652273621
-0.136004415123801,0.293551852028544
-0.135384983015094,0.288111842344604
-0.134791655861237,0.282656052626488
-0.134224620712475,0.277184912278881
-0.133684064619057,0.271698850706471
-0.133170174631229,0.266198297313941
-0.132683137799238,0.26068368150598
-0.132223141173333,0.255155432687272
-0.131790371803759,0.249613980262503
-0.131385016740765,0.24405975363636
-0.131007263034598,0.238493182213529
-0.130657297735504,0.232914695398696
-0.130335307893731,0.227324722596546
-0.130041480559526,0.221723693211766
-0.129776002783136,0.216112036649042
-0.129539061614809,0.210490182313059
-0.129330844104792,0.204858559608504
-0.129151537303331,0.199217597940063
-0.129001328260675,0.193567726712421
-0.12888040402707,0.187909375330266
-0.128788951652764,0.182242973198282
-0.128727158188004,0.176568949721156
-0.128695210683036,0.170887734303573
-0.128693296188109,0.165199756350221
-0.12872160175347,0.159505445265784
-0.128780314429364,0.153805230454949
-0.128869621266041,0.148099541322402
-0.128989709313747,0.142388807272829
-0.129140765622729,0.136673457710916
-0.129322977243235,0.130953922041348
-0.129536531225511,0.125230629668813
-0.129781614619805,0.119504009997995
-0.130058414476365,0.113774492433581
-0.130367117845436,0.108042506380257
-0.130707911777268,0.102308481242709
-0.131080983322106,0.0965728464256231
-0.131486519530198,0.0908360313336851
-0.131924707451791,0.0850984653715809
-0.132395734137132,0.0793605779439969
-0.132899786636469,0.0736227984556186
-0.133437052000049,0.0678855563111326
-0.134007717278119,0.0621492809152243
-0.134611969520927,0.0564144016725802
-0.135249995778718,0.050681347987886
-0.135921983101741,0.044950549265828
-0.136628118540244,0.039222434911092
-0.137368589144472,0.0334974343283641
-0.138143581964673,0.0277759769223301
-0.138953284051095,0.0220584920976763
-0.139797882453985,0.0163454092590885
-0.14067756422359,0.010637157811253
-0.141592516410156,0.00493416715885539
-0.142542926063932,-0.000763133293417817
-0.143528980235165,-0.00645431414088121
-0.144550865974101,-0.0121389459788481
-0.145608770330989,-0.0178165994026332
-0.146702880356074,-0.0234868450075498
-0.147833383099605,-0.0291492533889125
-0.149000465611829,-0.0348033951420348
-0.150204314942992,-0.040448840862231
-0.151445118143343,-0.0460851611448148
-0.152723062263127,-0.0517119265851007
-0.154038334352593,-0.057328707778402
-0.155391121461988,-0.0629350753200334
-0.156781610641559,-0.0685305998053083
-0.158209988941552,-0.0741148518295411
-0.159676443412216,-0.0796874019880453
-0.161181161103798,-0.0852478208761356
-0.162724329066544,-0.0907956790891253
-0.164306134350702,-0.0963305472223289
-0.165926764006519,-0.10185199587106
-0.167586405084243,-0.107359595630633
-0.16928524463412,-0.112852917096361
-0.171023469706398,-0.118331530863559
-0.172801267351324,-0.123795007527541
-0.174618824619145,-0.129242917683621
-0.176476328560108,-0.134674831927111
-0.178373966224461,-0.140090320853328
-0.180311924662451,-0.145488955057584
-0.182290390924325,-0.150870305135194
-0.18430955206033,-0.156233941681471
-0.186369595120714,-0.16157943529173
-0.188470707155723,-0.166906356561284
-0.190613075215605,-0.172214276085448
-0.192796886350607,-0.177502764459535
-0.195022327610977,-0.18277139227886
-0.197289586046961,-0.188019730138737
-0.199598848708807,-0.193247348634479
-0.201950302646761,-0.1984538183614
-0.204344134911072,-0.203638709914815
-0.206780532551986,-0.208801593890037
-0.209259682619751,-0.213942040882381
-0.211781772164614,-0.21905962148716
-0.214346988236821,-0.224153906299688
-0.216955517886621,-0.22922446591528
-0.21960754816426,-0.23427087092925
-0.222303266119985,-0.23929269193691
-0.225042858804045,-0.244289499533576
-0.227826513266685,-0.249260864314562
-0.230654416558154,-0.254206356875181
-0.233526755728698,-0.259125547810747
-0.236443717828565,-0.264018007716574
-0.239405489908002,-0.268883307187977
-0.242412259017256,-0.273721016820269
-0.245464212206574,-0.278530707208764
-0.248561536526204,-0.283311948948777
-0.251704419026392,-0.288064312635621
-0.254893046757386,-0.29278736886461
-0.258127606769434,-0.297480688231058
-0.261408286112782,-0.30214384133028
-0.264735271837677,-0.306776398757589
-0.268108750994367,-0.311377931108299
-0.271528910633099,-0.315948008977724
-0.274995937804121,-0.320486202961179
-0.278510019557678,-0.324992083653976
-0.28207134294402,-0.329465221651431
-0.285680095013392,-0.333905187548857
-0.289336462816042,-0.338311551941568
-0.293040633402218,-0.342683885424879
-0.296792793822166,-0.347021758594102
-0.300593131126133,-0.351324742044553
-0.304441832364368,-0.355592406371544
-0.308339084587116,-0.359824322170391
-0.312285074844626,-0.364020060036407
-0.316279990187145,-0.368179190564906
-0.320324017664919,-0.372301284351202
-0.324417344328196,-0.376385911990608
-0.328560157227223,-0.38043264407844
-0.332752643412248,-0.384441051210011
-0.336994989933517,-0.388410703980636
-0.341287383841278,-0.392341172985626
-0.345630012185777,-0.396232028820299
-0.350023062017264,-0.400082842079966
-0.354466720385983,-0.403893183359942
-0.358961174342183,-0.40766262325554
-0.363506610936111,-0.411390732362076
-0.368103217218014,-0.415077081274863
-0.37275118023814,-0.418721240589215
-0.377450687046734,-0.422322780900445
-0.382201924694046,-0.425881272803869
-0.387005080230321,-0.429396286894799
-0.391860340705807,-0.432867393768551
-0.396767893170752,-0.436294164020437
-0.401727924675402,-0.439676168245772
-0.406740622270005,-0.44301297703987
-0.411806173004808,-0.446304160998045
-0.416924763930058,-0.44954929071561
-0.422096582096003,-0.452747936787881
-0.427321814552889,-0.455899669810169
-0.432600648350963,-0.459004060377792
-0.437933270540474,-0.46206067908606
-0.443319868171668,-0.46506909653029
-0.448760628294793,-0.468028883305794
-0.454255737960095,-0.470939610007887
-0.459805384217821,-0.473800847231883
-0.46540975411822,-0.476612165573095
-0.471069034711538,-0.479373135626838
-0.476783413048023,-0.482083327988426
-0.482553076177921,-0.484742313253173
-0.488378211151481,-0.487349662016392
-0.494259005018948,-0.489904944873398
-0.500195644830571,-0.492407732419504
-0.506188317636596,-0.494857595250026
-0.512237210487271,-0.497254103960275
-0.518342510432842,-0.499596829145568
-0.524504404523559,-0.501885341401217
-0.530723079809666,-0.504119211322537
-0.536998723341412,-0.506298009504841
-0.543331522169043,-0.508421306543444
-0.549721663342808,-0.510488673033659
-0.556169333912953,-0.512499679570801
-0.562674720929725,-0.514453896750183
-0.569238011443372,-0.516350895167121
-0.575859392504141,-0.518190245416926
-0.582539051162279,-0.519971518094914
-0.589277174468033,-0.521694283796399
-0.596073949471651,-0.523358113116694
-0.602929563223379,-0.524962576651113
-0.609844202773465,-0.526507244994971
-0.616818055172157,-0.527991688743582
-0.6238513074697,-0.529415478492259
-0.630944146716343,-0.530778184836316
