-0.647915366868641,0.00391311850360339
-0.517736263311751,0.0987747440607159
-0.497675437899181,0.0876376459864174
-0.478017419017532,0.0767147209488201
-0.458759254503165,0.0660049364757994
-0.439897992192441,0.0555072600952308
-0.421430679921724,0.0452206593349899
-0.496065176731332,-0.0806881518250928
-0.385666096845754,0.0252765547869922
-0.368362921713226,0.0156169860549864
-0.351441887966151,0.00616436305480978
-0.334900043440891,-0.00308234668566205
-0.318734435973809,-0.0121241756385537
-0.302942113401266,-0.0209621562759899
-0.287520123559625,-0.029597321070095
-0.176276513315033,0.0668122832499313
-0.257775333414492,-0.0462633330168105
-0.354540097089335,-0.163694621190004
-0.229476448229308,-0.0621304712556968
-0.215861839587601,-0.0697670439150154
-0.202599850694966,-0.0772069955637504
-0.189687529387766,-0.0844513586740264
-0.177121923502363,-0.0915011657179678
-0.164900080875118,-0.0983574491676994
-0.153019049342393,-0.105021241495346
-0.141475876740551,-0.111493575173031
-0.130267610905952,-0.11777548267288
-0.11939129967496,-0.123867996467018
-0.00875299550108936,-0.025078004861731
-0.0986227323692411,-0.135488972826656
-0.0887245719672385,-0.141019500336407
-0.0791465575142894,-0.146364764028943
-0.069885736846756,-0.151525796376391
-0.0609391578010002,-0.156503629850875
0.063365263732856,-0.060536375174439
-0.0439769159202688,-0.165913830069447
-0.035955348758017,-0.170348261757786
-0.0282362145629905,-0.174603624461658
0.0893965119912535,-0.08853082692902
-0.0136934364200606,-0.182581272804503
-0.00686388814488102,-0.186305623387725
-0.000324964182374335,-0.189855034874979
0.00592628763109754,-0.19323053973839
0.0118928194591728,-0.196433170450082
-0.0992958495121487,-0.317659913311052
-0.0813703858559029,-0.295254220727334
0.0281136166673995,-0.205014142396093
0.0329707901902689,-0.207535601222157
0.0375580045459321,-0.209889348257125
0.0418782118980272,-0.212076415973121
0.0459343644101922,-0.214097836842271
0.0497294142460652,-0.215954643336699
0.0532663135692843,-0.21764786792853
0.0565480145434876,-0.219178543089887
0.0595774693323132,-0.220547701292897
0.0623576300993992,-0.221756375009682
0.0648914490083836,-0.222805596712368
0.0671818782229046,-0.22369639887308
0.0692318699066002,-0.224429813963941
0.0710443762231085,-0.225006874457077
0.0726223493360675,-0.225428612824612
0.169171747879834,-0.123071710415777
0.0750865046058904,-0.225810253071378
0.0759785910900305,-0.225772219894857
0.0766479530251736,-0.225582994481234
0.0770975425749581,-0.225243609302633
0.187515853810984,-0.106012987319659
0.0773492131730029,-0.224118489538994
0.0771571985485395,-0.223334819898206
0.191248832425724,-0.112651898546905
0.0761522302708315,-0.221330423459314
0.075345180944863,-0.22011176160546
0.0743390243790025,-0.2187501672915
-0.0379015207808665,-0.308849068932463
0.0717411981821572,-0.215602311171759
0.0701554328784486,-0.213818114310228
-0.0359098803735421,-0.302840007054268
0.0664249586786501,-0.209834345344466
0.170868836955964,-0.112800739600657
0.0619689074465969,-0.205303625869269
0.0594761708525701,-0.202835740870943
0.056810896491394,-0.200234215661633
0.0539760365267064,-0.197500082713462
0.0509745431221457,-0.194634374498555
0.0478093684413499,-0.191638123489037
0.044483464647957,-0.188512362157032
0.0409997839056052,-0.185258122974665
0.0373612783779325,-0.18187643841406
0.033570900228577,-0.178368340947342
0.126739048091939,-0.0779402539122326
0.02554633471937,-0.170977037184065
0.0213180516867946,-0.167095895831756
0.0169497046870889,-0.163092471461831
0.0124442458838907,-0.158967796546416
0.00780462744083832,-0.154722903557635
0.104885040480846,-0.049536400935904
-0.00186527971027692,-0.145876593248475
-0.00688966409106359,-0.141277240872345
-0.0120363994571522,-0.136561800311347
-0.0173025336449046,-0.131731304037606
-0.0226851144906828,-0.126786784523247
-0.0281811898308486,-0.121729274240394
-0.033787807501764,-0.116559805661172
-0.039502015339791,-0.111279411257706
-0.0453208611812913,-0.105889123502119
-0.051241392862627,-0.100389974866537
-0.0572606582201598,-0.094782997823084
-0.0633757050902518,-0.0890692248438847
-0.0695835813092649,-0.0832496884010635
-0.0758813347135609,-0.0773254209667452
-0.0822660131395018,-0.0712974550130542
-0.0887346644234495,-0.0651668230121151
-0.207449997695066,-0.174353273221531
-0.101912076910813,-0.052601690756991
-0.108614933786953,-0.0461692554470551
-0.115389954866547,-0.0396382839783694
-0.122234187985957,-0.0330098088230584
-0.129144680981546,-0.0262848624532467
-0.136118481689675,-0.0194644773410589
-0.143152637946706,-0.0125496859586196
-0.150244197589001,-0.0055415207780533
-0.157390208452922,0.00155898572851541
-0.164587718374831,0.00875080108896202
-0.171833775191089,0.0160328928311619
-0.179125426738059,0.0234042284829905
-0.186459720852103,0.0308637755723233
-0.193833705369583,0.0384105016270356
-0.104276937826733,0.143091766337916
-0.208688936960296,0.0537613607441008
-0.216164279706253,0.0615634288622045
-0.223667504201093,0.0694485460571896
-0.231195658281179,0.0774156798569313
-0.238745789782872,0.0854637977893053
-0.246314946542533,0.0935918673821869
-0.253900176396525,0.101798856163452
-0.26149852718121,0.110083731660975
-0.26910704673295,0.118445461402632
-0.276722782888106,0.126883012916298
-0.191530171821838,0.234901080752472
-0.291964096354116,0.143981451371161
-0.299583769337693,0.152640273368108
-0.307198850270135,0.161370787248566
-0.314806386987803,0.170171960540411
-0.322403427327058,0.179042760771518
-0.44340748201871,0.0930013842129441
-0.337554210215782,0.196989112163019
-0.345102048437973,0.206062598379164
-0.3526275816272,0.215201581646073
-0.360127857619825,0.224405029491621
-0.367599924252209,0.233671909443683
-0.375040829360714,0.243001189030136
-0.493234556807552,0.142885267187962
-0.389817346351538,0.261842817217713
-0.397147053906579,0.271353100874588
-0.404433791283189,0.280921654277355
-0.411674606317731,0.290547444953889
-0.418866546846565,0.300229440432066
-0.426006660706054,0.309966608239761
-0.43309199573256,0.319757915904849
-0.440119599762445,0.329602330955206
-0.44708652063207,0.339498820918707
-0.453989806177798,0.349446353323228
-0.46082650423599,0.359443895696645
-0.467593662643008,0.369490415566832
-0.572630213783427,0.275330219178819
-0.480907551848972,0.38972625790902
-0.48744837832064,0.399913515436771
-0.493907856486583,0.410145620572795
-0.407376705186393,0.519509298382099
-0.506570959246738,0.430740243781162
-0.512768679513674,0.441100696909256
-0.62864376847086,0.336116492537259
-0.640841067957338,0.352695898711851
-0.53079108989826,0.472422232723683
-0.536598469342254,0.482939361898125
-0.542300883171417,0.493493078903844
-0.547895379222112,0.504082351268714
-0.5533790053307,0.51470614652061
-0.558748809333542,0.525363432187409
-0.564001839067002,0.536053175796985
-0.472103436506626,0.658165608435958
-0.57414576707122,0.557525906955972
-0.579030761014701,0.568306829561134
-0.583787172034248,0.579116080220575
-0.588412047966221,0.589952626462171
-0.592902436646983,0.600815435813796
-0.597255385912894,0.611703475803328
-0.601467943600318,0.62261571395864
-0.605537157545616,0.633551117807609
-0.60946007558515,0.64450865487811
-0.613233745555283,0.655487292698018
-0.616855215292374,0.666485998795209
-0.620321532632788,0.677503740697559
-0.623629745412886,0.688539485932941
-0.626776901469029,0.699592202029233
-0.528359359971141,0.81303254413639
-0.735881620780459,0.610006792912388
-0.751178368129268,0.627737993056405
-0.637695915181297,0.743952125581001
-0.639993505163097,0.75507420889997
