-0.524994516718736,-0.604280445441843
-0.956132531121573,0.83403835915227
-0.818976155262742,0.442136230945769
0.44680970779455,-0.0180832392815133
1.71259557085184,-0.478302709508796
-0.249077833563694,0.124077954559063
0.715632151984036,-0.858007806190786
