0.282080954578381,-0.0457350989528881
0.351046587899733,-0.0117081904992176
0.31810813363519,-0.0142297964943835
0.324713052750369,-0.0124506148386147
0.281702204621232,-0.0118711902373692
0.30332455126851,-0.0785582874205489
0.311727930008545,-0.0491740103943959
0.280115670446117,-0.0203806375452773
0.341783713077817,-0.0833083175135324
0.302790175634687,-0.0492653461103124
0.344278840648252,-0.0418127255261008
0.324605618265569,-0.0627860638439646
0.296910815523123,-0.0635671937424561
0.246933344795691,-0.0460875937351697
0.252912885801194,-0.0676717494090226
0.306454257910353,-0.0582865058134978
0.283320367181841,-0.0639728659537444
0.288157461802173,-0.0638179665417159
0.28029907364175,-0.0576031092740465
0.249929824060278,-0.1452142534245
0.273226596332973,-0.079648763036024
0.281659704078717,-0.103984132193076
0.280181035681457,-0.108249519176259
0.319637790834507,-0.133323983427365
0.277350405080902,-0.116647855472925
0.258898003768149,-0.0743387676711295
0.262062118768688,-0.0882449089317442
0.227672195951557,-0.13838047393541
0.272189357084175,-0.132921293696249
0.238903979065023,-0.158393532378201
0.224389449317514,-0.182943007006608
0.268748819622544,-0.144675873137369
0.220514936953371,-0.161271875340743
0.288634226002279,-0.13905940474622
0.308280485574929,-0.205076883451097
0.214768436121223,-0.158930652565131
0.232407976589361,-0.116895788796776
0.30921382114579,-0.216477452898653
0.262116493164783,-0.170639572880006
0.272915466450325,-0.202194282896344
0.213355883106402,-0.208201277015598
0.281197433023246,-0.21728069731321
0.259179580597081,-0.184579855856413
0.267332485168826,-0.156832285097608
0.257937618160115,-0.191311652690997
0.26512241611831,-0.16942458816766
0.294638915150486,-0.241396324006288
0.236392099343174,-0.192103477447337
0.229654751051338,-0.223271657880639
0.255478167603129,-0.2074609060787
0.279045337603811,-0.21716296371685
0.268777611905073,-0.194280130539428
0.254435650248251,-0.216693317730443
0.290030971129272,-0.199035223153519
0.223773760798457,-0.198677320964302
0.256942479667602,-0.269191429848809
0.253537749107975,-0.228482902105985
0.253399578567712,-0.231338939375751
0.236012412415979,-0.236501189471194
0.253225150288081,-0.236943012403538
0.259347483505883,-0.237211414714223
0.211656971087689,-0.218624706426256
0.253214747957579,-0.245082609045561
0.253277333360918,-0.247725668720915
0.253372551641755,-0.250334046669133
0.253500166672536,-0.252907975615527
0.301642923001149,-0.293487116713104
0.29871995092631,-0.292749390009793
0.284305500108061,-0.247810712435436
0.214291794287243,-0.312262768973071
0.258035770302517,-0.227036074472764
0.214214834316897,-0.2659920555485
0.297355828927429,-0.296164112723567
0.243809721383931,-0.31134721055798
0.277985720963753,-0.293570430211496
0.225070037975845,-0.316120997515518
0.295782693453113,-0.321249466091396
0.257472543108298,-0.2811928128443
0.289657497710744,-0.320233043664735
0.246640000571341,-0.273511678527086
0.216819016785557,-0.282831896559886
0.259755285074242,-0.289595678365996
0.260397517338467,-0.291619581254416
0.234820083392487,-0.327472033081561
0.29436427221726,-0.274440923164028
0.262492148344871,-0.297510661143887
0.297391096892749,-0.253774857513951
0.264026152918381,-0.301289851010183
0.254003460463024,-0.324184851896585
0.232231513191611,-0.27802346827359
0.303169448667893,-0.346944663663942
0.267415862839671,-0.308500936710029
0.24772814242421,-0.270097462519166
0.219392263753932,-0.354363706246053
0.262752249331065,-0.313813191280795
0.271221913657156,-0.315261375716284
0.281135174179581,-0.304773767069042
0.27327634435091,-0.318477257215592
0.274340584572605,-0.32004492800289
0.27542919320744,-0.321586062449034
0.236047246117359,-0.309678899488693
0.277678571206321,-0.324589653219122
0.29431604759859,-0.345009125972367
0.285530804243944,-0.32312042532283
0.258365836324419,-0.331680598495714
0.282459358549438,-0.330288638579277
0.305855539532664,-0.330490731071095
0.241891996562347,-0.371332451716207
0.285537463428945,-0.376770138661321
0.287603594216865,-0.335589107716141
0.286843913654492,-0.324923070400219
0.290307282621133,-0.338094553207116
0.29169119301947,-0.339311893221838
0.300798176760982,-0.376808027691499
0.281817969529413,-0.33905547268282
0.247697776608736,-0.359367537018546
0.293392461041293,-0.374337779427588
0.298921961871065,-0.345054075000342
0.293977153415126,-0.303247684005735
0.283709745395428,-0.389890183829872
0.281506163552398,-0.354531770937422
0.270009026112935,-0.338251517374955
0.309354407961633,-0.382396972066244
0.357329470593517,-0.38138354117476
0.309873470256382,-0.352170834271073
0.264113703552754,-0.366741489451192
0.275751559760175,-0.356172529415962
0.311281371094823,-0.328493514929642
0.336201358837969,-0.39031535464221
0.367846695867355,-0.339226922150712
0.340714800727125,-0.35085832379422
0.356848748922412,-0.371894486422165
0.281001183364683,-0.33667970625273
0.325255141881765,-0.359857169373032
0.369825154783183,-0.34160784468816
0.322007278120992,-0.320128761018123
0.309372000004116,-0.341951353130339
0.318823834566674,-0.335354618568727
0.334375172500216,-0.363472811595256
0.328432435610318,-0.372470395260933
0.31622941767527,-0.374986911486311
0.333490882717568,-0.317296638870252
0.324772580740204,-0.407812909747986
0.343868285894126,-0.366657770602507
0.345809081102879,-0.367245640396613
0.31497845464345,-0.378639086806368
0.312282666591283,-0.402373237848055
0.351711561493127,-0.368915194819889
0.360287737602718,-0.359698918267659
0.35085698248107,-0.360504492592302
0.40693920591951,-0.375074100637303
0.352252722383381,-0.34020372334212
0.389044871727134,-0.412563302136544
0.363855697231794,-0.371852001629007
0.36592093215766,-0.372292034295077
0.322986270031086,-0.356404691429868
0.370084601692347,-0.373131821181796
0.360652633914795,-0.367255004260164
0.370890768324655,-0.328724418283254
0.37250158719936,-0.330498895581447
0.399774878379969,-0.33107501887575
0.380676421060493,-0.375007191314966
0.398577600846321,-0.378876011089612
0.404860413877481,-0.384642669558218
0.387147310229381,-0.375988055835789
0.392997060002979,-0.364378773886046
0.362842335027114,-0.39502775774487
0.427044259890228,-0.404433080682016
0.419795171537009,-0.417119105903773
0.359281991258932,-0.347826901264162
0.400319880978471,-0.377654303759053
0.402879434423705,-0.341439750234972
0.404772194423298,-0.378128996381678
0.407008811670809,-0.378352254328441
0.409252087764981,-0.378566430332589
0.400157402138161,-0.399339855047412
0.413938772853464,-0.369622686065719
0.416019507851935,-0.379156793942486
0.418287058057222,-0.379336969429314
0.37866418275482,-0.334100686890572
0.410543252135163,-0.330974260486082
0.425121633416246,-0.379830916894783
0.427409679691798,-0.379980815469313
0.457803947247606,-0.386449644371079
0.399725360640738,-0.358611408331028
0.48357421516296,-0.350625195923292
0.404151112461387,-0.342096015817081
0.438913193998754,-0.38063015162639
0.463185294079238,-0.404960575179962
0.402927228060946,-0.404142647441292
0.443267727611543,-0.372998316207547
0.496388684692208,-0.415256829216813
0.476208459202307,-0.396779908891225
0.43804099329264,-0.395761890937833
0.45515233101558,-0.381301139449811
0.477629829928836,-0.375888523748619
0.459810927874677,-0.38145160697758
0.462142186237414,-0.381521130488213
0.419605679451352,-0.401404451426688
0.466807442191497,-0.381649920629545
0.451692418931954,-0.364173751008556
0.482355473939381,-0.399533103938493
0.51135339467136,-0.404425398926184
0.492173454056243,-0.422641746732712
0.522379520560348,-0.38619698865558
0.524074577412289,-0.355806804910628
0.465719399525308,-0.417852518411634
0.518714835462291,-0.420882210876887
0.45306560806371,-0.428904340568106
0.490127113370325,-0.382149242319138
0.502325099201891,-0.346706867937792
0.537369055813256,-0.36378146769051
0.471319209208419,-0.354342999696773
0.473128097874424,-0.33833823343475
0.524253724242284,-0.423021985087861
0.543328754374985,-0.42519900662598
0.541863093702913,-0.390483677787924
0.548184094754818,-0.363927878427667
0.473938019171845,-0.394732386201657
0.513262610024261,-0.382578180877095
0.515556939179992,-0.382626163585234
0.48157910399475,-0.367481364742201
0.565835663308057,-0.393277524617947
0.52241234724698,-0.38278217949372
0.544029481255832,-0.40752981142578
0.4866965413803,-0.408188549678909
0.50005152828813,-0.381590539547179
0.51686276736924,-0.371784514260322
0.524845654098939,-0.402640042279936
0.506282498424086,-0.429630146467987
0.523823300387949,-0.391753117723351
0.540449628041416,-0.383327678654771
0.577268521363242,-0.380282039509885
0.518918379293036,-0.379060773043038
0.575683924392806,-0.419897848096491
0.55363051181045,-0.373554195306577
0.531653607742569,-0.416993377539105
0.580703598088942,-0.433143957910906
0.53953973272283,-0.358680092235239
0.589209240442269,-0.41479166832296
0.574838351279739,-0.364582102190706
0.545850952672687,-0.398752690647632
0.564490894181472,-0.38456354492047
0.597605608790826,-0.387407946825139
0.546639164106112,-0.351997073147954
0.593698140149253,-0.343868709226102
0.603924266252349,-0.336538203668841
0.548362763071938,-0.376120357999883
0.577133051238562,-0.385573653447051
0.619141730414256,-0.38682039704202
0.581261216526278,-0.385974853533284
0.53914689543539,-0.434948954753306
0.614155715808033,-0.370061159459509
0.560014005456533,-0.345034003173593
0.589377382382194,-0.386885170386874
0.591375845452214,-0.387136589806503
0.548688990358431,-0.405743217775251
0.622193018446772,-0.367472715125308
0.598965525759955,-0.362772115404063
0.610297939668683,-0.352919370580291
0.574301344190736,-0.404674824982381
0.574579575772634,-0.435545895465092
0.564257332458697,-0.362481945485917
0.606886385241086,-0.389527549282225
0.608762015204988,-0.389877360611234
0.636518778165654,-0.341893221314168
0.612468552723238,-0.390613504177401
0.592114748573062,-0.419822459556008
0.629901870277439,-0.434383660475039
0.642431967791528,-0.399414232389251
0.619696126550032,-0.392238391251115
0.643565611406551,-0.408818712444387
0.64041039857052,-0.398243255600691
0.624947055343715,-0.393597912352495
0.58856301212837,-0.381332154541991
0.628363298542201,-0.394574824821739
0.669447156606323,-0.374600862671928
0.654226438125111,-0.347231585269978
0.593042237858369,-0.405461566172416
0.634984781953738,-0.396706384035501
0.656345934863521,-0.374684059866161
0.661742852637538,-0.397054425666072
0.660451264171964,-0.433812834560609
0.617195673017599,-0.406632799985577
0.642846525097339,-0.399723284657237
0.617020374921042,-0.446393623121157
0.635620942516057,-0.37066893671429
0.642001287953205,-0.373081949700094
0.622548485878669,-0.451269127750416
0.629894644881099,-0.397898331706039
0.651632826179538,-0.403898894100085
0.659446959424717,-0.418483359046765
0.654396367284463,-0.405433456863857
0.655746095402472,-0.406228540437685
0.657074147060775,-0.407042469106558
0.658380286131819,-0.407875475595792
0.659664276488051,-0.408727792630699
0.660925882001918,-0.409599652936595
0.668659921705371,-0.365904482059461
0.645359016601245,-0.44432434472848
0.664574028213797,-0.412334820733345
0.665743733082672,-0.413287181376329
0.687225866130621,-0.457962163017674
0.668012210252479,-0.415254256080282
0.704005464803096,-0.460386185765114
0.670184536481339,-0.417306020176973
0.631863119860155,-0.397431197370152
0.672258822748828,-0.419444335468913
0.667729466018963,-0.40440338408299
0.629457112341063,-0.387269605244848
0.699169743725894,-0.3907859610279
0.659538589289813,-0.415354653837831
0.70555607446435,-0.421270689818887
0.677874551578824,-0.426397206541334
0.641162960382695,-0.408004456929917
0.722584791639118,-0.392759615659308
0.648118878845592,-0.394323096333486
0.728723512877647,-0.418351197274974
0.681830517310292,-0.432835371489355
0.6825399160212,-0.43419606326138
0.634596950876301,-0.470257129527258
0.68549240019887,-0.412963293915101
0.684500272987199,-0.438428445197947
0.685096991828447,-0.439890117134679
0.706220323338965,-0.435691053651824
0.686203912524495,-0.442891174296841
0.68671364212419,-0.444431024972899
0.685670163714779,-0.3973375122074
0.638586275965018,-0.463033357600331
0.689938924497418,-0.479483036502436
0.654146961926451,-0.4963944934902
0.688815537537248,-0.452532808315507
0.689144913209905,-0.454235300053689
0.659473255313242,-0.459067821548682
0.689710772124839,-0.457724280402226
0.661135571611885,-0.484278499478642
0.711376130623978,-0.502953469494303
0.643771611632481,-0.496460562354919
0.670834505113074,-0.496816499877487
0.644812766730904,-0.426384452106583
0.642033586905415,-0.468926329820265
0.681545083570963,-0.468625345162283
0.643733617654329,-0.460166844681099
0.655020286334281,-0.496315432128203
0.690620824928133,-0.476909628169935
0.690530272006072,-0.478993250452313
0.690405763991545,-0.481107819546057
0.669704359483291,-0.511241469259682
0.690053938174883,-0.485430729068898
0.733759625376363,-0.528194193355507
0.64239648044282,-0.482420433362713
0.735700701333293,-0.525005015100323
0.738815803029365,-0.473450221989303
0.693190620077838,-0.530358900593809
0.688158981240217,-0.499166384542839
0.640319475950313,-0.518188229836584
0.720272090671638,-0.4654842555777
0.686727607248873,-0.506477128567142
0.724578471757521,-0.472921095222526
0.685589808351723,-0.511519267616814
0.70262471245867,-0.552048761083697
0.682258666169441,-0.507942334378783
0.686976698694334,-0.563202044698452
0.665872608872969,-0.513311237692146
0.68208911350803,-0.524727274834778
0.703533877011981,-0.47919799114226
0.680421397851611,-0.530256428791068
0.679529287430559,-0.533074640470991
0.685408033074209,-0.500400609645213
0.695041286343259,-0.495999364894992
0.725884202246821,-0.493281342653886
0.63607058636272,-0.557889553373816
0.674476764294749,-0.547711354900935
0.673346212568606,-0.550749458070186
0.632814933809707,-0.595546971959453
0.635897204450473,-0.533598437870136
0.669710212896259,-0.560089477200117
0.621315465995643,-0.575018016450596
0.646229425425293,-0.587721469875286
0.675241911104461,-0.604284817821834
0.664283260752009,-0.573078180236816
0.662821564142774,-0.576422504676082
0.661317411849162,-0.579806154038012
0.617245670647644,-0.584289857046961
0.646190497681995,-0.565017186909713
0.656547859586547,-0.590195378912923
0.614024838475552,-0.611756385753386
0.65315155065112,-0.597322420073604
0.659761075367153,-0.581247003774707
0.69102386059641,-0.61389729245774
0.624172886408363,-0.55838449386896
0.65883250179531,-0.607333982805812
0.627017835638026,-0.648624056956792
0.641902128970494,-0.619688301354821
0.63987009051524,-0.623562002363198
0.679906323526915,-0.620390153483467
0.622735354812993,-0.678309679716256
0.679171334641336,-0.604637781913133
0.613134923632383,-0.625060277990389
0.632918878948886,-0.690395196492051
