-0.723535478203197,-0.354396593723091
-0.722251609159786,-0.356309296019365
-0.720986433569158,-0.358164182554867
-0.71973983154027,-0.359961572545481
-0.718511683182079,-0.361701785207093
-0.717301868603542,-0.363385139755584
-0.716110267913616,-0.365011955406841
-0.714936761221259,-0.366582551376745
-0.713781228635429,-0.368097246881183
-0.712643550265083,-0.369556361136037
-0.711523606219177,-0.370960213357191
-0.710421276606669,-0.372309122760529
-0.709336441536517,-0.373603408561937
-0.708268981117678,-0.374843389977296
-0.707218775459109,-0.376029386222492
-0.706185704669766,-0.377161716513409
-0.705169648858609,-0.37824070006593
-0.704170488134594,-0.379266656095939
-0.703188102606678,-0.380239903819321
-0.702222372383818,-0.381160762451959
-0.701273177574973,-0.382029551209737
-0.700340398289098,-0.38284658930854
-0.699423914635153,-0.383612195964251
-0.698523606722092,-0.384326690392755
-0.697639354658875,-0.384990391809935
-0.696771038554459,-0.385603619431675
-0.6959185385178,-0.386166692473859
-0.695081734657856,-0.386679930152372
-0.694260507083584,-0.387143651683097
-0.693454735903942,-0.387558176281919
-0.692664301227887,-0.387923823164721
-0.691889083164376,-0.388240911547387
-0.691128961822367,-0.388509760645801
-0.690383817310816,-0.388730689675847
-0.689653529738681,-0.38890401785341
-0.68893797921492,-0.389030064394373
-0.68823704584849,-0.38910914851462
-0.687550609748347,-0.389141589430036
-0.68687855102345,-0.389127706356504
-0.686220749782756,-0.389067818509907
-0.685577086135221,-0.388962245106131
-0.684947440189804,-0.38881130536106
-0.684331692055461,-0.388615318490576
-0.68372972184115,-0.388374603710564
-0.683141409655828,-0.388089480236909
-0.682566635608453,-0.387760267285494
-0.682005279807981,-0.387387284072203
-0.681457222363371,-0.38697084981292
-0.680922343383578,-0.386511283723529
-0.680400522977562,-0.386008905019914
-0.679891641254278,-0.38546403291796
-0.679395578322685,-0.384876986633549
-0.678912214291739,-0.384248085382567
-0.678441429270398,-0.383577648380896
-0.677983103367619,-0.382865994844422
-0.677537116692359,-0.382113443989028
-0.677103349353577,-0.381320315030597
-0.676681681460228,-0.380486927185015
-0.676271993121271,-0.379613599668165
-0.675874164445662,-0.378700651695931
-0.67548807554236,-0.377748402484196
-0.67511360652032,-0.376757171248846
-0.674750637488502,-0.375727277205764
-0.67439904855586,-0.374659039570833
-0.674058719831355,-0.373552777559939
-0.673729531423942,-0.372408810388965
-0.673411363442578,-0.371227457273794
-0.673104095996221,-0.370009037430311
-0.67280760919383,-0.368753870074401
-0.672521783144359,-0.367462274421946
-0.672246497956768,-0.366134569688831
-0.671981633740013,-0.36477107509094
-0.671727070603051,-0.363372109844157
-0.671482688654841,-0.361937993164366
-0.671248368004338,-0.360469044267451
-0.671023988760501,-0.358965582369295
-0.670809431032287,-0.357427926685783
-0.670604574928653,-0.3558563964328
-0.670409300558557,-0.354251310826228
-0.670223488030955,-0.352612989081951
-0.670047017454805,-0.350941750415855
-0.669879768939064,-0.349237914043822
-0.66972162259269,-0.347501799181737
-0.66957245852464,-0.345733725045484
-0.669432156843872,-0.343934010850947
-0.669300597659341,-0.34210297581401
-0.669177661080007,-0.340240939150556
-0.669063227214825,-0.33834822007647
-0.668957176172754,-0.336425137807635
-0.668859388062751,-0.334472011559937
-0.668769742993773,-0.332489160549258
-0.668688121074777,-0.330476903991482
-0.668614402414721,-0.328435561102495
-0.668548467122562,-0.326365451098179
-0.668490195307257,-0.324266893194419
-0.668439467077763,-0.322140206607098
-0.668396162543039,-0.319985710552101
-0.66836016181204,-0.317803724245312
-0.668331344993725,-0.315594566902614
-0.668309592197051,-0.313358557739892
-0.668294783530974,-0.31109601597303
-0.668286799104454,-0.308807260817911
-0.668285519026445,-0.30649261149042
-0.668290823405907,-0.30415238720644
-0.668302592351796,-0.301786907181856
-0.668320705973069,-0.299396490632552
-0.668345044378685,-0.296981456774411
-0.668375487677599,-0.294542124823317
-0.66841191597877,-0.292078813995155
-0.668454209391155,-0.289591843505809
-0.668502248023711,-0.287081532571162
-0.668555911985395,-0.284548200407099
-0.668615081385165,-0.281992166229503
-0.668679636331978,-0.279413749254259
-0.668749456934791,-0.27681326869725
-0.668824423302562,-0.27419104377436
-0.668904415544248,-0.271547393701474
-0.668989313768805,-0.268882637694476
-0.669078998085193,-0.266197094969248
-0.669173348602367,-0.263491084741677
-0.669272245429285,-0.260764926227644
-0.669375568674905,-0.258018938643036
-0.669483198448183,-0.255253441203734
-0.669595014858077,-0.252468753125624
-0.669710898013545,-0.249665193624589
-0.669830728023543,-0.246843081916514
-0.669954384997029,-0.244002737217282
-0.67008174904296,-0.241144478742777
-0.670212700270294,-0.238268625708884
-0.670347118787988,-0.235375497331486
-0.670484884704999,-0.232465412826467
-0.670625878130284,-0.229538691409712
-0.670769979172801,-0.226595652297104
-0.670917067941507,-0.223636614704527
-0.671067024545359,-0.220661897847866
-0.671219729093315,-0.217671820943004
-0.671375061694331,-0.214666703205825
-0.671532902457367,-0.211646863852213
-0.671693131491377,-0.208612622098052
-0.67185562890532,-0.205564297159227
-0.672020274808154,-0.202502208251621
-0.672186949308835,-0.199426674591119
-0.672355532516321,-0.196338015393603
-0.672525904539568,-0.193236549874958
-0.672697945487536,-0.190122597251069
-0.672871535469179,-0.186996476737819
-0.673046554593457,-0.183858507551092
-0.673222882969326,-0.180709008906773
-0.673400400705743,-0.177548300020744
-0.673578987911667,-0.174376700108891
-0.673758524696053,-0.171194528387096
-0.67393889116786,-0.168002104071245
-0.674119967436045,-0.164799746377221
-0.674301633609565,-0.161587774520908
-0.674483769797377,-0.15836650771819
-0.674666256108439,-0.155136265184951
-0.674848972651708,-0.151897366137076
-0.675031799536141,-0.148650129790447
-0.675214616870695,-0.145394875360949
-0.675397304764329,-0.142131922064467
-0.675579743325999,-0.138861589116883
-0.675761812664662,-0.135584195734083
-0.675943392889276,-0.132300061131949
-0.676124364108798,-0.129009504526367
-0.676304606432185,-0.125712845133219
-0.676483999968395,-0.122410402168391
-0.676662424826386,-0.119102494847765
-0.676839761115113,-0.115789442387226
-0.677015888943535,-0.112471564002659
-0.677190688420609,-0.109149178909946
-0.677364039655292,-0.105822606324972
-0.677535822756542,-0.102492165463621
-0.677705917833315,-0.0991581755417772
-0.67787420499457,-0.0958209557753241
-0.678040564349263,-0.092480825380146
-0.678204876006351,-0.0891381035721266
-0.678367020074793,-0.0857931095671502
-0.678526876663545,-0.0824461625811008
-0.678684325881564,-0.0790975818298621
-0.678839247837809,-0.0757476865293181
-0.678991522641236,-0.0723967958953532
-0.679141030400802,-0.0690452291438511
-0.679287651225465,-0.0656933054906956
-0.679431265224182,-0.062341344151771
-0.679571752505911,-0.0589896643429613
-0.679708993179609,-0.0556385852801505
-0.679842867354232,-0.0522884261792222
-0.679973255138739,-0.0489395062560608
-0.680100036642086,-0.0455921447265502
-0.680223091973231,-0.0422466608065743
-0.680342301241132,-0.0389033737120171
-0.680457544554745,-0.0355626026587626
-0.680568702023028,-0.032224666862695
-0.680675653754938,-0.028889885539698
-0.680778279859433,-0.0255585779056556
-0.680876460445469,-0.022231063176452
-0.680970075622005,-0.0189076605679711
-0.681059005497996,-0.0155886892960969
-0.681143130182402,-0.0122744685767133
-0.681222329784178,-0.00896531762570432
-0.681296484412283,-0.00566155565895411
-0.681365474175673,-0.00236350189234637
-0.681429179183306,0.000928524458234575
-0.681487479544139,0.00421420417690506
-0.68154025536713,0.00749321804778079
-0.681587386761236,0.0107652468549781
-0.681628753835413,0.0140299713826126
-0.68166423669862,0.0172870724148007
-0.681693715459814,0.0205362307356581
-0.681717070227951,0.0237771271293012
-0.68173418111199,0.0270094423798454
-0.681744928220888,0.0302328572714073
-0.681749191663601,0.0334470525881026
-0.681746851549088,0.0366517091140475
-0.681737787986305,0.0398465076333576
-0.68172188108421,0.0430311289301495
-0.68169901095176,0.0462052537885387
-0.681669057697912,0.0493685629926416
-0.681631901431624,0.0525207373265739
-0.681587422261853,0.0556614575744518
-0.681535500297557,0.0587904045203912
-0.681476015647692,0.0619072589485082
-0.681408848421216,0.0650117016429187
-0.681333878727086,0.0681034133877389
-0.681250986674259,0.0711820749670845
-0.681160052371694,0.0742473671650719
-0.681060955928346,0.0772989707658168
-0.680953577453174,0.0803365665534354
-0.680837797055135,0.0833598353120435
-0.680713494843186,0.0863684578257574
-0.680580550926284,0.0893621148786927
-0.680438845413387,0.0923404872549659
-0.680288258413451,0.0953032557386926
-0.680128670035435,0.0982501011139891
-0.679959960388296,0.101180704164971
-0.67978200958099,0.104094745675755
-0.679594697722475,0.106991906430456
-0.679397904921709,0.109871867213192
-0.679191511287649,0.112734308808077
-0.678975396929252,0.115578911999227
-0.678749441955475,0.11840535757076
-0.678513526475275,0.12121332630679
-0.678267530597611,0.124002498991434
-0.678011334431439,0.126772556408808
-0.677744818085716,0.129523179343027
-0.677467861669401,0.132254048578208
-0.677180345291449,0.134964844898467
-0.676882149060819,0.13765524908792
-0.676573153086468,0.140324941930683
-0.676253237477352,0.142973604210872
-0.67592228234243,0.145600916712602
-0.675580167790659,0.14820656021999
-0.675226773930996,0.150790215517152
-0.674861980872398,0.153351563388204
-0.674485668723823,0.155890284617262
-0.674097717594227,0.158406059988442
-0.673698007592569,0.160898570285859
-0.673286418827805,0.163367496293631
-0.672862831408893,0.165812518795872
-0.67242712544479,0.1682333185767
-0.671979181044454,0.170629576420229
-0.671518878316841,0.173000973110576
-0.671046097370909,0.175347189431857
-0.670560718315616,0.177667906168188
-0.670062621259918,0.179962804103685
-0.669551686312773,0.182231564022465
-0.669027793583138,0.184473866708642
-0.668490823179971,0.186689392946333
-0.667940655212228,0.188877823519654
-0.667377169788868,0.191038839212721
-0.666800247018847,0.19317212080965
-0.666209767011122,0.195277349094557
-0.665605609874652,0.197354204851558
-0.664987655718393,0.19940236886477
-0.664355784651303,0.201421521918307
-0.663709876782339,0.203411344796287
-0.663049812220457,0.205371518282824
-0.662375471074617,0.207301723162036
-0.661686733453774,0.209201640218037
-0.660983479466887,0.211070950234945
-0.660265589222911,0.212909333996875
-0.659532942830806,0.214716472287943
-0.658785420399527,0.216492045892266
-0.658022902038033,0.218235735593958
-0.657245267855281,0.219947222177137
-0.656452397960227,0.221626186425917
-0.65564417246183,0.223272309124416
-0.654820471469046,0.22488527105675
-0.653981175090834,0.226464753007033
-0.653126163436149,0.228010435759382
-0.65225531661395,0.229522000097914
-0.651368514733193,0.230999126806744
-0.650465637902837,0.232441496669988
-0.649546566231838,0.233848790471763
-0.648611179829154,0.235220688996184
-0.647659358803741,0.236556873027367
-0.646690983264558,0.237857023349428
-0.645705933320561,0.239120820746484
-0.644704089080709,0.24034794600265
-0.643685330653957,0.241538079902042
-0.642649538149264,0.242690903228776
-0.641596591675587,0.243806096766969
-0.640526371341883,0.244883341300737
-0.639438757257109,0.245922317614194
-0.638333629530223,0.246922706491458
-0.637210868270182,0.247884188716644
-0.636070353585943,0.248806445073869
-0.634911965586464,0.249689156347248
-0.633735584380702,0.250532003320897
-0.632541090077613,0.251334666778933
-0.631328362786157,0.252096827505472
-0.630097282615289,0.252818166284628
-0.628847729673967,0.253498363900519
-0.627579584071149,0.254137101137261
-0.626292725915792,0.254734058778969
-0.624987035316852,0.25528891760976
-0.623662392383288,0.255801358413749
-0.622318677224056,0.256271061975052
-0.620955769948114,0.256697709077786
-0.61957355066442,0.257080980506066
-0.61817189948193,0.257420557044009
-0.616750696509602,0.257716119475731
-0.615309821856392,0.257967348585347
-0.61384915563126,0.258173925156973
-0.612368577943161,0.258335529974727
-0.610867968901053,0.258451843822722
-0.609347208613894,0.258522547485076
-0.60780617719064,0.258547321745905
-0.606244754740249,0.258525847389325
-0.604662821371678,0.258457805199451
-0.603060257193885,0.258342875960399
-0.601436942315827,0.258180740456287
-0.599792756846461,0.257971079471228
-0.598127580894744,0.257713573789341
-0.596441294569634,0.25740790419474
-0.594733777980088,0.257053751471542
-0.593004911235064,0.256650796403862
-0.591254574443518,0.256198719775818
-0.589482647714408,0.255697202371523
-0.587689011156691,0.255145924975096
-0.585873544879325,0.254544568370651
-0.584036128991267,0.253892813342305
-0.582176643601474,0.253190340674174
-0.580294968818903,0.252436831150373
-0.578390984752512,0.251631965555019
-0.576464571511259,0.250775424672228
-0.574515609204099,0.249866889286116
-0.572543977939992,0.248906040180798
-0.570549557827893,0.247892558140392
-0.56853222897676,0.246826123949012
-0.566491871495552,0.245706418390775
-0.564428365493224,0.244533122249796
-0.562341591078734,0.243305916310193
-0.56023142836104,0.24202448135608
-0.558097757449098,0.240688498171574
-0.555940458451867,0.239297647540791
-0.553759411478303,0.237851610247847
-0.551554496637364,0.236350067076858
-0.549325594038007,0.234792698811939
-0.547072583789188,0.233179186237208
-0.544795345999867,0.231509210136779
-0.542493760779,0.229782451294769
-0.540167708235544,0.227998590495294
-0.537817068478456,0.226157308522471
-0.535441721616694,0.224258286160414
-0.533041547759215,0.22230120419324
-0.530616427014977,0.220285743405065
-0.528166239492936,0.218211584580005
-0.525690865302051,0.216078408502175
-0.523190184551277,0.213885895955693
-0.520664077349574,0.211633727724674
-0.518112423805897,0.209321584593234
-0.515535104029204,0.206949147345489
-0.512931998128454,0.204516096765555
-0.510302986212602,0.202022113637548
-0.507647948390605,0.199466878745584
-0.504966764771423,0.196850072873779
-0.502259315464011,0.194171376806249
-0.499525480577327,0.19143047132711
-0.496765140220329,0.188627037220478
-0.493978174501973,0.18576075527047
-0.491164463531218,0.1828313062612
-0.488323887417019,0.179838370976786
-0.485456326268335,0.176781630201343
-0.482561660194123,0.173660764718986
-0.47963976930334,0.170475455313833
-0.476690533704944,0.16722538277
-0.473713833507891,0.163910227871601
-0.470709548821139,0.160529671402753
-0.467677559753646,0.157083394147573
-0.464617746414368,0.153571076890176
-0.461529988912264,0.149992400414678
-0.458414167356289,0.146347045505195
-0.455270161855402,0.142634692945843
-0.452097852518561,0.138855023520739
-0.448897119454721,0.135007718013998
-0.445667842772841,0.131092457209736
-0.442409902581877,0.127108921892069
-0.439123178990788,0.123056792845114
-0.43580755210853,0.118935750852986
-0.43580755210853,0.118935750852986
-0.432493647754702,0.114807102572072
-0.429212038646223,0.110732248927092
-0.425962525238031,0.106711012104661
-0.422744907985064,0.102743214291394
-0.419558987342259,0.0988286776739072
-0.416404563764555,0.0949672244388153
-0.413281437706889,0.0911586767727337
-0.4101894096242,0.0874028568622778
-0.407128279971425,0.0836995868940628
-0.404097849203503,0.0800486890547041
-0.40109791777537,0.0764499855308168
-0.398128286141965,0.0729032985090164
-0.395188754758226,0.0694084501759182
-0.392279124079091,0.0659652627181373
-0.389399194559497,0.0625735583222892
-0.386548766654383,0.0592331591749891
-0.383727640818686,0.0559438874628524
-0.380935617507344,0.0527055653724943
-0.378172497175295,0.0495180150905302
-0.375438080277478,0.0463810588035753
-0.37273216726883,0.0432945186982449
-0.370054558604288,0.0402582169611544
-0.367405054738791,0.037271975778919
-0.364783456127276,0.0343356173381541
-0.362189563224683,0.031448963825475
-0.359623176485947,0.0286118374274968
-0.357084096366008,0.0258240603308351
-0.354572123319803,0.023085454722105
-0.35208705780227,0.0203958427879219
-0.349628700268347,0.017755046714901
-0.347196851172971,0.0151628886896576
-0.344791310971082,0.0126191908988072
-0.342411880117616,0.0101237755289649
-0.340058359067512,0.00767646476674605
-0.337730548275707,0.00527708079876597
-0.335428248197139,0.00292544581163997
-0.333151259286747,0.000621381991983343
-0.330899381999467,-0.00163528847358862
-0.328672416790239,-0.00384474339846063
-0.326470164113999,-0.00600716059601734
-0.324292424425686,-0.00812271787964349
-0.322138998180238,-0.0101915930627238
-0.320009685832592,-0.0122139639586429
-0.317904287837687,-0.0141900083807855
-0.31582260465046,-0.0161199041425363
-0.313764436725849,-0.0180038290572801
-0.311729584518793,-0.0198419609384014
-0.309717848484228,-0.0216344775992851
-0.307729029077093,-0.0233815568533158
-0.305762926752326,-0.0250833765138782
-0.303819341964864,-0.026740114394357
-0.301898075169647,-0.0283519483081369
-0.29999892682161,-0.0299190560686027
-0.298121697375693,-0.0314416154891389
-0.296266187286833,-0.0329198043831304
-0.294432197009968,-0.0343538005639617
-0.292619527000036,-0.0357437818450177
-0.290827977711975,-0.0370899260396829
-0.289057349600723,-0.0383924109613422
-0.287307443121218,-0.0396514144233801
-0.285578058728397,-0.0408671142391814
-0.283868996877198,-0.0420396882221309
-0.28218005802256,-0.0431693141856131
-0.28051104261942,-0.0442561699430128
-0.278861751122716,-0.0453004333077147
-0.277231983987387,-0.0463022820931035
-0.275621541668369,-0.0472618941125639
-0.2740302246206,-0.0481794471794806
-0.27245783329902,-0.0490551191072382
-0.270904168158565,-0.0498890877092216
-0.269369029654174,-0.0506815307988153
-0.267852218240784,-0.0514326261894041
-0.266353534373333,-0.0521425516943726
-0.264872778506759,-0.0528114851271057
-0.263409751096001,-0.0534396043009879
-0.261964252595995,-0.054027087029404
-0.26053608346168,-0.0545741111257387
-0.259125044147994,-0.0550808544033766
-0.257730935109874,-0.0555474946757025
-0.256353556802259,-0.0559742097561011
-0.254992709680086,-0.056361177457957
-0.253648194198293,-0.056708575594655
-0.252319810811819,-0.0570165819795798
-0.251007359975601,-0.057285374426116
-0.249710642144576,-0.0575151307476484
-0.248429457773684,-0.0577060287575616
-0.247163607317861,-0.0578582462692404
-0.245912891232046,-0.0579719610960695
-0.244677109971176,-0.0580473510514335
-0.243456063990189,-0.0580845939487171
-0.242249553744024,-0.0580838676013051
-0.241057379687618,-0.0580453498225822
-0.239879342275909,-0.057969218425933
-0.238715241963835,-0.0578556512247423
-0.237564879206334,-0.0577048260323946
-0.236428054458344,-0.0575169206622749
-0.235304568174802,-0.0572921129277677
-0.234194220810647,-0.0570305806422577
-0.233096812820816,-0.0567325016191296
-0.232012144660247,-0.0563980536717682
-0.230940016783879,-0.0560274146135582
-0.229880229646648,-0.0556207622578842
-0.228832583703494,-0.0551782744181309
-0.227796879409353,-0.054700128907683
-0.226772917219165,-0.0541865035399253
-0.225760497587865,-0.0536375761282423
-0.224759420970394,-0.0530535244860189
-0.223769487821687,-0.0524345264266398
-0.222790498596685,-0.0517807597634896
-0.221822253750323,-0.0510924023099529
-0.22086455373754,-0.0503696318794147
-0.219917199013275,-0.0496126262852594
-0.218979990032464,-0.0488215633408718
-0.218052727250046,-0.0479966208596367
-0.217135211120958,-0.0471379766549387
-0.216227242100139,-0.0462458085401625
-0.215328620642527,-0.0453202943286928
-0.214439147203059,-0.0443616118339143
-0.213558622236673,-0.0433699388692117
-0.212686846198307,-0.0423454532479697
-0.211823619542899,-0.041288332783573
-0.210968742725387,-0.0401987552894064
-0.210122016200709,-0.0390768985788544
-0.209283240423803,-0.0379229404653019
-0.208452215849606,-0.0367370587621334
-0.207628742933056,-0.0355194312827338
-0.206812622129092,-0.0342702358404876
-0.206003653892651,-0.0329896502487796
-0.205201638678672,-0.0316778523209945
-0.204406376942091,-0.0303350198705171
-0.203617669137847,-0.0289613307107319
-0.202835315720878,-0.0275569626550237
-0.202059117146121,-0.0261220935167772
-0.201288873868515,-0.024656901109377
-0.200524386342998,-0.023161563246208
-0.199765455024507,-0.0216362577406547
-0.19901188036798,-0.020081162406102
-0.198263462828355,-0.0184964550559344
-0.197520002860571,-0.0168823135035366
-0.196781300919564,-0.0152389155622935
-0.196047157460273,-0.0135664390455896
-0.195317372937636,-0.0118650617668098
-0.19459174780659,-0.0101349615393385
-0.193870082522074,-0.0083763161765607
-0.193152177539025,-0.00658930349186092
-0.192437833312382,-0.00477410129862389
-0.191726850297081,-0.00293088741023435
-0.191019028948062,-0.001059839640077
-0.190314169720261,0.000838864198463525
-0.189612073068618,0.00276504629200248
-0.188912539448069,0.00471852882715518
-0.188215369313552,0.00669913399053691
-0.187520363120007,0.00870668396876294
-0.186827321322369,0.0107410009484487
-0.186136044375578,0.0128019071162093
-0.185446332734571,0.0148892246586602
-0.184757986854286,0.0170027757624167
-0.184070807189661,0.019142382614094
-0.183384594195634,0.0213078674003074
-0.182699148327142,0.0234990523076724
-0.182014270039124,0.025715759522804
-0.181329759786518,0.0279578112323177
-0.180645418024261,0.0302250296228288
-0.179961045207292,0.0325172368809525
-0.179276441790547,0.0348342551933042
-0.178591408228966,0.0371759067464992
-0.177905744977485,0.0395420137271527
-0.177219252491044,0.04193239832188
-0.176531731224579,0.0443468827172966
-0.175842981633028,0.0467852891000176
-0.175152804171331,0.0492474396566584
-0.174460999294423,0.0517331565738343
-0.173767367457244,0.0542422620381605
-0.173071709114732,0.0567745782362524
-0.172373824721823,0.0593299273547253
-0.171673514733456,0.0619081315801944
-0.170970579604569,0.0645090130992751
-0.1702648197901,0.0671323940985827
-0.169556035744987,0.0697780967647325
-0.168844027924167,0.0724459432843397
-0.168128596782578,0.0751357558440198
-0.167409542775159,0.077847356630388
-0.166686666356847,0.0805805678300595
-0.16595976798258,0.0833352116296497
-0.165228648107296,0.0861111102157739
-0.164493107185933,0.0889080857750474
-0.163752945673429,0.0917259604940855
-0.163007964024721,0.0945645565595035
-0.162257962694748,0.0974236961579166
-0.161502742138448,0.10030320147594
-0.160742102810758,0.10320289470019
-0.159975845166616,0.10612259801728
-0.15920376966096,0.109062133613827
-0.158425676748728,0.112021323676446
-0.157641366884858,0.114999990391752
-0.156850640524288,0.11799795594636
-0.156053298121955,0.121015042526885
-0.155249140132798,0.124051072319944
-0.154437967011754,0.127105867512151
-0.153619579213762,0.130179250290121
-0.152793777193759,0.13327104284047
-0.151960361406684,0.136381067349813
-0.151119132307473,0.139509146004766
-0.150269890351065,0.142655100991943
-0.149412435992398,0.14581875449796
-0.148546569686409,0.148999928709433
-0.147672091888038,0.152198445812976
-0.14678880305222,0.155414127995205
-0.145896503633895,0.158646797442736
-0.144994994088001,0.161896276342183
-0.144084074869474,0.165162386880161
-0.143163546433254,0.168444951243287
-0.142233209234277,0.171743791618176
-0.141292863727482,0.175058730191442
-0.140342310367807,0.178389589149701
-0.13938134961019,0.181736190679568
-0.138409781909568,0.185098356967659
-0.137427407720879,0.188475910200589
-0.136434027499062,0.191868672564974
-0.135429441699054,0.195276466247427
-0.134413450775792,0.198699113434566
-0.133385855184216,0.202136436313005
-0.132346455379263,0.205588257069359
-0.13129505181587,0.209054397890244
-0.130231444948976,0.212534680962275
-0.129155435233519,0.216028928472067
-0.128066823124436,0.219536962606236
-0.126965409076665,0.223058605551397
-0.125850993545144,0.226593679494166
-0.124723376984812,0.230142006621156
-0.123582359850605,0.233703409118985
-0.122427742597462,0.237277709174267
-0.121259325680321,0.240864728973617
-0.12007690955412,0.244464290703651
-0.118880294673796,0.248076216550984
-0.117669281494287,0.251700328702232
-0.116443670470532,0.255336449344009
-0.115203262057468,0.258984400662931
-0.113947856710033,0.262644004845613
-0.112677254883165,0.266315084078671
-0.111391257031802,0.26999746054872
-0.110089663610882,0.273690956442375
-0.108772275075342,0.277395393946252
-0.107438891880121,0.281110595246965
-0.106089314480156,0.28483638253113
-0.104723343330386,0.288572577985363
-0.103340778885748,0.292319003796278
-0.10194142160118,0.296075482150492
-0.10052507193162,0.299841835234618
-0.0990915303320054,0.303617885235273
-0.0976405972572749,0.307403454339073
-0.0961720731623661,0.311198364732631
-0.0946857585022168,0.315002438602564
-0.093181453731765,0.318815498135486
-0.0916589593059485,0.322637365518014
-0.0901180756797053,0.326467862936762
-0.0885586033079731,0.330306812578346
-0.08698034264569,0.334154036629381
-0.0853830941477938,0.338009357276482
-0.0837666582692223,0.341872596706264
-0.0821308354649135,0.345743577105344
-0.0804754261898054,0.349622120660336
-0.0788002308988355,0.353508049557855
-0.0771050500469422,0.357401185984517
-0.0753896840890629,0.361301352126938
-0.0736539334801359,0.365208370171731
-0.0718975986750988,0.369122062305514
-0.0701204801288898,0.3730422507149
-0.0683223782964464,0.376968757586506
-0.0665030936327068,0.380901405106946
-0.0646624265926087,0.384840015462836
-0.0628001776310902,0.388784410840792
-0.060916147203089,0.392734413427428
-0.059010135763543,0.396689845409359
-0.0570819437673902,0.400650528973202
-0.0551313716695684,0.404616286305572
-0.0531582199250155,0.408586939593083
-0.0511622889886695,0.412562311022351
-0.0491433793154681,0.416542222779991
-0.0471012913603494,0.420526497052619
-0.0450358255782511,0.42451495602685
-0.0429467824241113,0.428507421889299
-0.0408339623528676,0.432503716826582
-0.0386971658194582,0.436503663025314
-0.0365361932788208,0.44050708267211
-0.0343508451858933,0.444513797953585
-0.0321409219956137,0.448523631056355
-0.0299062241629198,0.452536404167035
-0.0276465521427495,0.45655193947224
-0.0253617063900407,0.460570059158586
-0.0230514873597313,0.464590585412688
-0.0207156955067592,0.468613340421161
-0.0183541312860622,0.472638146370621
-0.0159665951525784,0.476664825447682
-0.0135528875612454,0.480693199838961
-0.0111128089670014,0.484723091731072
-0.00864615982478401,0.488754323310631
-0.00615274058953134,0.492786716764253
-0.00363235171618107,0.496820094278553
-0.00108479365967135,0.500854278040147
0.0014901331250602,0.50488909023565
0.00409262818307546,0.508924353051677
0.00672289105943673,0.512959888674844
0.00938112129920593,0.516995519291766
0.0120675184474454,0.521031067089058
0.0147822820492169,0.525066354253335
0.017525611649583,0.529101202971213
0.0202977067936054,0.533135435429307
0.0230987670263465,0.537168873814233
0.0259289918928682,0.541201340312605
0.0287885809382327,0.545232657111039
0.0316777337075021,0.549262646396151
0.0345966497457386,0.553291130354555
0.0375455285980041,0.557317931172866
0.040524569809361,0.561342871037702
0.043533972924871,0.565365772135675
0.0465739374895967,0.569386456653403
0.0496446630485998,0.573404746777499
0.0527463491469427,0.57742046469458
0.0558791953296872,0.58143343259126
0.0590434011418957,0.585443472654156
0.0622391661286301,0.589450407069882
0.0654666898349528,0.593454058025053
0.0687261718059256,0.597454247706286
0.0720178115866108,0.601450798300194
0.0753418087220702,0.605443531993394
0.0786983627573664,0.609432270972501
0.0820876732375611,0.61341683742413
0.0855099397077168,0.617397053534896
0.0889653617128951,0.621372741491415
0.0924541387981586,0.625343723480303
0.095976470508569,0.629309821688173
0.0995325563891888,0.633270858301642
0.10312259598508,0.637226655507325
0.106746788841304,0.641177035491837
0.110405334502924,0.645121820441793
0.114098432515002,0.64906083254381
0.117826282422599,0.652993893984501
0.121589083770778,0.656920826950483
0.125387036104601,0.660841453628371
0.129220338969131,0.66475559620478
0.133089191909428,0.668663076866325
0.136993794470556,0.672563717799622
0.140934346197576,0.676457341191285
0.144911046635551,0.680343769227931
0.148924095329542,0.684222824096174
0.152973691824612,0.688094327982631
0.157060035665823,0.691958103073915
0.161183326398237,0.695813971556643
0.165343763566915,0.699661755617429
0.169541546716921,0.70350127744289
0.173776875393317,0.707332359219639
0.178049949141163,0.711154823134294
0.182360967505524,0.714968491373468
0.186710130031459,0.718773186123778
0.191097636264033,0.722568729571838
0.195523685748306,0.726354943904264
0.199988478029342,0.730131651307672
0.204492212652201,0.733898673968675
0.209035089161946,0.737655834073891
0.21361730710364,0.741402953809933
0.218239066022344,0.745139855363418
0.222900565463121,0.748866360920961
0.227602004971032,0.752582292669176
0.23234358409114,0.75628747279468
0.237125502368507,0.759981723484087
0.241947959348194,0.763664866924013
0.246811154575265,0.767336725301073
0.251715287594781,0.770997120801883
0.256660557951804,0.774645875613058
0.261647165191397,0.778282811921212
0.26667530885862,0.781907751912962
0.271745188498538,0.785520517774923
0.276857003656211,0.78912093169371
0.282010953876702,0.792708815855938
0.287207238705073,0.796283992448222
0.292446057686386,0.799846283657178
0.297727610365703,0.803395511669422
0.303052096288086,0.806931498671568
0.308419714998598,0.810454066850231
0.3138306660423,0.813963038392028
0.319285148964254,0.817458235483574
0.324783363309524,0.820939480311483
0.33032550862317,0.824406595062371
0.335911784450255,0.827859401922853
0.34154239033584,0.831297723079545
0.34721752582499,0.834721380719061
0.352937390462764,0.838130197028018
0.358702183794226,0.841523994193031
0.364512105364437,0.844902594400714
0.370367354718459,0.848265819837683
0.376268131401355,0.851613492690554
0.382214634958187,0.854945435145941
0.388207064934017,0.85826146939046
0.394245620873907,0.861561417610727
0.400330502322919,0.864845101993356
0.406461908826115,0.868112344724964
0.412640039928558,0.871362967992164
0.418865095175309,0.874596793981573
