0.87402636375474,-0.959125977150706
-0.149954203638132,-0.733190987907442
0.533639755283337,0.783416245321258
0.691680495998173,0.0668088329002718
0.849721236713009,-0.649798579520714
-0.114544269598469,-0.620059852160114
-0.845149307502538,0.791623677169933
