0.951117622770391,0.335421514193611
-0.217288799440725,0.89792681446898
0.135463523484135,-0.423876680140008
-0.0188025633888975,-0.911731116430257
-0.17306865026193,-1.39958555272051
-0.82571802505423,0.575461664686079
0.638420772849571,0.63788486337767
