0.303386556788565,-0.386639507644426
0.188688271921335,0.886469398440357
-0.590065680074139,0.219811210734421
0.203791756518405,0.577571326715126
0.997649193110949,0.935331442695831
0.0099230419645564,0.446964895675422
-0.101281844383869,-0.773482726759894
