-0.395225205719936,-0.0973170965420053
-0.341753827021362,-0.119366143060302
-0.336680695500197,-0.121662020234355
-0.298304240099744,-0.164025774017203
-0.291871508559075,-0.15810785603523
-0.32150608996501,-0.128425380618735
-0.304210067948501,-0.100625836541222
-0.320185786806482,-0.104284433410961
-0.431776125065012,-0.203711742243635
-0.296366430122033,-0.139287113589338
-0.291361508453983,-0.141398435451339
-0.390496945327488,-0.262788386648411
-0.392463139852241,-0.0597085329804324
-0.22168711375874,-0.0313973369968896
-0.176116851568537,-0.269123348032035
-0.128591538302687,-0.280641316294137
-0.261495924219327,-0.153644377403424
-0.147764003331185,-0.276311624833262
-0.124010594733342,-0.301110301793706
-0.221093001317814,-0.163913334003728
-0.132531906442044,-0.270248988106784
-0.312909212480196,-0.0463196006930028
-0.132098535716349,-0.0507244703324381
-0.085804875466241,-0.020494720671991
-0.339637266043914,-0.273047213134534
-0.111251489503199,-0.247283043022408
-0.105704187735941,-0.311377164162124
-0.202330538971707,-0.167707201805266
-0.0889720581690769,-0.277613715984104
-0.072257552676376,-0.246304106158861
-0.238697205291182,-0.315086569247797
-0.288569195307297,-0.288371001672451
-0.285349437401546,-0.106508092936768
-0.121387145305588,-0.211365715122261
-0.00631236629233775,-0.144630193276876
-0.0443179244763148,-0.097261816930424
-0.270928592361889,-0.0899609537413221
-0.162952253859625,-0.186980589143883
-0.114138636486793,-0.180558659566947
-0.130751515729758,-0.200110506021882
-0.107162645524805,-0.250988065903425
-0.0982345876538754,-0.1884679630554
-0.0975945275952756,-0.174064011530319
-0.156048629474765,-0.248028401179066
-0.0596470702512398,-0.218947969250092
-0.131611729284136,-0.161898579807356
-0.0633033487362315,-0.225119270049796
-0.107021743184901,-0.197883263158808
-0.0885751700699057,-0.212597140933949
-0.0839343870992451,-0.213895693833251
-0.0793028250981954,-0.215176702818154
-0.0288441177354512,-0.167274212015224
-0.0927102968016726,-0.1854060034713
-0.095344249182693,-0.176628813017209
-0.0984842943488559,-0.217355408417922
-0.106219175570927,-0.260687995153804
-0.0755676830797569,-0.262457231975305
-0.0747658268758647,-0.24687703691367
-0.008789487081742,-0.246889498093555
-0.00635438340559012,-0.252753658993961
-0.0335018846944108,-0.227035454269081
-0.02445576928449,-0.229202848901861
-0.0624814182652371,-0.252442368609894
-0.0379066868151006,-0.22908581531723
0.025174752538532,-0.24701534207467
-0.0251711460185644,-0.273242586994842
-0.012424472824296,-0.229565947368591
-0.0282587939696445,-0.249833015676848
0.00208575343840819,-0.202772570434409
-0.012412058882678,-0.19862087732056
0.0409147471657743,-0.274955158229373
0.0742702121784744,-0.259261214497066
0.0786438218423946,-0.209672469483253
0.0377691534725132,-0.242527194763538
0.0394458979930681,-0.207185221406412
0.0508475756055365,-0.244971761243257
0.0875663039269383,-0.280249842211184
0.0183203578004457,-0.273059173821164
0.112439714692439,-0.274205408955078
0.0724395440839249,-0.248733011155829
0.103483620778656,-0.217159401205874
0.121540147820539,-0.202828044567634
0.0617515876248941,-0.275288201224091
0.0895257941520864,-0.251464729634701
0.0980057249868396,-0.252739519413126
0.0814612518149303,-0.247355578664051
0.113517670086956,-0.205786368164972
0.116554760316038,-0.216369698065009
0.155090418673733,-0.272440577608956
0.119019040494568,-0.255664834525279
0.123189456499704,-0.256205535367128
0.127349043648541,-0.256731592812807
0.157074329208504,-0.264586982585096
0.101812931630247,-0.214608921415425
0.18845762091571,-0.265929144145023
0.143878419473806,-0.258690622896918
0.108453247394133,-0.298450316149484
0.12626085960509,-0.218211618055745
0.146557193543076,-0.224571926572787
0.192467878931148,-0.230456553981637
0.149868896651681,-0.291875961708762
0.216390481626309,-0.281935025112453
0.192401797923638,-0.263207367998305
0.190110720938323,-0.225060227633926
0.17236486370733,-0.218495933022551
0.231740551605652,-0.280213994272199
0.240378693000112,-0.308992561890328
0.236290463503592,-0.292657342321136
0.207904992208456,-0.251763067916624
0.233929495464027,-0.227617290630443
0.235439584349003,-0.265625439958616
0.253788180543882,-0.219159273859036
0.243112742929071,-0.265894782030754
0.214755308005042,-0.253645403140016
0.207791318486861,-0.256003785845347
0.299933786395419,-0.245738663070184
0.263634633900149,-0.294094644964282
0.227170540976877,-0.292246719992981
0.269593564156744,-0.266437771174888
0.273328433742939,-0.266465407309485
0.277051174479344,-0.266480745147761
0.241178058307907,-0.299448948947712
0.285914781540869,-0.288944621896889
0.238507231109343,-0.288949741602296
0.291820164719959,-0.266420347800713
0.293260759190857,-0.27675162012547
0.264354021345754,-0.2447903735396
0.310004398157838,-0.266075545028111
0.328952837106228,-0.219001896803482
0.317191034332088,-0.265855423773505
0.29360328557089,-0.21848178833376
0.366774856548261,-0.304782452822604
0.331413560509137,-0.265276982107808
0.348725627536512,-0.246079107173014
0.358503167807494,-0.221700616292178
0.345433267238645,-0.264517566268335
0.348906246804681,-0.264299897942469
0.350588877224916,-0.231094015612645
0.406196910951126,-0.299722024766516
0.323208741379839,-0.214572317330848
0.386279753374334,-0.279471618509456
0.356357920732405,-0.220516999755251
0.379580830630309,-0.261853184184002
0.382923798057903,-0.261528269749141
0.435660907637036,-0.285861091018372
0.402703428474303,-0.259362854140741
0.446897107813864,-0.269417087331566
0.415622412231423,-0.257718122700484
0.454881452413841,-0.27423968801208
0.425169689304857,-0.256381793525597
0.413732775937632,-0.294561115790093
0.440808679514259,-0.253963742725103
0.443895198925995,-0.253452062657037
0.494371063478746,-0.237768244636435
0.460329288166974,-0.291967045166245
0.487343432961833,-0.275000849390431
0.465111416737065,-0.249615804235539
0.43285929087695,-0.206179403481574
0.523683810720647,-0.252467869065959
0.476925987919148,-0.247229124652553
0.479844177036935,-0.246610965989077
0.482748116262918,-0.245984335244816
0.488513108198054,-0.244705904366559
0.491374092486496,-0.244054227658869
0.494034819681523,-0.203896814239367
0.499870588111059,-0.242050093019403
0.508236679457021,-0.239973597581571
0.527328977816189,-0.241586956902148
0.560906496335099,-0.219706536228907
0.483529083321247,-0.198243253823231
0.529901699824632,-0.23409518427849
0.524912772467034,-0.264720168880181
0.53516998234169,-0.232550734249493
0.539352677458643,-0.232472649300929
0.540378528463129,-0.230977332949666
0.553992218152571,-0.262769967427334
0.538370839734974,-0.185774123890668
0.550615316787789,-0.22774565135845
0.532319252331096,-0.195501295398108
0.525544805112488,-0.189592660381979
0.607712805705431,-0.195095194735953
0.611774986115025,-0.239995305176558
0.525015060083408,-0.266447493111516
0.595538753919071,-0.217306891073524
0.582200638715865,-0.216504281061837
0.618257497563266,-0.242298002624273
0.611785295651791,-0.172759853932251
0.611152248478972,-0.204237880509683
0.627294634835594,-0.224362732506699
0.641755011406765,-0.15121475329956
0.602602376529023,-0.205343143111077
0.636342832993147,-0.213921067446374
0.641410264053063,-0.220303120959843
0.671988732281249,-0.211981983957552
0.608827415891914,-0.191499383979824
0.601925021043759,-0.136461698678945
0.699992183007824,-0.172787802348515
0.624042449089962,-0.182510991264596
0.700548431980553,-0.130217082921899
0.639567485010832,-0.20354132810205
0.673873469345374,-0.168296552458219
0.667639452488706,-0.195948607504665
0.678473159334793,-0.164914222712664
0.70214773618442,-0.163400028955347
0.68145320327798,-0.16264433530991
0.688598861357751,-0.15692071356699
0.732180561216379,-0.113699378498078
0.691732766166669,-0.115751227845679
0.722601162617765,-0.172089102741969
0.70209223128528,-0.17765893581429
0.695998258892097,-0.163436853947147
0.702770288552552,-0.144115416862305
0.716566205690286,-0.129890100988524
0.682256376291978,-0.132741847962879
0.698201498624215,-0.176464697639303
0.718593539347809,-0.126305283250674
0.733364291265863,-0.119002504336637
0.677979571744572,-0.1178659260153
0.684722408966122,-0.0860641687563226
0.705565299792031,-0.137491517632138
0.698966450811435,-0.134346688106902
0.746849261696573,-0.0717277856382856
0.728958087194927,-0.110690706423147
0.733399635589614,-0.118508734690722
0.732670782125111,-0.103467744921263
0.767447503975633,-0.0973458274418829
0.731734587237996,-0.0782417702364068
0.738028838947254,-0.0890599351407605
0.747922069775471,-0.0391103738467534
0.731382887508514,-0.125241606592311
0.703759906095195,-0.0440162331276793
0.726535056052268,-0.0405113981499518
0.745629083339337,-0.0382435984941556
0.725501249510908,-0.110693898778332
0.714070506130257,-0.0982355980687983
0.774886871828756,-0.033925208715268
0.721561330484117,-0.0280835408393698
0.740618644344024,-0.0642465348510175
0.701606314494404,-0.0753865141655613
0.739933962183458,-0.058464479026744
0.738439640280057,-0.0516116518161833
0.716659307389034,0.00166955030226272
0.735293520669584,-0.0426417645764163
0.705660277928637,-0.0223259083375762
0.769720124328195,0.00617006349822041
0.779676244221249,-0.00390178644964731
