-0.756447739875425,-0.383452427144886
-0.751251021031142,-0.386075908216433
-0.746057107007733,-0.388652849773565
-0.740866159190365,-0.391183423361232
-0.735678338964204,-0.393667800524383
-0.730493807714418,-0.396106152807968
-0.725312726826172,-0.398498651756936
-0.720135257684635,-0.400845468916237
-0.714961561674974,-0.403146775830821
-0.709791800182355,-0.405402744045638
-0.704626134591945,-0.407613545105636
-0.699464726288911,-0.409779350555766
-0.69430773665842,-0.411900331940977
-0.68915532708564,-0.413976660806219
-0.684007658955737,-0.416008508696441
-0.678864893653878,-0.417996047156593
-0.67372719256523,-0.419939447731625
-0.668594717074961,-0.421838881966486
-0.663467628568236,-0.423694521406125
-0.658346088430223,-0.425506537595493
-0.653230258046089,-0.427275102079539
-0.648120298801002,-0.429000386403213
-0.643016372080127,-0.430682562111463
-0.637918639268631,-0.432321800749241
-0.632827261751683,-0.433918273861495
-0.627742400914449,-0.435472152993175
-0.622664218142096,-0.436983609689231
-0.61759287481979,-0.438452815494612
-0.612528532332699,-0.439879941954268
-0.60747135206599,-0.441265160613148
-0.602421495404829,-0.442608643016203
-0.597379123734385,-0.443910560708381
-0.592344398439822,-0.445171085234632
-0.58731748090631,-0.446390388139906
-0.582298532519014,-0.447568640969153
-0.577287714663101,-0.448706015267322
-0.57228518872374,-0.449802682579363
-0.567291116086095,-0.450858814450225
-0.562305658135335,-0.451874582424857
-0.557328976256627,-0.452850158048211
-0.552361231835137,-0.453785712865234
-0.547402586256032,-0.454681418420878
-0.542453200904479,-0.455537446260091
-0.537513237165646,-0.456353967927822
-0.5325828564247,-0.457131154969023
-0.527662220066806,-0.457869178928641
-0.522751489477133,-0.458568211351627
-0.517850826040847,-0.459228423782931
-0.512960391143115,-0.459849987767502
-0.508080346169104,-0.460433074850289
-0.503210852503982,-0.460977856576243
-0.498352071532914,-0.461484504490312
-0.493504164641069,-0.461953190137447
-0.488667293213613,-0.462384085062597
-0.483841618635712,-0.462777360810711
-0.479027302292534,-0.46313318892674
-0.474224505569247,-0.463451740955633
-0.469433389851017,-0.463733188442339
-0.46465411652301,-0.463977702931809
-0.459886846970394,-0.464185455968991
-0.455131742578336,-0.464356619098835
-0.450388964732003,-0.464491363866291
-0.445658674816561,-0.464589861816309
-0.440941034217179,-0.464652284493838
-0.436236204319022,-0.464678803443827
-0.431544346507258,-0.464669590211228
-0.426865622167053,-0.464624816340987
-0.422200192683575,-0.464544653378057
-0.417548219441991,-0.464429272867386
-0.412909863827467,-0.464278846353923
-0.408285287225171,-0.464093545382619
-0.403674651020269,-0.463873541498423
-0.399078116597929,-0.463619006246284
-0.394495845343317,-0.463330111171153
-0.389927998641601,-0.463007027817978
-0.385374737877947,-0.46264992773171
-0.380836224437522,-0.462258982457298
-0.376312619705494,-0.461834363539692
-0.371804085067029,-0.461376242523841
-0.367310781907294,-0.460884790954694
-0.362832871611457,-0.460360180377203
-0.358370515564684,-0.459802582336315
-0.353923875152142,-0.459212168376981
-0.349493111758998,-0.45858911004415
-0.345078386770419,-0.457933578882772
-0.340679861571573,-0.457245746437797
-0.336297697547625,-0.456525784254174
-0.331932056083744,-0.455773863876852
-0.327583098565095,-0.454990156850782
-0.323250986376847,-0.454174834720913
-0.318935880904166,-0.453328069032194
-0.314637943532218,-0.452450031329575
-0.310357335646172,-0.451540893158006
-0.306094218631193,-0.450600826062437
-0.301848753872449,-0.449630001587817
-0.297621102755107,-0.448628591279095
-0.293411426664334,-0.447596766681221
-0.289219886985296,-0.446534699339145
-0.285046645103162,-0.445442560797817
-0.280891862403097,-0.444320522602185
-0.276755700270268,-0.4431687562972
-0.272638320089844,-0.441987433427812
-0.26853988324699,-0.440776725538969
-0.264460551126873,-0.439536804175621
-0.260400485114661,-0.438267840882719
-0.256359846595521,-0.436970007205212
-0.252338796954619,-0.435643474688048
-0.248337497577122,-0.434288414876179
-0.244356109848199,-0.432904999314553
-0.240394795153014,-0.43149339954812
-0.236453714876736,-0.43005378712183
-0.232533030404531,-0.428586333580632
-0.228632903121567,-0.427091210469476
-0.22475349441301,-0.425568589333312
-0.220894965664027,-0.424018641717088
-0.217057478259785,-0.422441539165755
-0.213241193585452,-0.420837453224263
-0.209446273026193,-0.419206555437561
-0.205672877967177,-0.417549017350598
-0.20192116979357,-0.415865010508325
-0.19819130989054,-0.41415470645569
-0.194483459643252,-0.412418276737644
-0.190797780436874,-0.410655892899135
-0.187134433656573,-0.408867726485115
-0.183493580687517,-0.407053949040531
-0.179875382914871,-0.405214732110334
-0.176280001723803,-0.403350247239474
-0.17270759849948,-0.4014606659729
-0.169158334627069,-0.399546159855561
-0.165632371491737,-0.397606900432408
-0.16212987047865,-0.395643059248389
-0.158650992972977,-0.393654807848455
-0.155195900359883,-0.391642317777555
-0.151764754024536,-0.389605760580639
-0.148357715352102,-0.387545307802656
-0.144974945727749,-0.385461130988556
-0.141616606536644,-0.383353401683288
-0.138282859163954,-0.381222291431803
-0.134973864994845,-0.379067971779049
-0.131689785414485,-0.376890614269976
-0.12843078180804,-0.374690390449535
-0.125197015560677,-0.372467471862674
-0.121988648057564,-0.370222030054343
-0.118805840683868,-0.367954236569492
-0.115648754824755,-0.36566426295307
-0.112517551865392,-0.363352280750027
-0.109412393190947,-0.361018461505313
-0.106333440186586,-0.358662976763877
-0.103280854237476,-0.356285998070669
-0.100254796728785,-0.353887696970638
-0.0972554290456785,-0.351468245008735
-0.0942829125733245,-0.349027813729907
-0.0913374086968897,-0.346566574679106
-0.0884190788015411,-0.344084699401281
-0.0855280842724455,-0.341582359441382
-0.08266458649477,-0.339059726344357
-0.0798287468536816,-0.336516971655157
-0.0770207267343473,-0.333954266918732
-0.074240687521934,-0.33137178368003
-0.0714887906016085,-0.328769693484002
-0.0687651973585381,-0.326148167875596
-0.0660700691778896,-0.323507378399764
-0.06340356744483,-0.320847496601454
-0.0607658535445262,-0.318168694025615
-0.0581570888621453,-0.315471142217199
-0.0555774347828542,-0.312755012721153
-0.0530270526918198,-0.310020477082428
-0.0505061039742092,-0.307267706845974
-0.0480147500151893,-0.304496873556739
-0.0455531521999271,-0.301708148759674
-0.0431214719135895,-0.298901703999728
-0.0407198705413436,-0.296077710821851
-0.0383485094683563,-0.293236340770992
-0.0360075500797946,-0.290377765392102
-0.0336971537608254,-0.287502156230129
-0.0314174818966157,-0.284609684830023
-0.0291686958723325,-0.281700522736734
-0.0269509570731428,-0.278774841495211
-0.0247644268842135,-0.275832812650404
-0.0226092666907115,-0.272874607747263
-0.020485637877804,-0.269900398330738
-0.0183937018306578,-0.266910355945777
-0.0163336199344399,-0.26390465213733
-0.0143055535743173,-0.260883458450348
-0.0123096641354569,-0.257846946429779
-0.0103461130030258,-0.254795287620574
-0.00841506156219088,-0.251728653567681
-0.00651667119811911,-0.248647215816051
-0.0046511032959775,-0.245551145910634
-0.00281851924093302,-0.242440615396377
-0.00101908041815259,-0.239315795818232
0.000747051787196779,-0.236176858721148
0.00247971598994814,-0.233023975650075
0.00417875080493445,-0.229857318149962
0.00584399484698887,-0.226677057765759
0.00747528673094432,-0.223483366042414
0.00907246507163383,-0.220276414524879
0.0106353684838905,-0.217056374758103
0.0121638355825473,-0.213823418287034
0.0136577049824373,-0.210577716656624
0.0151168152983935,-0.207319441411821
0.0165410051452489,-0.204048764097574
0.0179301131378366,-0.200765856258835
0.0192839778909896,-0.197470889440552
0.0206024380195409,-0.194164035187674
0.0218853321383236,-0.190845465045152
0.0231324988621706,-0.187515350557935
0.0243437768059151,-0.184173863270973
0.0255190045843899,-0.180821174729215
0.0266580208124283,-0.177457456477611
0.0277606641048631,-0.17408288006111
0.0288267730765275,-0.170697617024662
0.0298561863422544,-0.167301838913218
0.0308487425168769,-0.163895717271725
0.031804280215228,-0.160479423645134
0.0327226380521408,-0.157053129578395
0.0336036546424482,-0.153617006616457
0.0344471686009833,-0.15017122630427
0.0352530185425791,-0.146715960186783
0.0360210430820687,-0.143251379808946
0.0367510808342851,-0.139777656715708
0.0374429704140613,-0.13629496245202
0.0380965504362303,-0.13280346856283
0.0387116595156252,-0.129303346593089
0.039288136267079,-0.125794768087746
0.0398258193054248,-0.12227790459175
0.0403245472454955,-0.118752927650052
0.0407841587021241,-0.115220008807601
0.0412044922901438,-0.111679319609346
0.0415853866243875,-0.108131031600236
0.0419266803196884,-0.104575316325223
0.0422282119908792,-0.101012345329255
0.0424898202527933,-0.0974422901572816
0.0427113437202635,-0.0938653223542526
0.0428926210081228,-0.0902816134651179
0.0430334907312044,-0.0866913350348267
0.0431337915043412,-0.0830946586083289
0.0431933619423664,-0.0794917557305739
0.0432120406601128,-0.0758827979465115
0.0431896662724135,-0.072267956801091
0.0431260773941016,-0.0686474038392625
0.0430211126400101,-0.0650213106059751
0.042874610624972,-0.0613898486461788
0.0426864099638204,-0.0577531895048229
0.0424563492713882,-0.0541115047268573
0.0421842671625086,-0.0504649658572313
0.0418700022520145,-0.0468137444408948
0.0415133931547389,-0.0431580120227971
0.0411142784855149,-0.0394979401478881
0.0406724968591756,-0.0358337003611172
0.0401878868905539,-0.0321654642074342
0.0396602871944828,-0.0284934032317885
0.0390895363857955,-0.0248176889791299
0.0384754730793249,-0.0211384929944078
0.0378179358899041,-0.0174559868225721
0.037116763432366,-0.013770342008572
0.0363717943215439,-0.0100817300973576
0.0355828671722705,-0.00639032263387801
0.0347498205993791,-0.00269629116308329
0.0338724932177025,0.00100019277007736
0.0329507236420738,0.00469895762065398
0.0319843504873262,0.00839983184369722
0.0309732123682925,0.0121026438942573
0.0299171478998059,0.0158072222273848
0.0288159956966993,0.0195133952981299
0.0276695943738058,0.0232209915615432
0.0264777825459584,0.0269298394726748
0.0252403988279901,0.0306397674865754
0.0239572818347341,0.0343506040582952
0.0226282701810231,0.0380621776428848
0.0212532024816905,0.0417743166953942
0.019831917351569,0.0454868496708743
0.0183642534054919,0.0491996050243751
0.0168500492582921,0.0529124112109472
0.0152891435248026,0.0566250966856408
0.0136813748198565,0.0603374899035066
0.0120265817582868,0.0640494193195946
0.0103246029549265,0.0677607133889555
0.00857527702460872,0.0714712005666395
0.00677844258216636,0.0751807093076973
0.00493393824243256,0.0788890680671788
0.00304160262024026,0.0825961053001349
0.00110127433042261,0.0863016494616155
-0.000887208012187585,0.0900055290066716
-0.00292400579275698,0.0937075723903529
-0.00500928039645286,0.0974076080677103
-0.00714319320844195,0.101105464493794
-0.00932590561389141,0.104800970123654
-0.0115575789979681,0.108493953412342
-0.013838374745839,0.112184242814907
-0.016168454242671,0.1158716667864
-0.0185479788736313,0.119556053781871
-0.0209771100238867,0.123237232256371
-0.0234560090786043,0.12691503066495
-0.0259848374229508,0.130589277462658
-0.0285637564420935,0.134259801104547
-0.0311929275211991,0.137926430045665
-0.0338725120454348,0.141588992741064
-0.0366026713999674,0.145247317645795
-0.039383566969964,0.148901233214906
-0.0422153601405915,0.15255056790345
-0.0450982122970168,0.156195150166475
-0.048032284824407,0.159834808459033
-0.0510177391079291,0.163469371236175
-0.0540547365327499,0.167098666952949
-0.0571434384840366,0.170722524064408
-0.0602840063469558,0.1743407710256
-0.063476601506675,0.177953236291578
-0.0667213853483606,0.18155974831739
-0.07001851925718,0.185160135558087
-0.0733681646182999,0.18875422646872
-0.0767704828168875,0.19234184950434
-0.0802256352381096,0.195922833119995
-0.0837337832671333,0.199497005770738
-0.0872950882891254,0.203064195911618
-0.0909097116892532,0.206624231997686
-0.0945778148526832,0.210176942483992
-0.0982995591645828,0.213722155825586
-0.102075106010119,0.217259700477519
-0.105904616774458,0.220789404894842
-0.109788252842767,0.224311097532604
-0.113726175600214,0.227824606845856
-0.117718546431965,0.231329761289649
-0.121765526723188,0.234826389319032
-0.125867277859049,0.238314319389057
-0.130023961224714,0.241793379954773
-0.134235738205352,0.245263399471231
-0.13850277018613,0.248724206393482
-0.142825218552213,0.252175629176576
-0.147203244688769,0.255617496275563
-0.151637009980965,0.259049636145493
-0.156126675813969,0.262471877241417
-0.160672403572946,0.265884048018386
-0.165274354643064,0.269285976931449
-0.16993269040949,0.272677492435658
-0.174647572257392,0.276058422986062
-0.179419161571934,0.279428597037712
-0.184247619738286,0.282787843045658
-0.189133108141614,0.286135989464951
-0.194075788167085,0.289472864750642
-0.199075821199865,0.292798297357779
-0.204133368625122,0.296112115741415
-0.209248591828022,0.299414148356599
-0.214421652193733,0.302704223658381
-0.219652711107422,0.305982170101813
-0.224941929954256,0.309247816141944
-0.230289470119401,0.312500990233825
-0.235695492988025,0.315741520832506
-0.241160159945294,0.318969236393038
-0.246683632376376,0.322183965370471
-0.252266071666436,0.325385536219855
-0.257907639200644,0.328573777396241
-0.263608496364165,0.33174851735468
-0.269368804542167,0.334909584550221
-0.275188725119815,0.338056807437915
-0.281068419482278,0.341190014472812
-0.287008049014722,0.344309034109963
-0.293007775102315,0.347413694804418
-0.299067759130223,0.350503825011228
-0.305188162483613,0.353579253185443
-0.311369146547652,0.356639807782113
-0.317610872707508,0.359685317256289
-0.323913502348346,0.362715610063021
-0.330277196855335,0.36573051465736
-0.33670211761364,0.368729859494355
-0.34318842600843,0.371713473029058
-0.349736283424871,0.374681183716518
-0.356345851248129,0.377632820011787
-0.363017290863373,0.380568210369914
-0.369750763655768,0.38348718324595
-0.376546431010483,0.386389567094945
-0.383404454312683,0.38927519037195
-0.390324994947536,0.392143881532015
-0.397308214300209,0.394995469030191
-0.404354273755869,0.397829781321527
-0.411463334699682,0.400646646861074
-0.418635558516816,0.403445894103883
-0.425871106592438,0.406227351505004
-0.433170140311715,0.408990847519488
-0.440532821059813,0.411736210602384
-0.447959310221899,0.414463269208743
-0.455449769183142,0.417171851793617
-0.463004359328706,0.419861786812054
-0.470623242043761,0.422532902719105
-0.478306578713472,0.425185027969821
-0.486054530723006,0.427817991019252
-0.493867259457531,0.430431620322449
-0.501744926302213,0.433025744334462
-0.509687692642219,0.435600191510341
-0.517695719862717,0.438154790305137
-0.525769169348873,0.4406893691739
-0.533908202485855,0.443203756571681
-0.542112980658828,0.445697780953529
-0.550383665252961,0.448171270774496
-0.55872041765342,0.450624054489631
-0.567123399245373,0.453055960553986
-0.575592771413985,0.455466817422609
-0.584128695544424,0.457856453550553
-0.592731333021858,0.460224697392867
-0.601400845231453,0.462571377404602
-0.601400845231453,0.462571377404602
-0.610048098857944,0.464874589461503
-0.618584158317998,0.467112818255099
-0.627009481594678,0.469286475464111
-0.63532452667105,0.47139597276726
-0.643529751530176,0.47344172184327
-0.65162561415512,0.47542413437086
-0.659612572528946,0.477343622028753
-0.667491084634719,0.479200596495672
-0.675261608455501,0.480995469450337
-0.682924601974357,0.482728652571471
-0.690480523174351,0.484400557537795
-0.697929830038546,0.486011596028032
-0.705272980550007,0.487562179720902
-0.712510432691796,0.489052720295128
-0.719642644446979,0.490483629429431
-0.726670073798619,0.491855318802534
-0.73359317872978,0.493168200093158
-0.740412417223525,0.494422684980025
-0.747128247262919,0.495619185141857
-0.753741126831025,0.496758112257375
-0.760251513910907,0.497839878005302
-0.76665986648563,0.498864894064358
-0.772966642538256,0.499833572113267
-0.77917230005185,0.500746323830749
-0.785277297009476,0.501603560895527
-0.791282091394197,0.502405694986322
-0.797187141189078,0.503153137781856
-0.802992904377182,0.503846300960851
-0.808699838941573,0.504485596202029
-0.814308402865315,0.505071435184111
-0.819819054131472,0.50560422958582
-0.825232250723107,0.506084391085877
-0.830548450623285,0.506512331363004
-0.83576811181507,0.506888462095922
-0.840891692281524,0.507213194963353
-0.845919650005713,0.507486941644021
-0.8508524429707,0.507710113816645
-0.855690529159548,0.507883123159948
-0.860434366555322,0.508006381352651
-0.865084413141086,0.508080300073478
-0.869641126899903,0.508105291001148
-0.874104965814837,0.508081765814385
-0.878476387868952,0.508010136191909
-0.882755851045313,0.507890813812443
-0.886943813326982,0.507724210354709
-0.891040732697023,0.507510737497428
-0.895047067138502,0.507250806919321
-0.898963274634481,0.506944830299112
-0.902789813168024,0.506593219315521
-0.906527140722195,0.506196385647271
-0.910175715280058,0.505754740973083
-0.913735994824677,0.50526869697168
-0.917208437339115,0.504738665321782
-0.920593500806438,0.504165057702111
-0.923891643209707,0.50354828579139
-0.927103322531988,0.502888761268341
-0.930228996756344,0.502186895811684
-0.933269123865839,0.501443101100142
-0.936224161843536,0.500657788812437
-0.939094568672501,0.49983137062729
-0.941880802335796,0.498964258223424
-0.944583320816485,0.498056863279559
-0.947202582097633,0.497109597474418
-0.949739044162303,0.496122872486723
-0.952193164993558,0.495097099995196
-0.954565402574464,0.494032691678557
-0.956856214888083,0.49293005921553
-0.95906605991748,0.491789614284835
-0.961195395645719,0.490611768565195
-0.963244680055862,0.489396933735332
-0.965214371130975,0.488145521473966
-0.967104926854121,0.486857943459821
-0.968916805208363,0.485534611371617
-0.970650464176766,0.484175936888077
-0.972306361742394,0.482782331687923
-0.97388495588831,0.481354207449875
-0.975386704597579,0.479891975852657
-0.976812065853264,0.478396048574989
-0.978161497638428,0.476866837295594
-0.979435457936137,0.475304753693193
-0.980634404729453,0.473710209446509
-0.981758796001441,0.472083616234262
-0.982809089735164,0.470425385735175
-0.983785743913687,0.46873592962797
-0.984689216520073,0.467015659591369
-0.985519965537385,0.465264987304092
-0.986278448948689,0.463484324444862
-0.986965124737047,0.461674082692401
-0.987580450885524,0.459834673725431
-0.988124885377184,0.457966509222673
-0.988598886195089,0.456070000862849
-0.989002911322305,0.454145560324681
-0.989337418741895,0.452193599286891
-0.989602866436922,0.4502145294282
-0.989799712390452,0.448208762427331
-0.989928414585547,0.446176709963005
-0.989989431005272,0.444118783713944
-0.989983219632689,0.442035395358869
-0.989910238450864,0.439926956576503
-0.98977094544286,0.437793879045568
-0.989565798591741,0.435636574444784
-0.989295255880571,0.433455454452875
-0.988959775292413,0.431250930748561
-0.988559814810331,0.429023415010565
-0.988095832417391,0.426773318917608
-0.987568286096653,0.424501054148412
-0.986977633831184,0.422207032381699
-0.986324333604047,0.419891665296191
-0.985608843398307,0.417555364570609
-0.984831621197025,0.415198541883675
-0.983993124983267,0.412821608914112
-0.983093812740096,0.410424977340641
-0.982134142450577,0.408009058841983
-0.981114572097772,0.405574265096861
-0.980035559664746,0.403121007783996
-0.978897563134563,0.40064969858211
-0.977701040490287,0.398160749169925
-0.976446449714981,0.395654571226163
-0.975134248791709,0.393131576429545
-0.973764895703536,0.390592176458794
-0.972338848433525,0.388036782992631
-0.97085656496474,0.385465807709777
-0.969318503280244,0.382879662288955
-0.967725121363102,0.380278758408887
-0.966076877196378,0.377663507748294
-0.964374228763135,0.375034321985898
-0.962617634046436,0.372391612800421
-0.960807551029348,0.369735791870584
-0.958944437694932,0.36706727087511
-0.957028752026252,0.364386461492721
-0.955060952006374,0.361693775402137
-0.95304149561836,0.358989624282081
-0.950970840845274,0.356274419811275
-0.948849445670181,0.35354857366844
-0.946677768076143,0.350812497532299
-0.944456266046226,0.348066603081572
-0.942185397563492,0.345311301994983
-0.939865620611006,0.342547005951252
-0.937497393171831,0.339774126629101
-0.935081173229032,0.336993075707253
-0.932617418765672,0.334204264864429
-0.930106587764815,0.33140810577935
-0.927549138209524,0.328605010130739
-0.924945528082865,0.325795389597318
-0.922296215367901,0.322979655857808
-0.919601658047695,0.320158220590931
-0.916862314105311,0.317331495475408
-0.914078641523813,0.314499892189963
-0.911251098286266,0.311663822413316
-0.908380142375732,0.308823697824188
-0.905466231775276,0.305979930101303
-0.902509824467963,0.303132930923382
-0.899511378436854,0.300283111969147
-0.896471351665015,0.297430884917318
-0.893390202135509,0.294576661446619
-0.8902683878314,0.291720853235771
-0.887106366735752,0.288863871963496
-0.883904596831629,0.286006129308515
-0.880663536102095,0.283148036949551
-0.877383642530213,0.280290006565325
-0.874065374099047,0.277432449834559
-0.870709188791662,0.274575778435975
-0.86731554459112,0.271720404048294
-0.863884899480487,0.268866738350238
-0.860417711442826,0.26601519302053
-0.8569144384612,0.263166179737891
-0.853375538518674,0.260320110181043
-0.849801469598311,0.257477396028707
-0.846192689683176,0.254638448959605
-0.842549656756331,0.25180368065246
-0.838872828800841,0.248973502785992
-0.835162663799771,0.246148327038925
-0.831419619736183,0.243328565089979
-0.827644154593141,0.240514628617876
-0.82383672635371,0.237706929301339
-0.819997793000953,0.234905878819088
-0.816127812517935,0.232111888849846
-0.812227242887718,0.229325371072335
-0.808296542093366,0.226546737165276
-0.804336168117945,0.223776398807391
-0.800346578944518,0.221014767677402
-0.796328232556147,0.218262255454031
-0.792281586935898,0.215519273815999
-0.788207100066834,0.212786234442029
-0.784105229932019,0.210063549010842
-0.779976434514517,0.20735162920116
-0.775821171797392,0.204650886691704
-0.771639899763707,0.201961733161197
-0.767433076396526,0.19928458028836
-0.763201159678914,0.196619839751916
-0.758944607593934,0.193967923230585
-0.75466387812465,0.19132924240309
-0.750359429254126,0.188704208948153
-0.746031718965425,0.186093234544494
-0.741681205241612,0.183496730870837
-0.73730834606575,0.180915109605903
-0.732913599420904,0.178348782428414
-0.728497423290137,0.175798161017091
-0.724060275656513,0.173263657050656
-0.719602614503096,0.170745682207831
-0.715124897812949,0.168244648167339
-0.710627583569137,0.1657609666079
-0.706111129754723,0.163295049208236
-0.701575994352772,0.16084730764707
-0.697022635346347,0.158418153603123
-0.692451510718512,0.156007998755117
-0.68786307845233,0.153617254781773
-0.683257796530867,0.151246333361814
-0.678636122937185,0.148895646173961
-0.673998515654348,0.146565604896936
-0.669345432665421,0.144256621209461
-0.664677331953467,0.141969106790258
-0.659994671501549,0.139703473318048
-0.655297909292733,0.137460132471554
-0.650587503310082,0.135239495929496
-0.645863911536659,0.133041975370597
-0.641127591955528,0.130867982473579
-0.636379002549754,0.128717928917164
-0.6316186013024,0.126592226380072
-0.62684684619653,0.124491286541027
-0.622064195215208,0.12241552107875
-0.617271106341497,0.120365341671962
-0.612468037558462,0.118341159999386
-0.607655446849167,0.116343387739743
-0.602833792196675,0.114372436571754
-0.59800353158405,0.112428718174143
-0.593165122994356,0.11051264422563
-0.588319024410657,0.108624626404938
-0.583465693816017,0.106765076390788
-0.578605589193499,0.104934405861902
-0.573739168526168,0.103133026497002
-0.568866889797087,0.10136134997481
-0.56398921098932,0.0996197879740464
-0.559106590085932,0.0979087521734345
-0.554219485069985,0.0962286542516955
-0.549328353924544,0.0945799058875514
-0.544433654632672,0.0929629187597238
-0.539535845177434,0.0913781045469347
-0.534635383541894,0.0898258749279058
-0.529732727709114,0.0883066415813588
-0.52482833566216,0.0868208161860157
-0.519922665384094,0.0853688104205981
-0.515016174857981,0.0839510359638279
-0.510109322066885,0.082567904494427
-0.505202564993869,0.0812198276911169
-0.500296361621998,0.0799072172326197
-0.495391169934335,0.0786304847976571
-0.490487447913944,0.0773900420649508
-0.485585653543889,0.0761863007132227
-0.480686244807233,0.0750196724211946
-0.475789679687041,0.0738905688675882
-0.470896416166377,0.0727994017311254
-0.466006912228304,0.0717465826905279
-0.461121625855886,0.0707325234245176
-0.456241015032187,0.0697576356118163
-0.451365537740272,0.0688223309311458
-0.446495651963203,0.0679270210612277
-0.441631815684044,0.0670721176807841
-0.43677448688586,0.0662580324685365
-0.431924123551715,0.065485177103207
-0.427081183664671,0.0647539632635171
-0.422246125207794,0.0640648026281889
-0.417419406164146,0.0634181068759439
-0.412601484516793,0.0628142876855041
-0.407792818248797,0.0622537567355912
-0.402993865343223,0.061736925704927
-0.398205083783133,0.0612642062722334
-0.393426931551593,0.0608360101162321
-0.388659866631667,0.060452748915645
-0.383904347006417,0.0601148343491937
-0.379160830658907,0.0598226780956001
-0.374429775572203,0.0595766918335861
-0.369711639729367,0.0593772872418734
-0.365006881113464,0.0592248759991838
-0.360315957707556,0.0591198697842391
-0.355639327494709,0.0590626802757611
-0.350977448457985,0.0590537191524717
-0.34633077858045,0.0590933980930925
-0.341699775845166,0.0591821287763454
-0.337084898235198,0.0593203228809522
-0.332486603733608,0.0595083920856348
-0.327905350323463,0.0597467480691148
-0.323341595987824,0.0600358025101141
-0.318795798709756,0.0603759670873544
-0.314268416472323,0.0607676534795577
-0.309759907258589,0.0612112733654457
-0.305270729051617,0.0617072384237401
-0.300801339834472,0.0622559603331628
-0.296352197590217,0.0628578507724356
-0.291923760301916,0.0635133214202803
-0.287516485952632,0.0642227839554186
-0.283130832525431,0.0649866500565724
-0.278767258003376,0.0658053314024635
-0.27442622036953,0.0666792396718136
-0.270108177606957,0.0676087865433446
-0.265813587698721,0.0685943836957782
-0.261542908627887,0.0696364428078363
-0.257296598377518,0.0707353755582407
-0.253075114930677,0.0718915936257131
-0.248878916270429,0.0731055086889753
-0.244708460379838,0.0743775324267493
-0.240564205241967,0.0757080765177566
-0.23644660883988,0.0770975526407192
-0.232356129156641,0.0785463724743588
-0.228293224175315,0.0800549476973973
-0.224258351878964,0.0816236899885564
-0.220251970250653,0.0832530110265579
-0.216274537273445,0.0849433224901237
-0.212326510930405,0.0866950360579755
-0.208408349204596,0.088508563408835
-0.204520510079082,0.0903843162214244
-0.200663451536928,0.0923227061744649
-0.196837631561196,0.0943241449466788
-0.19304350813495,0.0963890442167876
-0.189281539241256,0.0985178156635134
-0.185552182863175,0.100710870965578
-0.181855896983773,0.102968621801702
-0.178193139586113,0.105291479850609
-0.174564368653259,0.10767985679102
-0.170970042168275,0.110134164301657
-0.167410618114225,0.112654814061241
-0.163886554474172,0.115242217748495
-0.160398309231181,0.11789678704214
-0.156946340368314,0.120618933620898
-0.153531105868637,0.123409069163491
-0.150153063715213,0.12626760534864
-0.146812671891106,0.129194953855067
-0.14351038837938,0.132191526361495
-0.140246671163098,0.135257734546645
-0.137021978225325,0.138393990089239
-0.133836767549123,0.141600704667998
-0.130691497117558,0.144878289961644
-0.127586624913693,0.1482271576489
-0.124522608920592,0.151647719408487
-0.121499907121319,0.155140386919126
-0.118518977498937,0.15870557185954
-0.11558027803651,0.16234368590845
-0.112684266717103,0.166055140744579
-0.109831401523779,0.169840348046648
-0.107022140439602,0.173699719493378
-0.104256941447636,0.177633666763492
-0.101536262530945,0.18164260153571
-0.0988605616725919,0.185726935488757
-0.0962302968556416,0.189887080301352
-0.0936459260631575,0.194123447652218
-0.0911079072782037,0.198436449220076
-0.0886166984838437,0.202826496683649
-0.0861727576631418,0.207294001721658
-0.0837765427991614,0.211839376012825
-0.0814285118749668,0.216463031235872
-0.0791291228736215,0.22116537906952
-0.0768788337781897,0.225946831192491
-0.0746781025717348,0.230807799283508
-0.0725273872373211,0.235748695021291
-0.0704271457580123,0.240769930084564
-0.0683778361168722,0.245871916152046
-0.0663799162969646,0.251055064902461
-0.0644338442813536,0.25631978801453
-0.0625400780531029,0.261666497166976
-0.0606990755952764,0.267095604038518
-0.0589112948909378,0.272607520307881
-0.0571771939231512,0.278202657653784
-0.0554972306749803,0.283881427754951
-0.053871863129489,0.289644242290102
-0.0523015492697412,0.295491512937961
-0.0507867470788007,0.301423651377247
-0.0493279145397314,0.307441069286684
-0.0479255096355972,0.313544178344993
-0.0465799903494618,0.319733390230896
-0.0452918146643892,0.326009116623115
-0.0440614405634432,0.332371769200371
-0.0428893260296877,0.338821759641386
-0.0417759290461865,0.345359499624883
-0.0407217075960035,0.351985400829582
-0.0397271196622025,0.358699874934206
-0.0387926232278475,0.365503333617477
-0.0379186762760022,0.372396188558115
-0.0371057367897306,0.379378851434844
-0.0363542627520964,0.386451733926385
-0.0356647121461636,0.393615247711459
-0.0350375429549959,0.400869804468789
-0.0344732131616574,0.408215815877096
-0.0339721807492117,0.415653693615102
-0.0335349037007228,0.423183849361529
-0.0331618399992546,0.430806694795098
-0.0328534476278708,0.438522641594532
-0.0326101845696354,0.446332101438553
-0.0324325088076122,0.454235486005881
-0.032320878324865,0.462233206975239
-0.0322757511044578,0.470325676025349
-0.0322975851294544,0.478513304834932
-0.0323868383829186,0.48679650508271
-0.0325439688479143,0.495175688447406
-0.0327694345075053,0.50365126660774
-0.0330636933447556,0.512223651242435
-0.0334272033427289,0.520893254030212
-0.0338604224844892,0.529660486649794
-0.0343638087531002,0.538525760779901
-0.0349378201316259,0.547489488099256
