0.232683081634319,0.954315252072905
0.230397820104944,0.943746487374829
0.22810720172405,0.933270625207651
0.225811321596245,0.922887179605507
0.223510274826136,0.912595664602528
0.221204156518329,0.90239559423285
0.218893061777433,0.892286482530605
0.216577085708053,0.882267843529928
0.214256323414799,0.872339191264951
0.211930870002276,0.86250003976981
0.209600820575092,0.852749903078636
0.207266270237854,0.843088295225564
0.204927314095169,0.833514730244728
0.202584047251645,0.824028722170261
0.200236564811889,0.814629785036297
0.197884961880508,0.80531743287697
0.195529333562109,0.796091179726413
0.193169774961299,0.78695053961876
0.190806381182686,0.777895026588144
0.188439247330876,0.7689241546687
0.186068468510478,0.760037437894561
0.183694139826098,0.75123439029986
0.181316356382344,0.742514525918732
0.178935213283822,0.733877358785309
0.17655080563514,0.725322402933726
0.174163228540905,0.716849172398117
0.171772577105725,0.708457181212614
0.169378946434206,0.700145943411352
0.166982431630955,0.691914973028464
0.164583127800581,0.683763784098084
0.16218113004769,0.675691890654346
0.159776533476889,0.667698806731383
0.157369433192785,0.659784046363329
0.154959924299987,0.651947123584317
0.1525481019031,0.644187552428482
0.150134061106733,0.636504846929957
0.147717897015492,0.628898521122875
0.145299704733985,0.621368089041371
0.142879579366818,0.613913064719577
0.1404576160186,0.606532962191628
0.138033909793937,0.599227295491658
0.135608555797436,0.591995578653799
0.133181649133705,0.584837325712186
0.130753284907351,0.577752050700952
0.128323558222981,0.570739267654231
0.125892564185202,0.563798490606157
0.123460397898622,0.556929233590863
0.121027154467847,0.550131010642483
0.118592928997486,0.54340333579515
0.116157816592144,0.536745723082999
0.11372191235643,0.530157686540163
0.111285311394951,0.523638740200775
0.108848108812313,0.517188398098969
0.106410399713125,0.51080617426888
0.103972279201992,0.50449158274464
0.101533842383523,0.498244137560383
0.0990951843623249,0.492063352750244
0.0966564002430044,0.485948742348355
0.0942175851301689,0.47989982038885
0.0917788341284257,0.473916100905862
0.089340242342382,0.467997097933527
0.086901904876645,0.462142325505977
0.0844639168358218,0.456351297657346
0.0820263733245198,0.450623528421767
0.0795893694473461,0.444958531833375
0.077153000308908,0.439355821926303
0.0747173610138126,0.433814912734684
0.0722825466666671,0.428335318292652
0.0698486523720789,0.422916552634342
0.067415773234655,0.417558129793886
0.0649840043590026,0.412259563805418
0.0625534408497291,0.407020368703072
0.0601241778114416,0.401840058520982
0.0576963103487474,0.396718147293281
0.0552699335662535,0.391654149054103
0.0528451425685673,0.386647577837581
0.050422032460296,0.38169794767785
0.0480006983460467,0.376804772609043
0.0455812353304267,0.371967566665293
0.0431637385180432,0.367185843880735
0.0407483030135034,0.362459118289501
0.0383350239214145,0.357786903925726
0.0359239963463837,0.353168714823544
0.0335153153930183,0.348604065017087
0.0311090761659254,0.34409246854049
0.0287053737697123,0.339633439427886
0.0263043033089861,0.335226491713409
0.0239059598883541,0.330871139431192
0.0215104386124235,0.326566896615371
0.0191178345858015,0.322313277300076
0.0167282429130953,0.318109795519444
0.0143417586989121,0.313955965307606
0.0119584770478592,0.309851300698698
0.00957849306454372,0.305795315726852
0.00720190185357288,0.301787524426202
0.00482879851955392,0.297827440830883
0.00245927816709403,0.293914578975027
9.34359008004579e-05,0.290048452892768
-0.00226863317471966,0.28622857661824
-0.00462683395485906,0.282454464185577
-0.00698107133501051,0.278725629628911
-0.00933125021056684,0.275041586982378
-0.0116772754769208,0.271401850280111
-0.0140190520294653,0.267805933556242
-0.0163564847635929,0.264253350844907
-0.0186894785746966,0.260743616180238
-0.0210179383581691,0.25727624359637
-0.0233417690094032,0.253850747127435
-0.0256608754237917,0.250466640807568
-0.0279751624967274,0.247123438670902
-0.030284535123603,0.243820654751571
-0.0325888981998114,0.240557803083709
-0.0348881566207453,0.237334397701449
-0.0371822152817975,0.234149952638925
-0.039470979078361,0.23100398193027
-0.0417543529058283,0.227895999609619
-0.0440322416595922,0.224825519711105
-0.0463045502350457,0.221792056268861
-0.0485711835275815,0.218795123317021
-0.0508320464325923,0.21583423488972
-0.053087043845471,0.21290890502109
-0.0553360806616103,0.210018647745265
-0.0575790617764031,0.207162977096379
-0.0598158920852421,0.204341407108566
-0.0620464764835201,0.201553451815959
-0.0642707198666299,0.198798625252692
-0.0664885271299642,0.196076441452898
-0.068699803168916,0.193386414450712
-0.0709044528788779,0.190728058280266
-0.0731023811552428,0.188100886975695
-0.0752934928934035,0.185504414571133
-0.0774776929887526,0.182938155100712
-0.0796548863366831,0.180401622598567
-0.0818249778325877,0.177894331098831
-0.0839878723718592,0.175415794635639
-0.0861434748498904,0.172965527243122
-0.0882916901620741,0.170543042955416
-0.090432423203803,0.168147855806654
-0.09256557887047,0.165779479830969
-0.0946910620574679,0.163437429062496
-0.0968087776601893,0.161121217535368
-0.0989186305740272,0.158830359283718
-0.101020525694374,0.15656436834168
-0.103114367916623,0.154322758743388
-0.105200062136167,0.152105044522976
-0.107277513248399,0.149910739714578
-0.109346626148711,0.147739358352325
-0.111407305732496,0.145590414470354
-0.113459456895147,0.143463422102797
-0.115502984532056,0.141357895283788
-0.117537793538617,0.13927334804746
-0.119563788810223,0.137209294427948
-0.121580875242266,0.135165248459384
-0.123588957730138,0.133140724175903
-0.125587941169233,0.131135235611639
-0.127577730454944,0.129148296800724
-0.129558230482663,0.127179421777293
-0.131529346147783,0.125228124575479
-0.133490982345697,0.123293919229416
-0.135443043971797,0.121376319773237
-0.137385435921477,0.119474840241077
-0.139318063090129,0.117588994667069
-0.141240830373146,0.115718297085346
-0.143153642665921,0.113862261530042
-0.145056404863846,0.112020402035292
-0.146949021862315,0.110192232635228
-0.14883139855672,0.108377267363984
-0.150703439842453,0.106575020255694
-0.152565050614909,0.104785005344492
-0.154416135769479,0.103006736664511
-0.156256600201556,0.101239728249885
-0.158086348806534,0.0994834941347472
-0.159905286479804,0.0977375483532319
-0.16171331811676,0.0960014049394725
-0.163510348612794,0.0942745779276026
-0.1652962828633,0.092556581351756
-0.16707102576367,0.0908469292460663
-0.168834482209296,0.0891451356446672
-0.170586557095572,0.0874507145816922
-0.172327155317891,0.0857631800912752
-0.174056181771645,0.0840820462075499
-0.175773541352226,0.0824068269646497
-0.177479138955029,0.0807370363967084
-0.179172879475445,0.0790721885378596
-0.180854667808867,0.0774117974222372
-0.182524408850689,0.0757553770839747
-0.184182007496302,0.0741024415572056
-0.1858273686411,0.0724525048760639
-0.187460397180476,0.070805081074683
-0.189080998009822,0.0691596841871967
-0.190689076024531,0.0675158282477387
-0.192284536119996,0.0658730272904425
-0.193867283191609,0.0642307953494419
-0.195437222134764,0.0625886464588706
-0.196994257844854,0.0609460946528621
-0.19853829521727,0.0593026539655502
-0.200069239147406,0.0576578384310686
-0.201586994530655,0.0560111620835509
-0.203091466262409,0.0543621389571307
-0.204582559238061,0.0527102830859418
-0.206060178353004,0.0510551085041177
-0.207524228502631,0.0493961292457922
-0.208974614582335,0.047732859345099
-0.210411241487508,0.0460648128361717
-0.211834014113542,0.0443915037531439
-0.213242837355832,0.0427124461301494
-0.21463761610977,0.0410271540013218
-0.216018255270748,0.0393351414007947
-0.217384659734159,0.0376359223627019
-0.218736734395397,0.0359290109211769
-0.220074384149853,0.0342139211103535
-0.221397513892921,0.0324901669643654
-0.222706028519993,0.0307572625173462
-0.223999832926463,0.0290147218034294
-0.225278832007723,0.0272620588567491
-0.226542930659165,0.0254987877114384
-0.227792033776183,0.0237244224016315
-0.229026046254169,0.0219384769614617
-0.230244872988517,0.0201404654250629
-0.231448418874618,0.0183299018265686
-0.232636588807867,0.0165063002001126
-0.233809287683654,0.0146691745798283
-0.234966420397375,0.0128180389998498
-0.23610789184442,0.0109524074943104
-0.237233606920183,0.0090717940973439
-0.238343470520057,0.00717571284308396
-0.239437387539434,0.00526367776566432
-0.240515262873708,0.00333520289921847
-0.24157700141827,0.00138980227788031
-0.242622508068515,-0.000573010064216756
-0.243651687719834,-0.00255372009293879
-0.24466444526762,-0.0045528137741524
-0.245660685607267,-0.00657077707372367
-0.246640313634167,-0.0086080959575191
-0.247603234243712,-0.010665256391405
-0.248549352331297,-0.0127427443412476
-0.249478572792312,-0.0148410457729133
-0.250390800522152,-0.0169606466522686
-0.251285940416208,-0.0191020329451795
-0.252163897369875,-0.0212656906175125
-0.253024576278543,-0.023452105635134
-0.253867882037608,-0.0256617639639103
-0.25469371954246,-0.0278951515697076
-0.255501993688493,-0.0301527544183925
-0.2562926093711,-0.0324350584758311
-0.257065471485673,-0.0347425497078898
-0.257820484927606,-0.0370757140804349
-0.25855755459229,-0.0394350375593329
-0.25927658537512,-0.0418210061104499
-0.259977482171487,-0.0442341056996524
-0.260660149876784,-0.0466748222928066
-0.261324493386405,-0.049143641855779
-0.261970417595742,-0.0516410503544357
-0.262597827400187,-0.0541675337546434
-0.263206627695134,-0.056723578022268
-0.263796723375976,-0.0593096691231762
-0.264368019338104,-0.061926293023234
-0.264920420476913,-0.0645739356883081
-0.265453831687794,-0.0672530830842645
-0.265968157866141,-0.0699642211769698
-0.266463303907346,-0.0727078359322901
-0.266939174706802,-0.0754844133160919
-0.267395675159902,-0.0782944392942415
-0.267832710162038,-0.0811383998326052
-0.268250184608605,-0.0840167808970492
-0.268648003394993,-0.0869300684534402
-0.269026071416596,-0.0898787484676442
-0.269384293568808,-0.0928633069055277
-0.269722574747019,-0.0958842297329569
-0.270040819846625,-0.0989420029157983
-0.270338933763016,-0.102037112419918
-0.270616821391586,-0.105170044211183
-0.270874387627729,-0.108341284255458
-0.271111537366835,-0.111551318518612
-0.271328175504299,-0.114800632966508
-0.271524206935514,-0.118089713565015
-0.271699536555871,-0.121419046279999
-0.271854069260764,-0.124789117077325
-0.271987709945585,-0.12820041192286
-0.272100363505728,-0.131653416782471
-0.272191934836585,-0.135148617622024
-0.272262328833548,-0.138686500407385
-0.272311450392011,-0.14226755110442
-0.272339204407367,-0.145892255678996
-0.272345495775008,-0.149561100096979
-0.272330229390327,-0.153274570324235
-0.272293310148717,-0.157033152326632
-0.27223464294557,-0.160837332070034
-0.27215413267628,-0.164687595520309
-0.272051684236239,-0.168584428643323
-0.27192720252084,-0.172528317404941
-0.271780592425476,-0.176519747771032
-0.271611758845539,-0.18055920570746
-0.271420606676423,-0.184647177180092
-0.271207040813519,-0.188784148154794
-0.270970966152222,-0.192970604597434
-0.270712287587923,-0.197207032473876
-0.270430910016016,-0.201493917749988
-0.270126738331893,-0.205831746391636
-0.269799677430948,-0.210221004364685
-0.269449632208572,-0.214662177635004
-0.269076507560158,-0.219155752168457
-0.2686802083811,-0.223702213930911
-0.268260639566791,-0.228302048888233
-0.267817706012622,-0.232955743006288
-0.267351312613987,-0.237663782250944
-0.266861364266279,-0.242426652588066
-0.26634776586489,-0.24724483998352
-0.265810422305214,-0.252118830403174
-0.265249238482642,-0.257049109812894
-0.264664119292568,-0.262036164178545
-0.264054969630384,-0.267080479465994
-0.263421694391484,-0.272182541641108
-0.26276419847126,-0.277342836669752
-0.262082386765105,-0.282561850517794
-0.261376164168412,-0.287840069151099
-0.260645435576573,-0.293177978535534
-0.259890105884981,-0.298576064636965
-0.25911007998903,-0.304034813421258
-0.258305262784111,-0.30955471085428
-0.257475559165618,-0.315136242901898
-0.256620874028943,-0.320779895529977
-0.25574111226948,-0.326486154704383
-0.25483617878262,-0.332255506390984
-0.253905978463758,-0.338088436555645
-0.252950416208285,-0.343985431164233
-0.251969396911594,-0.349946976182614
-0.250962825469078,-0.355973557576655
-0.249930606776131,-0.362065661312221
-0.248872645728144,-0.36822377335518
-0.247788847220511,-0.374448379671396
-0.246679116148623,-0.380739966226738
-0.245543357407876,-0.387099018987071
-0.24438147589366,-0.393526023918261
-0.243193376501368,-0.400021466986175
-0.241978964126394,-0.40658583415668
-0.240738143664131,-0.41321961139564
-0.23947082000997,-0.419923284668924
-0.238176898059306,-0.426697339942396
-0.236856282707529,-0.433542263181924
-0.235508878850035,-0.440458540353374
-0.234134591382214,-0.447446657422612
-0.232733325199461,-0.454507100355505
-0.231304985197167,-0.461640355117918
-0.229849476270726,-0.468846907675718
-0.22836670331553,-0.476127243994772
-0.226856571226973,-0.483481850040946
-0.225318984900446,-0.490911211780105
-0.223753849231343,-0.498415815178118
-0.222161069115057,-0.505996146200849
-0.22054054944698,-0.513652690814165
-0.218892195122504,-0.521385934983932
-0.217215911037024,-0.529196364676017
-0.215511602085932,-0.537084465856287
-0.21377917316462,-0.545050724490607
-0.212018529168481,-0.553095626544844
-0.210229574992908,-0.561219657984864
-0.208412215533294,-0.569423304776533
-0.206566355685032,-0.577707052885718
-0.204691900343514,-0.586071388278286
-0.202788754404134,-0.594516796920101
-0.200856822762283,-0.603043764777032
-0.198896010313355,-0.611652777814943
-0.196906221952742,-0.620344321999703
-0.194887362575839,-0.629118883297175
-0.192839337078036,-0.637976947673229
-0.190762050354727,-0.646919001093728
-0.188655407301304,-0.655945529524541
-0.186519312813162,-0.665057018931532
-0.184353671785691,-0.674253955280569
-0.182158389114286,-0.683536824537518
-0.179933369694338,-0.692906112668245
-0.177678518421242,-0.702362305638616
-0.175393740190388,-0.711905889414498
-0.173078939897171,-0.721537349961757
-0.170734022436983,-0.73125717324626
-0.168358892705217,-0.741065845233872
-0.165953455597265,-0.750963851890461
-0.163517616008521,-0.760951679181892
-0.161051278834377,-0.771029813074032
-0.158554348970225,-0.781198739532747
-0.15602673131146,-0.791458944523904
-0.153468330753473,-0.801810914013368
-0.150879052191658,-0.812255133967007
-0.148258800521406,-0.822792090350685
-0.145607480638112,-0.833422269130271
-0.142924997437167,-0.84414615627163
-0.140211255813965,-0.854964237740628
-0.137466160663898,-0.865876999503132
-0.134689616882359,-0.876884927525009
-0.131881529364741,-0.887988507772123
-0.129041803006437,-0.899188226210343
-0.126170342702839,-0.910484568805534
-0.12326705334934,-0.921878021523562
-0.120331839841333,-0.933369070330294
-0.117364607074211,-0.944958201191596
-0.114365259943367,-0.956645900073334
-0.111333703344193,-0.968432652941376
-0.108269842172083,-0.980318945761586
-0.105173581322428,-0.992305264499832
