0.560681060402976,-0.651723240745203
-0.621351412494643,-0.858089765119304
-0.726974222149527,0.296294928625713
-0.0952334446089755,0.782732789827046
0.536507332931576,1.26917065102838
-0.514404506888373,-0.243814365180339
-0.805317252016337,-0.168502494527563
