0.114792225670869,-0.0806320404038225
0.107021479021442,-0.0789474695401415
0.0993191565373182,-0.0773001454068442
0.0916849947593451,-0.0756898931157923
0.0841187302283692,-0.0741165377788476
0.0766200994852373,-0.0725799045078717
0.069188839070796,-0.0710798184147261
0.0618246855258921,-0.0696161046112726
0.0545273753913722,-0.0681885882093727
0.0472966452080831,-0.0667970943208883
0.0401322315168714,-0.0654414480576807
0.0330338708585839,-0.0641214745316119
0.0260012997740672,-0.0628369988545433
0.0190342548041681,-0.0615878461383367
0.0121324724897332,-0.0603738414948537
0.00529568937160917,-0.0591948100359559
-0.00147635800935716,-0.058050576873505
-0.00818393311231913,-0.0569409671193627
-0.0148272993964301,-0.0558658058853905
-0.0214067203208433,-0.0548249182834501
-0.027922459344712,-0.0538181294254033
-0.0343747799271896,-0.0528452644231116
-0.0407639455274294,-0.0519061483884366
-0.0470902196045846,-0.0510006064332401
-0.0533538656178086,-0.0501284636693837
-0.0595551470262546,-0.049289545208729
-0.0656943272890761,-0.0484836761631377
-0.0717716698654261,-0.0477106816444714
-0.0777874382144581,-0.0469703867645918
-0.0837418957953254,-0.0462626166353605
-0.0896353060671813,-0.0455871963686392
-0.095467932489179,-0.0449439510762895
-0.101240038520472,-0.0443327058701731
-0.106951887620213,-0.0437532858621516
-0.112603743247556,-0.0432055161640867
-0.118195868861654,-0.04268922188784
-0.123728527921661,-0.0422042281452732
-0.129201983886729,-0.0417503600482479
-0.134616500216012,-0.0413274427086257
-0.139972340368664,-0.0409353012382684
-0.145269767803837,-0.0405737607490375
-0.150509045980685,-0.0402426463527948
-0.155690438358361,-0.0399417831614018
-0.160814208396018,-0.0396709962867202
-0.16588061955281,-0.0394301108406117
-0.170889935287891,-0.0392189519349379
-0.175842419060412,-0.0390373446815605
-0.180738334329529,-0.0388851141923411
-0.185577944554393,-0.0387620855791413
-0.190361513194159,-0.0386680839538229
-0.195089303707979,-0.0386029344282474
-0.199761579555007,-0.0385664621142765
-0.204378604194396,-0.0385584921237718
-0.2089406410853,-0.0385788495685951
-0.213447953686871,-0.0386273595606079
-0.217900805458264,-0.0387038472116719
-0.222299459858631,-0.0388081376336488
-0.226644180347125,-0.0389400559384002
-0.230935230382901,-0.0390994272377876
-0.23517287342511,-0.039286076643673
-0.239357372932908,-0.0394998292679177
-0.243488992365446,-0.0397405102223836
-0.247567995181878,-0.0400079446189322
-0.251594644841358,-0.0403019575694252
-0.255569204803039,-0.0406223741857242
-0.259491938526074,-0.0409690195796909
-0.263363109469616,-0.041341718863187
-0.267182981092818,-0.041740297148074
-0.270951816854835,-0.0421645795462137
-0.274669880214819,-0.0426143911694677
-0.278337434631924,-0.0430895571296977
-0.281954743565302,-0.0435899025387652
-0.285522070474108,-0.0441152525085319
-0.289039678817494,-0.0446654321508595
-0.292507832054614,-0.0452402665776097
-0.295926793644621,-0.045839580900644
-0.299296827046668,-0.0464632002318242
-0.302618195719909,-0.0471109496830119
-0.305891163123497,-0.0477826543660687
-0.309115992716586,-0.0484781393928562
-0.312292947958328,-0.0491972298752362
-0.315422292307876,-0.0499397509250703
-0.318504289224385,-0.0507055276542201
-0.321539202167008,-0.0514943851745472
-0.324527294594897,-0.0523061485979134
-0.327468829967206,-0.0531406430361803
-0.330364071743089,-0.0539976936012095
-0.333213283381698,-0.0548771254048627
-0.336016728342187,-0.0557787635590014
-0.33877467008371,-0.0567024331754875
-0.341487372065419,-0.0576479593661825
-0.344155097746468,-0.058615167242948
-0.34677811058601,-0.0596038819176457
-0.349356674043199,-0.0606139285021374
-0.351891051577188,-0.0616451321082845
-0.354381506647129,-0.0626973178479488
-0.356828302712177,-0.0637703108329919
-0.359231703231485,-0.0648639361752755
-0.361591971664206,-0.0659780189866611
-0.363909371469492,-0.0671123843790106
-0.366184166106499,-0.0682668574641854
-0.368416619034378,-0.0694412633540473
-0.370606993712284,-0.0706354271604579
-0.372755553599369,-0.0718491739952789
-0.374862562154787,-0.0730823289703719
-0.376928282837691,-0.0743347171975985
-0.378952979107234,-0.0756061637888204
-0.38093691442257,-0.0768964938558993
-0.382880352242852,-0.0782055325106968
-0.384783556027234,-0.0795331048650745
-0.386646789234868,-0.0808790360308941
-0.388470315324907,-0.0822431511200173
-0.390254397756506,-0.0836252752443057
-0.391999299988818,-0.0850252335156209
-0.393705285480995,-0.0864428510458247
-0.395372617692191,-0.0878779529467785
-0.39700156008156,-0.0893303643303442
-0.398592376108254,-0.0907999103083833
-0.400145329231428,-0.0922864159927575
-0.401660682910233,-0.0937897064953284
-0.403138700603825,-0.0953096069279577
-0.404579645771355,-0.0968459424025071
-0.405983781871977,-0.0983985380308381
-0.407351372364845,-0.0999672189248125
-0.408682680709112,-0.101551810196292
-0.409977970363931,-0.103152136957138
-0.411237504788455,-0.104768024319212
-0.412461547441838,-0.106399297394376
-0.413650361783233,-0.108045781294492
-0.414804211271793,-0.109707301131421
-0.415923359366671,-0.111383682017025
-0.417008069527022,-0.113074749063166
-0.418058605211998,-0.114780327381704
-0.419075229880752,-0.116500242084503
-0.420058206992438,-0.118234318283423
-0.421007800006209,-0.119982381090326
-0.421924272381219,-0.121744255617073
-0.422807887576621,-0.123519766975528
-0.423658909051567,-0.12530874027755
-0.424477600265211,-0.127111000635002
-0.425264224676708,-0.128926373159745
-0.426019045745209,-0.130754682963642
-0.426742326929868,-0.132595755158553
-0.427434331689839,-0.13444941485634
-0.428095323484274,-0.136315487168866
-0.428725565772328,-0.138193797207991
-0.429325322013153,-0.140084170085577
-0.429894855665903,-0.141986430913486
-0.430434430189731,-0.14390040480358
-0.43094430904379,-0.14582591686772
-0.431424755687234,-0.147762792217768
-0.431876033579215,-0.149710855965585
-0.432298406178888,-0.151669933223034
-0.432692136945406,-0.153639849101975
-0.433057489337921,-0.155620428714271
-0.433394726815587,-0.157611497171783
-0.433704112837558,-0.159612879586372
-0.433985910862986,-0.161624401069901
-0.434240384351025,-0.163645886734231
-0.434467796760829,-0.165677161691224
-0.43466841155155,-0.167718051052741
-0.434842492182342,-0.169768379930644
-0.434990302112359,-0.171827973436795
-0.435112104800753,-0.173896656683055
-0.435208163706677,-0.175974254781286
-0.435278742289286,-0.17806059284335
-0.435324104007732,-0.180155495981108
-0.435344512321169,-0.182258789306421
-0.43534023068875,-0.184370297931153
-0.435311522569628,-0.186489846967163
-0.435258651422957,-0.188617261526315
-0.43518188070789,-0.190752366720468
-0.43508147388358,-0.192894987661486
-0.434957694409181,-0.19504494946123
-0.434810805743845,-0.197202077231561
-0.434641071346726,-0.199366196084342
-0.434448754676978,-0.201537131131433
-0.434234119193753,-0.203714707484696
-0.433997428356206,-0.205898750255993
-0.433738945623489,-0.208089084557187
-0.433458934454755,-0.210285535500137
-0.433157658309159,-0.212487928196706
-0.432835380645852,-0.214696087758757
-0.432492364923989,-0.216909839298149
-0.432128874602723,-0.219129007926745
-0.431745173141207,-0.221353418756407
-0.431341523998595,-0.223582896898996
-0.430918190634039,-0.225817267466374
-0.430475436506693,-0.228056355570402
-0.430013525075711,-0.230299986322943
-0.429532719800245,-0.232547984835858
-0.429033284139448,-0.234800176221008
-0.428515481552476,-0.237056385590255
-0.42797957549848,-0.239316438055461
-0.427425829436613,-0.241580158728487
-0.42685450682603,-0.243847372721195
-0.426265871125883,-0.246117905145447
-0.425660185795326,-0.248391581113105
-0.425037714293512,-0.250668225736029
-0.424398720079594,-0.252947664126082
-0.423743466612725,-0.255229721395126
-0.42307221735206,-0.257514222655021
-0.422385235756751,-0.25980099301763
-0.421682785285951,-0.262089857594814
-0.420965129398815,-0.264380641498435
-0.420232531554494,-0.266673169840355
-0.419485255212143,-0.268967267732435
-0.418723563830914,-0.271262760286537
-0.417947720869962,-0.273559472614522
-0.417157989788439,-0.275857229828253
-0.416354634045498,-0.27815585703959
-0.415537917100294,-0.280455179360395
-0.414708102411978,-0.282755021902531
-0.413865453439706,-0.285055209777859
-0.413010233642629,-0.28735556809824
-0.412142706479901,-0.289655921975536
-0.411263135410675,-0.291956096521608
-0.410371783894106,-0.294255916848319
-0.409468915389345,-0.29655520806753
-0.408554793355546,-0.298853795291103
-0.407629681251864,-0.301151503630899
-0.40669384253745,-0.30344815819878
-0.405747540671458,-0.305743584106608
-0.404791039113042,-0.308037606466243
-0.403824601321355,-0.310330050389549
-0.40284849075555,-0.312620740988386
-0.40186297087478,-0.314909503374617
-0.400868305138199,-0.317196162660102
-0.39986475700496,-0.319480543956703
-0.398852589934217,-0.321762472376283
-0.397832067385122,-0.324041773030703
-0.396803452816828,-0.326318271031824
-0.395767009688491,-0.328591791491508
-0.394723001459261,-0.330862159521617
-0.393671691588294,-0.333129200234012
-0.392613343534742,-0.335392738740556
-0.391548220757758,-0.337652600153108
-0.390476586716495,-0.339908609583533
-0.389398704870108,-0.34216059214369
-0.38831483867775,-0.344408372945442
-0.387225251598572,-0.34665177710065
-0.38613020709173,-0.348890629721176
-0.385029968616376,-0.351124755918882
-0.383924799631664,-0.353353980805629
-0.382814963596746,-0.355578129493278
-0.381700723970777,-0.357797027093693
-0.380582344212908,-0.360010498718733
-0.379460087782295,-0.362218369480262
-0.37833421813809,-0.364420464490139
-0.377204998739446,-0.366616608860228
-0.376072693045517,-0.36880662770239
-0.374937564515455,-0.370990346128486
-0.373799876608415,-0.373167589250378
-0.372659892783549,-0.375338182179928
-0.371517876500012,-0.377501950028997
-0.370374091216955,-0.379658717909447
-0.369228800393533,-0.38180831093314
-0.368082267488898,-0.383950554211937
-0.366934755962205,-0.3860852728577
-0.365786529272606,-0.388212291982291
-0.364637850879255,-0.390331436697571
-0.363488984241304,-0.392442532115402
-0.362340192817908,-0.394545403347645
-0.361191740068219,-0.396639875506163
-0.360043889451391,-0.398725773702816
-0.358896904426577,-0.400802923049467
-0.357751048452931,-0.402871148657978
-0.356606584989606,-0.404930275640209
-0.355463777495754,-0.406980129108022
-0.35432288943053,-0.409020534173279
-0.353184184253087,-0.411051315947843
-0.352047925422577,-0.413072299543573
-0.350914376398155,-0.415083310072333
-0.349783800638973,-0.417084172645983
-0.348656461604185,-0.419074712376386
-0.347532622752944,-0.421054754375403
-0.346412547544404,-0.423024123754895
-0.345296499437717,-0.424982645626725
-0.344184741892038,-0.426930145102753
-0.343077538366518,-0.428866447294843
-0.341975152320313,-0.430791377314854
-0.340877847212574,-0.432704760274649
-0.339785886502456,-0.43460642128609
-0.338699533649111,-0.436496185461038
-0.337619052111693,-0.438373877911355
-0.336544705349355,-0.440239323748902
-0.335476756821251,-0.442092348085542
-0.334415469986533,-0.443932776033135
-0.333361108304356,-0.445760432703544
-0.332313935233871,-0.447575143208629
-0.331274214234234,-0.449376732660254
-0.330242208764596,-0.451165026170279
-0.329218182284112,-0.452939848850566
-0.328202398251934,-0.454701025812976
-0.327195120127216,-0.456448382169372
-0.326196611369111,-0.458181743031615
-0.325207135436773,-0.459900933511566
-0.324226955789354,-0.461605778721088
-0.323256335886008,-0.463296103772042
-0.322295539185889,-0.464971733776289
-0.32134482914815,-0.466632493845691
-0.320404469231943,-0.468278209092111
-0.319474722896423,-0.469908704627409
-0.318555853600742,-0.471523805563447
-0.317648124804054,-0.473123337012087
-0.316751799965512,-0.47470712408519
-0.31586714254427,-0.476274991894618
-0.31499441599948,-0.477826765552233
-0.314133883790297,-0.479362270169897
-0.313285809375873,-0.480881330859471
-0.312450456215361,-0.482383772732816
-0.311628087767916,-0.483869420901795
-0.310818967492689,-0.485338100478268
-0.310023358848836,-0.486789636574099
-0.309241525295508,-0.488223854301147
-0.308473730291859,-0.489640578771276
-0.307720237297043,-0.491039635096346
-0.306981309770212,-0.49242084838822
-0.306257211170521,-0.493784043758758
-0.305548204957122,-0.495129046319823
-0.304854554589168,-0.496455681183276
-0.304176523525814,-0.497763773460979
-0.303514375226212,-0.499053148264794
-0.302868373149515,-0.500323630706581
-0.302238780754877,-0.501575045898204
-0.301625861501452,-0.502807218951522
-0.301029878848391,-0.504019974978399
-0.30045109625485,-0.505213139090696
-0.299889777179981,-0.506386536400274
-0.299346185082937,-0.507539992018995
-0.298820583422871,-0.508673331058721
-0.298313235658938,-0.509786378631313
-0.29782440525029,-0.510878959848633
-0.29735435565608,-0.511950899822543
-0.296903350335463,-0.513002023664904
-0.29647165274759,-0.514032156487578
-0.296059526351616,-0.515041123402427
-0.295667234606694,-0.516028749521312
-0.295295040971977,-0.516994859956094
-0.294943208906618,-0.517939279818637
-0.294612001869771,-0.5188618342208
-0.294301683320589,-0.519762348274446
-0.294012516718225,-0.520640647091437
-0.293744765521833,-0.521496555783634
-0.293498693190565,-0.522329899462899
-0.293274563183576,-0.523140503241093
-0.293072638960018,-0.523928192230078
-0.292893183979045,-0.524692791541715
-0.29273646169981,-0.525434126287868
-0.292602735581466,-0.526152021580396
-0.292492269083167,-0.526846302531162
-0.292405325664066,-0.527516794252027
-0.292342168783316,-0.528163321854853
-0.292303061900071,-0.528785710451502
-0.292288268473484,-0.529383785153835
-0.292298051962708,-0.529957371073714
-0.292332675826896,-0.530506293323001
-0.292392403525203,-0.531030377013557
-0.29247749851678,-0.531529447257243
-0.292588224260781,-0.532003329165922
-0.292724844216361,-0.532451847851456
-0.292887621842671,-0.532874828425705
-0.293076820598865,-0.533272096000531
-0.293292703944097,-0.533643475687797
-0.29353553533752,-0.533988792599364
-0.293805578238288,-0.534307871847092
-0.294103096105552,-0.534600538542846
-0.294428352398468,-0.534866617798484
-0.294781610576187,-0.53510593472587
-0.295163134097864,-0.535318314436865
-0.295573186422651,-0.535503582043331
-0.296012031009703,-0.535661562657128
-0.296479931318172,-0.53579208139012
-0.296977150807211,-0.535894963354168
-0.297503952935974,-0.535970033661133
-0.298060601163615,-0.536017117422876
-0.298647358949286,-0.53603603975126
-0.29926448975214,-0.536026625758147
-0.299912257031332,-0.535988700555397
-0.300590924246014,-0.535922089254873
-0.30130075485534,-0.535826616968435
-0.302042012318463,-0.535702108807947
-0.302814960094536,-0.535548389885269
-0.303619861642712,-0.535365285312263
-0.304456980422146,-0.535152620200791
-0.30532657989199,-0.534910219662715
-0.306228923511397,-0.534637908809895
-0.307164274739521,-0.534335512754194
-0.308132897035515,-0.534002856607473
-0.309135053858532,-0.533639765481595
-0.310171008667727,-0.53324606448842
-0.311241024922251,-0.53282157873981
-0.312345366081258,-0.532366133347627
-0.313484295603902,-0.531879553423733
-0.314658076949336,-0.531361664079989
-0.315866973576713,-0.530812290428257
-0.317111248945186,-0.530231257580398
-0.31839116651391,-0.529618390648275
-0.319706989742036,-0.528973514743748
-0.321058982088719,-0.52829645497868
-0.321058982088719,-0.52829645497868
-0.322429381607222,-0.527604944301169
-0.323800185522375,-0.526916851924899
-0.325171296050681,-0.526232207360108
-0.326542615408644,-0.525551040117034
-0.327914045812767,-0.524873379705914
-0.329285489479552,-0.524199255636987
-0.330656848625503,-0.523528697420491
-0.332028025467123,-0.522861734566664
-0.333398922220915,-0.522198396585744
-0.334769441103383,-0.521538712987969
-0.336139484331028,-0.520882713283576
-0.337508954120355,-0.520230426982805
-0.338877752687867,-0.519581883595893
-0.340245782250066,-0.518937112633078
-0.341612945023456,-0.518296143604598
-0.34297914322454,-0.517659006020691
-0.344344279069822,-0.517025729391596
-0.345708254775803,-0.516396343227549
-0.347070972558987,-0.515770877038789
-0.348432334635878,-0.515149360335555
-0.349792243222978,-0.514531822628085
-0.351150600536791,-0.513918293426615
-0.35250730879382,-0.513308802241385
-0.353862270210568,-0.512703378582632
-0.355215387003537,-0.512102051960595
-0.356566561389232,-0.511504851885511
-0.357915695584155,-0.510911807867618
-0.35926269180481,-0.510322949417155
-0.360607452267698,-0.509738306044359
-0.361949879189325,-0.509157907259469
-0.363289874786192,-0.508581782572723
-0.364627341274803,-0.508009961494358
-0.365962180871661,-0.507442473534613
-0.367294295793269,-0.506879348203725
-0.36862358825613,-0.506320615011933
-0.369949960476747,-0.505766303469475
-0.371273314671624,-0.505216443086589
-0.372593553057264,-0.504671063373512
-0.373910577850169,-0.504130193840483
-0.375224291266843,-0.50359386399774
-0.376534595523788,-0.503062103355521
-0.377841392837509,-0.502534941424064
-0.379144585424508,-0.502012407713606
-0.380444075501289,-0.501494531734387
-0.381739765284353,-0.500981342996644
-0.383031556990205,-0.500472871010614
-0.384319352835348,-0.499969145286537
-0.385603055036285,-0.49947019533465
-0.386882565809518,-0.498976050665191
-0.388157787371551,-0.498486740788398
-0.389428621938888,-0.498002295214509
-0.390694971728031,-0.497522743453762
-0.391956738955483,-0.497048115016396
-0.393213825837747,-0.496578439412648
-0.394466134591327,-0.496113746152756
-0.395713567432726,-0.495654064746958
-0.396956026578447,-0.495199424705493
-0.398193414244992,-0.494749855538598
-0.399425632648866,-0.494305386756511
-0.400652584006571,-0.493866047869472
-0.40187417053461,-0.493431868387716
-0.403090294449487,-0.493002877821483
-0.404300857967704,-0.49257910568101
-0.405505763305764,-0.492160581476536
-0.406704912680172,-0.491747334718299
-0.407898208307429,-0.491339394916536
-0.40908555240404,-0.490936791581486
-0.410266847186506,-0.490539554223386
-0.411441994871332,-0.490147712352476
-0.412610897675021,-0.489761295478991
-0.413773457814074,-0.489380333113172
-0.414929577504997,-0.489004854765255
-0.416079158964291,-0.48863488994548
-0.41722210440846,-0.488270468164083
-0.418358316054007,-0.487911618931303
-0.419487696117435,-0.487558371757378
-0.420610146815247,-0.487210756152546
-0.421725570363947,-0.486868801627044
-0.422833868980037,-0.486532537691112
-0.423934944880021,-0.486201993854987
-0.425028700280401,-0.485877199628907
-0.426115037397681,-0.48555818452311
-0.427193858448364,-0.485244978047834
-0.428265065648953,-0.484937609713317
-0.429328561215952,-0.484636109029797
-0.430384247365862,-0.484340505507513
-0.431432026315188,-0.484050828656701
-0.432471800280433,-0.483767107987602
-0.433503471478099,-0.483489373010451
-0.43452694212469,-0.483217653235488
-0.435542114436709,-0.482951978172949
-0.436548890630659,-0.482692377333075
-0.437547172923043,-0.482438880226102
-0.438536863530365,-0.482191516362268
-0.439517864669126,-0.481950315251812
-0.440490078555832,-0.481715306404971
-0.441453407406984,-0.481486519331984
-0.442407753439085,-0.481263983543088
-0.443353018868639,-0.481047728548522
-0.44428910591215,-0.480837783858523
-0.445215916786119,-0.48063417898333
-0.446133353707051,-0.480436943433181
-0.447041318891448,-0.480246106718313
-0.447939714555813,-0.480061698348966
-0.448828442916651,-0.479883747835376
-0.449707406190462,-0.479712284687782
-0.450576506593752,-0.479547338416421
-0.451435646343022,-0.479388938531533
-0.452284727654777,-0.479237114543354
-0.453123652745519,-0.479091895962123
-0.453952323831751,-0.478953312298078
-0.454770643129976,-0.478821393061458
-0.455578512856698,-0.478696167762499
-0.45637583522842,-0.47857766591144
-0.457162512461644,-0.478465917018519
-0.457938446772874,-0.478360950593975
-0.458703540378613,-0.478262796148044
-0.459457695495365,-0.478171483190966
-0.460200814339631,-0.478087041232978
-0.460932799127917,-0.478009499784318
-0.461653552076723,-0.477938888355224
-0.462362975402554,-0.477875236455934
-0.463060971321913,-0.477818573596687
-0.463747442051303,-0.47776892928772
-0.464422289807226,-0.477726333039272
-0.465085416806187,-0.47769081436158
-0.465736725264688,-0.477662402764882
-0.466376117399232,-0.477641127759417
-0.467003495426323,-0.477627018855422
-0.467618761562463,-0.477620105563136
-0.468221818024156,-0.477620417392796
-0.468812567027905,-0.477627983854641
-0.469390910790213,-0.477642834458909
-0.469956751527582,-0.477664998715837
-0.470509991456517,-0.477694506135663
-0.47105053279352,-0.477731386228627
-0.471578277755095,-0.477775668504965
-0.472093128557744,-0.477827382474916
-0.472594987417971,-0.477886557648717
-0.473083756552278,-0.477953223536608
-0.47355933817717,-0.478027409648825
-0.474021634509148,-0.478109145495607
-0.474470547764717,-0.478198460587192
-0.474905980160379,-0.478295384433818
-0.475327833912637,-0.478399946545723
-0.475736011237994,-0.478512176433145
-0.476130414352954,-0.478632103606322
-0.476510945474021,-0.478759757575492
-0.476877506817695,-0.478895167850893
-0.477230000600482,-0.479038363942763
-0.477568329038884,-0.47918937536134
-0.477892394349404,-0.479348231616862
-0.478202098748545,-0.479514962219568
-0.478497344452811,-0.479689596679695
-0.478778033678704,-0.479872164507481
-0.479044068642728,-0.480062695213164
-0.479295351561386,-0.480261218306983
-0.479531784651181,-0.480467763299175
-0.479753270128616,-0.480682359699978
-0.479959710210194,-0.48090503701963
-0.480151007112418,-0.481135824768371
-0.480327063051791,-0.481374752456436
-0.480487780244817,-0.481621849594065
-0.480633060907999,-0.481877145691496
-0.48076280725784,-0.482140670258966
-0.480876921510842,-0.482412452806714
-0.48097530588351,-0.482692522844977
-0.481057862592345,-0.482980909883994
-0.481124493853852,-0.483277643434003
-0.481175101884533,-0.483582753005241
-0.481209588900891,-0.483896268107947
-0.481227857119431,-0.484218218252359
-0.481229808756654,-0.484548632948714
-0.481215346029063,-0.484887541707252
-0.481184371153163,-0.485234974038209
-0.481136786345456,-0.485590959451824
-0.481072493822445,-0.485955527458335
-0.480991395800633,-0.48632870756798
-0.480893394496524,-0.486710529290996
-0.48077839212662,-0.487101022137623
-0.480646290907425,-0.487500215618098
-0.480496993055442,-0.487908139242659
-0.480330400787173,-0.488324822521544
-0.480146416319123,-0.488750294964991
-0.479944941867794,-0.489184586083238
-0.479725879649689,-0.489627725386524
-0.479489131881311,-0.490079742385085
-0.479234600779164,-0.490540666589161
-0.478962188559751,-0.491010527508989
-0.478671797439574,-0.491489354654807
-0.478363329635137,-0.491977177536854
-0.478036687362944,-0.492474025665367
-0.477691772839496,-0.492979928550585
-0.477328488281298,-0.493494915702744
-0.476946735904851,-0.494019016632084
-0.476546417926661,-0.494552260848843
-0.476127436563229,-0.495094677863259
-0.475689694031059,-0.495646297185568
-0.475233092546653,-0.49620714832601
-0.474757534326515,-0.496777260794823
-0.474262921587149,-0.497356664102245
-0.473749156545057,-0.497945387758513
-0.473216141416742,-0.498543461273866
-0.472663778418707,-0.499150914158541
-0.472091969767456,-0.499767775922777
-0.471500617679492,-0.500394076076812
-0.470889624371317,-0.501029844130884
-0.470258892059436,-0.50167510959523
-0.46960832296035,-0.50232990198009
-0.468937819290563,-0.5029942507957
-0.468247283266579,-0.503668185552299
-0.4675366171049,-0.504351735760125
-0.46680572302203,-0.505044930929416
-0.466054503234471,-0.505747800570411
-0.465282859958727,-0.506460374193346
-0.464490695411301,-0.50718268130846
-0.463677911808696,-0.507914751425991
-0.462844411367415,-0.508656614056177
-0.461990096303961,-0.509408298709257
-0.461114868834838,-0.510169834895468
-0.460218631176548,-0.510941252125047
-0.459301285545595,-0.511722579908235
-0.458362734158481,-0.512513847755267
-0.45740287923171,-0.513315085176383
-0.456421622981785,-0.51412632168182
-0.455418867625209,-0.514947586781816
-0.454394515378485,-0.51577890998661
-0.453348468458117,-0.516620320806439
-0.452280629080607,-0.517471848751541
-0.451190899462459,-0.518333523332156
-0.450079181820175,-0.519205374058519
-0.448945378370259,-0.52008743044087
-0.447789391329214,-0.520979721989447
-0.446611122913543,-0.521882278214487
-0.445410475339749,-0.522795128626229
-0.444187350824335,-0.52371830273491
-0.442941651583805,-0.52465183005077
-0.441673279834661,-0.525595740084045
-0.440382137793407,-0.526550062344973
-0.439068127676545,-0.527514826343793
-0.43773115170058,-0.528490061590744
-0.436371112082013,-0.529475797596062
-0.434987911037349,-0.530472063869986
-0.433581450783089,-0.531478889922753
-0.432151633535738,-0.532496305264603
-0.430698361511799,-0.533524339405773
-0.429221536927774,-0.5345630218565
-0.427721062000167,-0.535612382127024
-0.42619683894548,-0.536672449727581
-0.424648769980218,-0.537743254168411
-0.423076757320882,-0.538824824959751
-0.421480703183977,-0.539917191611839
-0.419860509786005,-0.541020383634913
-0.418216079343469,-0.542134430539211
-0.416547314072873,-0.543259361834972
-0.41485411619072,-0.544395207032432
-0.413136387913512,-0.545541995641831
-0.411394031457754,-0.546699757173407
-0.409626949039947,-0.547868521137396
-0.407835042876596,-0.549048317044038
-0.406018215184202,-0.550239174403571
-0.40417636817927,-0.551441122726231
-0.402309404078303,-0.552654191522259
-0.400417225097803,-0.55387841030189
-0.398499733454274,-0.555113808575365
-0.396556831364219,-0.556360415852919
-0.39458842104414,-0.557618261644793
-0.392594404710542,-0.558887375461223
-0.390574684579927,-0.560167786812447
-0.388529162868799,-0.561459525208704
-0.386457741793659,-0.562762620160232
-0.384360323571013,-0.564077101177269
-0.382236810417362,-0.565402997770052
-0.38008710454921,-0.56674033944882
-0.377911108183059,-0.568089155723811
-0.375708723535414,-0.569449476105263
-0.373479852822777,-0.570821330103414
-0.371224398261652,-0.572204747228501
-0.36894226206854,-0.573599756990764
-0.366633346459947,-0.575006388900439
-0.364297553652373,-0.576424672467766
-0.361934785862324,-0.577854637202981
-0.359544945306302,-0.579296312616323
-0.357127934200809,-0.580749728218031
-0.35468365476235,-0.582214913518341
-0.352212009207427,-0.583691898027493
-0.349712899752543,-0.585180711255724
-0.347186228614202,-0.586681382713272
-0.344631898008906,-0.588193941910376
-0.342049810153159,-0.589718418357272
-0.339439867263464,-0.5912548415642
-0.336801971556324,-0.592803241041397
-0.334136025248242,-0.594363646299102
-0.331441930555721,-0.595936086847552
-0.328719589695265,-0.597520592196985
-0.325968904883376,-0.59911719185764
-0.323189778336557,-0.600725915339754
-0.320382112271312,-0.602346792153565
-0.317545808904144,-0.603979851809313
-0.314680770451556,-0.605625123817233
-0.311786899130051,-0.607282637687566
-0.308864097156132,-0.608952422930547
-0.305912266746303,-0.610634509056417
-0.302931310117066,-0.612328925575412
-0.299921129484924,-0.614035701997771
-0.296881627066381,-0.615754867833731
-0.29381270507794,-0.617486452593532
-0.290714265736103,-0.61923048578741
-0.287586211257375,-0.620986996925604
-0.284428443858258,-0.622756015518352
-0.281240865755254,-0.624537571075892
-0.278023379164869,-0.626331693108461
-0.274775886303604,-0.628138411126299
-0.271498289387962,-0.629957754639642
-0.268190490634447,-0.63178975315873
-0.264852392259562,-0.633634436193799
-0.26148389647981,-0.635491833255089
-0.258084905511694,-0.637361973852836
-0.254655321571717,-0.63924488749728
-0.251195046876383,-0.641140603698658
-0.247703983642194,-0.643049151967208
-0.244182034085653,-0.644970561813168
-0.240629100423264,-0.646904862746777
-0.23704508487153,-0.648852084278271
-0.233429889646954,-0.65081225591789
-0.229783416966039,-0.652785407175872
-0.226105569045288,-0.654771567562453
-0.222396248101204,-0.656770766587873
-0.218655356350291,-0.65878303376237
-0.214882796009051,-0.660808398596181
-0.211078469293988,-0.662846890599544
-0.207242278421605,-0.664898539282698
-0.203374125608404,-0.66696337415588
-0.19947391307089,-0.669041424729329
-0.195541543025565,-0.671132720513283
-0.191576917688931,-0.673237291017979
-0.187579939277494,-0.675355165753656
-0.183550510007754,-0.677486374230551
-0.179488532096217,-0.679630945958903
-0.175393907759384,-0.68178891044895
-0.171266539213758,-0.68396029721093
-0.167106328675844,-0.68614513575508
-0.162913178362144,-0.68834345559164
-0.158686990489161,-0.690555286230846
-0.154427667273398,-0.692780657182937
-0.150135110931359,-0.695019597958151
-0.145809223679546,-0.697272138066725
-0.141449907734463,-0.699538307018899
-0.137057065312613,-0.70181813432491
-0.132630598630499,-0.704111649494996
-0.128170409904623,-0.706418882039395
-0.12367640135149,-0.708739861468345
-0.119148475187602,-0.711074617292084
-0.114586533629463,-0.71342317902085
-0.109990478893575,-0.715785576164882
-0.105360213196442,-0.718161838234416
-0.100695638754566,-0.720551994739692
-0.0959966577844514,-0.722956075190947
-0.0912631725026005,-0.72537410909842
-0.086495085125517,-0.727806125972348
-0.0816922978697034,-0.730252155322969
-0.0768547129516635,-0.732712226660521
-0.0719822325878997,-0.735186369495243
-0.0670747589949158,-0.737674613337372
-0.0621321943892144,-0.740176987697147
-0.057154440987299,-0.742693522084806
-0.0521414010056724,-0.745224246010586
-0.047092976660838,-0.747769188984725
-0.0420090701692986,-0.750328380517462
-0.0368895837475577,-0.752901850119035
-0.031734419612118,-0.755489627299681
-0.0265434799794831,-0.758091741569639
-0.0213166670661556,-0.760708222439147
-0.0160538830886391,-0.763339099418442
-0.0107550302634363,-0.765984402017763
-0.00542001080705078,-0.768644159747348
-4.87269359851356e-05,-0.771318402117435
0.00535891913325701,-0.774007158638262
0.010803025184173,-0.776710458820067
0.0162836890002593,-0.779428332173087
0.0218010083650131,-0.782160808207562
0.027355081061931,-0.784907916433728
0.0329460048745103,-0.787669686361824
0.0385738775862473,-0.790446147502089
0.0442387969806396,-0.79323732936476
0.0499408608411833,-0.796043261460074
0.0556801669513759,-0.798863973298271
0.0614568130947138,-0.801699494389588
0.0672708970546945,-0.804549854244263
0.0731225166148141,-0.807415082372534
0.0790117695585702,-0.81029520828464
0.0849387536694591,-0.813190261490818
0.0909035667309782,-0.816100271501306
0.0969063065266238,-0.819025267826342
0.102947070839893,-0.821965279976165
0.109025957454283,-0.824920337461012
0.115143064153291,-0.827890469791122
0.121298488720413,-0.830875706476732
0.127492328939146,-0.833876077028081
