0.367055729718167,-0.282156555965125
0.36988426813073,-0.280908065560536
0.372673485692853,-0.279648378609376
0.375423618711531,-0.278377597323888
0.378134903493758,-0.277095823916316
0.38080757634653,-0.275803160598903
0.38344187357684,-0.274499709583891
0.386038031491684,-0.273185573083526
0.388596286398057,-0.271860853310049
0.391116874602952,-0.270525652475705
0.393600032413366,-0.269180072792736
0.396045996136291,-0.267824216473386
0.398455002078724,-0.266458185729898
0.400827286547659,-0.265082082774516
0.40316308585009,-0.263696009819482
0.405462636293013,-0.26230006907704
0.407726174183422,-0.260894362759435
0.409953935828311,-0.259478993078907
0.412146157534676,-0.258054062247702
0.41430307560951,-0.256619672478062
0.41642492635981,-0.255175925982231
0.418511946092569,-0.253722924972452
0.420564371114783,-0.252260771660968
0.422582437733445,-0.250789568260023
0.424566382255551,-0.24930941698186
0.426516440988096,-0.247820420038723
0.428432850238073,-0.246322679642854
0.430315846312479,-0.244816298006497
0.432165665518306,-0.243301377341895
0.433982544162551,-0.241778019861292
0.435766718552208,-0.240246327776931
0.437518424994272,-0.238706403301055
0.439237899795737,-0.237158348645907
0.440925379263598,-0.235602266023732
0.442581099704849,-0.234038257646771
0.444205297426486,-0.23246642572727
0.445798208735503,-0.23088687247747
0.447360069938896,-0.229299700109615
0.448891117343657,-0.227705010835949
0.450391587256783,-0.226102906868714
0.451861715985268,-0.224493490420155
0.453301739836107,-0.222876863702514
0.454711895116294,-0.221253128928035
0.456092418132824,-0.219622388308961
0.457443545192692,-0.217984744057536
0.458765512602892,-0.216340298386002
0.46005855667042,-0.214689153506603
0.461322913702269,-0.213031411631583
0.462558820005436,-0.211367174973184
0.463766511886913,-0.209696545743651
0.464946225653697,-0.208019626155226
0.466098197612781,-0.206336518420152
0.467222664071161,-0.204647324750673
0.468319861335832,-0.202952147359033
0.469390025713787,-0.201251088457474
0.470433393512021,-0.199544250258241
0.47145020103753,-0.197831734973575
0.472440684597308,-0.196113644815721
0.47340508049835,-0.194390081996922
0.47434362504765,-0.192661148729421
0.475256554552203,-0.190926947225462
0.476144105319005,-0.189187579697288
0.477006513655048,-0.187443148357142
0.477844015867329,-0.185693755417267
0.478656848262842,-0.183939503089908
0.479445247148582,-0.182180493587306
0.480209448831543,-0.180416829121706
0.48094968961872,-0.17864861190535
0.481666205817108,-0.176875944150483
0.482359233733701,-0.175098928069347
0.483029009675495,-0.173317665874186
0.483675769949483,-0.171532259777243
0.484299750862662,-0.169742811990762
0.484901188722024,-0.167949424726985
0.485480319834566,-0.166152200198156
0.486037380507281,-0.164351240616518
0.486572607047165,-0.162546648194316
0.487086235761212,-0.160738525143791
0.487578502956417,-0.158926973677187
0.488049644939774,-0.157112096006749
0.488499898018279,-0.155293994344718
0.488929498498926,-0.153472770903338
0.48933868268871,-0.151648527894853
0.489727686894624,-0.149821367531506
0.490096747423666,-0.14799139202554
0.490446100582828,-0.146158703589199
0.490775982679105,-0.144323404434726
0.491086630019493,-0.142485596774364
0.491378278910985,-0.140645382820356
0.491651165660578,-0.138802864784946
0.491905526575265,-0.136958144880378
0.49214159796204,-0.135111325318893
0.4923596161279,-0.133262508312737
0.492559817379838,-0.131411796074152
0.49274243802485,-0.129559290815381
0.492907714369929,-0.127705094748668
0.493055882722071,-0.125849310086256
0.49318717938827,-0.123992039040389
0.493301840675521,-0.122133383823309
0.493400102890819,-0.120273446647261
0.493482202341159,-0.118412329724486
0.493548375333535,-0.11655013526723
0.493598858174941,-0.114686965487734
0.493633887172373,-0.112822922598243
0.493653698632825,-0.110958108810999
0.493658528863293,-0.109092626338247
0.49364861417077,-0.107226577392228
0.493624190862251,-0.105360064185188
0.493585495244732,-0.103493188929368
0.493532763625207,-0.101626053837013
0.49346623231067,-0.0997587611203647
0.493386137608116,-0.0978914129916676
0.49329271582454,-0.0960241116631649
0.493186203266937,-0.0941569593470997
0.493066836242301,-0.0922900582557153
0.492934851057627,-0.0904235106012551
0.492790484019911,-0.0885574185959624
0.492633971436145,-0.0866918844520806
0.492465549613326,-0.0848270103818529
0.492285454858448,-0.0829628985975226
0.492093923478505,-0.0810996513113332
0.491891191780493,-0.0792373707355279
0.491677496071405,-0.07737615908235
0.491453072658238,-0.0755161185640428
0.491218157847985,-0.0736573513928497
0.490972987947641,-0.071799959781014
0.490717799264201,-0.069944045940779
0.490452828104659,-0.068089712084388
0.490178310776011,-0.0662370604240845
0.489894483585251,-0.0643861931721116
0.489601582839373,-0.0625372125407126
0.489299844845373,-0.0606902207421309
0.488989505910245,-0.05884531998861
0.488670802340983,-0.057002612492393
0.488343970444584,-0.0551622004657232
0.48800924652804,-0.053324186120844
0.487666866898348,-0.0514886716699988
0.487317067862501,-0.0496557593254309
0.486960085727494,-0.0478255512993834
0.486596156800323,-0.0459981498040998
0.486225517387981,-0.0441736570518235
0.485848403797464,-0.0423521752547977
0.485465052335766,-0.0405338066252657
0.485075699309882,-0.0387186533754708
0.484680581026806,-0.0369068177176565
0.484279933793534,-0.0350984018640659
0.48387399391706,-0.0332935080269425
0.483462997704378,-0.0314922384185295
0.483047181462484,-0.0296946952510703
0.482626781498372,-0.0279009807368082
0.482202034119037,-0.0261111970879865
0.481773175631474,-0.0243254465168485
0.481340442342677,-0.0225438312356376
0.480904070559641,-0.020766453456597
0.48046429658936,-0.0189934153919701
0.48002135673883,-0.0172248192540002
0.479575487315045,-0.0154607672549307
0.479126924625,-0.0137013616070048
0.478675904975689,-0.0119467045224659
0.478222664674107,-0.0101968982135572
0.47776744002725,-0.00845204489252224
0.477310467342111,-0.00671224677160417
0.476851982925685,-0.00497760606304635
0.476392223084968,-0.00324822497909208
0.475931424126953,-0.00152420573198472
0.475469822358636,0.000194349466032397
0.475007654087011,0.00190733840271601
0.474545155619072,0.00361465886582277
0.474082563261816,0.0053162086431093
0.473620113322236,0.00701188552233237
0.473158042107326,0.00870158729124863
0.472696585924082,0.0103852117376147
0.472235981079499,0.0120626566491874
0.471776463880571,0.0137338198137232
0.471318270634293,0.015398599018979
0.470861637647659,0.0170568920527114
0.470406801227665,0.0187085967026769
0.469953997681305,0.0203536107566324
0.469503463315573,0.0219918320023346
0.469055434437464,0.0236231582275401
0.468610147353974,0.0252474872200055
0.468167838372097,0.0268647167674875
0.467728743798827,0.0284747446577429
0.467293099941159,0.0300774686785284
0.466861143106088,0.0316727866176005
0.466433109600609,0.0332605962627159
0.466009235731716,0.0348407954016315
0.465589757806404,0.0364132818221037
0.465174912131668,0.0379779533118894
0.464764935014503,0.0395347076587451
0.464360062761902,0.0410834426504276
0.463960531680861,0.0426240560746936
0.463566578078376,0.0441564457192997
0.463178438261439,0.0456805093720026
0.462796348537046,0.047196144820559
0.462420545212192,0.0487032498527255
0.462051264593872,0.0502017222562589
0.461688742989079,0.0516914598189158
0.46133321670481,0.053172360328453
0.460984922048057,0.054644321572627
0.460644095325818,0.0561072413391946
0.460310972845085,0.0575610174159124
0.459985790912854,0.0590055475905371
0.459668785836119,0.0604407296508254
0.459360193921875,0.061866461384534
0.459060251477117,0.0632826405794196
0.458769194808839,0.0646891650232388
0.458487260224037,0.0660859325037483
0.458214684029705,0.0674728408087048
0.457951702532837,0.068849787725865
0.457698552040429,0.0702166710429855
0.457455468859474,0.0715733885478231
0.457222689296969,0.0729198380281343
0.457000449659906,0.0742559172716761
0.456788986255282,0.0755815240662048
0.456588535390091,0.0768965561994773
0.456399333371328,0.0782009114592502
0.456221616505986,0.0794944876332803
0.456055621101062,0.0807771825093242
0.455901583463549,0.0820488938751385
0.455759739900443,0.0833095195184799
0.455630326718738,0.0845589572271052
0.455513580225428,0.085797104788771
0.45540973672751,0.087023859991234
0.455319032531976,0.0882391206222508
0.455241703945823,0.0894427844695782
0.455177987276044,0.0906347493209728
0.455128118829634,0.0918149129641914
0.455092334913588,0.0929831731869904
0.455070871834902,0.0941394277771268
0.455063965900568,0.0952835745223571
0.455071853417583,0.0964155112104381
0.455094770692941,0.0975351356291263
0.455132954033637,0.0986423455661785
0.455186639746664,0.0997370388093513
0.455256064139019,0.100819113146402
0.455341463517696,0.101888466365086
0.455443074189689,0.102944996253161
0.455561132461993,0.103988600598383
0.455695874641603,0.105019177188509
0.455847537035513,0.106036623811296
0.456016355950719,0.107040838254501
0.456202567694215,0.10803171830588
0.456406408572995,0.109009161753189
0.456628114894055,0.109973066384186
0.456867922964389,0.110923329986627
0.457126069090992,0.111859850348269
0.457402789580858,0.112782525256868
0.457698320740982,0.113691252500181
0.45801289887836,0.114585929865966
0.458346760299985,0.115466455141977
0.458700141312852,0.116332726115973
0.459073278223957,0.11718464057571
0.459466407340293,0.118022096308945
0.459879764968856,0.118844991103434
0.46031358741664,0.119653222746933
0.460768110990639,0.120446689027201
0.46124357199785,0.121225287731992
0.461740206745265,0.121988916649065
0.462258251539881,0.122737473566175
0.462797942688691,0.123470856271079
0.463359516498691,0.124188962551535
0.463943209276875,0.124891690195298
0.464549257330238,0.125578936990125
0.465177896965774,0.126250600723774
0.465829364490479,0.126906579184
0.466503896211346,0.127546770158561
0.467201728435372,0.128171071435213
0.467923097469549,0.128779380801712
0.468668239620874,0.129371596045816
0.469437391196341,0.129947614955281
0.470230788502944,0.130507335317864
0.471048667847678,0.131050654921322
0.471891265537538,0.13157747155341
0.472758817879519,0.132087683001886
0.473651561180615,0.132581187054507
0.474569731747821,0.133057881499029
0.475513565888132,0.133517664123209
0.476483299908543,0.133960432714804
0.477479170116047,0.134386085061569
0.478501412817641,0.134794518951263
0.479550264320318,0.135185632171641
0.480625960931073,0.135559322510461
0.481728738956901,0.135915487755478
0.482858834704797,0.13625402569445
0.484016484481756,0.136574834115133
0.485201924594771,0.136877810805285
0.486415391350839,0.137162853552661
0.487657121056953,0.137429860145018
0.488927350020108,0.137678728370114
0.490226314547299,0.137909356015704
0.491554250945521,0.138121640869545
0.492911395521768,0.138315480719395
0.494297984583035,0.138490773353009
0.495714254436317,0.138647416558145
0.497160441388609,0.138785308122558
0.498636781746905,0.138904345834007
0.500143511818199,0.139004427480247
0.501680867909488,0.139085450849035
0.503249086327764,0.139147313728128
0.504848403380024,0.139189913905283
0.506479055373261,0.139213149168255
0.508141278614471,0.139216917304803
0.509835309410648,0.139201116102682
0.511561384068787,0.139165643349649
0.513319738895882,0.139110396833461
0.515110610198929,0.139035274341875
0.516934234284922,0.138940173662647
0.518790847460855,0.138824992583534
0.520680686033724,0.138689628892293
0.522603986310523,0.138533980376679
0.524560984598247,0.138357944824451
0.52655191720389,0.138161420023365
0.528577020434448,0.137944303761177
0.530636530596914,0.137706493825643
0.532730683998284,0.137447888004522
0.534859716945553,0.137168384085569
0.537023865745714,0.136867879856541
0.539223366705763,0.136546273105194
0.541458456132695,0.136203461619286
0.543729370333504,0.135839343186573
0.546036345615185,0.135453815594812
0.548379618284733,0.13504677663176
0.550759424649142,0.134618124085172
0.553176001015406,0.134167755742806
0.555629583690522,0.133695569392419
0.558120408981483,0.133201462821767
0.560648713195284,0.132685333818607
0.56321473263892,0.132147080170695
0.565818703619386,0.131586599665788
0.568460862443676,0.131003790091644
0.571141445418784,0.130398549236018
0.573860688851707,0.129770774886667
0.576618829049438,0.129120364831348
0.579416102318972,0.128447216857817
0.582252744967304,0.127751228753832
0.585128993301428,0.127032298307149
0.58804508362834,0.126290323305525
0.591001252255033,0.125525201536716
0.593997735488503,0.124736830788478
0.597034769635745,0.12392510884857
0.600112591003752,0.123089933504747
0.603231435899521,0.122231202544766
0.606391540630044,0.121348813756383
0.609593141502318,0.120442664927356
0.612836474823337,0.119512653845441
0.616121776900096,0.118558678298395
0.619449284039589,0.117580636073974
0.62281923254881,0.116578424959935
0.626231858734756,0.115551942744036
0.62968739890442,0.114501087214031
0.633186089364797,0.113425756157679
0.636728166422882,0.112325847362735
0.640313866385669,0.111201258616957
0.643943425560154,0.110051887708102
0.647617080253331,0.108877632423925
0.651335066772194,0.107678390552183
0.655097621423739,0.106454059880634
0.65890498051496,0.105204538197034
0.662757380352851,0.103929723289139
0.666655057244409,0.102629512944707
0.670598247496626,0.101303804951494
0.674587187416498,0.0999524970972557
0.67862211331102,0.0985754871697501
0.682703261487186,0.0971726729567336
0.686830868251992,0.0957439522459627
0.691005169912431,0.0942892228251942
0.695226402775498,0.0928083824821846
0.699494803148189,0.0913013290046907
0.703810607337498,0.0897679601804692
0.708174051650419,0.0882081737972768
0.712585372393947,0.0866218676428701
0.717044805875078,0.0850089395050058
0.721552588400805,0.0833692871714406
0.726108956278123,0.0817028084299312
0.730714145814028,0.0800094010682342
0.735368393315514,0.0782889628741064
0.740071935089575,0.0765413916353043
0.744825007443206,0.0747665851395848
0.749627846683402,0.0729644411747044
0.754480689117158,0.0711348575284199
0.759383771051469,0.0692777319884878
0.764337328793328,0.0673929623426651
0.769341598649732,0.0654804463787081
0.774396816927673,0.0635400818843738
0.779503219934148,0.0615717666474187
0.784661043976151,0.0595753984555995
0.789870525360676,0.0575508750966729
0.795131900394719,0.0554980943583956
0.800445405385274,0.0534169540285243
0.805811276639335,0.0513073518948156
0.811229750463899,0.0491691857450262
0.816701063165958,0.0470023533669128
0.822225451052508,0.0448067525482321
0.827803150430543,0.0425822810767408
0.833434397607059,0.0403288367401954
0.83911942888905,0.0380463173263529
0.844858480583511,0.0357346206229697
0.850651788997436,0.0333936444178026
0.85649959043782,0.0310232864986082
