-0.952712776101309,0.559565887339133
-0.942521603649521,0.559577856083701
-0.93238898801186,0.559536066429009
-0.922314750456994,0.559440832800915
-0.912298712253588,0.559292469625277
-0.902340694670312,0.559091291327955
-0.892440518975829,0.558837612334805
-0.882598006438808,0.558531747071687
-0.872812978327916,0.558174009964459
-0.863085255911818,0.557764715438979
-0.853414660459182,0.557304177921105
-0.843801013238674,0.556792711836696
-0.834244135518962,0.556230631611611
-0.824743848568711,0.555618251671707
-0.815299973656589,0.554955886442842
-0.805912332051263,0.554243850350877
-0.796580745021398,0.553482457821667
-0.787305033835663,0.552672023281073
-0.778085019762722,0.551812861154952
-0.768920524071245,0.550905285869162
-0.759811368029896,0.549949611849563
-0.750757372907344,0.548946153522012
-0.741758359972253,0.547895225312367
-0.732814150493292,0.546797141646487
-0.723924565739127,0.545652216950231
-0.715089426978425,0.544460765649457
-0.706308555479852,0.543223102170023
-0.697581772512075,0.541939540937786
-0.688908899343762,0.540610396378607
-0.680289757243578,0.539235982918343
-0.671724167480191,0.537816614982852
-0.663211951322266,0.536352606997993
-0.654752930038472,0.534844273389624
-0.646346924897474,0.533291928583604
-0.63799375716794,0.53169588700579
-0.629693248118535,0.530056463082041
-0.621445219017928,0.528373971238217
-0.613249491134785,0.526648725900174
-0.605105885737771,0.524881041493771
-0.597014224095554,0.523071232444866
-0.588974327476802,0.521219613179319
-0.580986017150181,0.519326498122987
-0.573049114384355,0.517392201701728
-0.565163440447995,0.515417038341401
-0.557328816609765,0.513401322467865
-0.549545064138333,0.511345368506977
-0.541812004302364,0.509249490884596
-0.534129458370527,0.507114004026581
-0.526497247611488,0.504939222358789
-0.518915193293913,0.502725460307079
-0.511383116686469,0.50047303229731
-0.503900839057823,0.498182252755339
-0.496468181676642,0.495853436107025
-0.489084965811592,0.493486896778227
-0.481751012731341,0.491082949194802
-0.474466143704554,0.488641907782609
-0.467230179999898,0.486164086967507
-0.460042942886042,0.483649801175354
-0.45290425363165,0.481099364832008
-0.44581393350539,0.478513092363327
-0.438771803775929,0.47589129819517
-0.431777685711933,0.473234296753396
-0.424831400582069,0.470542402463861
-0.417932769655003,0.467815929752426
-0.411081614199404,0.465055193044948
-0.404277755483936,0.462260506767285
-0.397521014777268,0.459432185345296
-0.390811213348065,0.45657054320484
-0.384148172464995,0.453675894771774
-0.377531713396724,0.450748554471957
-0.370961657411919,0.447788836731247
-0.364437825779246,0.444797055975503
-0.357960039767374,0.441773526630583
-0.351528120644967,0.438718563122345
-0.345141889680693,0.435632479876648
-0.338801168143218,0.43251559131935
-0.332505777301211,0.429368211876309
-0.326255538423336,0.426190655973384
-0.320050272778261,0.422983238036433
-0.313889801634652,0.419746272491314
-0.307773946261177,0.416480073763886
-0.301702527926502,0.413184956280007
-0.295675367899294,0.409861234465536
-0.289692287448219,0.40650922274633
-0.283753107841945,0.403129235548249
-0.277857650349138,0.39972158729715
-0.272005736238464,0.396286592418891
-0.266197186778591,0.392824565339332
-0.260431823238185,0.389335820484331
-0.254709466885913,0.385820672279745
-0.249029938990442,0.382279435151434
-0.243393060820438,0.378712423525254
-0.237798653644568,0.375119951827066
-0.2322465387315,0.371502334482728
-0.226736537349898,0.367859885918096
-0.221268470768432,0.364192920559031
-0.215842160255766,0.36050175283139
-0.210457427080568,0.356786697161032
-0.205114092511505,0.353048067973814
-0.199811977817243,0.349286179695596
-0.19455090426645,0.345501346752236
-0.189330693127791,0.341693883569591
-0.184151165669933,0.337864104573521
-0.179012143161544,0.334012324189884
-0.17391344687129,0.330138856844537
-0.168854898067838,0.32624401696334
-0.163836318019854,0.322328118972151
-0.158857527996006,0.318391477296828
-0.153918349264959,0.314434406363229
-0.149018603095381,0.310457220597213
-0.144158110755939,0.306460234424639
-0.139336693515299,0.302443762271363
-0.134554172642128,0.298408118563246
-0.129810369405092,0.294353617726144
-0.125105105072859,0.290280574185917
-0.120438200914095,0.286189302368423
-0.115809478197466,0.282080116699521
-0.111218758191641,0.277953331605067
-0.106665862165285,0.273809261510922
-0.102150611387065,0.269648220842943
-0.0976728271256474,0.265470524026988
-0.0932323306496997,0.261276485488917
-0.0888289432278882,0.257066419654586
-0.0844624861288798,0.252840640949856
-0.0801327806213412,0.248599463800583
-0.0758396479739393,0.244343202632627
-0.0715829094553404,0.240072171871845
-0.0673623863342115,0.235786685944096
-0.0631778998792195,0.231487059275239
-0.0590292713590309,0.227173606291131
-0.0549163220423124,0.222846641417631
-0.0508388731977309,0.218506479080598
-0.0467967460939531,0.214153433705889
-0.0427897619996458,0.209787819719364
-0.0388177421834756,0.20540995154688
-0.0348805079141092,0.201020143614296
-0.0309778804602135,0.19661871034747
-0.0271096810904553,0.19220596617226
-0.023275731073501,0.187782225514525
-0.0194758516780176,0.183347802800123
-0.0157098641726719,0.178903012454913
-0.0119775898261304,0.174448168904753
-0.00827884990706004,0.169983586575501
-0.0046134656841274,0.165509579893015
-0.00098125842599936,0.161026463283155
0.00261795059865742,0.156534551171777
0.00618434012117625,0.152034157984742
0.00971808887289029,0.147525598147906
0.0132193755851329,0.143009186087128
0.0166883789892372,0.138485236228267
0.0201252778165365,0.133954062997181
0.0235302507983642,0.129415980819728
0.0269034766660534,0.124871304121767
0.0302451341509375,0.120320347329156
0.0335554019843497,0.115763424867754
0.0368344588976232,0.111200851163417
0.0400824836220913,0.106632940642007
0.0432996548890872,0.102060007729379
0.0464861514299445,0.0974823668513932
0.0496421519759959,0.0929003324339074
0.0527678352585751,0.0883142189027802
0.0558633800090152,0.0837243406838698
0.0589289649586496,0.0791310122030343
0.0619647688388113,0.0745345478861323
0.0649709703808338,0.0699352621590223
0.0679477483160503,0.0653334694475624
0.0708952813757939,0.0607294841776109
0.0738137482913981,0.0561236207750263
0.0767033277941961,0.051516193665667
0.079564198615521,0.0469075172753911
0.0823965394867062,0.0422979060300571
0.085200529139085,0.0376876743555234
0.0879763463039906,0.0330771366776484
0.0907241697127563,0.0284666074222903
0.0934441780967153,0.0238564010153073
0.096136550187201,0.0192468318825579
0.0988014647155464,0.0146382144499007
0.101439100413085,0.0100308631431937
0.10404963601115,0.00542509238829533
0.106633250241075,0.000821216611063963
0.109190121834192,-0.00378044976264194
0.111720429521836,-0.00837959230696417
0.114224352035339,-0.0129758965960445
0.116702068106035,-0.0175690482040243
0.119153756465257,-0.0221587327050454
0.121579595844338,-0.0267446356732494
0.123979764974611,-0.031326442682778
0.12635444258741,-0.0359038393077728
0.128703807414069,-0.0404765111223754
0.131028038185919,-0.0450441437007275
0.133327313634295,-0.049606422616971
0.13560181249053,-0.0541630334452472
0.137851713485957,-0.0587136617596979
0.140077195351909,-0.0632579931344648
0.14227843681972,-0.0677957131436894
0.144455616620723,-0.0723265073615137
0.14660891348625,-0.0768500613620788
0.148738506147636,-0.0813660607195267
0.150844573336214,-0.0858741910079992
0.152927293783317,-0.0903741378016377
0.154986846220278,-0.0948655866745838
0.15702340937843,-0.0993482232009795
0.159037161989107,-0.103821732954966
0.161028282783642,-0.108285801510685
0.162996950493368,-0.112740114442279
0.164943343849618,-0.117184357323889
0.166867641583726,-0.121618215729656
0.168770022427026,-0.126041375233722
0.170650665110849,-0.13045352141023
0.17250974836653,-0.13485433983332
0.174347450925402,-0.139243516077134
0.176163951518798,-0.143620735715815
0.177959428878051,-0.147985684323502
0.179734061734494,-0.15233804747434
0.181488028819462,-0.156677510742467
0.183221508864286,-0.161003759702028
0.184934680600301,-0.165316479927162
0.18662772275884,-0.169615356992013
0.188300814071235,-0.173900076470721
0.189954133268821,-0.178170323937428
0.19158785908293,-0.182425784966276
0.193202170244895,-0.186666145131407
0.194797245486051,-0.190891090006961
0.19637326353773,-0.195100305167081
0.197930403131265,-0.199293476185909
0.19946884299799,-0.203470288637586
0.200988761869238,-0.207630428096253
0.202490338476342,-0.211773580136053
0.203973751550635,-0.215899430331127
0.205439179823452,-0.220007664255616
0.206886802026124,-0.224097967483663
0.208316796889986,-0.228170025589409
0.20972934314637,-0.232223524146996
0.21112461952661,-0.236258148730564
0.212502804762039,-0.240273584914257
0.213864077583991,-0.244269518272216
0.215208616723798,-0.248245634378581
0.216536600912794,-0.252201618807496
0.217848208882312,-0.256137157133101
0.219143619363685,-0.260051934929538
0.220423011088247,-0.263945637770949
0.221686562787331,-0.267817951231476
0.22293445319227,-0.27166856088526
0.224166861034398,-0.275497152306443
0.225383965045047,-0.279303411069166
0.226585943955552,-0.283087022747572
0.227772976497244,-0.286847672915801
0.228945241401458,-0.290585047147995
0.230102917399527,-0.294298831018297
0.231246183222783,-0.297988710100848
0.232375217602561,-0.301654369969789
0.233490199270194,-0.305295496199262
0.234591306957014,-0.308911774363408
0.235678719394356,-0.31250289003637
0.236752615313551,-0.316068528792289
0.237813173445934,-0.319608376205307
0.238860572522839,-0.323122117849565
0.239894991275597,-0.326609439299206
0.240916608435542,-0.330070026128369
0.241925602734009,-0.333503563911199
0.242922152902329,-0.336909738221834
0.243906437671836,-0.340288234634419
0.244878635773863,-0.343638738723094
0.245838925939745,-0.346960936062001
0.246787486900813,-0.350254512225281
0.247724497388402,-0.353519152787077
0.248650136133844,-0.356754543321529
0.249564581868472,-0.35996036940278
0.250468013323621,-0.363136316604971
0.251360609230623,-0.366282070502244
0.252242548320811,-0.369397316668741
0.25311400932552,-0.372481740678603
0.253975170976081,-0.375535028105971
0.254826212003828,-0.378556864524988
0.255667311140096,-0.381546935509795
0.256498647116216,-0.384504926634534
0.257320398663522,-0.387430523473346
0.258132744513347,-0.390323411600373
0.258935863397025,-0.393183276589757
0.259729934045889,-0.39600980401564
0.260515135191272,-0.398802679452162
0.261291645564507,-0.401561588473466
0.262059643896928,-0.404286216653693
0.262819308919868,-0.406976249566986
0.263570819364661,-0.409631372787485
0.264314353962638,-0.412251271889332
0.265050091445135,-0.41483563244667
0.265778210543483,-0.417384140033638
0.266498889989017,-0.419896480224381
0.267212308513069,-0.422372338593038
0.267918644846973,-0.424811400713751
0.268618077722062,-0.427213352160663
0.269310785869669,-0.429577878507915
0.269996948021127,-0.431904665329648
0.270676742907771,-0.434193398200005
0.271350349260933,-0.436443762693126
0.272017945811945,-0.438655444383154
0.272679711292143,-0.44082812884423
0.273335824432858,-0.442961501650495
0.273986463965425,-0.445055248376092
0.274631808621176,-0.447109054595163
0.275272037131444,-0.449122605881848
0.275907328227564,-0.451095587810289
0.276537860640867,-0.453027685954629
0.277163813102689,-0.454918585889008
0.27778536434436,-0.456767973187569
0.278402693097216,-0.458575533424452
0.279015978092589,-0.4603409521738
0.279625398061812,-0.462063915009755
0.28023113173622,-0.463744107506458
0.280833357847144,-0.46538121523805
0.281432255125918,-0.466974923778674
0.282028002303876,-0.46852491870247
0.282620778112351,-0.470030885583581
0.283210761282676,-0.471492509996149
0.283798130546184,-0.472909477514314
0.284383064634209,-0.474281473712219
0.284965742278083,-0.475608184164005
0.285546342209141,-0.476889294443814
0.286125043158715,-0.478124490125787
0.286702023858139,-0.479313456784067
0.287277463038745,-0.480455879992795
0.287851539431868,-0.481551445326112
0.28842443176884,-0.48259983835816
0.288996318780995,-0.483600744663081
0.289567379199666,-0.484553849815016
0.290137791756186,-0.485458839388108
0.290707735181888,-0.486315398956497
0.291277388208107,-0.487123214094326
0.291846929566174,-0.487881970375736
0.292416537987423,-0.488591353374868
0.292986392203188,-0.489251048665865
0.293556670944802,-0.489860741822868
0.294127552943597,-0.490420118420018
0.294699216930909,-0.490928864031458
0.295271841638068,-0.491386664231329
0.29584560579641,-0.491793204593773
0.296420688137266,-0.49214817069293
0.296997267391971,-0.492451248102944
0.297575522291858,-0.492702122397956
0.298155631568259,-0.492900479152106
0.298737773952509,-0.493046003939538
0.29932212817594,-0.493138382334392
0.299908872969885,-0.49317729991081
0.300498187065679,-0.493162442242935
0.301090249194653,-0.493093494904906
0.301685238088143,-0.492970143470867
0.30228333247748,-0.492792073514959
0.302884711093997,-0.492558970611323
0.303489552669029,-0.492270520334102
0.304098035933909,-0.491926408257436
0.304710339619969,-0.491526319955468
0.305326642458544,-0.491069941002338
0.305947123180965,-0.49055695697219
0.306571960518568,-0.489987053439164
0.307201333202684,-0.489359915977402
0.307835419964647,-0.488675230161046
0.30847439953579,-0.487932681564237
0.309118450647447,-0.487131955761117
0.309767752030951,-0.486272738325828
0.310422482417635,-0.485354714832511
0.311082820538833,-0.484377570855308
0.311748945125877,-0.483340991968361
0.312421034910101,-0.482244663745811
0.313099268622838,-0.4810882717618
0.313783824995421,-0.479871501590469
0.314474882759185,-0.478594038805961
0.315172620645461,-0.477255568982417
0.315877217385583,-0.475855777693978
0.316588851710885,-0.474394350514787
0.3173077023527,-0.472870973018985
0.318033948042361,-0.471285330780713
0.318767767511201,-0.469637109374113
0.319509339490553,-0.467925994373327
0.320258842711751,-0.466151671352496
0.321016455906129,-0.464313825885763
0.321782357805019,-0.462412143547268
0.322556727139754,-0.460446309911154
0.323339742641668,-0.458416010551562
0.324131583042094,-0.456320931042634
0.324932427072366,-0.454160756958511
0.325742453463816,-0.451935173873335
0.326561840947778,-0.449643867361248
0.327390768255585,-0.447286522996392
0.328229414118571,-0.444862826352907
0.329077957268068,-0.442372463004936
0.329936576435411,-0.43981511852662
0.330805450351931,-0.437190478492102
0.331684757748963,-0.434498228475522
0.33257467735784,-0.431738054051022
0.333475387909895,-0.428909640792744
0.33438706813646,-0.42601267427483
0.335309896768871,-0.423046840071421
0.336244052538459,-0.420011823756659
0.337189714176559,-0.416907310904686
0.338147060414502,-0.413732987089643
0.339116269983623,-0.410488537885671
0.340097521615255,-0.407173648866914
0.341090994040731,-0.403788005607511
0.342096865991385,-0.400331293681605
0.342096865991385,-0.400331293681605
0.343084514765201,-0.396832435743785
0.344023394348773,-0.393320744505906
0.344913798506349,-0.389796490628013
0.345756021002173,-0.386259944770152
0.346550355600492,-0.382711377592367
0.347297096065553,-0.379151059754703
0.347996536161601,-0.375579261917204
0.348648969652884,-0.371996254739914
0.349254690303646,-0.36840230888288
0.349813991878134,-0.364797695006144
0.350327168140595,-0.361182683769752
0.350794512855275,-0.357557545833749
0.351216319786419,-0.35392255185818
0.351592882698275,-0.350277972503088
0.351924495355088,-0.346624078428518
0.352211451521104,-0.342961140294516
0.35245404496057,-0.339289428761126
0.352652569437732,-0.335609214488393
0.352807318716836,-0.331920768136361
0.352918586562129,-0.328224360365074
0.352986666737856,-0.324520261834578
0.353011853008264,-0.320808743204918
0.352994439137599,-0.317090075136137
0.352934718890107,-0.313364528288281
0.352832986030035,-0.309632373321395
0.352689534321628,-0.305893880895522
0.352504657529133,-0.302149321670707
0.352278649416797,-0.298398966306996
0.352011803748864,-0.294643085464433
0.351704414289582,-0.290881949803063
0.351356774803197,-0.287115829982929
0.350969179053955,-0.283344996664078
0.350541920806102,-0.279569720506553
0.350075293823884,-0.2757902721704
0.349569591871548,-0.272006922315662
0.34902510871334,-0.268219941602385
0.348442138113506,-0.264429600690614
0.347820973836292,-0.260636170240392
0.347161909645944,-0.256839920911765
0.346465239306709,-0.253041123364777
0.345731256582833,-0.249240048259473
0.344960255238562,-0.245436966255897
0.344152529038142,-0.241632148014095
0.34330837174582,-0.237825864194111
0.342428077125842,-0.234018385455989
0.341511938942453,-0.230209982459775
0.340560250959901,-0.226400925865512
0.339573306942431,-0.222591486333246
0.33855140065429,-0.218781934523022
0.337494825859723,-0.214972541094883
0.336403876322978,-0.211163576708875
0.3352788458083,-0.207355312025042
0.334120028079935,-0.203548017703429
0.33292771690213,-0.199741964404081
0.33170220603913,-0.195937422787041
0.330443789255183,-0.192134663512356
0.329152760314534,-0.18833395724007
0.32782941298143,-0.184535574630226
0.326474041020116,-0.180739786342871
0.32508693819484,-0.176946863038048
0.323668398269846,-0.173157075375803
0.322218715009382,-0.169370694016179
0.320738182177694,-0.165587989619222
0.319227093539027,-0.161809232844977
0.317685742857628,-0.158034694353487
0.316114423897743,-0.154264644804798
0.314513430423619,-0.150499354858954
0.312883056199502,-0.146739095176
0.311223594989638,-0.142984136415981
0.309535340558272,-0.13923474923894
0.307818586669652,-0.135491204304924
0.306073627088024,-0.131753772273977
0.304300755577633,-0.128022723806142
0.302500265902726,-0.124298329561466
0.300672451827549,-0.120580860199992
0.298817607116349,-0.116870586381766
0.296936025533371,-0.113167778766831
0.295028000842862,-0.109472708015233
0.293093826809068,-0.105785644787016
0.291133797196235,-0.102106859742226
0.28914820576861,-0.0984366235409056
0.287137346290438,-0.0947752068431006
0.285101512525967,-0.0911228803088556
0.283040998239441,-0.0874799145982153
0.280956097195108,-0.0838465803712243
0.278847103157213,-0.0802231482879271
0.276714309890003,-0.0766098890083685
0.274558011157724,-0.0730070731925933
0.272378500724622,-0.069414971500646
0.270176072354943,-0.0658338545925713
0.267951019812934,-0.0622639931284138
0.265703636862841,-0.0587056577682183
0.26343421726891,-0.0551591191720295
0.261143054795387,-0.0516246479998918
0.258830443206518,-0.0481025149118501
0.25649667626655,-0.0445929905679491
0.254142047739729,-0.0410963456282333
0.251766851390302,-0.0376128507527474
0.249371380982513,-0.0341427766015361
0.24695593028061,-0.0306863938346442
0.244520793048839,-0.0272439731121163
0.242066263051445,-0.0238157850939968
0.239592634052676,-0.0204021004403307
0.237100199816777,-0.0170031898111625
0.234589254107995,-0.0136193238665369
0.232060090690576,-0.0102507732664986
0.229513003328765,-0.00689780867109223
0.22694828578681,-0.00356070074036249
0.224366231828956,-0.000239720134354054
0.22176713521945,0.00306486248688843
0.219151289722538,0.0063527764633204
0.216518989102466,0.00962375113489698
0.21387052712348,0.0128775158415737
0.211206197549827,0.0161137999233057
0.208526294145752,0.0193323327200485
0.205831110675503,0.0225328435717574
0.203120940903324,0.0257150618183875
0.200396078593463,0.0288787167998945
0.197656817510166,0.0320235378562335
0.194903451417678,0.0351492543273598
0.192136274080246,0.0382555955532289
0.189355579262117,0.0413422908737961
0.186561660727536,0.0444090696290166
0.18375481224075,0.0474556611588458
0.180935327566004,0.0504817948032391
0.178103500467546,0.0534871999021518
0.175259624709621,0.0564716057955391
0.172403994056476,0.0594347418233566
0.169536902272356,0.0623763373255594
0.166658643121508,0.0652961216421029
0.163769510368178,0.0681938241129425
0.160869797776613,0.0710691740780334
0.157959799111058,0.073921900877331
0.155039808135761,0.0767517338507908
0.152110118614966,0.0795584023383679
0.14917102431292,0.0823416356800176
0.14622281899387,0.0851011632156955
0.143265796422061,0.0878367142853567
0.140300250361741,0.0905480182289566
0.137326474577154,0.0932348043864506
0.134344762832548,0.095896802097794
0.131355408892168,0.098533740702942
0.128358706520261,0.10114534954185
0.125354949481073,0.103731357954474
0.12234443153885,0.106291495280768
0.119327446457839,0.108825490860688
0.116304288002285,0.11133307403419
0.113275249936435,0.113813974141228
0.110240626024535,0.116267920521758
0.107200710030831,0.118694642515736
0.104155795719569,0.121093869463116
0.101106176854997,0.123465330703855
0.0980521472013588,0.125808755577907
0.094994000522902,0.128123873425227
0.0919320305838724,0.130410413585772
0.0888665311485166,0.132668105399496
0.0857977959810804,0.134896678206355
0.0827261188458101,0.137095861346303
0.079651793506952,0.139265384159297
0.0765751137287523,0.141404975985292
0.0734963732754572,0.143514366164243
0.0704158659113128,0.145593284036105
0.0673338854005654,0.147641458940834
0.0642507255074614,0.149658620218385
0.0611666799962468,0.151644497208713
0.0580820426311678,0.153598819251774
0.0549971071764707,0.155521315687523
0.0519121673964017,0.157411715855916
0.0488275170552071,0.159269749096907
0.0457434499171328,0.161095144750452
0.0426602597464253,0.162887632156506
0.0395782403073309,0.164646940655026
0.0364976853640956,0.166372799585965
0.0334188886809656,0.168064938289279
0.0303421440221872,0.169723086104925
0.0272677451520067,0.171346972372856
0.0241959858346702,0.172936326433029
0.0211271598344239,0.174490877625398
0.018061560915514,0.17601035528992
0.0149994828421869,0.177494488766548
0.0119412193786886,0.17894300739524
0.00888706428926531,0.180355640515949
0.00583731133816337,0.181732117468632
0.00279225428962897,0.183072167593244
-0.000247813092091653,0.184375520229739
-0.00328259704275238,0.185641904718074
-0.00631180379810695,0.186871050398204
-0.00933513959390911,0.188062686610084
-0.0123523106659127,0.189216542693669
-0.0153630232498715,0.190332347988915
-0.0183669835815393,0.191409831835776
-0.0213638978966697,0.19244872357421
-0.0243534724310168,0.193448752544169
-0.0273354134203342,0.194409648085611
-0.0303094271003758,0.19533113953849
-0.0332752197068952,0.196212956242762
-0.0362324974756463,0.197054827538382
-0.039180966642383,0.197856482765306
-0.0421203334428589,0.198617651263487
-0.0450503041128278,0.199338062372884
-0.0479705848880436,0.200017445433449
-0.0508808820042599,0.200655529785139
-0.0537809016972308,0.201252044767909
-0.0566703502027097,0.201806719721714
-0.0595489337564508,0.202319283986511
-0.0624163585942075,0.202789466902253
-0.0652723309517338,0.203216997808896
-0.0681165570647833,0.203601606046396
-0.0709487431691102,0.203943020954709
-0.0737685955004678,0.204240971873788
-0.0765758202946102,0.20449518814359
-0.079370123787291,0.204705399104071
-0.0821512122142642,0.204871334095184
-0.0849187918112833,0.204992722456887
-0.0876725688141023,0.205069293529133
-0.0904122494584749,0.205100776651879
-0.0931375399801549,0.205086901165079
-0.0958481466148961,0.205027396408689
-0.0985437755984524,0.204921991722665
-0.101224133166577,0.204770416446961
-0.103888925555025,0.204572399921534
-0.106537858999549,0.204327671486338
-0.109170639735903,0.204035960481328
-0.11178697399984,0.203696996246461
-0.114386568027116,0.20331050812169
-0.116969128053483,0.202876225446973
-0.119534360314695,0.202393877562264
-0.122081971046507,0.201863193807517
-0.124611666484671,0.20128390352269
-0.127123152864942,0.200655736047736
-0.129616136423073,0.199978420722612
-0.132090323394819,0.199251686887273
-0.134545420015932,0.198475263881674
-0.136981132522167,0.19764888104577
-0.139397167149278,0.196772267719516
-0.141793230133018,0.195845153242869
-0.144169027709141,0.194867266955783
-0.146524266113401,0.193838338198214
-0.148858651581552,0.192758096310116
-0.151171890349347,0.191626270631446
-0.153463688652541,0.190442590502159
-0.155733752726886,0.18920678526221
-0.157981788808138,0.187918584251554
-0.160207503132049,0.186577716810147
-0.162410601934373,0.185183912277943
-0.164590791450865,0.183736899994899
-0.166747777917278,0.18223640930097
-0.168881267569365,0.180682169536111
-0.170990966642881,0.179073910040277
-0.173076581373579,0.177411360153424
-0.175137817997214,0.175694249215507
-0.177174382749538,0.173922306566481
-0.179185981866306,0.172095261546301
-0.181172321583272,0.170212843494924
-0.183133108136188,0.168274781752304
-0.18506804776081,0.166280805658397
-0.186976846692891,0.164230644553158
-0.188859211168184,0.162124027776542
-0.190714847422444,0.159960684668505
-0.192543461691424,0.157740344569002
-0.194344760210878,0.155462736817988
-0.196118449216559,0.153127590755419
-0.197864234944222,0.15073463572125
-0.199581823629621,0.148283601055436
-0.201270921508508,0.145774216097933
-0.202931234816639,0.143206210188696
-0.204562469789766,0.14057931266768
-0.206164332663644,0.137893252874841
-0.207736529674026,0.135147760150134
-0.209278767056666,0.132342563833514
-0.210790751047318,0.129477393264937
-0.212272187881735,0.126551977784358
-0.213722783795672,0.123566046731732
-0.215142245024882,0.120519329447015
-0.216530277805119,0.117411555270162
-0.217886588372137,0.114242453541128
-0.21921088296169,0.111011753599869
-0.22050286780953,0.10771918478634
-0.221762249151413,0.104364476440496
-0.222988733223092,0.100947357902293
-0.22418202626032,0.0974675585116855
-0.225341834498852,0.0939248076086298
-0.226467864174441,0.0903188345330805
-0.227559821522842,0.0866493686249935
-0.228617412779807,0.0829161392243236
-0.22964034418109,0.0791188756710266
-0.230628321962447,0.0752573073050573
-0.231581052359629,0.0713311634663715
-0.232498241608391,0.0673401734949243
-0.233379595944487,0.0632840667306712
-0.234224821603671,0.0591625725135672
-0.235033624821696,0.0549754201835681
-0.235805711834316,0.0507223390806289
-0.236540788877285,0.0464030585447051
-0.237238562186356,0.0420173079157518
-0.237898737997285,0.0375648165337247
-0.238521022545823,0.0330453137385786
-0.239105122067725,0.0284585288702695
-0.239650742798746,0.0238041912687522
-0.240157590974638,0.0190820302739823
-0.240625372831155,0.014291775225915
-0.241053794604051,0.00943315546450588
-0.241442562529081,0.00450590032970978
-0.241791382841997,-0.000490260838517387
-0.242099961778554,-0.00555559870022077
-0.242368005574505,-0.0106903839154446
-0.242595220465604,-0.0158948871442341
-0.242781312687606,-0.0211693790466333
-0.242925988476263,-0.0265141302826874
-0.243028954067329,-0.0319294115124407
-0.243089915696558,-0.0374154933959381
-0.243108579599705,-0.0429726465932241
-0.243084652012523,-0.0486011417643436
-0.243017839170765,-0.0543012495693409
-0.242907847310185,-0.0600732406682611
-0.242754382666538,-0.0659173857211484
-0.242557151475577,-0.071833955388048
-0.242315859973055,-0.0778232203290039
-0.242030214394727,-0.0838854512040615
-0.241699920976347,-0.0900209186732649
-0.241324685953667,-0.0962298933966593
-0.240904215562442,-0.102512646034289
-0.240438216038427,-0.108869447246198
-0.239926393617373,-0.115300567692432
-0.239368454535036,-0.121806278033036
-0.238764105027169,-0.128386848928054
-0.238113051329526,-0.13504255103753
-0.23741499967786,-0.141773655021509
-0.236669656307926,-0.148580431540037
-0.235876727455477,-0.155463151253157
-0.235035919356267,-0.162422084820915
-0.234146938246049,-0.169457502903355
-0.233209490360578,-0.176569676160521
-0.232223281935608,-0.183758875252459
-0.231188019206892,-0.191025370839213
-0.230103408410183,-0.198369433580827
-0.228969155781237,-0.205791334137347
-0.227784967555805,-0.213291343168817
-0.226550549969643,-0.220869731335281
-0.225265609258505,-0.228526769296785
-0.223929851658142,-0.236262727713373
-0.222542983404311,-0.24407787724509
-0.221104710732764,-0.25197248855198
-0.219614739879255,-0.259946832294088
-0.218072777079538,-0.268001179131458
-0.216478528569367,-0.276135799724136
-0.214831700584496,-0.284350964732166
-0.213131999360677,-0.292646944815593
-0.211379131133666,-0.301024010634461
-0.209572802139216,-0.309482432848815
-0.207712718613081,-0.3180224821187
-0.205798586791014,-0.32664442910416
-0.203830112908769,-0.33534854446524
-0.2018070032021,-0.344135098861985
-0.199728963906761,-0.35300436295444
-0.197595701258506,-0.361956607402648
-0.195406921493088,-0.370992102866655
-0.193162330846262,-0.380111120006505
-0.19086163555378,-0.389313929482243
-0.188504541851397,-0.398600801953914
-0.186090755974867,-0.407972008081563
-0.183619984159943,-0.417427818525233
-0.181091932642379,-0.426968503944971
-0.178506307657929,-0.436594335000819
-0.175862815442347,-0.446305582352824
-0.173161162231386,-0.456102516661029
-0.1704010542608,-0.465985408585479
-0.167582197766344,-0.47595452878622
-0.16470429898377,-0.486010147923295
-0.161767064148833,-0.49615253665675
-0.158770199497286,-0.506381965646629
-0.155713411264884,-0.516698705552976
-0.15259640568738,-0.527103027035837
-0.149418889000527,-0.537595200755255
-0.14618056744008,-0.548175497371277
-0.142881147241792,-0.558844187543946
-0.139520334641417,-0.569601541933307
-0.13609783587471,-0.580447831199405
-0.132613357177422,-0.591383326002284
-0.12906660478531,-0.602408297001988
-0.125457284934126,-0.613523014858564
-0.121785103859623,-0.624727750232055
-0.118049767797557,-0.636022773782507
-0.11425098298368,-0.647408356169962
-0.110388455653747,-0.658884768054468
-0.10646189204351,-0.670452280096067
-0.102470998388725,-0.682111162954805
-0.0984154809251448,-0.693861687290726
-0.0942950458885228,-0.705704123763875
-0.0901093995146133,-0.717638743034297
-0.0858582480391697,-0.729665815762037
-0.0815412976979462,-0.741785612607138
-0.0771582547266963,-0.753998404229647
-0.072708825361174,-0.766304461289606
-0.0681927158371328,-0.778704054447062
-0.0636096323903268,-0.791197454362058
-0.0589592812565095,-0.80378493169464
-0.054241368671435,-0.816466757104851
-0.0494556008708567,-0.829243201252738
