0.127089480859621,-0.822121343202632
-0.564063697157144,0.0486285846606327
0.889670521737017,0.568624265394154
0.482213980237468,-0.0450138073698625
0.07475743873792,-0.658651880133879
0.428015963547998,0.330873453029351
0.715369993833059,0.409714559185857
