-0.340101169769296,0.80083317434899
-0.329727997437849,0.845531577126092
-0.263888588493227,0.792327340993003
-0.309954820181869,0.758294798002328
-0.264988376167599,0.811604958201879
-0.277014399625707,0.799300103434883
-0.28861189741246,0.738285695038333
-0.324552199639378,0.747850376869381
-0.283414499655818,0.733102901413669
-0.234374822265915,0.699467960483185
-0.251613964778624,0.674185243076498
-0.294779840566237,0.696658204521063
-0.278511206163242,0.648418554302085
-0.249167765876579,0.672715282261934
-0.257348289379137,0.608690796870881
-0.260173687047759,0.626598325693939
-0.257921212791002,0.615388906489319
-0.243924024416948,0.651022443639906
-0.285207681700218,0.638433497302281
-0.249360252371199,0.579943089827866
-0.279308696787648,0.539529662820942
-0.243816418404232,0.556674475157654
-0.285900311399181,0.586486644648695
-0.222412353853314,0.558447318594001
-0.235744092236711,0.52231204908082
-0.230408747662619,0.506588633997302
-0.263588104649565,0.532031024714135
-0.275279580317906,0.516997925958743
-0.200769636287936,0.449766074079382
-0.20968793790585,0.469328732843931
-0.25347389545359,0.499668433396804
-0.218032154027864,0.444638578140905
-0.210000428687123,0.465085840899203
-0.17895437707245,0.470211597343075
-0.210917018642638,0.412415947547233
-0.208608078499302,0.401816324457089
-0.230614848239973,0.37840337707423
-0.165660966818463,0.339830046312814
-0.201868323744015,0.370439537400546
-0.209009542483411,0.313664335341561
-0.20878354747532,0.37296602025958
-0.195407293580064,0.339693355000799
-0.19331513922999,0.329584202199275
-0.158405034976595,0.272871022899891
-0.189705618454466,0.344962196448341
-0.187831408135816,0.2650464974819
-0.185251754104005,0.289842266014935
-0.134196757085284,0.285298299783618
-0.181401951625105,0.270386423826463
-0.195325788262338,0.233561770195729
-0.173635337737161,0.259589227730444
-0.134021368794026,0.290846352678746
-0.159256015722889,0.234267106833461
-0.172302232304177,0.22294990632319
-0.188599862926547,0.260168073669233
-0.16887038540559,0.204454015845008
-0.159443948651205,0.175528455291657
-0.154932765418709,0.185967090106327
-0.161605269294319,0.136846372571236
-0.118405590240849,0.155696431124727
-0.144871323327123,0.112613514307564
-0.175439870412715,0.119679975739144
-0.165651415764639,0.119781234349531
-0.177390108577346,0.174957244397389
-0.154874662368918,0.12457605518746
-0.165593088112523,0.0960430536402297
-0.169191096859407,0.147638398997467
-0.160226310567606,0.0516083392113802
-0.172818441034488,0.115381429681251
-0.116427043222625,0.12970047226294
-0.146837414689808,0.0743421762693609
-0.136899842468003,0.0608292164642335
-0.0992977523687587,0.103564278000644
-0.162177263190342,0.0592638945104369
-0.168330988019759,0.0669786038942364
-0.117701263583737,0.0659065910590229
-0.139812267438029,0.0264925492657353
-0.186667025066714,0.0671004857743288
-0.137692131478851,0.0110680297316831
-0.129218320129161,0.0293849324055366
-0.135681595624432,-0.0040954108872252
-0.099023503534374,-0.0585844502481044
-0.133779946000202,-0.01899873208205
-0.132869730438605,-0.0263531477363875
-0.131986468731591,-0.0336428933438518
-0.13676203329049,-0.066993762369768
-0.130300449944031,-0.048028854163691
-0.118472229290198,-0.00560789382910301
-0.162471226493828,-0.0691520324472849
-0.152010826793384,-0.112107054642848
-0.169080613139978,-0.058263131467796
-0.12655084902786,-0.0828704259397879
-0.0788941759775077,-0.0876051732509045
-0.102823489404564,-0.0550262787052887
-0.124616682112897,-0.103009882844633
-0.0866392726145429,-0.146233944814709
-0.14827046280698,-0.150580652007347
-0.144695226058789,-0.0918014774497977
-0.122400988344821,-0.128976141300902
-0.0877042311599946,-0.170065012442568
-0.121447190436662,-0.141581564776698
-0.121008491406429,-0.14779026985385
-0.120595140012998,-0.153936463739015
-0.120207047022047,-0.160020266368576
-0.119844123199257,-0.166041797678914
-0.121939696957974,-0.127248407810513
-0.114781259467335,-0.152532380822748
-0.118905474396632,-0.183733963058424
-0.118642334903269,-0.189507608455701
-0.0995940748141053,-0.180065514733889
-0.114506379036884,-0.21421444136598
-0.111904147746363,-0.2551558529222
-0.117836114552143,-0.211986673035541
-0.0848806933071903,-0.183886032078584
-0.111907319812595,-0.179272716000539
-0.0997062156885459,-0.211348071546499
-0.117419751149323,-0.233486667346919
-0.091380783594764,-0.226373237588266
-0.117355981117103,-0.243871911879585
-0.144227123520653,-0.204637481141427
-0.146284261885955,-0.244234331715435
-0.0890334829183292,-0.258340977567696
-0.127311651028146,-0.227739512758759
-0.117612030869417,-0.268778857311986
-0.131109621935146,-0.299459854881813
-0.082958343780933,-0.233905951877754
-0.127192086054664,-0.270610293903005
-0.0950010965326807,-0.267480094933579
-0.138019834488885,-0.319930906428974
-0.110852116271245,-0.310800954117265
-0.11933100287099,-0.269560092808072
-0.119233063338688,-0.305522831934044
-0.119538647089968,-0.309849460477488
-0.143921375680095,-0.347113659186328
-0.0813388947563058,-0.33045474267304
-0.120590529643595,-0.322477066868585
-0.0749570102078356,-0.299739773901116
-0.0941297194132821,-0.334851628325016
-0.130175285565063,-0.378926967491348
-0.122305014666609,-0.338496368123448
-0.151290128087948,-0.362216450323674
-0.123294354510982,-0.346157817348651
-0.123821736446261,-0.349901911388034
-0.141875841262421,-0.35643671505511
-0.137721600493077,-0.391401169010221
-0.117190580253507,-0.357140825502018
-0.151786258253433,-0.337465585368731
-0.0824839963708175,-0.368350369990863
-0.15416105597954,-0.324702887051827
-0.128115705700959,-0.374504659692683
-0.0847203768736334,-0.365947958698352
-0.129533472078727,-0.381021429094799
-0.0969763741866334,-0.362801811299107
-0.143920960809489,-0.371688168247274
-0.0824825997653365,-0.388874143639815
-0.0869683137774904,-0.421925708680258
-0.13344183003552,-0.396326449961752
-0.134285177811573,-0.399219230316774
-0.174889559620815,-0.376655986561368
-0.127749655625106,-0.417172033725254
-0.18583089904698,-0.362567270266667
-0.156972690564356,-0.409827448398077
-0.106863913939574,-0.460014073395965
-0.0928759700258278,-0.387614553204095
-0.134439513943557,-0.457221785965536
-0.123292875695788,-0.387239146700559
-0.109752848930998,-0.451048329710759
-0.128444335438409,-0.452506880221802
-0.104846223919783,-0.400819119155558
-0.145967170263953,-0.429614905526489
-0.111830804598754,-0.429011606868692
-0.132538802919569,-0.465161419378205
-0.148839450472518,-0.474032024101555
-0.15048573290491,-0.437997186116617
-0.151662903565143,-0.439957766992087
-0.122128319102805,-0.430637386089722
-0.154073656245354,-0.443717781171228
-0.140955519473981,-0.417216660620712
-0.157967044595025,-0.433410600458273
-0.157829475150212,-0.448956732556183
-0.144095143538422,-0.49965080130623
-0.209277527145174,-0.452193844331985
-0.152062672869154,-0.428955954997305
-0.186091825517285,-0.445216722824633
-0.16445573072901,-0.4566267942666
-0.141750593259995,-0.489022343968627
-0.162103897481413,-0.463920097790621
-0.127762628938328,-0.419825525980631
-0.20913998117304,-0.475500496767011
-0.171530516011388,-0.462982944171155
-0.147114451028864,-0.434637027261333
-0.149151227709151,-0.473953104299397
-0.175986041253832,-0.466172193138969
-0.161416756034523,-0.447625745028691
-0.129896854197308,-0.515840918343514
-0.170306712779595,-0.470230232680254
-0.218558343649928,-0.481886428226043
-0.188693758188945,-0.509727042973266
-0.158152989614933,-0.509907662626406
-0.157679644359725,-0.506308682503255
-0.188618899847369,-0.472415385216207
-0.172977217915205,-0.448533040363411
-0.235093978193065,-0.504125691829288
-0.218576570121735,-0.474372799189472
-0.195334507178515,-0.474317843527862
-0.168492531277626,-0.427550270247062
-0.205461123643918,-0.516809938952261
-0.241042095166796,-0.464258380377963
-0.174246321096552,-0.500958651994659
-0.20125933940201,-0.45098216723382
-0.205890828540391,-0.475669197385501
-0.20770540980285,-0.475720689957535
-0.204252839348678,-0.438773394512213
-0.250820479332116,-0.500855163413414
-0.213241987821768,-0.475579738279736
-0.242511807267174,-0.432934940503204
-0.236177174979708,-0.507816020535945
-0.212418960317024,-0.507982496120084
-0.220837373639264,-0.474706945081851
-0.234325538408763,-0.469866772314037
-0.224724866812633,-0.473979196926014
-0.226690751145348,-0.473542904736211
-0.250351954967395,-0.467889250701604
-0.230666349131235,-0.472526083814749
-0.232675884315764,-0.471945794955855
-0.267313438892916,-0.428574456783369
-0.232415270940536,-0.484836918302743
-0.219044088885747,-0.450175667081231
-0.269860703522237,-0.517530457131683
-0.208326552491432,-0.503756328641719
-0.223683905428456,-0.474275514961567
-0.247140044313755,-0.466553236906925
-0.244975207691102,-0.438559209458479
-0.216696147482445,-0.480996329122742
-0.216930935335057,-0.473400534715498
-0.2213847201709,-0.466274732896271
-0.277224345080735,-0.423427443790258
-0.260075195613619,-0.460099626092678
-0.262277815889057,-0.458861625207549
-0.312434836381439,-0.445230908319773
-0.266722334810008,-0.456247503650948
-0.234556128291774,-0.461706295743245
-0.285621462373955,-0.409345119757207
-0.273485970601804,-0.451982820895919
-0.288928373815385,-0.492348914202039
-0.306796051187362,-0.487138518934922
-0.281758493692685,-0.445066326743401
-0.282681204315399,-0.445660413766381
-0.324348230363141,-0.442924127908723
-0.299163172270885,-0.407966069074229
-0.289707295892755,-0.440445683600492
-0.292073548843524,-0.438617998954715
-0.267983509903514,-0.477733607906525
-0.268577661590123,-0.43371635311978
-0.299243725690287,-0.432868300355298
-0.312538162493857,-0.426385668746803
-0.328763847865945,-0.475485120642883
-0.267540098358704,-0.468630491842385
-0.280243532079635,-0.430172592552719
-0.311426726357136,-0.422403849998934
-0.268148936456047,-0.4247819048651
-0.280689546506735,-0.386176215219019
-0.318872224000461,-0.415601485371549
-0.336748477046815,-0.40986092367477
-0.32389094237533,-0.410850368554015
-0.314911228423847,-0.42933075505355
-0.299161832518705,-0.375194158547824
-0.331499815170189,-0.403401781456449
-0.334057294559872,-0.400833555670454
-0.28737283337758,-0.357247779321018
-0.304370300253117,-0.429922931890484
-0.341792048822615,-0.392874467161402
-0.369028659686405,-0.4175199309205
-0.34699958939931,-0.387357598226639
-0.331632075275132,-0.41191216363358
-0.35642470803703,-0.337719601417466
-0.385643479734452,-0.34961818661628
-0.355122956959337,-0.344995261432073
-0.379575747654998,-0.36662132875603
-0.362859339636485,-0.369805658166119
-0.334503234030515,-0.415443403226347
-0.368222586302675,-0.363624432030737
-0.352202969427074,-0.324063042377411
-0.413717324344641,-0.317785317541229
-0.339851110584244,-0.333251958526687
-0.379059791268337,-0.350771867533522
-0.381791636899812,-0.347457319324273
-0.410887930605362,-0.343242612319966
-0.417447359369808,-0.389885773005338
-0.390039852581242,-0.337272216674777
-0.3701106786868,-0.30952595090887
-0.352914277816397,-0.331355876771249
-0.398365212522434,-0.326727445656693
-0.401157059244835,-0.323133155382985
-0.40395712061437,-0.319499381702743
-0.385356433613564,-0.303564280723454
-0.402910168213356,-0.354721849473307
-0.41240570026256,-0.308362359586631
-0.415237727877415,-0.304571851644074
-0.412667242868592,-0.329704227190925
-0.46316165476883,-0.317501798357547
-0.42378006463786,-0.292967505214199
-0.426642630748897,-0.289022181991448
-0.441148854499122,-0.294365963756
-0.41857160337713,-0.283478867057191
-0.446958909182136,-0.303275698999974
-0.476438940011132,-0.283003197972116
-0.466574728797239,-0.22726071416222
-0.408125863097341,-0.303421783753264
-0.462797681676243,-0.242456799914314
-0.432017773053031,-0.285125368221155
-0.438006835989485,-0.295712778380205
-0.472481691361588,-0.237502909806052
-0.432427707297247,-0.212213155559555
-0.461546003048394,-0.238717094754664
-0.464497958879531,-0.234281874841555
-0.499178959827802,-0.269423631400116
-0.42930114198934,-0.22384704802497
-0.473390978388057,-0.220755626011048
-0.460448573167934,-0.257183821825966
-0.431039842655437,-0.207097187507679
-0.502504266032327,-0.193543077342326
-0.462137360783451,-0.173661027149874
-0.491389187352874,-0.153640265680776
-0.491336170384228,-0.192721271714141
-0.457121840695553,-0.154044548017601
-0.497362439947788,-0.183089084597686
-0.478802346680198,-0.214702149346534
-0.503409789169484,-0.173314795457588
-0.506441145566329,-0.16837466246963
-0.543879017688428,-0.120623262758836
-0.545275170662497,-0.113021740770505
-0.515564871089002,-0.153343749070707
-0.482258507217198,-0.184671141226469
-0.521671176037687,-0.143148910806045
-0.49729559294077,-0.171733531022246
-0.520283554765668,-0.124929937833226
-0.572323717715207,-0.0865409854986935
-0.533937744540057,-0.122345401589581
-0.489988460218593,-0.099630680931155
-0.572712949587713,-0.149922041846832
-0.496530020889845,-0.137488900911961
-0.594807376434028,-0.0996709009247026
-0.549364765720902,-0.0955749735321721
-0.542302913359695,-0.0991349630605758
-0.513377263594758,-0.0731575528297118
-0.591244313572519,-0.0584685882125186
-0.557343656085933,-0.11569434307164
-0.564885610178586,-0.0679673807895875
-0.569652937195786,-0.0900737481949152
-0.571117719918181,-0.056693295799416
-0.574238511841377,-0.0510072227870452
-0.611161523167714,-0.0470531024581604
-0.58048912362296,-0.0395376154096467
-0.583618765012705,-0.0337543209173842
-0.598318720854347,-0.00963260972103343
-0.589886272618494,-0.0220913500076448
-0.593023960365897,-0.0162119134629331
-0.596164151763876,-0.0103006694401705
-0.635377687687535,-0.0425589545981709
-0.59819280707796,0.0348518700982913
-0.627209393692974,-0.0021820266103087
-0.589637237601378,0.0308056864847929
-0.588894508960425,0.0351040560031751
-0.637154265274116,0.0259577138378423
-0.663876194277288,0.0649313110691849
-0.645085677886298,-0.00236132984287614
-0.6675125194328,0.0826155708182876
-0.581347115653852,0.0956392695361944
-0.630845977063861,0.0567880065561851
-0.638550956813631,0.0273133834822629
-0.685776920438477,0.0494052547993581
-0.643882509881065,0.0845429982044645
-0.648543521480602,0.130888941930164
-0.646674895403907,0.0885071838508234
-0.683655860719699,0.0965710373232136
-0.676111526166031,0.0908354997883309
-0.617644350902504,0.117426730256342
-0.657916900229212,0.145233652920045
-0.619874855262349,0.095698104406755
-0.698587863049061,0.164150262504725
-0.664167388473922,0.115891121309556
-0.664594577888719,0.126855244379143
-0.675221612761357,0.147467047576538
-0.678395577827597,0.154163188358352
-0.689426327535397,0.170548063368034
-0.693102235667158,0.138326894854375
-0.687917682032459,0.174422546132596
-0.734595345305537,0.224101628887256
-0.694265033330941,0.188070031475602
-0.720212627415293,0.168722763530853
-0.742734598203361,0.220146813715688
-0.689678469959948,0.198901704788101
-0.65995651871978,0.226166035700375
-0.755506585151189,0.26097838125267
-0.71329578738328,0.229679917871796
-0.71024920594375,0.192727296008528
-0.70982864951229,0.231193744485495
-0.722800391148801,0.250854353800494
-0.764435688434675,0.292695351588641
-0.690063181074081,0.264453207698463
-0.738733124001366,0.310465151099911
-0.766362073993365,0.231745499907247
-0.735176010300679,0.27895837239409
-0.784852972174065,0.252468095665488
-0.732991344133523,0.2464785570601
-0.758523303153442,0.34650901735657
-0.783619121053684,0.345881954260048
-0.749265551951768,0.312255116159384
-0.75189684733935,0.318664241119296
-0.754466549750564,0.324990800206959
-0.756974921187343,0.331235154304717
-0.736982811427814,0.320958157868992
-0.796758368792251,0.38923175348067
-0.802638746472155,0.360503852719037
-0.804454388726424,0.34123192662404
-0.803019385379101,0.312498175219851
-0.741898213736195,0.398753580433628
-0.73233495601058,0.399841102166482
-0.748822159226493,0.349938804723825
-0.824010814505847,0.360978876861704
-0.785291413792763,0.372752879621479
-0.780594095232137,0.394600732396455
-0.830243118461403,0.397019130806084
-0.740542330021279,0.382672554716515
-0.747865035997402,0.453338404990443
-0.796194236008385,0.387576951963448
-0.788981645230223,0.420259421233758
-0.824030720100218,0.4112262633374
-0.791936692624937,0.429987880661778
-0.814332563139395,0.471618571510516
-0.794666328268838,0.439414947188258
-0.837288931595854,0.415131681252598
-0.836336372943779,0.408933462791421
-0.846626059006546,0.474351861080371
-0.802359145120468,0.442095626771189
-0.782188470817764,0.418873288662074
-0.76412103793811,0.457279169749169
-0.778297079442518,0.507636346231254
-0.78273836563646,0.469333122819648
-0.77799410039033,0.484069826281229
-0.840475272841047,0.494233068325664
-0.782724806261714,0.452129300292662
-0.801442443834411,0.521409884755102
-0.807059304596231,0.493543815129941
-0.783136401918641,0.449019073477184
-0.849163709500826,0.490054762115056
-0.80864011224667,0.5043277819941
-0.774347701425062,0.555520587196048
-0.809435362829214,0.511172230050261
-0.809756187770961,0.514492077769388
-0.786263288014762,0.543359027447005
-0.797058423888339,0.517083934720927
-0.810414605221303,0.524046446279069
-0.770138000434705,0.506360469372621
-0.81060278906178,0.530081988569207
-0.810377259055144,0.503474687526639
-0.827481245037379,0.559852218785781
-0.836510486230846,0.488850693685457
-0.810386762108927,0.541364376794677
-0.779644453849915,0.528555634384028
-0.809986743346528,0.5466169968475
-0.836512914883791,0.590604452750441
-0.804120987311446,0.511608683300917
-0.809027603638963,0.554018329204566
-0.808613175327117,0.556359524127049
-0.849684003399104,0.543145028661603
-0.807643818101035,0.560855205471265
-0.832287742980616,0.559489618674539
-0.833384319393177,0.606222166173443
-0.805842460784941,0.567137369470863
-0.795657619124617,0.53958658641991
-0.811668150740955,0.566823128937297
-0.803630605742878,0.572874565026626
-0.802803321687663,0.574667543564185
-0.801931474781741,0.576401413581802
-0.771364939966349,0.610561262119697
-0.842913940800408,0.593509744948934
-0.84069138440307,0.607900852404076
-0.768522379830803,0.570096884413712
-0.747573479125008,0.63287156274505
-0.784220911799081,0.546977092909856
-0.794602794782846,0.586913779263559
-0.7471297341635,0.637911880092266
-0.778884745773433,0.568879484119118
-0.790819689358879,0.590568539276637
-0.770580397893023,0.564194814105007
-0.795066068305094,0.622532232854867
-0.822470183082065,0.633840656058693
-0.775844424585411,0.555677611009607
-0.770036735039542,0.600137046248772
-0.830706121004659,0.607809168594631
-0.830532806026932,0.592425189927094
-0.778916665207927,0.597914922859973
-0.75918298779009,0.568683438535135
-0.775539820991756,0.599221783554723
-0.773792676667539,0.599797738474822
-0.772006733535145,0.600322524286529
-0.770182253596507,0.600796501872187
-0.801852941907291,0.647588628140761
-0.745699129034052,0.619067335148841
-0.748694606650566,0.593833483777012
-0.76250420581818,0.602191547601185
-0.76049097187732,0.602416897291743
-0.766126206960356,0.587543974470539
-0.756353871613602,0.60272202875923
-0.749365342466713,0.598364875415758
-0.714730385866732,0.617906131204474
-0.782963756945896,0.621093504035795
-0.747644477612293,0.602760124745301
-0.731524916173795,0.613602440189499
-0.708352557797442,0.608207426522382
-0.763746570740146,0.581834662651067
-0.719762500908181,0.605740318579472
-0.73596336250664,0.601764704492007
-0.761074895234523,0.643178099001541
-0.723656328533871,0.603457896634203
-0.728543604147234,0.600628486566698
-0.696380972524562,0.613612693471925
-0.723430178066511,0.599652453583323
-0.720824174879614,0.599099953428715
-0.721854858064017,0.621675672015615
-0.720006297532445,0.579714962862657
-0.712812148755977,0.597188848901323
-0.71007767453356,0.596468482312148
-0.711513314349308,0.612559435424168
-0.687381489599854,0.642467333503014
-0.672604231251839,0.606985233946717
-0.666172092017456,0.636212297587986
-0.646008068978481,0.559742332674277
-0.680767041865645,0.572536653553344
-0.679947617461129,0.632888302704784
-0.687091229770934,0.58925754521535
-0.684083022831693,0.588180590765474
-0.706039259145985,0.57347427490673
-0.639761026422054,0.546099553775431
-0.698745891046707,0.595340023488649
-0.671761767727582,0.583498217172447
-0.713616327578969,0.61416228121854
-0.633789487579857,0.539758483851411
-0.662225313739127,0.579603258100088
-0.64153170645207,0.595135530225683
-0.623233786613291,0.603996182278272
-0.652443423242636,0.575390686460091
-0.649129474306597,0.57391759946044
-0.69233880135625,0.617579526490323
-0.642423170290305,0.570870246075721
-0.63094702956163,0.614032166340461
-0.660817911133503,0.569497964016287
-0.632171628934333,0.566051680770244
-0.600575394741154,0.565026749167888
-0.594602354971085,0.516538174854168
-0.621695873226915,0.560944734366926
-0.618155351922033,0.559180018328345
-0.657831870855204,0.539797382796813
-0.640165876937079,0.532608922717216
-0.607391647827217,0.553703720852984
-0.607213337531322,0.518915519874373
-0.600100014966534,0.549904673559826
-0.567579801701822,0.548140692597945
-0.574860718159045,0.5577314224419
-0.629687741339106,0.559468137960606
-0.586188653824156,0.516887980181663
-0.589581272597426,0.508410439661995
-0.544349022687617,0.584992490071218
-0.552866879250411,0.492428139694959
-0.587277524741732,0.550506568337215
-0.551209866569718,0.52359250271574
-0.525537416717643,0.551776099515058
-0.514897310968946,0.545632867404284
-0.524512448642608,0.483224287213847
-0.550598984952308,0.522532427288165
-0.526325241989654,0.491340246515457
-0.547570825287048,0.481513782606786
-0.538695142262539,0.515608414100457
-0.519747892908709,0.536024880690745
-0.530666997179211,0.510876702409953
-0.574791830565263,0.517250114645741
-0.522567497481806,0.506055796635692
-0.518491644657658,0.503612798173012
-0.514398739185792,0.501148583836422
-0.474061187153479,0.494694982479651
-0.494484983557847,0.502374337404614
-0.536409056001814,0.493381712312259
-0.453354149396766,0.496038552245086
-0.471916789282439,0.527970623257454
-0.53254197399267,0.464946308790463
-0.485292934908973,0.48333535312765
-0.488567882194731,0.487230258183949
-0.474774632245803,0.444807313317498
-0.51221173775211,0.524178505405767
-0.497339119038464,0.480740228357733
-0.464049135704976,0.47005453480531
-0.459758387988682,0.467347354401125
-0.492141869291897,0.43133272773309
-0.413619729056672,0.425615811195613
-0.459539319778958,0.49933058140122
-0.40776116775119,0.481866191143215
-0.47279625457907,0.420890381388646
-0.433741994724841,0.450777468914815
-0.426851283787179,0.448590099755057
-0.424972568077168,0.445138338524682
-0.389206904412469,0.445059578369957
-0.464848914290808,0.464181359684747
-0.396867977770463,0.4071351357765
-0.42911292850504,0.408077946260438
-0.359209191279869,0.410421334079749
-0.437377781827848,0.429078135502164
-0.386576264238606,0.440987651493316
-0.389464277433601,0.422079629057213
-0.384981623429105,0.419146748792911
-0.38049003883682,0.416203840007338
-0.391541730453783,0.44479130239992
-0.374323850241927,0.391655051478957
-0.398915540659047,0.388173674131681
-0.3709614172275,0.443942666083847
-0.357907327126216,0.401351499142415
-0.327425617556951,0.384277523779195
-0.357509296612473,0.407457069022225
-0.346094001162872,0.368533677160604
-0.35817465974659,0.421141718311716
-0.352472903075334,0.415921147187426
-0.33056812208049,0.383273173312279
-0.325989806585525,0.380238071094218
-0.321405966527902,0.377197631825347
-0.320783593288392,0.423485489424606
-0.299228082560478,0.329364984681606
-0.307623918998422,0.368047900537306
-0.31829575328809,0.376583467363377
-0.298413067867592,0.361928010600853
-0.293801582474623,0.358863127556329
-0.289186406532529,0.355795433637396
-0.265712798888795,0.3890220697353
-0.236350128115458,0.393450356601062
-0.227519180607591,0.362071016922981
-0.233322048449183,0.334723895540859
-0.262139141205625,0.313816955209299
-0.274114183238865,0.313395930875826
-0.212906222355757,0.316187473011594
-0.299771504868672,0.332838101757067
-0.210089682092613,0.283092004454916
-0.242889307335039,0.325043290471138
-0.235761786760015,0.279829497399507
-0.198516987666924,0.352713025888497
-0.225143378357244,0.274690666992452
-0.1945551633578,0.346347220613095
-0.172096984282729,0.274041628734132
-0.263542126726681,0.299506513238183
-0.201222406002856,0.310718521103244
-0.196056681427206,0.304384584369762
-0.235350225409933,0.325890801499771
-0.162476513601558,0.305411530730336
-0.191879200324483,0.291363671981356
-0.209136476644242,0.263538308497005
-0.196531125023079,0.250884379805748
-0.132236840071368,0.271321423190356
-0.198788475523633,0.288701576989469
-0.14526775017138,0.310130747260057
-0.205069782066995,0.264422953903029
-0.159526845058148,0.27022397121097
-0.132308627279557,0.233168395564069
-0.190638829899089,0.310909251663127
-0.145714922509422,0.261271702508531
-0.13469182498998,0.296355645174515
-0.136530005037408,0.255346608705868
-0.17182288442052,0.289623354835047
-0.106837040887908,0.233619558432502
-0.122792415208758,0.24653081364718
-0.132275336538686,0.20689450026391
-0.113663602931792,0.240705724332263
-0.0703521997743695,0.232712811160526
-0.125693468731957,0.234768971825737
-0.0990154322696954,0.193426794963212
-0.120726766543823,0.18173769202598
-0.0937740166450615,0.247585513063904
-0.115863091673916,0.181300965487761
-0.0395187487582167,0.268481671161996
-0.0774304150294281,0.217884779139082
-0.0729373214591499,0.215092049406076
-0.0837537590384645,0.179252592331858
-0.0853411337652425,0.170306720651989
-0.0997876790042255,0.220018983385381
-0.0403674036402276,0.187569163510215
-0.0638131105101377,0.228363241991646
-0.0632439708180154,0.167661494918109
-0.0804338808779651,0.173634716057811
-0.0317372968493284,0.168809173153307
-0.00982499055320146,0.146548855182557
-0.028538320977204,0.188022428956176
-0.0241573784936241,0.185409174010751
-0.0329357983982901,0.181443696600123
-0.0387051455678048,0.166793965088607
0.0157899162769918,0.140820121555192
-0.006753904227993,0.175144574890878
-0.0369651586381355,0.167994607814622
0.00187198747654439,0.170130380080839
0.0180632024783232,0.200510543913148
0.0104445208749421,0.165198771182393
0.0147101232045053,0.162764838655876
0.0546018638750402,0.155308189202494
0.0617038162772925,0.154129100160669
0.0266598034214486,0.115581506559029
0.0316286566800801,0.153250008622514
0.0358210110786381,0.150928330544066
0.0399979298851951,0.148630186002262
0.0441591510978185,0.146355935879445
0.0954003276088525,0.18720936769138
0.0524334527335299,0.141880562420143
0.0143983918638697,0.182067065010398
0.0768478259976135,0.104923347634275
0.0950420856849867,0.181965750043655
0.0653723820272203,0.11040272916091
0.0728261587936379,0.131135542868179
0.0768523671851931,0.129065439861609
0.109496724361395,0.128314831767933
0.109864536308865,0.102801715093964
0.133729514649251,0.125334299886123
0.111994067109122,0.0872797919569258
0.121057398784016,0.136229944848152
0.0942412740664193,0.142532834319043
0.104515596700493,0.115354914308948
0.0987054634578192,0.12376147658684
0.138949651448782,0.151596017529306
0.116078162158445,0.109916785186677
0.118812032130086,0.149505921674818
0.0922643293465524,0.116342578570685
0.13140088258367,0.1282030084061
0.143499472902133,0.101019717847981
0.13493209861595,0.101473072084273
0.137194489958582,0.069646099196388
0.137135464795889,0.136080444492882
0.142387753480133,0.139216870994965
0.116807569645197,0.0642860027863612
0.192764956377674,0.085053152325464
0.130070649845731,0.0794288016278094
0.160396876708406,0.0910293134458737
0.142282571202284,0.0845767376704354
0.163090489774491,0.100741051990947
0.170958298264449,0.0870724258140711
0.135860078117861,0.109692853423183
0.166170048652097,0.0578711983394389
0.149403020342747,0.0348584204950709
0.164184751596222,0.0418012297675422
0.204737970584866,0.0894594512813021
0.205122667017098,0.127559167147783
0.223168372755635,0.0518661261955269
0.239020374453361,0.100219873481402
0.20128556110195,0.0771936168190679
0.220994499904758,0.0371891614350378
0.173411538291028,0.0484079603622395
0.170413237616682,0.0831334231575274
0.201201249451347,0.0657664386842338
0.217202538515805,0.0730679810146129
0.176725575320721,0.0930137269217755
0.263687270762127,0.0800506842778525
0.226415536738838,0.071084313730701
0.234597301045537,0.0839857959818781
0.249556697378021,0.0800363262355684
0.216914953059982,0.0889839113474033
0.210380967786182,0.110404526287961
0.241185846567546,0.0686290017251909
0.263680675617253,0.0628121731141219
0.246883216597199,0.0679530775580143
0.235883806517362,0.07986421552202
0.252457011802608,0.0674564557704
0.292459977475674,0.0655124440843515
0.299780337174438,0.0256238438224413
0.305263378858127,0.0299410813183224
0.263225493678828,0.0670126675688396
0.270932121058698,0.0601661181687636
0.274277397968381,0.0873136970096629
0.286885888138546,0.0231026709652767
0.273474524072481,0.0673207335904726
0.275953652362244,0.0675179339358286
0.281011005484746,0.0292715558722275
0.280810319757857,0.0680590814108801
0.248446220753815,0.0269844492644387
0.259644874785306,0.0399360266724754
0.287837417862494,0.0692430828194536
0.290109961759299,0.0697384682039498
0.313656607371026,0.0636700046280506
0.282451458351681,0.0846843320072365
0.280851563747177,0.0638228472543386
0.308006094881747,0.0833004982420484
0.262030007713641,0.0830975169491476
0.302993752555019,0.0737935838821513
0.321548573439011,0.0584669258734511
0.306995786170011,0.0755664468068259
0.308940768346886,0.0765334693081963
0.310848044767436,0.0775547003453797
0.295834381856232,0.120471553907954
0.359405542064648,0.0967932289670943
0.289230953900393,0.115843116032086
0.32278224770506,0.0888839245959152
0.33058138043115,0.0464051338468093
0.302228349092024,0.0886470471031354
0.371639824047599,0.0386488718788024
0.341570245440043,0.052929626967971
0.315557715339931,0.0953172109849572
0.327789351949749,0.0908278743024251
