0.552394191216355,0.973691715184799
0.564827410740526,0.957355912453573
0.57649926203092,0.94054941423748
0.587420828597265,0.923295723023584
0.597603193949291,0.905618341298951
0.607057441596726,0.887540771550645
0.6157946550493,0.869086516265732
0.623825917816739,0.850279077931276
0.631162313408774,0.831141959034342
0.637814925335133,0.811698662061996
0.643794837105544,0.791972689501301
0.649113132229737,0.771987543839324
0.65378089421744,0.751766727563129
0.657809206578382,0.73133374315978
0.661209152822291,0.710712093116344
0.624974486232829,0.651084240048342
0.625339832892685,0.698291502828676
0.681512801995195,0.675545463255771
0.668746946822177,0.626808886283015
0.686752074221185,0.559660916109199
0.654147968320615,0.633100972427828
0.668345540069956,0.563052113803276
0.675489146403685,0.575506362941947
0.62581025864827,0.492578974181546
0.66308685096491,0.499289529631419
0.660306281563556,0.478143721693298
0.673669193209104,0.426575288163237
0.677982661993032,0.456807540281219
0.673885104134086,0.411694401869082
0.603752081831939,0.374540237802851
0.765571825569213,0.480061996087575
0.499447696276242,0.21545299978723
0.710482531344579,0.218409950903984
0.476177750006864,0.419581201300836
0.614319798105855,0.294853137909112
0.48453103210273,0.363930468380621
0.693274902787442,0.355284735240529
0.696592389845492,0.353109678566811
0.583115152860994,0.220299266416269
0.67208515927384,0.290986747833783
0.706834460877391,0.306284214436888
0.555984453718242,0.168490017725529
0.546290053635095,0.15212773950799
0.64322671911872,0.051787585768851
0.612570851777574,0.0419896241939768
0.603183551139561,0.197069479377851
0.531357202258304,0.0454715800285345
0.581255722006632,0.185772617444371
0.372865705837552,-0.00876566842782364
0.633786572897452,-0.0202888982416399
0.57571906826644,0.144707715055726
0.544352837279214,-0.0604606550170777
0.49058105427988,0.12442298317519
0.327174386335966,-0.0661261989338892
0.360944833929859,0.0638042656532856
0.512299587090372,-0.101101156817978
0.3833822942331,-0.0144953430195338
0.283533321252427,-0.140634801271455
0.361832312316593,-0.0378204022393838
0.368163752978333,-0.0761831796828944
0.2103745054622,-0.145451166063043
0.267404613311062,0.0105878402691897
0.308331928008088,-0.00190367192676133
0.334764443045478,-0.053393371340272
0.264257841858319,-0.0160119586703436
0.261035238981213,-0.0405934358725471
0.247033223545588,-0.0386392720250824
0.232990268008552,-0.0356281420032643
0.218917455879834,-0.0315365433200276
0.204825870669162,-0.0263409734883075
0.190726595886265,-0.020017930021039
0.176630715040872,-0.0125439104311573
0.162549311642711,-0.00389541223159728
0.148493469201511,0.00595106706470591
0.134474271227002,0.0170190299448171
0.12050280122891,0.0293319788958014
0.106590142716966,0.0429134164047238
0.0927473792008981,0.057786844958649
0.0789855941904347,0.073975767044642
0.0653158711953046,0.0915036851497679
0.0517492937252366,0.110394101761091
0.0382969452899593,0.130670519365678
0.0249699093992016,0.152356440450592
0.011779269562692,0.175475367502898
-0.00126389070984072,0.200050803009662
-0.0141484879086678,0.226106249457948
-0.0268634385240605,0.253665209334822
-0.0393976590462903,0.282751185127348
-0.0517400659656284,0.313387679322591
-0.063879575772346,0.345598194407616
-0.0758051049567145,0.379406232869489
-0.0875055700090052,0.414835297195273
-0.0989698874194893,0.451908889872035
-0.110186973678438,0.490650513386838
-0.121145745276123,0.531083670226748
-0.131835118702815,0.57323186287883
-0.142244010448786,0.617118593830149
-0.152361337004307,0.66276736556777
-0.162176014859649,0.710201680578757
-0.171676960505084,0.759445041350175
