0.846319189228412,0.397973151115858
0.841768437516089,0.395585123041978
0.837256066666572,0.393227601767356
0.832781880511246,0.390900349913315
0.828345682881496,0.388603130101181
0.823947277608704,0.386335704952278
0.819586468524256,0.384097837087931
0.815263059459536,0.381889289129463
0.810976854245928,0.379709823698201
0.806727656714816,0.377559203415467
0.802515270697583,0.375437190902587
0.798339500025615,0.373343548780885
0.794200148530297,0.371278039671685
0.79009702004301,0.369240426196313
0.786029918395141,0.367230470976092
0.781998647418072,0.365247936632347
0.778003010943189,0.363292585786403
0.774042812801876,0.361364181059584
0.770117856825516,0.359462485073214
0.766227946845494,0.357587260448618
0.762372886693194,0.355738269807121
0.7585524802,0.353915275770048
0.754766531197297,0.352118040958721
0.751014843516468,0.350346327994467
0.747297220988898,0.348599899498609
0.743613467445971,0.346878518092472
0.73996338671907,0.345181946397381
0.736346782639582,0.34350994703466
0.732763459038889,0.341862282625634
0.729213219748375,0.340238715791627
0.725695868599425,0.338639009153963
0.722211209423424,0.337062925333967
0.718759046051755,0.335510226952964
0.715339182315802,0.333980676632277
0.711951422046949,0.332474036993233
0.708595569076581,0.330990070657154
0.705271427236083,0.329528540245366
0.701978800356837,0.328089208379194
0.698717492270229,0.32667183767996
0.695487306807642,0.325276190768991
0.692288047800461,0.32390203026761
0.68911951908007,0.322549118797143
0.685981524477853,0.321217218978913
0.682873867825193,0.319906093434245
0.679796352953477,0.318615504784464
0.676748783694087,0.317345215650893
0.673730963878408,0.316094988654858
0.670742697337823,0.314864586417684
0.667783787903718,0.313653771560694
0.664854039407477,0.312462306705213
0.661953255680482,0.311289954472565
0.659081240554119,0.310136477484076
0.656237797859773,0.309001638361069
0.653422731428826,0.30788519972487
0.650635845092664,0.306786924196801
0.647876942682669,0.305706574398189
0.645145828030228,0.304643912950358
0.642442304966723,0.303598702474631
0.63976617732354,0.302570705592334
0.637117248932061,0.301559684924792
0.634495323623672,0.300565403093327
0.631900205229756,0.299587622719266
0.629331697581698,0.298626106423933
0.626789604510881,0.297680616828651
0.624273729848691,0.296750916554746
0.621783877426511,0.295836768223543
0.619319851075726,0.294937934456364
0.616881454627719,0.294054177874536
0.614468491913875,0.293185261099383
0.612080766765577,0.292330946752228
0.609718083014211,0.291490997454397
0.60738024449116,0.290665175827214
0.605067055027809,0.289853244492004
0.602778318455542,0.289054966070091
0.600513838605742,0.288270103182799
0.598273419309794,0.287498418451454
0.596056864399083,0.286739674497379
0.593863977704992,0.285993633941899
0.591694563058906,0.285260059406339
0.589548424292208,0.284538713512022
0.587425365236283,0.283829358880275
0.585325189722516,0.28313175813242
0.58324770158229,0.282445673889783
0.581192704646989,0.281770868773688
0.579160002747998,0.28110710540546
0.577149399716701,0.280454146406423
0.575160699384482,0.279811754397901
0.573193705582725,0.27917969200122
0.571248222142815,0.278557721837703
0.569324052896135,0.277945606528675
0.56742100167407,0.277343108695461
0.565538872308004,0.276749990959384
0.563677468629322,0.276166015941771
0.561836594469406,0.275590946263944
0.560016053659642,0.275024544547229
0.558215650031414,0.27446657341295
0.556435187416105,0.273916795482432
0.554674469645101,0.273374973376999
0.552933300549785,0.272840869717975
0.551211483961541,0.272314247126686
0.549508823711754,0.271794868224455
0.547825123631808,0.271282495632607
0.546160187553087,0.270776891972466
0.544513819306974,0.270277819865358
0.542885822724856,0.269785041932607
0.541276001638114,0.269298320795536
0.539684159878135,0.268817419075471
0.538110101276301,0.268342099393736
0.536553629663997,0.267872124371656
0.535014548872608,0.267407256630555
0.533492662733517,0.266947258791757
0.531987775078109,0.266491893476588
0.530499689737767,0.266040923306371
0.529028210543877,0.265594110902431
0.527573141327821,0.265151218886093
0.526134285920985,0.264712009878681
0.524711448154753,0.264276246501519
0.523304431860508,0.263843691375933
0.521913040869635,0.263414107123246
0.520537079013518,0.262987256364783
0.519176350123541,0.262562901721869
0.517830658031089,0.262140805815828
0.516499806567546,0.261720731267985
0.515183599564295,0.261302440699663
0.513881840852721,0.260885696732188
0.512594334264208,0.260470261986885
0.511320883630141,0.260055899085076
0.510061292781903,0.259642370648088
0.508815365550879,0.259229439297245
0.507582905768453,0.258816867653871
0.506363717266009,0.25840441833929
0.505157603874931,0.257991853974827
0.503964369426604,0.257578937181807
0.502783817752411,0.257165430581554
0.501615752683737,0.256751096795393
0.500459978051966,0.256335698444648
0.499316297688482,0.255918998150643
0.49818451542467,0.255500758534703
0.497064435091913,0.255080742218153
0.495955860521596,0.254658711822318
0.494858595545103,0.25423442996852
0.493772443993817,0.253807659278086
0.492697209699124,0.25337816237234
0.491632696492408,0.252945701872605
0.490578708205052,0.252510040400207
0.489535048668441,0.25207094057647
0.488501521713959,0.251628165022719
0.48747793117299,0.251181476360278
0.486464080876918,0.250730637210472
0.485459774657128,0.250275410194624
0.484464816345004,0.24981555793406
0.48347900977193,0.249350843050105
0.482502158769289,0.248881028164082
0.481534067168467,0.248405875897316
0.480574538800848,0.247925148871131
0.479623377497815,0.247438609706853
0.478680387090753,0.246946021025805
0.477745371411045,0.246447145449313
0.476818134290077,0.2459417455987
0.475898479559233,0.245429584095291
0.474986211049896,0.24491042356041
0.47408113259345,0.244384026615383
0.473183048021281,0.243850155881534
0.472291761164771,0.243308573980186
0.471407075855306,0.242759043532665
0.47052879592427,0.242201327160296
0.469656725203046,0.241635187484401
0.468790667523018,0.241060387126307
0.467930426715572,0.240476688707338
0.467075806612091,0.239883854848818
0.46622661104396,0.239281648172071
0.465382643842561,0.238669831298422
0.464543708839281,0.238048166849196
0.463709609865503,0.237416417445717
0.46288015075261,0.23677434570931
0.462055135331988,0.236121714261299
0.461234367435021,0.235458285723008
0.460417650893092,0.234783822715763
0.459604789537585,0.234098087860887
0.458795587199886,0.233400843779705
0.457989847711378,0.232691853093542
0.457187374903446,0.231970878423722
0.456387972607472,0.231237682391569
0.455591444654843,0.230492027618409
0.454797594876942,0.229733676725565
0.454006227105152,0.228962392334363
0.453217145170859,0.228177937066125
0.452430152905447,0.227380073542179
0.451645054140299,0.226568564383846
0.4508616527068,0.225743172212453
0.450079752436334,0.224903659649324
0.449299157160285,0.224049789315782
0.448519670710037,0.223181323833153
0.447741096916975,0.222298025822762
0.446963239612483,0.221399657905931
0.446185902627944,0.220485982703987
0.445408889794744,0.219556762838254
0.444632004944266,0.218611760930056
0.443855051907895,0.217650739600717
0.443077834517014,0.216673461471562
0.442300156603008,0.215679689163916
0.441521821997261,0.214669185299104
0.440742634531157,0.213641712498448
0.439962398036081,0.212597033383275
0.439180916343416,0.211534910574909
0.438397993284547,0.210455106694673
0.437613432690857,0.209357384363893
0.436827038393732,0.208241506203894
0.436038614224555,0.207107234835999
0.435247964014711,0.205954332881533
0.434454891595583,0.204782562961821
0.433659200798557,0.203591687698186
0.432860695455015,0.202381469711955
0.432059179396342,0.20115167162445
0.431254456453923,0.199902056056998
0.430446330459141,0.198632385630921
0.429634605243381,0.197342422967545
0.428819084638027,0.196031930688194
0.427999572474463,0.194700671414192
0.427175872584074,0.193348407766865
0.426347788798242,0.191974902367536
0.425515124948354,0.190579917837531
0.424677684865792,0.189163216798173
0.423835272381942,0.187724561870787
0.422987691328186,0.186263715676698
0.42213474553591,0.18478044083723
0.421276238836498,0.183274499973708
0.420411975061333,0.181745655707455
0.4195417580418,0.180193670659798
0.418665391609283,0.178618307452059
0.417782679595167,0.177019328705564
0.416893425830835,0.175396497041637
0.415997434147672,0.173749575081603
0.415094508377061,0.172078325446786
0.414184452350388,0.170382510758511
0.413267069899036,0.168661893638101
0.412342164854389,0.166916236706883
0.411409541047832,0.165145302586179
0.410469002310748,0.163348853897315
0.409520352474523,0.161526653261615
0.408563395370539,0.159678463300404
0.407597934830182,0.157804046635006
0.406623774684836,0.155903165886746
0.405640718765884,0.153975583676947
0.404648570904711,0.152021062626936
0.4036471349327,0.150039365358035
0.402636214681238,0.14803025449157
0.401615613981706,0.145993492648865
0.40058513666549,0.143928842451245
0.399544586563974,0.141836066520034
0.398493767508542,0.139714927476557
0.397432483330578,0.137565187942137
0.396360537861466,0.1353866105381
0.395277734932591,0.133178957885771
0.394183878375336,0.130941992606473
0.393078772021086,0.128675477321531
0.391962219701225,0.12637917465227
0.390834025247138,0.124052847220014
0.389693992490208,0.121696257646088
0.388541925261819,0.119309168551815
0.387377627393356,0.116891342558522
0.386200902716204,0.114442542287531
0.385011555061745,0.111962530360168
0.383809388261364,0.109451069397757
0.382594206146447,0.106907922021623
0.381365812548375,0.10433285085309
0.380124011298535,0.101725618513483
0.37886860622831,0.0990859876241256
0.377599401169083,0.096413720806343
0.376316199952241,0.0937085806814595
0.375018806409166,0.0909703298707997
0.373707024371242,0.0881987309956879
0.372380657669855,0.0853935466774489
0.371039510136387,0.0825545395374069
0.369683385602224,0.0796814721968866
0.36831208789875,0.0767741072772124
0.366925420857348,0.0738322073997089
0.365523188309403,0.0708555351857005
0.364105194086299,0.0678438532565117
0.362671242019421,0.064796924233467
0.361221135940151,0.0617145107378911
0.359754679679876,0.0585963753911081
0.358271677069978,0.055442280814443
0.356771931941842,0.0522519896292198
0.355255248126852,0.0490252644567634
0.353721429456392,0.045761867918398
0.352170279761847,0.0424615626354484
0.350601602874601,0.0391241112292387
0.349015202626038,0.0357492763210939
0.347410882847541,0.032336820532338
0.345788447370496,0.028886506484296
0.344147700026286,0.0253980967982919
0.342488444646296,0.0218713540956506
0.34081048506191,0.0183060409976963
0.339113625104511,0.0147019201257538
0.337397668605485,0.0110587541011472
0.335662419396215,0.00737630554520152
0.333907681308085,0.00365433707924076
0.332133258172481,-0.000107388675410158
0.330338953820785,-0.00390910909742717
0.328524572084382,-0.00775106156548533
0.326689916794656,-0.0116334834582605
0.324834791782992,-0.0155566121544279
0.322959000880773,-0.0195206850326633
0.321062347919384,-0.0235259394716419
0.319144636730209,-0.0275726128500395
0.317205671144633,-0.0316609425465313
0.315245254994038,-0.0357911659397932
0.31326319210981,-0.0399635204085002
0.311259286323333,-0.0441782433313283
0.309233341465991,-0.0484355720869525
0.307185161369167,-0.0527357440540488
0.305114549864247,-0.0570789966112923
0.303021310782615,-0.0614655671373588
0.300905247955654,-0.0658956930109234
0.298766165214748,-0.0703696116106621
0.296603866391283,-0.07488756031525
0.294418155316642,-0.0794497765033629
0.292208835822209,-0.084056497553676
0.289975711739369,-0.0887079608448651
0.287718586899505,-0.0934044037556054
0.285437265134002,-0.0981460636645727
0.283131550274245,-0.102933177950442
0.280801246151616,-0.10776598399189
0.278446156597501,-0.11264471916759
0.276066085443284,-0.11756962085622
0.273660836520348,-0.122540926436454
0.271230213660079,-0.127558873286968
0.268774020693859,-0.132623698786437
0.266292061453074,-0.137735640313537
0.263784139769107,-0.142894935246944
0.261250059473343,-0.148101820965332
0.258689624397166,-0.153356534847377
0.25610263837196,-0.158659314271756
0.25348890522911,-0.164010396617143
0.250848228799998,-0.169410019262214
0.248180412916011,-0.174858419585643
0.245485261408531,-0.180355834966108
0.242762578108943,-0.185902502782284
0.240012166848631,-0.191498660412845
0.237233831458979,-0.197144545236467
0.234427375771373,-0.202840394631826
0.231592603617194,-0.208586445977598
0.228729318827829,-0.214382936652457
0.225837325234661,-0.22023010403508
0.222916426669074,-0.226128185504142
0.219966426962452,-0.232077418438318
0.21698712994618,-0.238078040216284
0.213978339451642,-0.244130288216715
0.210939859310222,-0.250234399818287
0.207871493353304,-0.256390612399675
0.204773045412272,-0.262599163339556
0.201644319318511,-0.268860290016603
0.198485118903404,-0.275174229809493
0.195295247998337,-0.281541220096902
0.192074510434692,-0.287961498257505
0.188822710043855,-0.294435301669977
0.185539650657209,-0.300962867712994
0.182225136106139,-0.307544433765231
0.178878970222029,-0.314180237205364
0.175500956836262,-0.320870515412068
0.172090899780224,-0.327615505764019
0.168648602885298,-0.334415445639893
0.165173869982869,-0.341270572418364
0.16166650490432,-0.348181123478109
0.158126311481036,-0.355147336197802
0.154553093544402,-0.36216944795612
0.1509466549258,-0.369247696131738
0.147306799456616,-0.376382318103331
0.143633330968234,-0.383573551249575
0.139926053292037,-0.390821632949145
0.136184770259411,-0.398126800580717
0.132409285701738,-0.405489291522966
0.128599403450404,-0.412909343154569
0.124754927336793,-0.420387192854199
0.120875661192288,-0.427923078000534
0.116961408848274,-0.435517235972247
0.113011974136135,-0.443169904148016
0.109027160887256,-0.450881319906515
0.105006772933019,-0.45865172062642
0.100950614104811,-0.466481343686406
0.0968584882340144,-0.474370426465149
0.0927301991520138,-0.482319206341324
0.0885655506901931,-0.490327920693608
0.0843643466799371,-0.498396806900674
0.0801263909526294,-0.506526102341199
0.0758514873396546,-0.514716044393859
0.0715394396723965,-0.522966870437329
0.0671900517822397,-0.531278817850283
0.062803127500568,-0.539652124011399
0.0583784706587659,-0.548087026299351
0.0539158850882172,-0.556583762092815
0.0494151746203066,-0.565142568770466
0.0448761430864177,-0.57376368371098
0.0402985943179352,-0.582447344293032
0.0356823321462429,-0.591193787895299
0.0310271604027254,-0.600003251896454
0.0263328829187663,-0.608875973675174
0.0215993035257504,-0.617812190610135
0.0168262260550613,-0.626812140080012
