0.378653371752248,-0.849036561478644
0.0391148363341034,0.243581593772798
0.434191417294765,-0.679967943267266
0.280263182501576,-0.260316922582575
0.126334947708388,0.159334098102117
0.847715386908927,-0.448435504931108
0.586428071498105,-0.879657841455848
