-0.806751345098546,-0.6774858482414
-0.796996911660459,-0.670117450216021
-0.877288181069538,-0.754008929475711
-0.777590604542843,-0.655628065934363
-0.767938845814525,-0.648506400456802
-0.758321426940676,-0.641466299940563
-0.748738405396901,-0.634507424775006
-0.859011459701981,-0.734803439948958
-0.729675784201998,-0.62083199205337
-0.817160992629442,-0.721703026512776
-0.61322124702541,-0.516715108386535
-0.701341269275353,-0.600919542834989
-0.691965838699751,-0.594440887950049
-0.682625207783466,-0.588041081141299
-0.562207841249162,-0.467378894268456
-0.664048574831271,-0.575476653309806
-0.654812687746572,-0.56931135306578
-0.645611830223615,-0.563223542455379
-0.636446059738004,-0.557212881867961
-0.627315433765346,-0.551279031692884
-0.618220009781248,-0.545421652319508
-0.699325151438861,-0.652876063568085
-0.600134997681153,-0.53393494753529
-0.591145524516368,-0.528304942903166
-0.582191483242567,-0.522750050630176
-0.573272931335354,-0.517269931105678
-0.6689261229445,-0.607391752401528
-0.555542525523122,-0.506532651859595
-0.644812706893427,-0.589413452703511
-0.529214523944345,-0.490979038338127
-0.520510115224395,-0.485940423481114
-0.511841598200278,-0.480974204098102
-0.503209030347598,-0.476080040578452
-0.494612469141962,-0.47125759331152
-0.477527596574246,-0.461826489093248
-0.469039400163378,-0.457217152920625
-0.460587440301977,-0.452678174558154
-0.452171774465651,-0.448209214395195
-0.443792460130005,-0.443809932821106
-0.427143115863177,-0.435219046996972
-0.418873200883207,-0.431026763525644
-0.410639867306342,-0.42690280020062
-0.402443172608187,-0.422846817411258
-0.289410834978197,-0.305496642855173
-0.378073496542044,-0.411083356150733
-0.370023932114791,-0.407295899397606
-0.362011293944278,-0.403574725126933
-0.354035639506112,-0.399919493728074
-0.346097026275899,-0.396329865590387
-0.338195511729244,-0.392805501103231
-0.330331153341754,-0.389346060655963
-0.322504008589035,-0.385951204637942
-0.417605545801137,-0.488008488642009
-0.306961589890334,-0.379353887447077
-0.299246430895564,-0.376150747052949
-0.291568715437989,-0.373010832645502
-0.283928500993215,-0.369933804614096
-0.276325845036848,-0.366919323348087
-0.268760805044494,-0.363967049236835
-0.357841251079149,-0.470152845977579
-0.25374380285425,-0.358247764036036
-0.246291955607572,-0.355480073725205
-0.238877954227331,-0.352773232126565
-0.330788033048272,-0.455366726860039
-0.224163718968587,-0.347540736623291
-0.216863600041295,-0.345014403497374
-0.209601556882864,-0.342547560641081
-0.202377646968901,-0.340139868443772
-0.31406102922316,-0.434099739885543
-0.188044456776802,-0.335500577583536
-0.173864489269847,-0.331093814031535
-0.0558014928496907,-0.214282241553265
-0.159838204252883,-0.326916860902636
-0.152882836367163,-0.324913714220246
-0.145966061530758,-0.322967001311707
-0.139087937219276,-0.321076382566377
-0.132248520908323,-0.319241518373616
-0.211762130643677,-0.420813548898918
-0.210597436672336,-0.429803176532615
-0.105279085181909,-0.312452814915419
-0.0986340710076868,-0.310891629325875
-0.0920281096876287,-0.309384160625049
-0.0789335755124301,-0.306529015446989
-0.166670240691431,-0.40672605893029
-0.0595861075460165,-0.302640684079253
-0.0532156703386721,-0.301448384887269
-0.0468846883147344,-0.300307425309514
0.0705635289944313,-0.195703513141051
-0.133063793957592,-0.406286739192476
-0.0219564615651724,-0.296250190927945
-0.0158236175923593,-0.295360835261709
0.110069749773297,-0.179394707179253
0.00830918317240173,-0.29229303599414
0.0142424522039389,-0.291646793973385
0.0201356338204028,-0.291048155849801
0.0259886705461873,-0.290496782012747
0.0318015049056864,-0.289992332851583
0.0375740794232939,-0.289534468755665
0.0546496691687074,-0.288436990752979
0.0602606295626885,-0.288162070811635
0.065831042736748,-0.287932037882331
0.0713608512152798,-0.287746552354424
0.0768499975226776,-0.287605274617274
0.0822984241833356,-0.287507865060239
0.0877060737216477,-0.287453984072678
0.0930728886620078,-0.287443292043948
0.190451040008671,-0.187189302790866
0.103683784846448,-0.287550116420419
0.108927751139316,-0.287666953604337
0.114130652931807,-0.28782562130452
0.119292432748317,-0.288025779910328
0.124413033113238,-0.288267089811119
0.129492396550965,-0.288549211396252
0.139527182742412,-0.289234531176975
0.149396331517809,-0.290079022367365
0.154268648185473,-0.290560108214582
0.159099383072307,-0.291079968082291
0.272966867346532,-0.195207482266577
0.173341522291765,-0.292868795701958
0.178005355299216,-0.293540355545222
0.182627319147806,-0.29424899135577
0.187207356361929,-0.294994363522962
0.286936378164695,-0.200641873784809
0.19624142098435,-0.296593958484709
0.0861050440571486,-0.40682336632214
0.205107089361631,-0.298336423545331
0.209476631269329,-0.299260383336116
0.0938602245164,-0.41598358363283
0.124859487630595,-0.406819507522967
0.222331398161379,-0.302239096422672
0.132505765384653,-0.407967092427743
0.238876604322385,-0.306680647073928
0.355846527220398,-0.200637842708875
0.246893394401239,-0.309096709351943
0.254739029405862,-0.311639340418041
0.258597520066321,-0.312957270220018
0.374356312986611,-0.221510712517971
0.266185560325508,-0.315684660308616
0.269914994973022,-0.317093441373956
0.273601295998342,-0.318531826972468
0.280844267279977,-0.321496053326439
0.284400822585079,-0.323021214860616
0.287914014365563,-0.324574622485398
0.291383785145823,-0.326155936590144
0.294810077450252,-0.327764817564213
0.298192833803245,-0.329400925796963
0.42003953735976,-0.238240667081027
0.41372692872766,-0.241000275351131
0.308079312397546,-0.334469217940882
0.211009770694901,-0.432907166877695
0.314451564650455,-0.337977989468472
0.317571898307103,-0.339770329429836
0.320648293683072,-0.34158751937539
0.205055211839588,-0.438696072922388
0.326669039690551,-0.345295090776503
0.329613275370849,-0.347184793010778
0.332513342868043,-0.349097986786679
0.335369184706528,-0.351034332493562
0.387241291601824,-0.368322396256064
0.349975324975603,-0.313562733459203
0.385205102422788,-0.378848013724001
0.466907976034434,-0.262573983079444
0.361056813863584,-0.368464640726883
0.384904450528253,-0.378577293356835
0.32995697766592,-0.376010429895513
0.323627727375303,-0.403531833468398
0.403138994131969,-0.416471134127643
0.374014471498744,-0.414079538360008
0.290525957248751,-0.527434877177981
0.357349388323264,-0.415877171342457
0.500740097721693,-0.246205944644639
0.478054674466018,-0.285735683954602
0.542075326728367,-0.251552824858986
0.383110120714049,-0.394100151749679
0.351252759755195,-0.414386972814303
0.382986161804134,-0.413983435837406
0.415243025730643,-0.374237165882218
0.392223775440572,-0.40597399160862
0.393909576214903,-0.408393084185885
0.408925466059764,-0.404282818797734
0.425529138828504,-0.39934939145812
0.422214543705844,-0.411735147925325
0.351928159382786,-0.454995688638663
0.401650768073348,-0.420691491514307
0.447427450666252,-0.456456214842912
0.435427738264027,-0.452105396434893
0.413613140237648,-0.469587968424483
0.409419425094434,-0.435851229476353
0.393909168299965,-0.448114890513564
0.412677998147185,-0.443574014010208
0.400885651927124,-0.461015400166033
0.415517331772923,-0.45137984959619
0.361933232209352,-0.592495056000506
0.327399368275749,-0.548252078531937
0.388132643880166,-0.45746728521116
0.418648277525827,-0.461900972406427
0.377444416981533,-0.43277173354399
0.419932073377908,-0.467203995975252
0.420503350883234,-0.469864934663347
0.522394488344199,-0.381109773047124
0.432147027403967,-0.449914672463115
0.393695833128785,-0.51358179614947
0.449949716670116,-0.437656712250784
0.464386425911951,-0.521878152186305
0.39703469021721,-0.534129110826207
0.423371094048707,-0.491333861251777
0.423515890200658,-0.494035060051168
0.392743301386022,-0.471528122886586
0.423662402443739,-0.499445443916784
0.423664003583656,-0.502153949761727
0.423617758101684,-0.504864212067236
0.423523608522215,-0.507575891222672
0.423381497369644,-0.510288647617393
0.422666819717258,-0.518429984130846
0.422332287516218,-0.521143653376289
0.421949506364045,-0.523856701807809
0.421518418785134,-0.526568789814764
0.421038967303879,-0.529279577786514
0.420511094444673,-0.531988726112415
0.41993474273191,-0.534695895181828
0.419309854689985,-0.53740074538411
0.418636372843291,-0.54010293710862
0.417914239716223,-0.542802130744716
0.416323789718537,-0.548190165309102
0.415455357896707,-0.550878327016108
0.414538044892079,-0.553562132192134
0.413571793229046,-0.556241241226539
0.412556545432002,-0.558915314508682
0.41149224402534,-0.56158401242792
0.410378831533456,-0.564246995373612
0.408004443391593,-0.569554457901794
0.406743352790403,-0.572198258263
0.405432921201565,-0.574834985208095
0.404073091149474,-0.577464299126435
0.401205005753108,-0.582699329440291
0.39969663545762,-0.585304366614523
0.398138636796455,-0.587900632319436
0.290709245024836,-0.701146043232114
0.393166295862834,-0.595633404511842
0.280735483191607,-0.71454331683591
0.385838223978418,-0.605800363818994
0.48948068544081,-0.516245578130424
0.483012567380866,-0.502854073655396
0.377708741365587,-0.615783509454922
0.282850570550579,-0.727710409025534
0.373342321523894,-0.620699359933348
0.368774169585552,-0.625561106338571
0.366414300391122,-0.627970841487127
0.473905353388265,-0.539596280397868
0.361542688173716,-0.632746337622924
0.353854723142147,-0.639794552263705
0.348475044768724,-0.644412713524799
0.345708722649482,-0.646696580773592
0.34289133527441,-0.648963186287029
0.340022825167904,-0.651212190454467
0.334132206858163,-0.655656036308781
0.331109983703715,-0.657850198774373
0.328036407915409,-0.660025401451402
0.423968011355617,-0.543274941101238
0.205371852158999,-0.76890002317778
0.311896227819779,-0.670605131635618
0.305078675698302,-0.674692418816898
0.294463610536764,-0.680659925509488
0.290821362386008,-0.682604156209965
0.283380681585496,-0.686423172651486
0.279582133984527,-0.688297279171249
0.271828337003133,-0.691972990755571
0.267872972671497,-0.693773916598847
0.263865221145092,-0.695549769662011
0.259805024948313,-0.697300210334421
0.251527068641209,-0.700723496064416
0.345552753288076,-0.588306332689547
0.238715362262597,-0.705659341462719
0.234339291055847,-0.707250175967137
0.229910372849481,-0.708813220806311
0.220893765535475,-0.71185458304636
0.216305961476623,-0.713332221225953
0.21166508051573,-0.714780711297735
0.206971065177191,-0.716199713651066
0.192569638139633,-0.720276398293933
0.182701961173584,-0.722840523268492
0.177687932581438,-0.724075467487641
0.172620367282403,-0.725278546713849
0.157095876387903,-0.728693198328401
0.151813589505252,-0.729765421476424
0.146477478537681,-0.730804081578297
0.141087486009585,-0.731808839023379
0.130145626369393,-0.733715287500603
0.124593644306085,-0.734616299311462
0.118987550779827,-0.735482050022964
0.113327288315014,-0.736312200024467
0.107612799436039,-0.737106409705329
0.101844026667297,-0.73786433945491
0.0960209125331803,-0.738585649662567
0.0842114302664026,-0.739917053009545
0.0782249471825293,-0.740526466927583
0.0721838928308577,-0.741097902861132
0.0660882097357825,-0.741631021199549
0.059937840421697,-0.742125482332194
0.0537327274129957,-0.742580946648425
0.0474728132340721,-0.742997074537601
0.0411580404093206,-0.743373526389079
0.0347883514631347,-0.74370996259222
0.0218839953040363,-0.744261429610918
0.0153492131399117,-0.744475781205194
-0.10294465603716,-0.848430626498161
0.00211415326448119,-0.744780022510389
0.112909714700308,-0.627512297796656
-0.0113419505112314,-0.744916050566835
-0.0181530375507086,-0.744920135600172
-0.0250195579920742,-0.744881148489398
-0.0319415693109348,-0.744798749623869
-0.0389191289828958,-0.744672599392946
-0.067386000713869,-0.743723692602471
-0.0819542210637172,-0.742977901138183
-0.0893222285243532,-0.742535982251531
-0.111762529756379,-0.740930057645846
-0.12700353770889,-0.739622571847533
-0.142469727805318,-0.738122420834281
-0.166092235292911,-0.735505003850165
-0.17407949364932,-0.73453325562243
-0.190223989006591,-0.732438807653567
-0.198381340958666,-0.731315428691156
-0.206595505727174,-0.730140826929237
-0.248152994776307,-0.723624367013829
-0.256250677390338,-0.722306459109978
-0.167696327452435,-0.622802647324996
-0.272071009858384,-0.719715687515902
-0.279794917752746,-0.718442399143733
-0.294873361963016,-0.715938955544277
-0.30222915631927,-0.714708375635048
-0.309463504203168,-0.713491607198188
-0.316577034634884,-0.712288437892728
-0.323570376634591,-0.711098655377695
-0.330444159222463,-0.709922047312118
-0.343835562243393,-0.707607505165447
-0.356756275859063,-0.705343112724944
-0.37526581150074,-0.702036838796252
-0.381205763520172,-0.700957982051353
-0.392744601888386,-0.698833846362724
-0.414475628507071,-0.69471394064294
-0.539285254081656,-0.805020503935096
-0.439166336973968,-0.689787225970836
-0.448289364160946,-0.687880519898988
-0.452691981792319,-0.686940027455678
-0.456989507475846,-0.686007825619482
-0.4611825702317,-0.685083702049427
-0.465271799080054,-0.684167444404543
-0.368746094013188,-0.583739893972737
-0.480602955801948,-0.680576826257288
-0.484182450415408,-0.679696713123687
-0.487661885242409,-0.678823191869429
-0.497506121206394,-0.676240055972992
-0.51951162220275,-0.669588792591353
-0.521839403165776,-0.668777811293432
-0.524075301604597,-0.667970661442225
-0.528273966990322,-0.666367006716068
-0.533898571641716,-0.663984951952901
-0.535596384358956,-0.663196331621578
-0.541519131599754,-0.660063177485714
-0.543968209325683,-0.658506423957839
-0.545066875785637,-0.657729759885515
-0.547015609000391,-0.656178795419239
-0.647747967560576,-0.771537651664705
-0.549936289174142,-0.653080375652972
-0.550918300455914,-0.651529522897438
-0.55129192546613,-0.650752942608172
-0.552011405017463,-0.646850008407984
-0.55177490398135,-0.645275522411309
-0.551546821074705,-0.644484577409815
-0.551246355269234,-0.643690881284922
-0.549916950661591,-0.641291162760128
-0.547958744690749,-0.638859039849765
-0.546312326888499,-0.63721679092681
-0.645081333608879,-0.734752206925876
-0.535673373603735,-0.629571366880265
-0.534177578069034,-0.628691840228064
-0.527596370976648,-0.625103754190979
-0.5159996776964,-0.619488329343657
-0.500016312564299,-0.612528419823915
-0.383057292698402,-0.510631038391851
-0.487094897603263,-0.607249440749553
-0.484368319315215,-0.606160122988884
-0.478777899604664,-0.603946266793975
-0.475915316222508,-0.602821303677794
-0.37621494533601,-0.485093764594702
-0.571180010642606,-0.703540523735618
-0.460953824849866,-0.597007644270762
-0.349060416397276,-0.501556563489815
-0.451480715183034,-0.593360729290669
-0.444969036223351,-0.59085978056447
-0.428039577864643,-0.584351169937493
-0.421020899561002,-0.581640771001712
-0.417461170426985,-0.580261803308865
-0.402900997813648,-0.57458252308178
-0.38016616288092,-0.565550016867193
-0.364471930800142,-0.559166136984165
-0.352447597541495,-0.55417840579421
-0.327820259875192,-0.54366427337803
-0.412999079748607,-0.631432836274128
-0.311027904550459,-0.536237434041372
-0.306788815460799,-0.534326600532569
-0.289687328673457,-0.526460401569662
-0.268031103237707,-0.516110281205855
-0.259297843751814,-0.511803822903346
-0.254918565237077,-0.509614085068851
-0.241737682847785,-0.502896288740752
-0.228505439614514,-0.495951159015327
-0.219663797259103,-0.491191944986912
-0.215238819081949,-0.48877296268635
-0.193097519008624,-0.476275804681147
-0.188670380297663,-0.473694437392827
-0.179822256340832,-0.468448068401137
-0.170986530471945,-0.463088771249571
-0.162168234852391,-0.457614847210357
-0.157767195936547,-0.454834369255454
-0.0394621186486506,-0.350821154862483
-0.144604063006829,-0.4463163235579
-0.135868251103597,-0.440488326489115
-0.114204049363662,-0.425383397480695
-0.221411668743247,-0.520833669720016
-0.199626315399422,-0.511124696819944
-0.05546239521123,-0.378826390655667
-0.0433602827355438,-0.367992799906416
-0.0393718628851568,-0.364311832209186
-0.00462514009942745,-0.329571873876388
-0.000903598033943576,-0.325528957915187
0.00644841490851807,-0.317330825546595
0.0172393210483433,-0.304749690763658
0.0379052525449005,-0.278544229013441
0.0445040730347858,-0.269493752447661
0.0477463108122665,-0.264908435633704
0.147433911421681,-0.146919243827129
0.0603194350017303,-0.246161690214768
0.0750980531545184,-0.221800007001244
0.0938966821593588,-0.185913350103657
0.0988359923686579,-0.175269608298121
0.110293429426467,-0.147883779592843
0.112427169511138,-0.142271805262627
0.124072541036352,-0.10763846251561
0.125814720605134,-0.101704007414421
0.127498446876667,-0.0957226342677779
0.0327297852186263,-0.172969408761467
0.138788455927144,-0.0461571185417451
0.140982393805129,-0.0332816952877049
0.144580767169827,-0.00693810449818713
0.145312211561808,-0.000227479753174775
0.145975138333764,0.00653346049283313
0.147709511741466,0.106588662485506
0.0285213314473075,0.0546595824711399
0.139694642402453,0.184442763221467
0.125296399939464,0.259261256327689
0.118901353004792,0.285228741447221
0.114180079916424,0.302830904876648
0.0977629462428414,0.357050513249156
0.0778601655674021,0.413425472031204
0.0665591987422786,0.442435540841374
0.0625880790753548,0.452228844483707
0.0221324018218554,0.543183799630329
0.00671187239668673,0.574644769554557
-0.117495057281849,0.490653053669771
-0.107320840859159,0.775809754727118
-0.130069728936314,0.811457289785206
