0.685290077198346,-0.933949829065011
0.687312997323657,-0.932158248313213
0.689269444874698,-0.930332351876342
0.691159754518021,-0.928472328354919
0.692984260920178,-0.926578366349464
0.694743298747719,-0.924650654460498
0.696437202667197,-0.92268938128854
0.698066307345162,-0.92069473543411
0.699630947448166,-0.918666905497731
0.70113145764276,-0.916606080079921
0.702568172595496,-0.914512447781201
0.703941426972925,-0.912386197202091
0.705251555441599,-0.910227516943112
0.706498892668069,-0.908036595604783
0.707683773318887,-0.905813621787626
0.813273831990668,-0.810513581223212
0.709867503559769,-0.901272271118906
0.710867022482938,-0.898954271468383
0.711805423496659,-0.896604973741113
0.712683041267484,-0.894224566537616
0.713500210461966,-0.891813238458412
0.714257265746655,-0.889371178104021
0.714954541788102,-0.886898574074963
0.71559237325286,-0.88439561497176
0.71617109480748,-0.88186248939493
0.716691041118512,-0.879299385944996
0.717152546852508,-0.876706493222475
0.717555946676021,-0.87408399982789
0.7179015752556,-0.87143209436176
0.718189767257799,-0.868750965424606
0.718420857349167,-0.866040801616948
0.718595180196256,-0.863301791539306
0.718713070465619,-0.860534123792201
0.718774862823805,-0.857737986976153
0.718780891937367,-0.854913569691682
0.832952788128187,-0.747857104532582
0.718626999096825,-0.849180648119553
0.718467746475822,-0.846272521032935
0.603565220217269,-0.943288431249893
0.717986302165113,-0.840373877261195
0.717664779808509,-0.837383737777114
0.71728983687314,-0.834366638028252
0.832516324531494,-0.737176261562864
0.716381027932315,-0.828252312138267
0.613115407000172,-0.923832553601701
0.621038544593909,-0.938395733167277
0.714625526844129,-0.818883336330442
0.713937088433753,-0.815708435603822
0.713197572110473,-0.812507894816064
0.71240731254084,-0.809281902567688
0.711566644391404,-0.806030647459213
0.710675902328718,-0.802754318091161
0.709735421019334,-0.799453103064052
0.708745535129801,-0.796127190978406
0.707706579326673,-0.792776770434743
0.7066188882765,-0.789402030033583
0.596513659236735,-0.888446378983458
0.704298639101225,-0.782580344060857
0.703066750309226,-0.77913377569033
0.701787464936388,-0.775663641864387
0.700461117649263,-0.77217013118355
0.699088043114401,-0.768653432248339
0.697668575998354,-0.765113733659273
0.696203050967674,-0.761551224016873
0.694691802688912,-0.75796609192166
0.594623427226311,-0.872026117783228
0.691533475053348,-0.750728714774873
0.689887065029648,-0.74707684692434
0.688196270424072,-0.743403111023075
0.686461425903171,-0.739707695671598
0.684682866133496,-0.735990789470429
0.682860925781599,-0.732252581020088
0.680995939514032,-0.728493258921097
0.679088241997345,-0.724713011773974
0.677138167898091,-0.72091202817924
0.675146051882819,-0.717090496737416
0.673112228618083,-0.713248606049023
0.671037032770433,-0.709386544714579
0.668920799006421,-0.705504501334606
0.666763861992598,-0.701602664509624
0.756284855441407,-0.592706608487235
0.662329216881725,-0.693740364926714
0.563403348926183,-0.790540125762164
0.657735774770225,-0.685801154770011
0.655380341505619,-0.681803179727788
0.652986212990511,-0.677786542843678
0.650553723891451,-0.6737514327182
0.648083208874992,-0.669698037951876
0.645575002607685,-0.665626547145226
0.643029439756081,-0.66153714889877
0.640446854986731,-0.657430031813027
0.750119626663323,-0.556615527325768
0.635171958361002,-0.649163395525767
0.632480315837725,-0.645004253525289
0.629752990062909,-0.640828147087607
0.626990315703104,-0.63663526481324
0.624192627424862,-0.63242579530271
0.621360259894735,-0.628199927156536
0.525609858251456,-0.724144194054903
0.615592825745029,-0.619699749359338
0.612658428458554,-0.615425816909355
0.6096906905864,-0.611136240225809
0.510586937830378,-0.72093223794787
0.603656531751256,-0.602510908560112
0.60059078012137,-0.598175530779001
0.59749302657201,-0.593825263166409
0.594363605769727,-0.589460294322856
0.591202852381073,-0.585080812848862
0.481574397856574,-0.674259527393682
0.584788686510856,-0.576279066411634
0.581535943362396,-0.57185717864944
0.470304546153147,-0.661270817328303
0.574940809971531,-0.562972317040495
0.571599089062229,-0.558509720394784
0.568228378232414,-0.554033931322275
0.56482901214864,-0.549545138423487
0.561401325477457,-0.545043530298942
0.557945652885418,-0.540529295549159
0.554462329039072,-0.536002622774658
0.550951688604971,-0.531463700575961
0.547414066249668,-0.526912717553587
0.543849796639713,-0.522349862308057
0.540259214441658,-0.517775323439891
0.536642654322054,-0.513189289549609
0.533000450947453,-0.508591949237732
0.529332938984406,-0.503983491104779
0.525640453099464,-0.499364103751272
0.521923327959179,-0.49473397577773
0.518181898230103,-0.490093295784674
0.514416498578786,-0.485442252372624
0.51062746367178,-0.4807810341421
0.506815128175637,-0.476109829693623
0.411850231565979,-0.58319733515726
0.499121894082144,-0.466738216544891
0.495241664817896,-0.462038185045676
0.491339473630717,-0.457328921730589
0.487415655187158,-0.45261061520015
0.483470544153769,-0.44788345405488
0.479504475197103,-0.443147626895299
0.475517782983711,-0.438403322321926
0.362022685445123,-0.541642094432795
0.467483867452953,-0.42889003533589
0.463437313468691,-0.424121430124267
0.459371474893908,-0.419345101900934
0.559990853514155,-0.295397537404552
0.348123860313709,-0.523377455934389
0.558627957435852,-0.308749288959128
0.442921968020599,-0.400166330900912
0.438764726491484,-0.395354216626836
0.434590208371158,-0.390535510944172
0.43039874832617,-0.38571040245344
0.426190681023073,-0.380879079755161
0.421966341128419,-0.376041731449855
0.417726063308758,-0.371198546138042
0.413470182230642,-0.366349712420243
0.409199032560623,-0.361495418896978
0.404912948965251,-0.356635854168768
0.400612266111078,-0.351771206836132
0.396297318664656,-0.346901665499591
0.279080181718099,-0.454869798533512
0.38762596866127,-0.337148655216874
0.383270235437408,-0.33226556347174
0.378901576287503,-0.327378332124782
0.374520325878105,-0.322487149776519
0.370126818875766,-0.317592205027474
0.365721389947038,-0.312693686478166
0.361304373758472,-0.307791782729115
0.356876104976619,-0.302886682380842
0.352436918268031,-0.297978574033867
0.347987148299259,-0.29306764628871
0.343527129736854,-0.288154087745891
0.339057197247368,-0.283238087005931
0.334577685497353,-0.278319832669351
0.432119585876006,-0.178223641248715
0.32559126288194,-0.268477317608409
0.321085021349644,-0.263553434085087
0.316570539223024,-0.258628051367227
0.312048151168632,-0.253701358055347
0.307518191853019,-0.248773542749968
0.302980995942735,-0.24384479405161
0.298436898104334,-0.238915300560794
0.293886233004366,-0.233985250878039
0.289329335309381,-0.229054833603867
0.284766539685933,-0.224124237338798
0.280198180800573,-0.219193650683351
0.275624593319851,-0.214263262238047
0.271046111910319,-0.209333260603407
0.266463071238528,-0.20440383437995
0.261875805971031,-0.199475172168198
0.257284650774378,-0.19454746256867
0.345812168352698,-0.0860255724363866
0.347094718707395,-0.0659756595593724
0.243491192274998,-0.179771935448634
0.238887824027237,-0.174849922303207
0.234282239183077,-0.169929804772604
0.229674772409069,-0.165011771457349
0.225065758371766,-0.160096010957959
0.220455531737719,-0.155182711874957
0.215844427173478,-0.150272062808861
0.211232779345596,-0.145364252360193
0.206620922920624,-0.140459469129473
0.202009192565113,-0.13555790171722
0.197397922945615,-0.130659738723956
0.192787448728681,-0.1257651687502
0.0951684652439042,-0.239189459430981
0.183570225168711,-0.115987562263296
0.178964145158778,-0.111104902951188
0.174360199217614,-0.10622659106067
0.169758722011772,-0.101352815192262
0.165160048207802,-0.0964837639464843
0.160564512472256,-0.0916196259238574
0.155972449471686,-0.0867605897249014
0.151384193872642,-0.0819068439501369
0.146800080341677,-0.0770585772000838
0.040893792121808,-0.189946506362049
0.137645618150186,-0.067379235176194
0.133075938822764,-0.0625485371033978
0.128511740229626,-0.0577240724573943
0.123953357037323,-0.0529060298387041
0.119401123912406,-0.0480945978478472
0.114855375521428,-0.0432899650853442
0.110316446530939,-0.0384923201517151
0.105784671607491,-0.0337018516474806
0.101260385417635,-0.0289187481731606
0.193993464816829,0.0937459766026946
0.19114909738238,0.0980621434584931
-0.0207812765213364,-0.128102072918544
0.0832448213251643,-0.00986375658543348
0.0787629988015416,-0.00512030726849153
0.0742906730108195,-0.000385354584585884
0.0698281786195497,0.0043409128657628
0.0653758502942834,0.00905830648203457
0.0609340227015724,0.0137666376637087
0.0565030305079675,0.0184657178102653
-0.0593697579791272,-0.0845985373313299
0.047674890984283,0.0278353705959441
0.0432784129873061,0.0325055660340256
0.0388941090556412,0.0371657560349084
0.0345223138558398,0.0418157519980717
0.0301633620544532,0.0464553653229957
0.0258175883180331,0.0510844074091597
0.0214853273131306,0.0557026896560437
0.0171669137062974,0.060310023463127
0.0128626821640845,0.0649062202298899
0.00857296735304375,0.0694910913558115
0.00429810393972621,0.0740644482403719
3.8426590683649e-05,0.0786261022830504
-0.00420573002753294,0.0831758648833272
-0.00843403124837172,0.0877135474406815
-0.0126461424052817,0.0922389613545935
-0.016841728831711,0.0967519180245423
-0.0210204558611088,0.101252228850008
-0.025181988826923,0.10573970523047
-0.0293259930626028,0.110214158565409
0.0697041460522683,0.215366860253699
-0.0375600766773526,0.119123241696633
-0.0416494867233198,0.123557494291879
-0.148223581283562,0.0327723435708856
-0.0497713699596821,0.132384478539034
-0.0538031738169743,0.136776832989903
-0.0578151062782719,0.141154844191607
-0.0618068326770236,0.145518323543624
-0.0657780183466778,0.149867082445435
0.040659689626269,0.267903772135649
-0.0736574288324888,0.158519684496355
-0.0775649843155427,0.162823150444425
-0.0814506604032934,0.167111141540206
-0.0853141224291898,0.17138346918318
-0.0891550357266803,0.175639944772825
-0.0929730656292137,0.179880379708621
-0.0967678774702383,0.184104585390049
-0.100539136583203,0.188312373216587
-0.104286508301556,0.192503554587716
-0.108009657958747,0.196677940902915
-0.111708250888222,0.200835343561663
-0.115381952423433,0.204975573963442
-0.119030427897826,0.209098443507729
-0.122653342644851,0.213203763594005
-0.126250361997955,0.21729134562175
-0.129821151290589,0.221361000990444
-0.133365375856199,0.225412541099565
-0.136882701028236,0.229445777348594
-0.140372792140147,0.23346052113701
-0.045666943597282,0.347937642382808
-0.147269933517386,0.241433776929923
-0.150676314449612,0.24539191173338
-0.154054122655507,0.249330799674143
-0.157403023468519,0.253250252151692
-0.160722682222096,0.257150080565506
-0.0510455603123447,0.372626767901904
-0.167272934884744,0.26489011079985
-0.170502859460712,0.268729935419339
-0.173702203311039,0.272549381573013
-0.0750854101344626,0.373452854749133
-0.18000781016857,0.280126384080832
-0.073068682441214,0.391191939769827
-0.186187078124924,0.287619609519144
-0.189228498348782,0.291334334335935
-0.192237329847692,0.295027549083788
-0.195213237955103,0.298699065162184
-0.198155888004462,0.302348693970601
-0.0958509975381821,0.408390821065083
-0.203940075262822,0.30958153537542
-0.20678094313872,0.313164370770782
-0.209587214290361,0.316724564494084
-0.212358554051194,0.320261927944806
-0.215094627754668,0.323776272522429
-0.337723962092944,0.225618986193272
-0.220459638323332,0.330735150656293
-0.223087905855419,0.334179307011494
-0.225679568663941,0.337599690091514
-0.330128677903541,0.224576653917393
-0.342691442950146,0.252947322852849
-0.233231582082602,0.347716313675284
-0.343525280771802,0.254852102369669
-0.238077098523775,0.354338405345686
-0.240442104993327,0.357612188163692
-0.342853858559837,0.257586243101565
-0.245054941097605,0.364084284762716
-0.247302101399227,0.367282221342692
-0.249509310311771,0.370454498642284
-0.251676233168684,0.373600928060972
-0.253802535303415,0.376721320998234
-0.255887882049412,0.379815488853552
-0.257931938740125,0.382883243026404
-0.259934370709002,0.385924394916271
-0.26189484328949,0.388938755922631
-0.364777936950102,0.285198441720329
-0.175613250412163,0.50939425783254
-0.267521158035117,0.397819207635474
-0.269310446396541,0.400724519102608
-0.27105610203682,0.403602096683634
-0.272757790289403,0.406451751778032
-0.274415176487739,0.409273295785282
-0.276027925965276,0.412066540104864
-0.277595704055462,0.414831296136257
-0.279118176091747,0.417567375278941
-0.280595007407578,0.420274588932396
-0.282025863336405,0.422952748496101
-0.283410409211676,0.425601665369536
-0.18544309658695,0.521313034726311
-0.286039232135344,0.430811016643515
-0.287282839850638,0.433371073843019
-0.288478798846171,0.435901133950171
-0.28962677445539,0.438401008364452
-0.290726432011746,0.440870508485341
-0.291777436848685,0.443309445712318
-0.292779454299657,0.445717631444863
-0.388988784403491,0.33117864593321
-0.294635188377494,0.450440994024574
-0.295488235671255,0.452755793670699
-0.296290956912844,0.455039087420312
-0.297043017435709,0.45729068667289
-0.297744082573297,0.459510402827914
-0.298393817659059,0.461698047284864
-0.298991888026442,0.463853431443218
-0.299537959008895,0.465976366702458
-0.300031695939866,0.468066664462062
-0.300472764152805,0.470124136121511
-0.18112302058016,0.584148603116532
-0.301195555758378,0.47413984673786
-0.30147660981791,0.476097708493719
-0.301703656493204,0.478021989747342
-0.412335509087167,0.367084695583527
-0.301994389024869,0.481769056345795
-0.302057405548139,0.483591464489585
-0.302065076020964,0.485379537729057
-0.302017065776794,0.48713308746369
-0.301913040149078,0.488851925092965
-0.301752664471262,0.490535862016361
-0.301535604076797,0.492184709633357
-0.301261524299131,0.493798279343434
-0.300930090471712,0.49537638254607
-0.30054096792799,0.496918830640747
-0.300093822001412,0.498425435026942
-0.299588318025427,0.499896007104137
-0.299024121333483,0.501330358271811
-0.298400897259031,0.502728299929443
-0.297718311135517,0.504089643476513
-0.296976028296391,0.505414200312502
-0.296173714075101,0.506701781836888
-0.295311033805096,0.507952199449151
-0.294387652819824,0.509165264548771
-0.293403236452734,0.510340788535228
-0.190742575708857,0.604604025037115
-0.291249958906894,0.512578458766571
-0.290080428395041,0.513640227810416
-0.288848523835164,0.514663701339016
-0.287553910560713,0.515648690751852
-0.188767310728432,0.621972242761564
-0.394685558072135,0.420305036532066
-0.190358117129495,0.627033564968416
-0.281741676986127,0.519200035235141
-0.280128500140528,0.519989775061348
-0.278450606581046,0.520739899168668
-0.276707661641129,0.521450218956581
-0.274899330654225,0.522120545824567
-0.15325085820929,0.614045546966842
-0.271085171873253,0.523340466398677
-0.168428538739851,0.619114741545516
-0.269078674746082,0.523889682903759
-0.267043388343583,0.524402944390293
-0.265017174138398,0.524885102622086
-0.263000088515971,0.525336341089916
-0.354524266331208,0.4325004894187
-0.258993528561168,0.526146792696811
-0.257004166999679,0.526506372817436
-0.255024159562724,0.526835767137218
-0.253053562635745,0.527135159146938
-0.251092432604187,0.527404732337376
-0.249140825853494,0.527644670199312
-0.247198798769109,0.527855156223525
-0.135021732236277,0.623884236359072
-0.243343709141039,0.528188506721904
-0.241430759368241,0.52831173817763
-0.239527614803527,0.528406251758752
-0.23763433183234,0.528472230956053
-0.235750966840123,0.52850985926031
-0.233877576212321,0.528519320162305
-0.115591670033517,0.631124791726702
-0.230160943591735,0.528454473722625
-0.228317814369839,0.528380533362511
-0.226484885054133,0.528279159563253
-0.32759755602175,0.425463403386839
-0.222849851683063,0.527994845610429
-0.221047860398588,0.527812272438421
-0.219256294562077,0.52760299979039
-0.217475210558974,0.527367211157116
-0.215704664774723,0.527105090029378
-0.213944713594768,0.526816819897957
-0.212195413404552,0.526502584253632
-0.21045682058952,0.526162566587183
-0.208728991535114,0.525796950389391
-0.207011982626779,0.525405919151034
-0.205305850249959,0.524989656362894
-0.203610650790097,0.524548345515749
-0.201926440632637,0.524082170100381
-0.200253276163022,0.523591313607568
-0.198591213766697,0.523075959528091
-0.196940309829105,0.52253629135273
-0.19530062073569,0.521972492572264
-0.193672202871896,0.521384746677475
-0.192055112623166,0.52077323715914
-0.190449406374944,0.520138147508041
-0.188855140512674,0.519479661214958
-0.1872723714218,0.518797961770669
-0.185701155487766,0.518093232665956
-0.184141549096014,0.517365657391598
-0.0917018366166042,0.615214084111625
-0.181057390481135,0.515842702297068
-0.179532951028895,0.515047689458455
-0.178020346660714,0.514230564413317
-0.0633897667239057,0.610872190699163
-0.1750308687183,0.512530711666586
-0.173554107914956,0.511648350946552
-0.172089407737444,0.510744611983114
-0.170636824571209,0.509819678267049
-0.169196414801695,0.50887373328914
-0.167768234814345,0.507906960540164
-0.166352340994604,0.506919543510903
-0.164948789727914,0.505911665692136
-0.16355763739972,0.504883510574644
-0.162178940395465,0.503835261649206
-0.160812755100593,0.502767102406601
-0.159459137900548,0.501679216337611
-0.158118145180774,0.500571786933015
-0.156789833326714,0.499444997683593
-0.155474258723812,0.498299032080124
-0.154171477757512,0.497134073613389
-0.152881546813257,0.495950305774168
-0.151604522276492,0.494747912053241
-0.150340460532659,0.493527075941387
-0.0541206863502019,0.592763454576062
-0.147851450965569,0.49103081050802
-0.146626615913198,0.489755748168066
-0.145414969195536,0.488462977400306
-0.144216567198025,0.487152681695519
-0.14303146630611,0.485825044544485
-0.141859722905234,0.484480249437984
-0.140701393380841,0.483118479866796
-0.139556534118375,0.481739919321701
-0.138425201503279,0.480344751293479
-0.137307451920997,0.47893315927291
-0.0184360811619214,0.579877642385848
-0.135112927396652,0.476061437217849
-0.134036265225476,0.474601674164918
-0.132973411628889,0.47312622108276
-0.131924422992335,0.471635261462153
-0.130889355701258,0.470128978793879
-0.129868266141101,0.468607556568718
-0.128861210697308,0.467071178277449
-0.127868245755324,0.465520027410852
-0.126889427700591,0.463954287459707
-0.125924812918554,0.462374141914794
-0.124974457794655,0.460779774266894
-0.12403841871434,0.459171368006785
-0.123116752063052,0.457549106625248
-0.122209514226234,0.455913173613063
-0.12131676158933,0.454263752461009
-0.120438550537784,0.452601026659867
-0.0121402444051077,0.545680697094942
-0.118725978732541,0.449236395073439
-0.117891730749731,0.447534856269712
-0.117072249894054,0.445820746780016
-0.116267592550954,0.444094250095131
-0.115477815105874,0.442355549705838
-0.114702973944259,0.440604829102916
-0.113943125451551,0.438842271777145
-0.113198326013195,0.437068061219305
-0.217290251832431,0.340954540438226
-0.111754099841313,0.433485414370539
0.00445342003805477,0.540250354040524
-0.110370746512163,0.429858356482855
-0.109702038127221,0.42802863212637
-0.211458163881289,0.310482937032527
-0.108410839843824,0.424337710042011
-0.107788462716257,0.422476879295697
-0.107181642112034,0.420606046734334
-0.106590434416601,0.4187253958487
-0.1060148960154,0.416835110129578
0.0130492659503001,0.534485720434261
-0.104911052637472,0.413026368153983
-0.104382860431633,0.411108278879071
-0.0122370152574238,0.510397553989464
-0.0128971426337488,0.521931887605488
0.00772860239033474,0.510998752904961
-0.102429603822791,0.403348747983522
-0.101981449651428,0.40138798926456
-0.101549472243292,0.399419247129127
-0.101133727983826,0.397442705068004
-0.100734273258474,0.39545854657197
-0.215573969076225,0.285417109452427
-0.0999844579518871,0.391468114238291
-0.0996342101415398,0.389462207382206
-0.0993004774070816,0.387449418054329
-0.0989833161339562,0.385429929745443
-0.0986827827076073,0.383403925946325
-0.206594311131977,0.266214662534859
-0.0981318249370142,0.379333105840517
-0.0978815133636574,0.377288656515386
-0.0976480551788522,0.375238425663145
-0.0974315067680422,0.373182596774572
0.011612027492927,0.482785344695805
-0.097049364810183,0.369054878851552
-0.0968838840340213,0.366983356798665
-0.200512351356271,0.248828792041649
-0.0966043848144523,0.362825903964037
-0.0964904791419326,0.360740340163856
-0.0963938779415144,0.358650462762803
-0.0963146375986414,0.356556455251658
-0.0962528144987574,0.354458501121202
-0.0962084650273061,0.352356783862214
-0.0961816455697313,0.350251486965473
-0.20907441999741,0.244153699797315
-0.096180822237986,0.346030888221857
0.0219682902615296,0.45612539595718
-0.0962507955870716,0.341798172816592
-0.0963124719805354,0.339677730092791
-0.0963920167005381,0.337554808675918
-0.0964894861325234,0.335429592056752
-0.0966049366619353,0.333302263726075
-0.0967384246742173,0.331173007174664
0.000599835029725979,0.419567624236852
-0.0970597386891668,0.326909443372765
-0.0972476774627219,0.324775503103837
-0.0974538792609221,0.322640368577295
-0.0976784004692112,0.320504223283921
-0.210224568123823,0.226380548757531
-0.0981826266578312,0.316229634359794
0.00337401621120111,0.432179400744431
-0.0987608071121318,0.311953204257695
-0.0990777711525217,0.309814757491855
-0.099413392915663,0.307676400903863
-0.0997677287869995,0.305538317984496
-0.100140835151975,0.303400692224537
-0.100532768396033,0.301263707114764
-0.100943584904617,0.299127546145958
-0.204496679918919,0.189117449862132
-0.10182209325714,0.294858430594364
-0.102289897871966,0.292725842993136
-0.102776811293093,0.290594813495995
-0.103282889905965,0.28846552559372
-0.103808190096027,0.286338162777091
-0.196871360281297,0.16893190261746
-0.104916680749491,0.28208994636389
-0.105499983983781,0.279969459748879
-0.106102734337035,0.277851632182633
-0.106724988194697,0.275736647155933
-0.10736680194221,0.273624688159559
-0.108028231965018,0.271515938684291
-0.21252141071556,0.160209412571702
-0.109410166378294,0.26730880226019
-0.11013078353965,0.265210782292918
0.000157804050953225,0.357960190380511
-0.111631599699015,0.261026756301829
-0.00101386384960767,0.35460402814227
-0.113212234210211,0.256859972173881
-0.114032624311355,0.254783504535535
-0.114873138156787,0.252711897835313
-0.115733832131952,0.250645335563997
-0.215261905858274,0.1467545074773
-0.117515986013254,0.246528078271198
-0.118437558690279,0.244477750231276
-0.119379537038811,0.242433200583379
-0.120341977444295,0.240394612818286
-0.229858112963194,0.136151169620913
-0.122328469967891,0.236336056899633
-0.123352634856891,0.234316455727634
-0.124397487344617,0.232303550401558
-0.125463083816514,0.230297524412187
-0.126549480658024,0.2282985612503
-0.127656734254591,0.226306844406677
-0.12878490099166,0.224322557372099
-0.0389261349505478,0.315009164567718
-0.131104199429076,0.220377006693193
-0.0155576340319857,0.31755557781225
-0.227653728594845,0.099793236784111
-0.134741405275052,0.214518991512163
-0.135996234949447,0.212583136638227
-0.137272372462449,0.210655996008794
-0.138569874199503,0.208737753114645
-0.139888796546051,0.20682859144656
-0.0448459784920347,0.319176766697607
-0.23561715065136,0.0851622313369357
-0.143974651097103,0.201157428706483
-0.145379819736068,0.19928642685045
-0.146806690911748,0.197425423674381
-0.262356233275191,0.105163827785755
-0.149725766415022,0.193734147325251
-0.151218083513505,0.19190424113375
-0.152732328690476,0.190085067585332
-0.0597399593972302,0.298045353044418
-0.0421962530033211,0.296815124450634
-0.157407196546759,0.184693777706375
-0.159009717892123,0.182919369638088
-0.160634449243194,0.181156611666783
-0.162281446985416,0.179405687283241
-0.163950767504233,0.177666779978241
-0.165642467185088,0.175940073242563
-0.167356602413426,0.174225750566988
-0.0530369545457002,0.271736022927611
-0.170852405054323,0.170834991359263
-0.172634185237771,0.169158921808674
-0.0648465249034112,0.260588341501649
-0.0756412544496649,0.283677780700792
-0.2916563122416,0.053366035667408
-0.179988480718572,0.162587658746335
-0.181884130202743,0.160979014219655
-0.0910646577384856,0.256139771899875
-0.185744314605958,0.157804015088439
-0.18770896229589,0.156238027465463
-0.189696722158628,0.154686625791949
-0.100388846393452,0.245210392599919
-0.193741803944302,0.151628314256424
-0.195799238638125,0.150121771375974
-0.19788001104653,0.148630548408104
-0.199984177554961,0.147154828843596
-0.202111794548862,0.145694796173229
-0.204262918413677,0.144250633887782
-0.316594190215435,0.0258021559433014
-0.208635912297822,0.141410654434772
-0.210857895088039,0.140015204248768
-0.213103610290946,0.138636358410805
-0.215373114291984,0.137274300411662
-0.126047525817988,0.242425452728966
-0.219983714230233,0.134601281892958
-0.321180684878491,0.0302939924040446
-0.224690145986336,0.131997616618895
-0.227079439759692,0.130722250175554
-0.229492860643843,0.129464772515714
-0.231930465024232,0.128225367130153
-0.124874686794606,0.218655982452256
-0.236878449815501,0.125801507144992
-0.239388942997268,0.124617419526951
-0.14808009188825,0.220679185989804
-0.353369238983658,0.0275198733036683
-0.247067102312426,0.121178728060348
-0.24967556995891,0.120070966336586
-0.252308672185182,0.118982744813344
-0.254966465376686,0.117914246981401
-0.257649005918866,0.116865656331538
-0.260356350197166,0.115837156354535
-0.26308855459703,0.11482893054117
-0.2658456755039,0.113841162382225
-0.268627769303222,0.112874035368479
-0.271434892380438,0.111927732990712
-0.274267101120993,0.111002438739704
-0.27712445191033,0.110098336106235
-0.280007001133892,0.109215608581085
-0.282914805177125,0.108354439655033
-0.285847920425471,0.107515012818861
-0.288806403264374,0.106697511563347
-0.291790310079278,0.105902119379272
-0.294799697255626,0.105129019757415
-0.297834621178863,0.104378396188557
-0.300895138234432,0.103650432163477
-0.303981304807777,0.102945311172956
-0.307093177284342,0.102263216707773
-0.31023081204957,0.101604332258708
-0.313394265488905,0.100968841316541
-0.316583593987791,0.100356927372053
-0.319798853931672,0.0997687739160219
-0.323040101705991,0.0992045644392293
-0.326307393696192,0.0986644824324545
-0.329600786287719,0.0981487113864776
-0.332920335866015,0.0976574347920783
-0.336266098816525,0.0971908361400368
-0.339638131524692,0.0967490989211329
-0.238079337212948,0.204202743564493
-0.346461231755773,0.0959409427458577
-0.349912412049573,0.0955748907710462
-0.353390087642806,0.0952344341924921
-0.356894314920915,0.0949197565009753
-0.360425150269343,0.0946310411872756
-0.363982650073535,0.0943684717421731
-0.367566870718933,0.0941322316564477
-0.371177868590983,0.0939225044208793
-0.374815700075127,0.0937394735262478
-0.378480421556809,0.0935833224633332
-0.382172089421473,0.0934542347229153
-0.385890760054563,0.0933523937957743
-0.389636489841523,0.0932779831726899
-0.393409335167796,0.0932311863444421
-0.397209352418826,0.0932121868018108
-0.291119459447384,0.199537307623501
-0.404891128236932,0.0932583135365176
-0.408772999574895,0.0933238067954155
-0.412682268379391,0.0934178313030497
-0.416618991035862,0.0935405705502001
-0.420583223929753,0.0936922080276465
-0.306239907899042,0.194881704913147
-0.428594445971568,0.0940829116365477
-0.43264154789038,0.0943223447495622
-0.436716385588386,0.0945914100559925
-0.440819015451031,0.0948902910466186
-0.347751052987208,0.192448302250617
-0.44910787721201,0.095578234043578
-0.453294221881232,0.0959676630314711
-0.457508584256866,0.0963876416666797
-0.461751020724358,0.0968383534399837
-0.466021587669151,0.0973199818421632
-0.470320341476688,0.097832710363998
-0.362500962065283,0.204164750259691
-0.479002635221771,0.0989522017297532
-0.483386287930204,0.0995593315552335
-0.487798353043156,0.100198295463489
-0.492238886946071,0.100869276945299
-0.496707946024394,0.101572459491444
-0.61492485478619,-0.010891383956847
-0.505731865249035,0.103076161739859
-0.51028683816624,0.103877048423689
-0.514870561800628,0.104710870134973
-0.519483092537641,0.105577810364492
-0.524124486762724,0.106478052603025
-0.52879480086132,0.107411780341353
-0.533494091218873,0.108379177070255
-0.538222414220826,0.109380426280512
-0.542979826252624,0.110415711462902
-0.54776638369971,0.111485216108207
-0.552582142947528,0.112589123707206
-0.557427160381522,0.113727617750679
-0.562301492387135,0.114900881729406
-0.567205195349811,0.116109099134167
-0.572138325654994,0.117352453455741
-0.693036328249789,0.0165600421708997
-0.582093093834655,0.119945306812452
-0.587114844480021,0.121295172829147
-0.592166248009668,0.122680909725777
-0.597247360809042,0.12410270099312
-0.602358239263585,0.125560730121956
-0.496711900292358,0.224926654175144
-0.612669518679953,0.128586235927228
-0.617870032412666,0.130154079585224
-0.623100537342324,0.131758895067834
-0.628361089854369,0.133400865865836
-0.633651746334247,0.135080175470011
-0.537699785142805,0.242549329840195
-0.644323596739272,0.138551545060001
-0.649704903435308,0.140343972027375
-0.65511653964095,0.142174471764041
-0.660558561741643,0.144043227760781
-0.66603102612283,0.145950423508373
-0.671533989169955,0.147896242497598
-0.576691999686974,0.249468025229963
-0.682631636803794,0.151904484164064
-0.688226434161396,0.153967273822866
-0.793442305139563,0.0641929981671976
-0.699508257885182,0.158211108245506
-0.705195397022254,0.160392519990905
-0.71091342952337,0.162613839413395
-0.716662411773974,0.164875250003758
-0.722442400159511,0.167176935252772
-0.728253451065422,0.169519078651219
-0.734095620877153,0.171901863689877
-0.739968965980147,0.174325473859527
-0.642163598499993,0.279164341004781
-0.63989084750936,0.284763101924913
-0.757776616891143,0.181843090062226
-0.763775227013626,0.184431835663642
-0.769805294354591,0.18706232384995
