-0.319979027719127,0.299086805167912
-0.319428476466649,0.301275003130878
-0.318882446428307,0.303465772066089
-0.31834096318734,0.3056589597124
-0.317804052326985,0.307854413808666
-0.317271739430477,0.310051982093741
-0.316744050081055,0.312251512306481
-0.316221009861956,0.31445285218574
-0.315702644356416,0.316655849470372
-0.315188979147672,0.318860351899233
-0.314680039818962,0.321066207211176
-0.314175851953523,0.323273263145057
-0.313676441134591,0.325481367439731
-0.313181832945405,0.327690367834052
-0.312692052969199,0.329900112066875
-0.312207126789213,0.332110447877055
-0.311727079988682,0.334321223003446
-0.311251938150844,0.336532285184902
-0.310781726858936,0.33874348216028
-0.310316471696195,0.340954661668433
-0.309856198245858,0.343165671448216
-0.309400932091162,0.345376359238484
-0.308950698815344,0.347586572778092
-0.308505524001641,0.349796159805894
-0.30806543323329,0.352004968060745
-0.307630452093529,0.3542128452815
-0.307200606165593,0.356419639207013
-0.306775921032721,0.358625197576139
-0.306356422278149,0.360829368127733
-0.305942135485114,0.36303199860065
-0.305533086236854,0.365232936733744
-0.305129300116605,0.367432030265869
-0.304730802707605,0.369629126935882
-0.30433761959309,0.371824074482636
-0.303949776356298,0.374016720644986
-0.303567298580465,0.376206913161787
-0.303190211848829,0.378394499771894
-0.302818541744627,0.380579328214161
-0.302452313851095,0.382761246227443
-0.302091553751471,0.384940101550594
-0.301736287028992,0.38711574192247
-0.301386539266894,0.389288015081925
-0.301042336048416,0.391456768767814
-0.300703702956793,0.393621850718991
-0.300370665575263,0.395783108674312
-0.300043249487064,0.397940390372631
-0.299721480275431,0.400093543552802
-0.299405383523602,0.40224241595368
-0.299094984814815,0.404386855314121
-0.298790309732306,0.406526709372979
-0.298491383859311,0.408661825869108
-0.298198232779069,0.410792052541363
-0.297910882074817,0.412917237128599
-0.29762935732979,0.415037227369671
-0.297353684127227,0.417151871003433
-0.297083888050364,0.419261015768741
-0.296819994682439,0.421364509404448
-0.296562029606689,0.423462199649409
-0.296310018406349,0.42555393424248
-0.296063986664659,0.427639560922515
-0.295823959964854,0.429718927428368
-0.295589963890171,0.431791881498895
-0.295362024023848,0.43385827087295
-0.295140165949122,0.435917943289387
-0.29492441524923,0.437970746487062
-0.294714797507408,0.44001652820483
-0.294511338306895,0.442055136181544
-0.294314063230926,0.444086418156059
-0.294122997862739,0.446110221867232
-0.293938167785571,0.448126395053915
-0.293759598582659,0.450134785454963
-0.29358731583724,0.452135240809233
-0.293421345132551,0.454127608855577
-0.29326171205183,0.456111737332852
-0.293108442178312,0.458087473979911
-0.292961561095236,0.460054666535609
-0.292821094385838,0.462013162738802
-0.292687067633355,0.463962810328343
-0.292559506421025,0.465903457043087
-0.292438436332084,0.46783495062189
-0.292323882949769,0.469757138803605
-0.292215871857318,0.471669869327089
-0.292114428637967,0.473572989931194
-0.292019578874954,0.475466348354776
-0.291931348151515,0.477349792336691
-0.291849762050888,0.479223169615791
-0.29177484615631,0.481086327930933
-0.291706626051017,0.482939115020971
-0.291645127318247,0.484781378624759
-0.291590375541237,0.486612966481152
-0.291542396303223,0.488433726329006
-0.291501215187444,0.490243505907174
-0.291466857777135,0.492042152954511
-0.291439349655535,0.493829515209873
-0.291418716405879,0.495605440412114
-0.291404983611405,0.497369776300088
-0.29139817685535,0.49912237061265
-0.291398321720952,0.500863071088656
-0.291405443791446,0.502591725466959
-0.291419568650071,0.504308181486414
-0.291440721880063,0.506012286885877
-0.291468929064659,0.507703889404201
-0.291504215787097,0.509382836780242
-0.291546607630613,0.511048976752854
-0.291596130178444,0.512702157060892
-0.291652809013828,0.514342225443211
-0.291716669720001,0.515969029638665
-0.291787737880201,0.517582417386109
-0.291866039077664,0.519182236424398
-0.291951598895628,0.520768334492387
-0.292044442917329,0.522340559328929
-0.292144596726005,0.523898758672881
-0.292252085904893,0.525442780263096
-0.29236693603723,0.52697247183843
-0.292489172706252,0.528487681137737
-0.292618821495197,0.529988255899871
-0.292755907987302,0.531474043863689
-0.292900457765804,0.532944892768043
-0.29305249641394,0.534400650351789
-0.293212049514947,0.535841164353782
-0.293379142652062,0.537266282512876
-0.293553801408522,0.538675852567926
-0.293736051367564,0.540069722257787
-0.293925918112425,0.541447739321314
-0.294123427226343,0.542809751497361
-0.294328604292553,0.544155606524782
-0.294541474894294,0.545485152142434
-0.294762064614802,0.546798236089169
-0.294990399037315,0.548094706103844
-0.295226503745069,0.549374409925312
-0.295470404321302,0.550637195292429
-0.29572212634925,0.551882909944049
-0.29598169541215,0.553111401619027
-0.29624913709324,0.554322518056217
-0.296524476975757,0.555516106994475
-0.296807740642937,0.556692016172655
-0.297098953678018,0.557850093329612
-0.297398141664237,0.5589901862042
-0.29770533018483,0.560112142535274
-0.298020544823036,0.561215810061689
-0.29834381116209,0.5623010365223
-0.29867515478523,0.563367669655961
-0.299014601275693,0.564415557201526
-0.299362176216716,0.565444546897852
-0.299717905191536,0.566454486483792
-0.30008181378339,0.567445223698201
-0.300453927575515,0.568416606279935
-0.300834272151148,0.569368481967846
-0.301222873093526,0.570300698500791
-0.301619755985887,0.571213103617624
-0.302024946411467,0.5721055450572
-0.302438469953503,0.572977870558373
-0.302860352195232,0.573829927859998
-0.303290618719892,0.57466156470093
-0.30372929511072,0.575472628820023
-0.304176406950951,0.576262967956133
-0.304631979823825,0.577032429848114
-0.305096039312576,0.577780862234821
-0.305568611000444,0.578508112855108
-0.306049720470664,0.579214029447829
-0.306539393306473,0.579898459751841
-0.30703765509111,0.580561251505998
-0.30754453140781,0.581202252449153
-0.30806004783981,0.581821310320163
-0.308584229970349,0.582418272857881
-0.309117103382663,0.582992987801163
-0.309658693659988,0.583545302888862
-0.310209026385562,0.584075065859835
-0.310768127142623,0.584582124452935
-0.311336021514406,0.585066326407017
-0.31191273508415,0.585527519460936
-0.31249829343509,0.585965551353547
-0.313092722150465,0.586380269823704
-0.313696046813511,0.586771522610263
-0.314308293007465,0.587139157452077
-0.314929486315564,0.587483022088001
-0.315559652321046,0.587802964256891
-0.316198816607147,0.588098831697601
-0.316847004757105,0.588370472148985
-0.317504242354156,0.588617733349898
-0.318170554981537,0.588840463039196
-0.318845968222486,0.589038508955733
-0.319530507660239,0.589211718838363
-0.320224198878034,0.589359940425941
-0.320927067459108,0.589483021457322
-0.321639138986697,0.589580809671361
-0.322360439044039,0.589653152806912
-0.323090993214371,0.58969989860283
-0.32383082708093,0.58972089479797
-0.324579966226952,0.589715989131186
-0.325338436235676,0.589685029341333
-0.326106262690337,0.589627863167266
-0.326883471174173,0.589544338347841
-0.327670087270421,0.58943430262191
-0.328466136562319,0.589297603728329
-0.329271644633102,0.589134089405953
-0.330086637066008,0.588943607393637
-0.330911139444275,0.588726005430234
-0.331745177351139,0.588481131254601
-0.332588776369837,0.588208832605591
-0.333441962083606,0.587908957222059
-0.334304760075684,0.587581352842861
-0.335177195929307,0.58722586720685
-0.336059295227713,0.586842348052881
-0.336951083554138,0.58643064311981
-0.337852586491819,0.585990600146491
-0.338763829623994,0.585522066871778
-0.3396848385339,0.585024891034526
-0.340615638804773,0.58449892037359
-0.341556256019851,0.583944002627825
-0.34250671576237,0.583359985536086
-0.343467043615568,0.582746716837227
-0.344437265162682,0.582104044270102
-0.345417405986949,0.581431815573567
-0.346407491671606,0.580729878486476
-0.347407547799889,0.579998080747685
-0.348417599955037,0.579236270096047
-0.349437673720285,0.578444294270417
-0.350467794678872,0.57762200100965
-0.351507988414033,0.576769238052601
-0.352558280509007,0.575885853138125
-0.35361869654703,0.574971694005076
-0.354689262111339,0.574026608392309
-0.355770002785171,0.573050444038679
-0.356860944151764,0.57204304868304
-0.357962111794353,0.571004270064247
-0.359073531296178,0.569933955921155
-0.360195228240473,0.568831953992618
-0.361327228210477,0.567698112017492
-0.362469556789426,0.566532277734631
-0.363622239560558,0.565334298882889
-0.36478530210711,0.564104023201122
-0.365958770012318,0.562841298428183
-0.36714266885942,0.561545972302929
-0.368337024231652,0.560217892564213
-0.369541861712252,0.55885690695089
-0.370757206884457,0.557462863201815
-0.371983085331504,0.556035609055843
-0.373219522636629,0.554574992251828
-0.37446654438307,0.553080860528625
-0.375724176154065,0.551553061625089
-0.376992443532849,0.549991443280074
-0.37827137210266,0.548395853232436
-0.379560987446735,0.546766139221028
-0.380861315148311,0.545102148984707
-0.382172380790626,0.543403730262325
-0.383494209956915,0.541670730792739
-0.384826828230417,0.539902998314802
-0.386170261194368,0.538100380567369
-0.387524534432006,0.536262725289296
-0.388889673526566,0.534389880219437
-0.390265704061287,0.532481693096647
-0.391652651619405,0.530538011659779
-0.393050541784158,0.52855868364769
-0.394459400138783,0.526543556799233
-0.395879252266515,0.524492478853264
-0.397310123750594,0.522405297548637
-0.398752040174255,0.520281860624207
-0.400205027120735,0.518122015818829
-0.401669110173273,0.515925610871356
-0.403144314915104,0.513692493520645
-0.404630666929466,0.51142251150555
-0.406128191799595,0.509115512564925
-0.40763691510873,0.506771344437625
-0.409156862440106,0.504389854862505
-0.410688059376962,0.501970891578419
-0.412230531502533,0.499514302324223
-0.413784304400057,0.497019934838771
-0.415349403652771,0.494487636860917
-0.416925854843913,0.491917256129517
-0.418513683556718,0.489308640383425
-0.420112915374425,0.486661637361496
-0.42172357588027,0.483976094802585
-0.42334569065749,0.481251860445545
-0.424979285289323,0.478488782029233
-0.426624385359005,0.475686707292502
-0.428281016449773,0.472845483974208
-0.429949204144865,0.469964959813205
-0.431628974027517,0.467044982548347
-0.433320351680966,0.464085399918491
-0.43502336268845,0.461086059662489
-0.436738032633206,0.458046809519197
-0.438464387098471,0.454967497227471
-0.440202451667481,0.451847970526163
-0.441952251923473,0.44868807715413
-0.443713813449686,0.445487664850225
-0.445487161829355,0.442246581353304
-0.447272322645718,0.438964674402221
-0.449069321482012,0.435641791735831
-0.450878183921474,0.432277781092988
-0.452698935547341,0.428872490212548
-0.45453160194285,0.425425766833365
-0.456376208691237,0.421937458694294
-0.458232781375741,0.41840741353419
-0.460101345579598,0.414835479091906
-0.461981926886045,0.411221503106299
-0.46387455087832,0.407565333316222
-0.465779243139658,0.40386681746053
-0.467696029253298,0.400125803278079
-0.469624934802476,0.396342138507722
-0.47156598537043,0.392515670888315
-0.473519206540396,0.388646248158712
-0.475484623895611,0.384733718057768
-0.477462263019313,0.380777928324337
-0.479452149494738,0.376778726697275
-0.481454308905124,0.372735960915436
-0.483468766833708,0.368649478717675
-0.485495548863726,0.364519127842846
-0.487534680578416,0.360344756029804
-0.489586187561014,0.356126211017404
-0.491650095394759,0.351863340544501
-0.493726429662886,0.347555992349949
-0.495815215948633,0.343204014172603
-0.497916479835236,0.338807253751318
-0.500030246905934,0.334365558824948
-0.502156542743963,0.329878777132349
-0.50429539293256,0.325346756412374
-0.506446823054961,0.320769344403879
-0.508610858694405,0.316146388845718
-0.510787525434128,0.311477737476746
-0.512976848857367,0.306763238035818
-0.51517885454736,0.302002738261789
-0.517393568087342,0.297196085893512
-0.519621015060552,0.292343128669843
-0.521861221050226,0.287443714329637
-0.524114211639602,0.282497690611749
-0.526380012411916,0.277504905255032
-0.528658648950406,0.272465205998341
-0.530950146838308,0.267378440580533
-0.533254531658859,0.26224445674046
-0.535571828995297,0.257063102216978
-0.537902064430859,0.251834224748942
-0.540245263548781,0.246557672075206
-0.542601451932301,0.241233291934625
-0.544970655164656,0.235860932066054
-0.547352898829083,0.230440440208347
-0.549748208508818,0.224971664100359
-0.552156609787099,0.219454451480945
-0.554578128247163,0.21388865008896
-0.557012789472248,0.208274107663258
-0.559460619045589,0.202610671942694
-0.561921642550424,0.196898190666122
-0.56439588556999,0.191136511572398
-0.566883373687524,0.185325482400375
-0.569384132486263,0.17946495088891
-0.571898187549445,0.173554764776856
-0.574425564460306,0.167594771803069
-0.576966288802083,0.161584819706402
-0.579520386158013,0.155524756225711
-0.582087882111334,0.149414429099851
-0.584668802245282,0.143253686067675
-0.587263172143095,0.137042374868039
-0.589871017388009,0.130780343239798
-0.592492363563261,0.124467438921806
-0.595127236252089,0.118103509652918
-0.59777566103773,0.111688403171988
-0.60043766350342,0.105221967217872
-0.603113269232397,0.0987040495294242
-0.605802503807898,0.092134497845499
-0.608505392813159,0.085513159904951
-0.611221961831418,0.0788398834466355
-0.613952236445913,0.0721145162094066
-0.616696242239878,0.0653369059321196
-0.619454004796553,0.0585069003536287
-0.622225549699174,0.051624347212789
-0.625010902530978,0.0446890942484549
-0.627810088875202,0.0377009891994815
-0.630623134315083,0.0306598798047229
-0.633450064433858,0.0235656138030346
-0.636290904814764,0.0164180389332706
-0.639145681041039,0.00921700293428615
-0.642014418695918,0.00196235354493544
-0.64489714336264,-0.00534606149592622
-0.647793880624441,-0.0127083944494448
-0.650704656064559,-0.0201247975767648
-0.65362949526623,-0.0275954231390323
-0.656568423812692,-0.0351204233973919
-0.659521467287181,-0.0426999506129895
-0.662488651272934,-0.0503341570469698
-0.665470001353189,-0.0580231949604787
-0.668465543111183,-0.0657672166146609
-0.671475302130152,-0.0735663742706622
-0.674499303993334,-0.0814208201896274
-0.677537574283966,-0.0893307066327023
-0.680590138585284,-0.0972961858610316
-0.683657022480527,-0.105317410135761
-0.68673825155293,-0.113394531718036
-0.689833851385731,-0.121527702869001
-0.692943847562167,-0.129717075849803
-0.696068265665475,-0.137962802921585
-0.699207131278892,-0.146265036345494
-0.702360469985655,-0.154623928382675
-0.705528307369001,-0.163039631294272
-0.708710669012167,-0.171512297341432
-0.711907580498391,-0.1800420787853
-0.715119067410909,-0.18862912788702
-0.718345155332957,-0.197273596907739
-0.721585869847775,-0.205975638108601
-0.724841236538597,-0.214735403750752
-0.728111280988662,-0.223553046095337
