-0.68198581369057,-0.679904076805602
-0.683498647215181,-0.670213203448303
-0.684965899978927,-0.660618031004495
-0.686387742862714,-0.651118202608149
-0.687764346747445,-0.641713361393234
-0.689095882514025,-0.632403150493721
-0.690382521043357,-0.62318721304358
-0.691624433216346,-0.61406519217678
-0.692821789913896,-0.605036731027291
-0.693974762016911,-0.596101472729084
-0.695083520406294,-0.587259060416129
-0.696148235962951,-0.578509137222394
-0.697169079567784,-0.569851346281852
-0.698146222101699,-0.56128533072847
-0.699079834445599,-0.55281073369622
-0.699970087480389,-0.544427198319071
-0.700817152086971,-0.536134367730993
-0.701621199146252,-0.527931885065956
-0.702382399539133,-0.519819393457931
-0.70310092414652,-0.511796536040886
-0.703776943849318,-0.503862955948793
-0.704410629528428,-0.496018296315621
-0.705002152064757,-0.48826220027534
-0.705551682339207,-0.48059431096192
-0.706059391232684,-0.473014271509331
-0.70652544962609,-0.465521725051543
-0.706950028400331,-0.458116314722525
-0.70733329843631,-0.450797683656249
-0.707675430614931,-0.443565474986684
-0.707976595817098,-0.436419331847799
-0.708236964923716,-0.429358897373565
-0.708456708815689,-0.422383814697951
-0.70863599837392,-0.415493726954929
-0.708775004479314,-0.408688277278468
-0.708873898012775,-0.401967108802536
-0.708932849855206,-0.395329864661106
-0.708952030887512,-0.388776187988146
-0.708931611990598,-0.382305721917627
-0.708871764045366,-0.375918109583518
-0.708772657932721,-0.36961299411979
-0.708634464533568,-0.363390018660412
-0.70845735472881,-0.357248826339355
-0.708241499399351,-0.351189060290588
-0.707987069426096,-0.345210363648081
-0.707694235689948,-0.339312379545805
-0.707363169071813,-0.333494751117729
-0.706994040452592,-0.327757121497824
-0.706587020713191,-0.322099133820058
-0.706142280734514,-0.316520431218403
-0.705659991397465,-0.311020656826828
-0.705140323582948,-0.305599453779304
-0.704583448171867,-0.300256465209799
-0.703989536045127,-0.294991334252284
-0.70335875808363,-0.28980370404073
-0.702691285168282,-0.284693217709106
-0.701987288179986,-0.279659518391381
-0.701246937999646,-0.274702249221527
-0.700470405508168,-0.269821053333512
-0.699657861586453,-0.265015573861308
-0.698809477115407,-0.260285453938883
-0.697925422975934,-0.255630336700208
-0.697005870048938,-0.251049865279253
-0.696050989215323,-0.246543682809988
-0.695060951355993,-0.242111432426383
-0.694035927351851,-0.237752757262407
-0.692976088083803,-0.233467300452031
-0.691881604432752,-0.229254705129225
-0.690752647279603,-0.225114614427958
-0.689589387505258,-0.221046671482201
-0.688391995990624,-0.217050519425923
-0.687160643616602,-0.213125801393095
-0.685895501264098,-0.209272160517686
-0.684596739814016,-0.205489239933668
-0.68326453014726,-0.201776682775008
-0.681899043144733,-0.198134132175678
-0.680500449687341,-0.194561231269647
-0.679068920655986,-0.191057623190885
-0.677604626931574,-0.187622951073363
-0.676107739395007,-0.184256858051051
-0.674578428927191,-0.180958987257917
-0.673016866409029,-0.177728981827933
-0.671423222721425,-0.174566484895067
-0.669797668745284,-0.171471139593292
-0.668140375361509,-0.168442589056575
-0.666451513451005,-0.165480476418887
-0.664731253894675,-0.162584444814198
-0.662979767573425,-0.159754137376479
-0.661197225368156,-0.156989197239698
-0.659383798159775,-0.154289267537826
-0.657539656829185,-0.151653991404834
-0.65566497225729,-0.14908301197469
-0.653759915324994,-0.146575972381365
-0.651824656913202,-0.144132515758829
-0.649859367902816,-0.141752285241052
-0.647864219174742,-0.139434923962003
-0.645839381609883,-0.137180075055653
-0.643785026089144,-0.134987381655972
-0.641701323493428,-0.13285648689693
-0.63958844470364,-0.130787033912497
-0.637446560600684,-0.128778665836642
-0.635275842065464,-0.126831025803335
-0.633076459978883,-0.124943756946548
-0.630848585221846,-0.123116502400248
-0.628592388675258,-0.121348905298407
-0.626308041220021,-0.119640608774995
-0.623995713737041,-0.117991255963981
-0.621655577107221,-0.116400489999336
-0.619287802211465,-0.114867954015029
-0.616892559930678,-0.11339329114503
-0.614470021145763,-0.11197614452331
-0.612020356737625,-0.110616157283838
-0.609543737587167,-0.109312972560584
-0.607040334575294,-0.108066233487519
-0.604510318582911,-0.106875583198611
-0.601953860490919,-0.105740664827832
-0.599371131180225,-0.104661121509151
-0.596762301531732,-0.103636596376538
-0.594127542426344,-0.102666732563963
-0.591467024744965,-0.101751173205396
-0.588780919368499,-0.100889561434807
-0.586069397177851,-0.100081540386167
-0.583332629053924,-0.0993267531934437
-0.580570785877623,-0.0986248429906086
-0.577784038529851,-0.0979754529116315
-0.574972557891513,-0.0973782260904822
-0.572136514843512,-0.0968328056611308
-0.569276080266753,-0.0963388347575471
-0.566391425042141,-0.0958959565137012
-0.563482720050578,-0.0955038140635631
-0.560550136172969,-0.0951620505411026
-0.557593844290218,-0.0948703090802898
-0.55461401528323,-0.0946282328150946
-0.551610820032907,-0.0944354648794871
-0.548584429420156,-0.0942916484074371
-0.545535014325878,-0.0941964265329147
-0.542462745630979,-0.0941494423898897
-0.539367794216362,-0.0941503391123323
-0.536250330962933,-0.0941987598342123
-0.533110526751593,-0.0942943476894997
-0.529948552463249,-0.0944367458121644
-0.526764578978803,-0.0946255973361766
-0.523558777179161,-0.0948605453955061
-0.520331317945225,-0.0951412331241228
-0.517082372157901,-0.0954673036559969
-0.513812110698092,-0.0958384001250981
-0.510520704446702,-0.0962541656653966
-0.507208324284635,-0.0967142434108622
-0.503875141092795,-0.0972182764954649
-0.500521325752088,-0.0977659080531748
-0.497147049143415,-0.0983567812179617
-0.493752482147683,-0.0989905391237957
-0.490337795645794,-0.0996668249046467
-0.486903160518653,-0.100385281694485
-0.483448747647163,-0.10114555262728
-0.47997472791223,-0.101947280837001
-0.476481272194757,-0.10279010945762
-0.472968551375647,-0.103673681623106
-0.469436736335806,-0.104597640467428
-0.465885997956137,-0.105561629124557
-0.462316507117545,-0.106565290728463
-0.458728434700933,-0.107608268413116
-0.455121951587205,-0.108690205312485
-0.451497228657266,-0.109810744560541
-0.44785443679202,-0.110969529291254
-0.44419374687237,-0.112166202638593
-0.440515329779221,-0.113400407736529
-0.436819356393477,-0.114671787719031
-0.433105997596042,-0.11597998572007
-0.42937542426782,-0.117324644873616
-0.425627807289715,-0.118705408313638
-0.421863317542631,-0.120121919174106
-0.418082125907472,-0.12157382058899
-0.414284403265142,-0.123060755692261
-0.410470320496547,-0.124582367617889
-0.406640048482588,-0.126138299499842
-0.402793758104171,-0.127728194472092
-0.3989316202422,-0.129351695668608
-0.395053805777578,-0.131008446223361
-0.39116048559121,-0.132698089270319
-0.387251830564,-0.134420267943454
-0.383328011576852,-0.136174625376734
-0.37938919951067,-0.137960804704131
-0.375435565246358,-0.139778449059614
-0.37146727966482,-0.141627201577153
-0.367484513646961,-0.143506705390718
-0.363487438073683,-0.145416603634279
-0.359476223825892,-0.147356539441805
-0.355451041784492,-0.149326155947268
-0.351412062830386,-0.151325096284636
-0.347359457844479,-0.153353003587881
-0.343293397707674,-0.155409520990971
-0.339214053300876,-0.157494291627876
-0.335121595504989,-0.159606958632568
-0.331016195200917,-0.161747165139015
-0.326898023269564,-0.163914554281188
-0.322767250591834,-0.166108769193057
-0.318624048048631,-0.168329453008591
-0.31446858652086,-0.170576248861761
-0.310301036889423,-0.172848799886536
-0.306121570035226,-0.175146749216887
-0.301930356839173,-0.177469739986783
-0.297727568182167,-0.179817415330195
-0.293513374945113,-0.182189418381092
-0.289287948008914,-0.184585392273444
-0.285051458254475,-0.187004980141222
-0.2808040765627,-0.189447825118395
-0.276545973814493,-0.191913570338934
-0.272277320890758,-0.194401858936808
-0.267998288672399,-0.196912334045987
-0.26370904804032,-0.199444638800441
-0.259409769875426,-0.20199841633414
-0.255100625058619,-0.204573309781055
-0.250781784470805,-0.207168962275154
-0.246453418992888,-0.209785016950409
-0.242115699505771,-0.212421116940789
-0.237768796890358,-0.215076905380263
-0.233412882027555,-0.217752025402803
-0.229048125798264,-0.220446120142378
-0.22467469908339,-0.223158832732957
-0.220292772763836,-0.225889806308512
-0.215902517720508,-0.228638684003011
-0.211504104834309,-0.231405108950425
-0.207097704986143,-0.234188724284724
-0.202683489056914,-0.236989173139878
-0.198261627927527,-0.239806098649856
-0.193832292478885,-0.24263914394863
-0.189395653591892,-0.245487952170168
-0.184951882147453,-0.24835216644844
-0.180501149026471,-0.251231429917417
-0.176043625109851,-0.254125385711069
-0.171579481278497,-0.257033676963365
-0.167108888413313,-0.259955946808276
-0.162632017395203,-0.262891838379771
-0.15814903910507,-0.26584099481182
-0.15366012442382,-0.268803059238394
-0.149165444232356,-0.271777674793463
-0.144665169411582,-0.274764484610996
-0.140159470842402,-0.277763131824963
-0.135648519405721,-0.280773259569334
-0.131132485982442,-0.28379451097808
-0.12661154145347,-0.28682652918517
-0.122085856699708,-0.289868957324574
-0.117555602602061,-0.292921438530262
-0.113020950041433,-0.295983615936205
-0.108482069898727,-0.299055132676371
-0.103939133054849,-0.302135631884732
-0.0993923103907011,-0.305224756695257
-0.0948417727871884,-0.308322150241915
-0.0902876911252151,-0.311427455658678
-0.0857302362856848,-0.314540316079515
-0.0811695791495019,-0.317660374638395
-0.0766058905975703,-0.32078727446929
-0.0720393415107942,-0.323920658706168
-0.0674701027700775,-0.327060170483
-0.0628983452563246,-0.330205452933756
-0.0583242398504391,-0.333356149192405
-0.0537479574333257,-0.336511902392919
-0.0491696688858878,-0.339672355669266
-0.04458954508903,-0.342837152155417
-0.0400077569236559,-0.346005934985341
-0.0354244752706702,-0.349178347293009
-0.0308398710109763,-0.352354032212391
-0.026254115025479,-0.355532632877456
-0.0216673781950815,-0.358713792422175
-0.0170798314006888,-0.361897153980517
-0.0124916455232043,-0.365082360686452
-0.00790299144353238,-0.368269055673951
-0.00331404004257693,-0.371456882076984
0.00127503779875762,-0.374645483029519
0.00586407119956769,-0.377834501665529
0.0104528892789488,-0.381023581118981
0.0150413211559971,-0.384212364523847
0.0196291959498083,-0.387400495014095
0.0242163427794786,-0.390587615723698
0.0288025907641036,-0.393773369786623
0.0333877690227796,-0.396957400336841
0.0379717066746021,-0.400139350508323
0.0425542328386676,-0.403318863435037
0.0471351766340713,-0.406495582250955
0.0517143671799098,-0.409669150090046
0.0562916335952784,-0.412839210086279
0.0608668049992736,-0.416005405373626
0.0654397105109909,-0.419167379086055
0.0700101792495266,-0.422324774357538
0.0745780403339762,-0.425477234322043
0.0791431228834359,-0.428624402113541
0.0837052560170015,-0.431765920866002
0.0882642688537692,-0.434901433713396
0.0928199905128345,-0.438030583789692
0.0973722501132936,-0.441153014228861
0.101920876774242,-0.444268368164873
0.106465699614777,-0.447376288731697
0.111006547753992,-0.450476419063304
0.115543250310986,-0.453568402293664
0.120075636404852,-0.456651881556746
0.124603535154688,-0.459726499986521
0.129126775679589,-0.462791900716958
0.133645187098651,-0.465847726882027
0.13815859853097,-0.468893621615699
0.142666839095643,-0.471929228051944
0.147169737911764,-0.47495418932473
0.15166712409843,-0.477968148568029
0.156158826774736,-0.480970748915811
0.16064467505978,-0.483961633502045
0.165124498072655,-0.4869404454607
0.16959812493246,-0.489906827925749
0.174065384758288,-0.492860424031159
0.178526106669238,-0.495800876910901
0.182980119784403,-0.498727829698946
0.187427253222881,-0.501640925529262
0.191867336103766,-0.504539807535821
0.196300197546156,-0.507424118852592
0.200725666669146,-0.510293502613544
0.205143572591831,-0.513147601952649
0.209553744433309,-0.515986060003875
0.213956011312674,-0.518808519901194
0.218350202349023,-0.521614624778574
0.222736146661451,-0.524404017769986
0.227113673369055,-0.5271763420094
0.231482611590931,-0.529931240630786
0.235842790446173,-0.532668356768113
0.24019403905388,-0.535387333555352
0.244536186533145,-0.538087814126473
0.248869062003065,-0.540769441615445
0.253192494582736,-0.543431859156239
0.257506313391255,-0.546074709882825
0.261810347547716,-0.548697636929172
0.266104426171216,-0.551300283429251
0.270388378380851,-0.553882292517031
0.274662033295716,-0.556443307326483
0.278925220034908,-0.558982970991575
0.283177767717523,-0.56150092664628
0.287419505462656,-0.563996817424566
0.291650262389404,-0.566470286460403
0.295869867616861,-0.568920976887761
0.300078150264125,-0.571348531840611
0.304274939450291,-0.573752594452922
0.308460064294455,-0.576132807858664
0.312633353915713,-0.578488815191807
0.316794637433161,-0.580820259586322
0.320943743965895,-0.583126784176177
0.325080502633011,-0.585408032095344
0.329204742553604,-0.587663646477792
0.333316292846771,-0.58989327045749
0.337414982631607,-0.59209654716841
0.341500641027209,-0.594273119744521
0.345573097152672,-0.596422631319792
0.349632180127092,-0.598544725028195
0.353677719069566,-0.600639044003698
0.357709543099189,-0.602705231380272
0.361727481335057,-0.604742930291887
0.365731362896266,-0.606751783872513
0.369721016901911,-0.608731435256119
0.37369627247109,-0.610681527576676
0.377656958722897,-0.612601703968154
0.381602904776429,-0.614491607564523
0.385533939750782,-0.616350881499752
0.389449892765051,-0.618179168907812
0.393350592938332,-0.619976112922672
0.397235869389722,-0.621741356678302
0.401105551238317,-0.623474543308674
0.404959467603211,-0.625175315947755
0.408797447603502,-0.626843317729517
0.412619320358284,-0.62847819178793
0.416424914986655,-0.630079581256963
0.42021406060771,-0.631647129270586
0.423986586340544,-0.633180478962769
0.427742321304254,-0.634679273467483
0.431481094617936,-0.636143155918697
0.435202735400685,-0.637571769450381
0.438907072771598,-0.638964757196506
0.442593935849771,-0.64032176229104
0.446263153754299,-0.641642427867955
0.449914555604278,-0.64292639706122
0.453547970518804,-0.644173313004804
0.457163227616974,-0.645382818832679
0.460760156017882,-0.646554557678814
0.464338584840626,-0.647688172677179
0.4678983432043,-0.648783306961743
0.471439260228002,-0.649839603666478
0.474961165030826,-0.650856705925352
0.478463886731868,-0.651834256872336
0.481947254450226,-0.6527718996414
0.485411097304994,-0.653669277366514
0.488855244415268,-0.654526033181648
0.492279524900145,-0.655341810220771
0.49568376787872,-0.656116251617854
0.499067802470089,-0.656849000506867
0.502431457793348,-0.657539700021779
0.505774562967594,-0.658187993296561
0.509096947111921,-0.658793523465182
0.512398439345427,-0.659355933661613
0.515678868787206,-0.659874867019823
0.518938064556355,-0.660349966673783
0.52217585577197,-0.660780875757462
0.525392071553146,-0.661167237404831
0.52858654101898,-0.661508694749858
0.531759093288568,-0.661804890926516
0.534909557481004,-0.662055469068772
0.538037762715387,-0.662260072310598
0.538037762715387,-0.662260072310598
0.541121646107045,-0.662436174569643
0.544139493148362,-0.66260145420646
0.547091655524014,-0.66275586101937
0.549978484918676,-0.662899344806698
0.552800333017025,-0.663031855366766
0.555557551503735,-0.663153342497897
0.558250492063481,-0.663263755998413
0.560879506380941,-0.66336304566664
0.563444946140788,-0.663451161300897
0.565947163027699,-0.66352805269951
0.568386508726349,-0.6635936696608
0.570763334921414,-0.663647961983092
0.573077993297568,-0.663690879464707
0.575330835539488,-0.663722371903968
0.57752221333185,-0.663742389099199
0.579652478359327,-0.663750880848723
0.581721982306598,-0.663747796950863
0.583731076858335,-0.66373308720394
0.585680113699216,-0.663706701406279
0.587569444513916,-0.663668589356203
0.589399420987109,-0.663618700852034
0.591170394803473,-0.663556985692095
0.592882717647682,-0.663483393674709
0.594536741204411,-0.6633978745982
0.596132817158337,-0.66330037826089
0.597671297194135,-0.663190854461102
0.59915253299648,-0.663069252997159
0.600576876250048,-0.662935523667384
0.601944678639514,-0.6627896162701
0.603256291849554,-0.662631480603629
0.604512067564843,-0.662461066466296
0.605712357470058,-0.662278323656422
0.606857513249872,-0.662083201972332
0.607947886588963,-0.661875651212346
0.608983829172005,-0.66165562117479
0.609965692683675,-0.661423061657985
0.610893828808646,-0.661177922460255
0.611768589231596,-0.660920153379922
0.612590325637199,-0.660649704215309
0.613359389710132,-0.66036652476474
0.614076133135069,-0.660070564826538
0.614740907596686,-0.659761774199025
0.615354064779658,-0.659440102680524
0.615915956368662,-0.659105500069358
0.616426934048373,-0.658757916163851
0.616887349503465,-0.658397300762324
0.617297554418615,-0.658023603663102
0.617657900478499,-0.657636774664506
0.617968739367791,-0.657236763564861
0.618230422771168,-0.656823520162489
0.618443302373304,-0.656396994255712
0.618607729858875,-0.655957135642854
0.618724056912558,-0.655503894122238
0.618792635219026,-0.655037219492187
0.618813816462957,-0.654557061551024
0.618787952329025,-0.654063370097071
0.618715394501905,-0.653556094928652
0.618596494666274,-0.653035185844089
0.618431604506807,-0.652500592641706
0.618221075708179,-0.651952265119825
0.617965259955067,-0.65139015307677
0.617664508932145,-0.650814206310863
0.617319174324088,-0.650224374620427
0.616929607815573,-0.649620607803786
0.616496161091276,-0.649002855659262
0.61601918583587,-0.648371067985178
0.615499033734033,-0.647725194579856
0.61493605647044,-0.647065185241622
0.614330605729765,-0.646390989768796
0.613683033196685,-0.645702557959702
0.612993690555875,-0.644999839612663
0.612262929492011,-0.644282784526002
0.611491101689768,-0.643551342498042
0.610678558833822,-0.642805463327105
0.609825652608848,-0.642045096811515
0.608932734699521,-0.641270192749595
0.608000156790518,-0.640480700939668
0.607028270566514,-0.639676571180056
0.606017427712183,-0.638857753269083
0.604967979912203,-0.638024197005071
0.603880278851248,-0.637175852186344
0.602754676213994,-0.636312668611224
0.601591523685115,-0.635434596078034
0.600391172949289,-0.634541584385098
0.599153975691191,-0.633633583330738
0.597880283595495,-0.632710542713277
0.596570448346877,-0.631772412331038
0.595224821630014,-0.630819141982344
0.59384375512958,-0.629850681465519
0.592427600530251,-0.628866980578884
0.590976709516702,-0.627867989120763
0.58949143377361,-0.626853656889479
0.587972124985649,-0.625823933683356
0.586419134837495,-0.624778769300714
0.584832815013823,-0.623718113539879
0.58321351719931,-0.622641916199173
0.58156159307863,-0.621550127076918
0.579877394336459,-0.620442695971437
0.578161272657473,-0.619319572681055
0.576413579726347,-0.618180707004092
0.574634667227757,-0.617026048738874
0.572824886846378,-0.615855547683721
0.570984590266885,-0.614669153636958
0.569114129173955,-0.613466816396908
0.567213855252262,-0.612248485761893
0.565284120186483,-0.611014111530235
0.563325275661293,-0.609763643500259
0.561337673361367,-0.608497031470288
0.55932166497138,-0.607214225238643
0.557277602176009,-0.605915174603648
0.555205836659929,-0.604599829363627
0.553106720107815,-0.603268139316901
0.550980604204343,-0.601920054261794
0.548827840634189,-0.600555523996629
0.546648781082027,-0.599174498319729
0.544443777232534,-0.597776927029417
0.542213180770385,-0.596362759924015
0.539957343380255,-0.594931946801847
0.53767661674682,-0.593484437461235
0.535371352554756,-0.592020181700504
0.533041902488738,-0.590539129317974
0.530688618233441,-0.58904123011197
0.528311851473541,-0.587526433880815
0.525911953893714,-0.585994690422831
0.523489277178635,-0.584445949536341
0.52104417301298,-0.582880161019668
0.518576993081423,-0.581297274671136
0.516088089068642,-0.579697240289067
0.51357781265931,-0.578080007671784
0.511046515538105,-0.57644552661761
0.5084945493897,-0.574793746924868
0.505922265898772,-0.573124618391881
0.503330016749997,-0.571438090816972
0.500718153628049,-0.569734113998464
0.498087028217604,-0.568012637734679
0.495436992203338,-0.566273611823942
0.492768397269927,-0.564516986064574
0.490081595102045,-0.562742710254899
0.487376937384369,-0.560950734193239
0.484654775801574,-0.559141007677919
0.481915462038335,-0.557313480507259
0.479159347779328,-0.555468102479585
0.476386784709228,-0.553604823393217
0.473598124512711,-0.55172359304648
0.470793718874453,-0.549824361237697
0.467973919479128,-0.547907077765189
0.465139078011413,-0.545971692427281
0.462289546155984,-0.544018155022296
0.459425675597515,-0.542046415348555
0.456547818020681,-0.540056423204382
0.453656325110159,-0.538048128388101
0.450751548550625,-0.536021480698033
0.447833840026753,-0.533976429932503
0.444903551223219,-0.531912925889832
0.441961033824699,-0.529830918368344
0.439006639515868,-0.527730357166363
0.436040719981401,-0.52561119208221
0.433063626905975,-0.523473372914208
0.430075711974264,-0.521316849460681
0.427077326870945,-0.519141571519952
0.424068823280693,-0.516947488890344
0.421050552888182,-0.514734551370179
0.41802286737809,-0.51250270875778
0.414986118435091,-0.510251910851471
0.41194065774386,-0.507982107449575
0.408886836989074,-0.505693248350413
0.405825007855408,-0.50338528335231
0.402755522027537,-0.501058162253588
0.399678731190137,-0.498711834852571
0.396594987027884,-0.49634625094758
0.393504641225452,-0.49396136033694
0.390408045467518,-0.491557112818973
0.387305551438757,-0.489133458192001
0.384197510823844,-0.486690346254349
0.381084275307455,-0.484227726804338
0.377966196574266,-0.481745549640293
0.374843626308952,-0.479243764560535
0.371716916196188,-0.476722321363388
0.368586417920651,-0.474181169847175
0.365452483167015,-0.471620259810218
0.362315463619956,-0.469039541050841
0.35917571096415,-0.466438963367367
0.356033576884272,-0.463818476558118
0.352889413064997,-0.461178030421417
0.349743571191002,-0.458517574755588
0.346596402946962,-0.455837059358953
0.343448260017551,-0.453136434029836
0.340299494087447,-0.450415648566559
0.337150456841323,-0.447674652767445
0.334001499963857,-0.444913396430818
0.330852975139722,-0.442131829354999
0.327705234053596,-0.439329901338313
0.324558628390153,-0.436507562179081
0.321413509834068,-0.433664761675628
0.318270230070018,-0.430801449626275
0.315129140782678,-0.427917575829347
0.311990593656724,-0.425013090083165
0.30885494037683,-0.422087942186053
0.305722532627672,-0.419142081936334
0.302593722093927,-0.416175459132331
0.299468860460269,-0.413188023572366
0.296348299411374,-0.410179725054763
0.293232390631918,-0.407150513377844
0.290121485806575,-0.404100338339933
0.287015936620022,-0.401029149739352
0.283916094756935,-0.397936897374425
0.280822311901987,-0.394823531043474
0.277734939739856,-0.391689000544822
0.274654329955217,-0.388533255676793
0.271580834232744,-0.385356246237709
0.268514804257114,-0.382157922025893
0.265456591713003,-0.378938232839668
0.262406548285085,-0.375697128477357
0.259365025658036,-0.372434558737284
0.256332375516532,-0.36915047341777
0.253308949545248,-0.365844822317139
0.25029509942886,-0.362517555233714
0.247291176852044,-0.359168621965818
0.244297533499474,-0.355797972311774
0.241314521055826,-0.352405556069904
0.238342491205776,-0.348991323038532
0.235381795634,-0.345555223015981
0.232432786025172,-0.342097205800573
0.229495814063969,-0.338617221190632
0.226571231435066,-0.335115218984481
0.223659389823138,-0.331591148980442
0.220760640912861,-0.328044960976838
0.21787533638891,-0.324476604771992
0.215003827935962,-0.320886030164228
0.212146467238691,-0.317273186951868
0.209303605981773,-0.313638024933236
0.206475595849883,-0.309980493906653
0.203662788527698,-0.306300543670444
0.200865535699892,-0.302598124022931
0.198084189051141,-0.298873184762436
0.195319100266121,-0.295125675687284
0.192570621029507,-0.291355546595796
0.189839103025975,-0.287562747286297
0.187124897940199,-0.283747227557108
0.184428357456857,-0.279908937206553
0.181749833260622,-0.276047826032955
0.179089677036171,-0.272163843834636
0.17644824046818,-0.26825694040992
0.173825875241323,-0.26432706555713
0.171222933040277,-0.260374169074588
0.168639765549716,-0.256398200760618
0.166076724454317,-0.252399110413542
0.163534161438754,-0.248376847831683
0.161012428187704,-0.244331362813365
0.158511876385841,-0.24026260515691
0.156032857717842,-0.236170524660641
0.153575723868382,-0.232055071122882
0.151140826522136,-0.227916194341955
0.148728517363781,-0.223753844116182
0.14633914807799,-0.219567970243888
0.143973070349441,-0.215358522523395
0.141630635862808,-0.211125450753026
0.139312196302767,-0.206868704731103
0.137018103353993,-0.202588234255951
0.134748708701163,-0.198283989125891
0.132504364028951,-0.193955919139247
0.130285421022033,-0.189603974094342
0.128092231365085,-0.185228103789499
0.125925146742782,-0.18082825802304
0.1237845188398,-0.176404386593288
0.121670699340813,-0.171956439298568
0.119584039930499,-0.1674843659372
0.117524892293531,-0.162988116307509
0.115493608114586,-0.158467640207818
0.11349053907834,-0.153922887436448
0.111516036869467,-0.149353807791724
0.109570453172643,-0.144760351071969
0.107654139672544,-0.140142467075504
0.105767448053846,-0.135500105600654
0.103910730001223,-0.13083321644574
0.102084337199352,-0.126141749409087
0.100288621332907,-0.121425654289017
0.0985239340865648,-0.116684880883852
0.0967906271450004,-0.111919378991917
0.0950890521928895,-0.107129098411533
0.0934195609149074,-0.102313988941024
0.0917825049957298,-0.0974740003787131
0.0901782361200321,-0.0926090825229226
0.0886071059724899,-0.087719185171976
0.0870694662377787,-0.0828042581241957
0.085565668600574,-0.0778642511779052
0.0840960647455513,-0.072899114131427
0.0826610063573861,-0.0679087967830845
0.081260845120754,-0.0628932489312001
0.0798959327203305,-0.0578524203740974
0.078566620840791,-0.0527862609100987
0.0772732611668112,-0.0476947203375275
0.0760162053830665,-0.0425777484547064
0.0747958051742325,-0.0374352950599586
0.0736124122249846,-0.0322673099516066
0.0724663782199984,-0.027073742927974
0.0713580548439494,-0.0218545437873832
0.0702877937815131,-0.0166096623281576
0.069255946717365,-0.0113390483486197
0.0682628653361807,-0.00604265164709294
0.0673089013226357,-0.000720422021899675
0.0663944063614055,0.0046276907286365
0.0655197321371655,0.0100017368061932
0.0646852303345914,0.015401766412447
0.0638912526383587,0.0208278297490753
0.0631381507331428,0.0262799770177548
0.0624262763036193,0.0317582584201631
0.0617559810344637,0.0372627241579766
0.0611276166103514,0.0427934244328728
0.0605415347159582,0.0483504094465286
0.0599980870359594,0.0539337294006211
0.0594976252550306,0.0595434344968272
0.0590405010578472,0.0651795749368242
0.0586270661290849,0.0708422009222887
0.0582576721534191,0.0765313626548983
0.0579326708155253,0.0822471103363296
0.0576524138000791,0.0879894941682601
0.057417252791756,0.0937585643523663
0.0572275394752314,0.0995543710903259
0.057083625535181,0.105376964583815
0.0569858626562802,0.111226395034512
0.0569346025232046,0.117102712644093
0.0569301968206297,0.123005967614235
0.0569729972332309,0.128936210146615
0.0570633554456838,0.134893490442911
0.057201623142664,0.140877858704799
0.0573881520088469,0.146889365133956
0.057623293728908,0.15292805993206
0.057907399987523,0.158993993300787
0.0582408224693672,0.165087215441815
0.0586239128591163,0.171207776556821
0.0590570228414456,0.177355726847481
0.0595405041010309,0.183531116515473
0.0600747083225475,0.189733995762474
0.060659987190671,0.195964414790161
0.0612966923900769,0.20222242380021
0.0619851756054407,0.208508072994299
0.062725788521438,0.214821412574105
0.0635188828227442,0.221162492741306
0.0643648101940349,0.227531363697577
0.0652639223199856,0.233928075644596
0.0662165708852718,0.240352678784041
0.067223107574569,0.246805223317588
0.0682838840725528,0.253285759446914
0.0693992520638987,0.259794337373696
0.0705695632332821,0.266331007299612
0.0717951692653786,0.272895819426338
0.0730764218448638,0.279488823955551
0.0744136726564131,0.286110071088929
0.075807273384702,0.292759611028148
0.0772575757144062,0.299437493974887
0.078764931330201,0.30614377013082
0.080329691916762,0.312878489697627
0.0819522091587648,0.319641702876983
0.0836328347408848,0.326433459870566
0.0853719203477975,0.333253810880052
0.0871698176641787,0.34010280610712
0.0890268783747035,0.346980495753445
0.0909434541640477,0.353886930020706
0.0929198967168867,0.360822159110578
0.0949565577178961,0.36778623322474
0.0970537888517513,0.374779202564867
0.099211941803128,0.381801117332638
0.101431368256702,0.388852027729729
0.103712419897148,0.395931983957817
0.106055448409141,0.40304103621858
0.108460805477359,0.410179234713694
0.110928842786475,0.417346629644836
0.113459912021166,0.424543271213684
0.116054364866107,0.431769209621914
0.118712553005973,0.439024495071204
0.121434828125441,0.44630917776323
0.124221541909185,0.45362330789967
0.127073046041881,0.460966935682201
0.129989692208205,0.4683401113125
0.132971832092832,0.475742884992243
0.136019817380437,0.483175306923108
0.139133999755697,0.490637427306772
0.142314730903286,0.498129296344912
0.145562362507881,0.505650964239204
0.148877246254156,0.513202481191327
0.152259733826788,0.520783897402957
0.155710176910451,0.528395263075771
0.159228927189822,0.536036628411447
0.162816336349575,0.54370804361166
0.166472756074387,0.551409558878089
0.170198538048932,0.55914122441241
0.173994033957887,0.5669030904163
0.177859595485927,0.574695207091437
0.181795574317727,0.582517624639498
0.185802322137963,0.590370393262159
0.18988019063131,0.598253563161097
0.194029531482444,0.60616718453799
0.198250696376041,0.614111307594514
0.202544036996776,0.622085982532348
0.206909905029324,0.630091259553167
0.211348652158361,0.638127188858649
0.215860630068563,0.64619382065047
0.220446190444605,0.654291205130309
