0.812666655199912,0.800856427199658
0.0294949043019614,-0.281575430949883
0.167628206550433,-0.0167100642551195
-0.629987109886885,-0.28537664054568
-1.4276024263242,-0.554043216836241
0.711834954249452,0.906272601323866
-0.776706197251464,-0.975211118960947
