0.996402956983431,-0.938198456070625
0.493510027724409,-0.088601825540962
-0.464460205937777,0.985316094632042
0.481481357117768,0.839097114229923
1.42742292017331,0.692878133827804
0.353798493484956,-0.498698234467171
0.660549486223594,-0.39526002836944
