-0.659636729389719,0.458331421086036
0.956467738196774,0.667600866855201
0.605343413657773,0.377137460543596
0.899246431169704,0.499236587548503
1.19314944868163,0.62133571455341
-0.176452737841447,-0.449432702985435
-0.0524750376892342,-0.190894911561968
