-0.17691980789641,0.16557356251906
-0.171345036465738,0.159563577487193
-0.13314306286326,0.197589074133886
-0.160242217954774,0.147789795558801
-0.175461930857724,0.144902154954434
-0.173178580102013,0.127165372326893
-0.103907450406072,0.108583908121431
-0.253216870680513,0.0157722759623448
-0.138920650916365,0.128848653470923
-0.00904997026804824,0.210264881104169
-0.12188176704506,0.109116194800556
-0.120119742329336,0.10425610050757
-0.0879912126827671,0.0929242606878333
-0.086006858584099,0.0618275191352593
-0.100318303663047,0.0887415113230781
-0.0751355784087181,0.0883655160358539
-0.106847548632578,0.055179056487084
-0.0843201047991381,0.074260071891714
-0.0790210380399017,0.0695826681438791
-0.0618066057317711,0.0706859045408123
-0.0818999133653138,0.0726167165104149
-0.0632260107750164,0.0559929731642394
0.0457633299261411,0.16771821817084
-0.0884512087857286,0.0522745394312329
-0.00187189469251901,0.0347327244588546
-0.0692806035770724,0.0173267597968773
-0.0372465752999148,0.0347897703558408
-0.00744344230920954,0.0226184587686692
-0.0426756665201977,0.0472542837837224
0.0836298935555011,0.117468594743353
-0.0167801157979234,0.0190943495847639
-0.0379140028084292,-0.0263956005718344
0.105393214891009,0.129227429532499
0.0327054795684718,0.012784427224794
0.0276516289075271,-0.0122549432898259
0.106896188874629,0.100402011953548
0.0386303516625944,-0.0232000033785483
-0.00716263535530837,0.00405170612437987
0.0180729237277218,-0.0271746922228544
0.019078710676323,-0.00711039614811964
0.0266291222922767,0.0236286450133518
0.0380031856191639,-0.0185240085007039
0.0548711351706801,-0.0177260176891524
0.0477213272615385,-0.0245254197488922
0.0558597628869185,-0.066337516082115
0.0573631885007379,-0.0302784840070388
0.062155304250107,-0.0330630845727026
0.0669280982358342,-0.0357870366602836
0.0512219898839113,-0.0195943838500651
0.0693861003491989,-0.0375241559900595
0.0939723189927026,-0.0596239522846875
0.0954956126559048,-0.0380384633451887
0.0904993056432827,-0.0485138497369305
0.097898178896102,-0.0224065560962396
0.207068267064353,0.0651843770869703
0.202284810001358,0.0634301217120233
0.100805330809902,-0.069463455328511
0.133266333019269,-0.0611482234974876
0.118129603820293,-0.0618848250889474
0.248909888297209,0.0404855973738211
0.131218403261983,-0.0500474459361081
0.109281579783725,-0.0992849037902046
0.276710539767125,0.0259921973666963
0.151743438848617,-0.0750895141901505
0.121550322141039,-0.0493730664340014
0.0519622265071456,-0.190414342453532
0.1586069943472,-0.0619427058276911
0.0471881747777334,-0.199070557025424
0.144135544681084,-0.114361446431693
0.166871371185633,-0.0813402700724558
0.1268123432629,-0.0907609940469098
0.265792048416754,0.0628046463340936
0.191496853460116,-0.111779696105528
0.194049639041482,-0.083302554293786
0.188183383844932,-0.0881604304722349
0.192381110076585,-0.0893808709693404
0.0980068226875893,-0.188736399357684
0.105130656172002,-0.195229511323583
0.204843426194042,-0.0927636389115208
0.210514763013945,-0.128620059748561
0.180328868830819,-0.093334804328434
0.302616908208238,-4.63449876735994e-05
0.114525726457346,-0.216327050548558
0.239458620353901,-0.110994715561223
0.229171626944753,-0.0983188319075931
0.233148033188622,-0.0990933943766004
0.219184585545572,-0.159265198131032
0.149981994894201,-0.192962764342643
0.240035178862384,-0.107708441739356
0.265300458241381,-0.0966076868267229
0.2391549296528,-0.0902538602394235
0.154719379226482,-0.219133254303382
0.260345564530542,-0.103367552040898
0.26413887487583,-0.103819930553685
0.3095946263775,-0.0748665757543665
0.308196023416254,-0.0558581584831588
0.275378883471661,-0.1049502902423
0.293460303336294,-0.108247615763806
0.252745161133222,-0.118560476365142
0.295603282891145,-0.111402218250081
0.318327565954198,-0.106049852580754
0.298467926371757,-0.0854019341535505
0.297221699797737,-0.106233666378486
0.300778590384357,-0.106326463028822
0.293230669104736,-0.116401654421522
0.402505737628385,-0.0479161402459346
0.173367437978189,-0.202393926124682
0.292631338843446,-0.077209205738236
0.316263377887167,-0.0733867334659789
0.300714294203743,-0.0908251806261165
0.319966397467041,-0.0612483559040806
0.328358947638397,-0.105909538852866
0.300284500572846,-0.103763274995809
0.246063790806465,-0.224599139275984
0.362757782898139,-0.101937093940116
0.321254201399304,-0.125107250414763
0.344794227362494,-0.10467508584156
0.344122452961269,-0.0932954394004923
0.351192569188103,-0.103988326668275
0.377087213992876,-0.116567638239985
0.367255915249442,-0.102867789844511
0.361480847736883,-0.106002362254514
0.363684241674452,-0.102305083564955
0.364075410404417,-0.127343625734609
0.372446950587394,-0.127591988756229
0.375827206702284,-0.10318652204001
0.378152848900115,-0.116173612726886
0.376376150936184,-0.0949855994550449
0.381649155977879,-0.0990634377951947
0.384552095787666,-0.0984456916338388
0.387428751161682,-0.097807089115226
0.410208699971791,-0.0784723016563271
0.423062841915283,-0.088646228196447
0.41217118638923,-0.0523151329976704
0.420293278496914,-0.0937555497673336
0.412958106711417,-0.114064360915907
0.378191874270668,-0.0928304787249187
0.393623710429242,-0.0868262504515024
0.379801689204262,-0.0692722986404058
0.294295053899075,-0.191913185013858
0.414731205658895,-0.0903794373713114
0.415719001099366,-0.0987997889258863
0.41986789456748,-0.0886915730496933
0.454147629623109,-0.0848721497848433
0.424895083576946,-0.0869452133024565
0.42736740590047,-0.0860512962020872
0.469844435286036,-0.0799767426699138
0.444070130127235,-0.0745996244614668
0.434618277494811,-0.083292349071686
0.341693321846308,-0.195065073467612
0.439312940201353,-0.0813935153584322
0.48044762382568,-0.0910440421443428
0.443895418605064,-0.079451527760119
0.418638428579343,-0.0768238833994291
0.479326527171323,-0.101449651288172
0.57689544272428,0.062628147968074
0.482121337381635,-0.106961512986545
0.534106465325522,0.0474627101194902
0.47638323355188,-0.0892029776341711
0.443025193529261,-0.0934735831642828
0.48353074275861,-0.0692922208291683
0.486495557115142,-0.0624002619400561
0.465101557548671,-0.0692285199725586
0.451662210417118,-0.041218864446085
0.468996837015906,-0.0671081521518267
0.475706943931979,-0.0705865294718068
0.472775234473812,-0.0649714781420144
0.609747013499508,0.0547834731564736
0.461865403686083,-0.0567259538998777
0.478222208859902,-0.0617442829277639
0.49913561431419,-0.0410129799184016
0.365139179451477,-0.163125591223734
0.491776440563074,-0.0616828785435679
0.485069490733377,-0.0574200812416209
0.486706582193596,-0.0563384279147595
0.519566249829284,-0.0645974409978566
0.396244166395399,-0.152802302082711
0.459735902206032,-0.0305116381380231
0.497483129523185,-0.0735669293409015
0.474641417978734,-0.0370247793859524
0.49589494794001,-0.0498803591308282
0.46341533780502,-0.0226840515953412
0.520442894197906,-0.0633138501993128
0.527765769607269,-0.0717371653475522
0.503385183314818,-0.0676218006842436
0.510478045135152,-0.0338211718835467
0.558394971331751,-0.0350100882891631
0.505222832641416,-0.042516753947508
0.507626166126151,-0.0165907649664774
0.499884749006511,-0.064353736774693
0.522398828445363,-0.0331548714843317
0.609421337591273,0.0665779781760269
0.510952787655443,-0.037455953046783
0.51342472193939,-0.0512040320471827
0.513024371385302,-0.0354937078295316
0.539134283465181,-0.0563030768802938
0.621359195255439,0.0579767861384806
0.494563292887111,-0.0323156321795624
0.54450782931197,-0.0478287516559306
0.51764646288745,-0.0307768422639734
0.53687378934855,-0.0392990439843744
0.512143547771549,-0.048733965506254
0.536451644986753,-0.0329921203474221
0.520765821174797,-0.0272291320015743
0.542563480761316,-0.0101693885164309
0.536901396422925,-0.0149307706770963
0.522764466243718,-0.0247201913542871
0.520406683575727,-0.0580661126589676
0.403166108617027,-0.130038647435721
0.503673622322813,-0.0177115587746813
0.516359014508171,-0.0453296307018932
0.65223442697209,0.0500142461193474
0.525875409296398,-0.0201488535518423
0.485318932508124,0.0168111757662999
0.535883489503876,0.00404225813638328
0.535685527072441,-0.0263091838116082
0.527581888701374,0.0246337745161791
0.523245062037963,-0.0307753377234229
0.527789456464646,-0.016259203237884
0.449549061898576,-0.0720161369524871
0.422716863317217,-0.115016717866011
0.503890014452989,-0.0333906824611623
0.521675778295777,-0.0198463826692755
0.497213207663376,-0.0358339319241855
0.520840363120597,-0.035916958101893
0.555676949184328,-0.00655422834323947
0.548494949509301,0.0242004562418779
0.541360794576584,-0.0203779386835094
0.539390319510796,-0.0231100487862797
0.514236583108563,-0.0564306071843867
0.50753137619884,-0.0669081927554734
0.529867997080736,-0.0127772985768801
0.484573338998239,-0.0245268498210686
0.42118376464306,-0.10214193786903
0.507292777312642,0.00390926222212747
0.509798448948086,-0.0093072578540653
0.507773202237268,0.0136117095313663
0.623120733649771,0.0509362751229156
0.507198372250088,0.00993071779859425
0.517226993042979,-0.0024893552403536
0.586785310950058,0.103659790700382
0.529360665862485,-0.00180619811295978
0.527529060906998,0.0131580367335378
0.517758480792565,0.00704781677436818
0.521810832162281,-0.00980756986758405
0.521105247023748,-0.00996823862477803
0.526204444580225,-0.0273757036852888
0.507032332193319,-0.00723934388633923
0.51877206366231,-0.0106607029525557
0.54959123925899,-0.0139888568692073
0.529084323447114,-0.0202489830505304
0.508268686604207,-0.00967536784802568
0.526902169072627,-0.0174524171916106
0.514156964983482,-0.0125451024080536
0.513124221297708,-0.0130358409438158
0.509633473419525,-0.00909474201232747
0.523325295614414,-0.0464770945880413
0.483914578513725,-0.00687454965468929
0.525486746693679,-0.0250126905237287
0.50740726929991,-0.016085195118776
0.519973892381917,-0.0342521386156657
0.504860746933127,-0.0175918613856229
0.515659436806277,0.00199012659045087
0.51315889691834,-0.0435298343440121
0.4074980501544,-0.132474680189398
0.499318739885603,-0.0211181592750648
0.599535432653515,0.083591454722734
0.496321913003006,-0.0231454616679397
0.499131947642703,-0.00214675235538304
0.493173642413281,-0.0253539802064368
0.491542506009206,-0.02652739408815
0.526244416401781,-0.0330018374472621
0.505823527224496,-0.0150067967176026
0.486536154965182,-0.0445964553032616
0.470507854734059,-0.0172119357787507
0.48281345739206,-0.033105186547061
0.480952387135965,-0.0345662456109096
0.460909771202175,-0.020635268492303
0.478082021278536,-0.0744183886615195
0.477752174751771,-0.0527311768492893
0.49083640712648,-0.0451272002296245
0.471066119373278,-0.0426254120633214
0.603115268336653,0.0862013025281505
0.365032466039371,-0.195125402798563
0.464666605575719,-0.0480812680744325
0.447305220961153,-0.0724411220565665
0.45552969002071,-0.0341658373228027
0.457913508631873,-0.0540182121539939
0.442732624705973,-0.0611792623293568
0.536797560310579,0.0416153297615646
0.540506957650602,0.0436159014468764
0.472858589302024,-0.0630918253121417
0.445875175157715,-0.0823446003771111
0.356930340541346,-0.184917907295079
0.442304872856569,-0.0606345101510082
0.443361155155455,-0.0812614872561456
0.435882120483467,-0.0921302480249926
0.421459546058743,-0.0715747273593511
0.430090449956406,-0.0801121711069613
0.400320965014743,-0.0771413934655018
0.424508984875017,-0.0856199897773642
0.418061621121852,-0.0805295224011581
0.323427509993138,-0.182576045150197
0.316732247327931,-0.186228012402029
0.493436764568471,-0.0232022430259557
0.409842842821329,-0.100467613860247
0.406786803992484,-0.103625787331713
0.375632948917567,-0.121149493240446
0.388736253185042,-0.121603846975552
0.397371556692644,-0.113486234672456
0.481532919012679,0.00481847410615115
0.390887943938838,-0.12038626623633
0.365774581312133,-0.129836184906242
0.384238123257485,-0.127551892418903
0.387612630056155,-0.162789164374288
0.385301582229774,-0.101526617079815
0.381790144073676,-0.114365305671517
0.370437173708425,-0.142695270180706
0.365949538391,-0.145878851045357
0.378498691599388,-0.151431097003967
0.372855004823524,-0.143555388647085
0.359095342495662,-0.174126368368637
0.35796780328555,-0.128347395964545
0.355672845714221,-0.208510806848064
0.363174050767297,-0.170541741882218
0.342188527524362,-0.164779922531745
0.425814199657364,-0.137638592016173
0.330372294842563,-0.14274400371822
0.330726693597406,-0.183202986328419
0.332411919462879,-0.205048997128516
0.400038342300981,-0.0834461942448203
0.276095816614636,-0.199959559357226
0.320604097152882,-0.22181841364773
0.308450838224682,-0.214659643003858
0.311347692540755,-0.189884651533031
0.321907321992704,-0.247001485551483
0.178960362761926,-0.346551567872592
0.291231775994745,-0.235651867059226
0.382011802817093,-0.160863414393865
0.247934371490807,-0.240253370329627
0.395093964096362,-0.157487750172794
0.273312984806356,-0.257905909616663
0.247243065744748,-0.276828325605975
0.264089513100422,-0.269515701296507
0.287658825644043,-0.271250098818693
0.254689095852091,-0.281452453757288
0.251928390570726,-0.292570482892983
0.262374418606048,-0.308385281539432
0.359738196737227,-0.185511813235043
0.238708101812826,-0.306480932355416
0.230409511883435,-0.31274995804082
0.261597158376603,-0.324090279838823
0.220384500316904,-0.325861276892857
0.236604043787999,-0.339023944200921
0.172179650569945,-0.358638064596239
0.205009337941992,-0.346174866255143
0.230885411626617,-0.359690022166867
0.194533154319787,-0.360153926489483
0.195502271130829,-0.341125467457208
0.195950295941157,-0.363332252677017
0.297688120649869,-0.294205035570547
0.173035186227765,-0.38917730777405
0.16754653801708,-0.396657879066833
0.153830342199673,-0.422244308348711
0.156431666957184,-0.411892048780366
0.173327078901788,-0.437538168830622
-0.0122852240311106,-0.579389330355529
0.136140126349967,-0.4235191952201
0.11302031787921,-0.429089449261865
0.135639679173722,-0.460326120897436
0.0938867893319503,-0.470204387957162
0.215719580102387,-0.352515340121681
0.110125550686891,-0.476539404734949
0.148486543600566,-0.522411019119794
0.0773867013906444,-0.480782480596144
0.0919930234083181,-0.502347096276542
0.101375071611937,-0.539670311774486
0.0699511187449893,-0.527706816351675
0.0734382090259383,-0.529028523440277
0.0223589549196687,-0.558089041271482
0.0626279373053971,-0.543223649335348
0.0754810597862241,-0.593460264657601
0.0480376507103177,-0.565985277039686
0.136764364745951,-0.480488118189013
-0.081217650233105,-0.708485915070965
0.0284886915527058,-0.59475576008505
0.0243122683638277,-0.618539203598934
0.015217393599631,-0.614444662912814
0.00850989540584556,-0.624443126835379
0.00175438588373969,-0.634544904994591
0.000240086068080802,-0.655341139375018
-0.0300529529964504,-0.630940900374849
0.0110218700721621,-0.678196281127219
0.0131175674241914,-0.64796155668574
-0.0327462677181515,-0.686620289150326
-0.0161356523350768,-0.697914823322197
-0.0495979646168509,-0.697568714820564
-0.0439209898329425,-0.699882067270091
-0.118025522192431,-0.69682913897083
-0.0684597876704491,-0.741350442693582
