0.981174374459472,-0.506165210492217
0.971242430199045,-0.509358358932498
0.961357100435712,-0.5124880130043
0.951518400157161,-0.515554484370381
0.941726344351083,-0.518558084693501
0.931980948005167,-0.521499125636417
0.922282226107101,-0.524377918861891
0.912630193644575,-0.52719477603268
0.903024865605279,-0.529950008811543
0.893466256976901,-0.53264392886124
0.883954382747131,-0.535276847844529
0.874489257903658,-0.53784907742417
0.865070897434171,-0.540360929262922
0.85569931632636,-0.542812715023543
0.846374529567913,-0.545204746368792
0.83709655214652,-0.547537334961428
0.82786539904987,-0.549810792464212
0.818681085265653,-0.552025430539901
0.809543625781557,-0.554181560851254
0.800453035585273,-0.556279495061031
0.791409329664488,-0.55831954483199
0.782412523006893,-0.560302021826891
0.773462630600176,-0.562227237708492
0.764559667432027,-0.564095504139553
0.755703648490136,-0.565907132782832
0.746894588762191,-0.567662435301089
0.738132503235881,-0.569361723357082
0.729417406898896,-0.571005308613571
0.720749314738925,-0.572593502733314
0.712128241743657,-0.574126617379071
0.703554202900782,-0.575604964213601
0.695027213197988,-0.577028854899661
0.686547287622966,-0.578398601100013
0.678114441163404,-0.579714514477414
0.669728688806991,-0.580976906694624
0.661390045541417,-0.5821860894144
0.653098526354371,-0.583342374299504
0.644854146233542,-0.584446073012693
0.636656920166619,-0.585497497216727
0.628506863141292,-0.586496958574364
0.62040399014525,-0.587444768748364
0.612348316166182,-0.588341239401485
0.604339856191778,-0.589186682196487
0.596378625209726,-0.589981408796128
0.588464638207716,-0.590725730863168
0.580597910173437,-0.591419960060366
0.572778456094578,-0.59206440805048
0.565006290958829,-0.592659386496269
0.557281429753879,-0.593205207060494
0.549603887467416,-0.593702181405911
0.541973679087131,-0.594150621195282
0.534390819600713,-0.594550838091363
0.52685532399585,-0.594903143756916
0.519367207260232,-0.595207849854698
0.511926484381548,-0.595465268047468
0.504533170347488,-0.595675709997986
0.497187280145741,-0.595839487369011
0.489888828763995,-0.595956911823302
0.482637831189941,-0.596028295023616
0.475434302411267,-0.596053948632715
0.468278257415663,-0.596034184313356
0.461169711190818,-0.595969313728299
0.45410867872442,-0.595859648540302
0.44709517500416,-0.595705500412124
0.440129215017727,-0.595507181006526
0.43321081375281,-0.595265001986265
0.426339986197097,-0.594979275014101
0.419516747338279,-0.594650311752792
0.412741112164045,-0.594278423865098
0.406013095662083,-0.593863923013777
0.399332712820083,-0.593407120861589
0.392699978625735,-0.592908329071293
0.386114908066727,-0.592367859305647
0.379577516130749,-0.591786023227411
0.373087817805489,-0.591163132499343
0.366645828078638,-0.590499498784203
0.360251561937885,-0.58979543374475
0.353905034370918,-0.589051249043743
0.347606260365427,-0.58826725634394
0.341355254909102,-0.5874437673081
0.33515203298963,-0.586581093598983
0.328996609594703,-0.585679546879348
0.322888999712008,-0.584739438811954
0.316829218329235,-0.583761081059559
0.310817280434074,-0.582744785284923
0.304853201014213,-0.581690863150804
0.298936995057342,-0.580599626319962
0.29306867755115,-0.579471386455156
0.287248263483327,-0.578306455219144
0.281475767841561,-0.577105144274686
0.275751205613542,-0.575867765284541
0.270074591786959,-0.574594629911467
0.264445941349501,-0.573286049818224
0.258865269288858,-0.571942336667571
0.253332590592718,-0.570563802122266
0.247847920248771,-0.569150757845069
0.242411273244707,-0.567703515498739
0.237022664568214,-0.566222386746034
0.231682109206982,-0.564707683249714
0.2263896221487,-0.563159716672537
0.221145218381056,-0.561578798677264
0.215948912891742,-0.559965240926652
0.210800720668445,-0.55831935508346
0.205700656698854,-0.556641452810449
0.20064873597066,-0.554931845770376
0.195644973471552,-0.553190845626
0.190689384189218,-0.551418764040082
0.185781983111347,-0.549615912675379
0.18092278522563,-0.54778260319465
0.176111805519755,-0.545919147260656
0.171349058981412,-0.544025856536154
0.166634560598289,-0.542103042683904
0.161968325358077,-0.540151017366664
0.157350368248464,-0.538170092247195
0.152780704257139,-0.536160578988254
0.148259348371792,-0.5341227892526
0.143786315580112,-0.532057034702993
0.139361620869788,-0.529963627002193
0.134985279228509,-0.527842877812956
0.130657305643966,-0.525695098798044
0.126377715103846,-0.523520601620214
0.12214652259584,-0.521319697942226
0.117963743107635,-0.519092699426839
0.113829391626923,-0.516839917736811
0.109743483141391,-0.514561664534902
0.10570603263873,-0.512258251483871
0.101717055106627,-0.509929990246476
0.0977765655327738,-0.507577192485477
0.0938845789048582,-0.505200169863633
0.0900411102105695,-0.502799234043703
0.0862461744375972,-0.500374696688446
0.0824997865736304,-0.49792686946062
0.0788019616063584,-0.495456064022985
0.0751527145234704,-0.4929625920383
0.0715520603126557,-0.490446765169323
0.0680000139616034,-0.487908895078814
0.064496590458003,-0.485349293429532
0.0610418047895435,-0.482768271884236
0.0576356719439142,-0.480166142105684
0.0542782069088044,-0.477543215756636
0.0509694246719032,-0.474899804499851
0.0477093402209001,-0.472236219998088
0.044497968543484,-0.469552773914105
0.0413353246273443,-0.466849777910663
0.0382214234601703,-0.464127543650519
0.0351562800296512,-0.461386382796433
0.0321399093234762,-0.458626607011163
0.0291723263293346,-0.455848527957469
0.0262535460349156,-0.453052457298111
0.0233835834279083,-0.450238706695846
0.0205624534960022,-0.447407587813433
0.0177901712268864,-0.444559412313632
0.0150667516082501,-0.441694491859203
0.0123922096277826,-0.438813138112903
0.00976656027317319,-0.435915662737492
0.00718981853211095,-0.433002377395728
0.00466199939228522,-0.430073593750372
0.00218311784138533,-0.427129623464181
-0.000246811132899705,-0.424170778199915
-0.00262777254288049,-0.421197369620332
-0.00495975140086781,-0.418209709388193
-0.0072427327191724,-0.415208109166256
-0.00947670151010516,-0.412192880617279
-0.0116616427859767,-0.409164335404022
-0.0137975415590978,-0.406122785189243
-0.0158843828417793,-0.403068541635703
-0.0179221516463319,-0.40000191640616
-0.0199108329850664,-0.396923221163372
-0.0218504118702936,-0.393832767570099
-0.0237408733143241,-0.3907308672891
-0.0255822023294688,-0.387617831983133
-0.0273743839280385,-0.384493973314959
-0.0291174031223438,-0.381359602947335
-0.0308112449246956,-0.378215032543022
-0.0324558943474046,-0.375060573764777
-0.0340513364027815,-0.371896538275359
-0.0355975561031373,-0.368723237737529
-0.0370945384607824,-0.365540983814045
-0.038542268488028,-0.362350088167665
-0.0399407311971845,-0.359150862461149
-0.0412899116005628,-0.355943618357256
-0.0425897947104736,-0.352728667518745
-0.0438403655392278,-0.349506321608375
-0.045041609099136,-0.346276892288905
-0.046193510402509,-0.343040691223093
-0.0472960544616577,-0.3397980300737
-0.0483492262888927,-0.336549220503483
-0.0493530108965248,-0.333294574175202
-0.0503073932968649,-0.330034402751615
-0.0512123585022235,-0.326769017895483
-0.0520678915249116,-0.323498731269564
-0.0528739773772398,-0.320223854536616
-0.053630601071519,-0.3169446993594
-0.0543377476200599,-0.313661577400673
-0.0549954020351732,-0.310374800323195
-0.0556035493291698,-0.307084679789725
-0.0561621745143603,-0.303791527463022
-0.0566712626030555,-0.300495655005845
-0.0571307986075663,-0.297197374080952
-0.0575407675402033,-0.293896996351104
-0.0579011544132774,-0.290594833479058
-0.0582119442390992,-0.287291197127575
-0.0584731220299796,-0.283986398959412
-0.0586846727982293,-0.280680750637329
-0.058846581556159,-0.277374563824085
-0.0589588333160797,-0.274068150182439
-0.0590214130903019,-0.27076182137515
-0.0590343058911364,-0.267455889064976
-0.0589974967308941,-0.264150664914678
-0.0589109706218857,-0.260846460587013
-0.0587747125764219,-0.257543587744742
-0.0585887076068135,-0.254242358050622
-0.0583529407253713,-0.250943083167413
-0.0580673969444061,-0.247646074757875
-0.0577320612762285,-0.244351644484765
-0.0573469187331494,-0.241060104010843
-0.0569119543274795,-0.237771764998868
-0.0564271530715296,-0.234486939111598
-0.0558924999776104,-0.231205938011794
-0.0553079800580327,-0.227929073362214
-0.0546735783251073,-0.224656656825617
-0.0539892797911449,-0.221389000064761
-0.0532550694684563,-0.218126414742407
-0.0524709323693523,-0.214869212521312
-0.0516368535061436,-0.211617705064236
-0.0507528178911409,-0.208372204033939
-0.0498188105366551,-0.205133021093178
-0.0488348164549969,-0.201900467904713
-0.0478008206584771,-0.198674856131303
-0.0467168081594063,-0.195456497435707
-0.0455827639700955,-0.192245703480684
-0.0443986731028553,-0.189042785928993
-0.0431645205699965,-0.185848056443393
-0.0418802913838299,-0.182661826686643
-0.0405459705566662,-0.179484408321502
-0.0391615431008162,-0.176316113010729
-0.0377269940285907,-0.173157252417083
-0.0362423083523004,-0.170008138203323
-0.034707471084256,-0.166869082032207
-0.0331224672367684,-0.163740395566496
-0.0314872818221485,-0.160622390468948
-0.0298018998527065,-0.157515378402321
-0.0280663063407538,-0.154419671029376
-0.0262804862986008,-0.151335580012871
-0.0244444247385584,-0.148263417015564
-0.0225581066729372,-0.145203493700216
-0.0206215171140482,-0.142156121729585
-0.018634641074202,-0.139121612766429
-0.0165974635657094,-0.136100278473509
-0.0145099696008811,-0.133092430513582
-0.012372144192028,-0.130098380549409
-0.0101839723514607,-0.127118440243747
-0.00794543909149022,-0.124152921259357
-0.00565652942442699,-0.121202135258996
-0.00331722836258205,-0.118266393905425
-0.000927520918265937,-0.115346008861402
0.00151260789621044,-0.112441291789685
0.0040031730685364,-0.109552554353035
0.00654418958640103,-0.106680108214209
0.00913567243749375,-0.103824265035968
0.0117776366095036,-0.10098533648107
0.0144700970901202,-0.0981636342122731
0.0172130688670323,-0.0953594698923379
0.0200065669279295,-0.0925731551840225
0.0228506062605009,-0.0898050017500863
0.0257452018524356,-0.087055321253288
0.0286903686914231,-0.0843244253563868
0.0316861217651526,-0.0816126257221415
0.0347324760613131,-0.0789202340133114
0.0378294465675942,-0.0762475618926552
0.0409770482716847,-0.0735949210229322
0.0441752961612743,-0.0709626230669011
0.0474242052240517,-0.0683509796873212
0.0507237904477068,-0.0657603025469511
0.0540740668199282,-0.0631909033085503
0.0574750493284057,-0.0606430936348774
0.0609267529608281,-0.0581171851886916
0.0644291927048849,-0.0556134896327518
0.0679823835482651,-0.0531323186298172
0.0715863404786581,-0.0506739838426464
0.0752410784837531,-0.0482387969339989
0.0789466125512396,-0.0458270695666333
0.0827029576688063,-0.0434391134033089
0.0865101288241429,-0.0410752401067845
0.0903681410049383,-0.0387357613398192
0.0942770091988821,-0.0364209887651719
0.0982367483936632,-0.0341312340456018
0.102247373576971,-0.0318668088438677
0.106308899736495,-0.0296280248227287
0.110421341859924,-0.0274151936449437
0.114584714934947,-0.0252286269732718
0.118799033949254,-0.023068636470472
0.123064313890534,-0.0209355337993034
0.127380569746476,-0.0188296306225247
0.131747816504769,-0.0167512386028952
0.136166069153103,-0.0147006694031738
0.140635342679167,-0.0126782346861195
0.145155652070649,-0.0106842461144912
0.14972701231524,-0.00871901535104812
0.154349438400629,-0.00678285405854904
0.159022945314504,-0.00487607389975317
0.163747548044556,-0.00299898653741929
0.168523261578472,-0.00115190363430661
0.173350100903944,0.000664863146826039
0.178228081008658,0.0024510021432195
0.183157216880306,0.00420620169211491
0.188137523506576,0.00593015013075315
0.193169015875158,0.00762253579637534
0.19825170897374,0.00928304702622235
0.203385617790012,0.0109113721575353
0.208570757311663,0.012507199527555
0.213807142526383,0.0140702174735227
0.21909478842186,0.0156001143326792
0.224433709985784,0.0170965784422656
0.229823922205844,0.0185592981395228
0.23526544006973,0.019987961761692
0.24075827856513,0.021382257646014
0.246302452679734,0.0227418741297299
0.251897977401231,0.0240664995500806
0.257544867717311,0.0253558222443071
0.263243138615661,0.0266095305496505
0.268992805083973,0.0278273128033518
0.274793882109935,0.0290088573426519
0.280646384681236,0.0301538525047919
0.286550327785565,0.0312619866270127
0.292505726410612,0.0323329480465554
0.298512595544066,0.0333664251006609
0.304570950173617,0.0343621061265702
0.310680805286953,0.0353196794615244
0.316842175871763,0.0362388334427644
0.323055076915737,0.0371192564075312
0.329319523406565,0.0379606366930659
0.335635530331935,0.0387626626366094
0.342003112679536,0.0395250225754027
0.348422285437059,0.0402474048466869
0.354893063592191,0.0409294977877028
0.361415462132623,0.0415709897356916
0.367989496046044,0.0421715690278942
0.374615180320142,0.0427309240015516
0.381292529942607,0.0432487429939049
0.388021559901129,0.0437247143421949
0.394802285183396,0.0441585263836628
0.401634720777098,0.0445498674555494
0.408518881669924,0.0448984258950959
0.415454782849563,0.0452038900395432
0.422442439303705,0.0454659482261323
0.429481866020038,0.0456842887921041
0.436573077986253,0.0458586000746998
0.443716090190037,0.0459885704111602
0.450910917619081,0.0460738881387265
0.458157575261074,0.0461142415946395
0.465456078103705,0.0461093191161403
0.472806441134662,0.04605880904047
0.480208679341637,0.0459623997048693
0.487662807712316,0.0458197794465795
0.495168841234391,0.0456306366028415
0.50272679489555,0.0453946595108962
0.510336683683482,0.0451115365079847
0.517998522585877,0.044780955931348
0.525712326590423,0.044402606118227
0.533478110684811,0.0439761754058628
0.541295889856729,0.0435013521314964
0.549165679093866,0.0429778246323687
0.557087493383912,0.0424052812457208
0.565061347714556,0.0417834103087937
0.573087257073488,0.0411119001588283
0.581165236448396,0.0403904391330657
0.589295300826969,0.0396187155687468
0.597477465196898,0.0387964178031127
0.605711744545871,0.0379232341734043
0.613998153861577,0.0369988530168627
0.622336708131706,0.0360229626707288
0.630727422343947,0.0349952514722437
0.639170311485989,0.0339154077586483
0.647665390545521,0.0327831198671836
0.656212674510234,0.0315980761350907
0.664812178367814,0.0303599648996105
0.673463917105953,0.029068474497984
0.68216790571234,0.0277232932674523
0.690924159174663,0.0263241095452562
0.699732692480611,0.024870611668637
0.708593520617875,0.0233624879748354
0.717506658574143,0.0217994268010926
0.726472121337105,0.0201811164846494
0.735489923894449,0.0185072453627471
0.744560081233866,0.0167775017726263
0.753682608343043,0.0149915740515284
0.762857520209672,0.0131491505366941
0.772084831821439,0.0112499195653646
0.781364558166036,0.00929356947478067
0.790696714231151,0.00727978860218356
0.800081315004474,0.00520826528481406
0.809518375473693,0.00307868785991336
0.819007910626498,0.000890744664722251
0.828549935450578,-0.00135587596351806
0.838144464933623,-0.00366148568756678
0.847791514063321,-0.00602639617018271
0.857491097827362,-0.00845091907412505
0.867243231213435,-0.0109353660621526
0.87704792920923,-0.0134800487970246
