-0.223100720785588,-0.00484424453753118
-0.214000064166788,-0.0116309515098511
-0.205002485919657,-0.0183503948797358
-0.196107546077203,-0.02500276436676
-0.187314804672434,-0.0315882496904983
-0.17862382173836,-0.038107040570525
-0.170034157307988,-0.0445593267264149
-0.161545371414328,-0.0509452978777424
-0.153157024090389,-0.0572651437440821
-0.144868675369178,-0.0635190540450086
-0.136679885283706,-0.0697072185000964
-0.128590213866979,-0.07582982682892
-0.120599221152008,-0.081887068751054
-0.112706467171801,-0.0878791339860731
-0.104911511959366,-0.0938062122535516
-0.0972139155477121,-0.0996684932730641
-0.0896132379698483,-0.105466166764185
-0.0821090392587831,-0.11119942244649
-0.074700879447525,-0.116868450039552
-0.067388318569083,-0.122473439262946
-0.0601709166564657,-0.128014579836247
-0.0530482337426818,-0.13349206147903
-0.0460198298607398,-0.138906073910868
-0.0390852650436486,-0.144256806851337
-0.0322440993244168,-0.149544450020011
-0.0254958927360531,-0.154769193136465
-0.0188402053115662,-0.159931225920272
-0.0122765970839649,-0.165030738091009
-0.00580462808625763,-0.170067919368248
0.000576141648546649,-0.175042959471566
0.00686615208743935,-0.179956048120535
0.0130658431974118,-0.184807375034732
0.0191756549454553,-0.18959712993373
0.0251960272985612,-0.194325502537104
0.0311274002237207,-0.198992682564428
0.0369702136879251,-0.203598859735278
0.0427249076581658,-0.208144223769227
0.0483919221014341,-0.21262896438585
0.0539716969847214,-0.217053271304723
0.0594646722750188,-0.221417334245418
0.0648712879393176,-0.225721342927511
0.0701919839446093,-0.229965487070577
0.0754272002578851,-0.23414995639419
0.0805773768461364,-0.238274940617924
0.0856429536763544,-0.242340629461354
0.0906243707155303,-0.246347212644055
0.0955220679306557,-0.250294879885601
0.100336485288722,-0.254183820905566
0.10506806275672,-0.258014225423526
0.109717240301641,-0.261786283159055
0.114284457890477,-0.265500183831727
0.118770155490218,-0.269156117161117
0.123174773067857,-0.2727542728668
0.127498750590385,-0.276294840668349
0.131742528024792,-0.27977801028534
0.13590654533807,-0.283203971437347
0.139991242497211,-0.286572913843945
0.143997059469206,-0.289885027224708
0.147924436221045,-0.293140501299211
0.151773812719721,-0.296339525787028
0.155545628932225,-0.299482290407734
0.159240324825547,-0.302568984880904
0.16285834036668,-0.305599798926111
0.166400115522614,-0.308574922262931
0.169866090260341,-0.311494544610938
0.173256704546853,-0.314358855689707
0.17657239834914,-0.317168045218811
0.179813611634194,-0.319922302917827
0.182980784369006,-0.322621818506328
0.186074356520567,-0.325266781703888
0.189094768055869,-0.327857382230083
0.192042458941903,-0.330393809804487
0.19491786914566,-0.332876254146675
0.197721438634133,-0.33530490497622
0.200453607374311,-0.337679952012698
0.203114815333186,-0.340001584975684
0.20570550247775,-0.342269993584751
0.208226108774994,-0.344485367559474
0.210677074191909,-0.346647896619428
0.213058838695486,-0.348757770484187
0.215371842252717,-0.350815178873326
0.217616524830594,-0.35282031150642
0.219793326396107,-0.354773358103043
0.221902686916247,-0.356674508382769
0.223945046358007,-0.358523952065173
0.225920844688377,-0.36032187886983
0.227830521874349,-0.362068478516314
0.229674517882913,-0.3637639407242
0.231453272681062,-0.365408455213062
0.233167226235787,-0.367002211702475
0.234816818514078,-0.368545399912014
0.236402489482928,-0.370038209561252
0.237924679109327,-0.371480830369765
0.239383827360267,-0.372873452057128
0.240780374202739,-0.374216264342913
0.242114759603734,-0.375509456946697
0.243387423530244,-0.376753219588054
0.24459880594926,-0.377947741986557
0.245749346827774,-0.379093213861783
0.246839486132776,-0.380189824933305
0.247869663831258,-0.381237764920698
0.248840319890212,-0.382237223543537
0.249751894276628,-0.383188390521395
0.250604826957498,-0.384091455573848
0.251399557899813,-0.38494660842047
0.252136527070565,-0.385754038780836
0.252816174436744,-0.38651393637452
0.253438939965343,-0.387226490921097
0.254005263623352,-0.387891892140141
0.254515585377763,-0.388510329751227
0.254970345195566,-0.38908199347393
0.255369983043754,-0.389607073027823
0.255714938889318,-0.390085758132482
0.256005652699249,-0.390518238507481
0.256242564440538,-0.390904703872395
0.256426114080177,-0.391245343946798
0.256556741585156,-0.391540348450265
0.256634886922468,-0.39178990710237
0.256660990059103,-0.391994209622688
0.256635490962053,-0.392153445730793
0.25655882959831,-0.39226780514626
0.256431445934863,-0.392337477588664
0.256253779938706,-0.392362652777579
0.256026271576828,-0.392343520432579
0.255749360816222,-0.39228027027324
0.255423487623878,-0.392173092019135
0.255049091966789,-0.392022175389839
0.254626613811944,-0.391827710104927
0.254156493126337,-0.391589885883974
0.253639169876957,-0.391308892446554
0.253075084030796,-0.390984919512241
0.252464675554846,-0.39061815680061
0.251808384416098,-0.390208794031236
0.251106650581542,-0.389757020923692
0.250359914018172,-0.389263027197555
0.249568614692977,-0.388727002572397
0.248733192572949,-0.388149136767795
0.247854087625079,-0.387529619503322
0.246931739816359,-0.386868640498552
0.24596658911378,-0.386166389473061
0.244959075484334,-0.385423056146423
0.24390963889501,-0.384638830238213
0.242818719312802,-0.383813901468004
0.2416867567047,-0.382948459555373
0.240514191037696,-0.382042694219892
0.23930146227878,-0.381096795181137
0.238049010394944,-0.380110952158683
0.23675727535318,-0.379085354872103
0.235426697120479,-0.378020193040973
0.234057715663832,-0.376915656384866
0.23265077095023,-0.375771934623358
0.231206302946664,-0.374589217476023
0.229724751620127,-0.373367694662436
0.228206556937609,-0.372107555902171
0.226652158866101,-0.370808990914803
0.225061997372596,-0.369472189419905
0.223436512424083,-0.368097341137054
0.221776143987556,-0.366684635785823
0.220081332030004,-0.365234263085787
0.218352516518419,-0.36374641275652
0.216590137419792,-0.362221274517598
0.214794634701116,-0.360659038088594
0.21296644832938,-0.359059893189083
0.211106018271576,-0.357424029538639
0.209213784494697,-0.355751636856838
0.207290186965732,-0.354042904863254
0.205335665651674,-0.352298023277461
0.203350660519513,-0.350517181819033
0.201335611536241,-0.348700570207547
0.199290958668849,-0.346848378162575
0.197217141884329,-0.344960795403693
0.195114601149672,-0.343038011650474
0.192983776431868,-0.341080216622495
0.190825107697911,-0.339087600039328
0.18863903491479,-0.337060351620549
0.186425998049496,-0.334998661085733
0.184186437069023,-0.332902718154453
0.18192079194036,-0.330772712546285
0.179629502630499,-0.328608833980803
0.177313009106431,-0.326411272177581
0.174971751335148,-0.324180216856194
0.172606169283641,-0.321915857736217
0.170216702918901,-0.319618384537224
0.167803792207919,-0.317287986978789
0.165367877117687,-0.314924854780488
0.162909397615197,-0.312529177661895
0.160428793667439,-0.310101145342584
0.157926505241404,-0.30764094754213
0.155402972304085,-0.305148773980107
0.152858634822472,-0.30262481437609
0.150293932763557,-0.300069258449654
0.14770930609433,-0.297482295920373
0.145105194781784,-0.294864116507821
0.14248203879291,-0.292214909931574
0.139840278094698,-0.289534865911206
0.137180352654141,-0.28682417416629
0.134502702438229,-0.284083024416403
0.131807767413954,-0.281311606381118
0.129095987548307,-0.27851010978001
0.12636780280828,-0.275678724332654
0.123623653160863,-0.272817639758623
0.120863978573048,-0.269927045777493
0.118089219011827,-0.267007132108839
0.115299814444191,-0.264058088472234
0.11249620483713,-0.261080104587253
0.109678830157637,-0.258073370173471
0.106848130372702,-0.255038074950463
0.104004545449317,-0.251974408637802
0.101148515354473,-0.248882560955064
0.0982804800551622,-0.245762721621823
0.0954008795183749,-0.242615080357653
0.0925101537111027,-0.23943982688213
0.089608742600337,-0.236237150914827
0.0866970861530689,-0.233007242175319
0.0837756243362901,-0.229750290383182
0.0808447971169914,-0.226466485257988
0.0779050444621646,-0.223156016519314
0.0749568063388006,-0.219819073886733
0.072000522713891,-0.21645584707982
0.0690366335544269,-0.213066525818149
0.0660655788273999,-0.209651299821295
0.0630877984998009,-0.206210358808833
0.0601037325386215,-0.202743892500338
0.0571138209108529,-0.199252090615383
0.0541185035834865,-0.195735142873543
0.0511182205235133,-0.192193238994393
0.0481134116979251,-0.188626568697508
0.0451045170737129,-0.185035321702461
0.0420919766178681,-0.181419687728828
0.0390762302973818,-0.177779856496183
0.0360577180792457,-0.174116017724101
0.0330368799304508,-0.170428361132156
0.0300141558179885,-0.166717076439922
0.0269899857088501,-0.162982353366975
0.0239648095700269,-0.159224381632889
0.0209390673685101,-0.155443350957237
0.0179131990712914,-0.151639451059596
0.0148876446453616,-0.147812871659539
0.0118628440577124,-0.143963802476642
0.00883923727533475,-0.140092433230477
0.00581726426522036,-0.136198953640621
0.00279736499436019,-0.132283553426648
-0.000220020570254206,-0.128346422308132
-0.00323445246163168,-0.124387750004647
-0.00624549071278079,-0.120407726235769
-0.00925269535671043,-0.116406540721072
-0.012255626426429,-0.11238438318013
-0.0152538439549456,-0.108341443332518
-0.0182469079752684,-0.104277910897811
-0.0212343785204066,-0.100193975595582
-0.0242158156233685,-0.0960898271454078
-0.0271907793171631,-0.0919656552668612
-0.0301588296347988,-0.0878216496795175
-0.0331195266092845,-0.0836580001029509
-0.0360724302736289,-0.0794748962567363
-0.0390171006608406,-0.075272527860448
-0.0419530978039282,-0.0710510846336607
-0.0448799817359007,-0.0668107562959487
-0.0477973124897664,-0.0625517325668869
-0.0507046500985344,-0.0582742031660495
-0.053601554595213,-0.0539783578130116
-0.0564875860128113,-0.049664386227347
-0.0593623043843375,-0.0453324781286309
-0.0622252697428008,-0.0409828232364374
-0.0650760421212095,-0.0366156112703415
-0.0679141815525726,-0.0322310319499171
-0.0707392480698985,-0.0278292749947395
-0.0735508017061961,-0.0234105301243827
-0.0763484024944739,-0.0189749870584216
-0.0791316104677409,-0.0145228355164304
-0.0818999856590055,-0.0100542652179841
-0.0846530881012766,-0.00556946588265672
-0.0873904778275627,-0.00106862723002329
-0.0901117148708726,0.00344806102034192
-0.092816359264215,0.00798040914886419
-0.0955039710405986,0.0125282274359692
-0.098174110233032,0.0170913261620821
-0.100826336874524,0.0216695156076287
-0.103460210998083,0.0262626060530339
-0.106075292636718,0.0308704077787239
-0.108671141823438,0.0354927310651234
-0.111247318591251,0.0401293861926584
-0.113803382973166,0.044780183441754
-0.116338895002192,0.0494449330928359
-0.118853414711337,0.0541234454263293
-0.121346502133611,0.05881553072266
-0.123817717302021,0.0635209992622529
-0.126266620249577,0.0682396613255341
-0.128692771009286,0.0729713271929285
-0.131095729614159,0.0777158071448619
-0.133475056097203,0.0824729114617595
-0.135830310491428,0.0872424504240471
-0.138161052829841,0.0920242343121497
-0.140466843145452,0.0968180734064932
-0.142747241471269,0.101623777987502
-0.145001807840302,0.106441158335604
-0.147230102285558,0.111270024731222
-0.149431684840046,0.116110187454782
-0.151606115536775,0.120961456786711
-0.153752954408755,0.125823643007433
-0.155871761488993,0.130696556397373
-0.157962096810498,0.135580007236958
-0.160023520406278,0.140473805806612
-0.162055592309344,0.145377762386762
-0.164057872552702,0.150291687257833
-0.166029921169363,0.155215390700249
-0.167971298192334,0.160148682994437
-0.169881563654625,0.165091374420822
-0.171760277589243,0.170043275259829
-0.173607000029198,0.175004195791884
-0.175421291007499,0.179973946297412
-0.177202710557154,0.18495233705684
-0.178950818711171,0.189939178350591
-0.18066517550256,0.194934280459092
-0.182345340964329,0.199937453662768
-0.183990875129487,0.204948508242045
-0.185601338031043,0.209967254477347
-0.187176289702005,0.214993502649101
-0.188715290175381,0.220027063037732
-0.190217899484182,0.225067745923666
-0.191683677661414,0.230115361587327
-0.193112184740088,0.235169720309141
-0.194502980753211,0.240230632369534
-0.195855625733793,0.245297908048931
-0.197169679714842,0.250371357627758
-0.198444702729367,0.25545079138644
-0.199680254810376,0.260536019605402
-0.200875895990878,0.26562685256507
-0.202031186303882,0.270723100545869
-0.203145685782397,0.275824573828226
-0.204218954459431,0.280931082692564
-0.205250552367993,0.286042437419311
-0.206240039541091,0.29115844828889
-0.207186976011735,0.296278925581728
-0.208090921812933,0.30140367957825
-0.208951436977694,0.306532520558882
-0.209768081539025,0.311665258804049
-0.210540415529937,0.316801704594176
-0.211267998983438,0.321941668209689
-0.211950391932537,0.327084959931013
-0.212587154410241,0.332231390038574
-0.21317784644956,0.337380768812797
-0.213722028083503,0.342532906534108
-0.214219259345078,0.347687613482932
-0.214669100267294,0.352844699939694
-0.21507111088316,0.358003976184821
-0.215424851225684,0.363165252498737
-0.215729881327875,0.368328339161868
-0.215985761222741,0.373493046454639
-0.216192050943293,0.378659184657476
-0.216348310522537,0.383826564050804
-0.216454099993483,0.388994994915049
-0.216508979389139,0.394164287530636
-0.216512508742515,0.399334252177991
-0.216464248086618,0.404504699137539
-0.216363757454458,0.409675438689705
-0.216210596879043,0.414846281114915
-0.216004326393382,0.420017036693595
-0.215744506030484,0.425187515706169
-0.215430695823357,0.430357528433064
-0.21506245580501,0.435526885154704
-0.214639346008452,0.440695396151515
-0.214160926466691,0.445862871703924
-0.213626757212737,0.451029122092354
-0.213036398279597,0.456193957597232
-0.21238940970028,0.461357188498983
-0.211685351507796,0.466518625078032
-0.210923783735152,0.471678077614805
-0.210104266415358,0.476835356389727
-0.209226359581423,0.481990271683225
-0.208289623266354,0.487142633775722
-0.207293617503161,0.492292252947645
-0.206237902324852,0.497438939479419
-0.205122037764436,0.50258250365147
-0.203945583854922,0.507722755744222
-0.202708100629319,0.512859506038103
-0.201409148120634,0.517992564813536
-0.200048286361877,0.523121742350947
-0.198625075386057,0.528246848930762
-0.197139075226181,0.533367694833407
-0.19558984591526,0.538484090339306
-0.193976947486301,0.543595845728886
-0.192299939972314,0.548702771282571
-0.190558383406306,0.553804677280787
-0.188751837821287,0.558901374003959
-0.186879863250265,0.563992671732514
-0.18494201972625,0.569078380746876
-0.182937867282249,0.574158311327471
-0.180866965951271,0.579232273754724
-0.178728875766325,0.58430007830906
-0.176523156760421,0.589361535270907
-0.174249368966565,0.594416454920687
-0.171907072417768,0.599464647538828
-0.169495827147038,0.604505923405754
-0.167015193187383,0.609540092801891
-0.164464730571813,0.614566966007665
-0.161843999333335,0.619586353303501
-0.159152559504959,0.624598064969823
-0.156389971119694,0.629601911287059
-0.153555794210547,0.634597702535633
