0.375372305069688,-0.260379920104225
0.391441120530597,-0.195736687415409
0.405982318571618,-0.140185082621849
0.419059503929007,-0.0933292463428287
0.433054752739261,-0.0873682770720329
0.39931163606957,-0.0404066281176192
0.439800217903755,0.0289164285998109
0.504714117026559,0.0519946347157771
0.49775348068619,0.0716407942215047
0.433058528137475,0.0115170844406813
0.474950244134579,0.0244322771834856
0.517448025908518,0.0119447462761922
0.481368382864387,0.00238049483247531
0.448926295273892,-0.0558501278832065
0.484474660309925,-0.0386199863479933
0.484944862891734,-0.0652363405474808
0.508258849272799,-0.119239152260989
0.4352792527447,-0.089084980514471
0.482786982908396,-0.164799545014347
0.44820717560259,-0.163419061932496
0.494705168014789,-0.238195001133339
0.509361458347376,-0.298623789987101
0.513481991085947,-0.331069535320644
0.50675010387527,-0.341349574087527
0.453688621390984,-0.392925144414571
0.465098359015727,-0.461310895810646
0.415590209743093,-0.55374602917956
0.450869149728356,-0.564136874916388
0.418833031902917,-0.610349878941069
0.447653361801951,-0.615473970368287
0.41597514478414,-0.62455046855087
0.447457164909583,-0.697208570641218
0.472906870730077,-0.705763564262269
0.476913862600101,-0.720988198600638
0.445329399941757,-0.794090723710159
0.439636297984105,-0.852317010264713
0.445588504003716,-0.834513138995851
0.409960421904688,-0.871106548687405
0.479882926276877,-0.811787947040144
0.482073706242297,-0.885966380787814
