0.53809739794729,-0.716320961061036
0.529894315570611,-0.60767682664235
0.517091062210263,-0.510610448239868
0.500065131477556,-0.424558439038166
0.588228262524272,-0.243704178516455
0.454855212340303,-0.283243980975408
0.427426211158378,-0.226854758483504
0.397284507049334,-0.179226357930684
0.364807593624481,-0.139795392501525
0.33037296449513,-0.107998475380603
0.294358113272591,-0.0832722197524924
0.145050870447874,-0.175572233343666
0.219097718993187,-0.0527781457130133
0.180607163158943,-0.0458835536707965
0.142046359676752,-0.0438060758596961
0.103792802157923,-0.0459823254642882
0.0662239842137662,-0.0518489156691488
0.0297173994555923,-0.0608424596588538
-0.00534945850528876,-0.0723995706179792
-0.0132356532617909,-0.105975636323305
-0.174695614925345,-0.205511897840221
-0.068479010912941,-0.113952640387464
-0.120359373523937,-0.15421376779097
-0.145875569954446,-0.148920091415073
-0.169927664950495,-0.142732682111694
-0.273663059822884,-0.300501806328572
-0.173502803803954,-0.193251639567151
-0.165093725003041,-0.221489462840599
-0.193784469774759,-0.205021764134078
-0.175559147848579,-0.2040456446994
-0.275809217337708,-0.302532626197931
-0.153845750354172,-0.192228867777483
-0.114471940383374,-0.190245155072558
-0.0809882542670062,-0.177376106656277
-0.0625815546184727,-0.146234812419183
0.108944025743726,-0.0147490997685436
0.0399830974295048,-0.0765365500697728
0.123936398861272,-0.00775267202970812
0.171116452556885,0.0381767425761806
0.25936460012114,0.0904751794201689
0.34181704888907,0.157139882476591
0.431367825976208,0.231515167671185
0.508221878077175,0.297553286505759
0.573039267349966,0.339142458346166
0.732412721566283,0.506561075864888
0.691155348863824,0.474507592738849
0.831163295221434,0.583345615537848
0.723217608134109,0.513612967406261
0.746225993992301,0.518295505194937
0.794958578918633,0.557320896149335
0.738576804564469,0.563182815517391
0.728387060233042,0.568234899847693
0.71155097501392,0.568071698425955
0.688673587316952,0.563005399312974
0.660359935551986,0.553348190569548
0.627215058128869,0.539412260256475
0.589843993457448,0.521509796434553
0.548851779947572,0.499952987164579
0.504843456009087,0.475054020507353
0.458424060051843,0.447125084523671
0.410198630485687,0.416478367274331
0.360772205720465,0.383426056820132
0.428573242198929,0.441778257187235
0.260736524232219,0.311353408540346
0.21133734432889,0.272957446836355
0.163157322865887,0.233404644170696
0.00508766394841219,0.0764742477624754
0.0728749089002501,0.152077268197566
0.0319825932173117,0.11092707101169
-0.00527041038590967,0.0698687851073382
-0.155833801373246,-0.070385358612784
-0.0664383277138107,-0.0107233006136037
-0.0891431646187948,-0.0496327243085978
-0.105788535804671,-0.0872014844788768
-0.115769402861592,-0.123117393063643
-0.118480727379709,-0.157068262002098
-0.224548396817568,-0.300995264756281
-0.0996745951601439,-0.217826128696883
-0.0769470616027654,-0.244008750331618
-0.0445298318671928,-0.266977580076851
