-0.596965813719855,-0.285229672384855
-0.585842224860656,-0.285878993398306
-0.574800818694181,-0.286529543194695
-0.563841289795945,-0.287181236760907
-0.552963332741465,-0.287833989083825
-0.542166642106255,-0.288487715150332
-0.53145091246583,-0.289142329947313
-0.520815838395705,-0.289797748461649
-0.510261114471397,-0.290453885680226
-0.499786435268419,-0.291110656589926
-0.489391495362288,-0.291767976177633
-0.479075989328518,-0.292425759430231
-0.468839611742625,-0.293083921334603
-0.458682057180125,-0.293742376877633
-0.448603020216531,-0.294401041046204
-0.43860219542736,-0.295059828827199
-0.428679277388127,-0.295718655207503
-0.418833960674347,-0.296377435173999
-0.409065939861535,-0.297036083713571
-0.399374909525206,-0.297694515813101
-0.389760564240877,-0.298352646459473
-0.380222598584061,-0.299010390639572
-0.370760707130275,-0.29966766334028
-0.361374584455033,-0.300324379548482
-0.352063925133851,-0.30098045425106
-0.342828423742244,-0.301635802434898
-0.333667774855727,-0.30229033908688
-0.324581673049815,-0.302943979193889
-0.315569812900025,-0.303596637742809
-0.30663188898187,-0.304248229720523
-0.297767595870866,-0.304898670113915
-0.288976628142529,-0.305547873909868
-0.280258680372374,-0.306195756095267
-0.271613447135915,-0.306842231656994
-0.263040623008669,-0.307487215581933
-0.25453990256615,-0.308130622856967
-0.246110980383873,-0.308772368468981
-0.237753551037355,-0.309412367404857
-0.22946730910211,-0.310050534651479
-0.221251949153653,-0.310686785195731
-0.213107165767499,-0.311321034024497
-0.205032653519165,-0.311953196124659
-0.197028106984165,-0.312583186483101
-0.189093220738014,-0.313210920086708
-0.181227689356228,-0.313836311922362
-0.173431207414321,-0.314459276976946
-0.16570346948781,-0.315079730237345
-0.158044170152209,-0.315697586690443
-0.150453003983033,-0.316312761323122
-0.142929665555799,-0.316925169122265
-0.13547384944602,-0.317534725074758
-0.128085250229213,-0.318141344167483
-0.120763562480892,-0.318744941387323
-0.113508480776573,-0.319345431721163
-0.106319699691771,-0.319942730155885
-0.0991969138020018,-0.320536751678374
-0.0921398176827799,-0.321127411275513
-0.0851481059096207,-0.321714623934185
-0.0782214730580394,-0.322298304641274
-0.0713596137035514,-0.322878368383664
-0.0645622224216719,-0.323454730148237
-0.0578289937879163,-0.324027304921879
-0.0511596223777995,-0.324596007691471
-0.0445538027668369,-0.325160753443898
-0.038011229530544,-0.325721457166043
-0.0315315972444358,-0.32627803384479
-0.0251146004840275,-0.326830398467022
-0.0187599338248344,-0.327378466019623
-0.0124672918423717,-0.327922151489476
-0.00623636911215482,-0.328461369863466
-6.6860209698788e-05,-0.328996036128474
0.00604154028948101,-0.329526065271386
0.0120891378098694,-0.330051372279084
0.0180762377759511,-0.330571872138452
0.0240031456122109,-0.331087479836374
0.0298701667431335,-0.331598110359733
0.0356776065932037,-0.332103678695412
0.0414257705869063,-0.332604099830296
0.047114964148726,-0.333099288751267
0.0527454927031475,-0.33358916044521
0.0583176616746557,-0.334073629899008
0.0638317764877352,-0.334552612099544
0.0692881425668709,-0.335026022033701
0.0746870653365475,-0.335493774688364
0.0800288502212497,-0.335955785050417
0.0853138026454623,-0.336411968106741
0.09054222803367,-0.336862238844222
0.0957144318103578,-0.337306512249742
0.10083071940001,-0.337744703310186
0.105891396227112,-0.338176727012436
0.110896767716148,-0.338602498343376
0.115847139291603,-0.33902193228989
0.120742816377961,-0.339434943838862
0.125584104399708,-0.339841447977174
0.130371308781329,-0.340241359691711
0.135104734947307,-0.340634593969355
0.139784688322128,-0.341021065796991
0.144411474330276,-0.341400690161502
0.148985398396237,-0.341773382049771
0.153506765944494,-0.342139056448683
0.157975882399534,-0.34249762834512
0.16239305318584,-0.342849012725966
0.166758583727897,-0.343193124578105
0.17107277945019,-0.34352987888842
0.175335945777204,-0.343859190643795
0.179548388133423,-0.344180974831113
0.183710411943333,-0.344495146437258
0.187822322631418,-0.344801620449113
0.191884425622163,-0.345100311853562
0.195897026340052,-0.345391135637489
0.19986043020957,-0.345674006787777
0.203774942655203,-0.345948840291309
0.207640869101434,-0.346215551134969
0.211458514972749,-0.346474054305641
0.215228185693632,-0.346724264790208
0.218950186688568,-0.346966097575554
0.222624823382043,-0.347199467648562
0.226252401198539,-0.347424289996115
0.229833225562543,-0.347640479605098
0.23336760189854,-0.347847951462394
0.236855835631013,-0.348046620554886
0.240298232184448,-0.348236401869459
0.243695096983329,-0.348417210392994
0.247046735452141,-0.348588961112377
0.250353453015369,-0.34875156901449
0.253615555097498,-0.348904949086217
0.256833347123012,-0.349049016314442
0.260007134516397,-0.349183685686048
0.263137222702136,-0.349308872187918
0.266223917104715,-0.349424490806937
0.269267523148618,-0.349530456529988
0.272268346258331,-0.349626684343954
0.275226691858338,-0.349713089235718
0.278142865373123,-0.349789586192166
0.281017172227172,-0.349856090200179
0.283849917844968,-0.349912516246641
0.286641407650998,-0.349958779318437
0.289391947069746,-0.349994794402449
0.292101841525696,-0.350020476485561
0.294771396443334,-0.350035740554657
0.297400917247143,-0.35004050159662
0.299990709361609,-0.350034674598334
0.302541078211217,-0.350018174546681
0.305052329220451,-0.349990916428547
0.307524767813796,-0.349952815230814
0.309958699415736,-0.349903785940366
0.312354429450758,-0.349843743544086
0.314712263343344,-0.349772603028858
0.317032506517981,-0.349690279381566
0.319315464399152,-0.349596687589093
0.321561442411343,-0.349491742638322
0.323770745979038,-0.349375359516137
0.325943680526723,-0.349247453209422
0.328080551478881,-0.34910793870506
0.330181664259997,-0.348956730989935
0.332247324294558,-0.34879374505093
0.334277837007046,-0.348618895874929
0.336273507821947,-0.348432098448815
0.338234642163745,-0.348233267759472
0.340161545456926,-0.348022318793783
0.342054523125975,-0.347799166538633
0.343913880595375,-0.347563725980903
0.345739923289611,-0.347315912107479
0.347532956633169,-0.347055639905243
0.349293286050533,-0.34678282436108
0.351021216966189,-0.346497380461872
0.352717054804619,-0.346199223194503
0.35438110499031,-0.345888267545857
0.356013672947747,-0.345564428502818
0.357615064101413,-0.345227621052268
0.359185583875794,-0.344877760181091
0.360725537695375,-0.344514760876171
0.362235230984639,-0.344138538124392
0.363714969168073,-0.343749006912637
0.36516505767016,-0.343346082227789
0.366585801915386,-0.342929679056732
0.367977507328235,-0.34249971238635
0.369340479333192,-0.342056097203525
0.370675023354741,-0.341598748495143
0.371981444817368,-0.341127581248085
0.373260049145558,-0.340642510449237
0.374511141763794,-0.34014345108548
0.375735028096563,-0.3396303181437
0.376932013568347,-0.339103026610779
0.378102403603633,-0.3385614914736
0.379246503626905,-0.338005627719048
0.380364619062648,-0.337435350334006
0.381457055335346,-0.336850574305358
0.382524117869485,-0.336251214619986
0.383566112089549,-0.335637186264775
0.384583343420022,-0.335008404226608
0.38557611728539,-0.334364783492369
0.386544739110138,-0.333706239048941
0.387489514318749,-0.333032685883208
0.388410748335709,-0.332344038982053
0.389308746585503,-0.33164021333236
0.390183814492616,-0.330921123921012
0.391036257481531,-0.330186685734893
0.391866380976734,-0.329436813760887
0.39267449040271,-0.328671422985876
0.393460891183943,-0.327890428396745
0.394225888744919,-0.327093744980377
0.394969788510121,-0.326281287723656
0.395692895904035,-0.325452971613465
0.396395516351145,-0.324608711636687
0.397077955275937,-0.323748422780206
0.397740518102894,-0.322872020030907
0.398383510256502,-0.321979418375671
0.399007237161245,-0.321070532801384
0.399612004241609,-0.320145278294927
0.400198116922078,-0.319203569843186
0.400765880627136,-0.318245322433043
0.401315600781268,-0.317270451051382
0.40184758280896,-0.316278870685087
0.402362132134696,-0.31527049632104
0.402859554182961,-0.314245242946126
0.403340154378239,-0.313203025547229
0.403804238145015,-0.312143759111231
0.404252110907775,-0.311067358625016
0.404684078091002,-0.309973739075468
0.405100445119181,-0.30886281544947
0.405501517416798,-0.307734502733906
0.405887600408337,-0.30658871591566
0.406258999518282,-0.305425369981614
0.406616020171119,-0.304244379918653
0.406958967791333,-0.303045660713659
0.407288147803407,-0.301829127353518
0.407603865631827,-0.300594694825111
0.407906426701078,-0.299342278115323
0.408196136435644,-0.298071792211037
0.40847330026001,-0.296783152099136
0.408738223598661,-0.295476272766505
0.408991211876082,-0.294151069200027
0.409232570516757,-0.292807456386585
0.409462604945171,-0.291445349313063
0.409681620585808,-0.290064662966344
0.409889922863155,-0.288665312333312
0.410087817201695,-0.28724721240085
0.410275609025913,-0.285810278155843
0.410453603760293,-0.284354424585173
0.410622106829322,-0.282879566675724
0.410781423657482,-0.28138561941438
0.41093185966926,-0.279872497788023
0.41107372028914,-0.278340116783539
0.411207310941607,-0.27678839138781
0.411332937051144,-0.275217236587719
0.411450904042238,-0.273626567370151
0.411561517339373,-0.272016298721988
0.411665082367034,-0.270386345630116
0.411761904549705,-0.268736623081415
0.411852289311871,-0.267067046062772
0.411936542078017,-0.265377529561068
0.412014968272628,-0.263667988563188
0.412087873320189,-0.261938338056015
0.412155562645183,-0.260188493026433
0.412218341672097,-0.258418368461324
0.412276515825414,-0.256627879347574
0.41233039052962,-0.254816940672064
0.412380271209199,-0.25298546742168
0.412426463288636,-0.251133374583303
0.412469272192415,-0.249260577143819
0.412509003345022,-0.24736699009011
0.412545962170942,-0.24545252840906
0.412580454094658,-0.243517107087552
0.412612784540657,-0.24156064111247
0.412643258933422,-0.239583045470698
0.412672182697438,-0.237584235149119
0.41269986125719,-0.235564125134617
0.412726600037163,-0.233522630414075
0.412752704461841,-0.231459665974376
0.41277847995571,-0.229375146802405
0.412804231943254,-0.227268987885044
0.412830265848958,-0.225141104209178
0.412856887097306,-0.222991410761689
0.412884401112784,-0.220819822529462
0.412913113319875,-0.21862625449938
0.412943329143066,-0.216410621658327
0.41297535400684,-0.214172838993185
0.413009493335683,-0.211912821490839
0.413046052554079,-0.209630484138172
0.413085337086512,-0.207325741922068
0.413127652357468,-0.20499850982941
0.413173303791432,-0.202648702847081
0.413222596812888,-0.200276235961966
0.41327583684632,-0.197881024160948
0.413333329316215,-0.195462982430909
0.413395379647055,-0.193022025758735
0.413462293263327,-0.190558069131308
0.413534375589515,-0.188071027535512
0.413611932050104,-0.185560815958231
0.413695268069578,-0.183027349386347
0.413784689072422,-0.180470542806746
0.413880500483121,-0.177890311206309
0.41398300772616,-0.175286569571921
0.414092516226023,-0.172659232890465
0.414209331407195,-0.170008216148824
0.414333758694162,-0.167333434333883
0.414466103511407,-0.164634802432525
0.414606671283416,-0.161912235431633
0.414755767434673,-0.159165648318091
0.414913697389663,-0.156394956078783
0.41508076657287,-0.153600073700591
0.415257280408781,-0.1507809161704
0.415443544321878,-0.147937398475093
0.415639863736648,-0.145069435601553
0.415846544077574,-0.142176942536665
0.416063890769142,-0.139259834267311
0.416292209235836,-0.136318025780375
0.416531804902141,-0.133351432062741
0.416782983192542,-0.130359968101292
0.417046049531524,-0.127343548882913
0.417321309343571,-0.124302089394485
0.417609068053168,-0.121235504622893
0.4179096310848,-0.118143709555021
0.418223303862951,-0.115026619177752
0.418550391812107,-0.111884148477969
0.418891200356752,-0.108716212442556
0.41924603492137,-0.105522726058397
0.419615200930448,-0.102303604312375
0.419999003808468,-0.0990587621913734
0.420397748979917,-0.0957881146822762
0.420811741869279,-0.0924915767719666
0.421241287901038,-0.0891690634473284
0.42168669249968,-0.0858204896952449
0.422148261089689,-0.0824457705025998
0.42262629909555,-0.0790448208562765
0.423121111941747,-0.0756175557431588
0.423633005052766,-0.0721638901501299
0.424162283853091,-0.0686837390640736
0.424709253767207,-0.0651770174718732
0.425274220219599,-0.0616436403604125
0.425857488634751,-0.0580835227165748
0.426459364437149,-0.054496579527244
0.427080153051276,-0.0508827257793031
0.427720159901618,-0.0472418764596362
0.42837969041266,-0.0435739465551263
0.429059050008886,-0.0398788510526575
0.42975854411478,-0.0361565049391128
0.430478478154829,-0.0324068232013762
0.431219157553516,-0.0286297208263308
0.431980887735326,-0.0248251128008606
0.432763974124744,-0.0209929141118487
0.433568722146255,-0.0171330397461791
0.434395437224344,-0.0132454046907349
0.435244424783495,-0.0093299239323999
0.436115990248193,-0.00538651245805745
0.437010439042922,-0.00141508525459138
0.437928076592169,0.00258444269111512
0.438869208320416,0.00661215639217817
0.43983413965215,0.0106681408617146
0.440823176011854,0.0147524811128404
0.441836622824014,0.0188652621586726
0.442874785513114,0.0230065690123271
0.44393796950364,0.0271764866869208
0.445026480220075,0.0313751001955699
0.446140623086905,0.035602494551391
0.447280703528614,0.0398587547675004
0.448447026969687,0.0441439658570148
0.44963989883461,0.0484582128330504
0.450859624547865,0.052801580708724
0.452106509533939,0.0571741544971516
0.453380859217317,0.0615760192114501
0.454682979022482,0.0660072598647356
0.45601317437392,0.0704679614701249
0.457371750696115,0.0749582090407342
0.458759013413553,0.0794780875896801
0.460175267950717,0.0840276821300789
0.461620819732093,0.0886070776750473
0.463095974182165,0.0932163592377016
0.464601036725419,0.0978556118311584
0.466136312786339,0.102524920468534
0.467702107789409,0.107224370162945
0.469298727159115,0.111954045927507
0.470926476319941,0.116714032775338
0.472585660696372,0.121504415719554
0.474276585712892,0.126325279773271
0.475999556793987,0.131176709949605
0.477754879364142,0.136058791261674
0.47954285884784,0.140971608722593
0.481363800669567,0.145915247345479
0.483218010253808,0.150889792143448
0.485105793025047,0.155895328129618
0.487027454407769,0.160931940317103
0.488983299826458,0.165999713719022
0.490973634705601,0.17109873334849
0.49299876446968,0.176229084218624
0.495058994543182,0.18139085134254
0.49715463035059,0.186584119733354
0.49928597731639,0.191808974404184
0.501453340865066,0.197065500368146
0.503657026421103,0.202353782638355
0.505897339408986,0.207673906227929
0.5081745852532,0.213025956149984
0.510489069378229,0.218410017417637
0.512841097208558,0.223826175044003
0.515230974168672,0.2292745140422
0.517659005683056,0.234755119425344
0.520125497176194,0.240268076206551
0.522630754072571,0.245813469398938
0.525175081796672,0.251391384015621
