0.980353730103396,0.234825169079582
0.959922123897368,0.227417965931911
0.924548081779518,0.248462010316592
0.851161067975006,0.225585171840625
0.792592051720175,0.217628834651648
0.760472161514352,0.223424631287621
0.732801285253871,0.227235081625465
0.687766052237576,0.239746640148745
0.630258737903789,0.222062429113438
0.594292518540627,0.237934326140182
0.566524910039493,0.217274498890632
0.524565596771948,0.228752756197406
0.496596480527336,0.205666437792272
0.464789093389369,0.217687300436399
0.417793140103144,0.232573936326512
0.372063688592518,0.213828540072041
0.365673951268476,0.216485660254604
0.332493479981098,0.21880738452346
0.319610659826234,0.21004885135831
0.27745232127856,0.218666266617285
0.238730446073981,0.212505583239668
0.222913308465048,0.221038382524041
0.233189129446389,0.214013165622721
0.171670129810928,0.224127212428172
0.143019789557299,0.227596744271334
0.103979360144488,0.216278141268766
0.108988529489199,0.223377927227375
0.0786444466914304,0.232393338795651
0.0589855248857431,0.241676452835013
-0.0107925930116322,0.2683885121831
0.016733115169539,0.240359630056305
-0.00247838465881073,0.243341294853903
-0.0209993097877618,0.246482864578061
-0.038842998601359,0.2497824118715
-0.0768201821470567,0.221779490275147
-0.0646964710673062,0.234228395852772
-0.0844754723116486,0.282287737076251
-0.103712158383109,0.264521829592498
-0.120391500756639,0.282047702745679
-0.160910620457215,0.275660398249178
-0.168721715786806,0.286759770574724
-0.158812607842793,0.281634699839718
-0.176934204145447,0.285124294188214
-0.15881877612424,0.289917661563636
-0.194240756574432,0.295952727490248
-0.204998003559289,0.300997671747342
-0.241876137733539,0.322643555019441
-0.223069402230127,0.293016754650148
-0.233068807035348,0.306412208438005
-0.239892287641386,0.329610720787707
-0.237910912189791,0.356290094355716
-0.259427745131848,0.333991240203051
-0.246107203406301,0.32995036132273
-0.239315912444618,0.391987100244675
-0.280741152983773,0.352152373797541
-0.279594499627393,0.373300093001635
-0.273111648219682,0.339713078440423
-0.278325092670645,0.330219069197488
-0.301759672012375,0.37238000147232
-0.304167553593392,0.352269225209268
-0.33396415569169,0.388790090440621
-0.317662180570923,0.398483558665466
-0.339656112012517,0.418788692527681
-0.325397161232696,0.412668708289336
-0.332735559642168,0.416887310242547
-0.344054704790322,0.4177327812491
-0.347616719401714,0.446737846678895
-0.368891381682218,0.447411189720286
-0.340352472433607,0.449816869735506
-0.342699017668403,0.457519989575627
-0.340168877082814,0.430207146578832
-0.346854298204966,0.473184297948525
-0.341261087485342,0.46340647131923
-0.320583604217021,0.519366361102084
-0.354299472388652,0.47645639250461
-0.329084613273431,0.498408054941614
-0.367404752000977,0.51386090278936
-0.355978024001675,0.522103002884441
-0.357151306110873,0.530516726012349
-0.319650503185695,0.538488254342223
-0.366445184120129,0.584933992162575
-0.360342482078926,0.556166100773794
-0.378207159159072,0.566844427297317
-0.359964631768776,0.587518897324991
-0.363320758572617,0.58238730909898
-0.372754871000229,0.579024186201602
-0.369207623553143,0.621829569989934
-0.377233696226339,0.607079220457799
-0.346024309468797,0.606997419265115
-0.366275085224144,0.59154323526076
-0.361476241451995,0.61860919560078
-0.402807238003436,0.628818904902159
-0.37296080220503,0.654710411361029
-0.386057254245435,0.613456897498253
-0.351695369224074,0.655759218957296
-0.404341963150328,0.673844725655967
-0.384368781904305,0.667686065055091
-0.38800388650223,0.697722737330042
-0.37260559935285,0.721775218851271
-0.369900000833239,0.701977853593772
-0.389742672489483,0.727367046187261
-0.392379629861032,0.736404022639982
-0.394478940175539,0.744522949819679
-0.424632553485309,0.75925115270552
-0.36504776523877,0.761755406086347
-0.399002279796758,0.771037430054364
-0.403372214952751,0.755514085978052
-0.376077659355744,0.749853281157136
-0.411721234199998,0.794381179130723
-0.395014808887349,0.77678753315636
-0.399635847977768,0.778452503932292
-0.349907997475762,0.786291320829374
-0.392583932341649,0.79016584562295
-0.393067853623135,0.780938390258731
-0.381611721299249,0.77527128114852
-0.377691001821937,0.772687829895987
-0.355885259127895,0.762093333972747
-0.366044815811101,0.7749799895935
-0.362852415551042,0.777563899102499
-0.361701231957939,0.772834626933452
-0.348024654680401,0.749454087257084
-0.31574783568726,0.756038671046211
-0.339964189789933,0.734964812675335
-0.333233650702021,0.726932755111032
-0.326199820632827,0.718280557796514
-0.327696001841329,0.729315095020464
-0.311264897746179,0.699169909284616
-0.311452442061911,0.715026767897856
-0.295244641521176,0.677741197875208
-0.293959863340152,0.661195634691074
-0.278224272349003,0.654102754303857
-0.315640401481896,0.679385293360365
-0.300015091812129,0.640099855274604
-0.219795353866465,0.606447900378117
-0.269786663873752,0.568756297588636
-0.231857114091848,0.586049987619132
-0.222014691061308,0.571012337973808
-0.215485129094671,0.54658411505998
-0.232754386080855,0.524514011453767
-0.163176656934391,0.520571633394239
-0.198312071288631,0.494869560700803
-0.170543509202452,0.489433382012316
-0.126445082556078,0.47820157614597
-0.149099652908804,0.454072241067768
-0.119252892463962,0.447450747176336
-0.163151984138667,0.436823418058676
-0.116283699815672,0.39844453617107
-0.0780849631731703,0.387406814324595
-0.0958576503918559,0.3381298758141
-0.0829432055129032,0.340038631305223
-0.0717628545935855,0.320015811508099
-0.0697981826166151,0.308879985648038
-0.0493657888207468,0.279220142702764
-0.0256417568243546,0.265104616884054
-0.0537120179459079,0.228051453274708
0.0122511811405061,0.241943018113534
0.0228968303462065,0.184646004082734
0.0200972598398218,0.169879254158707
0.0302205167367902,0.109080433004816
-0.0108160671090989,0.127638576190404
0.026001526888083,0.0901908999628159
0.048959315830081,0.121912794093843
0.0637319565163149,0.0608807001725113
0.095725913203265,0.0581675925311116
0.0931880285429172,-0.00909655192977769
0.0971999671697828,0.0200933474440445
0.11482904283356,-0.0321362266859156
0.112008471772111,-0.048264488219915
0.121841081608623,-0.0707969060175279
0.139471818726578,-0.118061798404489
0.140967427575352,-0.115880538358767
0.160570160689546,-0.128111426955077
0.160972741872582,-0.150130604234774
0.146203358460826,-0.1563292871515
0.176766353314477,-0.205743832450813
0.205498626066891,-0.21192606374394
0.193268492304504,-0.250306832730488
0.217617759037099,-0.295894197375869
0.208725454853261,-0.294479627518508
0.213220695903979,-0.295942798382701
0.205705730395663,-0.317660703083239
0.229764773243296,-0.359770210919635
0.249437680923484,-0.367061043330467
0.219735997691696,-0.400683204866446
0.248538843051117,-0.419817484456071
0.274620160073923,-0.457667650400328
0.251402666302782,-0.46266481998904
0.286504913245932,-0.473096024358682
0.267349907286511,-0.505698943338961
0.248809748156237,-0.527597655263748
0.257898210158421,-0.528126425487205
0.2977364404162,-0.580154686808102
0.280500739479441,-0.58366365548073
0.282735741668199,-0.60240315476092
0.290085626129254,-0.64492284758554
0.296898853852727,-0.657189851112924
0.286743813389367,-0.65660096211775
0.281211515116241,-0.635619074603605
0.287061890010242,-0.690913511533063
0.288115277009851,-0.693731306537946
