-0.235490332687231,0.0856440636543097
-0.232429906133633,0.0788249461298174
-0.229357181201372,0.0720790175516945
-0.226272420162459,0.0654059284734112
-0.223175885288905,0.0588053294484377
-0.220067838852721,0.0522768710302441
-0.216948543125918,0.0458202037723005
-0.213818260380507,0.0394349782280771
-0.2106772528885,0.033120844951044
-0.207525782921907,0.0268774544946714
-0.204364112752739,0.0207044574124294
-0.201192504653008,0.0146015042577882
-0.198011220894725,0.00856824558421791
-0.194820523749901,0.00260433194518867
-0.191620675490546,-0.00329058610582933
-0.188411938388672,-0.00911685801536599
-0.18519457471629,-0.0148748332299511
-0.181968846745411,-0.0205648611961146
-0.178735016748047,-0.0261872913603863
-0.175493346996207,-0.031742473169296
-0.165723921933951,-0.0480080229291521
-0.162453515884323,-0.0532977057819126
-0.159176581440276,-0.0585218875119604
-0.155893380873821,-0.0636809175658254
-0.152604176456968,-0.0687751453900374
-0.149309230461729,-0.0738049204311263
-0.146008805160116,-0.0787705921356219
-0.142703162824138,-0.0836725099500541
-0.139392565725807,-0.0885110233209527
-0.136077276137134,-0.0932864816948477
-0.129433668576808,-0.102649631237746
-0.126105875149177,-0.107238021299809
-0.122774438319248,-0.111764754150987
-0.119439620359033,-0.116230179237811
-0.116101683540542,-0.120634646006811
-0.112760890135787,-0.124978503904516
-0.109417502416779,-0.129262102377456
-0.106071782655529,-0.133485790872161
-0.102723993124048,-0.137649918835161
-0.0993743960943466,-0.141754835712985
-0.0960232538384367,-0.145800890952164
-0.0893173827360347,-0.153717814300705
-0.0859631784335648,-0.157589381303127
-0.0826084779929303,-0.161403484453022
-0.0792535436861425,-0.165160473196922
-0.0758986377852123,-0.168860696981355
-0.0725440225621508,-0.172504505252851
-0.0691899602889691,-0.176092247457941
-0.0658367132376783,-0.179624273043154
-0.0624845436802895,-0.18310093145502
-0.0591337138888138,-0.186522572140069
-0.0524371226916458,-0.193202198115836
-0.0490918858299757,-0.196460882299613
-0.045749037822263,-0.199665946542692
-0.0424088409405187,-0.202817740291603
-0.039071557456754,-0.205916612992877
-0.0324067797712076,-0.211956993038629
-0.029079810113448,-0.214899199276168
-0.0257568029417123,-0.217789882252188
-0.0224380205280116,-0.220629391413219
-0.0191237251443568,-0.223418076205792
-0.0158141790627591,-0.226156286076435
-0.0125096445552297,-0.22884437047168
-0.00921038389377959,-0.231482678838055
-0.00591665935041977,-0.234071560622091
-0.00262873319716141,-0.236611365270317
0.000653132293984421,-0.239102442229263
0.00392867485100667,-0.241545140945459
0.00719763220189426,-0.243939810865436
0.0104597420746361,-0.246286801435722
0.013714742197221,-0.248586462102848
0.0169623702976381,-0.250839142313344
0.0202023641038761,-0.253045191513739
0.0234344613439241,-0.255204959150563
0.0266583997457709,-0.257318794670346
0.0298739170374054,-0.259387047519618
0.0330807509468166,-0.261410067144909
0.0362786392019934,-0.263388202992749
0.0394673195309247,-0.265321804509667
0.0426465296615995,-0.267211221142193
0.0458160073220065,-0.269056802336858
0.0489754902401349,-0.270858897540191
0.0521247161439734,-0.272617856198721
0.0552634227615111,-0.27433402775898
0.0583913478207367,-0.276007761667496
0.0615082290496393,-0.2776394073708
0.0646138041762078,-0.27922931431542
0.067707810928431,-0.280777831947888
0.0769177982189186,-0.285178543437674
0.0799629087536501,-0.28656499828683
0.0829951395539811,-0.287911811056481
0.0860142283479002,-0.289219331193159
0.0890199128633966,-0.290487908143394
0.0949900199710768,-0.29290963027065
0.0979539180192383,-0.294063474340732
0.103838091744149,-0.296258875726452
0.109662353827103,-0.298306891083113
0.11542460609201,-0.300210315982955
0.118281822862669,-0.301108680627892
0.121122750362784,-0.301971945998214
0.123947126320342,-0.302800461540451
0.126754688463334,-0.303594576701132
0.129545174519748,-0.304354640926787
0.132318322217573,-0.305081003663946
0.135073869284798,-0.305774014359139
0.137811553449411,-0.306434022458895
0.140531112439403,-0.307061377409745
0.14323228398276,-0.307656428658218
0.145914805807474,-0.308219525650845
0.148578415641532,-0.308751017834154
0.151222851212924,-0.309251254654677
0.153847850249638,-0.309720585558942
0.156453150479663,-0.31015935999348
0.159038489630988,-0.31056792740482
0.161603605431602,-0.310946637239493
0.169174990009069,-0.311907115748804
0.171656589686729,-0.312169889742104
0.174116654653623,-0.312404553391387
0.176554922637739,-0.31261145614318
0.181365018569595,-0.312943376740421
0.183736321973313,-0.313069093478928
0.188410128296272,-0.313241787068365
0.192990452159856,-0.313311823784564
0.195244902489354,-0.313309219431524
0.197475195387975,-0.313281999199764
0.199681068583708,-0.313230512535814
0.204018506778465,-0.313056137697464
0.206149547233467,-0.312933948416123
0.208255118897536,-0.312788890488712
0.210334959498662,-0.312621313361759
0.212388806764833,-0.312431566481796
0.216417472204267,-0.311986961248957
0.218391765833507,-0.31173280178914
0.220339017039749,-0.311457870362432
0.22225896355098,-0.311162516415363
0.224151343095191,-0.310847089394461
0.226015893400369,-0.310511938746258
0.227852352194503,-0.310157413917282
0.229660457205584,-0.309783864354064
0.231439946161598,-0.309391639503134
0.233190556790536,-0.308981088811022
0.236604093979139,-0.308106407689368
0.238266495994781,-0.307642976152887
0.244614207186029,-0.305623463921631
0.246124349405955,-0.305078886575133
0.247603252850706,-0.304519128406221
0.250466294326633,-0.303355467387275
0.251849907813788,-0.302752263430301
0.259464364088696,-0.298855826554818
0.260616454821074,-0.29816347972091
0.261734421786154,-0.297459795976416
0.264880957357492,-0.295284217744721
0.267710937230748,-0.293019187392832
0.26858269420843,-0.292245929777076
0.269418229242725,-0.291464130822973
0.270217280061622,-0.290674139977054
0.272392904505815,-0.288258510553694
0.27304339574301,-0.287439246605806
0.273656091404751,-0.28661353799875
0.274230729219028,-0.285781734179057
0.274767046913829,-0.284944184593256
0.276143456561269,-0.282400555704506
0.276523871058058,-0.281543517519572
0.277165543341031,-0.279817794995859
0.277426276583194,-0.27894980955014
0.277646591529792,-0.278078873910551
0.278118422920323,-0.274572618344105
0.278132712308934,-0.273692173433119
0.27792257982094,-0.271047115398143
0.27756903489731,-0.26928413508844
0.275922775293535,-0.264898439692747
0.2754607285176,-0.264027825679315
0.273804277583236,-0.261435323807969
0.273161149496224,-0.26057876806227
0.270955160100364,-0.258036827710841
0.270126754350098,-0.257199921377353
0.269251373503992,-0.256368801013242
0.268328755290033,-0.255543816065039
0.26735863743621,-0.254725315979272
0.266340757670514,-0.253913650202473
0.265274853720932,-0.25310916818117
0.25921579169435,-0.249206745035653
0.257856234929222,-0.248452703924458
0.251916784268969,-0.245536332757033
0.250305304343915,-0.244833935517165
0.24692856787774,-0.243463621825524
0.245162786792597,-0.242796404266811
0.241475087558146,-0.241499594956248
0.229144009756663,-0.237935333629616
0.224603996536497,-0.236865287296554
0.222252249586176,-0.236353969284873
0.217383963645002,-0.235380490803859
0.214866900110126,-0.234919029227586
0.212294206503044,-0.234474885356176
0.209665620551744,-0.234048408636158
0.206980879984215,-0.233639948514062
0.198587107864143,-0.232526162200606
0.195675126111587,-0.232193262935498
0.192705678382747,-0.231880127500961
0.189678502405611,-0.231587105343525
0.186593335908169,-0.231314545909721
0.183449916618409,-0.231062798646078
0.17028846609597,-0.230270920223711
0.159792872556263,-0.229912662073591
0.152494492474444,-0.22979127960796
0.144952610342913,-0.229767123684167
0.137165127985578,-0.229842989874451
0.133178631042207,-0.229919304878697
0.112308097797872,-0.230698676852155
0.0898501087400553,-0.232173076344566
0.0804150818728433,-0.232967228349673
0.0607589203229282,-0.23492129464973
0.0556795775538243,-0.235488050139886
0.0505335892880479,-0.236086800089158
0.0346931287905747,-0.238078511156971
0.0292779358179985,-0.238808733408008
0.0182434170306521,-0.240370752431907
0.00117737266398119,-0.242972958970269
-0.0225483321292617,-0.246941043380367
-0.0286548959096133,-0.248024407642903
-0.0410800244728429,-0.250303194085696
-0.053789569519515,-0.252733720728985
-0.0602516539041696,-0.25400676024214
-0.0868215235318381,-0.259492246657191
-0.121676978167617,-0.267260301981218
-0.128869774161709,-0.26893890048535
-0.136137083812806,-0.270659976844494
-0.150896293174058,-0.274230960913937
-0.158388717428236,-0.276081567517296
-0.181320415749107,-0.28189803896028
-0.196989525315081,-0.285999724081658
-0.204939260119718,-0.288118826229753
-0.221070401132352,-0.292495296933404
-0.279989482972987,-0.309301433560159
-0.315400689909556,-0.319977833840104
-0.36147894866869,-0.334462545355976
-0.370939123152418,-0.337514876946575
-0.399813412963601,-0.346988940330755
-0.409603639260699,-0.350253815818044
-0.429433860027018,-0.356945945010641
-0.459807545686967,-0.367395326042538
-0.470100717864454,-0.370989500770757
-0.51212345194888,-0.385930756845692
-0.533648518023935,-0.393745011431813
-0.600303690493538,-0.418595828251661
-0.743162755380679,-0.474885302169525
