-0.860692661890188,-0.920968773112489
-0.859681174964231,-0.916240200780432
-0.85867475982211,-0.911534645230585
-0.857673340434744,-0.906851953377199
-0.85667684077305,-0.902191972134529
-0.855685184807947,-0.897554548416825
-0.854698296510352,-0.89293952913834
-0.853716099851183,-0.888346761213328
-0.852738518801357,-0.883776091556041
-0.851765477331794,-0.879227367080731
-0.850796899413409,-0.87470043470165
-0.849832709017122,-0.870195141333052
-0.848872830113851,-0.865711333889188
-0.847917186674512,-0.861248859284313
-0.846965702670025,-0.856807564432677
-0.846018302071305,-0.852387296248533
-0.845074908849273,-0.847987901646135
-0.844135446974845,-0.843609227539735
-0.84319984041894,-0.839251120843584
-0.842268013152474,-0.834913428471936
-0.841339889146367,-0.830595997339044
-0.840415392371535,-0.826298674359159
-0.839494446798897,-0.822021306446535
-0.83857697639937,-0.817763740515423
-0.837662905143873,-0.813525823480078
-0.836752157003324,-0.80930740225475
-0.835844655948639,-0.805108323753692
-0.834940325950737,-0.800928434891158
-0.834039090980536,-0.7967675825814
-0.833140875008953,-0.79262561373867
-0.832245602006907,-0.78850237527722
-0.831353195945315,-0.784397714111304
-0.830463580795096,-0.780311477155173
-0.829576680527166,-0.776243511323082
-0.828692419112444,-0.772193663529281
-0.827810720521848,-0.768161780688023
-0.826931508726296,-0.764147709713562
-0.826054707696705,-0.760151297520149
-0.825180241403993,-0.756172391022038
-0.824308033819078,-0.75221083713348
-0.823438008912878,-0.748266482768728
-0.822570090656311,-0.744339174842036
-0.821704203020294,-0.740428760267654
-0.820840269975746,-0.736535085959837
-0.819978215493585,-0.732657998832836
-0.819117963544727,-0.728797345800904
-0.818259438100091,-0.724952973778294
-0.817402563130596,-0.721124729679257
-0.816547262607158,-0.717312460418048
-0.815693460500696,-0.713516012908918
-0.814841080782127,-0.709735234066119
-0.813990047422369,-0.705969970803905
-0.81314028439234,-0.702220070036528
-0.812291715662959,-0.69848537867824
-0.811444265205142,-0.694765743643294
-0.810597856989807,-0.691061011845942
-0.809752414987874,-0.687371030200438
-0.808907863170259,-0.683695645621033
-0.808064125507879,-0.680034705021981
-0.807221125971654,-0.676388055317533
-0.806378788532501,-0.672755543421942
-0.805537037161337,-0.669137016249462
-0.804695795829081,-0.665532320714343
-0.803854988506651,-0.66194130373084
-0.803014539164963,-0.658363812213204
-0.802174371774937,-0.654799693075688
-0.80133441030749,-0.651248793232544
-0.800494578733539,-0.647710959598026
-0.799654801024004,-0.644186039086385
-0.798815001149801,-0.640673878611875
-0.797975103081848,-0.637174325088747
-0.797135030791063,-0.633687225431255
-0.796294708248364,-0.630212426553651
-0.79545405942467,-0.626749775370187
-0.794613008290897,-0.623299118795116
-0.793771478817963,-0.61986030374269
-0.792929394976787,-0.616433177127163
-0.792086680738287,-0.613017585862786
-0.791243260073379,-0.609613376863813
-0.790399056952982,-0.606220397044495
-0.789553995348015,-0.602838493319085
-0.788707999229394,-0.599467512601836
-0.787860992568037,-0.596107301807001
-0.787012899334863,-0.592757707848831
-0.786163643500789,-0.58941857764158
-0.785313149036733,-0.5860897580995
-0.784461339913613,-0.582771096136844
-0.783608140102347,-0.579462438667863
-0.782753473573852,-0.576163632606812
-0.781897264299047,-0.572874524867942
-0.78103943624885,-0.569594962365505
-0.780179913394177,-0.566324792013754
-0.779318619705947,-0.563063860726943
-0.778455479155078,-0.559812015419323
-0.777590415712488,-0.556569103005147
-0.776723353349094,-0.553334970398667
-0.775854216035815,-0.550109464514137
-0.774982927743568,-0.546892432265808
-0.774109412443271,-0.543683720567933
-0.773233594105842,-0.540483176334765
-0.772355396702199,-0.537290646480557
-0.77147474420326,-0.53410597791956
-0.770591560579941,-0.530929017566027
-0.769705769803162,-0.527759612334211
-0.768817295843841,-0.524597609138365
-0.767926062672895,-0.521442854892741
-0.767031994261241,-0.518295196511592
-0.766135014579797,-0.515154480909169
-0.765235047599483,-0.512020554999727
-0.764332017291215,-0.508893265697516
-0.763425847625911,-0.50577245991679
-0.762516462574489,-0.502657984571802
-0.761603786107868,-0.499549686576803
-0.760687742196964,-0.496447412846047
-0.759768254812695,-0.493351010293786
-0.75884524792598,-0.490260325834272
-0.757918645507737,-0.487175206381759
-0.756988371528883,-0.484095498850498
-0.756054349960335,-0.481021050154742
-0.755116504773013,-0.477951707208744
-0.754174759937833,-0.474887316926756
-0.753229039425714,-0.471827726223031
-0.752279267207573,-0.468772782011822
-0.751325367254329,-0.46572233120738
-0.750367263536899,-0.462676220723959
-0.7494048800262,-0.459634297475811
-0.748438140693151,-0.456596408377188
-0.74746696950867,-0.453562400342343
-0.746491290443675,-0.45053212028553
-0.745511027469083,-0.447505415120999
-0.744526104555812,-0.444482131763004
-0.74353644567478,-0.441462117125798
-0.742541974796906,-0.438445218123632
-0.741542615893106,-0.43543128167076
-0.740538292934298,-0.432420154681434
-0.7395289298914,-0.429411684069906
-0.738514450735332,-0.426405716750429
-0.737494779437009,-0.423402099637256
-0.73646983996735,-0.420400679644639
-0.735439556297273,-0.417401303686831
-0.734403852397696,-0.414403818678084
-0.733362652239536,-0.411408071532651
-0.732315879793712,-0.408413909164784
-0.731263459031141,-0.405421178488737
-0.730205313922741,-0.40242972641876
-0.72914136843943,-0.399439399869108
-0.728071546552125,-0.396450045754032
-0.726995772231745,-0.393461510987786
-0.725913969449208,-0.390473642484621
-0.724826062175431,-0.38748628715879
-0.723731974381332,-0.384499291924546
-0.722631630037829,-0.381512503696141
-0.72152495311584,-0.378525769387829
-0.720411867586283,-0.37553893591386
-0.719292297420075,-0.372551850188489
-0.718166166588134,-0.369564359125967
-0.717033399061379,-0.366576309640547
-0.715893918810727,-0.363587548646482
-0.714747649807095,-0.360597923058024
-0.713594516021403,-0.357607279789426
-0.712434441424567,-0.35461546575494
-0.711267349987506,-0.351622327868819
-0.710093165681137,-0.348627713045315
-0.708911812476378,-0.345631468198681
-0.707723214344147,-0.34263344024317
-0.706527295255362,-0.339633476093033
-0.705323979180941,-0.336631422662524
-0.704113190091801,-0.333627126865896
-0.70289485195886,-0.330620435617399
-0.701668888753037,-0.327611195831289
-0.700435224445249,-0.324599254421816
-0.699193783006414,-0.321584458303233
-0.69794448840745,-0.318566654389793
-0.696687264619274,-0.315545689595749
-0.695422035612805,-0.312521410835352
-0.69414872535896,-0.309493665022856
-0.692867257828658,-0.306462299072513
-0.691577556992815,-0.303427159898576
-0.69027954682235,-0.300388094415297
-0.688973151288181,-0.297344949536928
-0.687658294361226,-0.294297572177723
-0.686334900012402,-0.291245809251934
-0.685002892212627,-0.288189507673813
-0.683662194932819,-0.285128514357613
-0.682312732143897,-0.282062676217586
-0.680954427816777,-0.278991840167986
-0.679587205922377,-0.275915853123064
-0.678210990431616,-0.272834561997073
-0.676825705315412,-0.269747813704266
-0.675431274544682,-0.266655455158895
-0.674027622090344,-0.263557333275212
-0.672614671923315,-0.260453294967471
-0.671192348014515,-0.257343187149924
-0.66976057433486,-0.254226856736824
-0.668319274855269,-0.251104150642422
-0.666868373546658,-0.247974915780972
-0.665407794379947,-0.244838999066726
-0.663937461326053,-0.241696247413937
-0.662457298355894,-0.238546507736856
-0.660967229440387,-0.235389626949738
-0.659467178550451,-0.232225451966834
-0.657957069657003,-0.229053829702396
-0.656436826730962,-0.225874607070678
-0.654906373743244,-0.222687630985932
-0.653365634664769,-0.21949274836241
-0.651814533466453,-0.216289806114365
-0.650252994119215,-0.21307865115605
-0.648680940593972,-0.209859130401717
-0.647098296861643,-0.206631090765619
-0.645504986893144,-0.203394379162008
-0.643900934659395,-0.200148842505136
-0.642286064131313,-0.196894327709257
-0.640660299279815,-0.193630681688623
-0.63902356407582,-0.190357751357486
-0.637375782490245,-0.1870753836301
-0.635716878494008,-0.183783425420715
-0.634046776058027,-0.180481723643586
-0.632365399153221,-0.177170125212964
-0.630672671750506,-0.173848477043103
-0.628968517820801,-0.170516626048254
-0.627252861335023,-0.167174419142671
-0.62552562626409,-0.163821703240605
-0.623786736578921,-0.16045832525631
-0.622036116250433,-0.157084132104037
-0.620273689249543,-0.153698970698041
-0.61849937954717,-0.150302687952572
-0.616713111114232,-0.146895130781884
-0.614914807921646,-0.143476146100228
-0.613104393940331,-0.140045580821859
-0.611281793141203,-0.136603281861027
-0.609446929495182,-0.133149096131987
-0.607599726973184,-0.12968287054899
-0.605740109546128,-0.126204452026288
-0.603868001184931,-0.122713687478135
-0.601983325860512,-0.119210423818783
-0.600086007543788,-0.115694507962485
-0.598175970205677,-0.112165786823493
-0.596253137817097,-0.108624107316059
-0.594317434348965,-0.105069316354436
-0.5923687837722,-0.101501260852877
-0.59040711005772,-0.0979197877256348
-0.588432337176442,-0.0943247438869609
-0.586444389099283,-0.0907159762511085
-0.584443189797163,-0.0870933317323299
-0.582428663240999,-0.0834566572448779
-0.580400733401708,-0.0798057997030048
-0.578359324250209,-0.0761406060209634
-0.576304359757419,-0.072460923113006
-0.574235763894256,-0.0687665978933853
-0.572153460631639,-0.0650574772763537
-0.570057373940484,-0.0613334081761641
-0.56794742779171,-0.0575942375070686
-0.565823546156234,-0.0538398121833202
-0.563685653004975,-0.0500699791191709
-0.561533672308851,-0.0462845852288739
-0.559367528038778,-0.0424834774266811
-0.557187144165675,-0.0386665026268457
-0.55499244466046,-0.0348335077436196
-0.552783353494051,-0.0309843396912559
-0.550559794637366,-0.0271188453840067
-0.548321692061321,-0.023236871736125
-0.546068969736836,-0.0193382656618629
-0.543801551634828,-0.0154228740754734
-0.541519361726215,-0.0114905438912086
-0.539222323981915,-0.0075411220233214
-0.536910362372845,-0.00357445538606405
-0.534583400869924,0.000409609106310535
-0.532241363444069,0.00441122453955019
-0.529884174066198,0.00843054399940198
-0.527511756707229,0.0124677205716138
-0.52512403533808,0.0165229073419325
-0.522720933929669,0.0205962573961063
-0.520302376452913,0.0246879238198819
-0.517868286878731,0.0287980596990074
-0.515418589178039,0.0329268181192297
-0.512953207321757,0.0370743521662965
-0.510472065280802,0.0412408149259553
-0.507975087026091,0.0454263594839535
-0.505462196528544,0.0496311389260384
-0.502933317759076,0.0538553063379578
-0.500388374688607,0.0580990148054587
-0.497827291288054,0.062362417414289
-0.495249991528335,0.0666456672501958
-0.492656399380368,0.0709489173989268
-0.490046438815071,0.0752723209462292
-0.487420033803361,0.0796160309778507
-0.484777108316157,0.0839802005795385
-0.482117586324376,0.0883649828370404
-0.479441391798936,0.0927705308361034
-0.476748448710754,0.0971969976624754
-0.47403868103075,0.101644536401903
-0.47131201272984,0.106113300140135
-0.468568367778943,0.110603441962918
-0.465807670148976,0.115115114956
-0.463029843810857,0.119648472205127
-0.460234812735505,0.124203666796049
-0.457422500893836,0.12878085181451
-0.454592832256769,0.133380180346261
-0.451745730795221,0.138001805477047
-0.448881120480111,0.142645880292617
-0.445998925282356,0.147312557878717
-0.443099069172874,0.152001991321095
-0.440181476122584,0.156714333705499
-0.437246070102402,0.161449738117676
-0.434292775083246,0.166208357643374
-0.431321515036035,0.17099034536834
-0.428332213931687,0.175795854378321
-0.425324795741118,0.180625037759065
-0.422299184435248,0.185478048596319
-0.419255303984994,0.190355039975831
-0.416193078361273,0.195256164983349
-0.413112431535004,0.200181576704619
-0.410013287477104,0.205131428225389
-0.406895570158492,0.210105872631407
-0.403759203550085,0.215105063008419
-0.4006041116228,0.220129152442175
-0.397430218347557,0.22517829401842
-0.394237447695272,0.230252640822903
-0.391025723636864,0.23535234594137
-0.387794970143249,0.24047756245957
-0.384545111185348,0.245628443463249
-0.381276070734076,0.250805142038156
-0.377987772760352,0.256007811270037
-0.374680141235094,0.261236604244641
-0.37135310012922,0.266491674047714
-0.368006573413647,0.271773173765004
-0.364640485059293,0.277081256482258
-0.361254759037076,0.282416075285224
-0.357849319317915,0.28777778325965
-0.354424089872726,0.293166533491282
-0.350978994672428,0.298582479065868
-0.347513957687939,0.304025773069157
-0.344028902890176,0.309496568586894
-0.340523754250057,0.314995018704828
-0.3369984357385,0.320521276508706
-0.333452871326423,0.326075495084276
-0.329886984984744,0.331657827517284
-0.32630070068438,0.337268426893479
-0.32269394239625,0.342907446298608
-0.319066634091271,0.348575038818418
-0.315418699740361,0.354271357538657
-0.311750063314439,0.359996555545072
-0.308060648784421,0.36575078592341
-0.304350380121226,0.37153420175942
-0.300619181295771,0.377346956138848
-0.296866976278975,0.383189202147442
-0.293093689041755,0.38906109287095
-0.289299243555029,0.394962781395118
-0.285483563789716,0.400894420805695
-0.281646573716731,0.406856164188428
-0.277788197306995,0.412848164629063
-0.273908358531424,0.41887057521335
-0.270006981360936,0.424923549027035
-0.26608398976645,0.431007239155865
-0.262139307718882,0.437121798685588
-0.258172859189152,0.443267380701952
-0.254184568148176,0.449444138290704
-0.250174358566872,0.455652224537591
-0.246142154416159,0.461891792528361
-0.242087879666955,0.468162995348761
-0.238011458290176,0.474465986084539
-0.233912814256741,0.480800917821442
-0.229791871537569,0.487167943645218
-0.225648554103575,0.493567216641614
-0.22148278592568,0.499998889896377
-0.217294490974799,0.506463116495256
-0.213083593221852,0.512960049523997
-0.208850016637756,0.519489842068348
-0.204593685193429,0.526052647214056
-0.200314522859788,0.532648618046869
-0.196012453607753,0.539277907652534
-0.191687401408239,0.545940669116799
-0.187339290232166,0.55263705552541
-0.182968044050451,0.559367219964117
-0.178573586834012,0.566131315518666
-0.174155842553766,0.572929495274804
-0.169714735180633,0.579761912318279
-0.165250188685528,0.586628719734838
-0.160762127039372,0.593530070610229
-0.15625047421308,0.6004661180302
-0.151715154177571,0.607437015080497
-0.147156090903764,0.614442914846869
-0.142573208362575,0.621483970415062
-0.137966430524923,0.628560334870824
-0.133335681361725,0.635672161299903
-0.128680884843899,0.642819602788046
-0.124001964942364,0.650002812420999
-0.119298845628036,0.657221943284513
-0.114571450871835,0.664477148464332
-0.109819704644677,0.671768581046205
-0.10504353091748,0.679096394115879
-0.100242853661163,0.686460740759103
-0.0954175968466435,0.693861774061622
-0.0905676844448386,0.701299647109185
-0.0856930404266669,0.708774512987538
-0.0807935887630457,0.716286524782431
-0.0758692534248934,0.723835835579609
-0.0709199583831272,0.731422598464821
-0.0659456276086657,0.739046966523813
-0.060946185072426,0.746709092842334
-0.060946185072426,0.746709092842334
-0.0559643279325013,0.754323305154193
-0.0510426734218518,0.761804314948621
-0.0461810256236968,0.7691528509445
-0.0413791886212555,0.776369641860713
-0.0366369664977472,0.783455416416141
-0.0319541633363911,0.790410903329666
-0.0273305832204066,0.797236831320169
-0.0227660302330129,0.803933929106532
-0.0182603084574292,0.810502925407638
-0.0138132219768749,0.816944548942367
-0.00942457487456914,0.823259528429602
-0.00509417123373125,0.829448592588225
-0.000821815137580482,0.835512470137116
0.0033926893306639,0.841451889795159
0.00754953808778263,0.847267580281234
0.0116489270505564,0.852960270314223
0.015691052135766,0.858530688613009
0.0196761092601922,0.863979563896473
0.0236042943406156,0.869307624883496
0.027475803293817,0.874515600292961
0.0312908320365772,0.87960421884375
0.0350495764856769,0.884574209254743
0.0387522325578967,0.889426300244822
0.0423989961700175,0.894161220532871
0.04599006323882,0.89877969883777
0.0495256296810849,0.903282463878401
0.053005891413593,0.907670244373646
0.0564310443531249,0.911943769042387
0.0598012844164614,0.916103766603505
0.0631168075203833,0.920150965775882
0.0663778095816712,0.924086095278399
0.069584486517106,0.92790988382994
0.0727370342434683,0.931623060149386
0.0758356486775389,0.935226352955617
0.0788805257360985,0.938720490967516
0.0818718613359278,0.942106202903965
0.0848098513938077,0.945384217483846
0.0876946918265187,0.94855526342604
0.0905265785508417,0.951620069449429
0.0933057074835574,0.954579364272895
0.0960322745414464,0.95743387661532
0.0987064756412897,0.960184335195584
0.101328506699868,0.962831468732571
0.103898563633961,0.965376005945162
0.106416842360352,0.967818675552238
0.108883538795819,0.970160206272682
0.111298848857144,0.972401326825375
0.113662968461107,0.974542765929199
0.11597609352449,0.976585252303036
0.118238419964073,0.978529514665767
0.120450143696636,0.980376281736274
0.122611460638961,0.982126282233439
0.124722566707829,0.983780244876145
0.126783657820019,0.985338898383271
0.128794929892313,0.986802971473701
0.130756578841491,0.988173192866316
0.132668800584335,0.989450291279998
0.134531791037624,0.990634995433629
0.13634574611814,0.991728034046089
0.138110861742663,0.992730135836263
0.139827333827975,0.99364202952303
0.141495358290855,0.994464443825272
0.143115131048084,0.995198107461872
0.144686848016444,0.995843749151711
0.146210705112716,0.996402097613672
0.147686898253678,0.996873881566635
0.149115623356114,0.997259829729482
0.150497076336802,0.997560670821096
0.151831453112525,0.997777133560358
0.153118949600062,0.997909946666149
0.154359761716194,0.997959838857352
0.155554085377703,0.997927538852848
0.156702116501369,0.99781377537152
0.157804051003972,0.997619277132248
0.158860084802294,0.997344772853915
0.159870413813114,0.996990991255403
0.160835233953215,0.996558661055592
0.161754741139376,0.996048510973366
0.162629131288378,0.995461269727605
0.163458600317002,0.994797666037191
0.16424334414203,0.994058428621007
0.16498355868024,0.993244286197934
0.165679439848415,0.992355967486854
0.166331183563335,0.991394201206648
0.16693898574178,0.990359716076198
0.167503042300532,0.989253240814386
0.168023549156371,0.988075504140095
0.168500702226078,0.986827234772205
0.168934697426434,0.985509161429598
0.169325730674218,0.984122012831156
0.169673997886213,0.982666517695761
0.169979694979199,0.981143404742295
0.170243017869957,0.979553402689639
0.170464162475266,0.977897240256676
0.170643324711909,0.976175646162286
0.170780700496665,0.974389349125352
0.170876485746316,0.972539077864755
0.170930876377643,0.970625561099378
0.170944068307425,0.968649527548102
0.170916257452443,0.966611705929808
0.17084763972948,0.96451282496338
0.170738411055314,0.962353613367697
0.170588767346727,0.960134799861642
0.1703989045205,0.957857113164097
0.170169018493413,0.955521281993944
0.169899305182248,0.953128035070065
0.169589960503784,0.95067810111134
0.169241180374803,0.948172208836652
0.168853160712085,0.945611086964883
0.168426097432411,0.942995464214914
0.167960186452562,0.940326069305628
0.167455623689318,0.937603630955906
0.16691260505946,0.934828877884629
0.16633132647977,0.93200253881068
0.165711983867027,0.92912534245294
0.165054773138013,0.926198017530291
0.164359890209508,0.923221292761615
0.163627530998292,0.920195896865793
0.162857891421147,0.917122558561707
0.162051167394854,0.91400200656824
0.161207554836193,0.910834969604273
0.160327249661945,0.907622176388687
0.15941044778889,0.904364355640365
0.158457345133809,0.901062236078188
0.157468137613484,0.897716546421038
0.156443021144694,0.894328015387796
0.155382191644221,0.890897371697345
0.154285845028845,0.887425344068566
0.153154177215346,0.883912661220341
0.151987384120507,0.880360051871552
0.150785661661107,0.87676824474108
0.149549205753927,0.873137968547808
0.148278212315748,0.869469952010616
0.146972877263351,0.865764923848388
0.145633396513516,0.862023612780004
0.144259965983024,0.858246747524346
0.142852781588656,0.854435056800297
0.141412039247193,0.850589269326737
0.139937934875415,0.846710113822549
0.138430664390103,0.842798319006615
0.136890423708038,0.838854613597815
0.135317408746,0.834879726315033
0.13371181542077,0.830874385877149
0.13207383964913,0.826839321003046
0.130403677347859,0.822775260411605
0.128701524433738,0.818682932821707
0.126967576823549,0.814563066952236
0.125202030434071,0.810416391522073
0.123405081182087,0.806243635250098
0.121576924984375,0.802045526855195
0.119717757757718,0.797822795056244
0.117827775418895,0.793576168572128
0.115907173884689,0.789306376121729
0.113956149071878,0.785014146423927
0.111974896897244,0.780700208197605
0.109963613277569,0.776365290161645
0.107922494129631,0.772010121034929
0.105851735370213,0.767635429536338
0.103751532916095,0.763241944384753
0.101622082684058,0.758830394299058
0.0994635805908817,0.754401507998133
0.0972762225533478,0.74995601420086
0.0950602044882369,0.745494641626121
0.0928157223123297,0.741018118992798
0.0905429719424068,0.736527175019773
0.088242149295249,0.732022538425926
0.085913450287637,0.727504937930141
0.0835570708363517,0.722975102251299
0.0811732068581736,0.718433760108282
0.0787620542698836,0.71388164021997
0.0763238089882623,0.709319471305247
0.0738586669300905,0.704747982082994
0.071366824012149,0.700167901272093
0.0688484761512184,0.695579957591424
0.0663038192640795,0.690984879759871
0.0637330492675132,0.686383396496316
0.0611363620783,0.681776236519639
0.0585139536132206,0.677164128548722
0.0558660197890559,0.672547801302448
0.0531927565225866,0.667927983499697
0.0504943597305934,0.663305403859353
0.047771025329857,0.658680791100296
0.0450229492371581,0.654054873941408
0.0422503273692776,0.649428381101572
0.0394533556429962,0.644802041299669
0.0366322299750945,0.64017658325458
0.0337871462823533,0.635552735685187
0.0309183004815534,0.630931227310373
0.0280258884894754,0.626312786849018
0.0251101062229001,0.621698143020006
0.0221711495986082,0.617088024542216
0.0192092145333807,0.612483160134532
0.0162244969439979,0.607884278515835
0.0132171927472408,0.603292108405007
0.0101874978598901,0.598707378520929
0.00713560819872647,0.594130817582484
0.00406171968053076,0.589563154308553
0.000966028222083498,0.585005117418017
-0.00215127025983444,0.580457435629759
-0.00528997984844225,0.57592083766266
-0.00844990462695937,0.571396052235603
-0.0116308486786049,0.566883808067468
-0.0148326160865982,0.562384833877138
-0.0180550109341585,0.557899858383495
-0.0212978373045052,0.553429610305419
-0.0245608992808573,0.548974818361794
-0.0278440009464344,0.544536211271501
-0.0311469463844554,0.54011451775342
-0.03446953967814,0.535710466526436
-0.037811584910707,0.531324786309428
-0.041172886165376,0.526958205821279
-0.0445532475253661,0.52261145378087
-0.0479524730738966,0.518285258907084
-0.0513703668941869,0.513980349918802
-0.0548067330694561,0.509697455534905
-0.0582613756829235,0.505437304474277
-0.0617340988178084,0.501200625455797
-0.06522470655733,0.496988147198349
-0.0687330029847077,0.492800598420814
-0.0722587921831606,0.488638707842074
-0.0758018782359082,0.484503204181009
-0.0793620652261694,0.480394816156504
-0.082939157237164,0.476314272487438
-0.0865329583521107,0.472262301892693
-0.0901432726542292,0.468239633091153
-0.0937699042267383,0.464246994801697
-0.0974126571528578,0.460285115743209
-0.101071335515807,0.456354724634569
-0.104745743398804,0.45245655019466
-0.10843568488507,0.448591321142364
-0.112140964057822,0.444759766196561
-0.115861385000281,0.440962614076135
-0.119596751795666,0.437200593499965
-0.123346868527196,0.433474433186936
-0.127111539278091,0.429784861855927
-0.130890568131568,0.426132608225822
-0.134683759170849,0.422518401015501
-0.138490916479152,0.418942968943847
-0.142311844139696,0.41540704072974
-0.1461463462357,0.411911345092064
-0.149994226850385,0.4084566107497
-0.153855290066969,0.405043566421529
-0.157729339968671,0.401672940826433
-0.161616180638711,0.398345462683295
-0.165515616160307,0.395061860710995
-0.16942745061668,0.391822863628416
-0.173351488091049,0.388629200154439
-0.177287532666632,0.385481599007947
-0.181235388426649,0.38238078890782
-0.18519485945432,0.379327498572941
-0.189165749832863,0.376322456722191
-0.193147863645497,0.373366392074453
-0.197141004975443,0.370460033348607
-0.20114497790592,0.367604109263536
-0.205159586520146,0.364799348538122
-0.20918463490134,0.362046479891246
-0.213219927132723,0.35934623204179
-0.217265267297514,0.356699333708635
-0.221320459478931,0.354106513610665
-0.225385307760194,0.351568500466759
-0.229459616224522,0.349086022995801
-0.233543188955134,0.346659809916671
-0.237635830035251,0.344290589948252
-0.24173734354809,0.341979091809426
-0.245847533576872,0.339726044219073
-0.249966204204815,0.337532175896077
-0.254093159515139,0.335398215559318
-0.258228203591063,0.333324891927679
-0.262371140515807,0.331312933720041
-0.266521774372589,0.329363069655286
-0.270679909244629,0.327476028452295
-0.274845349215146,0.325652538829951
-0.27901789836736,0.323893329507135
-0.283197360784489,0.32219912920273
-0.287383540549753,0.320570666635616
-0.291576241746371,0.319008670524676
-0.295775268457563,0.317513869588791
-0.299980424766548,0.316086992546843
-0.304191514756544,0.314728768117714
-0.308408342510772,0.313439925020286
-0.31263071211245,0.31222119197344
-0.316858427644799,0.311073297696058
-0.321091293191036,0.309996970907022
-0.325329112834381,0.308992940325214
-0.329571690658055,0.308061934669515
-0.333818830745275,0.307204682658808
-0.338070337179261,0.306421913011973
-0.342326014043233,0.305714354447894
-0.346585665420409,0.30508273568545
-0.350849095394009,0.304527785443525
-0.355116108047253,0.304050232441
-0.359386507463359,0.303650805396757
-0.363660097725547,0.303330233029678
-0.367936682917035,0.303089244058644
-0.372216067121044,0.302928567202537
-0.376498054420793,0.302848931180239
-0.3807824488995,0.302851064710631
-0.385069054640385,0.302935696512596
-0.389357675726668,0.303103555305016
-0.393648116241567,0.303355369806771
-0.397940180268303,0.303691868736743
-0.402233671890093,0.304113780813816
-0.406528395190158,0.304621834756869
-0.410824154251716,0.305216759284786
-0.415120753157988,0.305899283116447
-0.419417995992191,0.306670134970735
-0.423715686837546,0.307530043566531
-0.428013629777272,0.308479737622717
-0.432311628894588,0.309519945858176
-0.436609488272713,0.310651396991787
-0.440907011994866,0.311874819742434
-0.445204004144268,0.313190942828999
-0.449500268804136,0.314600494970362
-0.453795610057691,0.316104204885405
-0.458089831988152,0.317702801293012
-0.462382738678737,0.319397012912062
-0.466674134212666,0.321187568461439
-0.470963822673159,0.323075196660023
-0.475251608143435,0.325060626226696
-0.479537294706712,0.327144585880341
-0.483820686446211,0.329327804339839
-0.48810158744515,0.331611010324072
-0.492379801786748,0.333994932551921
-0.496655133554226,0.336480299742269
-0.500927386830802,0.339067840613996
-0.505196365699696,0.341758283885986
-0.509461874244126,0.344552358277119
-0.513723716547313,0.347450792506278
-0.517981696692475,0.350454315292344
-0.522235618762831,0.353563655354198
-0.526485286841602,0.356779541410724
-0.530730505012005,0.360102702180801
-0.534971077357261,0.363533866383313
-0.539206807960588,0.367073762737141
-0.543437500905207,0.370723119961167
-0.547662960274335,0.374482666774272
-0.551882990151193,0.378353131895339
-0.556097394619,0.382335244043249
-0.560305977760975,0.386429731936883
-0.564508543660337,0.390637324295124
-0.568704896400306,0.394958749836854
-0.5728948400641,0.399394737280953
-0.57707817873494,0.403946015346305
-0.581254716496043,0.40861331275179
-0.585424257430631,0.41339735821629
-0.589586605621921,0.418298880458688
-0.593741565153134,0.423318608197864
-0.597888940107487,0.428457270152701
-0.602028534568202,0.433715595042081
-0.606160152618496,0.439094311584885
-0.61028359834159,0.444594148499995
-0.614398675820702,0.450215834506293
-0.618505189139052,0.45596009832266
-0.622602942379858,0.461827668667979
-0.626691739626342,0.467819274261131
-0.63077138496172,0.473935643820997
-0.634841682469214,0.48017750606646
-0.638902436232041,0.486545589716402
-0.642953450333422,0.493040623489704
-0.646994528856575,0.499663336105247
-0.65102547588472,0.506414456281914
-0.655046095501077,0.513294712738587
-0.659056191788863,0.520304834194147
-0.6630555688313,0.527445549367475
-0.667044030711605,0.534717586977455
-0.671021381512999,0.542121675742967
-0.6749874253187,0.549658544382893
-0.678941966211927,0.557328921616115
-0.682884808275901,0.565133536161516
-0.68681575559384,0.573073116737975
-0.690734612248964,0.581148392064376
-0.694641182324491,0.5893600908596
-0.698535269903641,0.597708941842529
-0.702416679069634,0.606195673732045
-0.706285213905688,0.614821015247029
-0.710140678495023,0.623585695106363
-0.713982876920859,0.632490442028929
-0.717811613266413,0.641535984733609
-0.721626691614906,0.650723051939284
-0.725427916049558,0.660052372364836
-0.729215090653586,0.669524674729148
-0.732988019510211,0.6791406877511
-0.736746506702652,0.688901140149574
-0.740490356314127,0.698806760643453
-0.744219372427857,0.708858277951619
-0.74793335912706,0.719056420792951
-0.751632120494957,0.729401917886334
-0.755315460614765,0.739895497950647
-0.758983183569704,0.750537889704774
-0.762635093442994,0.761329821867595
-0.766270994317854,0.772272023157994
-0.769890690277503,0.783365222294851
-0.773493985405161,0.794610147997048
-0.777080683784046,0.806007528983467
-0.780650589497378,0.817558093972989
-0.784203506628376,0.829262571684497
-0.78773923926026,0.841121690836873
-0.791257591476249,0.853136180148997
-0.794758367359561,0.865306768339752
