0.1489631703747,0.786608884438021
0.143989209848843,0.780260882286653
0.139031133765728,0.773910696891761
0.134088963968957,0.767558535736401
0.12916272230213,0.761204606303629
0.124252430608849,0.754849116076504
0.119358110732716,0.748492272538081
0.11447978451733,0.742134283171418
0.109617473806294,0.735775355459571
0.104771200443208,0.729415696885597
0.0999409862716741,0.723055514932553
0.0951268531352927,0.716695017083496
0.0903288228776652,0.710334410821483
0.0855469173423928,0.703973903629571
0.0807811583730765,0.697613702990816
0.0760315678133175,0.691254016388275
0.0712981675067169,0.684895051305005
0.066580979296876,0.678537015224063
0.0618800250273958,0.672180115628506
0.0571953265418775,0.665824560001391
0.0525269056839222,0.659470555825774
0.0478747842971311,0.653118310584713
0.0432389842251053,0.646768031761263
0.038619527311446,0.640419926838482
0.0340164353997543,0.634074203299428
0.0294297303336313,0.627731068627156
0.0248594339566782,0.621390730304724
0.0203055681124962,0.615053395815188
0.0157681546446863,0.608719272641606
0.0112472153968497,0.602388568267033
0.00674277221258762,0.596061490174528
0.00225484693550113,0.589738245847146
-0.00221653859080861,0.583419042767945
-0.00667136252274049,0.577104088419982
-0.0111096030166933,0.570793590286312
-0.0155312382290659,0.564487755849994
-0.0199362463162573,0.558186792594084
-0.0243246054346661,0.551890908001639
-0.0286962937406914,0.545600309555715
-0.0330512893907319,0.53931520473937
-0.0373895705411865,0.533035801035661
-0.041711115348454,0.526762305927644
-0.0460159019689334,0.520494926898375
-0.0503039085590235,0.514233871430913
-0.0545751132751231,0.507979347008313
-0.0588294942736311,0.501731561113634
-0.0630670297109463,0.49549072122993
-0.0672876977434676,0.48925703484026
-0.071491476527594,0.48303070942768
-0.075678344219724,0.476811952475248
-0.0798482789762568,0.470600971466019
-0.0840012589535912,0.46439797388305
-0.0881372623081258,0.458203167209399
-0.0922562671962598,0.452016758928123
-0.0963582517743918,0.445838956522278
-0.100443194198921,0.439669967474921
-0.104511072626246,0.433509999269109
-0.108561865212765,0.427359259387898
-0.112595550114878,0.421217955314347
-0.116612105488984,0.41508629453151
-0.12061150949148,0.408964484522446
-0.124593740278767,0.402852732770212
-0.128558776007243,0.396751246757863
-0.132506594833306,0.390660233968457
-0.136437174913356,0.38457990188505
-0.140350494403792,0.378510457990701
-0.144246531461012,0.372452109768464
-0.148125264241415,0.366405064701398
-0.151986670901401,0.360369530272559
-0.155830729597367,0.354345713965004
-0.159657418485713,0.34833382326179
-0.163466715722838,0.342334065645973
-0.167258599465141,0.336346648600611
-0.171033047869019,0.33037177960876
-0.174790039090873,0.324409666153477
-0.178529551287101,0.318460515717819
-0.182251562614102,0.312524535784843
-0.185956051228275,0.306601933837606
-0.189642995286019,0.300692917359164
-0.193312372943732,0.294797693832575
-0.196964162357813,0.288916470740895
-0.200598341684662,0.283049455567181
-0.204214889080676,0.27719685579449
-0.207813782702256,0.271358878905878
-0.2113950007058,0.265535732384404
-0.214958521247706,0.259727623713122
-0.218504322484373,0.253934760375091
-0.222032382572201,0.248157349853367
-0.225542679667589,0.242395599631007
-0.229035191926934,0.236649717191068
-0.232509897506636,0.230919910016607
-0.235966774563094,0.22520638559068
-0.239405801252707,0.219509351396345
-0.242826955731873,0.213829014916657
-0.246230216156992,0.208165583634675
-0.249615560684462,0.202519265033455
-0.252982967470682,0.196890266596053
-0.256332414672051,0.191278795805527
-0.259663880444967,0.185685060144934
-0.262977342945831,0.18010926709733
-0.266272780331039,0.174551624145772
-0.269550170756993,0.169012338773317
-0.272809492380089,0.163491618463021
-0.276050723356728,0.157989670697943
-0.279273841843307,0.152506702961138
-0.282478825996226,0.147042922735663
-0.285665653971884,0.141598537504575
-0.28883430392668,0.136173754750932
-0.291984754017011,0.130768781957789
-0.295116982399278,0.125383826608205
-0.29823096722988,0.120019096185234
-0.301326686665213,0.114674798171936
-0.304404118861679,0.109351140051365
-0.307463241975676,0.10404832930658
-0.310504034163602,0.0987665734206364
-0.313526473581856,0.0935060798765917
-0.316530538386838,0.0882670561575029
-0.319516206734945,0.0830497097464266
-0.322483456782578,0.0778542481264195
-0.325432266686134,0.0726808787805386
-0.328362614602013,0.0675298091918409
-0.331274478686614,0.0624012468433831
-0.334167837096335,0.0572953992182219
-0.337042667987575,0.0522124737994142
-0.339898949516733,0.0471526780700172
-0.342736659840208,0.0421162195130874
-0.345555777114399,0.0371033056116816
-0.348356279495704,0.0321141438488567
-0.351138145140523,0.0271489417076699
-0.353901352205255,0.0222079066711777
-0.356645878846297,0.0172912462224368
-0.35937170322005,0.0123991678445043
-0.362078803482912,0.00753187902043717
-0.364767157791281,0.00268958723329202
-0.367436744301557,-0.00212750003387444
-0.370087541170139,-0.00691917529800498
-0.372719526553424,-0.011685231076043
-0.375332678607814,-0.0164254598849315
-0.377926975489705,-0.0211396542416139
-0.380502395355497,-0.0258276066630331
-0.383058916361589,-0.0304891096661324
-0.385596516664379,-0.0351239557678548
-0.388115174420267,-0.0397319374851436
-0.390614867785652,-0.0443128473349419
-0.393095574916931,-0.0488664778341929
-0.395557273970505,-0.0533926214998396
-0.397999943102771,-0.0578910708488254
-0.40042356047013,-0.0623616183980932
-0.402828104228979,-0.0668040566645863
-0.405213552535717,-0.0712181781652479
-0.407579883546744,-0.075603775417021
-0.409927075418458,-0.0799606409368489
-0.412255106307258,-0.0842885672416747
-0.414563954369543,-0.0885873468484415
-0.416853597761712,-0.0928567722740925
-0.419124014640163,-0.0970966360355709
-0.421375183161296,-0.10130673064982
-0.42360708148151,-0.105486848633782
-0.425819687757202,-0.109636782504402
-0.428012980144773,-0.113756324778621
-0.43018693680062,-0.117845267973384
-0.432341535881143,-0.121903404605632
-0.434476755542741,-0.12593052719231
-0.436592573941813,-0.129926428250361
-0.438688969234756,-0.133890900296728
-0.440765919577971,-0.137823735848353
-0.442823403127856,-0.141724727422181
-0.44486139804081,-0.145593667535153
-0.446879882473232,-0.149430348704215
-0.44887883458152,-0.153234563446307
-0.450858232522074,-0.157006104278374
-0.452818054451292,-0.160744763717359
-0.454758278525573,-0.164450334280206
-0.456678882901317,-0.168122608483856
-0.458579845734921,-0.171761378845253
-0.460461145182785,-0.175366437881341
-0.462322759401308,-0.178937578109063
-0.464164666546888,-0.182474592045361
-0.465986844775924,-0.185977272207179
-0.467789272244816,-0.18944541111146
-0.469571927109962,-0.192878801275148
-0.47133478752776,-0.196277235215185
-0.473077831654611,-0.199640505448514
-0.474801037646912,-0.202968404492079
-0.476504383661062,-0.206260724862823
-0.478187847853461,-0.209517259077689
-0.479851408380507,-0.21273779965362
-0.481495043398599,-0.215922139107559
-0.483118731064136,-0.21907006995645
-0.484722449533517,-0.222181384717235
-0.486306176963141,-0.225255875906858
-0.487869891509405,-0.228293336042262
-0.489413571328711,-0.231293557640391
-0.490937194577455,-0.234256333218186
-0.492440739412038,-0.237181455292592
-0.493924183988857,-0.240068716380551
-0.495387506464312,-0.242917908999007
-0.496830684994802,-0.245728825664903
-0.498253697736725,-0.248501258895181
-0.499656522846481,-0.251235001206786
-0.501039138480467,-0.253929845116661
-0.502401522795084,-0.256585583141747
-0.50374365394673,-0.25920200779899
-0.505065510091803,-0.261778911605331
-0.506367069386703,-0.264316087077714
-0.507648309987829,-0.266813326733082
-0.508909210051579,-0.269270423088378
-0.510149747734352,-0.271687168660546
-0.511369901192547,-0.274063355966528
-0.512569648582563,-0.276398777523268
-0.513748968060799,-0.278693225847709
-0.514907837783653,-0.280946493456794
-0.516046235907525,-0.283158372867465
-0.517164140588813,-0.285328656596668
-0.518261529983916,-0.287457137161343
-0.519338382249234,-0.289543607078436
-0.520394675541164,-0.291587858864888
-0.521430388016106,-0.293589685037643
-0.522445497830459,-0.295548878113644
-0.523439983140621,-0.297465230609834
-0.524413822102991,-0.299338535043157
-0.525366992873969,-0.301168583930555
-0.526299473609953,-0.302955169788972
-0.527211242467341,-0.304698085135351
-0.528102277602533,-0.306397122486635
-0.528972557171929,-0.308052074359767
-0.529822059331925,-0.309662733271691
-0.530650762238922,-0.311228891739348
-0.531458644049317,-0.312750342279684
-0.532245682919511,-0.31422687740964
-0.533011857005902,-0.31565828964616
-0.533757144464889,-0.317044371506188
-0.53448152345287,-0.318384915506665
-0.535184972126244,-0.319679714164536
-0.535867468641412,-0.320928559996743
-0.53652899115477,-0.322131245520231
-0.537169517822718,-0.323287563251941
-0.537789026801655,-0.324397305708817
-0.53838749624798,-0.325460265407802
-0.538964904318091,-0.32647623486584
-0.539521229168388,-0.327445006599873
-0.540056448955269,-0.328366373126844
-0.540570541835133,-0.329240126963698
-0.54106348596438,-0.330066060627376
-0.541535259499407,-0.330843966634823
-0.541985840596614,-0.33157363750298
-0.5424152074124,-0.332254865748793
-0.542823338103163,-0.332887443889202
-0.543210210825302,-0.333471164441153
-0.543575803735217,-0.334005819921587
-0.543920094989305,-0.334491202847448
-0.544243062743967,-0.33492710573568
-0.5445446851556,-0.335313321103225
-0.544824940380604,-0.335649641467026
-0.545083806575377,-0.335935859344027
-0.545321261896319,-0.336171767251171
-0.545537284499827,-0.336357157705401
-0.545731852542302,-0.33649182322366
-0.545904944180142,-0.336575556322891
-0.546056537569745,-0.336608149520037
-0.546186610867511,-0.336589395332042
-0.546295142229839,-0.336519086275849
-0.546382109813127,-0.336397014868401
-0.546447491773773,-0.336222973626641
-0.546491266268178,-0.335996755067511
-0.54651341145274,-0.335718151707957
-0.546513905483858,-0.335386956064919
-0.54649272651793,-0.335002960655343
-0.546449852711355,-0.33456595799617
-0.546385262220533,-0.334075740604344
-0.546298933201862,-0.333532100996809
-0.546190843811741,-0.332934831690506
-0.546060972206569,-0.33228372520238
-0.545909296542745,-0.331578574049374
-0.545735794976667,-0.33081917074843
-0.545540445664735,-0.330005307816492
-0.545323226763347,-0.329136777770503
-0.545084116428902,-0.328213373127407
-0.5448230928178,-0.327234886404145
-0.544540134086438,-0.326201110117663
-0.544235218391215,-0.325111836784902
-0.543908323888532,-0.323966858922805
-0.543559428734786,-0.322765969048317
-0.543188511086376,-0.32150895967838
-0.542795549099701,-0.320195623329937
-0.542380520931161,-0.318825752519931
-0.541943404737153,-0.317399139765307
-0.541484178674077,-0.315915577583005
-0.541002820898331,-0.314374858489971
-0.540499309566315,-0.312776775003147
-0.539973622834427,-0.311121119639476
-0.539425738859067,-0.309407684915901
-0.538855635796632,-0.307636263349366
-0.538263291803523,-0.305806647456814
-0.537648685036136,-0.303918629755187
-0.537011793650873,-0.301972002761429
-0.536352595804131,-0.299966558992484
-0.535671069652309,-0.297902090965293
-0.534967193351807,-0.295778391196801
-0.534240945059022,-0.293595252203951
-0.533492302930355,-0.291352466503686
-0.532721245122203,-0.289049826612948
-0.531927749790966,-0.286687125048682
-0.531111795093042,-0.284264154327829
-0.53027335918483,-0.281780706967334
-0.529412420222729,-0.27923657548414
-0.528528956363139,-0.276631552395189
-0.527622945762457,-0.273965430217425
-0.526694366577084,-0.271238001467791
-0.525743196963416,-0.26844905866323
-0.524769415077854,-0.265598394320686
-0.523772999076797,-0.262685800957101
-0.522753927116642,-0.259711071089418
-0.52171217735379,-0.256673997234581
-0.520647727944639,-0.253574371909533
-0.519560557045587,-0.250411987631218
-0.518450642813033,-0.247186636916577
-0.517317963403378,-0.243898112282555
-0.516162496973018,-0.240546206246094
-0.514984221678354,-0.237130711324138
-0.513783115675783,-0.23365142003363
-0.512559157121706,-0.230108124891513
-0.51131232417252,-0.22650061841473
-0.510042594984625,-0.222828693120224
-0.508749947714419,-0.219092141524939
-0.507434360518301,-0.215290756145817
-0.506095811552671,-0.211424329499802
-0.504734278973926,-0.207492654103837
-0.503349740938467,-0.203495522474865
-0.501942175602691,-0.199432727129829
-0.500511561122998,-0.195304060585673
-0.499057875655786,-0.191109315359339
-0.497581097357454,-0.186848283967771
-0.496081204384402,-0.182520758927912
-0.494558174893028,-0.178126532756705
-0.49301198703973,-0.173665397971092
-0.491442618980908,-0.169137147088019
-0.489850048872961,-0.164541572624426
-0.488234254872287,-0.159878467097259
-0.486595215135286,-0.155147623023459
-0.484932907818355,-0.15034883291997
-0.483247311077895,-0.145481889303735
-0.481538403070303,-0.140546584691697
-0.479806161951979,-0.135542711600799
-0.478050565879322,-0.130470062547986
-0.47627159300873,-0.125328430050198
-0.474469221496602,-0.120117606624381
-0.472643429499338,-0.114837384787477
-0.470794195173335,-0.109487557056429
-0.468921496674994,-0.10406791594818
-0.467025312160712,-0.0985782539796737
-0.465105619786888,-0.0930183636678529
-0.463162397709922,-0.0873880375296611
-0.461195624086213,-0.0816870680820409
-0.459205277072158,-0.0759152478419361
-0.457191334824158,-0.0700723693262893
-0.45515377549861,-0.0641582250520441
-0.453092577251914,-0.0581726075361432
-0.451007718240468,-0.0521153092955303
-0.448899176620672,-0.045986122847148
-0.446766930548925,-0.0397848407079399
-0.444610958181624,-0.0335112553948487
-0.442431237675169,-0.0271651594248182
-0.440227747185959,-0.0207463453147908
-0.438000464870393,-0.0142546055817104
-0.43574936888487,-0.00768973274251942
-0.433474437385788,-0.00105151931416166
-0.431175648529546,0.00566024218642028
-0.428852980472543,0.0124457592422827
-0.426506411371178,0.019305239336483
-0.42413591938185,0.0262388899520774
-0.421741482660958,0.0332469185721235
-0.4193230793649,0.0403295326796773
-0.416880687650076,0.0474869397577965
-0.414414285672884,0.0547193472895371
-0.411923851589723,0.0620269627579568
-0.409409363556992,0.0694099936461117
-0.40687079973109,0.0768686474370592
-0.404308138268416,0.0844031316138556
-0.401721357325368,0.0920136536595584
-0.399110435058346,0.0997004210572238
-0.396475349623748,0.107463641289909
-0.393816079177973,0.115303521840671
-0.391132601877419,0.123220270192567
-0.388424895878487,0.131214093828652
-0.385692939337575,0.139285200231985
-0.382936710411081,0.147433796885621
-0.380156187255404,0.155660091272619
-0.377351348026944,0.163964290876034
-0.374522170882099,0.172346603178924
-0.371668633977268,0.180807235664345
-0.368790715468849,0.189346395815354
-0.365888393513243,0.197964291115009
-0.362961646266846,0.206661129046365
-0.36001045188606,0.21543711709248
-0.357034788527281,0.22429246273641
-0.35403463434691,0.233227373461213
-0.351009967501344,0.242242056749946
-0.347960766146984,0.251336720085664
-0.344887008440227,0.260511570951425
