0.598118685923063,-0.926045455100121
0.581741869841786,-0.916232914433525
0.565470634947184,-0.906533003762806
0.549304863188236,-0.89694482855144
0.533244436513922,-0.887467494262908
0.51728923687322,-0.878100106360689
0.501439146215111,-0.86884177030826
0.485694046488573,-0.859691591569102
0.470053819642586,-0.850648675606692
0.454518347626129,-0.841712127884509
0.439087512388182,-0.832881053866034
0.423761195877723,-0.824154559014743
0.408539280043733,-0.815531748794116
0.393421646835191,-0.807011728667633
0.378408178201075,-0.798593604098771
0.363498756090365,-0.79027648055101
0.348693262452041,-0.782059463487828
0.333991579235082,-0.773941658372705
0.319393588388467,-0.765922170669118
0.304899171861176,-0.758000105840548
0.290508211602188,-0.750174569350472
0.276220589560482,-0.74244466666237
0.262036187685037,-0.734809503239721
0.247954887924834,-0.727268184546003
0.23397657222885,-0.719819816044694
0.220101122546066,-0.712463503199275
0.206328420825462,-0.705198351473224
0.192658349016015,-0.698023466330019
0.179090789066706,-0.69093795323314
0.165625622926514,-0.683940917646065
0.152262732544419,-0.677031465032273
0.139001999869399,-0.670208700855244
0.125843306850433,-0.663471730578455
0.112786535436503,-0.656819659665385
0.0998315675765855,-0.650251593579515
0.0869782852196614,-0.643766637784321
0.0742265703147096,-0.637363897743284
0.0615763048107094,-0.631042478919882
0.0490273706566402,-0.624801486777593
0.0365796498014813,-0.618640026779898
0.0242330241942121,-0.612557204390274
0.0119873757838119,-0.6065521250722
-0.000157413480740026,-0.600623894289155
-0.0122014616504642,-0.594771617504618
-0.0241448867763813,-0.588994400182069
-0.0359878069095122,-0.583291347784984
-0.0477303401008772,-0.577661565776845
-0.0593726044014973,-0.572104159621129
-0.070914717862393,-0.566618234781315
-0.0823567985345851,-0.561202896720882
-0.0936989644690941,-0.555857250903309
-0.104941333716941,-0.550580402792075
-0.116084024329145,-0.545371457850658
-0.127127154356729,-0.540229521542538
-0.138070841850713,-0.535153699331192
-0.148915204862116,-0.530143096680101
-0.159660361441961,-0.525196819052743
-0.170306429641267,-0.520313971912597
-0.180853527511056,-0.515493660723141
-0.191301773102347,-0.510734990947854
-0.201651284466162,-0.506037068050216
-0.211902179653521,-0.501398997493705
-0.222054576715445,-0.4968198847418
-0.232108593702955,-0.49229883525798
-0.242064348667071,-0.487834954505723
-0.251921959658813,-0.483427347948508
-0.261681544729204,-0.479075121049815
-0.271343221929262,-0.474777379273122
-0.28090710931001,-0.470533228081908
-0.290373324922467,-0.466341772939652
-0.299741986817654,-0.462202119309832
-0.309013213046592,-0.458113372655928
-0.318187121660301,-0.454074638441418
-0.327263830709803,-0.450085022129781
-0.336243458246118,-0.446143629184496
-0.345126122320266,-0.442249565069042
-0.353911940983268,-0.438401935246898
-0.362601032286145,-0.434599845181541
-0.371193514279918,-0.430842400336453
-0.379689505015606,-0.42712870617511
-0.478698387411121,-0.540794294612301
-0.514662154444876,-0.319421890062615
-0.404599710184376,-0.416241182428348
-0.296515855097281,-0.502916191418961
-0.540522025643169,-0.300074999018788
-0.325260418443168,-0.524429064149634
-0.542205418418838,-0.28822564748915
-0.444197911732577,-0.398886833116691
-0.553465793989724,-0.288878993275976
-0.340818921557013,-0.273728628156396
-0.357249541044299,-0.296125073263398
-0.381411626970939,-0.479650090878413
-0.373719895869467,-0.474387655780632
-0.488567901788016,-0.379229869257807
-0.611807523473658,-0.283383543012209
-0.502598875320085,-0.372929750781835
-0.62757567868598,-0.250196649417013
-0.516251911289222,-0.366743806557407
-0.423441935057832,-0.271288229937354
-0.619961561860022,-0.452924908052936
-0.428634150481862,-0.448988525760526
-0.439378390098722,-0.241409387860805
-0.447917742831764,-0.468368126280325
-0.554952837900706,-0.348799456471705
-0.450573544698096,-0.436232545333714
-0.657546099659744,-0.232622464829542
-0.573038917753011,-0.34012808582657
-0.46583821534982,-0.437007884900004
-0.47919287641764,-0.449237228646809
-0.477836157349945,-0.42450726011326
-0.595849640181106,-0.328823935052108
-0.601320241597021,-0.326037947487467
-0.606698247438535,-0.323266190901375
-0.611983775756667,-0.320507770757308
-0.617176944602439,-0.317761792518748
-0.62227787202687,-0.315027361649171
-0.627286676080983,-0.312303583612058
-0.632203474815796,-0.309589563870886
-0.637028386282332,-0.306884407889136
-0.64176152853161,-0.304187221130285
-0.646403019614651,-0.301497109057812
-0.650952977582477,-0.298813177135197
-0.655411520486107,-0.296134530825917
-0.659778766376562,-0.293460275593453
-0.664054833304863,-0.290789516901283
-0.668239839322031,-0.288121360212885
-0.672333902479087,-0.285454910991738
-0.67633714082705,-0.282789274701322
-0.680249672416942,-0.280123556805115
-0.684071615299783,-0.277456862766596
-0.687803087526594,-0.274788298049244
-0.691444207148395,-0.272116968116537
-0.694995092216208,-0.269441978431955
-0.698455860781053,-0.266762434458976
-0.70182663089395,-0.264077441661079
-0.705107520605921,-0.261386105501744
-0.708298647967986,-0.258687531444448
-0.711400131031165,-0.25598082495267
-0.714412087846479,-0.25326509148989
-0.717334636464949,-0.250539436519587
-0.720167894937596,-0.247802965505239
-0.72291198131544,-0.245054783910324
-0.725567013649502,-0.242293997198323
-0.728133109990802,-0.239519710832713
-0.730610388390362,-0.236731030276974
-0.732998966899201,-0.233927060994584
-0.735298963568341,-0.231106908449022
-0.737510496448802,-0.228269678103768
-0.739633683591605,-0.225414475422299
-0.741668643047771,-0.222540405868095
-0.74361549286832,-0.219646574904634
-0.745474351104272,-0.216732087995396
-0.747245335806649,-0.213796050603859
-0.748928565026472,-0.210837568193502
-0.75052415681476,-0.207855746227803
-0.752032229222534,-0.204849690170243
-0.753452900300816,-0.201818505484299
-0.754786288100626,-0.198761297633451
-0.756032510672983,-0.195677172081176
-0.757191686068911,-0.192565234290955
-0.758263932339428,-0.189424589726266
-0.759249367535555,-0.186254343850587
-0.760148109708313,-0.183053602127398
-0.760960276908724,-0.179821470020177
-0.761685987187807,-0.176557052992404
-0.762325358596582,-0.173259456507557
-0.762878509186072,-0.169927786029114
-0.763345557007296,-0.166561147020555
-0.763726620111275,-0.163158644945359
-0.76402181654903,-0.159719385267005
-0.764231264371582,-0.15624247344897
-0.76435508162995,-0.152727014954735
-0.764393386375156,-0.149172115247778
-0.764346296658221,-0.145576879791577
-0.764213930530165,-0.141940414049612
-0.763996406042008,-0.138261823485361
-0.763693841244772,-0.134540213562304
-0.763306354189477,-0.130774689743919
-0.762834062927143,-0.126964357493685
-0.762277085508792,-0.12310832227508
-0.761635539985444,-0.119205689551584
-0.76090954440812,-0.115255564786676
-0.76009921682784,-0.111257053443834
-0.759204675295625,-0.107209260986537
-0.758226037862496,-0.103111292878264
-0.757163422579473,-0.098962254582494
-0.756016947497577,-0.0947612515627054
-0.754786730667829,-0.0905073892823774
-0.753472890141249,-0.0861997732049887
-0.752075543968858,-0.0818375087940181
-0.750594810201677,-0.0774197015129445
-0.749030806890726,-0.0729454568252467
-0.747383652087027,-0.0684138801944036
-0.745653463841598,-0.063824077083894
-0.743840360205463,-0.0591751529571968
-0.74194445922964,-0.0544662132777906
-0.73996587896515,-0.0496963635091545
-0.737904737463015,-0.0448647091147673
-0.735761152774255,-0.0399703555581077
-0.733535242949891,-0.0350124083026546
