0.099654849073983,0.863306611996037
0.761260341191943,0.227272333835899
0.977022480062322,-0.23335573359635
-0.100444574291941,0.128936243968772
-1.1779116286462,0.491228221533895
0.425752393780356,0.0689184700850634
0.180937243530573,-0.835553197699381
