-0.82058203937151,0.0442442073330589
0.992515230854029,0.811080938947262
0.728262115289653,0.957377509706749
0.348975038415211,-0.423986155636253
-0.0303120384592301,-1.80534982097925
0.897880607584258,0.340339377437309
0.587873114236776,0.16946518616271
