0.0315466824874326,0.759537746213442
0.0295201721872043,0.757947633761569
0.0275367795792365,0.756319835373457
0.0255963289055444,0.754654700931964
0.0236986444081431,0.752952580319947
0.0218435503290478,0.751213823420263
0.0200308709102736,0.749438780115768
0.0182604303938357,0.747627800289321
0.0165320530217492,0.745781233823778
0.0148455630360292,0.743899430601996
0.013200784678691,0.741982740506832
0.0115975421917495,0.740031513421144
0.0100356598172201,0.738046099227788
0.00851496179711776,0.736026847809622
0.00703527237345769,0.733974109049501
0.00559641578825503,0.731888232830285
0.00419821628352492,0.729769569034829
0.0028404981012825,0.727618467545991
0.00152308548354292,0.725435278246628
0.000245802672321316,0.723220351019596
-0.000991526090367164,0.720974035747754
-0.00218907656250738,0.718696682313957
-0.0033470245020842,0.716388640601064
-0.00446554566708247,0.71405026049193
-0.00554481581548703,0.711681891869414
-0.00658501070528277,0.709283884616372
-0.00758630609445453,0.706856588615662
-0.00854887774098716,0.70440035375014
-0.00947290140286554,0.701915529902663
-0.0103585528380745,0.699402466956089
-0.0112060078045989,0.696861514793274
-0.0120154420604237,0.694293023297076
-0.0127870313635335,0.691697342350352
-0.0135209514719135,0.689074821835959
-0.0142173781435483,0.686425811636753
-0.0148764871364228,0.683750661635593
-0.0154984542085219,0.681049721715334
-0.0160834551178305,0.678323341758835
-0.0166316656223334,0.675571871648951
-0.0171432614800154,0.672795661268541
-0.0176184184488615,0.669995060500461
-0.0180573122868564,0.667170419227569
-0.0184601187519851,0.664322087332721
-0.0188270136022324,0.661450414698774
-0.0191581725955832,0.658555751208586
-0.0194537714900222,0.655638446745013
-0.0197139860435344,0.652698851190914
-0.0199389920141046,0.649737314429144
-0.0201289651597178,0.64675418634256
-0.0202840812383586,0.643749816814021
-0.0204045160080121,0.640724555726383
-0.0204904452266629,0.637678752962502
-0.0205420446522962,0.634612758405237
-0.0205594900428965,0.631526921937444
-0.0205429571564489,0.62842159344198
-0.0204926217509382,0.625297122801702
-0.0204086595843492,0.622153859899468
-0.0202912464146668,0.618992154618134
-0.0201405579998759,0.615812356840558
-0.0199567700979612,0.612614816449596
-0.0197400584669078,0.609399883328106
-0.0194905988647003,0.606167907358944
-0.0192085670493238,0.602919238424969
-0.0188941387787629,0.599654226409036
-0.0185474898110027,0.596373221194003
-0.018168795904028,0.593076572662727
-0.0177582328158235,0.589764630698065
-0.0173159763043742,0.586437745182874
-0.0168422021276649,0.583096266000011
-0.0163370860436805,0.579740543032334
-0.0158008038104058,0.576370926162698
-0.0152335311858258,0.572987765273963
-0.0146354439279252,0.569591410248983
-0.0140067177946889,0.566182210970617
-0.0133475285441017,0.562760517321722
-0.0126580519341486,0.559326679185154
-0.0119384637228144,0.555881046443771
-0.0111889396680839,0.55242396898043
-0.010409655527942,0.548955796677988
-0.00960078706037358,0.545476879419301
-0.00876251002336344,0.541987567087228
-0.00789500017489648,0.538488209564625
-0.00699843327295753,0.534979156734348
-0.00607298507553147,0.531460758479256
-0.00511883134060315,0.527933364682205
-0.00413614782615743,0.524397325226053
-0.00312511029017916,0.520852989993656
-0.0020858944906532,0.517300708867871
-0.00101867618556439,0.513740831731556
7.63688671023693e-05,0.510173708467567
0.00119906490936225,0.506599688958762
0.00234923618323041,0.503019123087998
0.00352670693072196,0.499432360738132
0.00473130139385207,0.49583975179202
0.00596284381463585,0.49224164613252
0.00722115843508848,0.48863839364249
0.00850606949722509,0.485030344204785
0.0098174012430608,0.481417847702264
0.0111549779146108,0.477801254017782
0.0125186237538902,0.474180913034198
0.0139081630029141,0.470557174634369
0.0153234199036977,0.46693038870115
0.0167642186982562,0.4633009051174
0.0182303836286046,0.459669073765976
0.0197217389367581,0.456035244529734
0.0212381088647319,0.452399767291533
0.0227793176545411,0.448762991934227
0.0243451895482009,0.445125268340675
0.0259355487877263,0.441486946393735
0.0275502196151326,0.437848375976262
0.0291890262724348,0.434209906971115
0.0308517930016482,0.430571889261149
0.0325383440447878,0.426934672729222
0.0342485036438689,0.423298607258192
0.0359820960409065,0.419664042730915
0.0377389454779157,0.416031329030249
0.0395188761969118,0.412400816039049
0.0413217124399099,0.408772853640175
0.0431472784489251,0.405147791716482
0.0449953984659725,0.401525980150827
0.0468658967330674,0.397907768826068
0.0487585974922248,0.394293507625062
0.0506733249854598,0.390683546430666
0.0526099034547878,0.387078235125736
0.0545681571422237,0.383477923593131
0.0565479102897827,0.379882961715706
0.05854898713948,0.37629369937632
0.0605712119333306,0.372710486457828
0.0626144089133498,0.369133672843089
0.0646784023215527,0.36556360841496
0.0667630163999545,0.362000643056296
0.0688680753905702,0.358445126649956
0.070993403535415,0.354897409078797
0.0731388250765041,0.351357840225675
0.0753041642558526,0.347826769973448
0.0774892453154757,0.344304548204972
0.0796938924973884,0.340791524803105
0.0819179300436059,0.337288049650704
0.0841611821961434,0.333794472630626
0.0864234731970161,0.330311143625728
0.088704627288239,0.326838412518867
0.0910044687118273,0.3233766291929
0.0933228217097962,0.319926143530684
0.0956595105241607,0.316487305415077
0.0980143593969361,0.313060464728934
0.100387192570137,0.309645971355115
0.10277783428578,0.306244175176474
0.105186108785879,0.30285542607587
0.107611840312449,0.29948007393616
0.110054853107505,0.2961184686402
0.112514971413064,0.292770960070848
0.114992019471139,0.289437898110961
0.117485821523746,0.286119632643395
0.1199962018129,0.282816513551009
0.122522984580617,0.279528890716658
0.125065994068911,0.276257114023201
0.127625054519797,0.273001533353493
0.130199990175291,0.269762498590393
0.132790625277408,0.266540359616757
0.135396784068163,0.263335466315443
0.138018290789572,0.260148168569306
0.140654969683648,0.256978816261206
0.143306644992408,0.253827759273997
0.145973140957866,0.250695347490539
0.148654281822038,0.247581930793687
0.151349891826939,0.244487859066298
0.154059795214584,0.241413482191231
0.156783816226987,0.238359150051341
0.159521779106166,0.235325212529487
0.162273508094133,0.232312019508524
0.165038827432905,0.22931992087131
0.167817561364497,0.226349266500703
0.170609534130924,0.223400406279558
0.1734145699742,0.220473690090734
0.176232493136342,0.217569467817087
0.179063127859364,0.214688089341475
0.181906298385281,0.211829904546754
0.184761828956109,0.208995263315782
0.187629543813863,0.206184515531415
0.190509267200557,0.203398011076511
0.193400823358208,0.200636099833927
0.196304036528829,0.197899131686519
0.199218730954437,0.195187456517146
0.202144730877046,0.192501424208663
0.205081860538672,0.189841384643928
0.208029944181329,0.187207687705798
0.210988806047033,0.184600683277131
0.2139582703778,0.182020721240783
0.216938161415643,0.179468151479611
0.219928303402578,0.176943323876472
0.222928520580621,0.174446588314224
0.225938637191787,0.171978294675723
0.22895847747809,0.169538792843827
0.231987865681546,0.167128432701392
0.23502662604417,0.164747564131276
0.238074582807977,0.162396537016336
0.241131560214983,0.160075701239428
0.244197382507201,0.157785406683411
0.247271873926649,0.15552600323114
0.25035485871534,0.153297840765474
0.25344616111529,0.151101269169269
0.256545605368514,0.148936638325381
0.259653015717026,0.146804298116669
0.262768216402844,0.144704598425989
0.26589103166798,0.142637889136199
0.269021285754451,0.140604520130155
0.272158802904272,0.138604841290715
0.275303407359458,0.136639202500735
0.278454923362023,0.134707953643072
0.281613175153984,0.132811444600585
0.284777986977355,0.130950025256129
0.287949183074151,0.129124045492562
0.291126587686388,0.127333855192741
0.294310025056081,0.125579804239523
0.297499319425244,0.123862242515765
0.300694295035894,0.122181519904324
0.303894776130044,0.120537986288057
0.307100586949711,0.118931991549821
0.310311551736909,0.117363885572474
0.313527494733654,0.115834018238872
0.31674824018196,0.114342739431873
0.319973612323844,0.112890399034332
0.323203435401319,0.111477346929109
0.326437533656401,0.110103932999059
0.329675731331106,0.10877050712704
0.332917852667448,0.107477419195909
0.336163721907442,0.106225019088523
0.339413163293105,0.105013656687738
0.342666001066449,0.103843681876413
0.345922059469493,0.102715444537403
0.349181162744248,0.101629294553567
0.352443135132733,0.100585581807761
0.355707800876961,0.0995846561828417
0.358974984218947,0.0986268675616671
0.362244509400707,0.0977125658270939
0.365516200664256,0.0968421008619791
0.368789882251609,0.0960158225491799
0.372065378404781,0.0952340807715532
0.375342513365787,0.0944972254119563
0.378621111376642,0.0938056063532459
0.381900996679362,0.0931595734782795
0.385181993515962,0.0925594766699138
0.388463926128457,0.0920056658110061
0.391746618758861,0.0914984907844134
0.395029895649191,0.0910383014729927
0.398313581041461,0.0906254477596013
0.401597499177686,0.0902602795270959
0.404881474299882,0.0899431466583339
0.408165330650064,0.0896743990361721
0.411448892470246,0.0894543865434679
0.414731984002444,0.089283459063078
0.418014429488674,0.0891619664778596
0.42129605317095,0.0890902586706699
0.424576679291287,0.0890686855243658
0.427856132091701,0.0890975969218045
0.431134235814206,0.089177342745843
0.434410814700818,0.0893082728793384
0.437685692993552,0.0894907372051477
0.440958694934424,0.089725085606128
0.444229644765447,0.0900116679651364
0.447498366728638,0.0903508341650299
0.450764685066012,0.0907429340886656
0.454028424019582,0.0911883176189007
0.457289407831367,0.091687334638592
0.460547460743378,0.0922403350305968
0.463802406997634,0.092847668677772
0.467054070836147,0.0935096854629748
0.470302276500934,0.0942267352690623
0.473546848234009,0.0949991679788914
0.476787610277388,0.0958273334753193
0.480024386873086,0.0967115816412029
0.483257002263117,0.0976522623593995
0.486485280689498,0.0986497255127659
0.489709046394243,0.0997043209841595
0.492928123619368,0.100816398656437
0.496142336606887,0.101986308412456
0.499351509598815,0.103214400135073
0.502555466837169,0.104501023707145
0.505754032563962,0.10584652901153
0.508947031021211,0.107251265931084
0.51213428645093,0.108715584348665
0.515315623095134,0.110239834147129
0.518490865195839,0.111824365209333
0.52165983699506,0.113469527418136
0.524822362734811,0.115175670656393
0.527978266657108,0.116943144806962
0.531127373003967,0.1187722997527
0.534269506017401,0.120663485376464
0.537404489939427,0.122617051561111
0.54053214901206,0.124633348189498
0.543652307477314,0.126712725144482
0.546764789577205,0.128855532308921
0.549869419553748,0.131062119565671
0.552966021648959,0.133332836797589
0.556054420104851,0.135668033887532
0.559134439163441,0.138068060718359
0.562205903066743,0.140533267172924
0.565268636056773,0.143064003134087
0.568322462375546,0.145660618484703
0.571367206265077,0.148323463107629
0.574402691967381,0.151052886885724
0.577428743724473,0.153849239701844
0.580445185778369,0.156712871438845
0.583451842371083,0.159644131979586
0.586448537744631,0.162643371206922
0.589435096141027,0.165710939003713
0.592411341802288,0.168847185252813
0.595377098970428,0.17205245983708
0.598332191887462,0.175327112639372
0.601276444795405,0.178671493542545
0.604209681936273,0.182085952429457
0.607131727552081,0.185570839182964
0.610042405884843,0.189126503685924
0.612941541176576,0.192753295821194
0.615828957669293,0.196451565471631
0.618704479605011,0.200221662520092
0.621567931225744,0.204063936849433
0.624419136773508,0.207978738342512
0.627257920490317,0.211966416882187
0.630084106618187,0.216027322351313
0.632897519399134,0.220161804632749
0.635697983075171,0.224370213609351
0.638485321888314,0.228652899163976
0.641259360080579,0.233010211179482
0.64401992189398,0.237442499538725
0.646766831570534,0.241950114124563
0.649499913352254,0.246533404819853
0.652218991481156,0.251192721507451
0.654923890199255,0.255928414070214
0.657614433748566,0.260740832391001
0.660290446371105,0.265630326352667
0.662951752308886,0.270597245838071
0.665598175803925,0.275641940730068
0.668229541098237,0.280764760911517
0.670845672433836,0.285966056265273
0.673446394052739,0.291246176674195
0.67603153019696,0.296605472021139
0.678600905108515,0.302044292188963
0.681154343029418,0.307562987060523
0.683691668201684,0.313161906518676
0.68621270486733,0.31884140044628
0.688717277268369,0.324601818726192
0.691205209646818,0.330443511241268
0.693676326244691,0.336366827874366
0.696130451304003,0.342372118508343
0.69856740906677,0.348459733026055
0.700987023775006,0.354630021310361
0.703389119670727,0.360883333244117
0.705773520995949,0.367220018710179
0.708140051992685,0.373640427591406
0.710488536902952,0.380144909770654
0.712818799968764,0.386733815130781
0.715130665432136,0.393407493554642
0.717423957535084,0.400166294925097
0.719698500519623,0.407010569125
0.721954118627768,0.413940666037211
0.724190636101535,0.420956935544585
0.726407877182937,0.428059727529979
0.728605666113991,0.435249391876252
0.730783827136711,0.442526278466259
0.732942184493113,0.449890737182858
0.735080562425212,0.457343117908906
0.737198785175022,0.46488377052726
0.73929667698456,0.472513044920778
0.741374062095841,0.480231290972315
0.743430764750878,0.48803885856473
0.745466609191688,0.495936097580878
0.747481419660286,0.503923357903619
0.749475020398686,0.512000989415807
0.751447235648905,0.520169342000302
0.753397889652957,0.528428765539958
0.755326806652857,0.536779609917635
0.75723381089062,0.545222225016188
0.759118726608262,0.553756960718475
0.760981378047797,0.562384166907353
0.762821589451241,0.571104193465679
0.76463918506061,0.579917390276309
0.766433989117917,0.588824107222102
0.768205825865179,0.597824694185914
0.76995451954441,0.606919501050602
0.771679894397625,0.616108877699023
0.773381774666841,0.625393174014035
0.775059984594071,0.634772739878494
0.776714348421331,0.644247925175258
0.778344690390636,0.653819079787182
0.779950834744001,0.663486553597126
0.781532605723442,0.673250696487945
0.783089827570973,0.683111858342497
0.78462232452861,0.693070389043639
0.786129920838368,0.703126638474228
0.787612440742262,0.71328095651712
0.789069708482307,0.723533693055174
0.790501548300518,0.733885197971245
0.791907784438911,0.744335821148192
0.7932882411395,0.754885912468871
0.7946427426443,0.765535821816139
0.795971113195328,0.776285899072854
0.797273177034597,0.787136494121872
0.798548758404124,0.79808795684605
0.799797681545923,0.809140637128246
