-0.0673544466966511,0.728761541270673
-0.0625293868036568,0.719340922486222
-0.0577805428281618,0.709986925219076
-0.0531076008486178,0.700699330454131
-0.0485102469434761,0.691477919176276
-0.0439881671911884,0.682322472370405
-0.0395410476702061,0.67323277102141
-0.0351685744589807,0.664208596114184
-0.0308704336359636,0.655249728633619
-0.0266463112796065,0.646355949564608
-0.0224958934683608,0.637527039892042
-0.0184188662806779,0.628762780600814
-0.0144149157950095,0.620062952675817
-0.0104837280898069,0.611427337101943
-0.00662498924352163,0.602855714864085
-0.00283838533460526,0.594347866947135
0.000876397558490727,0.585903574335985
0.00451967335731487,0.577522618015528
0.0115929593583416,0.560949838186261
0.0150235974036411,0.552757576647237
0.0183839840408629,0.544627775338475
0.0216744331915553,0.536560215244868
0.0248952587772669,0.528554677351307
0.0280467747195461,0.520610942642687
0.0311292949399415,0.512728792103899
0.0341431333600016,0.504908006719835
0.0370886039012748,0.497148367475389
0.0399660204853098,0.489449655355451
0.0427756970336549,0.481811651344916
0.0455179474678587,0.474234136428674
0.0481930857094698,0.466716891591619
0.0508014256800365,0.459259697818643
0.0533432813011074,0.451862336094638
0.0558189664942311,0.444524587404498
0.0582287951809559,0.437246232733113
0.0605730812828305,0.430027053065377
0.0628521387214033,0.422866829386183
0.0650662814182228,0.415765342680421
0.0672158232948376,0.408722373932986
0.069301078272796,0.401737704128769
0.0713223602736468,0.394811114252662
0.0732799832189382,0.387942385289559
0.0751742610302189,0.381131298224351
0.0770055076290374,0.374377634041932
0.0787740369369421,0.367681173727192
0.0804801628754815,0.361041698265026
0.0821241993662043,0.354458988640325
0.0837064603306588,0.347932825837981
0.0852272596903936,0.341462990842887
0.0866869113669571,0.335049264639936
0.0894240273567645,0.322389262550031
0.0907021195131054,0.316142548632862
0.0919203196724691,0.309951067447405
0.093078941756404,0.303814599978552
0.0941782996864588,0.297732927211197
0.0952187073841819,0.29170583013023
0.0962004787711218,0.285733089720546
0.0971239277688269,0.279814486967036
0.0979893682988459,0.273949802854592
-0.00676537318755902,0.374738067799365
0.100240778298271,0.256677072212585
0.196003678999338,0.139174965523387
0.101457431187846,0.245427496379608
-0.00556298780153387,0.355635246051616
0.194450762636664,0.345362110528589
0.102862258288116,0.228947119220531
-0.00772839243134785,0.121234859145866
0.103522370616967,0.218220303665151
0.218482047832508,0.32999621015714
-0.0116497462374078,0.0906388159147816
0.214362355436601,0.314347571126693
0.00876692677777771,0.289889551430911
-0.00281664297705561,0.307584845709312
-0.0132350653433545,0.0764531849878493
0.104130751733683,0.182287499386994
0.200426988196332,0.272921323838251
0.212704165444047,0.266138716581717
0.010580186477528,0.281698884432035
0.103319618456137,0.162858766824133
0.00433645042916095,0.0417651014084376
0.102606182969455,0.153439878455331
0.209841521814776,0.263232952976058
0.0111800773139992,0.256259332107362
-0.00568587249645493,0.248173991800512
0.202993643000071,0.233534321246001
0.217645718181609,0.0213524823796009
0.00256430783802536,0.0328524133963295
0.0985356976059201,0.121995132643642
-0.00604593515274661,0.013322333906841
0.201858720355186,0.223684776140972
0.0951407079025308,0.105068366597994
0.0941736226390909,0.100952855405104
0.093159830083711,0.096883378309407
0.0920996441579395,0.0928597162957963
0.0909933787833249,0.0888816503491641
0.0886438653737608,0.0810614305964044
0.0874012451819082,0.0772188387600619
0.0861138012274066,0.0734209669302673
0.0847818474318044,0.0696675960919132
0.0834056977166503,0.0659585072298922
0.0819856660034927,0.0622934813290964
0.0790152122693609,0.0550947423507503
0.0774654180914838,0.051560591242985
0.0758729976017972,0.0480696270360146
0.0742382647218496,0.0446216307147316
0.0725615333731895,0.0412163832640283
0.0708431174773655,0.0378536656687973
0.069083330955926,0.034533258913931
0.0672824877304196,0.0312549439843216
0.0654409017223946,0.0280185018648618
0.0635588868533997,0.0248237135404438
0.0616367570449834,0.0216703599959602
0.0596748262186941,0.0185582222163032
0.0576734082960803,0.0154870811863654
0.0556328171986906,0.0124567178910391
0.0535533668480735,0.00946691331521682
0.0514353711657775,0.00651744844379079
0.0492791440733509,0.00360810426165357
0.0448532513443008,-0.00209109809518471
0.042584213550774,-0.00488139430010101
0.0402782000333108,-0.00763244587615891
0.0379355247134597,-0.0103444718384659
0.0355565015127693,-0.0130176912021296
0.0331414443527879,-0.0156523229822577
0.0306906671550641,-0.0182485861939576
0.0282044838411464,-0.0208066998523369
0.0256832083325834,-0.0233268829725034
0.0205366364177151,-0.0282543336586278
0.0179119678545069,-0.030662039254801
0.0152534627828474,-0.0330326903731915
0.0125614351242849,-0.035366506028907
0.00428735584266542,-0.0421491303710793
-0.00139055471787275,-0.0464907178961248
-0.0042771255453338,-0.0486081200930494
-0.00719502150885819,-0.0506902199330522
-0.0101439286868975,-0.0527372364312406
-0.013123533157903,-0.0547493886027222
-0.0161335210003265,-0.0567268954626047
-0.0191735782926192,-0.0586699760259956
-0.0222433911132327,-0.0605788493080025
-0.0253426455406186,-0.062453734323733
-0.0284710276532283,-0.0642948500882946
-0.0316282235295133,-0.066102415616795
-0.0348139192479251,-0.0678766499243418
-0.0380278008869152,-0.0696177720260424
-0.041269554524935,-0.0713260009370046
-0.0445388662404362,-0.0730015556723358
-0.0478354221118702,-0.0746446552471437
-0.0511589082176885,-0.0762555186765359
-0.0545090106363424,-0.0778343649756199
-0.0578854154462838,-0.0793814131595034
-0.0612878087259638,-0.0808968822432939
-0.0681693050083463,-0.0838339591710262
-0.0716477801679516,-0.0852560050451832
-0.0751509881111018,-0.0866473478796775
-0.0786786149162482,-0.0880082066896169
-0.0858058694263356,-0.0906393482962606
-0.0894048692881797,-0.0919100691231802
-0.0930270323258261,-0.0931511819859751
-0.0966720446177261,-0.0943629058997529
-0.100339592242331,-0.095545459879621
-0.104029361278093,-0.0966990629406873
-0.107741037803464,-0.0978239340980591
-0.111474307896894,-0.0989202923668441
-0.115228857636835,-0.09998835676215
-0.119004373101739,-0.101028346299084
-0.12661704552024,-0.103024976858268
-0.130453574630741,-0.103982055910733
-0.134309813780011,-0.104911936165256
-0.138185449046501,-0.105814836636946
-0.142080166508662,-0.10669097634091
-0.145993652244947,-0.107540574292255
-0.149925592333807,-0.108363849506089
-0.157843579883055,-0.109932307781655
-0.161828999500348,-0.110677928873602
-0.169851120812526,-0.112093050041361
-0.173887194664315,-0.112762988147389
-0.182007799151549,-0.114028714479278
-0.186091701943898,-0.114624940735355
-0.190190919873336,-0.115197034404997
-0.194305139018316,-0.115745214503311
-0.198434045457288,-0.116269700045405
-0.202577325268704,-0.116770710046387
-0.210905749322675,-0.117703179485444
-0.215090265722133,-0.118135076953735
-0.219287899807841,-0.118544374941343
-0.22349833765825,-0.118931292463377
-0.227721265351812,-0.119296048534944
-0.231956368966979,-0.119638862171152
-0.236203334582202,-0.119959952387108
-0.240461848275933,-0.12025953819792
-0.244731596126623,-0.120537838618696
-0.249012264212723,-0.120795072664542
-0.257605105404962,-0.121247217691879
-0.26623786048026,-0.121617725400791
-0.274908018066231,-0.12190834791214
-0.279256337996847,-0.122024249756496
-0.287977890525599,-0.122198329698112
-0.296730567134053,-0.122296904744316
-0.301117792164297,-0.122318425469407
-0.305511856449821,-0.122321727015967
-0.309912446069076,-0.122307028399106
-0.314319247100515,-0.122274548633928
-0.318731945622587,-0.122224506735544
-0.323150227713747,-0.122157121719059
-0.332002286917129,-0.12197119839222
-0.336435436186255,-0.121853098112081
-0.340872913338273,-0.121718530774272
-0.345314404451634,-0.121567715393902
-0.349759595604791,-0.121400870986076
-0.358659822344294,-0.121019971148493
-0.363114230087545,-0.12080635374895
-0.367571082184396,-0.120577583382382
-0.3720300647133,-0.120333879063898
-0.376490863752708,-0.120075459808606
-0.380953165381071,-0.119802544631611
-0.385416655676841,-0.119515352548023
-0.38988102071847,-0.119214102572949
-0.394345946584408,-0.118899013721496
-0.398811119353108,-0.118570305008772
-0.412204979860292,-0.11750464985405
-0.416668001024553,-0.117123651847318
-0.421129699483832,-0.116730129054852
-0.425589761316582,-0.116324300491761
-0.430047872601254,-0.115906385173152
-0.4345037194163,-0.115476602114133
-0.43895698784017,-0.115035170329811
-0.443407363951317,-0.114582308835294
-0.447854533828191,-0.114118236645689
-0.452298183549245,-0.113643172776104
-0.461173666837697,-0.112660946057425
-0.465604872561999,-0.112154221238545
-0.470031302444285,-0.111637380800116
-0.474452642563008,-0.111110643757245
-0.483278797823572,-0.110028355918606
-0.487682985122315,-0.109473243153054
-0.492080826971301,-0.10890910984349
-0.496472009448981,-0.108336175005022
-0.500856218633807,-0.107754657652757
-0.50523314060423,-0.107164776801804
-0.509602461438702,-0.106566751467269
-0.513963867215674,-0.10596080066426
-0.518317044013599,-0.105347143407884
-0.522661677910926,-0.104725998713251
-0.526997454986109,-0.104097585595466
-0.531324061317598,-0.103462123069637
-0.5399485060633,-0.10217092585428
-0.544245716634417,-0.101515629194967
-0.548532500775646,-0.10085415918804
-0.557073534082247,-0.0995135751917774
-0.561327155404522,-0.0988348992326568
-0.569799037779278,-0.0974618744679745
-0.574016670988662,-0.0967679636926282
-0.578221680317319,-0.0960694126754217
-0.5824137518437,-0.0953664404314627
-0.594909200393705,-0.0932331864901467
-0.599046381495498,-0.0925147194902537
-0.603169055187273,-0.091792926339146
-0.607276907547481,-0.0910680260519313
-0.615446892587004,-0.0896097801296115
-0.619508397423221,-0.0888768725247214
-0.635590507374996,-0.0859251214994705
-0.639568487906924,-0.085183248667273
-0.643528821813349,-0.0844402398349368
-0.647471195172722,-0.0836963140175696
-0.651395294063495,-0.0829516902302787
-0.659187412753045,-0.0814612248063566
-0.670730684234156,-0.0792257672737365
-0.678325931768021,-0.0777381778304202
-0.689562124457534,-0.0755152473352432
-0.693264485371502,-0.0747774008758938
-0.696944804758288,-0.0740414846279119
-0.700602768696343,-0.0733077176064051
-0.707850374540066,-0.0718475073032469
-0.711439388602638,-0.0711215020518106
-0.715004791530284,-0.0703985220872798
-0.718546269401457,-0.069678786424762
-0.725556194288189,-0.0682499240661955
-0.729024013460651,-0.0675412354003621
-0.732466651890446,-0.066836667096972
-0.735883795656025,-0.0661364381711328
-0.739275130835839,-0.065440767637952
-0.74929114564521,-0.0633832965454365
-0.752576107266482,-0.0627080497339655
-0.755833690694247,-0.062038456390691
-0.759063582006956,-0.0613747355307204
-0.762265467283061,-0.0607171061691614
-0.765439032601014,-0.0600657873211215
-0.771699947676269,-0.0587829572260295
-0.774786669590474,-0.0581518840091927
-0.777843815860332,-0.0575279973663052
-0.783868125780815,-0.0563026598628093
-0.78977036606533,-0.0551086968364023
-0.792674925290228,-0.0545240282898761
-0.803975431237962,-0.0522725509007974
-0.812108403395952,-0.0506816319188778
-0.817362624914807,-0.049670823090826
-0.822479708563367,-0.0487019014650272
-0.824986038882414,-0.0482336958907416
-0.829892706902302,-0.0473308902949362
-0.834655958620923,-0.0464743522035355
-0.836983018563388,-0.0460639810097559
-0.841526437006883,-0.045280129401576
-0.843742167664816,-0.044907087017391
-0.848060102245312,-0.0441998641643686
-0.852224575034989,-0.0435459172991937
-0.856233074661459,-0.0429469985427269
-0.860083089752336,-0.0424048600158289
-0.867297620837753,-0.041497932134182
-0.868998276755005,-0.0413094254960956
-0.870657114087519,-0.0411366470211545
-0.872273818913746,-0.0409798157244663
-0.875379575361146,-0.0407148707262788
-0.876867999139222,-0.0406071950549948
-0.878313034724817,-0.0405163426223939
-0.879714368196384,-0.0404425324435838
-0.881071685632373,-0.0403859835336722
-0.882384673111235,-0.0403469149077665
-0.884876402511388,-0.0403220945684033
-0.887187045024454,-0.0403698235463551
-0.888273673894459,-0.0404214415670931
-0.890307977253667,-0.040581279747631
-0.893007337517253,-0.0409658275927066
-0.893811976645526,-0.0411334970879672
-0.894568518758092,-0.0413212750485248
-0.895276649933401,-0.041529380489487
-0.896576924161788,-0.0419174352483942
-0.89717679248425,-0.0420751059933262
-0.897743376844426,-0.0422086417157759
-0.89877737937452,-0.0424036162948236
-0.899680303145273,-0.0425029753887292
-0.900083039056273,-0.0425169917547511
-0.900453519549888,-0.0425073354006842
-0.901828090602478,-0.0421066595929839
-0.902158130947095,-0.0417833769932467
-0.902421989843045,-0.041125723342911
-0.902448974739371,-0.0408607523942004
-0.902445761308118,-0.0405730333301885
-0.902412520973438,-0.0402626432012745
-0.902349425159482,-0.0399296590578573
-0.902134352790338,-0.0391962169291091
-0.901982719083452,-0.0387959130445761
-0.901592113745806,-0.0379285248871868
-0.901353484963346,-0.0374615947151286
-0.901086200670662,-0.0369726098813598
-0.900790432291905,-0.0364616474362796
-0.900466351251225,-0.0359287844302868
-0.900114128972773,-0.0353740979137803
-0.899325946399153,-0.0341995625508226
-0.898890328952287,-0.0335798678051691
-0.898427255964249,-0.0329386577505979
-0.897419429061266,-0.0315919999162982
-0.893052384704072,-0.0262122916739871
-0.892324184632606,-0.0253601663021812
-0.890791246287279,-0.023593989345381
-0.889986850861719,-0.0226800918611845
-0.889157399833095,-0.0217457577736558
-0.887424016663257,-0.0198160879901972
-0.88559246817097,-0.017805596398197
-0.884640310489284,-0.0167702350499912
-0.883664125749437,-0.0157148994008468
-0.882664085375579,-0.0146396665011629
-0.881640360791861,-0.0135446134013384
-0.880593123422434,-0.0124298171517723
-0.878428796023053,-0.0101413034050109
-0.8773120488414,-0.0089677400086136
-0.876172474570639,-0.0077747416640705
-0.873825530458396,-0.00533074833214274
-0.870138196725487,-0.00152092248313166
-0.86886525982724,-0.000212932508091967
-0.867570695808939,0.0011139530623008
-0.866254676094734,0.00245965717764766
-0.864917372108775,0.00382410278754968
-0.8621795970182,0.0066089102894233
-0.860779468761885,0.00802911808059699
-0.85645617823863,0.012400033010278
-0.854974684226611,0.0138935116708951
-0.853473277336043,0.0154051154228757
-0.847271949471282,0.0216312403364533
-0.842420268131315,0.0264873720114037
-0.840765729481767,0.0281412026799293
-0.839092820771023,0.0298124649862278
-0.837401713423235,0.0315010818799
-0.835692578862552,0.0332069763105471
-0.826882497710989,0.0419929147544424
-0.82139109361095,0.0474668770389446
-0.817647449859639,0.0511992340628655
-0.815751329951049,0.0530900960739049
-0.813839239919371,0.0549973110171317
-0.811911351188755,0.0569208018421468
-0.809967835183351,0.0588604914985513
-0.808008863327309,0.0608163029359463
-0.804045237759917,0.0647759829521119
-0.802040926896866,0.0667796974300845
-0.800021845879781,0.0687992254874518
-0.793877696145817,0.0749519206319316
-0.78971088832909,0.0791313727012436
-0.787606786294952,0.0812441641766004
-0.785489114075832,0.083372229878559
-0.783358043095881,0.0855154927567206
-0.776886151832542,0.0920356939444333
-0.774703200050769,0.0942389750234169
-0.772507706628917,0.0964570680266087
-0.770299842991137,0.0986898959036097
-0.756802486382376,0.112391980693266
-0.749900695519147,0.119435702802202
-0.740549924038941,0.129022473889728
-0.733431557527129,0.136356211648118
-0.728638414118817,0.141312623656177
-0.726228086966981,0.14381077455975
-0.723808818082226,0.146322119329152
-0.704153335517151,0.166878610606372
-0.699162047237223,0.17214427855605
-0.696655733284288,0.17479567052325
-0.694142534688239,0.177459331751492
-0.68147927190656,0.190958980044377
-0.676371774137361,0.196442027424864
-0.673809669665821,0.199201068927083
-0.671242223368522,0.201971686236754
-0.655734966996212,0.218834167228924
-0.653134927794812,0.221683657779586
-0.650530918160856,0.224544107734508
-0.647923109518496,0.227415440043292
-0.642696780905161,0.233190443520846
-0.629576476415272,0.247812999879373
-0.619035507204837,0.259696294380638
-0.616395481545354,0.262692205004635
-0.608466667296813,0.271738912867079
-0.605821388204438,0.274773883983382
-0.603175224314215,0.277818427596762
-0.600528347050296,0.280872466656823
-0.597880927836831,0.283935924113165
-0.595233138097971,0.287008722915388
-0.592585149257866,0.290090786013094
-0.560856151670266,0.327770111888015
-0.555588397389934,0.33416927218327
-0.55033013215365,0.340600866636518
-0.545082727354619,0.347064278844569
-0.542463526179449,0.350307723980648
-0.537234983398553,0.356817707064918
-0.524229140395092,0.373223777160962
-0.511334031162076,0.38980944562478
-0.498571083718316,0.406565081156501
-0.496036239309929,0.409935756756605
-0.488470281880211,0.420085493637256
-0.483460170998103,0.426882639453983
-0.478478748664897,0.43370358978402
-0.475999224264508,0.437122799015532
-0.471063406116912,0.44397830035955
-0.468607455218005,0.447414438371257
-0.456454139438406,0.464675919810823
-0.454049963994526,0.468143835022149
-0.449269472212009,0.475094667965022
-0.442170953663602,0.485557267923899
-0.439824724944166,0.489054186520481
-0.437488753996664,0.492555669338209
-0.430544102027266,0.503086732614281
-0.425968765683429,0.51012884998008
-0.41031960722826,0.534901426055133
-0.408132586913593,0.538455232161457
-0.40379669083853,0.545573223870389
-0.391106501586355,0.567004687338727
-0.389039571931471,0.570587089270735
-0.382924671827787,0.581350739236987
-0.363524132801676,0.617384345680913
-0.359835687919851,0.624615017463869
-0.356214330596634,0.631852234470768
-0.352661432225229,0.639095380298418
-0.342427204753923,0.66085422667396
-0.332858478004261,0.682644241921362
-0.329823191305245,0.689911630204904
-0.322585481156648,0.708083117010855
-0.321199397365666,0.71171731501407
-0.317167148104901,0.722618323400582
-0.307368669549348,0.751662490324767
-0.294593482707201,0.798696980096819
-0.291495179184935,0.813106878089016
-0.29009945740006,0.820297913398149
-0.286542468668915,0.841807967739386
-0.285571435943705,0.848954913980438
-0.285126934149497,0.852523714398039
-0.284320816818628,0.859651584575396
-0.283959544130267,0.863210500234353
-0.283626357325489,0.866765966872965
-0.283044927063287,0.873866244887556
-0.282094854061022,0.891551188540056
-0.283748938647535,0.943957680767466
-0.284109040230705,0.947412554028014
-0.288163454799721,0.974854331601733
