0.130250662322115,-0.0401557085416036
0.122419550513139,-0.0340544423077316
0.11463672095329,-0.028034430150352
0.106902153903896,-0.0220953023032699
0.0992158296262882,-0.0162366890002903
0.0915777283817949,-0.0104582204752185
0.0839878304317457,-0.00475952696185939
0.0764461160374702,0.000859761305981848
0.0689525654602977,0.00640001409450012
0.0615071589615576,0.0118616011698904
0.0541098768025793,0.0172448922983475
0.0467606992446924,0.0225502572460663
-0.0645544842322572,-0.0740929803638792
0.0322065789775103,0.032928687664069
0.0250015967908739,0.0380024926667426
0.0178446402506464,0.0429998505534576
0.118732880248486,0.150851060512108
0.118966655244962,0.157766530415045
-0.00333827287828761,0.0575369391798001
-0.0103033242195848,0.0622322062646298
-0.0172204486078258,0.0668528750644754
-0.0240896657816812,0.0713993153455319
-0.0309109954798217,0.0758718968739941
0.0537132996164821,0.190820052012252
-0.04441007140364,0.0845969627379153
-0.051087857106659,0.0888501866057642
-0.0577178342886453,0.0930310307857984
-0.0643000226882695,0.097139865044213
-0.0708344420442022,0.101177059147203
-0.0773211120951138,0.105142982860963
-0.0837600525796751,0.109038005951687
-0.0901512832365566,0.112862498185572
-0.0964948238044288,0.116616829328812
-0.102790694021962,0.120301369147601
-0.109038913627828,0.123916487408135
-0.115239502360696,0.127462553876608
-0.0250259700983052,0.23586306311233
-0.127497866162121,0.134349010502153
-0.244423524498679,0.0289469333928896
-0.139565943335604,0.140963697153795
-0.248393333853899,0.0398865994267584
-0.151443891790508,0.147309571961094
-0.157311617095169,0.150382629338601
-0.0462346605912275,0.272336965997097
-0.168904668552264,0.156330832872308
-0.174630034182038,0.159206718560896
-0.285653523067281,0.061080043179989
-0.0900138765761385,0.281512898273231
-0.191521727540317,0.167445948507943
-0.19705755661163,0.170064115338035
-0.202546050890004,0.172618776868991
-0.207987230114109,0.175110302867004
-0.213381114022618,0.17753906309827
-0.108188040307522,0.293751738796253
-0.224027074847523,0.182209765325341
-0.348258368690718,0.0801241786046349
-0.234484091274084,0.186633841679763
-0.239641794684661,0.188754319570218
-0.244752321211665,0.190814250291095
-0.249815690593765,0.192814003608589
-0.254831922569632,0.194753949288896
-0.259801036877936,0.19663445709821
-0.264723053257348,0.198455896802725
-0.269597991446538,0.200218638168638
-0.274425871184178,0.201923050962142
-0.182405138205682,0.321173154028303
-0.283940534259488,0.205158369896707
-0.288627357074498,0.206690015570156
-0.29326720039264,0.208164811735977
-0.297860083952584,0.209583128160364
-0.302406027493001,0.210945334609513
-0.306905050752561,0.212251800849618
-0.311357173469934,0.213502896646873
-0.315762415383792,0.214698991767475
-0.320120796232805,0.215840455977618
-0.324432335755643,0.216927659043496
-0.328697053690978,0.217960970731306
-0.332914969777479,0.218940760807241
-0.337086103753817,0.219867399037496
-0.341210475358662,0.220741255188267
-0.345288104330686,0.221562699025748
-0.34931901040856,0.222332100316135
-0.353303213330952,0.223049828825621
-0.357240732836534,0.223716254320403
-0.361131588663978,0.224331746566675
-0.364975800551952,0.224896675330631
-0.368773388239128,0.225411410378468
-0.372524371464177,0.225876321476379
-0.376228769965768,0.22629177839056
-0.379886603482573,0.226658150887205
-0.264405187951929,0.333758434329078
-0.387062654516506,0.227245121692668
-0.390580911510974,0.227466459533877
-0.506476081261629,0.127068903218937
-0.39747798714827,0.22776668892422
-0.400856845268438,0.227846320005745
-0.404189276574514,0.2278794550331
-0.407475300805167,0.227866463772478
-0.410714937699069,0.227807715990074
-0.413908206994891,0.227703581452084
-0.417055128431302,0.227554429924703
-0.420155721746974,0.227360631174125
-0.32514670577418,0.344689915910018
-0.426218002970781,0.226840571068159
-0.429179730356257,0.226515049245161
-0.432095208575676,0.226146359263746
-0.434964457367708,0.225734870890108
-0.437787496471024,0.225280953890444
-0.440564345624295,0.224784978030947
-0.342836830399186,0.332380824192822
-0.445979553035381,0.223668328797236
-0.448617950770538,0.223048394955412
-0.451210237510332,0.222387881318535
-0.453756432993434,0.221687157652801
-0.550880176677543,0.124221026644278
-0.45871062914424,0.220166559299538
-0.461118669289286,0.2193474241444
-0.463480697132322,0.218489558025184
-0.465796732412018,0.217593330708084
-0.468066794867045,0.216659111959297
-0.470290904236074,0.215687271545016
-0.472469080257774,0.214678179231436
-0.474601342670816,0.213632204784753
-0.476687711213872,0.212549717971161
-0.478728205625611,0.211431088556856
-0.480722845644704,0.210276686308031
-0.38167944295637,0.31945560629668
-0.484574641459636,0.207862042371605
-0.486431836732815,0.206602540216394
-0.488243256568031,0.205308744291443
-0.490008920703954,0.203981024362948
-0.491728848879254,0.202619750197104
-0.493403060832603,0.201225291560105
-0.49503157630267,0.199798018218147
-0.611034768229565,0.0997030934403913
-0.498151596747643,0.196846506484131
-0.499643141199891,0.195323007624463
-0.394042268264191,0.306882460794062
-0.502489397257258,0.192182372750782
-0.503844148339721,0.19056597626916
-0.505153341109596,0.188919353445941
-0.506416995305554,0.187242874047323
-0.507635130666266,0.185536907839499
-0.39690833964717,0.283746851390578
-0.509934923836634,0.182037994061015
-0.511016621123632,0.180245786022744
-0.512052878530065,0.178425570240048
-0.513043715794606,0.17657771647912
-0.406047940042423,0.269357808579476
-0.51488920885269,0.172800574087352
-0.515743904123574,0.170872024988902
-0.516553258207247,0.168917316977
-0.51731729084238,0.166936819817842
-0.518036021767644,0.164930903277622
-0.518709470721708,0.162899937122536
-0.519337657443243,0.160844291118778
-0.519920601670921,0.158764335032544
-0.520458323143411,0.156660438630027
-0.520950841599384,0.154532971677424
-0.630275183689113,0.0515650831963066
-0.631262192634248,0.0337301838723702
-0.522157376254909,0.148012845181042
-0.410509160217703,0.262637184435947
-0.522736079484968,0.143555020479926
-0.522957794353922,0.141293895316894
-0.523134444377053,0.13901178796714
-0.523266049293032,0.136709068196858
-0.413614797307442,0.248057293205129
-0.523394202758215,0.132043270459491
-0.626198273083545,0.0242036770115674
-0.523342412658836,0.127299460234352
-0.523249088119113,0.124899224854355
-0.406483700885667,0.236610844477731
-0.64284602432366,0.00336718368668587
-0.52269963340385,0.117589634838996
-0.522426720595635,0.115118042762736
-0.522108960066972,0.112629535927898
-0.521746371556534,0.110124484100675
-0.521338974802991,0.107603257047264
-0.634986580516806,-0.00424152307390427
-0.520389835521269,0.102513756326656
-0.519848132470433,0.0999462221918477
-0.519261700131174,0.0973639918956307
-0.518630558242162,0.0947674352041994
-0.517954726542068,0.0921569218837489
-0.517234224769563,0.0895328217004739
-0.516469072663317,0.0868955044205693
-0.515659289962,0.0842453398102302
-0.514804896404285,0.0815826976356514
-0.51390591172884,0.0789079476630278
-0.512962355674336,0.0762214596585542
-0.511974247979445,0.0735236033884257
-0.510941608382836,0.0708147486188372
-0.509864456623181,0.0680952651159835
-0.508742812439149,0.0653655226460595
-0.507576695569412,0.0626258909752601
-0.50636612575264,0.0598767398697803
-0.605966802392274,-0.0526696335799589
-0.503811706232672,0.054351358419559
-0.502467896006818,0.0515758676072073
-0.501079711788611,0.0487923364249548
-0.499647173316722,0.0460011346389963
-0.608889614570097,-0.050601336687252
-0.49664911256658,0.0403971983207414
-0.495083629765668,0.0375852033208348
-0.398270233114611,0.138702286497481
-0.491819858005515,0.0319430084704374
-0.490121608523615,0.0291135481523365
-0.488379142958727,0.0262790055938942
-0.486592481049521,0.0234397505613051
-0.484761642534668,0.0205961528207643
-0.379689095765395,0.112119400703531
-0.480967514642704,0.0148974082806071
-0.479004264742934,0.0120430010133804
-0.476996917192199,0.00918573010298174
-0.47494549172917,0.00632596531560572
-0.472850008092517,0.00346407641744756
-0.470710486020911,0.000600433174701834
-0.468526945253023,-0.00226459464643625
-0.466299405527523,-0.00513063727977205
-0.464027886583082,-0.00799732495911037
-0.46171240815837,-0.0108642879182566
-0.349823374320841,0.0983749656391394
-0.456949651822817,-0.0165975606111927
-0.454502413389316,-0.0194631308125927
-0.452011294430227,-0.0223274972290209
-0.449476314684221,-0.0251902900942823
-0.356700076511755,0.0621043570789507
-0.444274851786136,-0.0309096761065253
-0.441608408111399,-0.0337655297211171
-0.438898182604427,-0.0366183307197623
-0.43614419500389,-0.0394677093362664
-0.433346465048458,-0.0423132958044342
-0.430505012476803,-0.0451547203580709
-0.427619857027594,-0.0479916132309815
-0.424691018439503,-0.0508236046569714
-0.4217185164512,-0.0536503248698452
-0.418702370801355,-0.0564714041034085
-0.415642601228639,-0.059286472591466
-0.412539227471723,-0.062095160567823
-0.409392269269277,-0.0648970982662845
-0.406201746359972,-0.0676919159206558
-0.402967678482479,-0.0704792437647416
-0.399690085375467,-0.0732587120323474
-0.396368986777608,-0.0760299509572779
-0.506087821571132,-0.185666780455217
-0.389596352064029,-0.0815462617143343
-0.386144855425651,-0.0842905940140703
-0.382649932251108,-0.0870252179063514
-0.268525846868777,0.0104305001846355
-0.423243706394093,-0.0563496404840617
-0.345970938899212,-0.132767479753714
-0.376937469749396,-0.062202052228049
-0.246082805363767,0.00666206134025227
-0.323510799522604,-0.0780272735932406
-0.327942531980319,-0.134679732444169
-0.38566589777123,-0.144693419303103
-0.331381893516404,-0.114320141379808
-0.311712131981721,-0.115310996048352
-0.369604248670678,-0.123976743797478
-0.245519751346352,-0.00854188658343942
-0.333273097286123,-0.121523619808945
-0.486761681954898,-0.187970079945825
-0.325028322589125,-0.126628126383467
-0.2854200846039,-0.117293106048924
-0.278138776735588,-0.141960429707671
-0.265243505258084,-0.16041332928639
-0.308021602495262,-0.136646685404072
-0.264901192091792,-0.120403981423992
-0.309261720642845,-0.172761459211926
-0.294814659830604,-0.143982309672003
-0.293039728378875,-0.141829875178026
-0.323494581241085,-0.174186861348765
-0.248456178342209,-0.139333266244198
-0.318494020643125,-0.111771767845769
-0.271943900970275,-0.155839159303872
-0.195214433570011,-0.0367931929435755
-0.368610303497954,-0.271036526378045
-0.257706801504044,-0.162715484881607
-0.120225979146596,-0.0989780388237808
-0.222721017615066,-0.205230403955131
-0.243084370301417,-0.16940127002387
-0.238124689406249,-0.171585797176721
-0.201474905691805,-0.216589879649929
-0.241146954429133,-0.142349860394137
-0.187472149756305,-0.208382961579276
-0.217858806385333,-0.180093705883413
-0.212685644463395,-0.182161284252933
-0.154527457552383,-0.061570641794132
-0.211005679937642,-0.222915516289023
-0.166997050031002,-0.219482879684412
-0.193245377829873,-0.19351432702964
-0.22869376043285,-0.172173247543706
-0.145346585691434,-0.215191481212296
-0.175280780673803,-0.195927652385629
-0.175257344278492,-0.181221877104676
-0.130841601764361,-0.241127777768942
-0.260405166561625,-0.299516751216741
-0.111067108146805,-0.172106848163408
-0.0857754480839466,-0.152462637718951
-0.141561758324155,-0.206675794133905
-0.135793474770449,-0.208366737006174
-0.0102706181512666,-0.119311027501833
-0.124129845457845,-0.211659225638579
-0.118234539176288,-0.213260031866325
-0.112296931462789,-0.214830053013506
-0.106317042056017,-0.216368919313928
-0.100294890694645,-0.217876261001396
-0.0942304971173415,-0.219351708309714
-0.0881238810627779,-0.220794891472689
-0.0819750622696251,-0.222205440724125
-0.183512229397837,-0.339469051888339
-0.170411458800251,-0.327565572246604
-0.0632755868453342,-0.226237587347249
-0.0569581544845288,-0.227513903290579
-0.0505986180784865,-0.228755736491397
-0.0441969973658782,-0.229962717183506
-0.037753312085374,-0.231134475600711
0.0739894334517885,-0.127324530127903
-0.0247398267753618,-0.233370846545633
-0.0181700662231948,-0.234434719540959
-0.0115583200578143,-0.235461891196603
-0.0049046080178913,-0.236451991746368
0.00179105015790401,-0.237404651424061
0.00852863473090065,-0.238319500463486
0.0153081259624285,-0.239196169098449
0.0221295041138164,-0.240034287562754
0.0289927494463944,-0.240833486090206
0.0358978422214913,-0.241593394914612
0.0428447627004373,-0.242313644269775
0.049833491144561,-0.242993864389501
0.169227513074803,-0.141169134262116
-0.0400484295680675,-0.354130328062656
0.0710503268812955,-0.244790651674109
0.0782060897994258,-0.245307057190137
0.0854035619893817,-0.245781584639755
0.0926427237124919,-0.246213864256765
0.0999235552300864,-0.246603526274975
0.107246036803494,-0.246950200928187
0.114610148694045,-0.247253518450209
0.122015871163068,-0.247513109074845
0.129463184471893,-0.247728603035899
0.136952068881849,-0.247899630567178
0.144482504654266,-0.248025821902485
0.152054472050473,-0.248106807275627
0.159667951331799,-0.248142216920408
0.167322922759574,-0.248131681070634
0.0611666015004709,-0.358467625501518
0.182757263099789,-0.247971293822638
0.190536592534887,-0.247820702892028
0.198357335161752,-0.247622687402082
0.206219471241713,-0.247376877586606
0.214122981036099,-0.247082903679405
0.222067844806241,-0.246740395914284
0.230054042813466,-0.246348984525048
0.238081555319106,-0.245908299745502
0.246150362584488,-0.245417971809452
0.254260444870943,-0.244877630950702
0.2624117824398,-0.244286907403058
0.270604355552389,-0.243645431400324
0.278838144470038,-0.242952833176306
0.287113129454078,-0.242208742964809
0.295429290765837,-0.241412790999637
0.303786608666646,-0.240564607514597
0.312185063417833,-0.239663822743493
0.320624635280728,-0.238710066920129
0.32910530451666,-0.237702970278313
0.33762705138696,-0.236642163051847
0.346189856152955,-0.235527275474538
0.354793699075977,-0.234357937780191
0.363438560417353,-0.23313378020261
0.25354565927627,-0.329742002672846
0.380851259400489,-0.230519526332968
0.389619057564907,-0.229128690508518
0.398427795192998,-0.227681555736055
0.519145200701562,-0.112265768950894
0.416168009885516,-0.224616910282309
0.425099447472602,-0.222998660068638
0.434071745568679,-0.221322631842173
0.443084884435075,-0.219588455836721
0.452138844333121,-0.217795762286087
0.461233605524146,-0.215944181424075
0.470369148269478,-0.214033343484491
0.479545452830449,-0.21206287870114
0.488762499468387,-0.210032417307827
0.498020268444621,-0.207941589538357
0.507318740020481,-0.205790025626535
0.623803483096111,-0.0867712755053412
0.526037712016396,-0.201303210311056
0.637250420093069,-0.0839844502348553
0.544919257546769,-0.19656901323183
0.5544209460407,-0.194108222115325
0.563963218702233,-0.191584476259299
0.573546055792699,-0.188997405897557
0.466198399638259,-0.291018142790929
0.592833344305743,-0.183631812592143
0.602537756250981,-0.180852550116083
0.612282653670468,-0.178008484069526
0.622068016825534,-0.175099244686279
0.631893825977509,-0.172124462200146
