0.32938037783713,0.188732512122664
0.193457005009081,-0.747319810251515
-0.884913830892632,0.274837781115089
-0.652860546124592,0.259305274600672
-0.420807261356553,0.243772768086254
0.962142980567462,0.660320711201017
0.301726553184727,0.700474605106493
