-0.503892603661756,-0.69544394507402
-0.506689362759866,-0.62593448294197
-0.50764636356918,-0.560486264482528
-0.506821507015711,-0.499029342276735
-0.504272694025471,-0.441493768905628
-0.500057825524471,-0.38780959695025
-0.494234802438724,-0.337906878991637
-0.48686152569424,-0.291715667610831
-0.473688549739155,-0.239156338298595
-0.47297612349073,-0.216529262264597
-0.479094737077644,-0.15309683609635
-0.46659539749545,-0.135862002527868
-0.428767869501192,-0.113984049710271
-0.41224300472287,-0.0983078769942526
-0.387017173044683,-0.0537687059897354
-0.379014291145285,-0.0474065230901341
-0.37276635967264,-0.0328110080898162
-0.354523227871785,-0.0305213112543901
-0.328338473859081,0.016832198065487
-0.301785168848162,0.00521700072469092
-0.276280766406331,0.00284905738634012
-0.25328353567078,0.00442365566871655
-0.21750398435147,0.00908409296051343
-0.195271720339002,0.00673094276157044
-0.177436898460803,-0.037420339332278
-0.155056224303101,-0.0152014299461552
-0.135759361263081,0.00299157204995087
-0.103010148528143,-0.0395887961347703
-0.0764566588589246,-0.0551813691080109
-0.0497793830296403,-0.0724062215142724
-0.00604689690050658,-0.110848144533905
-0.0265875529791417,-0.117407715009568
0.0319426234225967,-0.138578820418114
0.0584230891428086,-0.13939417708249
0.0866428457619816,-0.191914577858004
0.137824935803092,-0.249469173388363
0.109739668734735,-0.240107166393177
0.168016134934074,-0.284890686822273
0.196241083567306,-0.301120491075199
0.221138120687342,-0.35470702144687
0.244600297515362,-0.387989072354413
0.26879050911947,-0.421598666082316
0.289658574913514,-0.447528427842613
0.307324353898874,-0.46620771714799
0.32190770507693,-0.47806589351113
0.33352848744906,-0.483532316444719
0.342306560016645,-0.48303634546144
0.348361781781064,-0.477007340073979
0.351814011743696,-0.46587465979502
0.352783108905921,-0.450067664137248
0.351388932269118,-0.430015712613347
0.347751340834668,-0.406148164736002
0.341990193603949,-0.378894380017897
0.334225349578341,-0.348683717971717
0.324576667759223,-0.315945538110147
0.313164007147976,-0.281109199945871
0.300107226745978,-0.244604062991573
0.285526185554609,-0.206859486759939
0.269540742575248,-0.168304830763653
0.252270756809275,-0.129369454515399
0.23383608725807,-0.0904827175278628
0.214356592923012,-0.0520739793137278
0.193952132805481,-0.014572599385679
0.172742565906855,0.021592062743599
0.150847751228516,0.0559906475614216
0.128387547771841,0.0881937955551043
0.105481814538211,0.117772147211962
0.0822504105290044,0.144296343019312
0.0588131947456018,0.167337023464467
0.0352900261893823,0.186464829034744
0.0118007638617255,0.201250400217458
-0.0115347332359893,0.211264377499925
-0.0345966061023824,0.21607740136946
-0.0572649957360744,0.215260112313378
-0.0794200431356857,0.208383150818995
-0.100941889299837,0.195017157373627
-0.121710675227149,0.174732772464588
-0.141606541916241,0.147100636579194
-0.160509630365735,0.11169139020476
-0.17830008157425,0.0680756738286028
