-0.243733351471992,0.00920227714726285
-0.159201841484358,0.049651929244739
-0.0855051783850873,0.083551471853388
-0.0221642905839227,0.111301544786074
0.031299893509394,0.133302787855659
0.0753664454851205,0.149955840875007
0.110514436933515,0.161661343656982
0.137222939444835,0.168819936014447
0.155971024609338,0.171832257760265
0.167237764017283,0.1710989487073
0.171502229258928,0.167020648668414
0.166414341662038,0.132612740613955
0.168595732602558,0.162759451721234
0.147072695888635,0.138722200764873
0.0333539515479611,0.0231298006959264
0.101390158855344,0.0773938490043492
0.118286359148728,0.096356705003386
0.0395878901335854,0.0348976024583574
-0.00603236246623124,0.0191937808816883
-0.0261731086572531,0.0458969230745067
-0.065582447614432,0.0304039028839077
-0.107347273839674,-0.0116428168123358
-0.0558656068207017,0.125543844021036
-0.192289098165721,-0.0081003167029722
-0.20958560584258,-0.0413828046273993
-0.232476651043983,0.00147749167575709
-0.273883786881238,0.0195725525569065
-0.323591216678297,-0.0676316034056294
-0.380969579728325,0.00983763475191063
-0.469831548460279,-0.0242030403754138
-0.458766985862027,-0.00158218247936483
-0.508033546735286,0.0182165386853599
-0.603303923099564,-0.0486199501809351
-0.646157833975602,0.0149993747320258
-0.532876021130226,0.0745545132416289
-0.600863575098662,0.186478203302235
-0.520755283463188,0.246956130726776
-0.609689253276025,0.25643783114356
-0.740691071093532,0.199604963956955
-0.597390742864995,0.394554827486454
