0.428868087816313,-0.868040531246577
0.39098769065436,-0.856829340224831
0.354773521744606,-0.845165124799192
0.320199221954338,-0.833064041141172
0.400346451360532,-0.704104400549316
0.255864793201421,-0.807615893814039
0.22605194597335,-0.79430114248795
0.197773531333924,-0.780614147615529
0.17100319015043,-0.766571065368289
0.255270546388165,-0.642409536924095
0.121881291620399,-0.737481263435397
0.195500264487605,-0.625233561530057
0.0784753773215729,-0.707160986061374
0.0588500164270842,-0.691579809512718
0.0405745741922642,-0.675739482618316
0.0236226914844022,-0.65965616154968
0.00796800917078726,-0.643346002478322
-0.00641583188129122,-0.626825161575753
-0.019555190804544,-0.610109795013487
-0.0314764267316819,-0.593216058963036
-0.0422058987954157,-0.576160109595912
-0.0517699661284561,-0.558958103083626
-0.0601949878635139,-0.541626195597692
-0.0675073231332999,-0.524180543309621
-0.0737333310705248,-0.506637302390926
-0.0788993708078993,-0.489012629013119
-0.0830318014781343,-0.471322679347712
-0.182900346627355,-0.555482574784329
-0.0883012721480286,-0.435811575840146
-0.0894910304131095,-0.418022734341012
-0.0897526161418938,-0.400233241240327
-0.0891123884670924,-0.382459252709604
-0.0875967065214159,-0.364716924920353
0.0331082154550703,-0.230758081039856
-0.0820444163482811,-0.329391876252321
-0.0780605263862443,-0.311841467716563
-0.0733066186841755,-0.294387344608328
-0.0678090523747855,-0.277045663099127
-0.0615941865907851,-0.259832579360473
-0.054688380464885,-0.242764249563877
-0.153183902812742,-0.336085809027966
-0.0389093837182288,-0.209126476482911
-0.0300889113628943,-0.192589345541565
-0.0206829351965032,-0.176261593228327
-0.0107178143517661,-0.160159375714708
-0.000219907961394011,-0.144298849172221
0.0107844248419025,-0.128696169772379
0.0222688249254125,-0.113367493686693
0.0342069331564253,-0.0983289770866753
0.151530689238933,0.0129173879597033
0.0593388375301165,-0.0691870470296952
0.0724799154073732,-0.0551159459157569
-0.0129171276190335,-0.141412387835111
0.21561497802295,0.0624832341188526
0.113887342208259,-0.0150959722902956
0.12826335175589,-0.00254094489230046
0.142882196389338,0.00959467364792845
0.157717516975892,0.0212947271588788
0.172742954382841,0.0325430594690385
0.187932149477475,0.0433235144068953
0.203258743127082,0.053619935800937
0.218696376198953,0.0634161674796513
0.234218689560375,0.0726960532715261
0.249799324078639,0.0814434370050491
0.265411920621033,0.0896421625087083
0.281030120054848,0.0972760736109912
0.392068346228472,0.220908197705153
0.312177891065893,0.11078482792538
0.225350506119935,0.00710036432754099
0.343031764050088,0.121840450576117
0.358282590950341,0.126407947098836
0.373380865945748,0.130313692191106
0.3883002299036,0.133541529681414
0.403014323691186,0.136075303398248
0.417496788175795,0.137898857170096
0.326667597900499,0.0274301591844404
0.445661392705239,0.139350680192785
0.363181449300858,0.0304298453507664
0.472583170430246,0.137767749377384
0.485512101409309,0.135797860851619
0.49805124828913,0.133020815351794
0.510174251936999,0.129420456706398
0.521854753220204,0.124980628743919
0.533066393006036,0.119685175292843
0.543782812161784,0.113517940181659
0.553977651554736,0.106462767238855
0.563624552052181,0.0985035002929188
0.57269715452141,0.0896239831723376
0.684869371477744,0.172431788728651
0.589014028844375,0.0690395737211921
0.596205582432689,0.0573023690476033
0.602717401461943,0.0445802895133211
0.608523126799426,0.030857178946833
0.613596399312428,0.016116881176627
0.716053735938378,0.112054633860664
0.621440149334144,-0.0164799006609878
0.624157908577437,-0.0343686970714211
0.626037778465405,-0.0533393053716211
0.627053399865339,-0.0734078817331002
0.627178413644526,-0.0945905823273705
