-0.538877905394889,0.63935117786933
-0.539821748208912,0.641621292815855
-0.540711024340438,0.643843603983897
-0.541546103013435,0.646018301488378
-0.54232735345187,0.648145575444223
-0.54305514487971,0.650225615966354
-0.543729846520923,0.652258613169695
-0.544351827599476,0.654244757169169
-0.544921457339337,0.6561842380797
-0.545439104964473,0.65807724601621
-0.545905139698852,0.659923971093623
-0.54631993076644,0.661724603426862
-0.546683847391207,0.663479333130851
-0.546997258797118,0.665188350320512
-0.547260534208141,0.66685184511077
-0.547474042848245,0.668470007616547
-0.547638153941395,0.670043027952766
-0.547753236711561,0.671571096234352
-0.547819660382708,0.673054402576226
-0.547837794178805,0.674493137093313
-0.547808007323819,0.675887489900535
-0.547730669041718,0.677237651112817
-0.547606148556469,0.678543810845081
-0.547434815092039,0.679806159212251
-0.547217037872395,0.681024886329249
-0.546953186121507,0.682200182311
-0.546643629063339,0.683332237272426
-0.546288735921861,0.684421241328451
-0.54588887592104,0.685467384593997
-0.545444418284843,0.68647085718399
-0.544955732237237,0.68743184921335
-0.54442318700219,0.688350550797003
-0.543847151803669,0.68922715204987
-0.543227995865643,0.690061843086877
-0.542566088412077,0.690854814022944
-0.54186179866694,0.691606254972997
-0.5411154958542,0.692316356051958
-0.540327549197823,0.692985307374751
-0.539498327921777,0.693613299056299
-0.53862820125003,0.694200521211524
-0.537717538406548,0.694747163955351
-0.5367667086153,0.695253417402703
-0.535776081100253,0.695719471668503
-0.534746025085374,0.696145516867674
-0.533676909794631,0.696531743115139
-0.532569104451991,0.696878340525823
-0.531422978281422,0.697185499214647
-0.53023890050689,0.697453409296536
-0.529017240352365,0.697682260886413
-0.527758367041812,0.6978722440992
-0.526462649799199,0.698023549049822
-0.525130457848495,0.698136365853201
-0.523762160413665,0.698210884624262
-0.522358126718679,0.698247295477926
-0.520918725987502,0.698245788529117
-0.519444327444104,0.69820655389276
-0.51793530031245,0.698129781683776
-0.516392013816509,0.69801566201709
-0.514814837180247,0.697864385007623
-0.513204139627634,0.697676140770301
-0.511560290382635,0.697451119420046
-0.509883658669218,0.697189511071782
-0.508174613711351,0.69689150584043
-0.506433524733001,0.696557293840916
-0.504660760958136,0.696187065188162
-0.502856691610723,0.695781009997092
-0.50102168591473,0.695339318382628
-0.499156113094123,0.694862180459695
-0.497260342372871,0.694349786343215
-0.495334742974941,0.693802326148111
-0.4933796841243,0.693219989989307
-0.491395535044915,0.692602967981727
-0.489382664960755,0.691951450240293
-0.487341443095787,0.691265626879929
-0.485272238673977,0.690545688015558
-0.483175420919294,0.689791823762103
-0.481051359055706,0.689004224234488
-0.478900422307178,0.688183079547636
-0.47672297989768,0.687328579816469
-0.474519401051177,0.686440915155913
-0.472290054991639,0.685520275680889
-0.470035310943031,0.684566851506321
-0.467755538129323,0.683580832747133
-0.46545110577448,0.682562409518247
-0.463122383102471,0.681511771934587
-0.460769739337263,0.680429110111077
-0.458393543702823,0.679314614162638
-0.455994165423119,0.678168474204195
-0.453571973722119,0.676990880350672
-0.451127337823789,0.675782022716991
-0.448660626952097,0.674542091418075
-0.446172210331011,0.673271276568848
-0.443662457184498,0.671969768284234
-0.441131736736526,0.670637756679155
-0.438580418211062,0.669275431868534
-0.436008870832072,0.667882983967296
-0.433417463823527,0.666460603090363
-0.430806566409391,0.665008479352658
-0.428176547813633,0.663526802869106
-0.42552777726022,0.662015763754628
-0.42286062397312,0.660475552124149
-0.4201754571763,0.658906358092592
-0.417472646093727,0.657308371774879
-0.414752559949369,0.655681783285935
-0.412015567967194,0.654026782740683
-0.409262039371169,0.652343560254045
-0.406492343385261,0.650632305940946
-0.403706849233438,0.648893209916307
-0.400905926139667,0.647126462295054
-0.398089943327916,0.645332253192109
-0.395259270022152,0.643510772722395
-0.392414275446342,0.641662211000835
-0.389555328824454,0.639786758142353
-0.386682799380456,0.637884604261873
-0.383797056338315,0.635955939474316
-0.380898468921997,0.634000953894608
-0.377987406355472,0.63201983763767
-0.375064237862706,0.630012780818427
-0.372129332667667,0.627979973551801
-0.369183059994321,0.625921605952716
-0.366225789066637,0.623837868136095
-0.363257889108583,0.621728950216862
-0.360279729344124,0.619595042309939
-0.35729167899723,0.61743633453025
-0.354294107291867,0.615253016992718
-0.351287383452002,0.613045279812267
-0.348271876701604,0.61081331310382
-0.34524795626464,0.608557306982299
-0.342215991365076,0.60627745156263
-0.339176351226882,0.603973936959734
-0.336129405074023,0.601646953288534
-0.333075522130467,0.599296690663955
-0.330015071620183,0.59692333920092
-0.326948422767136,0.594527089014351
-0.323875944795296,0.592108130219172
-0.320798006928629,0.589666652930307
-0.317714978391102,0.587202847262678
-0.314627228406684,0.58471690333121
-0.311535126199341,0.582209011250824
-0.308439040993041,0.579679361136445
-0.305339342011752,0.577128143102996
-0.30223639847944,0.5745555472654
-0.299130579620074,0.57196176373858
-0.29602225465762,0.56934698263746
-0.292911792816047,0.566711394076962
-0.289799563319322,0.564055188172011
-0.286685935391411,0.56137855503753
-0.283571278256284,0.558681684788441
-0.280455961137906,0.555964767539668
-0.277340353260245,0.553227993406135
-0.27422482384727,0.550471552502764
-0.271109742122947,0.547695634944478
-0.267995477311243,0.544900430846203
-0.264882398636127,0.54208613032286
-0.261770875321566,0.539252923489372
-0.258661276591526,0.536401000460663
-0.255553971669977,0.533530551351657
-0.252449329780884,0.530641766277277
-0.249347720148216,0.527734835352445
-0.246249511995939,0.524809948692085
-0.243155074548022,0.521867296411121
-0.240064777028432,0.518907068624476
-0.236978988661136,0.515929455447072
-0.233898078670101,0.512934646993834
-0.230822416279296,0.509922833379684
-0.227752370712688,0.506894204719547
-0.224688311194243,0.503848951128344
-0.221630606947929,0.500787262721
-0.218579627197715,0.497709329612438
-0.215535741167567,0.49461534191758
-0.212499318081453,0.491505489751351
-0.20947072716334,0.488379963228674
-0.206450337637196,0.485238952464471
-0.203438518726988,0.482082647573667
-0.200435639656683,0.478911238671184
-0.19744206965025,0.475724915871945
-0.194458177931655,0.472523869290875
-0.191484333724866,0.469308289042896
-0.18852090625385,0.466078365242931
-0.185568264742575,0.462834288005904
-0.182626778415008,0.459576247446739
-0.179696816495117,0.456304433680358
-0.176778748206869,0.453019036821684
-0.173872942774232,0.449720246985641
-0.170979769421173,0.446408254287153
-0.168099597371659,0.443083248841142
-0.165232795849658,0.439745420762532
-0.162379734079137,0.436394960166246
-0.159540781284064,0.433032057167208
-0.156716306688407,0.42965690188034
-0.153906679516132,0.426269684420566
-0.151112268991207,0.42287059490281
-0.1483334443376,0.419459823441994
-0.145570574779278,0.416037560153042
-0.142824029540209,0.412603995150876
-0.140094177844359,0.409159318550422
-0.137381388915697,0.405703720466601
-0.134686031978189,0.402237391014336
-0.132008476255804,0.398760520308552
-0.129349090972508,0.395273298464172
-0.12670824535227,0.391775915596118
-0.124086308619056,0.388268561819315
-0.121483649996834,0.384751427248685
-0.118900638709572,0.381224701999151
-0.116337643981236,0.377688576185637
-0.113795035035795,0.374143239923067
-0.111273181097216,0.370588883326363
-0.108772451389466,0.367025696510449
-0.106293215136513,0.363453869590248
-0.103835841562324,0.359873592680683
-0.101400699890866,0.356285055896678
-0.0989881593461077,0.352688449353156
-0.0965985891520158,0.34908396316504
-0.0942323585325576,0.345471787447253
-0.091889836711701,0.341852112314719
-0.0895713929134131,0.338225127882362
-0.0872773963616615,0.334591024265103
-0.0850082162804135,0.330949991577868
-0.0827642218936368,0.327302219935578
-0.0805457824252986,0.323647899453157
-0.0783532670993665,0.319987220245529
-0.0761870451398078,0.316320372427616
-0.0740474857705901,0.312647546114343
-0.0719349582156808,0.308968931420632
-0.0698498316990473,0.305284718461406
-0.0677924754446571,0.30159509735159
-0.0657632586764776,0.297900258206105
-0.0637625506184761,0.294200391139876
-0.0617907204946204,0.290495686267826
-0.0598481375288776,0.286786333704878
-0.0579351709452154,0.283072523565955
-0.0560521899676011,0.27935444596598
-0.0541995638200023,0.275632291019878
-0.0523776617263861,0.271906248842571
-0.0505868529107204,0.268176509548982
-0.0488275065969722,0.264443263254034
-0.0470999920091093,0.260706700072652
-0.0454046783710989,0.256967010119758
-0.0437419349069087,0.253224383510276
-0.0421121308405059,0.249479010359129
-0.0405156353958581,0.245731080781239
-0.0389528177969326,0.241980784891531
-0.037424047267697,0.238228312804928
-0.0359296930321186,0.234473854636353
-0.034470124314165,0.230717600500729
-0.0330457103378035,0.22695974051298
-0.0316568203270017,0.223200464788028
-0.0303038235057269,0.219439963440798
-0.0289870890979466,0.215678426586212
-0.0277069863276282,0.211916044339193
-0.0264638844187393,0.208153006814666
-0.0252581525952472,0.204389504127553
-0.0240901600811194,0.200625726392777
-0.0229602761003232,0.196861863725262
-0.0218688698768263,0.193098106239932
-0.020816310634596,0.189334644051709
-0.0198029675975997,0.185571667275516
-0.018829209989805,0.181809366026277
-0.0178954070351792,0.178047930418916
-0.0170019279576897,0.174287550568355
-0.0161491419813042,0.170528416589518
-0.0153374183299899,0.166770718597328
-0.0145671262277143,0.163014646706709
-0.0138386348984449,0.159260391032583
-0.0131523135661492,0.155508141689874
-0.0125085314547945,0.151758088793505
-0.0119076577883483,0.1480104224584
-0.0113500617907781,0.144265332799482
-0.0108361126860512,0.140523009931674
-0.0103661796981353,0.136783643969899
-0.00994063205099754,0.13304742502908
-0.00955983896860556,0.129314543224142
-0.00922416967492681,0.125585188670007
-0.00893399339392867,0.121859551481598
-0.00868967934957857,0.118137821773839
-0.00849159676584398,0.114420189661653
-0.0083401148666924,0.110706845259964
-0.00823560287609117,0.106997978683694
-0.00817843001800782,0.103293780047767
-0.00816896551640977,0.0995944394671065
-0.00820757859526446,0.0959001470566354
-0.00829463847853933,0.0922110929312768
-0.00843051439020181,0.0885274672059545
-0.00861557555421936,0.0848494599955913
-0.00885019119455946,0.0811772614151109
-0.00913473053518951,0.0775110615794363
-0.00946956280007694,0.073851050603491
-0.00985505721318926,0.0701974186021981
-0.0102915829984939,0.066550355690481
-0.0107795093799583,0.0629100519832628
-0.0113192055815498,0.0592766975954671
-0.011911040827236,0.0556504826420168
-0.0125553843409842,0.0520315972378356
-0.0132526053467621,0.0484202314978463
-0.0140030730685368,0.0448165755369727
-0.014807156730276,0.0412208194701377
-0.015665225555947,0.0376331534122649
-0.0165776487695173,0.0340537674782772
-0.0175447955949544,0.0304828517830982
-0.0185670352562257,0.026920596441651
-0.0196447369772986,0.0233671915688591
-0.0207782699821406,0.0198228272796454
-0.0219680034947191,0.0162876936889337
-0.0232143067390016,0.0127619809116468
-0.0245175489389555,0.0092458790627083
-0.0258780993185484,0.00573957825704123
-0.0272963271017474,0.00224326860956919
-0.0287726015125203,-0.00124285976478485
-0.0303072917748343,-0.00471861675109732
-0.031900767112657,-0.00818381223444527
-0.0335533967499558,-0.011638256099905
-0.0352655499106981,-0.0150817582325537
-0.0370375958188514,-0.0185141285174676
-0.0388699036983831,-0.0219351768397238
-0.0407628427732607,-0.0253447130843988
-0.0427167822674516,-0.0287425471365695
-0.0447320914049232,-0.0321284888813124
-0.046809139409643,-0.0355023482037044
-0.0489482955055785,-0.038863934988822
-0.0511499289166972,-0.0422130591217423
-0.0534144088669662,-0.0455495304875415
-0.0557421045803534,-0.0488731589712968
-0.0581333852808259,-0.0521837544580846
-0.0605886201923513,-0.0554811268329818
-0.0631081785388971,-0.0587650859810649
-0.0656924295444306,-0.0620354417874109
-0.0683417424329193,-0.0652920041370962
-0.0710564864283307,-0.0685345829151979
-0.0738370307546321,-0.0717629880067923
-0.0766837446357911,-0.0749770292969565
-0.0795969972957751,-0.0781765166707669
-0.0825771579585516,-0.0813612600133004
-0.0856245958480878,-0.0845310692096337
-0.0887396801883515,-0.0876857541448435
-0.0919227802033098,-0.0908251247040063
-0.0951742651169305,-0.0939489907721993
-0.0984945041531806,-0.0970571622344987
-0.101883866536028,-0.100149448975982
-0.10534272148944,-0.103225660881725
-0.108871438237384,-0.106285607836804
-0.112470386003827,-0.109329099726297
-0.116139934012737,-0.112355946435281
-0.119880451488082,-0.115365957848831
-0.123692307653828,-0.118358943852025
-0.127575871733944,-0.12133471432994
-0.131531512952396,-0.124293079167651
-0.135559600533152,-0.127233848250236
-0.13966050370018,-0.130156831462772
-0.143834591677447,-0.133061838690335
-0.14808223368892,-0.135948679818002
-0.152403798958567,-0.13881716473085
-0.156799656710356,-0.141667103313955
-0.161270176168253,-0.144498305452394
-0.165815726556227,-0.147310581031244
-0.170436677098244,-0.150103739935581
-0.175133397018272,-0.152877592050483
-0.179906255540279,-0.155631947261025
-0.184755621888232,-0.158366615452286
-0.189681865286098,-0.16108140650934
-0.194685354957846,-0.163776130317266
-0.199766460127441,-0.16645059676114
-0.204925550018852,-0.169104615726038
-0.210162993856047,-0.171737997097037
-0.215479160862992,-0.174350550759215
-0.220874420263655,-0.176942086597647
-0.226349141282004,-0.17951241449741
-0.231903693142006,-0.182061344343582
-0.237538445067629,-0.184588686021238
-0.243253766282839,-0.187094249415457
-0.249050026011604,-0.189577844411313
-0.254927593477893,-0.192039280893884
-0.260886837905671,-0.194478368748247
-0.266928128518907,-0.196894917859479
-0.273051834541569,-0.199288738112655
-0.279258325197623,-0.201659639392854
-0.285547969711037,-0.204007431585151
-0.291921137305778,-0.206331924574623
-0.298378197205815,-0.208632928246347
-0.304919518635113,-0.2109102524854
-0.311545470817642,-0.213163707176859
-0.318256422977367,-0.215393102205799
-0.325052744338258,-0.217598247457299
-0.33193480412428,-0.219778952816434
-0.338902971559402,-0.221935028168281
-0.345957615867591,-0.224066283397918
-0.353099106272815,-0.22617252839042
-0.36032781199904,-0.228253573030864
-0.367644102270235,-0.230309227204328
-0.375048346310367,-0.232339300795888
-0.382540913343403,-0.23434360369062
-0.39012217259331,-0.236321945773602
-0.397792493284057,-0.238274136929909
-0.40555224463961,-0.24019998704462
-0.413401795883937,-0.242099306002809
-0.421341516241006,-0.243971903689555
-0.429371774934784,-0.245817589989934
-0.437492941189238,-0.247636174789023
-0.445705384228335,-0.249427467971898
-0.454009473276044,-0.251191279423636
-0.462405577556332,-0.252927419029313
-0.462405577556332,-0.252927419029313
-0.470789306691583,-0.254625997842219
-0.479056390415818,-0.256277395340276
-0.487207378120466,-0.257881824045506
-0.495242819196952,-0.259439496479937
-0.503163263036702,-0.260950625165592
-0.510969259031142,-0.262415422624497
-0.5186613565717,-0.263834101378677
-0.5262401050498,-0.265206873950157
-0.53370605385687,-0.266533952860961
-0.541059752384335,-0.267815550633115
-0.548301750023622,-0.269051879788645
-0.555432596166157,-0.270243152849573
-0.562452840203366,-0.271389582337927
-0.569363031526676,-0.272491380775731
-0.576163719527512,-0.27354876068501
-0.582855453597301,-0.274561934587788
-0.58943878312747,-0.275531115006092
-0.595914257509444,-0.276456514461945
-0.602282426134649,-0.277338345477374
-0.608543838394513,-0.278176820574402
-0.61469904368046,-0.278972152275056
-0.620748591383918,-0.279724553101359
-0.626693030896313,-0.280434235575337
-0.63253291160907,-0.281101412219016
-0.638268782913617,-0.281726295554419
-0.643901194201379,-0.282309098103573
-0.649430694863782,-0.282850032388501
-0.654857834292254,-0.28334931093123
-0.660183161878219,-0.283807146253784
-0.665407227013105,-0.284223750878188
-0.670530579088337,-0.284599337326467
-0.675553767495342,-0.284934118120646
-0.680477341625546,-0.28522830578275
-0.685301850870375,-0.285482112834805
-0.690027844621256,-0.285695751798834
-0.694655872269614,-0.285869435196864
-0.699186483206877,-0.286003375550919
-0.70362022682447,-0.286097785383024
-0.707957652513819,-0.286152877215205
-0.712199309666351,-0.286168863569486
-0.716345747673492,-0.286145956967892
-0.720397515926667,-0.286084369932448
-0.724355163817305,-0.28598431498518
-0.72821924073683,-0.285846004648111
-0.731990296076669,-0.285669651443269
-0.735668879228248,-0.285455467892676
-0.739255539582993,-0.285203666518359
-0.742750826532331,-0.284914459842342
-0.746155289467688,-0.284588060386651
-0.74946947778049,-0.28422468067331
-0.752693940862164,-0.283824533224345
-0.755829228104135,-0.283387830561779
-0.758875888897829,-0.28291478520764
-0.761834472634674,-0.28240560968395
-0.764705528706095,-0.281860516512737
-0.767489606503519,-0.281279718216023
-0.770187255418371,-0.280663427315835
-0.772799024842079,-0.280011856334198
-0.775325464166067,-0.279325217793136
-0.777767122781763,-0.278603724214675
-0.780124550080593,-0.277847588120839
-0.782398295453983,-0.277057022033654
-0.784588908293359,-0.276232238475144
-0.786696937990148,-0.275373449967335
-0.788722933935775,-0.274480869032252
-0.790667445521667,-0.273554708191919
-0.79253102213925,-0.272595179968362
-0.794314213179951,-0.271602496883605
-0.796017568035195,-0.270576871459674
-0.797641636096409,-0.269518516218594
-0.79918696675502,-0.268427643682389
-0.800654109402453,-0.267304466373086
-0.802043613430134,-0.266149196812707
-0.80335602822949,-0.26496204752328
-0.804591903191947,-0.263743231026828
-0.805751787708932,-0.262492959845377
-0.80683623117187,-0.261211446500952
-0.807845782972188,-0.259898903515578
-0.808780992501312,-0.258555543411279
-0.809642409150668,-0.257181578710081
-0.810430582311683,-0.255777221934009
-0.811146061375782,-0.254342685605088
-0.811789395734393,-0.252878182245343
-0.812361134778941,-0.251383924376798
-0.812861827900852,-0.24986012452148
-0.813292024491553,-0.248306995201412
-0.81365227394247,-0.24672474893862
-0.813943125645029,-0.24511359825513
-0.814165128990657,-0.243473755672965
-0.814318833370779,-0.241805433714151
-0.814404788176822,-0.240108844900713
-0.814423542800213,-0.238384201754676
-0.814375646632377,-0.236631716798065
-0.81426164906474,-0.234851602552905
-0.814082099488729,-0.233044071541221
-0.813837547295771,-0.231209336285038
-0.813528541877291,-0.229347609306381
-0.813155632624715,-0.227459103127275
-0.81271936892947,-0.225544030269745
-0.812220300182982,-0.223602603255816
-0.811658975776678,-0.221635034607514
-0.811035945101983,-0.219641536846862
-0.810351757550324,-0.217622322495887
-0.809606962513127,-0.215577604076613
-0.808802109381819,-0.213507594111064
-0.807937747547824,-0.211412505121268
-0.80701442640257,-0.209292549629247
-0.806032695337484,-0.207147940157027
-0.804993103743991,-0.204978889226634
-0.803896201013517,-0.202785609360092
-0.802742536537489,-0.200568313079426
-0.801532659707333,-0.198327212906661
-0.800267119914475,-0.196062521363823
-0.798946466550341,-0.193774450972936
-0.797571249006358,-0.191463214256025
-0.796142016673953,-0.189129023735116
-0.79465931894455,-0.186772091932233
-0.793123705209577,-0.184392631369401
-0.791535724860459,-0.181990854568645
-0.789895927288623,-0.179566974051991
-0.788204861885495,-0.177121202341464
-0.786463078042502,-0.174653751959087
-0.784671125151069,-0.172164835426887
-0.782829552602623,-0.169654665266889
-0.78093890978859,-0.167123454001117
-0.778999746100397,-0.164571414151596
-0.777012610929468,-0.161998758240352
-0.774978053667232,-0.159405698789409
-0.772896623705114,-0.156792448320793
-0.77076887043454,-0.154159219356528
-0.768595343246936,-0.15150622441864
-0.76637659153373,-0.148833676029154
-0.764113164686346,-0.146141786710094
-0.761805612096212,-0.143430768983485
-0.759454483154753,-0.140700835371353
-0.757060327253395,-0.137952198395723
-0.754623693783566,-0.135185070578619
-0.752145132136691,-0.132399664442067
-0.749625191704196,-0.129596192508091
-0.747064421877508,-0.126774867298717
-0.744463372048053,-0.12393590133597
-0.741822591607256,-0.121079507141875
-0.739142629946546,-0.118205897238456
-0.736424036457347,-0.115315284147739
-0.733667360531086,-0.112407880391748
-0.730873151559188,-0.10948389849251
-0.728041958933082,-0.106543550972047
-0.725174332044191,-0.103587050352387
-0.722270820283944,-0.100614609155554
-0.719331973043766,-0.0976264399035722
-0.716358339715083,-0.0946227551184673
-0.713350469689321,-0.0916037673222642
-0.710308912357908,-0.0885696890369881
-0.707234217112268,-0.0855207327846636
-0.704126933343828,-0.082457111087316
-0.700987610444016,-0.0793790364669703
-0.697816797804256,-0.0762867214456516
-0.694615044815974,-0.0731803785453846
-0.691382900870598,-0.0700602202881946
-0.688120915359554,-0.0669264591961065
-0.684829637674267,-0.0637793077911454
-0.681509617206164,-0.0606189785953362
-0.678161403346671,-0.0574456841307039
-0.674785545487215,-0.0542596369192736
-0.671382593019222,-0.0510610494830704
-0.667953095334117,-0.0478501343441192
-0.664497601823327,-0.0446271040244448
-0.661016661878279,-0.0413921710460727
-0.657510824890398,-0.0381455479310275
-0.653980640251111,-0.0348874472013344
-0.650426657351845,-0.0316180813790184
-0.646849425584024,-0.0283376629861044
-0.643249494339077,-0.0250464045446177
-0.639627413008428,-0.0217445185765829
-0.635983730983504,-0.0184322176040252
-0.632318997655731,-0.0151097141489698
-0.628633762416536,-0.0117772207334416
-0.624928574657345,-0.00843494987946541
-0.621203983769583,-0.00508311410906644
-0.617460539144678,-0.00172192594426976
-0.613698790174056,0.00164840209289972
-0.609919286249142,0.00502765748041706
-0.606122576761363,0.00841562769625712
-0.602309211102145,0.0118121002183949
-0.598479738662915,0.0152168625248054
-0.594634708835099,0.0186297020934637
-0.590774671010122,0.0220504064023447
-0.586900174579412,0.0254787629294232
-0.583011768934394,0.0289145591526745
-0.579110003466494,0.0323575825500735
-0.57519542756714,0.0358076205995951
-0.571268590627756,0.0392644607792144
-0.56733004203977,0.0427278905669062
-0.563380331194608,0.0461976974406457
-0.559420007483695,0.0496736688784078
-0.555449620298459,0.0531555923581674
-0.551469719030325,0.0566432553578996
-0.547480853070719,0.0601364453555793
-0.543483571811068,0.0636349498291817
-0.539478424642799,0.0671385562566814
-0.535465960957336,0.0706470521160538
-0.531446730146107,0.0741602248852736
-0.527421281600538,0.0776778620423159
-0.523390164712055,0.0811997510651556
-0.519353928872084,0.0847256794317679
-0.515313123472052,0.0882554346201275
-0.511268297903384,0.0917888041082096
-0.507220001557507,0.095325575373989
-0.503168783825848,0.0988655358954409
-0.499115194099832,0.10240847315054
-0.495059781770885,0.105954174617262
-0.491003096230435,0.109502427773581
-0.486945686869906,0.113053020097472
-0.482888103080726,0.116605739066911
-0.478830894254321,0.120160372159872
-0.474774609782117,0.12371670685433
-0.470719799055539,0.127274530628261
-0.466667011466015,0.130833630959638
-0.462616796404971,0.134393795326439
-0.458569703263832,0.137954811206636
-0.454526281434026,0.141516466078205
-0.450487080306978,0.145078547419122
-0.446452649274114,0.148640842707361
-0.442423537726861,0.152203139420897
-0.438400295056646,0.155765225037705
-0.434383470654893,0.159326887035761
-0.43037361391303,0.162887912893039
-0.426371274222483,0.166448090087513
-0.422377000974678,0.17000720609716
-0.418391343561041,0.173565048399954
-0.414414851372998,0.17712140447387
-0.410448073801976,0.180676061796883
-0.406491560239401,0.184228807846969
-0.4025458600767,0.187779430102101
-0.398611522705298,0.191327716040255
-0.394689097516621,0.194873453139406
-0.390779133902096,0.19841642887753
-0.38688218125315,0.2019564307326
-0.382998788961208,0.205493246182592
-0.379129506417696,0.209026662705482
-0.375274883014042,0.212556467779243
-0.37143546814167,0.216082448881851
-0.367611811192008,0.219604393491281
-0.363804461556482,0.223122089085508
-0.360013968626517,0.226635323142507
-0.35624088179354,0.230143883140252
-0.352485750448978,0.23364755655672
-0.348749123984256,0.237146130869885
-0.345031551790801,0.240639393557721
-0.341333583260039,0.244127132098204
-0.337655767783396,0.247609133969309
-0.333998654752299,0.251085186649011
-0.330362793558173,0.254555077615284
-0.326748733592446,0.258018594346104
-0.323157024246543,0.261475524319447
-0.31958821491189,0.264925655013285
-0.316042854979914,0.268368773905596
-0.312521493842041,0.271804668474353
-0.309024680889697,0.275233126197532
-0.305552965514308,0.278653934553108
-0.302106897107301,0.282066881019055
-0.298687025060102,0.285471753073349
-0.295293898764137,0.288868338193965
-0.291928067610833,0.292256423858877
-0.288590080991615,0.295635797546061
-0.28528048829791,0.299006246733491
-0.281999838921144,0.302367558899143
-0.278748682252744,0.305719521520992
-0.275527567684135,0.309061922077012
-0.272337044606744,0.312394548045178
-0.269177662411997,0.315717186903467
-0.26604997049132,0.319029626129851
-0.26295451823614,0.322331653202308
-0.259891855037882,0.32562305559881
-0.256862530287974,0.328903620797335
-0.253867093377841,0.332173136275855
-0.250906093698909,0.335431389512348
-0.247980080642605,0.338678167984786
-0.245089603600355,0.341913259171146
-0.242235211963585,0.345136450549402
-0.239417455123722,0.34834752959753
-0.236636882472191,0.351546283793504
-0.23389404340042,0.3547325006153
-0.231189487299833,0.357905967540892
-0.228523763561858,0.361066472048255
-0.225897421577921,0.364213801615365
-0.223311010739447,0.367347743720196
-0.220765080437864,0.370468085840723
-0.218260180064597,0.373574615454921
-0.215796859011072,0.376667120040766
-0.213375666668717,0.379745387076232
-0.210997152428956,0.382809204039294
-0.208661865683217,0.385858358407928
-0.206370355822926,0.388892637660107
-0.204123172239508,0.391911829273808
-0.20192086432439,0.394915720727005
-0.199763981468999,0.397904099497673
-0.19765307306476,0.400876753063788
-0.1955886885031,0.403833468903323
-0.193571377175445,0.406774034494255
-0.191601688473221,0.409698237314558
-0.189680171787854,0.412605864842206
-0.187807376510772,0.415496704555177
-0.185983852033399,0.418370543931442
-0.184210147747163,0.42122717044898
-0.182486813043489,0.424066371585763
-0.180814397313803,0.426887934819767
-0.179193449949533,0.429691647628967
-0.177624520342104,0.432477297491338
-0.176108157882942,0.435244671884855
-0.174644911963474,0.437993558287493
-0.173235331975125,0.440723744177227
-0.171879967309323,0.443435017032033
-0.170579367357493,0.446127164329883
-0.169334081511062,0.448799973548755
-0.168144659161456,0.451453232166623
-0.1670116497001,0.454086727661462
-0.165935602518423,0.456700247511246
-0.164917067007848,0.459293579193952
-0.163956592559803,0.461866510187553
-0.163054728565715,0.464418827970025
-0.162212024417009,0.466950320019343
-0.161429029505111,0.469460773813482
-0.160706293221448,0.471949976830417
-0.160044364957446,0.474417716548122
-0.159443794104531,0.476863780444573
-0.15890513005413,0.479287955997745
-0.158428922197669,0.481690030685612
-0.158015719926573,0.484069791986151
-0.15766607263227,0.486427027377335
-0.157380529706185,0.48876152433714
-0.157159640539744,0.49107307034354
-0.157003954524375,0.493361452874511
-0.156914021051503,0.495626459408028
-0.156890389512554,0.497867877422065
-0.156933609298955,0.500085494394598
-0.157044229802132,0.502279097803602
-0.15722280041351,0.504448475127051
-0.157469870524518,0.506593413842921
-0.15778598952658,0.508713701429186
-0.158171706811122,0.510809125363822
-0.158627571769572,0.512879473124803
-0.159154133793355,0.514924532190106
-0.159751942273897,0.516944090037703
-0.160421546602626,0.518937934145571
-0.161163496170966,0.520905851991685
-0.161978340370345,0.522847631054019
-0.162866628592188,0.524763058810548
-0.163828910227922,0.526651922739248
-0.164865734668973,0.528514010318093
-0.165977651306767,0.530349109025059
-0.167165209532731,0.53215700633812
-0.16842895873829,0.533937489735252
-0.169769448314872,0.535690346694429
-0.171187227653901,0.537415364693626
-0.172682846146805,0.539112331210819
-0.17425685318501,0.540781033723982
-0.175909798159941,0.54242125971109
-0.177642230463026,0.544032796650118
-0.17945469948569,0.545615432019042
-0.18134775461936,0.547168953295837
-0.183321945255461,0.548693147958476
-0.185377820785421,0.550187803484936
-0.187515930600665,0.551652707353191
-0.189736824092619,0.553087647041216
-0.192041050652711,0.554492410026986
-0.194429159672365,0.555866783788477
-0.196901700543009,0.557210555803662
-0.199459222656068,0.558523513550518
-0.202102275402969,0.559805444507019
-0.204831408175139,0.561056136151141
-0.207647170364002,0.562275375960857
-0.210550111360986,0.563462951414143
-0.213540780557517,0.564618649988975
-0.21661972734502,0.565742259163327
-0.219787501114923,0.566833566415173
-0.223044651258652,0.56789235922249
-0.226391727167631,0.568918425063252
-0.22982927823329,0.569911551415434
-0.233357853847052,0.57087152575701
-0.236978003400344,0.571798135565957
-0.240690276284593,0.572691168320249
-0.244495221891226,0.573550411497861
-0.248393389611667,0.574375652576768
-0.252385328837344,0.575166679034944
-0.256471588959682,0.575923278350366
-0.260652719370108,0.576645238001007
-0.264929269460048,0.577332345464844
-0.269301788620929,0.57798438821985
-0.273770826244176,0.578601153744001
-0.278336931721216,0.579182429515273
-0.283000654443475,0.579728003011639
-0.28776254380238,0.580237661711074
-0.292623149189355,0.580711193091555
-0.297583019995829,0.581148384631055
-0.302642705613227,0.58154902380755
-0.307802755432975,0.581912898099015
-0.313063718846499,0.582239794983425
-0.318426145245226,0.582529501938755
