-0.254828734055838,0.744475342018164
-0.333836614942577,0.671218482223333
-0.179736107636286,0.782408218787188
-0.278847634947819,0.673466075761952
-0.15609600400096,0.757459518520234
-0.358670261599304,0.555879579044896
-0.359339000867041,0.513482958925126
-0.288435971544473,0.654373419934393
-0.299820808288138,0.624796849115852
-0.218503855189316,0.61992576139142
-0.241894566436994,0.563204595382539
-0.277383121964925,0.516814357450851
-0.210799576841819,0.525580172034055
-0.227763748308825,0.521175124464627
-0.21592573752469,0.501821907008155
-0.238921963755879,0.45364400443444
-0.177810264170276,0.467420721521735
-0.210386239612162,0.46973677453849
-0.206290065200182,0.457670606625707
-0.202289226535614,0.445913353234383
-0.201822841864533,0.43692798098655
-0.166685592056239,0.424336814179763
-0.185436709332175,0.43731973442381
-0.215484673205959,0.357831923076432
-0.183646025668322,0.391612871243975
-0.226317164756255,0.408076262854185
-0.195891395474319,0.392639862947301
-0.173477882678044,0.36246905051398
-0.170246295197243,0.353301828429904
-0.175075735877408,0.328773277191855
-0.140881073021493,0.368061531279407
-0.160997295800473,0.327383143513162
-0.149161667440238,0.271213047219157
-0.155183038620001,0.311380904818042
-0.0458321800390957,0.402830639390901
-0.235956004730004,0.188803208015649
-0.146949812900721,0.289208340589023
-0.151683300111852,0.26699390926768
-0.170650963923818,0.264693713870988
-0.122961897815354,0.242521364657186
-0.110584549633829,0.249780308048564
-0.134398018256941,0.256854406842431
-0.121289659405507,0.231733939471436
0.0081404002926793,0.366949229370365
-0.127482292539486,0.240016277842663
-0.167060506801889,0.275712641455931
-0.102317906132367,0.271490203125462
-0.120962981725494,0.224969342729378
-0.160581494476137,0.235442591170472
-0.116810702634998,0.215876804994968
-0.173008694497654,0.0710332587930276
0.0285082153128883,0.302471517011619
-0.110833722602867,0.203561593844626
-0.173056869305829,0.116876113094978
-0.106993680398652,0.196184539093347
-0.12213351830139,0.191914193848584
-0.0623068871082734,0.223112161791598
-0.101411080243501,0.186284052929455
-0.138643646078825,0.223102743576068
0.0110644209987006,0.288007499753749
-0.0959940915801928,0.177680242248715
-0.0942160254120848,0.175080731081743
-0.0863359667214576,0.2100189193095
-0.016536051397096,0.279957829037745
-0.112000090232336,0.153268157173108
-0.195568906559,0.0616998293620091
-0.0555590374861992,0.188962968173868
-0.112115600797125,0.12195847694831
-0.0957522732905352,0.185355968293992
-0.0167052706382042,0.264189210232629
-0.0926926323000618,0.158851135087704
-0.0766879526472002,0.155382485951953
-0.0749170053302321,0.153949361726529
-0.0731348691091588,0.15259691275949
-0.0713395713052485,0.151320912397816
-0.0695291392397695,0.150117133988487
-0.0423270121814487,0.105447638634518
-0.0538789513388222,0.102297726175131
-0.112910941684888,0.105680485915635
-0.0311785581095042,0.116550306623981
-0.0844611648808966,0.145170155875182
-0.0947056388134316,0.117295551547674
-0.0562666504440201,0.143357860935175
-0.0747351761876517,0.125556926732563
-0.0522287168891182,0.14183571841177
-0.0501584448777032,0.141121693609796
-0.0645248804124213,0.122739421903095
-0.0413301426728011,0.176967235931885
0.0685244955162297,0.230747362593929
-0.0413783035542498,0.0932201816479504
-0.0503186605971353,0.165543278600721
-0.0155841444176054,0.142661405842914
-0.041233811779417,0.134691933753761
-0.0482248227590032,0.168801643053571
0.0117777441222445,0.0862128027717119
-0.0271043777537993,0.134699130143706
0.10404625888914,0.261129549056049
-0.0326078413817938,0.151592165575145
-0.0191749844576686,0.132642187475358
-0.0623518575977381,0.146380647337117
-0.0227883396648171,0.128254277285282
-0.0260759559142949,0.092647762416537
-0.0307452617432622,0.160690649704654
0.00277450295262681,0.082610238465713
0.0677405491374478,0.241603007237349
0.00197559152995599,0.101355813155038
-0.0301669833199359,0.0863110846442994
0.0158315324347304,0.14914359347008
-0.0243824341445332,0.152899193271073
-0.00972305583260697,0.168651148032146
0.159818538592347,0.262818457051005
0.0423881595492027,0.0899523339271006
0.176703976364381,0.204764806870709
0.0634162874899494,0.147459179675428
-0.0478541541750978,0.0333875730040488
0.157431383892533,0.223511345327616
0.00875269537828996,0.0895224364948526
0.0228495736794782,0.0776993084235196
0.0484436936808489,0.0894621703199546
0.0550580537428424,0.104490023957321
0.05959125006631,0.102161647527908
0.0236874706363921,0.145283264880719
0.111572189394673,0.103338854982817
0.10074114777943,0.101006010949027
0.0788025369798049,0.0915838344143448
0.0838848475067436,0.0886021710218771
0.140641758579354,0.159091999769179
0.125910301334219,0.119964229031478
0.135135824228541,0.044356056564446
0.138972130892803,0.102417273877623
0.195270566387787,0.133185360816653
0.258532456424556,0.144537518572751
0.122812235757204,0.0634803888587105
0.0795810060093032,0.0733556921952043
0.112058484282807,0.0459856187818869
0.179959875971217,0.0769454109065155
0.147863150498775,0.0454137448300897
0.146860939423263,-0.00955732162588074
0.185107515451478,0.0236525041678064
0.147856927476713,0.0699100633144784
0.136622450917238,-0.0127980948807712
0.19059304874927,-0.0203788261258378
0.266639650505877,0.152924197440973
0.197069652630858,0.00632591604548308
0.204688367881834,-0.000101914695132183
0.210429087227851,-0.0191851292463943
0.210038851035937,-0.056398620306808
0.228471734986448,-0.0207441760833516
0.227787040970835,-0.0446917967651226
0.230589892520924,-0.0300933379198939
0.25586065691515,-0.0467856143579025
0.247021113744769,-0.0687347618982834
0.254424309325699,-0.0390887136001056
0.259455104151882,-0.114320058416738
0.318015541438905,-0.0380146420439829
0.194951872826544,-0.192333631948477
0.269024394682847,-0.0971926007243216
0.218260930466811,-0.202841869853539
0.328336236361762,-0.115497266887955
0.299077858508796,-0.162703646572822
0.34876739453496,-0.136236881829186
0.385256163421761,-0.146828319121475
0.325439200533616,-0.161681078547903
0.391756221372778,-0.178757904345311
0.391862907901233,-0.18124516742422
0.403113542914544,-0.193257114239047
0.365098484024812,-0.241135388177424
0.460289873651909,-0.208068344075578
0.485461737179719,-0.206490710564279
0.450082290016716,-0.244471202753227
0.320922851507002,-0.31515384730804
0.45320303797787,-0.290368608196442
0.45643719999222,-0.311237145700545
0.515933377054036,-0.252824274179756
0.513365140659398,-0.315929990195907
0.499843187939797,-0.305503175061682
0.554766897695316,-0.33405225806306
0.588272667513717,-0.401782952621808
0.567802823526595,-0.379379640525569
0.574784312326088,-0.409437419453126
0.489493623536144,-0.52615400195262
0.569321581997515,-0.449200388028493
0.625765191988576,-0.448706890242849
0.622940329122472,-0.475988366816144
0.642770416706695,-0.520780922603452
0.640481008829235,-0.507693005911449
0.69912037419263,-0.529553082897348
0.665911809319694,-0.560645791624224
0.719593705194216,-0.564309995093343
0.703437366334359,-0.604597815094071
0.756836218841508,-0.585666148423424
0.72641370136209,-0.600779837622198
0.786920137688054,-0.649514706125246
0.84995330488738,-0.64368989135403
0.917129492726062,-0.61203800698305
0.838678239291848,-0.669934661832502
0.847655277962932,-0.725904508651511
0.876670956314015,-0.765649064652886
0.895386550561013,-0.790201998853648
0.900893108286022,-0.765745268188048
