-0.616823011903774,-0.606205994241572
-0.606524999963824,-0.600014787611175
-0.597910134600022,-0.588972025538078
-0.614114878908518,-0.597203906903568
-0.600853340598318,-0.576696542691123
-0.59890963827376,-0.569045066360305
-0.587471982174745,-0.553638187925689
-0.594943358220217,-0.55392258694038
-0.609133106136767,-0.55646894452466
-0.59595468690494,-0.542940241435757
-0.562290298715904,-0.546346633035943
-0.567921172039881,-0.517591919093803
-0.623803720491655,-0.525576183325746
-0.555787462334248,-0.490174250939399
-0.580248033280363,-0.502863770372199
-0.58884416891898,-0.483472622960865
-0.575821650994969,-0.488801892210278
-0.573571213849177,-0.481857483384795
-0.571296134567912,-0.474970442569166
-0.568996554551118,-0.468140530643045
-0.566672615198737,-0.461367508486085
-0.564324457910712,-0.454651136977939
-0.561952224086988,-0.447991176998259
-0.559556055127506,-0.441387389426699
-0.549734855930868,-0.415529180814708
-0.547221132291746,-0.409202668478538
-0.544684321916526,-0.402930893828404
-0.54212456620515,-0.39671361774396
-0.539542006557562,-0.390550601104858
-0.536936784373704,-0.384441604790751
-0.53430904105352,-0.378386389681293
-0.531658917996953,-0.372384716656135
-0.528986556603946,-0.366436346594932
-0.526292098274442,-0.360541040377335
-0.523575684408384,-0.354698558882998
-0.520837456405715,-0.348908662991573
-0.518077555666378,-0.343171113582714
-0.515296123590317,-0.337485671536073
-0.512493301577474,-0.331852097731303
-0.509669231027793,-0.326270153048058
-0.506824053341216,-0.320739598365989
-0.503957909917688,-0.31526019456475
-0.50107094215715,-0.309831702523993
-0.498163291459546,-0.304453883123372
-0.495235099224819,-0.29912649724254
-0.492286506852912,-0.293849305761149
-0.489317655743769,-0.288622069558852
-0.486328687297331,-0.283444549515302
-0.483319742913544,-0.278316506510152
-0.480290963992348,-0.273237701423054
-0.477242491933689,-0.268207895133663
-0.474174468137508,-0.26322684852163
-0.471087034003749,-0.258294322466608
-0.467980330932355,-0.253410077848251
-0.464854500323268,-0.248573875546211
-0.461709683576433,-0.243785476440141
-0.458546022091792,-0.239044641409694
-0.455363657269288,-0.234351131334522
-0.452162730508865,-0.22970470709428
-0.448943383210465,-0.225105129568619
-0.445705756774032,-0.220552159637192
-0.442449992599508,-0.216045558179653
-0.439176232086837,-0.211585086075654
-0.432575287646826,-0.202801573446887
-0.429248386519372,-0.198478054681426
-0.425904054653543,-0.194199708788116
-0.422542433449282,-0.189966296646611
-0.419163664306532,-0.185777579136564
-0.415767888625237,-0.181633317137626
-0.41235524780534,-0.177533271529452
-0.408925883246783,-0.173477203191694
-0.402017548513463,-0.165496041846038
-0.398538861138586,-0.161570470597446
-0.395044015624823,-0.157687920137881
-0.391533153372115,-0.153848151346996
-0.388006415780407,-0.150050925104445
-0.384463944249641,-0.14629600228988
-0.38090588017976,-0.142583143782954
-0.377332364970707,-0.13891211046332
-0.373743540022426,-0.135282663210632
-0.37013954673486,-0.13169456290454
-0.366520526507952,-0.1281475704247
-0.35923797083588,-0.121175952462381
-0.355574718190604,-0.11775084873921
-0.348204970281284,-0.111020856207106
-0.344498757817126,-0.107715489157479
-0.340778508213229,-0.104449556091673
-0.337044362869534,-0.101222817889341
-0.333296463185984,-0.0980350354301347
-0.329534950562523,-0.0948859695937082
-0.325759966399094,-0.0917753812597139
-0.321971652095639,-0.0887030313078048
-0.318170149052103,-0.0856686806176336
-0.314355598668428,-0.0826720900688533
-0.310528142344556,-0.0797130205411167
-0.306687921480432,-0.0767912329140768
-0.298969751731198,-0.0710585468806982
-0.295092085645975,-0.0682471702336654
-0.291202220620271,-0.0654721190059407
-0.287300298054029,-0.0627331540771769
-0.283386459347194,-0.0600300363270271
-0.275523599111513,-0.0547303858811806
-0.271574860382553,-0.0521333749447897
-0.267614771112772,-0.0495712547056241
-0.263643472702111,-0.0470437860433369
-0.259661106550516,-0.0445507298375807
-0.255667814057927,-0.0420918469680086
-0.25166373662429,-0.0396668983142733
-0.247649015649546,-0.0372756447560279
-0.239588208676511,-0.0325932664446177
-0.235542405478107,-0.0303016634507588
-0.231486524338368,-0.0280427990710012
-0.227420706657239,-0.0258164341849977
-0.223345093834662,-0.0236223296724012
-0.21925982727058,-0.0214602464128646
-0.215165048364937,-0.0193299452860409
-0.211060898517675,-0.0172311871715827
-0.206947519128737,-0.0151637329491431
-0.202825051598068,-0.013127343498375
-0.198693637325609,-0.0111217796989311
-0.194553417711304,-0.00914680243046434
-0.190404534155096,-0.00720217257262759
-0.186247128056928,-0.00528765100507382
-0.177907313834485,-0.00154797625942652
-0.173725188510096,0.000277655159361297
-0.16953510624352,0.00207413476925463
-0.165337208434699,0.00384170169060068
-0.161131636483576,0.00558059504374658
-0.156918531790095,0.00729105394903944
-0.144235435254935,0.0122542151812709
-0.139993613591452,0.0138533274986228
-0.135744966185326,0.0154252009698572
-0.131489634436501,0.0169700747153213
-0.118684947133258,0.0214450888005631
-0.114404292013065,0.0228843548464173
-0.105825191143669,0.0256857136863686
-0.101527028194352,0.02704828472116
-0.0929141842661975,0.02969840562211
-0.0885997860872454,0.0309864337289629
-0.0842802589649677,0.0322500924338637
-0.0799557442993075,0.0334896208571598
-0.0756263834902076,0.0347052581191981
-0.0712923179376114,0.035897243340326
-0.066953689041462,0.0370658156408903
-0.0626106382017025,0.0382112141412383
-0.0582633068182757,0.039333677961717
-0.053911836291125,0.0404334462226737
-0.0495563680201934,0.0415107580444555
-0.045197043405424,0.0425658525474093
-0.0408340038467598,0.0435989688518825
-0.036467390744144,0.0446103460782221
-0.0320973454975198,0.0456002233467752
-0.023347524172018,0.0475164344919105
-0.0189680308930266,0.048443246609187
-0.0145856710697993,0.0493495152500655
-0.00142280633413094,0.0519474515177843
0.00296960566661011,0.0527739374565421
0.00736417721187185,0.0535810755206376
0.0117607669017112,0.0543691048304178
0.0161592333361851,0.0551382645062299
0.0205594351153503,0.055888793668421
0.0249612308392638,0.0566209314373383
0.0293644791079825,0.0573349169333288
0.0337690385215634,0.0580309892767397
0.0425815251835389,0.0593703509872112
0.0469891696320476,0.060014118594966
0.0513975596256459,0.0606409295315297
0.0558065537643909,0.0612510229172494
0.0602160106483393,0.0618446378724722
0.0646257888775483,0.0624220135175452
0.0690357470520747,0.0629833889728157
0.0734457437719752,0.0635290033586306
0.0778556376373069,0.0640590957953371
0.0822652872481267,0.0645739054032824
0.0866745512044916,0.0650736713028136
0.0910832881064582,0.0655586326142777
0.0998986151474247,0.0664850979543935
0.104304922486538,0.0669270802237394
0.108710137171482,0.0673552143864067
0.113114117802311,0.0677697395627427
0.117516722979084,0.0681708948730943
0.121917811301858,0.0685589194378089
0.126317241370688,0.0689340523772334
0.130714871785632,0.069296532811715
0.139504168054091,0.069984492647238
0.148284568907688,0.0706247119071549
0.15705494314688,0.0712191035542427
0.161436016786215,0.0714997118238435
0.165814159572121,0.0717695805512784
0.170189230104652,0.0720289488568944
0.174561086983866,0.0722780558610389
0.178929588809821,0.0725171406840587
0.183294594182572,0.0727464424463012
0.187655961702177,0.0729662002681134
0.192013549968693,0.0731766532698424
0.196367217582177,0.0733780405718353
0.200716823142685,0.0735706012944394
0.205062225250274,0.0737545745580016
0.209403282505002,0.0739301994828692
0.213739853506925,0.0740977151893892
0.2180717968561,0.0742573607979087
0.222398971152584,0.074409375428775
0.23535046572646,0.0748220246589253
0.239657149812749,0.0749459065826495
0.243958357846632,0.0750633531304561
0.248253948428166,0.0751746034226922
0.252543780157407,0.0752798965797048
0.256827711634412,0.0753794717218411
0.265377308231942,0.0755624244428732
0.269642690552582,0.0756462802624633
0.273901607021213,0.0757253745485655
0.282399476802679,0.075870235001695
0.286638147315628,0.0759364794094165
0.290869786376796,0.0759989187650387
0.29509425258624,0.0760577921889087
0.299311404544018,0.0761133388013736
0.303521100850186,0.0761657977227806
0.316104041859601,0.0763070395441249
0.3202825015599,0.0763495389047713
0.324452798608872,0.0763901461760953
0.328614791606577,0.0764291004784441
0.336913299848409,0.0765030066576045
0.34104953229265,0.0765384367751104
0.345176895085851,0.0765731704050296
0.353404446119357,0.0766415046834962
0.357504351559777,0.0766755835727379
0.361594821749384,0.0767099224557814
0.365675715288234,0.0767447604529738
0.369746890776386,0.0767803366846622
0.373808206813894,0.0768168902711938
0.377859522000818,0.0768546603329156
0.381900694937213,0.0768938859901748
0.385931584223136,0.0769348063633185
0.389952048458645,0.0769776605726939
0.393961946243796,0.077022687738648
0.397961136178645,0.077070126981528
0.401949476863251,0.077120217421681
0.40592682689767,0.0771731981794541
0.409893044881958,0.0772293083751945
0.413847989416174,0.0772887871292493
0.417791519100372,0.0773518735619656
0.421723492534612,0.0774188067936904
0.425643768318949,0.0774898259447711
0.42955220505344,0.0775651701355546
0.433448661338142,0.0776450784863881
0.437332995773112,0.0777297901176187
0.441205066958408,0.0778195441495936
0.445064733494085,0.0779145797026598
0.448911853980202,0.0780151358971645
0.452746287016814,0.0781214518534548
0.456567891203979,0.0782337666918779
0.460376525141753,0.0783523195327808
0.467954316669357,0.0786090957034147
0.471723191459302,0.0787477972738399
0.482948035134386,0.0792080253697142
0.486661918128021,0.0793769395976956
0.49036169967272,0.0795540047909338
0.494047238368541,0.079739460069776
0.497718392815541,0.0799335445545693
0.501375021613776,0.0801364973656608
0.505016983363304,0.0803485576233977
0.508644136664181,0.080569964448127
0.512256340116464,0.0808009569601959
0.519435331875477,0.081292655527741
0.523001837382321,0.0815538398239114
0.526552827440798,0.0818255662888099
0.530088160650966,0.0821080740427836
0.533607695612882,0.0824016022061796
0.537111290926603,0.0827063898993451
0.544070097009685,0.0833507003563729
0.54752502497916,0.0836907013609295
0.554385223774265,0.0844075905238636
0.557790211800008,0.0847849569229354
0.561178270377954,0.0851752566942065
0.56454925810816,0.085578728958024
0.567903033590682,0.0859956128347351
0.574558382212905,0.0868705719082265
0.577859672552719,0.0873291253457011
0.581143185045077,0.0878020468774577
0.584408778290037,0.0882895756238434
0.597289130797026,0.0903905451626208
0.600463006805846,0.0909546967873593
0.603618115167608,0.0915348903488098
0.61296942037112,0.093374113856904
0.616048044145222,0.0940208663686734
0.628166378774472,0.0967826430036976
0.637045202057486,0.0990441757670291
0.639964069458999,0.0998355239560983
0.651432066602446,0.103194812928091
0.654246490772941,0.104084304826754
0.657039602097402,0.104994142828378
0.659811259175888,0.105924566053308
0.662561320608454,0.106875813621893
0.667996090936057,0.108841738271414
0.673342781880665,0.110893829739719
0.675982744084489,0.111952785831782
0.678600262242736,0.113034000989583
0.681195194955461,0.114137714333468
0.683767400822722,0.115264164983785
0.686316738444577,0.11641359206088
0.688843066421081,0.1175862346851
0.691346243352292,0.118782331976793
0.708208375007338,0.127831829817042
0.710521253178252,0.129224172781014
0.712809707704385,0.130642122495583
0.719527115414665,0.135052003346341
0.721716461362243,0.136574771266768
0.726019619923965,0.139700953284967
0.730221124708155,0.142936257675274
0.736330306552567,0.147998003314508
0.740272727894923,0.151514482847231
0.742204404400095,0.153316034706603
0.74966424998208,0.160816568905602
0.753232076910645,0.164746779746867
0.75497497150952,0.166757708024155
0.761669791470298,0.175112486319115
0.763273599852096,0.177280142791043
0.76484916679065,0.179479862262939
0.773701579717021,0.193364892833111
0.775075497354456,0.195795748674511
0.776421803929789,0.19821968617656
0.779037178121117,0.202924981516477
0.782769396434028,0.209629571065033
0.785132066767668,0.213866136222513
0.786276210256849,0.215915089578612
0.788490865354687,0.219875369745236
0.789561677553245,0.221787109315645
0.790608346578162,0.223653523717375
0.79163102272439,0.225474819330367
0.792629856286878,0.227251202534564
0.793604997560577,0.228982879709907
0.796389770598445,0.233911738862234
0.800571240747825,0.241251645666953
0.801339914695195,0.24259025568
0.802086399303281,0.243886223463612
0.805491242577714,0.249733652238124
0.806107747344055,0.25077810062391
0.806703114835765,0.251781351439854
0.807277495347795,0.2527436110659
0.901376639297464,0.360074543696527
0.712836416885392,0.34834646792971
0.699392661105237,0.374017622402098
0.720195940062651,0.166216433155606
0.707031167177159,0.369701610387537
0.719040505272535,0.161672897793432
0.909849353606975,0.358281899798926
0.906608988396931,0.357754966812799
0.814757666151526,0.263847597223276
0.710685176320378,0.367279668990233
0.815337325050486,0.264050554378183
0.815493758549005,0.263368038246403
0.919362273006394,0.35833840156019
0.815245753515892,0.261825846320673
0.919840624886203,0.366267713584345
0.918330644112648,0.168038709624146
0.929373212855269,0.160278123916293
0.813840127041814,0.256965863450434
0.693601833224344,0.152071389104631
0.691670703962847,0.342540691765767
0.703149899761236,0.357932038140108
0.91656217558872,0.145417295220777
0.926281782548482,0.346025376289448
0.92461148561626,0.348975274116784
0.807262427316068,0.238510498284497
0.926244320180085,0.341237787391289
0.806316578806253,0.235964162686771
0.909901808903116,0.342736067556401
0.920679512740738,0.128399875374154
0.920548327415069,0.1278034129935
0.803221829483254,0.227679830440752
0.802670107139841,0.226207165427266
0.802108519643083,0.224708781339583
0.801537217287929,0.223184884557644
0.800956350369331,0.221635681461391
0.800366069182239,0.220061378430766
0.798540242959504,0.21518993353208
0.79791380764794,0.213517294563386
0.797278709542636,0.211820587560031
0.79663509893854,0.210100018901956
0.795983126130603,0.208355794969101
0.793978537433253,0.202983255321287
0.793294618759458,0.201146474088739
0.789763870353169,0.191627344898799
0.789036541729101,0.189657919114966
0.78756190789776,0.185655118640989
0.786814903280387,0.183622156710729
0.784536942160867,0.177399500706167
0.782206716334203,0.170995523359712
0.781419061389051,0.16882153371909
0.780626200434019,0.16662822278247
0.779828283764057,0.164415796929794
0.777405702414093,0.157665893674847
0.775768125013558,0.153074167223536
0.772444325229361,0.14367784572359
0.768210765489169,0.131550341573884
0.765635811797372,0.124079957441393
0.763039704453179,0.116470972614985
0.76217033590324,0.113904807291707
0.761299218127281,0.111324067411095
0.757800260662256,0.100859489914143
0.756922651180454,0.0982089729459884
0.756044194242336,0.0955451197001511
0.753405241639583,0.0874756060959615
0.750764072548194,0.0792934956705356
0.747246079652819,0.0682184955564452
0.746368220161944,0.0654215643322634
0.742867845978836,0.0541273060511572
0.74199626985291,0.0512781400344955
0.741126401284824,0.0484191461991635
0.739392388001977,0.0426725005922562
0.738528543877117,0.0397852615805649
0.7376670084899,0.036889020269971
0.736807932135276,0.0339839830404163
0.735951465108196,0.0310703562718428
0.73424696021647,0.0252181596374073
0.732554696174324,0.0193340814061995
0.728385480270777,0.00449523878925234
0.724319071293444,-0.0105067473176862
0.723519779573578,-0.0135244515785117
0.721936388569051,-0.0195755161000656
0.721152589874291,-0.02260846360091
0.720374256111133,-0.0256460794218768
0.718073547360783,-0.0347848730060928
0.717318576273542,-0.0378390983081301
0.71509156262975,-0.0470227672169519
0.712216254558023,-0.0593089379172051
0.711515222980236,-0.0623864759441719
0.710821610168409,-0.0654659993520162
0.71013556641749,-0.0685473017607962
0.709457242022432,-0.0716301767905699
0.708786787278184,-0.0747144180613954
0.706824143899806,-0.0839732755207638
0.703724492147429,-0.0994127673128356
0.702548135519378,-0.10558657044028
0.700310899366065,-0.117921678395922
0.699776524778029,-0.121001647689496
0.695884030170229,-0.145554375954284
0.695022667915487,-0.151660816843779
0.69272604625822,-0.169877544055611
0.692060335273463,-0.175910084508887
0.691746874152299,-0.178917981910036
0.691446543005212,-0.18192002225427
0.689928702095532,-0.199797708847708
0.689534608289342,-0.205700725366166
0.68892141458014,-0.217412533646839
0.688438785285442,-0.243244390458654
0.688465338190517,-0.246065361425451
0.688978237860928,-0.262761284221102
0.690374628290804,-0.281697916297248
0.690938207891443,-0.286991897690431
0.691925261896239,-0.294829607620042
0.692292663638663,-0.297413815500768
0.693085944504453,-0.302538449838851
0.693958197177832,-0.307603333079496
0.698892848593856,-0.329611619334075
0.707288692441964,-0.354602626429133
0.710054089776647,-0.361020872118913
0.714070992158561,-0.369296208111525
0.715135095780316,-0.371313251077846
0.716223451202484,-0.373309164871549
0.718473518627857,-0.377236779421339
0.719635531220963,-0.379168067417542
0.720822396794283,-0.38107740072136
0.725821394788711,-0.388491059413949
0.734091031328347,-0.398917822091177
0.737058023492773,-0.402201812062336
0.753525440381174,-0.417110483229673
0.762811371543771,-0.423576413895396
0.774915163064635,-0.430418060599891
0.777036455460756,-0.431458138297202
0.779187861160357,-0.432469038004161
0.785824261029547,-0.435324605383511
0.788097622892575,-0.436216729329646
0.792737091248278,-0.437910141171791
0.797501221076516,-0.439481062414157
0.802391214736892,-0.440927842017209
0.804883786241509,-0.441604162754137
0.807408274589011,-0.442248828941411
0.812553602992476,-0.443442372147228
