0.0403528422975636,-0.525928304635736
0.0411476991506221,-0.52709156931404
0.0419151368604657,-0.528247220418914
0.0426553579278977,-0.529395163666635
0.0433685648537209,-0.53053530477348
0.0440549601387384,-0.531667549455725
0.0447147462837533,-0.532791803429647
0.0453481257895685,-0.533907972411523
0.0459553011569871,-0.53501596211763
0.0465364748868121,-0.536115678264243
0.0470918494798465,-0.53720702656764
0.0476216274368934,-0.538289912744097
0.0481260112587558,-0.539364242509892
0.0486052034462367,-0.5404299215813
0.049059406500139,-0.541486855674598
0.049488822921266,-0.542534950506063
0.0498936552104205,-0.543574111791972
0.0502741058684056,-0.544604245248601
0.0506303773960244,-0.545625256592227
0.0509626722940797,-0.546637051539126
0.0512711930633748,-0.547639535805576
0.0515561422047126,-0.548632615107853
0.051817722218896,-0.549616195162233
0.0520561356067282,-0.550590181684993
0.0522715848690122,-0.551554480392411
0.052464272506551,-0.552508997000762
0.0526344010201475,-0.553453637226322
0.052782172910605,-0.55438830678537
0.0529077906787263,-0.555312911394181
0.0530114568253144,-0.556227356769032
0.0530933738511725,-0.557131548626201
0.0531537442571035,-0.558025392681962
0.0531927705439105,-0.558908794652593
0.0532106552123965,-0.559781660254372
0.0532076007633644,-0.560643895203574
0.0531838096976174,-0.561495405216475
0.0531394845159585,-0.562336096009354
0.0530748277191906,-0.563165873298486
0.0529900418081169,-0.563984642800148
0.0528853292835402,-0.564792310230616
0.0527608926462638,-0.565588781306168
0.0526169343970905,-0.56637396174308
0.0524536570368234,-0.567147757257629
0.0522712630662655,-0.567910073566091
0.0520699549862198,-0.568660816384743
0.0518499352974895,-0.569399891429861
0.0516114065008774,-0.570127204417723
0.0513545710971867,-0.570842661064605
0.0510796315872203,-0.571546167086783
0.0507867904717813,-0.572237628200535
0.0504762502516726,-0.572916950122136
0.0501482134276974,-0.573584038567864
0.0498028825006586,-0.574238799253995
0.0494404599713593,-0.574881137896807
0.0490611483406025,-0.575510960212574
0.0486651501091912,-0.576128171917575
0.0482526677779284,-0.576732678728086
0.0478239038476172,-0.577324386360383
0.0473790608190606,-0.577903200530743
0.0469183411930616,-0.578469026955443
0.0464419474704232,-0.57902177135076
0.0459500821519485,-0.57956133943297
0.0454429477384404,-0.580087636918349
0.0449207467307021,-0.580600569523175
0.0443836816295365,-0.581100042963724
0.0438319549357466,-0.581585962956273
0.0432657691501356,-0.582058235217098
0.0426853267735063,-0.582516765462476
0.0420908303066619,-0.582961459408684
0.0414824822504053,-0.583392222771998
0.0408604851055395,-0.583808961268695
0.0402250413728677,-0.584211580615052
0.0395763535531928,-0.584599986527346
0.0389146241473179,-0.584974084721852
0.0382400556560459,-0.585333780914848
0.0375528505801799,-0.58567898082261
0.0368532114205229,-0.586009590161415
0.036141340677878,-0.58632551464754
0.0354174408530482,-0.586626659997261
0.0346817144468364,-0.586912931926855
0.0339343639600458,-0.587184236152599
0.0331755918934793,-0.587440478390769
0.0324056007479399,-0.587681564357642
0.0316245930242307,-0.587907399769494
0.0308327712231548,-0.588117890342602
0.0300303378455151,-0.588312941793244
0.0292174953921146,-0.588492459837695
0.0283944463637565,-0.588656350192232
0.0275613932612436,-0.588804518573131
0.0267185385853791,-0.588936870696671
0.0258660848369659,-0.589053312279126
0.0250042345168071,-0.589153749036775
0.0241331901257057,-0.589238086685892
0.0232531541644648,-0.589306230942756
0.0223643291338873,-0.589358087523643
0.0214669175347762,-0.589393562144829
0.0205611218679347,-0.589412560522591
0.0196471446341657,-0.589414988373206
0.0187251883342723,-0.58940075141295
0.0177954554690574,-0.589369755358101
0.0168581485393241,-0.589321905924934
0.0159134700458754,-0.589257108829726
0.0149616224895144,-0.589175269788755
0.0140028083710441,-0.589076294518295
0.0130372301912674,-0.588960088734626
0.0120650904509875,-0.588826558154023
0.0110865916510073,-0.588675608492761
0.0101019362921298,-0.58850714546712
0.0091113268751582,-0.588321074793374
0.00811496590089539,-0.588117302187801
0.0071130558701444,-0.587895733366677
0.00610579928370826,-0.587656274046279
0.00509339864239002,-0.587398829942884
0.00407605644699269,-0.587123306772768
0.00305397519831929,-0.586829610252207
0.00202735739717286,-0.58651764609748
0.000996405544356403,-0.586187320024861
-3.86778593270375e-05,-0.585838537750629
-0.00107769031307448,-0.585471204991059
-0.00212042931608284,-0.585085227462427
-0.00316669236754912,-0.584680510881012
-0.00421627696667028,-0.58425696096309
-0.00526898061264336,-0.583814483424936
-0.00632460080466527,-0.583352983982828
-0.00738293504193301,-0.582872368353043
-0.00844378082364353,-0.582372542251857
-0.00950693564899384,-0.581853411395547
-0.0105721970171809,-0.581314881500389
-0.0116393624274017,-0.58075685828266
-0.0127082293788532,-0.580179247458637
-0.0137785953707324,-0.579581954744596
-0.0148502579022362,-0.578964885856814
-0.0159230144725617,-0.578327946511568
-0.0169966625809057,-0.577671042425134
-0.0180709997264654,-0.57699407931379
-0.0191458234084376,-0.57629696289381
-0.0202209311260194,-0.575579598881474
-0.0212961203784076,-0.574841892993056
-0.0223711886647994,-0.574083750944834
-0.0234459334843916,-0.573305078453084
-0.0245201523363812,-0.572505781234083
-0.0255936427199653,-0.571685765004108
-0.0266662021343408,-0.570844935479435
-0.0277376280787046,-0.569983198376341
-0.0288077180522538,-0.569100459411102
-0.0298762695541852,-0.568196624299996
-0.030943080083696,-0.567271598759298
-0.0320079471399831,-0.566325288505286
-0.0330706682222434,-0.565357599254237
-0.0341310408296739,-0.564368436722426
-0.0351888624614717,-0.56335770662613
-0.0362439306168336,-0.562325314681627
-0.0372960427949566,-0.561271166605193
-0.0383449964950378,-0.560195168113104
-0.0393905892162741,-0.559097224921637
-0.0404326184578624,-0.557977242747069
-0.0414708817189998,-0.556835127305677
-0.0425051764988833,-0.555670784313736
-0.0435353002967097,-0.554484119487525
-0.0445610506116762,-0.553275038543318
-0.0455822249429796,-0.552043447197394
-0.0465986207898169,-0.550789251166029
-0.0476100356513851,-0.549512356165498
-0.0486162670268812,-0.54821266791208
-0.0496171124155022,-0.546890092122051
-0.0506123693164451,-0.545544534511687
-0.0516018352289067,-0.544175900797265
-0.0525853076520841,-0.542784096695061
-0.0535625840851743,-0.541369027921353
-0.0545334620273742,-0.539930600192417
-0.0554977389778809,-0.538468719224529
-0.0564552124358912,-0.536983290733967
-0.0574056799006022,-0.535474220437007
-0.0583489388712109,-0.533941414049925
-0.0592847868469141,-0.532384777288999
-0.060213021326909,-0.530804215870504
-0.0611334398103925,-0.529199635510718
-0.0620458397965615,-0.527570941925917
-0.062950018784613,-0.525918040832378
-0.063845774273744,-0.524240837946378
-0.0647329037631515,-0.522539238984193
-0.0656112047520324,-0.5208131496621
-0.0664804747395838,-0.519062475696375
-0.0673405112250026,-0.517287122803295
-0.0681911117074858,-0.515486996699137
-0.0690320736862303,-0.513662003100178
-0.0698631946604331,-0.511812047722693
-0.0706842721292913,-0.509937036282961
-0.0714951035920017,-0.508036874497257
-0.0722954865477614,-0.506111468081858
-0.0730852184957673,-0.50416072275304
-0.0738640969352165,-0.502184544227081
-0.0746319193653058,-0.500182838220258
-0.0753884832852323,-0.498155510448846
-0.076133586194193,-0.496102466629122
-0.0768670255913847,-0.494023612477363
-0.0775885989760045,-0.491918853709846
-0.0782981038472495,-0.489788096042848
-0.0789953377043164,-0.487631245192644
-0.0796800980464024,-0.485448206875512
-0.0803521823727043,-0.483238886807728
-0.0810113881824193,-0.481003190705569
-0.0816575129747442,-0.478741024285312
-0.082290354248876,-0.476452293263233
-0.0829097095040116,-0.474136903355609
-0.0835153762393482,-0.471794760278717
-0.0841071519540827,-0.469425769748833
-0.0846848341474119,-0.467029837482233
-0.085248220318533,-0.464606869195196
-0.0857971079666428,-0.462156770603996
-0.0863312945909384,-0.459679447424912
-0.0868505776906167,-0.457174805374219
-0.0873547547648748,-0.454642750168194
-0.0878436233129095,-0.452083187523114
-0.0883169808339178,-0.449496023155255
-0.0887746248270968,-0.446881162780895
-0.0892163527916434,-0.444238512116309
-0.0896419622267546,-0.441567976877775
-0.0900512506316273,-0.438869462781569
-0.0904440155054586,-0.436142875543967
-0.0908200543474454,-0.433388120881248
-0.0911791646567847,-0.430605104509686
-0.0915211439326735,-0.427793732145559
-0.0918457896743087,-0.424953909505143
-0.0921528993808873,-0.422085542304716
-0.0924422705516063,-0.419188536260553
-0.0927137006856627,-0.416262797088931
-0.0929669872822534,-0.413308230506127
-0.0932019278405755,-0.410324742228419
-0.0934183198598258,-0.407312237972081
-0.0936159608392014,-0.404270623453392
-0.0937946482778992,-0.401199804388627
-0.0939541796751163,-0.398099686494063
-0.0940943525300496,-0.394970175485977
-0.0942149643418961,-0.391811177080646
-0.0943158126098527,-0.388622596994347
-0.0943966948331164,-0.385404340943355
-0.0944574085108842,-0.382156314643947
-0.0944977511423532,-0.378878423812401
-0.0945175202267202,-0.375570574164993
-0.0945165132631822,-0.372232671418
-0.0944945277509361,-0.368864621287697
-0.0944513611891791,-0.365466329490363
-0.0943868110771081,-0.362037701742273
-0.09430067491392,-0.358578643759704
-0.0941927501988118,-0.355089061258933
-0.0940628344309805,-0.351568859956236
-0.093910725109623,-0.348017945567891
-0.0937362197339364,-0.344436223810173
-0.0935391158031176,-0.34082360039936
-0.0933192108163636,-0.337179981051728
-0.0930763022728714,-0.333505271483553
-0.0928101876718379,-0.329799377411114
-0.0925206645124601,-0.326062204550685
-0.092207530293935,-0.322293658618544
-0.0918705825154596,-0.318493645330967
-0.0915096186762309,-0.314662070404231
-0.0911244362754457,-0.310798839554613
-0.0907148328123012,-0.30690385849839
-0.0902806057859942,-0.302977032951837
-0.0898215526957218,-0.299018268631232
-0.0893374710406809,-0.295027471252852
-0.0888281583200685,-0.291004546532972
-0.0882934120330816,-0.28694940018787
-0.0877330296789171,-0.282861937933822
-0.0871468087567721,-0.278742065487106
-0.0865345467658434,-0.274589688563996
-0.0858960412053282,-0.270404712880771
-0.0852310895744233,-0.266187044153707
-0.0845394893723257,-0.261936588099081
-0.0838210380982325,-0.257653250433169
-0.0830755332513405,-0.253336936872248
-0.0823027723308468,-0.248987553132594
-0.0815025528359484,-0.244605004930484
-0.0806746722658421,-0.240189197982195
-0.079818928119725,-0.235740038004004
-0.0789351178967941,-0.231257430712187
-0.0780230390962464,-0.226741281823021
-0.0770824892172787,-0.222191497052782
-0.0761132657590882,-0.217607982117747
-0.0751151662208717,-0.212990642734194
-0.0740879881018262,-0.208339384618397
-0.0730315289011489,-0.203654113486635
-0.0719455861180364,-0.198934735055183
-0.070829957251686,-0.194181155040319
-0.0696844398012945,-0.189393279158319
-0.0685088312660589,-0.18457101312546
-0.0673029291451762,-0.179714262658018
-0.0660665309378434,-0.17482293347227
-0.0647994341432574,-0.169896931284492
-0.0635014362606153,-0.164936161810963
-0.0621723347891139,-0.159940530767957
-0.0608119272279505,-0.154909943871751
-0.0594200110763216,-0.149844306838623
-0.0579963838334246,-0.14474352538485
-0.0565408429984562,-0.139607505226706
-0.0550531860706136,-0.13443615208047
-0.0535332105490935,-0.129229371662418
-0.0519807139330932,-0.123987069688826
-0.0503954937218094,-0.118709151875972
-0.0487773474144392,-0.113395523940132
-0.0471260725101796,-0.108046091597582
-0.0454414665082275,-0.102660760564599
-0.0437233269077799,-0.0972394365574605
-0.0419714512080339,-0.0917820252924424
-0.0401856369081863,-0.0862884324858213
-0.0383656815074342,-0.0807585638538743
-0.0365113825049743,-0.0751923251128774
-0.0346225374000041,-0.0695896219791081
-0.0326989436917201,-0.0639503601688423
-0.0307403988793194,-0.0582744453983572
-0.0287467004619991,-0.052561783383929
-0.0267176459389561,-0.0468122798418348
-0.0246530328093873,-0.0410258404883507
-0.0225526585724898,-0.035202371039754
-0.0204163207274605,-0.0293417772123208
-0.0182438167734965,-0.0234439647223282
-0.0160349442097946,-0.0175088392860526
-0.0137895005355519,-0.0115363066197708
-0.0115072832499652,-0.00552627243975916
-0.00918808985223173,0.000521357537705186
-0.00683171784154827,0.00660667759634617
-0.00443796471711198,0.0127297820198865
-0.00200662797811955,0.0188907650920501
0.000462494876231713,0.0250897210965598
0.0029696063467451,0.0313267443171394
0.00551490893422341,0.0376019290375119
0.00809860513946992,0.0439153695414009
0.0107208974632874,0.0502671601125294
0.0133819884064791,0.0566573950346213
0.0160820804698479,0.0630861685913993
0.0188213761541968,0.0695535750665874
0.0216000779603289,0.0760597087439081
0.0244183883890473,0.0826046639070858
0.0272765099411548,0.0891885348398429
0.0301746451174547,0.0958114158259034
0.0331129964187498,0.10247340114899
0.0360917663458432,0.109174585092827
0.0391111573995379,0.115915061941137
0.042171372080637,0.122694925977643
0.0452726128899434,0.129514271486069
0.0484150823282603,0.136373192750139
0.0515989828963906,0.143271784053574
0.0548245170951374,0.1502101396801
0.0580918874253036,0.157188353913439
0.0614012963876923,0.164206521037315
0.0647529464831065,0.171264735335451
0.0681470402123494,0.178363091091569
0.0715837800762236,0.185501682589395
0.0750633685755326,0.19268060411265
0.0785860082110791,0.199899949945059
0.0821519014836664,0.207159814370344
0.0857612508940972,0.214460291672229
0.0894142589431748,0.221801476134438
0.093111128131702,0.229183462040693
0.0968520609604821,0.236606343674719
0.100637259930318,0.244070215320237
0.104466927542012,0.251575171260973
0.108341266296369,0.259121305780648
0.11226047869419,0.266708713162987
0.116224767236279,0.274337487691712
0.120234334423439,0.282007723650548
0.124289382756473,0.289719515323217
0.128390114736184,0.297472956993442
0.132536732863374,0.305268142944948
0.136729439638848,0.313105167461458
0.140968437563408,0.320984124826694
0.145253929137857,0.32890510932438
0.149586116862997,0.33686821523824
0.153965203239633,0.344873536851996
0.158391390768567,0.352921168449373
0.162864881950602,0.361011204314093
0.167385879286541,0.36914373872988
0.171954585277188,0.377318865980458
0.176571202423344,0.385536680349549
0.181235933225814,0.393797276120877
0.1859489801854,0.402100747578164
0.190710545802906,0.410447189005136
0.195520832579133,0.418836694685514
0.200380043014886,0.427269358903023
0.205288379610968,0.435745275941386
0.21024604486818,0.444264540084325
0.215253241287327,0.452827245615565
0.220310171369212,0.461433486818828
0.225417037614637,0.470083357977838
0.230574042524405,0.478776953376319
0.23578138859932,0.487514367297993
0.241039278340184,0.496295694026585
0.246347914247801,0.505121027845816
0.251707498822973,0.513990463039412
0.257118234566504,0.522904093891094
0.262580323979197,0.531862014684587
0.268093969561854,0.540864319703613
0.273659373815279,0.549911103231897
0.279276739240275,0.559002459553161
0.284946268337644,0.568138482951129
0.29066816360819,0.577319267709524
0.296442627552716,0.58654490811207
0.302269862672024,0.595815498442489
0.308150071466919,0.605131132984505
