-0.0706013588427259,0.754262497434954
-0.0669360204553032,0.74300419127913
-0.0633021610518125,0.73183336954031
-0.0596997238148498,0.720749672938758
-0.0561286519270112,0.709752742194739
-0.0525888885708928,0.698842218028516
-0.0490803769290905,0.688017741160353
-0.0456030601842006,0.677278952310515
-0.042156881518819,0.666625492199266
-0.0387417841155418,0.656057001546869
-0.0353577111569651,0.645573121073589
-0.0320046058256849,0.63517349149969
-0.0286824113042973,0.624857753545436
-0.0221305274215842,0.604476515376918
-0.0189007244254509,0.594410296603182
-0.0157016049695944,0.584426532330148
-0.0125331122366108,0.574524863278079
-0.0093951894090962,0.564704930167238
-0.00628777966964666,0.554966373717892
-0.00321082620085825,0.545308834650302
-0.000164272185327011,0.535731953684734
0.00285193919435097,0.526235371541451
0.00583786475557965,0.516818728940718
0.00879356131576295,0.507481666602799
0.0117190856923048,0.498223825247957
0.0146144947026092,0.489044845596456
0.0203151938941211,0.470922034284537
0.0231205977101366,0.461977484064646
0.0258961134295302,0.453110358429153
0.0286417978697061,0.444320298098322
0.0313577078480681,0.435606943792417
0.0340439001820201,0.426969936231702
0.0367004316889661,0.418408916136441
0.03932735918631,0.409923524226899
0.0419247394914558,0.401513401223338
0.0444926294218074,0.393178187846024
0.0495401654277436,0.376731052851192
0.0520199251381361,0.368618412674201
0.0568917120607897,0.352613190562392
0.0592838529078587,0.344719890068101
0.061646901101961,0.336898984241906
0.0639809134605005,0.329150113804069
0.0662859468008813,0.321472919474854
0.0685620579405072,0.313867041974527
0.0708093036967822,0.306332122023351
0.0730277408871102,0.29886780034159
0.077378416839541,0.284149514667369
0.0795107692364516,0.276894832115438
0.0816145403370311,0.269709310713977
0.0836897869586832,0.262592591183252
0.0857365659188119,0.255544314243527
0.0897449481241151,0.241651651018131
0.0917066650040974,0.234806546172988
0.093640141492172,0.2280284467999
0.0955454344057429,0.221316993619133
0.0974226005622141,0.214671827350949
0.0992716967789895,0.208092588715613
0.102885906663069,0.195130457224542
0.10465113396518,0.188746845809334
0.108098117376567,0.176172735240894
0.10977998712065,0.16998151752819
0.111434184646865,0.163853712490183
0.113060766772615,0.157788960847136
0.114659790315305,0.151786903319314
0.116231312092339,0.14584718062698
0.11777538892112,0.139969433490398
0.119292077619053,0.134153302629833
0.120781435003541,0.128398428765549
0.122243517891988,0.122704452617809
0.123678383101798,0.117071014906878
0.125086087450376,0.11149775635302
0.126466687755124,0.105984317676499
0.12914680350275,0.095135462836523
0.130446432580436,0.0897993281135967
0.131719184883908,0.0845215761490635
0.132965117230571,0.0793018476631875
0.134184286437829,0.0741397833762328
0.135376749323086,0.0690350240084631
0.13768178339721,0.0589959829115363
0.138794468220886,0.054060982622907
0.140940457528485,0.0443582261666371
0.141973875647216,0.0395897514395246
0.142980985165773,0.0348760666734459
0.14396184290156,0.0302168125886649
0.144916505671982,0.0256116299054456
0.145845030294441,0.0210601593440523
0.146747473586342,0.016562041624749
0.147623892365089,0.0121169174677996
0.148474343448086,0.00772442759346834
0.150097569796445,-0.00090408642628366
0.150870458696615,-0.00514082913117637
0.15161760717065,-0.00932637467239476
0.152339072035955,-0.0134610823296747
0.153034910109934,-0.0175453113827523
0.153705178209989,-0.0215794211113634
0.154969231757948,-0.0294987197141298
0.15556313084066,-0.033384627147757
0.156131687219064,-0.0372218523758616
0.156674957710566,-0.0410107546781793
0.157192999132568,-0.0447516933344461
0.157685868302476,-0.048445027624398
0.158153622037692,-0.052091116827771
0.158596317155621,-0.0556903202243009
0.159406758809233,-0.0627495067157754
0.159774618979724,-0.0662102083701918
0.160117647802543,-0.0696254613367091
0.160729438674783,-0.0763210583249894
0.160998314359012,-0.0796021209062243
0.161242585965185,-0.0828391719185038
0.161462310310706,-0.0860325706415637
0.161828344489408,-0.0922898483389686
0.161974767957397,-0.0953544458727854
0.162096871434351,-0.0983768282363263
0.162194711737672,-0.101357354709327
0.162317830093033,-0.107194277102654
0.162343221779881,-0.110051391582451
0.162344577562713,-0.112868087290652
0.162321954258933,-0.115644723506993
0.16220499766115,-0.121079254583038
0.162110778001956,-0.123737868002214
0.161992806525765,-0.126357859048473
0.161685835392008,-0.131483411141187
0.161496949369251,-0.133989690747112
0.161284538799113,-0.136458785099066
0.160200787392828,-0.145970495561871
0.159871606346844,-0.14825905284
0.159143750143407,-0.152731437949323
0.158745188620763,-0.154915984339988
0.157879082820641,-0.159183581192008
0.156921378796769,-0.163318245336519
0.155314070395997,-0.169277280122084
0.154732994234698,-0.171200272454562
0.153503222774963,-0.17495338390387
0.152854641111334,-0.176784221580171
0.152183671248403,-0.178585059597219
0.150774794194249,-0.182098173772496
0.150037000637835,-0.183811168490197
0.143341631379737,-0.196517054278464
0.141449588812584,-0.199429457106586
0.139471175222842,-0.202241980962905
0.13844972133801,-0.203611686475978
0.135257053132518,-0.207578888711685
0.134150250938368,-0.208855182288202
0.131873118266014,-0.211340764366576
0.130702901422618,-0.212550771427904
0.129511659997613,-0.21373940154364
0.128299450808405,-0.214907013993521
0.127066330672397,-0.216053968057283
0.124537584829596,-0.218287338145392
0.123242072757612,-0.219374472729211
0.121925877008443,-0.220442386045855
0.120589054399495,-0.221491437375059
0.11923166174817,-0.222521985996559
0.117853755871872,-0.223534391190091
0.115036631713976,-0.225506208412195
0.113597527067185,-0.226466339000239
0.109158724664288,-0.229247930029171
0.107638817100495,-0.230143391059534
0.104538882733088,-0.231888864829756
0.102958969564284,-0.232739596129087
0.10135916816195,-0.233576136077544
0.0997395353434911,-0.234398843954866
0.0964410027278137,-0.236004200615042
0.094762216565403,-0.236787567957369
0.0913458886184575,-0.238317477065181
0.0896084604687303,-0.239064737390137
0.0878515986247057,-0.239800680602109
0.0860753599037874,-0.240525665980831
0.0842798011233794,-0.241240052806041
0.0824649791008856,-0.241944200357473
0.08063095065371,-0.242638467914864
0.0787777725992564,-0.243323214757949
0.0731039089662676,-0.245323923798734
0.0711747006567417,-0.245974180581958
0.0692266268269577,-0.246616713049556
0.0632697803900953,-0.248501557355957
0.0612468126533177,-0.249116785358412
0.0550666481131691,-0.250928338983046
0.0487207847437798,-0.252696241908037
0.0465689401398149,-0.253277519366326
0.0400045313290699,-0.25500231110737
0.0332780031855321,-0.256706086772136
0.0310000657671729,-0.257271018393319
0.0217110243719405,-0.259525357668984
0.0193447251797033,-0.260089392084313
0.0169609240849024,-0.260654324897679
0.0121410434572248,-0.261788322837465
0.00478137868157852,-0.263505039725821
-0.00021096418855969,-0.264664189234094
-0.00273273507732913,-0.265249243302249
-0.0155953113620233,-0.268243677972651
-0.0182181732653039,-0.268858912730808
-0.0261864295545584,-0.270743779688679
-0.0288755491194343,-0.271386320501556
-0.0315810910561993,-0.272036586027453
-0.0453531477092212,-0.275416359142992
-0.0481560307118375,-0.276120517821462
-0.0538098138498505,-0.277559913471653
-0.0566606003504393,-0.278295869002845
-0.0595272410488778,-0.279043142044416
-0.0624096791277619,-0.279802091876103
-0.0653078577696878,-0.280573077777641
-0.0682217201572516,-0.281356459028766
-0.0711512094730493,-0.282152594909214
-0.0740962688996769,-0.28296184469872
-0.0800328708158063,-0.284621123123854
-0.0830242996705002,-0.285471870318953
-0.0982104502141043,-0.289951057309208
-0.101293083855025,-0.290894499868362
-0.107503300129833,-0.292831864385661
-0.110630769128913,-0.293826504903278
-0.113773069612572,-0.294838929966521
-0.120101937764011,-0.296918570848829
-0.126489450044917,-0.299073661270474
-0.139438588838208,-0.303621687683319
-0.14599930627213,-0.306020372150296
-0.149301003137496,-0.307252139677999
-0.152616849678593,-0.308506003108158
-0.155946789078019,-0.309782321720512
-0.166020596252221,-0.313749601448091
-0.17621919372483,-0.317931911885905
-0.179646192245238,-0.319375476606218
-0.183086829084743,-0.320844370746612
-0.18654104742594,-0.322338953586822
-0.207548387234037,-0.331866032989452
-0.211096085199769,-0.333550496560987
-0.218230805201211,-0.337005471796905
-0.221817713602113,-0.338776702020761
-0.273369012872094,-0.366849679010366
-0.284731139483928,-0.373715826958389
-0.300048245086505,-0.383372846981779
-0.307777605226006,-0.388423033782731
-0.319458876216436,-0.39628349376479
-0.323375667485278,-0.398981132152588
-0.355116432826418,-0.422008706624964
-0.367201752676288,-0.431330723725922
-0.379384249566252,-0.441042381488781
-0.387559143838673,-0.447738077428222
-0.424860017067455,-0.480142151340307
-0.429055326128926,-0.483979430216631
-0.433260580378239,-0.487865391695872
-0.458697773044138,-0.512223614897788
-0.484478674486497,-0.538424950298171
