0.139233699440442,0.750733790028517
0.113653898594568,0.790315643056928
0.0594977017040013,0.771582629152906
0.0959400743613665,0.76820172661321
0.097023254168924,0.759014792533213
0.0971400393679538,0.746349329088939
0.117358917286576,0.762138100538816
0.0593413536097552,0.752188722785616
0.0683936500107082,0.729870500729564
0.0937434356971649,0.698140018508268
0.0958754632620273,0.735300301153027
0.103982567204874,0.695637200131572
0.131094993126467,0.680018291541837
0.139854968058071,0.724057801945288
0.120252866379463,0.660667109564127
0.156760581375558,0.706638595356048
0.064199640281673,0.602384323863698
0.109108786157494,0.642598653152643
0.0821727273500102,0.661734029390253
0.0876722054575155,0.590546164591274
0.146302640416289,0.602341673777555
0.127221334031602,0.569651354912544
0.142602016439464,0.579553881415886
0.113496668587142,0.590731859714307
0.114158596920024,0.582200350344763
0.0820841749402013,0.597953844124977
0.1147689224007,0.595547920706298
0.116028596800128,0.556798189864658
0.125681211194359,0.533932925734934
0.117180356433434,0.540023086779611
0.164437541365819,0.501451911530628
0.0806788403490239,0.535059352961673
0.107964281392701,0.528407245635382
0.119261789335082,0.506853801134082
0.13503842079822,0.469628266423019
0.142967883209002,0.467054721066415
0.0754515978092292,0.495690821857865
0.0930183381590322,0.463354086446244
0.121460208851995,0.466101174803557
0.121847690519377,0.458044544512223
0.0994983469754133,0.497923910159541
0.116636263119005,0.438268389547997
0.140355196753416,0.437433080887524
0.105706717856014,0.431272976903152
0.134115847665922,0.436681072404976
0.123820442292631,0.41035668696213
0.122583441652152,0.373288821657103
0.157784909463488,0.34963904289921
0.103687379356641,0.430377182168572
0.110711604993615,0.411103240157069
0.133773378572107,0.391946828529194
0.142351084306861,0.377658250703294
0.0770726779879456,0.403565499832294
0.125556000777403,0.348493539338164
0.152309914371221,0.362099357520687
0.109662734652792,0.351951094176553
0.146045378342356,0.369751826787748
0.132361489974477,0.344934322164036
0.157516708054635,0.341156153612537
0.126230844801183,0.303368873367371
0.0970420037267523,0.318608748579157
0.126343141688367,0.288567023392197
0.126378879337229,0.281210757052503
0.126401220542317,0.273884178372905
0.126410323368167,0.266587223774528
0.0820936679733672,0.253983238698629
0.146674708644939,0.272462843255307
0.126359782215641,0.244873468677974
0.097927136163358,0.231588453323294
0.12626279406758,0.230544586740339
0.105852156883793,0.173603235431025
0.170927020115553,0.251012086655216
0.151283547291943,0.229765603085825
0.125922602383422,0.202237225529735
0.0848266211766835,0.165996249178819
0.0786448427446131,0.185742895362324
0.103993812663514,0.176679482310507
0.125395886957097,0.1743936769987
0.093855186567706,0.191279665787756
0.125065744131327,0.160644560910525
0.140925045471204,0.117414165784106
0.124692763918863,0.147009872099247
0.124490604953958,0.140235278975258
0.124278210835985,0.133489101933869
0.152647283361097,0.121180441312883
0.14718277835598,0.0840646569423276
0.17355894492004,0.100965082174887
0.123329444124118,0.106787283016816
0.0751129354415195,0.138417526581446
0.141906613239111,0.0857300586722058
0.13327641056445,0.0883273985069352
0.110184566541659,0.0682892761470625
0.157115562292308,0.0888438194444753
0.146616960343475,0.0997825793280021
0.143361445199839,0.0892116249744412
0.12098867497184,0.0547282891695761
0.138745900845721,0.0904950274756851
0.101094366414446,0.0897872998493026
0.167317838100888,0.0101789464815633
0.159015866709844,0.00984138446420656
0.11925469694571,0.0230901449383853
0.110153057903074,0.00946974171083904
0.137178027507607,0.0510149571601259
0.145773822666724,-0.0443908903878549
0.138338238642299,-0.0322485876736053
0.101561899747216,-0.0280283703848457
0.116931792306946,-0.0139763626324881
0.116521173875921,-0.0200596273539127
0.1504347420166,-0.000358498457909376
0.115681244459346,-0.0321457405434452
0.115252249602868,-0.0381487161693029
0.0965961458566091,-0.0797658356255473
0.0973907235189089,-0.0382888020604546
0.0833571659334592,-0.064075471296885
0.0648876883902149,-0.0966481964323768
0.063620876214769,-0.097249031271093
0.13057970011291,-0.115333060714758
0.136625984580619,-0.0759432149257667
0.0880587755296324,-0.109088864057786
0.111148843065167,-0.0909845119322236
0.0786862298309585,-0.0540543473632537
0.155326927840715,-0.0953948234036032
0.0798507391230125,-0.143533307852426
0.15741624047736,-0.130864223468802
0.120706731088687,-0.151348257709824
0.108208721365772,-0.125032649834321
0.0640521144494358,-0.105560998447037
0.129770827966197,-0.135965068677598
0.154289111770618,-0.0957223385942068
0.143003397354853,-0.191620912110416
0.115652753542686,-0.20022528320171
0.133540185987638,-0.125793151656259
0.104624530493916,-0.163587901976583
0.143118690202834,-0.149615650035126
0.103577117654329,-0.174375600370074
0.101855009959318,-0.212700537672272
0.102521641625806,-0.185062858839121
0.146387244719301,-0.164251092554657
0.101459366924628,-0.195650186014721
0.065721822370333,-0.156970713185659
0.104636927429685,-0.216603125566573
0.052626603384072,-0.164637499333505
0.0993194795694372,-0.216527081009573
0.0987822343669213,-0.221684642435817
0.0982443959479886,-0.226817666090823
0.0977061223771746,-0.231926215553465
0.0999375291165149,-0.269537265408234
0.142852683527233,-0.254248626021496
0.0682207901333659,-0.220862054477852
0.0692682555978969,-0.293654990127364
0.108910155573546,-0.300299849308513
0.12175128717475,-0.218381266961722
0.128988275835137,-0.280803783257647
0.0975874863072589,-0.317450134299278
0.0501890835244526,-0.272290647250828
0.0923342275133109,-0.281679616952352
0.103107088339565,-0.329442703089867
0.0507217589303706,-0.279259734660082
0.0656678966267481,-0.301739328505947
0.0822130632121632,-0.296135475460733
0.0896872844731671,-0.305660788044342
0.118479823234257,-0.27927854605017
0.0886420579701422,-0.315088612916446
0.0839591697256581,-0.359851186500455
0.0874029217447814,-0.354941558997301
0.087092688450093,-0.32905553587716
0.134775276126073,-0.383487269924092
0.0837305382817947,-0.312219637929034
0.122901817135893,-0.298352943904875
0.0491204470676188,-0.305379708111739
0.084570197510997,-0.351871807810155
0.0808888825593511,-0.367732101476763
0.08358581636586,-0.360838123539896
0.0972432965538972,-0.376913207386293
0.0349673865148985,-0.403195645419194
0.0397654975344051,-0.394766541057905
0.0334160781603293,-0.398927577679061
0.0811974660967394,-0.382857880776842
0.0495002773094677,-0.367494832738194
0.120728723402394,-0.38397013300285
0.0983408847871478,-0.41868964163577
0.0793718950943132,-0.40007053548223
0.110708974803707,-0.421618325112513
0.0784909567504993,-0.408543877875447
0.0990001106121968,-0.40493882337638
0.0590266337229771,-0.405913813716195
0.0467521297882346,-0.394623146007812
0.076799096959081,-0.425227135897916
0.0882677543258116,-0.452869562821008
0.091633074582993,-0.448093328259389
0.0553017281292616,-0.467452504234182
0.121951693703792,-0.477901086567735
0.0748285942243599,-0.44559252850074
0.0467066785339908,-0.484258714941762
0.0923860243166306,-0.418334830899632
0.0342766427589905,-0.423466319840032
0.0733799786739753,-0.461498857795022
0.073036890134922,-0.465422360944219
0.0946243843410011,-0.512018842607617
0.0723746979268136,-0.473206117285488
0.069963671263367,-0.48626591482728
0.071745539308938,-0.480905964209756
0.0714437427576756,-0.484724580587701
0.0246642016570744,-0.531569322326904
0.106470635155792,-0.444384953777975
0.0602781599621262,-0.514273464227296
0.0703254631096188,-0.499791815711972
0.0700689101595291,-0.503507134790535
0.10040464016204,-0.478036603823409
0.069584531065406,-0.510876430356781
0.0693570210504431,-0.514530534002212
0.0691395081429263,-0.518164359661017
0.0974630168488599,-0.562019103703882
0.0932482969942836,-0.536020340051821
0.0685485327104054,-0.52894480450641
0.038346680820531,-0.532844028788338
0.0682074324757687,-0.536031543416239
0.110098428808383,-0.57246296912947
0.111781020660555,-0.510605512301022
0.0677782684950847,-0.546512586877827
0.070027813002705,-0.569951633135919
0.0379723160178883,-0.567503283116405
0.113146203604338,-0.597106239288971
0.0673666631243601,-0.560211727320127
0.0469790310340933,-0.514584296382349
0.0351403301156605,-0.553777117776349
0.0313483055866465,-0.606767218403491
0.0535424439615471,-0.604317472693626
0.0729135194743141,-0.552114006117765
0.0671139747511165,-0.580178165723409
0.101265700511107,-0.57663661646893
0.101631931841286,-0.597950221348576
0.0671610011970873,-0.589903081772149
0.066552698681963,-0.559657851524804
0.0265423419408191,-0.577914440968394
0.0482428499287774,-0.619721920738548
0.0674130841406542,-0.602605623685863
0.0675109766786155,-0.605734537877397
0.0774470617185684,-0.602457430520871
0.0677497143687682,-0.611936745768312
0.0678908756500302,-0.615010166625445
0.0680467759747964,-0.618065216862193
0.113433573291308,-0.633400706665167
0.0371194697430938,-0.603053193273994
0.0295629120819762,-0.656901882424006
0.0688209289996077,-0.630102983182838
0.0690528955099235,-0.633067134000787
0.0238717002212215,-0.679379823981249
0.118785577892862,-0.623280689919785
0.104007639266887,-0.660118894090425
0.0269186511137962,-0.598678565583936
0.04922649894441,-0.689876997651605
0.0903816712975,-0.622614521651333
0.0763866387369861,-0.697116615248632
0.10280128623328,-0.664523409196447
0.117511072604533,-0.624006475210728
0.112414359381765,-0.620025748314803
0.0846526231793169,-0.707486716575157
0.0579584452377609,-0.620118891215919
0.0735535518299983,-0.669987224955215
0.0740195262430436,-0.672705313390873
0.0793113746391252,-0.635315542175338
0.0750053341362981,-0.678090256712397
0.085568208578183,-0.702728334756494
0.108947726809229,-0.722248103763523
0.0540562842322542,-0.667999760549615
0.0404242693780197,-0.668172613688353
0.0379589560484637,-0.732849228704358
0.0418175383003751,-0.707915829513009
0.0735228581683624,-0.740038462860258
0.0542967283124684,-0.696671224170534
0.120346488667183,-0.67966067030466
0.08370423411496,-0.685329445188961
0.0657546667572259,-0.734236375465369
0.0541758613858539,-0.748784554342885
0.0832456986836101,-0.711460358948994
0.084017046188239,-0.71391249216341
0.103570008617234,-0.739212671641557
0.113887652293864,-0.743768867250311
0.0384928409175486,-0.699308396291127
0.0665840893097756,-0.753181769836902
0.0881833855036949,-0.725933203099604
0.0890796801769952,-0.728289799311789
0.0417570643644065,-0.746957630779304
0.100342259914018,-0.715084846397445
0.0918974629789494,-0.735265640417986
0.0847915646580083,-0.718367300630235
0.129897379088787,-0.722311185795276
0.0630784824972594,-0.773770123343026
0.133573392112353,-0.776607467792783
0.118987594755189,-0.778550689747684
0.135024806087155,-0.707343594337097
0.0790835021284859,-0.736844367668989
0.149941006014341,-0.773239853965798
0.0556839483682964,-0.73685262158922
0.15105357318012,-0.795515057254986
0.0941025791079626,-0.798042511953044
0.0641963162730173,-0.74975297612453
0.129132116723568,-0.802627774901108
0.102814082481665,-0.720006335091917
0.155142421424493,-0.724965516367942
0.11035124579712,-0.770154548808348
0.111705127811828,-0.772209218853877
0.119977570676713,-0.72789163098222
0.114486667039851,-0.776275336333368
0.115914640382236,-0.778286910925079
0.167221955862118,-0.747116873396211
0.118845784846432,-0.782267409706805
0.0726691106708801,-0.763153872871118
0.121878246780096,-0.786191465145437
0.170339764824635,-0.812629026801719
0.12501329069951,-0.790059585871973
0.172539453970343,-0.752620486719174
0.0970922081496032,-0.824669249736335
0.179639161797173,-0.768175167581016
0.131596182560717,-0.797630057712748
0.133307995073804,-0.799488511213816
0.135046559535075,-0.801333426088984
0.0902166271723211,-0.84791062706521
0.138604576560311,-0.804982894277116
0.140424345253347,-0.806787574747831
0.118080909822118,-0.764719114102677
0.173783860239932,-0.818126329403973
0.0991700177619103,-0.791785237900317
0.18290473367479,-0.83478059825764
0.185662674832195,-0.82811633345108
0.172771647333874,-0.772628362288831
0.106362363168944,-0.785111068750237
0.141655941820177,-0.842986968904549
0.116609296484842,-0.845068218861123
0.163225575321292,-0.834328554951288
0.132359443822544,-0.869105029453689
0.164442744120249,-0.827425747743278
0.184899439341711,-0.845505557829492
0.203305661743599,-0.808483042878589
0.17436556191794,-0.830152104417449
0.173372380286164,-0.833899029699515
0.17567917726353,-0.835486523620375
0.223978371613301,-0.864128281644484
0.196551280937619,-0.876182814559336
0.182780628274316,-0.840176038881273
0.168483203869256,-0.799599935215654
0.142341714819613,-0.892948979372534
0.19015698875838,-0.844757439546018
0.19267760421496,-0.846260844336537
0.195229397426713,-0.84775249070965
0.203525967043163,-0.819838588540359
0.170420766064181,-0.884434337324685
0.19422548953456,-0.856948774284728
0.204339278974443,-0.828703897698052
0.161733962401756,-0.839057661128925
0.24223028440633,-0.862345090601538
0.178524155863145,-0.812337338137883
0.216785110051154,-0.859269988132884
0.219624615963541,-0.860658669798702
0.228747137236566,-0.819802878524502
0.219512315463527,-0.817533045138551
0.228340316361989,-0.864758233339702
0.242551907859214,-0.905836256911617
0.234316682824047,-0.867436510275405
0.244799505646691,-0.885069488300529
0.200164274419432,-0.896689419408494
0.227206570518635,-0.901895794376163
0.247275867319391,-0.917296492007906
0.249847467764576,-0.873944232394983
0.224816332644036,-0.912847097490007
0.297405643856237,-0.850426154920991
0.259576742763137,-0.877722514956801
0.262889250155577,-0.878961265499
0.268806662263094,-0.896616624658035
0.280548914456034,-0.851386872040972
0.273037232415146,-0.882616376294626
0.27649057341087,-0.883814578212427
0.275324158693468,-0.891691072526909
0.312690899245931,-0.894492238788981
0.262701886112494,-0.839784568917851
0.252930346079217,-0.913535730739401
0.320136527675272,-0.881023716867026
0.251611115098163,-0.869010833860933
0.301669711735377,-0.891926162204462
0.302917046454418,-0.876898082474029
0.316257996454598,-0.868860538931705
0.303818196269778,-0.940953182823991
0.358242482984144,-0.872130035354296
0.320752949665076,-0.897432884489029
0.334402012701229,-0.903252247024671
0.303946934244669,-0.939363524283593
0.320315628842663,-0.865077240951779
0.336693597680111,-0.901672006119958
0.313733040137747,-0.930930564049739
0.344892084997828,-0.903737546938426
0.313566521552066,-0.899468171594552
0.353244367210723,-0.905767752600227
0.323196596029675,-0.89137032839272
0.341064971751663,-0.864155215012879
0.366063922087888,-0.908747920304489
0.32907021110972,-0.937014109631792
0.396525361301417,-0.90128725573298
0.377126661772255,-0.893404400324441
0.383706746209192,-0.912602551417822
