0.117101805384278,-0.713686437899131
0.116435545685285,-0.714694272807165
0.115760321691299,-0.715700157084104
0.115076280418857,-0.716704060821169
0.114383568884492,-0.71770595410958
0.11368233410474,-0.718705807040555
0.112972723096134,-0.719703589705315
0.112254882875209,-0.720699272195078
0.111528960458501,-0.721692824601065
0.110795102862543,-0.722684217014496
0.11005345710387,-0.723673419526589
0.109304170199017,-0.724660402228565
0.108547389164519,-0.725645135211642
0.107783261016909,-0.726627588567042
0.107011932772723,-0.727607732385982
0.106233551448495,-0.728585536759684
0.10544826406076,-0.729560971779366
0.104656217626052,-0.730534007536248
0.103857559160907,-0.731504614121549
0.103052435681858,-0.73247276162649
0.10224099420544,-0.733438420142289
0.101423381748188,-0.734401559760168
0.100599745326636,-0.735362150571344
0.0997702319573198,-0.736320162667037
0.0989349886567729,-0.737275566138468
0.0980941624415302,-0.738228331076856
0.0972479003281263,-0.739178427573421
0.0963963493330958,-0.740125825719381
0.0955396564729734,-0.741070495605957
0.0946779687642937,-0.742012407324369
0.0938114332235911,-0.742951530965835
0.0929401968674004,-0.743887836621575
0.0920644067122562,-0.74482129438281
0.0911842097746931,-0.745751874340759
0.0902997530712455,-0.746679546586641
0.0894111836184483,-0.747604281211675
0.0885186484328359,-0.748526048307083
0.0876222945309429,-0.749444817964082
0.0867222689293041,-0.750360560273893
0.0858187186444539,-0.751273245327735
0.084911790692927,-0.752182843216828
0.0840016320912579,-0.753089324032392
0.0830883898559814,-0.753992657865646
0.0821722110036319,-0.754892814807809
0.0812532425507442,-0.755789764950102
0.0803316315138527,-0.756683478383744
0.0794075249094921,-0.757573925199955
0.078481069754197,-0.758461075489953
0.077552413064502,-0.759344899344959
0.0766217018569417,-0.760225366856193
0.0756890831480508,-0.761102448114873
0.0747547039543637,-0.76197611321222
0.0738187112924152,-0.762846332239453
0.0728812521787398,-0.763713075287792
0.071942473629872,-0.764576312448456
0.0710025226623467,-0.765436013812665
0.0700615462926982,-0.766292149471639
0.0691196915374613,-0.767144689516597
0.0681771054131705,-0.767993604038759
0.0672339349363605,-0.768838863129344
0.0662903271235658,-0.769680436879572
0.0653464289913211,-0.770518295380662
0.0644023875561609,-0.771352408723835
0.0634583498346198,-0.772182747000309
0.0625144628432325,-0.773009280301305
0.0615708735985336,-0.773831978718042
0.0606277291170576,-0.77465081234174
0.0596851764153392,-0.775465751263617
0.058743362509913,-0.776276765574895
0.0578024344173135,-0.777083825366792
0.0568625391540754,-0.777886900730527
0.0559238237367333,-0.778685961757322
0.0549864351818218,-0.779480978538394
0.0540505205058754,-0.780271921164965
0.0531162267254289,-0.781058759728253
0.0521837008570167,-0.781841464319477
0.0512530899171736,-0.782620005029859
0.050324540922434,-0.783394351950617
0.0493982008893326,-0.78416447517297
0.048474216834404,-0.784930344788139
0.0475527357741829,-0.785691930887343
0.0466339047252038,-0.786449203561801
0.0457178707040012,-0.787202132902734
0.0448047807271099,-0.787950689001361
0.0438947818110644,-0.788694841948901
0.0429880209723994,-0.789434561836574
0.0420846452276493,-0.7901698187556
0.0411848015933489,-0.790900582797197
0.0402886370860328,-0.791626824052587
0.0393962987222354,-0.792348512612989
0.0385079335184916,-0.793065618569621
0.0376236884913357,-0.793778112013704
0.0367437106573025,-0.794485963036457
0.0358681470329266,-0.7951891417291
0.0349971446347425,-0.795887618182853
0.0341308504792848,-0.796581362488934
0.0332694115830883,-0.797270344738565
0.0324129749626874,-0.797954535022963
0.0315616876346167,-0.79863390343335
0.030715696615411,-0.799308420060943
0.0298751489216047,-0.799978054996965
0.0290401915697325,-0.800642778332633
0.0282109715763289,-0.801302560159167
0.0273876359579287,-0.801957370567786
0.0265703317310663,-0.802607179649712
0.0257592059122765,-0.803251957496162
0.0249544055180937,-0.803891674198357
0.0241560775650526,-0.804526299847517
0.0233643690696878,-0.80515580453486
0.022579427048534,-0.805780158351607
0.0218013985181256,-0.806399331388977
0.0210304304949973,-0.80701329373819
0.0202666699956838,-0.807622015490465
0.0195102640367196,-0.808225466737022
0.0187613596346393,-0.80882361756908
0.0180201038059775,-0.80941643807786
0.0172866435672688,-0.810003898354581
0.0165611259350479,-0.810585968490461
0.0158436979258493,-0.811162618576722
0.0151345065562077,-0.811733818704582
0.0144336988426576,-0.812299538965261
0.0137414218017336,-0.812859749449979
0.0130578224499704,-0.813414420249956
0.0123830478039025,-0.81396352145641
0.0117172448800646,-0.814507023160562
0.0110605606949913,-0.815044895453631
0.0104131422652171,-0.815577108426837
0.00977513660727663,-0.816103632171399
0.00914669073770459,-0.816624436778537
0.00852795167303549,-0.817139492339471
0.00791906642980397,-0.81764876894542
0.00732018202454462,-0.818152236687603
0.00673144547379207,-0.818649865657242
0.0061530037940809,-0.819141625945554
0.0055850040019457,-0.819627487643759
0.00502759311392109,-0.820107420843078
0.00448091814654169,-0.82058139563473
0.00394512611634208,-0.821049382109934
0.00342036403985687,-0.82151135035991
0.00290677893362066,-0.821967270475877
0.00240451781416806,-0.822417112549056
0.00191372769803368,-0.822860846670666
0.0014345556017521,-0.823298442931925
0.000967148541857922,-0.823729871424055
0.000511653534885786,-0.824155102238275
6.82175973702685e-05,-0.824574105465804
-0.000363012254154018,-0.824986851197861
-0.000781889003152481,-0.825393309525667
-0.00118826563309051,-0.825793450540442
-0.00158199512743349,-0.826187244333403
-0.00196293046964685,-0.826574660995772
-0.00233092464319596,-0.826955670618768
-0.00268583063154623,-0.82733024329361
-0.00302750141816304,-0.827698349111519
-0.00335578998651179,-0.828059958163712
-0.0036705493200579,-0.828415040541411
-0.00397163240226675,-0.828763566335835
-0.00425889221660373,-0.829105505638204
-0.00453218174653423,-0.829440828539736
-0.00479135397552369,-0.829769505131652
-0.00503626188703746,-0.830091505505172
-0.00526675846454095,-0.830406799751514
-0.00548269669149957,-0.830715357961899
-0.00568392955137871,-0.831017150227545
-0.00587031002764376,-0.831312146639674
-0.00604169110376011,-0.831600317289504
-0.00619792576319318,-0.831881632268254
-0.00633886698940834,-0.832156061667145
-0.00646436776587103,-0.832423575577397
-0.00657428107604658,-0.832684144090228
-0.00666845990340045,-0.832937737296858
-0.00674675723139801,-0.833184325288507
-0.00680902604350465,-0.833423878156394
-0.00685511932318578,-0.83365636599174
-0.00688489005390678,-0.833881758885763
-0.00689819121913307,-0.834100026929684
-0.00689487580233001,-0.834311140214721
-0.00687479678696305,-0.834515068832096
-0.00683780715649755,-0.834711782873025
-0.00678375989439892,-0.834901252428731
-0.00671250798413253,-0.835083447590433
-0.00662390440916381,-0.835258338449349
-0.00651780215295815,-0.835425895096699
-0.00639405419898093,-0.835586087623704
-0.00625251353069756,-0.835738886121583
-0.00609303313157345,-0.835884260681555
-0.00591546598507397,-0.836022181394839
-0.00571966507466451,-0.836152618352656
-0.00550548338381051,-0.836275541646226
-0.00527277389597734,-0.836390921366767
-0.00502138959463038,-0.8364987276055
-0.00475118346323505,-0.836598930453643
-0.00446200848525676,-0.836691500002417
-0.00415371764416088,-0.836776406343041
-0.0038261639234128,-0.836853619566735
-0.00347920030647795,-0.836923109764719
-0.00311267977682171,-0.836984847028211
-0.00272645531790947,-0.837038801448432
-0.00232037991320661,-0.837084943116601
-0.00189430654617855,-0.837123242123937
-0.00144808820029072,-0.837153668561662
-0.00098157785900844,-0.837176192520993
-0.000494628505797186,-0.837190784093151
1.29068758777211e-05,-0.837197413369354
0.000541175302550805,-0.837196050440824
0.00109032379075674,-0.837186665398779
0.00166049935703009,-0.837169228334439
0.00225184901790547,-0.837143709339024
0.00286451978991748,-0.837110078503753
0.00349865868960071,-0.837068305919846
0.00415441273348979,-0.837018361678522
0.00483192893811932,-0.836960215871001
0.00553135432002389,-0.836893838588503
0.00625283589573812,-0.836819199922246
0.00699652068179656,-0.836736269963452
0.0077625556947339,-0.836645018803339
0.00855108795108466,-0.836545416533127
0.00936226446738354,-0.836437433244036
0.010196232260165,-0.836321039027285
0.0110531383459638,-0.836196203974094
0.0119331297413144,-0.836062898175682
0.0128363534627516,-0.83592109172327
0.0137629565268098,-0.835770754708076
0.0147130859500236,-0.83561185722132
0.0156868887489278,-0.835444369354222
0.0166845119400569,-0.835268261198002
0.0177061025399454,-0.835083502843878
0.018751807565128,-0.834890064383071
0.0198217740321393,-0.834687915906801
0.020916148957514,-0.834477027506286
0.0220350793577865,-0.834257369272747
0.0231787122494916,-0.834028911297403
0.0243471946491637,-0.833791623671474
0.0255406735733376,-0.833545476486178
0.0267592960385478,-0.833290439832737
0.0280032090613289,-0.833026483802369
0.0292725596582155,-0.832753578486295
0.0305674948457423,-0.832471693975733
0.0318881616404438,-0.832180800361903
0.0332347070588546,-0.831880867736025
0.0346072781175093,-0.831571866189318
0.0360060218329427,-0.831253765813003
0.0374310852216891,-0.830926536698299
0.0388826153002833,-0.830590148936424
0.0403607590852598,-0.8302445726186
0.0418656635931533,-0.829889777836045
0.0433974758404984,-0.829525734679979
0.0449563428438296,-0.829152413241622
0.0465424116196816,-0.828769783612194
0.048155829184589,-0.828377815882913
0.0497967425550862,-0.827976480145
0.0514652987477081,-0.827565746489673
0.0531616447789892,-0.827145585008154
0.0548859276654641,-0.826715965791661
0.0566382944236673,-0.826276858931414
0.0584188920701335,-0.825828234518632
0.0602278676213973,-0.825370062644536
0.0620653680939933,-0.824902313400344
0.0639315405044561,-0.824424956877276
0.0658265318693203,-0.823937963166553
0.0677504892051205,-0.823441302359393
0.0697035595283913,-0.822934944547016
0.0716858898556673,-0.822418859820642
0.0736976272034831,-0.821893018271491
0.0757389185883733,-0.821357389990781
0.0778099110268727,-0.820811945069733
0.0799107515355155,-0.820256653599566
0.0820415871308367,-0.8196914856715
0.0842025648293706,-0.819116411376754
0.086393831647652,-0.818531400806549
0.0886155346022154,-0.817936424052102
0.0908678207095955,-0.817331451204635
0.0931508369863267,-0.816716452355367
0.0954647304489439,-0.816091397595517
0.0978096481139815,-0.815456257016305
0.100185736997974,-0.814811000708951
0.102593144117456,-0.814155598764674
0.105032016488963,-0.813490021274694
0.107502501129028,-0.81281423833023
0.110004745054187,-0.812128220022502
0.112538895280974,-0.81143193644273
0.115105098825924,-0.810725357682133
0.117703502705571,-0.810008453831931
0.12033425393645,-0.809281194983343
0.122997499535095,-0.808543551227589
0.125693386518041,-0.807795492655889
0.128422061901823,-0.807036989359462
0.131183672702976,-0.806268011429528
0.133978365938033,-0.805488528957306
0.13680628862353,-0.804698512034017
0.139667587776,-0.803897930750879
0.14256241041198,-0.803086755199112
0.145490903548003,-0.802264955469936
0.148453214200604,-0.801432501654571
0.151449489386317,-0.800589363844235
0.154479876121677,-0.79973551213015
0.157544521423219,-0.798870916603533
0.160643572307478,-0.797995547355606
0.163777175790987,-0.797109374477587
0.166945478890282,-0.796212368060695
0.170148628621897,-0.795304498196152
0.173386772002367,-0.794385734975176
0.176660056048226,-0.793456048488987
0.179968627776009,-0.792515408828804
0.183312634202251,-0.791563786085847
0.186692222343486,-0.790601150351336
0.190107539216248,-0.789627471716491
0.193558731837073,-0.78864272027253
0.197045947222495,-0.787646866110673
0.200569332389048,-0.786639879322141
0.204129034353268,-0.785621729998153
0.207725200131688,-0.784592388229927
0.211357976740844,-0.783551824108685
0.21502751119727,-0.782500007725645
0.2187339505175,-0.781436909172027
0.222477441718069,-0.780362498539051
0.226258131815512,-0.779276745917937
0.230076167826364,-0.778179621399903
0.233931696767159,-0.77707109507617
0.237824865654431,-0.775951137037956
0.241755821504715,-0.774819717376483
0.245724711334547,-0.773676806182969
0.249731682160459,-0.772522373548634
0.253776880998988,-0.771356389564697
0.257860454866667,-0.770178824322379
0.261982550780032,-0.768989647912898
0.266143315755616,-0.767788830427475
0.270342896809955,-0.766576341957328
0.274581440959583,-0.765352152593679
0.278859095221034,-0.764116232427745
0.283176006610844,-0.762868551550747
0.287532322145546,-0.761609080053904
0.291928188841676,-0.760337788028437
0.296363753715768,-0.759054645565564
0.300839163784357,-0.757759622756505
0.305354566063977,-0.75645268969248
0.309910107571162,-0.755133816464708
0.314505935322448,-0.753802973164409
0.31914219633437,-0.752460129882803
0.323819037623461,-0.751105256711109
0.328536606206256,-0.749738323740547
0.33329504909929,-0.748359301062336
0.338094513319097,-0.746968158767696
0.342935145882213,-0.745564866947847
0.347817093805171,-0.744149395694008
0.352740504104507,-0.742721715097399
0.357705523796754,-0.741281795249239
0.362712299898448,-0.739829606240748
0.367760979426123,-0.738365118163146
0.372851709396314,-0.736888301107652
0.377984636825555,-0.735399125165486
0.383159908730381,-0.733897560427867
0.388377672127326,-0.732383576986015
0.393638074032926,-0.73085714493115
0.398941261463714,-0.729318234354491
0.404287381436226,-0.727766815347258
0.409676580966995,-0.72620285800067
0.415109007072557,-0.724626332405948
0.420584806769446,-0.72303720865431
0.426104127074197,-0.721435456836976
0.431667115003345,-0.719821047045166
0.437273917573423,-0.7181939493701
0.442924681800966,-0.716554133902996
0.44861955470251,-0.714901570735075
0.454358683294589,-0.713236229957557
0.460142214593737,-0.711558081661661
0.465970295616489,-0.709867095938605
0.471843073379379,-0.708163242879611
0.477760694898943,-0.706446492575898
0.483723307191714,-0.704716815118685
0.489731057274228,-0.702974180599192
0.495784092163019,-0.701218559108638
0.501882558874621,-0.699449920738243
0.508026604425569,-0.697668235579227
0.514216375832399,-0.695873473722809
0.520452020111643,-0.69406560526021
0.526733684279838,-0.692244600282647
0.533061515353517,-0.690410428881342
0.539435660349215,-0.688563061147513
0.545856266283468,-0.686702467172381
0.552323480172808,-0.684828617047165
0.558837449033772,-0.682941480863084
0.565398319882893,-0.681041028711358
0.572006239736707,-0.679127230683207
0.578661355611747,-0.677200056869851
0.585363814524548,-0.675259477362508
0.592113763491646,-0.673305462252399
0.598911349529574,-0.671337981630742
0.605756719654868,-0.669357005588759
0.612650020884061,-0.667362504217668
0.619591400233689,-0.665354447608689
0.626581004720286,-0.663332805853041
0.633618981360386,-0.661297549041945
0.640705477170525,-0.659248647266619
0.647840639167236,-0.657186070618283
0.655024614367055,-0.655109789188158
0.662257549786516,-0.653019773067462
0.669539592442154,-0.650915992347415
0.676870889350503,-0.648798417119237
0.684251587528098,-0.646667017474148
