0.392358890983591,0.965497196807477
0.393037127307041,0.961278059053914
0.393669709349583,0.957079690234066
0.394256906137274,0.952901979592593
0.394798986696167,0.948744816374152
0.395296220052319,0.944608089823402
0.395748875231783,0.940491689185002
0.396157221260615,0.936395503703609
0.39652152716487,0.932319422623884
0.396842061970602,0.928263335190483
0.397119094703868,0.924227130648065
0.39735289439072,0.920210698241289
0.397543730057216,0.916213927214813
0.397691870729409,0.912236706813296
0.397797585433355,0.908278926281396
0.397861143195108,0.904340474863771
0.397882813040723,0.900421241805081
0.305564461634418,0.788543873313025
0.397699185341294,0.888777745229197
0.397555993782909,0.884934278052827
0.397372259438661,0.881109475458683
0.397148251334605,0.877303226691423
0.396884238496797,0.873515420995707
0.396580489951291,0.869745947616192
0.396237274724141,0.865994695797538
0.395854861841404,0.862261554784401
0.395433520329134,0.858546413821441
0.394973519213386,0.854849162153318
0.394475127520215,0.851169689024687
0.393938614275676,0.847507883680209
0.393364248505823,0.843863635364541
0.506586964468166,0.932185162508228
0.392103035494399,0.836627366798273
0.497241737419017,0.925360809748244
0.390693640694381,0.829459997283147
0.389934047688788,0.82590187278141
0.389138216314211,0.822360640776434
0.482817999972678,0.911156074574243
0.277328508726676,0.717338292498242
0.386535982237129,0.811837192188658
0.385597887647168,0.808362422617312
0.384624899818498,0.804903991766019
0.383617287777175,0.801461788879438
0.267117595302991,0.696587191790403
0.381499267160788,0.794625623979047
0.264464494351685,0.680587632037114
0.379245978006446,0.787853041873404
0.378069280292679,0.78449031748026
0.376859572522589,0.781143156519779
0.37561712372223,0.777811448236619
0.46441869219643,0.874609155068826
0.373035079134924,0.771193946680896
0.371696021400088,0.76790793189765
0.370325298739202,0.764636926770359
0.368923180178323,0.761380820543681
0.367489934743504,0.758139502462275
0.366025831460802,0.7549128617708
0.36453113935627,0.751700787713913
0.457859011390717,0.841515534305287
0.361451064785939,0.745319896482539
0.359866220372249,0.742150857797369
0.265930920009366,0.636517752740279
0.457452735989156,0.847786293241058
0.354935686929744,0.732728040399827
0.353234405801947,0.729614831635497
0.35150468806076,0.726515303463024
0.349746802732239,0.723429345127065
0.347961018842438,0.72035684587228
0.235001733456079,0.622024786471221
0.344306831483217,0.714251781584863
0.342438966065907,0.711218995041547
0.340544278191538,0.708199224558039
0.338623036886164,0.705192359378997
0.336675511175839,0.702198288749077
0.224042919430055,0.604974719063813
0.332702682644561,0.696248088115245
0.330677917875718,0.693291736600648
0.328627944806144,0.690347736613809
0.326553032461895,0.687415977399385
0.324453449869026,0.684496348202037
0.322329466053592,0.681588738266421
0.320181350041648,0.678693036837197
0.318009370859249,0.675809133159023
0.20781329051284,0.56110683661486
0.313594899087305,0.670076276034458
0.31135294454987,0.667227101077383
0.3090882029462,0.664389280849993
0.306800943302349,0.661562704596944
0.304491434644373,0.658747261562897
0.302159945998327,0.655942840992508
0.297432104846242,0.650366624221341
0.392578703819749,0.759370339304097
0.408326793974411,0.751005609158846
0.290182218858961,0.642082198658494
0.287724499831646,0.639341587007886
0.285246683998646,0.636611222533547
0.282749040386014,0.633890994480134
0.280231838019807,0.631180792092305
0.277695345926079,0.628480504614721
0.275139833130885,0.625790021292038
0.272565568660281,0.623109231368916
0.26997282154032,0.620438024090012
0.267361860797058,0.617776288699986
0.26473295545655,0.615123914443495
0.366663738893503,0.703036233868728
0.256741262112101,0.607221850921822
0.254043268643159,0.604605813646058
0.251328675707245,0.601998583727123
0.248597752330415,0.599400050409673
0.243087990358227,0.594228630557868
0.240309689814978,0.591655522512828
0.234707594744447,0.586533956407767
0.231884338269274,0.583985276837064
0.229046634535569,0.581444518580455
0.322981688198521,0.691173421501964
0.223328961396785,0.576386322988159
0.220449530043816,0.573868664141787
0.119210970147629,0.481189979813372
0.214650822900997,0.568855670571891
0.208800783349371,0.563871704130179
0.205857186485393,0.561390329194038
0.202901563597378,0.558915878773919
0.199934183711381,0.55644824211448
0.196955315853457,0.553987308460379
0.190964192326048,0.549085107146826
0.187952474708673,0.546643617976691
0.0791356524611632,0.425913352452541
0.076524448818498,0.434449331770282
0.178855926754524,0.539356267348753
0.17274308912729,0.534527856778768
0.166593984550325,0.529722271037839
0.0437481531599482,0.423828389776125
0.0556570362932205,0.417970852638881
0.26131216558788,0.614457698843782
0.147950591205455,0.515433602362076
0.250196349300416,0.627231140723197
0.14167794091397,0.510710455510054
0.138531916539877,0.508355835442487
0.135379784714955,0.506005703273428
0.132221814465261,0.503659948247534
0.129058274816849,0.501318459609464
0.125889434795774,0.498981126603877
0.122715563428092,0.496647838475431
0.119536929739856,0.494318484468784
0.113166451505946,0.489671135799523
0.109975145012381,0.487352919626226
0.197152652736878,0.596378141928211
0.100380184337908,0.480418774687567
0.0971757471353408,0.478113858383954
0.0939686998206602,0.475811990159408
0.208929061213547,0.565625432303142
0.0875478509591792,0.47121695492615
0.0811197899619048,0.466632782945062
0.0746866690372765,0.462058588173411
0.0714688836673422,0.459774955352771
0.0682506403937341,0.457493484568466
0.0650322082425076,0.455214065065153
0.0618138562397174,0.452936586087492
0.0585958534114186,0.450660936880142
-0.05760161416702,0.32976017343187
0.156035310687129,0.548669424883211
0.0457327143642356,0.441574422647007
0.0425204927992178,0.439306260961083
0.039310234565021,0.437039264513419
0.0361022086877003,0.434773322548675
0.0296939301079069,0.430244159046577
0.0264942154575441,0.42798071599854
0.0232978092682773,0.425717884412057
0.0201049805661613,0.423455553531785
-0.0989136807958308,0.315426165465873
0.0105506496432679,0.416670457574821
0.00737482115030494,0.414409021965979
0.00420391527476754,0.41214753328664
0.00103820104271078,0.409885880781463
-0.00212205251981035,0.407623953695107
-0.00527657638674089,0.40536164127223
-0.00842510153202601,0.40309883275749
-0.0115673589296107,0.400835417395546
-0.0147030795534398,0.398571284431056
-0.0178319943774587,0.396306323108679
-0.0271752137901032,0.389505361440808
0.0682467927390936,0.504389671257602
-0.0333650655884734,0.384965214691529
-0.0364474960664757,0.382692957359655
-0.0395212375622829,0.380419096382503
-0.0425860210498401,0.378143521004732
-0.0456415775030921,0.375866120470999
-0.0486876378959843,0.373586784025963
-0.0517239332024614,0.371305400914284
-0.057766152451951,0.366736051669624
-0.0607715383428536,0.364447864025961
-0.0637660830431212,0.362157186694288
-0.0667495175266992,0.359863908919263
-0.072681979739566,0.35526910901779
-0.0756304694167448,0.352967365380659
-0.0785667727730142,0.350662578278809
-0.0814906207823188,0.3483546369569
-0.0844017444186041,0.346043430659589
-0.0959136147124504,0.336763740609499
0.00675052360967987,0.420525756782248
-0.109984871060224,0.325077375459367
-0.112753954533291,0.322727427864256
-0.115507354346734,0.320372996984986
-0.0147945943292714,0.433394579604763
-0.126358736483165,0.31090822551949
-0.129029682607663,0.308529716889304
-0.131683330916208,0.30614606044291
-0.134319412382743,0.303757145424966
-0.136937657981215,0.301362861080132
-0.139537798685567,0.298963096653065
-0.142119565469746,0.296557741388424
-0.147226901173364,0.291729815325053
-0.149751932040692,0.28930702301564
-0.152257512883627,0.286878196847287
-0.154743374676113,0.284443226064652
-0.157209248392096,0.282001999912394
-0.162079955490331,0.27710033847764
-0.068092681407989,0.389399619411366
-0.166867481969893,0.272172326500294
-0.0701927727520414,0.369092156157974
-0.171569675622341,0.267217077937624
-0.178458259094215,0.259731198277656
-0.18070945561214,0.257221326885378
-0.182937704766957,0.254703981814719
-0.187324284883048,0.249646427616893
-0.189482077792211,0.247105996979043
-0.191615847234046,0.244557649641446
-0.193725324182498,0.242001274848762
-0.199905309807009,0.234282878186761
-0.203898905612094,0.229095112622058
-0.20969432688174,0.221247997483117
-0.213424820798875,0.215971650716913
-0.21704630759606,0.210658320895329
-0.218815500759534,0.207987510450414
-0.220556635064855,0.20530712197563
-0.331760097397996,0.105951485071897
-0.117870383826617,0.309226227537381
-0.228832007807255,0.191757632716702
-0.23344330748735,0.183505914461046
-0.234919805896828,0.180734339727061
-0.236365555187604,0.17795207940979
-0.237780286333623,0.175159022753893
-0.23916373030883,0.172355059004026
-0.24051561808717,0.169540077404849
-0.241835680642588,0.166713967201021
-0.24312364894903,0.163876617637199
-0.24437925398044,0.161027917958042
-0.245602226710764,0.158167757408209
-0.133387131115854,0.254237869000547
-0.250162414100092,0.14661029139528
-0.252239719310807,0.140759913525876
-0.253226733203985,0.137816425731744
-0.254178962587637,0.134860591024203
-0.255096138435708,0.131892298647911
-0.255977991722142,0.128911437847528
-0.256824253420885,0.125917897867711
-0.141894079557588,0.218455952695989
-0.159749679465799,0.232203312514512
-0.369978446689267,-0.000181069661180699
-0.259848003817846,0.113814731047275
-0.260512272187308,0.110756133840167
-0.382388170635701,-0.0140666278851718
-0.160361199492521,0.196901569523327
-0.264105324481881,0.0889661271697602
-0.264464414169637,0.0857976791212251
-0.264784145904932,0.0826150013184748
-0.26530445941392,0.0762065134289618
-0.265504503135504,0.072980481831516
-0.265664112800407,0.0697397774584888
-0.265860953855951,0.0632139073643234
-0.370653600600663,-0.0426617200955058
-0.26584623436279,0.0533122875226748
-0.265453080952536,0.0432726319123485
-0.265236677934842,0.0398948885687173
-0.357817999334966,-0.0585881462517584
-0.264674229921706,0.0330919501391222
-0.263937132431211,0.0262250043508064
-0.263502417566816,0.0227672518087744
-0.262499310469456,0.015802633652254
-0.353110538058574,-0.0906099885699867
-0.259950854070918,0.00167384389982531
-0.259199203526835,-0.00190057324431353
-0.258401200352861,-0.00549209978154792
-0.257556575522943,-0.00910084646721978
-0.256665060011026,-0.0127269240566703
-0.255726384791054,-0.0163704433052414
-0.354439419928374,-0.120637185690386
-0.253706479122726,-0.0237102498011109
-0.252624710622261,-0.0274067585590923
-0.251494706309521,-0.0311211519975605
-0.130816634928638,0.0622220314769783
-0.246486950414718,-0.0461597876631303
-0.245111731649782,-0.0499652658341548
-0.242211475188043,-0.0576319805691532
-0.23748250777494,-0.0692731099841477
-0.235804153807555,-0.073191544760511
-0.230459231051576,-0.0850625745784793
-0.224643867467707,-0.0971095184919368
-0.22259961507863,-0.10116477534257
-0.213886442188586,-0.117586800618278
-0.211572763002367,-0.121743110182208
-0.322000546276904,-0.250084189890646
-0.204302494713927,-0.134335738747465
-0.199178599986267,-0.142835015238943
-0.191071803570629,-0.155742431254952
-0.179465661183723,-0.173252840054387
-0.16693278679277,-0.191113198818343
-0.160313444574677,-0.200176824543847
-0.0589014217051664,-0.119128138294197
-0.149937246883029,-0.213941563056697
-0.146358189051057,-0.218575398895571
-0.142718520208283,-0.223232214160643
-0.139017971328652,-0.227912119607255
-0.135256273386108,-0.232615225990748
-0.131476622530003,-0.237317230312562
-0.12399330200145,-0.246644804701632
-0.109327910971289,-0.264994239205405
0.00202996774793439,-0.158770707673807
-0.0880714864604756,-0.291754202748868
-0.0846140503716679,-0.296125051805628
-0.0743860624506037,-0.309084795449272
0.0288368560712796,-0.202783927564342
-0.0578147522168928,-0.330175071836745
-0.05457093088789,-0.334316739971979
-0.0513503669058267,-0.338432947621781
-0.0449786288814205,-0.346588984714216
-0.130711278819989,-0.487299074081496
0.091009065580434,-0.256713513536814
-0.0204028656064831,-0.3781948761229
0.0740559936853631,-0.264262413428251
-0.00576783162098336,-0.397121356468131
0.00275167725754161,-0.408171868309797
0.00832397880080949,-0.415411649589976
0.121448394778782,-0.333082909918879
0.0297707743487952,-0.443353102591953
0.0374726583535648,-0.453411415796804
0.0399994245784745,-0.456713316797167
0.0425060857905015,-0.459989784117372
0.0523335910152716,-0.472841332842224
0.0547411600420019,-0.475990643945851
0.0571291972074962,-0.479114526243005
0.0641770727893075,-0.48833360841844
-0.0339649110514141,-0.606955267196589
0.071052600529875,-0.497323860577738
0.0821358234148491,-0.511799162596865
0.0842969292169182,-0.514617962574264
0.0927594073512572,-0.525638988138474
0.0968828167279065,-0.53099700768528
0.0989178983320617,-0.533637896992841
0.102935292998405,-0.538843438737688
0.106882966443956,-0.54394733673737
0.11076168287091,-0.548949597490137
0.114572206481462,-0.553850227494237
0.121991732062144,-0.563346621249426
0.123805187012994,-0.565657210623818
0.125602262436665,-0.567942397997011
0.130896166797346,-0.574645556232198
0.134345290031936,-0.578987333274809
0.136046094323295,-0.581120125698702
0.137731187764395,-0.583227521807363
0.14105462419692,-0.587366128328109
0.142693158238892,-0.589397340364757
0.144316363531705,-0.591403159335296
0.147517169970947,-0.59533862132717
0.149094962167925,-0.597268265973067
0.15065780771684,-0.59917252080198
0.153739040971581,-0.602904864257974
0.158251179125085,-0.608312976121601
0.161187244536551,-0.611791457960388
0.162633955810846,-0.613492623495536
0.164066580164549,-0.615168406524228
0.166889950211274,-0.618443828311367
0.169658118878923,-0.621617729820053
0.17237185036969,-0.624690117548534
0.176342049591492,-0.62910837501829
0.178923031524662,-0.631927006726094
0.180194063802661,-0.633298263035229
0.182697688607859,-0.635964660625371
0.185150697247154,-0.638529576926548
0.192213668191574,-0.645615503078768
0.199914262072808,-0.652728375250924
0.202012008412812,-0.654532389016516
0.305514167193461,-0.55976296688013
0.107039346048273,-0.773910594700191
0.212781450459768,-0.66264164824884
0.216391544421165,-0.664829985576994
0.218138625904604,-0.665772085016449
0.221520678887942,-0.667352177937357
0.222343393117974,-0.667683850497973
0.223157178792233,-0.667990184415306
0.342332987479664,-0.559305041819018
0.226324946437033,-0.668962149897433
0.227095522211546,-0.669141802782568
0.227857742581934,-0.669296121898106
0.320886508219405,-0.562738930283491
0.230824980527717,-0.669660076909914
0.232967357982181,-0.669667078389773
0.233666174029443,-0.669618756590654
0.234357494400049,-0.669545108332468
0.236387436704678,-0.669172212926312
0.237049729621406,-0.668997266954664
0.335367913473775,-0.549676513914773
0.242103447268077,-0.666686161097229
0.127090831284052,-0.765117057516114
0.246195451491996,-0.663334844537778
0.246756918637121,-0.662754837677245
0.248408764298242,-0.660862963937771
0.249483820179854,-0.6594751786027
0.250013782328742,-0.658743327519381
0.250538827983385,-0.657986171908581
0.251059052669056,-0.657203712582581
0.254573662460617,-0.651018061506589
0.357057429210587,-0.543034271209749
0.256490660487835,-0.646926847105753
0.256960484517259,-0.645840806555271
0.258348863864208,-0.642430929219668
0.259257828063816,-0.640031222715277
0.2601543862073,-0.637530359834318
0.263205675186709,-0.62798082710394
0.263631842263899,-0.626515474509757
0.264897848028846,-0.621967734148339
0.265732394236036,-0.618809513214479
0.266560265903569,-0.61555018464091
0.266971937598149,-0.613882607019937
0.267382227233639,-0.61218975492588
0.269820291221031,-0.601501923914505
0.271028402964227,-0.595816868816941
0.2714301258989,-0.593871316667496
0.272232673450304,-0.589904416566907
0.273034660079614,-0.585836460812593
0.159306583405238,-0.695666785783508
0.276657148671974,-0.566280270437602
0.278697053650601,-0.554531758080912
0.279522064182206,-0.549655591033721
0.281613898630813,-0.537023325014124
0.282038053971803,-0.534421132868175
0.180691981135667,-0.624502561586616
0.286413749735478,-0.507010902407234
0.287782710826347,-0.498295688540552
0.289182219758896,-0.489353369942559
0.291589623925896,-0.473944887999151
0.292581025763562,-0.467604898010313
0.296728253431209,-0.441235973588454
0.298365212244455,-0.430931487165912
0.298921538285961,-0.427446223673089
0.3060534403447,-0.383656446941056
0.308635135587657,-0.368253185655011
0.309297880997861,-0.364339360821905
0.410135867203031,-0.250847354448775
0.313427210340716,-0.340327194471507
0.317078995632565,-0.31962412247454
0.325848736938047,-0.271860501483982
0.446812931740358,-0.143047044230041
0.337661425725354,-0.211483917901603
0.338640660910506,-0.206663326322787
0.346862676122502,-0.167192436157288
0.352366322136915,-0.141705194114068
0.353502070525047,-0.136532255321378
