0.103263443134886,0.309209945724684
0.100147566204866,0.340186946899687
0.0990066995442124,0.314313049433046
0.0969541577472927,0.316837053255146
0.0857591727994866,0.317325971403528
0.118865143014876,0.33614436111842
0.0910968301926553,0.324299365800209
0.0892436474649424,0.326750374010118
0.0874396748883754,0.329183236068454
0.122454588464561,0.344627661306793
0.0938649838707591,0.344534986627664
0.082320499600927,0.336373356339928
0.108851639723003,0.355524685989729
0.0934172283258618,0.36896570142498
0.0776351492011493,0.343401640868495
0.0761685959816595,0.345708630682348
0.0466148205393388,0.344145414722473
0.0721547854690385,0.330955140370804
0.0717811830786926,0.319690988255227
0.0361183518690857,0.372106699147427
0.0695387236466773,0.356977141560644
0.0393401385328405,0.369780136340018
0.0672100906678729,0.361360975300527
0.0661140487830189,0.363526577156093
0.0433733853402369,0.393309465816075
0.0640572549900961,0.367805356341426
0.0630959993891026,0.369918615872373
0.0464003844361879,0.386310618194419
0.0560683477100027,0.363873356107406
0.0181338513934835,0.382792299417938
0.0596927092041281,0.378198412598464
0.0361573320585355,0.38822753269908
0.0582525775925682,0.382234941531156
0.0391556694821663,0.400158060510684
0.0757077411941546,0.385270951773619
0.0682287416869879,0.4186182527117
0.00662323640645004,0.386057131006478
0.0621189116594314,0.351174480168944
0.0958181986461625,0.383682254440271
0.034850034713464,0.384912745113062
0.0613931620737996,0.390055986454976
0.0517972724603356,0.392324950046593
0.0533461829183982,0.403220684205014
0.0887800821092158,0.406591336779503
0.0704749059632145,0.439799460595296
0.0731587876039885,0.432363871445322
0.0527418983781572,0.412089708887386
0.0486582412762454,0.394150472482159
0.0527741386106383,0.415521803864571
0.0631040230423772,0.404999174859237
0.0492506982543163,0.460877926537576
0.0559328930569405,0.415080163944944
0.0490265716388703,0.428304960573802
0.057047583778581,0.389863078308701
0.0363664944103979,0.422236185703253
0.0827390425845792,0.425308679830917
0.0484245883507508,0.404955940233245
0.057997547361572,0.424836274081394
0.055641662681713,0.433236056242674
0.0493971837806503,0.418924843754724
0.0534498070016226,0.394984837231637
0.0577703412253709,0.43919692392955
0.083808991974009,0.423015195135721
0.0590433062210441,0.442082619466566
0.0524292831803369,0.445877409512761
0.0604526686703491,0.44490559453893
0.0425592945506344,0.470476338722529
0.0636725268430604,0.450364698508584
0.0824826394805123,0.449024085276524
0.0683445937674401,0.460634682168749
0.06643047892387,0.454296830751225
0.0914114044555274,0.486888457575794
0.0592020843723993,0.447463528526515
0.0694749257119047,0.4580911710962
0.0662924557898299,0.479227286942578
0.0727990673526821,0.461748829259444
0.0739680936945044,0.462937866631783
0.0617134729419933,0.48785851686316
0.111094815904025,0.459963041971607
0.0702110449472445,0.449903733995878
0.0796029446245525,0.470848358117718
0.0990021877826615,0.431458476664586
0.0887565853535777,0.475034834413786
0.0633446100346824,0.512572390747321
0.0814191827447016,0.473143148660786
0.118891347967706,0.425326040601493
0.094970833204285,0.47899374274088
0.0982367172539475,0.480886596514856
0.106672345261856,0.445923405561436
0.101605755024218,0.482722155102081
0.110716991777321,0.481590864971278
0.118492068966369,0.493855634047704
0.124360037173408,0.50770036643948
0.093218548017345,0.51479048400762
0.0779565784500502,0.499397983682204
0.103283293741049,0.487964359481268
0.119927732675247,0.491052028402166
0.123873382563499,0.492550720768024
0.129668688480111,0.500863666003016
0.146338344464692,0.483534513927954
0.132228611720434,0.524710856604834
0.121771063146686,0.479524444501561
0.152524181504707,0.468969909450135
0.149365738537091,0.504808698720602
0.138371206493024,0.497365227594098
0.134092929771223,0.523951596919666
0.159980145275229,0.4945663108683
0.140522132957209,0.49042974617683
0.15301449545491,0.489664234726175
0.160937263874029,0.502091405849445
0.129618444378952,0.515741626648168
0.162432489247905,0.487446672954736
0.15776007142714,0.495511591682841
0.160803447213622,0.503102429873601
0.184035676537677,0.483319086169639
0.17029392021873,0.505029618157345
0.175142006930961,0.505915736240661
0.222109695876227,0.518321262841185
0.19725005068961,0.503018714627663
0.187546043341771,0.507907696899365
0.181882841661311,0.497733994764389
0.23253188187445,0.514912895332421
0.232777853125623,0.526219866372011
0.200330351720966,0.509584718260533
0.202930075721926,0.509882781923554
0.205543499522847,0.510168494618214
0.231768241552574,0.533439400154936
0.21052379090105,0.489770845241998
0.240935028212898,0.530160357237822
0.233657686228689,0.512090111403867
0.237160234204348,0.50381935496703
0.200434093464526,0.481206923673329
0.246217576937694,0.513000017236168
0.267924890737146,0.517077712392844
0.239444692317636,0.526705786039128
0.268854144870146,0.513425550685267
0.271720809931455,0.513427170316323
0.270481977618446,0.530678172476683
0.252943469650468,0.503738878875778
0.30760413007904,0.519537160306548
0.296122631378722,0.502579335315071
0.323073200096361,0.503791276670883
0.297623464044262,0.526819100359507
0.276403856474352,0.49689024321979
0.293139799819798,0.528416966031244
0.317032259470013,0.501079023441938
0.306626246374468,0.512575131276458
0.284786348748593,0.519218502616473
0.338007054471727,0.524163968927386
0.321381365936301,0.511755753724024
0.332123810051863,0.495508645068716
0.330273919427639,0.511136301464955
0.33281775450541,0.508163701734429
0.340155852550764,0.493547373333859
0.400798757843935,0.461445461436531
0.345138818143533,0.509894400204973
0.354560593894289,0.499413121248496
0.364672070237477,0.552289411550786
0.342321211564765,0.505250534888774
0.336879912399285,0.522939155709387
0.374920195531027,0.506643539844828
0.378946113051267,0.497742064698038
0.392737412723841,0.504215916409318
0.362382483889659,0.501944005114782
0.398655794951309,0.503329163555905
0.372813114112949,0.468369508928783
0.388618502442739,0.505456315678003
0.388551628053004,0.482895849421577
0.431228169958201,0.503521076038683
0.380515311357016,0.473019714288319
0.429746752135107,0.468047322852907
0.465799987216367,0.513411714989879
0.464141310612597,0.521690423196069
0.446560037006615,0.515882741993969
0.435305911030655,0.498179404908027
0.456753512811282,0.492413539590211
0.441585827818136,0.494717356727764
0.469042830486157,0.478252639846514
0.476391121104465,0.487750866508223
0.42767537371778,0.494021080007366
0.503379552084145,0.47156729034412
0.498215528244297,0.481916134545731
0.500891141789181,0.481149832260138
0.534946888943703,0.472441973721628
0.492932034153426,0.432607949141398
0.528269936172137,0.487091931023591
0.539678429307156,0.458122795184843
0.526918649805271,0.473049383117453
0.504583391391767,0.478768444237545
0.531952082134395,0.471335992057039
0.530147626979585,0.492007679777541
0.539385243089435,0.468709133468626
0.541830759344961,0.467818539142104
0.54741483113826,0.477853731076266
0.560196654797864,0.458972705882847
0.550922734319127,0.459439698207964
0.560122316739761,0.458201555214273
0.559095783029973,0.462378338416161
0.542260139938226,0.468481383506905
0.587275258755711,0.474800980002728
0.582017711711555,0.46557492298924
0.574218610352954,0.454589935097441
0.580671197321946,0.45157688234892
0.601453286498939,0.453926455126226
0.622602632345551,0.491166477005841
0.581388700199934,0.459385966601571
0.598878387880822,0.442179272841604
0.6261105807558,0.420270384505813
0.58919396216346,0.440013700019458
0.589484132982429,0.452904844840568
0.601997401306485,0.442036921871146
0.637230085285391,0.433816244790072
0.657647445761214,0.427716620198013
0.633486198895599,0.387829146718191
0.615431795061035,0.435240538134085
0.669458631863968,0.400424420551473
0.64614371654378,0.406059424703775
0.646063256080992,0.389961748322747
0.620044179043491,0.40872455637136
0.640199285437193,0.402804170319671
0.656885217762488,0.390700739354023
0.649521927204264,0.401787190997462
0.636604399561864,0.407925149521087
0.661361147684551,0.380090595178898
0.662453966956696,0.376040467337352
0.662999585419738,0.373319659357026
0.663396511141087,0.370582656780103
0.65344035459645,0.372182573136623
0.658768571558417,0.363506679358959
0.660735342480101,0.345380002173766
0.647741313626835,0.367125917898856
0.660750633902647,0.375418532834309
0.662212997580687,0.352420104814154
0.661842353600482,0.350997809633558
0.680249631325485,0.372171787733811
0.658744417787854,0.342394265236802
0.623269302578814,0.324308481770841
0.627541294810834,0.326444069509574
