-0.406108826966332,0.11332481189365
-0.401693951970217,0.117927563759231
-0.397305694019465,0.122476479907805
-0.392943956311824,0.126971767588715
-0.388608642045041,0.131413634051307
-0.384299654416863,0.135802286544926
-0.380016896625039,0.140137932318915
-0.375760271867314,0.14442077862262
-0.371529683341436,0.148651032705386
-0.367325034245154,0.152828901816557
-0.363146227776213,0.156954593205477
-0.358993167132362,0.161028314121492
-0.354865755511348,0.165050271813946
-0.350763896110918,0.169020673532183
-0.346687492128819,0.172939726525549
-0.342636446762799,0.176807638043388
-0.338610663210605,0.180624615335045
-0.334610044669985,0.184390865649864
-0.330634494338685,0.188106596237191
-0.326683915414454,0.191772014346369
-0.322758211095038,0.195387327226744
-0.318857284578185,0.198952742127659
-0.314981039061642,0.202468466298461
-0.311129377743157,0.205934706988493
-0.307302203820477,0.2093516714471
-0.303499420491349,0.212719566923627
-0.29972093095352,0.216038600667418
-0.295966638404739,0.219308979927819
-0.292236446042752,0.222530911954173
-0.288530257065306,0.225704603995826
-0.284847974670149,0.228830263302122
-0.281189502055028,0.231908097122406
-0.277554742417692,0.234938312706023
-0.273943598955886,0.237921117302316
-0.270355974867358,0.240856718160632
-0.266791773349856,0.243745322530314
-0.263250897601127,0.246587137660707
-0.259733250818918,0.249382370801156
-0.256238736200977,0.252131229201006
-0.252767256945051,0.2548339201096
-0.249318716248888,0.257490650776285
-0.245893017310234,0.260101628450404
-0.242490063326837,0.262667060381303
-0.239109757496445,0.265187153818325
-0.235752003016804,0.267662116010816
-0.232416703085662,0.270092154208121
-0.229103760900767,0.272477475659583
-0.225813079659866,0.274818287614548
-0.222544562560705,0.27711479732236
-0.219298112801033,0.279367212032364
-0.216073633578597,0.281575738993904
-0.212871028091144,0.283740585456326
-0.209690199536421,0.285861958668974
-0.206531051112177,0.287940065881193
-0.203393486016157,0.289975114342326
-0.20027740744611,0.29196731130172
-0.197182718599783,0.293916864008719
-0.194109322674923,0.295823979712666
-0.191057122869277,0.297688865662908
-0.188026022380593,0.299511729108788
-0.185015924406619,0.301292777299652
-0.182026732145101,0.303032217484844
-0.179058348793787,0.304730256913708
-0.176110677550424,0.30638710283559
-0.17318362161276,0.308002962499834
-0.170277084178541,0.309578043155785
-0.167390968445516,0.311112552052786
-0.164525177611432,0.312606696440184
-0.161679614874035,0.314060683567323
-0.158854183431074,0.315474720683547
-0.156048786480295,0.316849015038201
-0.153263327219446,0.318183773880629
-0.150497708846275,0.319479204460178
-0.147751834558528,0.32073551402619
-0.145025607553954,0.321952909828011
-0.142318931030298,0.323131599114985
-0.139631708185309,0.324271789136458
-0.136963842216735,0.325373687141773
-0.134315236322321,0.326437500380276
-0.131685793699817,0.327463436101311
-0.129075417546968,0.328451701554222
-0.126484011061523,0.329402503988355
-0.123911477441229,0.330316050653054
-0.121357719883832,0.331192548797664
-0.118822641587081,0.33203220567153
-0.116306145748723,0.332835228523995
-0.113808135566505,0.333601824604406
-0.111328514238174,0.334332201162106
-0.108867184961478,0.33502656544644
-0.106424050934165,0.335685124706752
-0.10399901535398,0.336308086192389
-0.101591981418673,0.336895657152693
-0.0992028523259897,0.337448044837011
-0.0968315312736779,0.337965456494685
-0.0944779214594849,0.338448099375063
-0.0921419260811581,0.338896180727486
-0.0898234483364449,0.339309907801302
-0.0875223914230925,0.339689487845854
-0.0852386585388483,0.340035128110486
-0.0829721528814596,0.340347035844544
-0.0807227776486738,0.340625418297372
-0.0784904360382384,0.340870482718316
-0.0762750312479004,0.341082436356718
-0.0740764664754074,0.341261486461925
-0.0718946449185066,0.341407840283281
-0.0697294697749455,0.341521705070131
-0.0675808442424712,0.341603288071819
-0.0654486715188313,0.341652796537689
-0.063332854801773,0.341670437717087
-0.0612332972890437,0.341656418859358
-0.0591499021783906,0.341610947213845
-0.0570825726675613,0.341534230029895
-0.0550312119543029,0.34142647455685
-0.0529957232363629,0.341287888044056
-0.0509760097114886,0.341118677740858
-0.0489719745774272,0.340919050896601
-0.0469835210319263,0.340689214760628
-0.0450105522727331,0.340429376582285
-0.0430529714975948,0.340139743610916
-0.0411106819042591,0.339820523095866
-0.039183586690473,0.33947192228648
-0.037271589053984,0.339094148432102
-0.0353745921925395,0.338687408782078
-0.0334924993038866,0.33825191058575
-0.031625213585773,0.337787861092466
-0.0297726382359457,0.337295467551568
-0.0279346764521522,0.336774937212402
-0.0261112314321399,0.336226477324312
-0.024302206373656,0.335650295136644
-0.022507504474448,0.335046597898741
-0.0207270289322631,0.334415592859948
-0.0189606829448487,0.333757487269611
-0.0172083697099522,0.333072488377073
-0.0154699924253208,0.33236080343168
-0.013745454288702,0.331622639682776
-0.012034658497843,0.330858204379705
-0.0103375082504913,0.330067704771813
-0.00865390674439407,0.329251348108444
-0.00698375717729872,0.328409341638943
-0.00532696274695265,0.327541892612654
-0.00368342665110318,0.326649208278923
-0.00205305208749762,0.325731495887093
-0.000435742253883278,0.324788962686509
0.00116859965199244,0.323821815926517
0.00276007043238218,0.322830262856461
0.00433876688953862,0.321814510725684
0.00590478582571449,0.320774766783534
0.00745822404316235,0.319711238279352
0.00899917834413488,0.318624132462486
0.0105277455308847,0.317513656582278
0.0120440224056647,0.316380017888075
0.0135481057707272,0.31522342362922
0.0150400924283251,0.314044081055058
0.0165200791807109,0.312842197414934
0.0179881628301374,0.311617979958192
0.0194444401788571,0.310371635934178
0.0208890080291228,0.309103372592235
0.0223219631831871,0.307813397181709
0.0237434024433026,0.306501916951944
0.0251534226117221,0.305169139152285
0.0265521204906982,0.303815271032077
0.0279395928824835,0.302440519840664
0.0293159365893307,0.301045092827391
0.0306812484134924,0.299629197241602
0.0320356251572213,0.298193040332643
0.0333791636227701,0.296736829349857
0.0347119606123915,0.29526077154259
0.036034112928338,0.293765074160187
0.0373457173728623,0.292249944451991
0.0386468707482172,0.290715589667348
0.0399376698566552,0.289162217055602
0.041218211500429,0.287590033866098
0.0424885924817913,0.285999247348181
0.0437489096029947,0.284390064751195
0.044999259666292,0.282762693324485
0.0462397394739356,0.281117340317395
0.0474704458281784,0.279454212979271
0.0486914755312729,0.277773518559457
0.0499029253854718,0.276075464307298
0.0511048921930278,0.274360257472137
0.0522974727561936,0.272628105303321
0.0534807638772217,0.270879215050194
0.0546548623583649,0.2691137939621
0.0558198650018757,0.267332049288383
0.056975868610007,0.26553418827839
0.0581229699850113,0.263720418181464
0.0592612659291413,0.26189094624695
0.0603908532446495,0.260045979724192
0.0615118287337889,0.258185725862536
0.0626242891988118,0.256310391911326
0.063728331441971,0.254420185119907
0.0648240522655193,0.252515312737623
0.0659115484717091,0.250595982013819
0.0669909168627933,0.248662400197841
0.0680622542410244,0.246714774539031
0.069125657408655,0.244753312286735
0.070181223167938,0.242778220690298
0.0712290483211258,0.240789706999065
0.0722692296704713,0.23878797846238
0.0733018640182269,0.236773242329587
0.0743270481666455,0.234745705850032
0.0753448789179796,0.232705576273059
0.0763554530744819,0.230653060848013
0.0773588674384051,0.228588366824238
0.0783552188120018,0.226511701451079
0.0793446039975247,0.224423271977881
0.0803271197972263,0.222323285653989
0.0813028630133596,0.220211949728747
0.0822719304481769,0.218089471451499
0.0832344189039311,0.215956058071592
0.0841904251828747,0.213811916838368
0.0851400460872605,0.211657255001173
0.086083378419341,0.209492279809351
0.087020518981369,0.207317198512248
0.0879515645755971,0.205132218359208
0.0888766120042779,0.202937546599575
0.0897957580696642,0.200733390482694
0.0907090995740086,0.19851995725791
0.0916167333195636,0.196297454174568
0.092518756108582,0.194066088482012
0.0934152647433165,0.191826067429587
0.0943063560260197,0.189577598266637
0.0951921267589443,0.187320888242508
0.0960726737443429,0.185056144606543
0.0969480937844681,0.182783574608088
0.0978184836815727,0.180503385496487
0.0986839402379093,0.178215784521086
0.0995445602557306,0.175920978931227
0.100400440537289,0.173619175976258
0.101251677884838,0.17131058290552
0.102098369100629,0.168995406968361
0.102940610986915,0.166673855414124
0.10377850034595,0.164346135492154
0.104612133979985,0.162012454451795
0.105441608691273,0.159673019542393
0.106267021282067,0.157328038013292
0.10708846855462,0.154977717113836
0.107906047311183,0.15262226409337
0.108719854354011,0.15026188620124
0.109529986485356,0.147896790686789
0.110336540507469,0.145527184799363
0.111139613222605,0.143153275788305
0.111939301433015,0.140775270902962
0.112735701940952,0.138393377392676
0.113528911548669,0.136007802506794
0.114319027058418,0.133618753494659
0.115106145272453,0.131226437605617
0.115890362993025,0.128831062089011
0.116671777022388,0.126432834194188
0.117450484162794,0.124031961170491
0.118226581216496,0.121628650267264
0.119000164985746,0.119223108733854
0.119771332272797,0.116815543819604
0.120540179879902,0.114406162773859
0.121306804609314,0.111995172845963
0.122071303263284,0.109582781285263
0.122833772644066,0.107169195341101
0.123594309553913,0.104754622262823
0.124353010795077,0.102339269299773
0.12510997316981,0.0999233437012964
0.125865293480366,0.0975070527167377
0.126619068528997,0.0950906035954413
0.127371395117955,0.0926742035867521
0.128122370049494,0.0902580599400146
0.128872090125866,0.0878423799045737
0.129620652149323,0.0854273707297738
0.130368152922119,0.0830132396649598
0.131114689246506,0.0806001939594762
0.131860357924736,0.0781884408626678
0.132605255759062,0.0757781876238791
0.133349479551738,0.073369641492455
0.134093126105015,0.07096300971774
0.134836292221146,0.0685584995490789
0.135579074702385,0.0661563182358162
0.136321570350983,0.0637566730272968
0.137063875969193,0.0613597711728652
0.137806088359268,0.0589658199218661
0.13854830432346,0.0565750265236442
0.139290620664023,0.0541875982275442
0.140033134183208,0.0518037422829107
0.140775941683269,0.0494236659390885
0.141519139966459,0.047047576445422
0.142262825835029,0.0446756810512563
0.143007096091232,0.0423081870059356
0.143752047537322,0.0399453015588049
0.144497776975551,0.0375872319592088
0.145244381208171,0.0352341854564919
0.145991957037435,0.0328863692999989
0.146740601265596,0.0305439907390746
0.147490410694906,0.0282072570230634
0.148241482127618,0.0258763754013102
0.148993912365985,0.0235515531231596
0.14974779821226,0.0212329974379564
0.150503236468695,0.018920915595045
0.151260323937542,0.0166155148437703
0.152019157421055,0.0143170024334767
0.152779833721486,0.0120255856135093
0.153542449641087,0.00974147163321243
0.154307101982112,0.00746486774193093
0.155073887546813,0.00519598118900934
0.155842903137442,0.0029350192237925
0.156614245556253,0.000682189095624876
0.157388011605498,-0.00156230194614863
0.158164298087429,-0.00379824665218359
0.1589432018043,-0.00602543777313509
0.159724819558363,-0.00824366805965868
0.16050924815187,-0.0104527302624095
0.161296584387075,-0.012652417132043
0.162086925066229,-0.0148425214192144
0.162880366991587,-0.0170228358745792
0.163677006965399,-0.0191931532487926
0.164476941789919,-0.02135326629251
0.1652802682674,-0.0235029677563865
0.166087083200094,-0.0256420503910778
0.166897483390254,-0.0277703069472389
0.167711565640133,-0.0298875301755254
0.168529426751983,-0.0319935128265924
0.169351163528056,-0.0340880476510953
0.170176872770606,-0.0361709273996895
0.171006651281886,-0.0382419448230303
0.171840595864147,-0.0403008926717729
0.172678803319642,-0.0423475636965728
0.173521370450625,-0.0443817506480852
0.174368394059347,-0.0464032462769656
0.175219970948062,-0.0484118433338691
0.176076197919023,-0.0504073345694512
0.17693717177448,-0.0523895127343671
0.177802989316689,-0.0543581705792723
0.1786737473479,-0.0563131008548219
0.179549542670367,-0.0582540963116715
0.180430472086343,-0.0601809497004762
0.181316632398079,-0.0620934537718914
0.18220812040783,-0.0639914012765725
0.183105032917846,-0.0658745849651747
0.184007466730382,-0.0677427975883534
0.18491551864769,-0.069595831896764
0.185829285472021,-0.0714334806410616
0.18674886400563,-0.0732555365719018
0.187674351050769,-0.0750617924399397
0.188605843409689,-0.0768520409958309
0.189543437884645,-0.0786260749902304
0.190487231277889,-0.0803836871737937
0.191437320391672,-0.0821246702971762
0.192393802028249,-0.0838488171110331
0.193356772989871,-0.0855559203660197
0.194326330078792,-0.0872457728127915
0.195302570097264,-0.0889181672020037
0.196285589847539,-0.0905728962843117
0.19727548613187,-0.0922097528103706
0.19827235575251,-0.0938285295308361
0.199276295511712,-0.0954290191963632
0.200287402211728,-0.0970110145576075
0.201305772654811,-0.0985743083652241
0.202331503643213,-0.100118693369869
0.203364691979188,-0.101643962322196
0.204405434464988,-0.103149907972862
0.205453827902865,-0.104636323072521
0.206509969095072,-0.10610300037183
0.207573954843862,-0.107549732621443
0.208645881951487,-0.108976312572015
0.209725847220201,-0.110382532974203
0.210813947452255,-0.111768186578661
0.211910279449903,-0.113133066136044
0.213014940015397,-0.114476964397009
0.21412802595099,-0.11579967411221
0.215249634058934,-0.117100988032302
0.216379861141482,-0.118380698907942
0.217518804000887,-0.119638599489784
0.218666559439402,-0.120874482528483
0.219823224259278,-0.122088140774696
0.220988895262769,-0.123279366979076
0.222163669252128,-0.124447953892281
0.223347643029607,-0.125593694264964
0.224540913397458,-0.126716380847782
0.225743577157934,-0.127815806391389
0.226955731113289,-0.128891763646441
0.228177472065774,-0.129944045363594
0.229408896817643,-0.130972444293502
0.230650102171148,-0.131976753186821
0.231901184928541,-0.132956764794206
0.233162241892076,-0.133912271866312
0.234433369864004,-0.134843067153796
0.235714665646579,-0.135748943407312
0.237006226042054,-0.136629693377515
0.23830814785268,-0.137485109815062
0.239620527880711,-0.138314985470606
0.240943462928399,-0.139119113094804
0.242277049797997,-0.139897285438311
0.243621385291758,-0.140649295251782
0.244976566211934,-0.141374935285873
0.246342689360777,-0.142073998291238
0.247719851540542,-0.142746277018534
0.249108149553479,-0.143391564218415
0.250507680201842,-0.144009652641537
0.251918540287884,-0.144600335038556
0.253340826613857,-0.145163404160125
0.254774635982014,-0.145698652756902
0.256220065194607,-0.14620587357954
0.257677211053889,-0.146684859378696
0.259146170362114,-0.147135402905025
