-0.481218902740363,0.802987666851428
-0.788337240235719,-0.536991658998212
0.373390385891052,-0.849991599863085
0.450036426821104,0.152925197473539
0.526682467751156,1.15584199481016
-0.592775117374593,-0.875772350356122
0.265299458424656,0.987543834573147
