0.160195625089693,-0.240940860600184
-0.772288102900748,-0.951688564503925
-0.0598766025757611,-0.193098515622879
0.701491525473646,0.395196954334316
1.46285965352305,0.983492424291511
0.206883210374056,0.56924203455037
0.805969540881926,-0.379678131965619
