0.462744776963979,0.70792909684967
0.438987112056776,0.697138811676443
0.476118394537064,0.744744155820999
0.491121919133294,0.724990424897399
0.427632974640424,0.690496487587288
0.42903650444138,0.740400804433716
0.454209024334713,0.69367535078378
0.448783928625721,0.687915335182219
0.433913340506745,0.731380083058676
0.475793801652386,0.723229310026987
0.386063584662594,0.638179192485696
0.388702533724033,0.684636128855676
0.440192282196711,0.661006148889848
0.4000034392382,0.614573171845634
0.432105357712011,0.658207928659815
0.378350894250623,0.682693886572608
0.402379854914372,0.637681098170774
0.397488372868501,0.632276402075188
0.407884364041651,0.613986192391817
0.387861138836338,0.62157212817884
0.38312488924555,0.616272381514424
0.425706089082504,0.654099985793246
0.373635260237063,0.593116715861952
0.410465902801829,0.625599781839514
0.320411811344413,0.641356844780379
0.36132646469295,0.597395404763052
0.314485425538725,0.628965451237246
0.381374057224611,0.549818101227609
0.361426485865625,0.558139632986544
0.34277488128242,0.570131172318578
0.339035622317955,0.517553632793724
0.346051619248362,0.511967803321378
0.365863151280815,0.546624667851335
0.326126516341566,0.550513041178356
0.365556729350096,0.502780047060697
0.304448023543637,0.572298413380811
0.32378098333188,0.527571871106614
0.275082506322495,0.509756062885119
0.306394466802746,0.526748369006586
0.316697116534672,0.497082926647771
0.261857318113757,0.531022333901103
0.279652580388062,0.535465737920441
0.314924031344545,0.515343551948986
0.243702242855091,0.531383062050041
0.42078587193765,0.350819589815327
0.162563268667377,0.6261406640909
0.410969569858633,0.61588802264455
0.42264700186985,0.629584577325239
0.161091536168469,0.589730559999868
0.382771768034952,0.597105413995648
0.172775219077761,0.563272564185171
0.379382389940824,0.327236674127434
0.268228789017588,0.45493800147991
0.35737315185959,0.368177322262783
0.13286118831784,0.328456092009395
0.0963669106224064,0.315043006051692
0.134152588801519,0.512937544046762
0.365688703487617,0.351188554994792
0.118143525729194,0.344488648548832
0.112362804417468,0.57749786864772
0.206435237187731,0.43906553893596
0.187240789733957,0.410283395534958
0.346119383905925,0.540320617432797
0.302790404676715,0.542861470400313
0.1020830142861,0.300632697698028
0.116333891159309,0.292977002304735
0.154215343646905,0.48343956167442
0.214023980018965,0.404994463328094
0.231663240294559,0.442692067556974
0.208949155533964,0.397577424236951
0.184606429374826,0.353717030739087
0.307717639101155,0.482396181931797
0.20162921107834,0.386681732924827
0.117993486951181,0.446954853614296
0.27074718612897,0.532258811346104
0.18930202101347,0.369956477849167
0.192404447683895,0.3725796840445
0.163169914877035,0.323299593681853
0.188016942923215,0.365709513918243
0.185878538969139,0.362319346922196
0.183776702229575,0.358959012728435
0.217826656677224,0.325911265364343
0.167537634194141,0.349862350363538
0.177688107275459,0.349056162642599
0.17130853174138,0.37939620382664
0.173807318670707,0.342601878679979
0.216459283275484,0.33660218188814
0.177765290019624,0.375166310646342
0.168248571765589,0.333140188241417
0.163976349734456,0.376670571252927
0.159494305983747,0.346137920747496
0.197681990811067,0.337650945108942
0.161316340068065,0.320931227796628
0.165645163677112,0.340558683587433
0.158051216139951,0.314999496432762
0.111753233581847,0.306867487766455
0.154917432934946,0.309182030368428
0.174624238554083,0.328454588082164
0.131018854746563,0.271418051675554
0.161900985196277,0.348978852575123
0.123629537838569,0.3000694523316
0.147644528467975,0.295133843222142
0.146284223478683,0.292408469426478
0.126664334545913,0.255931921179684
0.143655898986207,0.287041310014128
0.13117904633501,0.285989595723216
0.141148963126885,0.281785038628238
0.107505404041531,0.241191847182262
0.167101623700716,0.316232708889852
0.147849845042704,0.247288826136732
0.182335296852991,0.265705827708692
0.142801950115006,0.260881260191774
0.139794053402328,0.244359366010428
0.1333018864456,0.264251580109986
0.13749160279686,0.268105161573793
0.163719258466554,0.300915491553236
0.165684626297171,0.27076106337495
0.131665635975786,0.251157689880358
0.128545045859683,0.252538233410111
0.141513626394976,0.289376296079554
0.167634308835126,0.27602343038546
0.145298042940994,0.265150371811225
0.125224616886913,0.243645781939874
0.151182080952458,0.222749999264942
0.140464207481319,0.249398478556547
0.123006787502193,0.237251862302772
0.158290472271004,0.238182251463878
0.169111350404802,0.199541893078089
0.111004878631452,0.188743171813845
0.123669242679446,0.232871521144628
0.112842545874153,0.230534193729818
0.0699918607913111,0.248807524820761
0.118699522386719,0.223236989169738
0.167770995778944,0.214384250660031
0.154399844363154,0.246927647733843
0.108546855311977,0.182364476995688
0.136035966816494,0.20237418404847
0.0783337527794502,0.207059687442626
0.115922662405856,0.21221429708681
0.115537911341888,0.210464653894403
0.136372827584751,0.175774979669566
0.0978619811040073,0.224410003581365
0.114512497418449,0.205363987945926
0.077052643045419,0.2405967947137
0.113933766170722,0.202086252685961
0.0736289154077028,0.151392912391032
0.113436615196325,0.19890589636016
0.133265971447862,0.173158218143825
0.113019054077266,0.195822243513908
0.0814605505794951,0.222265685679728
0.154057714878855,0.174875178382714
0.112537589338082,0.191376605711718
0.110861318432235,0.158785035549003
0.112310294778658,0.188531756450402
0.107392177613532,0.207133342249097
0.132910457093999,0.146466219003554
0.0674407398654445,0.152719246803814
0.117889282739422,0.166713806574476
0.0781762794133658,0.143580547497797
0.119288913408024,0.227518468671472
0.112073610917511,0.179313274048524
0.110329339510411,0.179247986735597
0.14793512135483,0.217197852245987
0.0714731542934819,0.176848694677494
0.116796182306175,0.223593588481123
0.0835376478005182,0.206832038812059
0.112514128527413,0.172309574465961
0.0928476406536665,0.188839311801432
0.109176483366471,0.182604950641342
0.125617393625591,0.192084671699977
0.113109552674463,0.168091311835624
0.091306494557309,0.151800596020296
0.113491817216149,0.166115415284023
0.13163430095955,0.18181199687103
0.114274174265805,0.208719479018579
0.11416530656328,0.163316214194975
0.114006092408569,0.123967459787258
0.123555027172203,0.18897413419694
0.112790126233606,0.150203549190466
0.106905897132271,0.191747395512212
0.0994700095974249,0.138865647801591
0.124046323903955,0.110204996423184
0.116169047886543,0.157541261977096
0.101293365545643,0.188237582537579
0.116843742687075,0.156082769023624
0.117196878956031,0.155385015953503
0.129025185325297,0.139752334576959
0.117933485220074,0.154052074467356
0.135581189936487,0.163250526140595
0.134742446823894,0.143575284194346
0.162810945837006,0.158759614910256
0.119521066189725,0.15163408602029
0.157194520995914,0.118466408480352
0.0770462270007437,0.175970269303151
0.0823598464566319,0.198408812268471
0.10434879575966,0.136501728029844
0.159545548269375,0.182482362573575
0.115314849177911,0.163190849015345
0.110138294247129,0.19623820694751
0.123097970191526,0.147770774497863
0.123577894866257,0.147377401515534
0.0871490772150458,0.163254708665925
0.124556881840652,0.146649420772762
0.0753139357858758,0.150221891258602
0.0938944453916727,0.1426103835324
0.155947510522976,0.132977705626387
0.165397479128855,0.17687107733925
0.121621019275877,0.13870193416655
0.127629030001375,0.144929521228014
0.138921717129271,0.144747941960094
0.128691507074159,0.144508650758904
0.142525051531974,0.154673438842898
0.0838317890856403,0.189410169966287
0.130314406576998,0.144017925722945
0.130862160240592,0.143891501161706
0.109776705970671,0.148395301567431
0.0876817988461438,0.152850034380993
0.132522299487835,0.143622496784655
0.143104486547346,0.107450930366433
0.0951300500054452,0.154547929624
0.13420253127254,0.14351712329924
0.143844295853426,0.173711778216658
0.141709445315021,0.187139704821896
0.135896137933986,0.143573101046136
0.121701424880708,0.105024727149208
0.144571514386867,0.12366117771046
0.137596401811455,0.143788150366019
0.138163474741454,0.143894788695896
0.138730292153127,0.144018763917687
0.120955844312173,0.130882690453387
0.103736266800013,0.151449777712465
0.178150252558751,0.170249547851645
0.19009714412247,0.174640817483059
0.143925796840233,0.147481102057616
0.170485325879811,0.188119516442436
0.0984345214090279,0.10740241727674
0.184241873494206,0.149848984556539
0.151459823172935,0.148915977704132
0.16571149457069,0.100542054584914
0.117298316423756,0.16398253882791
0.178581289267562,0.180108722276365
0.145962461313906,0.147169682483867
0.0986786235758158,0.152050652448075
0.184535899151644,0.154174718874352
0.150769163453491,0.167095137881398
0.148086004468415,0.148697072710662
0.170494419188373,0.139338151238248
0.17622987848028,0.124882461801358
0.126578714959303,0.195623346432557
0.166765622616896,0.109442526289051
0.128706769530489,0.141364721394602
0.118635268920849,0.179653622128671
0.106525213994877,0.182685191943638
0.139751402369518,0.14423412555741
0.152562781756593,0.153050770081101
0.120221876502684,0.121983105828864
0.178141502582868,0.18784628263178
0.153938480510768,0.154776072270277
0.124501998803269,0.120634558000883
0.124785731028636,0.118752377731125
0.155244702992801,0.156634609893425
0.200568247216998,0.206457930510607
0.170230062685002,0.112329913767111
0.198447368825074,0.160129249851034
0.170191178064247,0.161532698135984
0.157249103248729,0.160022059673534
0.157621848497555,0.160742272804343
0.157984634940348,0.161476529985819
0.112213260561708,0.149067218988055
0.158679336198837,0.162986838773464
0.182771707078888,0.180195112599905
0.169799535463269,0.201691286079723
0.183502108377807,0.12328170815677
0.127779676062113,0.175226501938374
0.148194137466513,0.1876049858607
0.1807351921278,0.128022477798439
0.160760514282895,0.16870289564767
0.161010028541661,0.169572949585336
0.188078136299626,0.190155400053262
0.173163549228918,0.160599538959475
0.172135863741796,0.160345818400574
0.161878641246516,0.173183474023442
0.140679106363093,0.15480178491179
0.187412468120163,0.191911999968827
0.162387217765472,0.176025827382688
0.114219484741353,0.184881396063396
0.170834883008746,0.130540003403802
0.133145082097729,0.14504800078137
0.116587104083334,0.224819182426995
0.168489082684623,0.154130185613927
0.163007847486785,0.182046409942007
0.162020262748479,0.190557400020417
0.158475088118451,0.217562202453671
0.194383278646854,0.183033897487893
0.163106316797497,0.18630161114236
0.16308924295829,0.187394822420802
0.16055629968836,0.16222076664388
0.191797916088419,0.198896873022353
0.138301348231682,0.150411414161963
0.202470985084708,0.183509803307293
0.189437871924358,0.171793385597355
0.186055142111146,0.153140053731025
0.162474919162844,0.195367247962868
0.204182400790184,0.170322758816256
0.168771139481704,0.18177605861591
0.198283129682573,0.19632313705075
0.182215650716958,0.1526504338489
0.203722264625327,0.1566043696537
0.111493217965677,0.231903671306684
0.191104125421555,0.209400361166226
0.160632917560558,0.205137173096996
0.16031120231145,0.206405780999229
0.159968332155109,0.20768463351992
0.199525064572423,0.187839408488002
0.191965468298565,0.259995167828007
0.158810304220189,0.211581814474479
0.1727804688894,0.242952720513621
0.154324299482621,0.215550929883194
0.189318424989278,0.236981270425202
0.156955004269246,0.216916358208152
0.156433937974069,0.218274128130748
0.19658837864589,0.222423323466319
0.162477529652404,0.247260404187898
0.127930200544066,0.214390716061566
0.154113243496125,0.223799210823032
0.153472718541086,0.225203560087445
0.195361827482206,0.202564264807529
0.127085632463744,0.19515597679315
0.108122473182155,0.206866612509818
0.15066174931125,0.230910738555658
0.102653459670565,0.251451312481371
0.144923541101098,0.201108285767073
0.168817765871769,0.28294288644933
0.154407602685219,0.220611719157479
0.146569421433509,0.238240387427674
0.145671318990079,0.239731562988708
0.154758457798644,0.199636684421378
0.143793486817345,0.242738484442795
0.142813259483544,0.244254061472193
0.160057718293317,0.201994367855286
0.100810590683685,0.286199610579635
0.151686733368607,0.246450616767264
0.0927613637165483,0.21456222198974
0.170701159036431,0.264848220909933
0.136337863474975,0.253511832676455
0.171764981553771,0.234146160894511
0.089080189496196,0.268566718533509
0.132707091651499,0.258242546078585
0.177859385964356,0.220061833498709
0.0977904390200794,0.254634185405885
0.17577597603181,0.26231238431441
0.10413789996408,0.310782153330135
0.126050252151823,0.266270044111625
0.125432009388753,0.244902307168159
0.132979228964728,0.234420844845399
0.121681869276736,0.271168613348763
0.155111022712159,0.22400518459623
0.148745852779705,0.301884694471673
0.117024566545973,0.276125949148601
0.128916857066584,0.246188277193321
0.0711493718278689,0.2360097748387
0.134479216986614,0.25582793469656
0.119534815790226,0.272472063145712
0.108602105706059,0.284512576175918
0.0870651536607455,0.250677131155328
0.0661927109494028,0.244667587406878
0.103141508129974,0.289615477808479
0.15092221013058,0.259761705071008
0.0993273292617113,0.29304555728981
0.0973673592755716,0.294768787252883
0.114612774407364,0.254936288811715
0.116125788232418,0.270986369851589
0.0579679018017922,0.298773376396232
0.0891691369318162,0.301714338511923
0.0870287517348337,0.303463462019237
0.0716697506110207,0.324160860413035
0.0826372441918737,0.306976400842141
0.0961501357455891,0.287338277796865
0.0780964284352613,0.310508365863901
0.0939144049651748,0.344013899236209
0.0734043140470052,0.314058681629903
0.0710008978603885,0.315840509962428
0.0442003106741922,0.346008747593426
0.0660781034909334,0.31941708536739
0.0635582277035972,0.321211663576174
0.0243360234263469,0.34126273088644
0.0584002749124628,0.324812978847212
0.0557617003041668,0.326619547045813
0.0752784087282554,0.314120078516228
0.0268685779997807,0.3652549308828
0.00563827560972745,0.322479714871121
0.0420944703243297,0.381600056980868
3.27055145173602e-05,0.334260907796172
0.0407989331013425,0.31215697749343
0.0623563566224691,0.32564954494378
0.0722478344663678,0.297784116205093
0.0301817980428382,0.343040779996852
-0.000950728549644647,0.335158478398031
0.058381785445595,0.325528621304487
0.0209026650656481,0.348572786296823
