0.680306184715842,0.436418131714275
0.0503459568587583,0.856036676014996
0.885387878068335,0.869858643338757
-0.0181833081925438,0.735317286604652
-0.921754494453422,0.600775929870546
0.581758081497076,0.621925771654783
-0.339817252298621,-0.452303776509195
