-0.884542324644083,-0.442320961565297
-0.880384096120845,-0.434979070297879
-0.876196862343061,-0.427661269025239
-0.871980872150817,-0.420367557401064
-0.867736374384202,-0.413097935079041
-0.863463617883306,-0.405852401712856
-0.859162851488215,-0.398630956956195
-0.854834324039018,-0.391433600462745
-0.850478284375805,-0.384260331886192
-0.846094981338662,-0.377111150880221
-0.841684663767677,-0.369986057098521
-0.837247580502941,-0.362885050194776
-0.83278398038454,-0.355808129822673
-0.828294112252564,-0.348755295635898
-0.823778224947099,-0.341726547288138
-0.819236567308235,-0.334721884433079
-0.81466938817606,-0.327741306724408
-0.810076936390662,-0.32078481381581
-0.80545946079213,-0.313852405360972
-0.800817210220551,-0.30694408101358
-0.796150433516015,-0.300059840427322
-0.791459379518609,-0.293199683255881
-0.786744297068422,-0.286363609152946
-0.782005435005541,-0.279551617772203
-0.777243042170056,-0.272763708767337
-0.772457367402055,-0.265999881792036
-0.767648659541625,-0.259260136499985
-0.762817167428856,-0.25254447254487
-0.757963139903835,-0.245852889580379
-0.753086825806651,-0.239185387260197
-0.748188473977391,-0.232541965238011
-0.743268333256145,-0.225922623167507
-0.738326652483001,-0.219327360702371
-0.733363680498047,-0.21275617749629
-0.728379666141371,-0.206209073202949
-0.723374858253061,-0.199686047476036
-0.718349505673207,-0.193187099969236
-0.713303857241895,-0.186712230336237
-0.708238161799215,-0.180261438230723
-0.703152668185255,-0.173834723306382
-0.698047625240102,-0.1674320852169
-0.692923281803847,-0.161053523615963
-0.687779886716575,-0.154699038157257
-0.682617688818376,-0.148368628494469
-0.677436936949339,-0.142062294281285
-0.672237879949551,-0.135780035171391
-0.667020766659101,-0.129521850818474
-0.661785845918077,-0.12328774087622
-0.656533366566567,-0.117077704998315
-0.651263577444661,-0.110891742838446
-0.645976727392444,-0.104729854050299
-0.640673065250008,-0.0985920382875599
-0.635352839857439,-0.0924782952039154
-0.630016300054825,-0.0863886244530517
-0.624663694682256,-0.0803230256886552
-0.619295272579819,-0.074281498564412
-0.613911282587604,-0.0682640427340087
-0.608511973545697,-0.0622706578511315
-0.603097594294187,-0.0563013435694666
-0.597668393673163,-0.0503560995427004
-0.592224620522713,-0.0444349254245193
-0.586766523682926,-0.0385378208686094
-0.581294351993888,-0.0326647855286572
-0.57580835429569,-0.0268158190583489
-0.570308779428419,-0.0209909211113709
-0.564795876232163,-0.0151900913414095
-0.559269893547011,-0.00941332940215087
-0.55373108021305,-0.00366063494728142
-0.548179685070371,0.00206799236951244
-0.54261595695906,0.00777255289454452
-0.537040144719205,0.0134530469741285
-0.531452497190896,0.0191094749545781
-0.52585326321422,0.0247418371822069
-0.520242691629266,0.0303501340033286
-0.514621031276123,0.0359343657642571
-0.508988530994877,0.0414945328113058
-0.503345439625618,0.0470306354907885
-0.497692006008435,0.0525426741490189
-0.492028478983414,0.0580306491323108
-0.486355107390645,0.0634945607869778
-0.480672140070216,0.0689344094593335
-0.474979825862215,0.0743501954956917
-0.46927841360673,0.079741919242366
-0.46356815214385,0.0851095810456702
-0.457849290313663,0.0904531812519179
-0.452122076956258,0.0957727202074228
-0.446386760911722,0.101068198258499
-0.440643591020144,0.106339615751459
-0.434892816121613,0.111586973032618
-0.429134685056216,0.116810270448288
-0.423369446664041,0.122009508344785
-0.417597349785178,0.127184687068421
-0.411818643259714,0.132335806965509
-0.406033575927738,0.137462868382365
-0.400242396629338,0.142565871665301
-0.394445354204602,0.147644817160631
-0.388642697493619,0.152699705214669
-0.382834675336476,0.157730536173728
-0.377021536573263,0.162737310384122
-0.371203530044067,0.167720028192166
-0.365380904588977,0.172678689944172
-0.359553909048082,0.177613295986454
-0.353722792261468,0.182523846665326
-0.347887803069225,0.187410342327102
-0.342049190311441,0.192272783318095
-0.336207202828205,0.197111169984619
-0.330362089459604,0.201925502672988
-0.324514099045726,0.206715781729515
-0.318663480426661,0.211482007500514
-0.312810482442497,0.216224180332299
-0.306955353933321,0.220942300571183
-0.301098343739222,0.225636368563481
-0.295239700700288,0.230306384655505
-0.289379673656608,0.23495234919357
-0.28351851144827,0.239574262523989
-0.277656462915362,0.244172124993076
-0.271793776897973,0.248745936947145
-0.265930702236191,0.253295698732509
-0.260067487770103,0.257821410695481
-0.254204382339799,0.262323073182377
-0.248341634785367,0.266800686539509
-0.242479493946895,0.271254251113191
-0.236618208664471,0.275683767249736
-0.230758027778183,0.280089235295459
-0.224899200128121,0.284470655596673
-0.219041974554371,0.288828028499692
-0.213186599897023,0.293161354350829
-0.207333324996165,0.297470633496399
-0.201482398691885,0.301755866282714
-0.195634069824271,0.306017053056089
-0.189788587233412,0.310254194162837
-0.183946199759396,0.314467289949272
-0.178107156242311,0.318656340761708
-0.172271705522246,0.322821346946458
-0.166440096439288,0.326962308849836
-0.160612577833527,0.331079226818155
-0.15478939854505,0.33517210119773
-0.148970807413945,0.339240932334875
-0.143157053280302,0.343285720575901
-0.137348384984208,0.347306466267124
-0.131545051365752,0.351303169754858
-0.125747301265022,0.355275831385415
-0.119955383522105,0.35922445150511
-0.114169546977092,0.363149030460255
-0.108390040470069,0.367049568597166
-0.102617112841125,0.370926066262156
-0.0968510129303487,0.374778523801537
-0.0910919895778279,0.378606941561625
-0.0853402916236513,0.382411319888732
-0.0795961679079068,0.386191659129172
-0.073859867270683,0.38994795962926
-0.0681316385520679,0.393680221735308
-0.0624117305921501,0.397388445793631
-0.0567003922310178,0.401072632150541
-0.0509978723087591,0.404732781152354
-0.0453044196654624,0.408368893145382
-0.0396202831412163,0.411980968475939
-0.0339457115761087,0.415569007490339
-0.028280953810228,0.419133010534895
-0.0226262586836626,0.422672977955922
-0.0169818750365008,0.426188910099732
-0.0113480517088308,0.42968080731264
-0.00572503754074086,0.43314866994096
-0.000113081372319246,0.436592498331004
0.00548756795634545,0.440012292829087
0.0110766616051651,0.443408053781523
0.0166539507340517,0.446779781534624
0.0222191865029165,0.450127476434705
0.0277721200716715,0.45345113882808
0.0333125026002281,0.456750769061062
0.0388400852484984,0.460026367479964
0.044354619176394,0.463277934431101
0.0498558555438263,0.466505470260787
0.0553435455107072,0.469708975315334
0.0608174402369486,0.472888449941056
0.066277290882462,0.476043894484268
0.071722848607159,0.479175309291283
0.0771538645709515,0.482282694708414
0.0825700899337512,0.485366051081976
0.0879712758554697,0.488425378758282
0.0933571734960187,0.491460678083645
0.09872753401531,0.49447194940438
0.104082108573255,0.4974591930668
0.109420648329766,0.500422409417218
0.114742904444754,0.50336159880195
0.120048628078132,0.506276761567307
0.12533757038981,0.509167898059604
0.1306094825397,0.512035008625154
0.135864115687715,0.514878093610272
0.141101220993766,0.517697153361271
0.146320549617764,0.520492188224464
0.151521852719622,0.523263198546166
0.15670488145925,0.526010184672689
0.161869386996561,0.528733146950348
0.167015120491467,0.531432085725457
0.172141833103879,0.534107001344328
0.177249275993708,0.536757894153276
0.182337200320867,0.539384764498615
0.187405357245267,0.541987612726658
0.192453497926821,0.544566439183718
0.197481373525438,0.54712124421611
0.202488735201033,0.549652028170147
0.207475334113515,0.552158791392143
0.212440921422797,0.554641534228412
0.21738524828879,0.557100257025267
0.222308065871407,0.559534960129021
0.227209125330558,0.561945643885989
0.232088177826156,0.564332308642485
0.236944974518112,0.566694954744822
0.241779266566338,0.569033582539313
0.246590805130746,0.571348192372272
0.251379341371247,0.573638784590014
0.256144626447753,0.575905359538852
0.260886411520176,0.578147917565098
0.265604447748428,0.580366459015068
0.270298486292419,0.582560984235075
0.274968278312063,0.584731493571432
0.27961357496727,0.586877987370454
0.284234127417953,0.589000465978453
0.288829686824022,0.591098929741744
0.29340000434539,0.59317337900664
0.297944831141969,0.595223814119455
0.302463918373669,0.597250235426503
0.306957017200404,0.599252643274097
0.311423878782084,0.601231038008551
0.315864254278621,0.603185419976179
0.320277894849928,0.605115789523294
0.324664551655914,0.60702214699621
0.329023975856494,0.608904492741241
0.333355918611577,0.610762827104701
0.337660131081076,0.612597150432903
0.341936364424902,0.61440746307216
0.346184369802968,0.616193765368787
0.350403898375184,0.617956057669097
0.354594701301463,0.619694340319404
0.358756529741716,0.621408613666022
0.362889134855856,0.623098878055264
0.366992267803793,0.624765133833444
0.371065679745439,0.626407381346876
0.375109121840706,0.628025620941873
0.379122345249506,0.629619852964749
0.383105101131751,0.631190077761818
0.387057140647352,0.632736295679393
0.39097821495622,0.634258507063788
0.394868075218269,0.635756712261317
0.398726472593408,0.637230911618294
0.402553158241551,0.638681105481031
0.406347883322608,0.640107294195844
0.410110398996492,0.641509478109045
0.413840456423114,0.642887657566949
0.417537806762386,0.644241832915868
0.421202201174219,0.645572004502117
0.424833390818525,0.646878172672009
0.428431126855217,0.648160337771858
0.431995160444205,0.649418500147978
0.435525242745401,0.650652660146683
0.439021124918718,0.651862818114285
0.442482558124066,0.653048974397099
0.445909293521358,0.654211129341439
0.449301082270504,0.655349283293617
0.452657675531418,0.656463436599949
0.45597882446401,0.657553589606747
0.459264280228193,0.658619742660325
0.462513793983877,0.659661896106998
0.465727116890976,0.660680050293077
0.468904000109399,0.661674205564878
0.47204419479906,0.662644362268714
0.475147452119869,0.663590520750899
0.478213523231739,0.664512681357746
0.481242159294582,0.665410844435569
0.484233111468308,0.666285010330681
0.487186130912829,0.667135179389398
0.490100968788058,0.667961351958031
0.492977376253906,0.668763528382895
0.495815104470285,0.669541709010303
0.498613904597106,0.67029589418657
0.501373527794282,0.671026084258008
0.504093725221723,0.671732279570932
0.506774248039341,0.672414480471655
0.509414847407049,0.673072687306492
0.512015274484758,0.673706900421754
0.51457528043238,0.674317120163757
0.517094616409825,0.674903346878814
0.519573033577007,0.675465580913239
0.522010283093837,0.676003822613345
0.524406116120226,0.676518072325446
0.526760283816086,0.677008330395856
0.52907253734133,0.677474597170888
0.531342627855867,0.677916872996857
0.533570306519611,0.678335158220075
0.535755324492474,0.678729453186857
0.537897432934365,0.679099758243515
0.539996383005198,0.679446073736365
0.542051925864885,0.67976840001172
0.544063812673335,0.680066737415892
0.546031794590463,0.680341086295197
0.547955622776179,0.680591446995947
0.549835048390394,0.680817819864457
0.551669822593022,0.681020205247039
0.553459696543972,0.681198603490008
0.555204421403158,0.681353014939678
0.55690374833049,0.681483439942361
0.558557428485881,0.681589878844373
0.560165213029242,0.681672331992026
0.561726853120485,0.681730799731634
0.563242099919521,0.681765282409511
0.564710704586262,0.68177578037197
0.566132418280621,0.681762293965326
0.567506992162508,0.681724823535891
0.568834177391836,0.681663369429981
0.570113725128515,0.681577931993907
0.571345386532459,0.681468511573984
0.572528912763577,0.681335108516526
0.573664054981783,0.681177723167847
0.574750564346988,0.680996355874259
0.575788192019104,0.680791006982077
0.576776689158041,0.680561676837615
0.577715806923713,0.680308365787185
0.578605296476031,0.680031074177103
0.579444908974906,0.679729802353681
0.580234395580249,0.679404550663233
0.580973507451974,0.679055319452073
0.581661995749992,0.678682109066514
0.582299611634213,0.678284919852871
0.582886106264551,0.677863752157457
0.583421230800916,0.677418606326585
0.58390473640322,0.67694948270657
0.584336374231375,0.676456381643725
0.584715895445294,0.675939303484363
0.585043051204886,0.675398248574799
0.585317592670065,0.674833217261345
0.585539271000741,0.674244209890317
0.585707837356828,0.673631226808027
0.585823042898235,0.672994268360789
0.585884638784875,0.672333334894917
0.58589237617666,0.671648426756724
0.585846006233502,0.670939544292525
0.585745280115311,0.670206687848632
0.585589948982,0.66944985777136
0.585379763993481,0.668669054407023
0.585114476309665,0.667864278101933
0.584793837090464,0.667035529202405
0.584417597495789,0.666182808054752
0.583985508685553,0.665306115005289
0.583497321819667,0.664405450400328
0.582952788058042,0.663480814586183
0.582351658560591,0.662532207909168
0.581693684487225,0.661559630715598
0.580978616997855,0.660563083351785
0.580206207252395,0.659542566164042
0.579376206410754,0.658498079498685
0.578488365632846,0.657429623702027
0.577542436078581,0.65633719912038
0.576538168907871,0.65522080610006
0.575475315280628,0.654080444987379
0.574353626356765,0.652916116128651
0.573172853296191,0.65172781987019
0.57193274725882,0.65051555655831
0.570633059404563,0.649279326539325
0.569273540893331,0.648019130159547
0.567853942885036,0.646734967765291
0.566374016539591,0.645426839702871
0.564833513016906,0.644094746318599
0.563232183476893,0.642738687958791
0.561569779079465,0.641358664969759
0.559846050984532,0.639954677697817
0.558060750352007,0.638526726489279
0.556213628341801,0.637074811690459
0.554304436113826,0.63559893364767
0.552332924827993,0.634099092707226
0.550298845644215,0.63257528921544
0.548201949722403,0.631027523518627
0.546041988222469,0.6294557959631
0.543818712304324,0.627860106895172
0.54153187312788,0.626240456661158
0.539181221853049,0.624596845607371
0.536766509639742,0.622929274080125
0.534287487647872,0.621237742425733
0.531743907037349,0.619522250990509
0.529135518968087,0.617782800120767
0.526462074599995,0.616019390162821
0.523723325092987,0.614232021462984
0.520919021606973,0.612420694367569
0.518048915301866,0.610585409222892
0.515112757337577,0.608726166375264
0.512110298874018,0.606842966171001
0.5090412910711,0.604935808956415
0.505905485088736,0.603004695077821
0.502702632086837,0.601049624881532
0.499432483225314,0.599070598713861
0.49609478966408,0.597067616921123
0.492689302563046,0.595040679849631
0.489215773082123,0.592989787845698
0.485673952381224,0.590914941255639
0.482063591620261,0.588816140425768
0.478384441959144,0.586693385702397
0.474636254557786,0.584546677431841
0.470818780576098,0.582376015960413
0.466931771173992,0.580181401634427
0.46297497751138,0.577962834800196
0.46297497751138,0.577962834800196
0.45899665384823,0.575714034081699
0.455045112894256,0.573428975394055
0.451120193483987,0.571108045020292
0.447221734451953,0.568751629243436
0.443349574632684,0.566360114346514
0.439503552860708,0.563933886612552
0.435683507970556,0.561473332324578
0.431889278796756,0.558978837765619
0.42812070417384,0.556450789218701
0.424377622936335,0.553889572966851
0.420659873918771,0.551295575293096
0.416967295955679,0.548669182480463
0.413299727881587,0.546010780811979
0.409657008531025,0.543320756570671
0.406038976738523,0.540599496039565
0.40244547133861,0.537847385501688
0.398876331165815,0.535064811240067
0.395331395054669,0.53225215953773
0.3918105018397,0.529409816677702
0.388313490355439,0.526538168943011
0.384840199436414,0.523637602616683
0.381390467917156,0.520708503981746
0.377964134632193,0.517751259321226
0.374561038416056,0.51476625491815
0.371181018103273,0.511753877055546
0.367823912528375,0.508714512016438
0.364489560525891,0.505648546083856
0.36117780093035,0.502556365540825
0.357888472576282,0.499438356670373
0.354621414298216,0.496294905755525
0.351376464930682,0.49312639907931
0.34815346330821,0.489933222924754
0.344952248265329,0.486715763574883
0.341772658636568,0.483474407312725
0.338614533256458,0.480209540421306
0.335477710959527,0.476921549183654
0.332362030580305,0.473610819882795
0.329267330953321,0.470277738801756
0.326193450913106,0.466922692223563
0.323140229294188,0.463546066431245
0.320107504931098,0.460148247707827
0.317095116658364,0.456729622336336
0.314102903310516,0.4532905765998
0.311130703722085,0.449831496781244
0.308178356727598,0.446352769163697
0.305245701161586,0.442854780030185
0.302332575858579,0.439337915663734
0.299438819653105,0.435802562347371
0.296564271379695,0.432249106364124
0.293708769872878,0.428677933997019
0.290872153967183,0.425089431529083
0.28805426249714,0.421483985243344
0.285254934297278,0.417861981422826
0.282474008202127,0.414223806350559
0.279711323046217,0.410569846309568
0.276966717664077,0.40690048758288
0.274240030890236,0.403216116453522
0.271531101559225,0.399517119204522
0.268839768505572,0.395803882118905
0.266165870563807,0.392076791479699
0.26350924656846,0.38833623356993
0.260869735354059,0.384582594672626
0.258247175755136,0.380816261070813
0.255641406606219,0.377037619047518
0.253052266741837,0.373247054885768
0.250479594996521,0.36944495486859
0.247923230204799,0.36563170527901
0.245383011201202,0.361807692400057
0.242858776820258,0.357973302514755
0.240350365896498,0.354128921906133
0.237857617264451,0.350274936857216
0.235380369758646,0.346411733651033
0.232918462213613,0.342539698570609
0.230471733463881,0.338659217898972
0.228040022343981,0.334770677919148
0.22562316768844,0.330874464914165
0.22322100833179,0.326970965167049
0.220833383108559,0.323060564960827
0.218460130853278,0.319143650578525
0.216101090400474,0.315220608303172
0.213756100584679,0.311291824417793
0.211425000240422,0.307357685205415
0.209107628202231,0.303418576949065
0.206803823304638,0.299474885931771
0.20451342438217,0.295526998436559
0.202236270269358,0.291575300746455
0.199972199800731,0.287620179144487
0.197721051810819,0.283662019913681
0.195482665134152,0.279701209337065
0.193256878605258,0.275738133697665
0.191043531058667,0.271773179278509
0.188842461328909,0.267806732362622
0.186653508250514,0.263839179233031
0.18447651065801,0.259870906172765
0.182311307385927,0.255902299464848
0.180157737268796,0.25193374539231
0.178015639141145,0.247965630238175
0.175884851837504,0.243998340285471
0.173765214192403,0.240032261817225
0.17165656504037,0.236067781116464
0.169558743215936,0.232105284466215
0.16747158755363,0.228145158149503
0.165394936887982,0.224187788449357
0.16332863005352,0.220233561648803
0.161272505884776,0.216282864030868
0.159226403216277,0.212336081878579
0.157190160882554,0.208393601474963
0.155163617718137,0.204455809103046
0.153146612557553,0.200523091045855
0.151138984235335,0.196595833586418
0.14914057158601,0.19267442300776
0.147151213444108,0.18875924559291
0.145170748644159,0.184850687624893
0.143199016020692,0.180949135386737
0.141235854408237,0.177054975161468
0.139281102641324,0.173168593232114
0.137334599554481,0.1692903758817
0.135396183982239,0.165420709393255
0.133465694759126,0.161559980049804
0.131542970719673,0.157708574134376
0.12962785069841,0.153866877929996
0.127720173529864,0.150035277719691
0.125819778048567,0.146214159786488
0.123926503089047,0.142403910413415
0.122040187485834,0.138604915883497
0.120160670073458,0.134817562479763
0.118287789686448,0.131042236485238
0.116421385159333,0.127279324182949
0.114561295326644,0.123529211855924
0.112707359022909,0.119792285787189
0.110859415082658,0.116068932259771
0.109017302340422,0.112359537556697
0.107180859630728,0.108664487960994
0.105349925788107,0.104984169755688
0.103524339647089,0.101318969223806
0.101703940042202,0.0976692726483766
0.0998885658079766,0.0940354663124248
0.098078055778942,0.0904179364989779
0.0962722487896278,0.086817069491063
0.0944709836745636,0.0832332515717067
0.0926740992682787,0.079666869023936
0.0908814344053028,0.0761183081307776
0.0890928279201653,0.0725879551752585
0.0873081186473958,0.0690761964404055
0.0855271454215238,0.0655834182092456
0.0837497470770788,0.0621100067648053
0.0819757624485904,0.0586563483901116
0.0802050303705881,0.0552228293681916
0.0784373896776014,0.0518098359820719
0.0766726792041597,0.0484177545147793
0.0749107377847927,0.0450469712493408
0.0731514042540299,0.0416978724687832
0.0713945174464008,0.0383708444561334
0.0696399161964349,0.0350662734944181
0.0678874393386616,0.0317845458666643
0.0661369257076107,0.0285260478558987
0.0643882141378115,0.0252911657451484
0.0626411434637936,0.02208028581744
0.0608955525200865,0.0188937943558005
0.0591512801412198,0.0157320776432567
0.057408165161723,0.0125955219628354
0.0556660464161255,0.00948451359756353
0.0539247627389569,0.00639943883046787
0.0521841529647468,0.00334068394457533
0.0504440559280247,0.000308635222912815
0.0487043104633199,-0.00269632105149308
0.0469647554051622,-0.00567379859561518
0.045225229588081,-0.00862341112642681
0.0434855718466059,-0.0115447723609011
0.0417456210152663,-0.0144374960160112
0.0400052159285918,-0.0173011958087303
0.0382641954211119,-0.0201354854560314
0.0365223983273562,-0.0229399786748878
0.0347796634818541,-0.0257142891822726
0.0330358297191352,-0.0284580306951591
0.031290735873729,-0.0311708169305201
0.029544220780165,-0.033852261605329
0.0277961232729727,-0.0365019784365589
0.0260462821866817,-0.039119581141183
0.0242945363558216,-0.0417046834361744
0.0225407246149217,-0.0442568990385062
0.0207846857985116,-0.0467758416651516
0.0190262587411209,-0.0492611250330839
0.0172652822772792,-0.0517123628592759
0.0155015952415157,-0.054129168860701
0.0137350364683603,-0.0565111567543324
0.0119654447923422,-0.0588579402571431
0.0101926590479911,-0.0611691330861063
0.0084165180698366,-0.0634443489581951
0.006636860692408,-0.0656832015903828
0.00485352575023496,-0.0678853046996424
0.00306635207784701,-0.0700502720029471
0.00127517850977365,-0.0721777172172701
-0.000520156119455648,-0.0742672540595844
-0.00231981297531134,-0.0763184962468634
-0.00412395322326382,-0.07833105749608
-0.00593273802878366,-0.0803045515242074
-0.00774632855734132,-0.0822385920482189
-0.00956488597440728,-0.0841327927850876
-0.0113885714454519,-0.0859867674517865
-0.0132175461359459,-0.0878001297652889
-0.0150519712113595,-0.0895724934425679
-0.0168920078371634,-0.0913034722005966
-0.0187378171788279,-0.0929926797563483
-0.0205895604018236,-0.094639729826796
-0.0224473986716208,-0.0962442361289129
-0.0243114931536903,-0.0978058123796721
-0.0261820050135022,-0.0993240722960469
-0.0280590954165273,-0.10079862959501
-0.0299429255282359,-0.102229097993535
-0.0318336565140985,-0.103615091208596
-0.0337314495395856,-0.104956222957164
-0.0356364657701677,-0.106252106956214
-0.0375488663713152,-0.107502356922717
-0.0394688125084986,-0.108706586573649
-0.0413964653471884,-0.109864409625981
-0.0433319860528552,-0.110975439796687
-0.0452755357909692,-0.11203929080274
-0.0472272757270012,-0.113055576361113
-0.0491873670264214,-0.11402391018878
-0.0511559708547004,-0.114943906002713
-0.0531332483773087,-0.115815177519885
-0.0551193607597168,-0.116637338457271
-0.057114469167395,-0.117410002531842
-0.059118734765814,-0.118132783460572
-0.0611323187204441,-0.118805294960435
-0.0631553821967559,-0.119427150748402
-0.0651880863602198,-0.119997964541449
-0.0672305923763064,-0.120517350056547
-0.069283061410486,-0.120984921010669
-0.0713456546282293,-0.12140029112079
-0.0734185331950065,-0.121763074103882
-0.0755018582762883,-0.122072883676918
-0.077595791037545,-0.122329333556872
-0.0797004926442473,-0.122532037460716
-0.0818161242618655,-0.122680609105423
-0.0839428470558702,-0.122774662207968
-0.0860808221917316,-0.122813810485323
-0.0882302108349206,-0.12279766765446
-0.0903911741509074,-0.122725847432354
-0.0925638733051626,-0.122597963535978
-0.0947484694631565,-0.122413629682304
-0.0969451237903598,-0.122172459588306
-0.0991539974522428,-0.121874066970957
-0.101375251614276,-0.121518065547229
-0.10360904744193,-0.121104069034098
-0.105855546100675,-0.120631691148534
-0.108114908755982,-0.120100545607512
-0.110387296573321,-0.119510246128004
-0.112672870718163,-0.118860406426985
-0.114971792355978,-0.118150640221426
-0.117284222652236,-0.117380561228301
-0.119610322772409,-0.116549783164584
-0.121950253881966,-0.115657919747247
-0.124304177146378,-0.114704584693264
-0.126672253731116,-0.113689391719607
-0.129054644801649,-0.11261195454325
-0.131451511523449,-0.111471886881166
-0.133863015061986,-0.110268802450329
-0.136289316582731,-0.10900231496771
-0.138730577251153,-0.107672038150284
-0.141186958232724,-0.106277585715024
-0.143658620692913,-0.104818571378903
-0.146145725797192,-0.103294608858893
-0.148648434711031,-0.101705311871968
-0.1511669085999,-0.100050294135102
-0.153701308629269,-0.0983291693652668
-0.15625179596461,-0.0965415512794363
-0.158818531771393,-0.0946870535945834
-0.161401677215088,-0.0927652900276813
-0.164001393461165,-0.0907758742957032
-0.166617841675096,-0.0887184201156222
-0.16925118302235,-0.0865925412044113
-0.171901578668399,-0.084397851279044
-0.174569189778712,-0.0821339640564931
-0.17725417751876,-0.0798004932537321
-0.179956703054013,-0.0773970525877337
-0.182676927549943,-0.0749232557754716
-0.185415012172019,-0.0723787165339184
-0.188171118085712,-0.0697630485800477
-0.190945406456493,-0.0670758656308323
-0.193738038449831,-0.0643167814032456
-0.196549175231198,-0.0614854096142605
-0.199378977966063,-0.0585813639808506
-0.202227607819899,-0.0556042582199884
-0.205095225958173,-0.0525537060486477
-0.207981993546359,-0.0494293211838011
-0.210888071749925,-0.0462307173424222
-0.213813621734342,-0.0429575082414839
-0.216758804665081,-0.0396093075979595
-0.219723781707612,-0.0361857291288218
-0.222708714027406,-0.0326863865510444
-0.225713762789933,-0.0291108935816002
-0.228739089160664,-0.0254588639374625
-0.231784854305069,-0.0217299113356041
-0.234851219388618,-0.0179236494929987
-0.237938345576783,-0.0140396921266189
-0.241046394035033,-0.0100776529534383
-0.244175525928839,-0.00603714569042976
-0.247325902423672,-0.00191778405456658
-0.250497684685002,0.00228081823717829
-0.253691033878299,0.00655904746783136
-0.256906111169034,0.0109172899204198
-0.260143077722678,0.0153559318779703
-0.2634020947047,0.0198753596235098
-0.266683323280572,0.0244759594400649
-0.269986924615764,0.0291581176106629
-0.273313059875746,0.0339222204183302
-0.276661890225989,0.0387686541460941
-0.280033576831963,0.0436978050769809
-0.283428280859139,0.0487100594940179
-0.286846163472987,0.0538058036802317
-0.290287385838978,0.0589854239186494
-0.293752109122582,0.0642493064922975
-0.29724049448927,0.0695978376842033
-0.300752703104512,0.0750314037773932
-0.304288896133779,0.0805503910548943
-0.307849234742541,0.0861551857997333
-0.311433880096268,0.0918461742949375
-0.315042993360431,0.0976237428235329
-0.318676735700501,0.103488277668547
-0.322335268281948,0.109440165113007
-0.326018752270243,0.115479791439939
-0.329727348830855,0.121607542932369
-0.333461219129256,0.127823805873326
-0.337220524330916,0.134128966545836
-0.341005425601306,0.140523411232925
-0.344816084105895,0.147007526217621
-0.348652661010154,0.15358169778295
-0.352515317479555,0.16024631221194
-0.356404214679567,0.167001755787616
-0.36031951377566,0.173848414793006
-0.364261375933306,0.180786675511137
-0.368229962317975,0.187816924225036
-0.372225434095136,0.194939547217729
-0.376247952430262,0.202154930772243
-0.380297678488822,0.209463461171606
-0.384374773436286,0.216865524698843
-0.388479398438126,0.224361507636983
-0.392611714659811,0.231951796269051
-0.396771883266812,0.239636776878074
-0.4009600654246,0.24741683574708
-0.405176422298645,0.255292359159096
-0.409421115054417,0.263263733397147
-0.413694304857388,0.271331344744261
-0.417996152873027,0.279495579483465
-0.422326820266805,0.287756823897786
-0.426686468204192,0.29611546427025
-0.431075257850659,0.304571886883885
-0.435493350371677,0.313126478021716
-0.439940906932715,0.321779623966772
-0.444418088699245,0.330531711002079
-0.448925056836737,0.339383125410664
-0.453461972510661,0.348334253475552
-0.458028996886488,0.357385481479773
-0.462626291129688,0.366537195706352
-0.467254016405732,0.375789782438316
-0.47191233388009,0.385143627958692
-0.476601404718233,0.394599118550506
-0.481321390085631,0.404156640496787
-0.486072451147755,0.41381658008056
-0.490854749070074,0.423579323584852
-0.495668445018061,0.433445257292691
-0.500513700157184,0.443414767487103
-0.505390675652915,0.453488240451114
-0.510299532670724,0.463666062467753
-0.515240432376082,0.473948619820045
-0.520213535934458,0.484336298791017
-0.525219004511324,0.494829485663698
-0.53025699927215,0.505428566721111
-0.535327681382407,0.516133928246287
-0.540431212007564,0.52694595652225
-0.545567752313093,0.537865037832028
-0.550737463464463,0.548891558458647
-0.555940506627146,0.560025904685135
-0.561177042966612,0.571268462794518
-0.566447233648331,0.582619619069824
-0.571751239837774,0.594079759794078
-0.577089222700411,0.605649271250308
-0.582461343401713,0.617328539721541
-0.587867763107149,0.629117951490803
-0.593308642982192,0.641017892841122
-0.598784144192311,0.653028750055524
-0.604294427902976,0.665150909417036
-0.609839655279659,0.677384757208686
-0.615419987487829,0.689730679713498
-0.621035585692957,0.702189063214502
-0.626686611060514,0.714760293994723
-0.63237322475597,0.727444758337188
-0.638095587944795,0.740242842524925
-0.643853861792461,0.753154932840959
-0.649648207464436,0.766181415568319
-0.655478786126193,0.77932267699003
-0.661345758943201,0.79257910338912
-0.667249287080931,0.805951081048615
-0.673189531704853,0.819438996251543
-0.679166653980439,0.83304323528093
-0.685180815073157,0.846764184419802
-0.69123217614848,0.860602229951188
