0.244977636036418,-0.874745519738757
0.25055282164662,-0.863847003329232
0.256053725241831,-0.853007481266465
0.261480753565829,-0.842226901906672
0.266834313362394,-0.831505213606071
0.272114811375304,-0.820842364720877
0.277322654348339,-0.810238303607307
0.282458249025277,-0.799692978621576
0.287522002149897,-0.789206338119903
0.292514320465978,-0.778778330458502
0.2974356107173,-0.76840890399359
0.30228627964764,-0.758098007081384
0.307066734000778,-0.7478455880781
0.311777380520493,-0.737651595339955
0.316418625950564,-0.727515977223164
0.320990877034769,-0.717438682083944
0.325494540516887,-0.707419658278512
0.329930023140698,-0.697458854163084
0.334297731649981,-0.687556218093876
0.338598072788513,-0.677711698427105
0.342831453300074,-0.667925243518988
0.346998279928444,-0.658196801725739
0.3510989594174,-0.648526321403577
0.355133898510723,-0.638913750908717
0.35910350395219,-0.629359038597376
0.36300818248558,-0.619862132825769
0.366848340854673,-0.610422981950114
0.370624385803248,-0.601041534326627
0.374336724075083,-0.591717738311524
0.377985762413957,-0.582451542261022
0.38157190756365,-0.573242894531337
0.385095566267939,-0.564091743478685
0.388557145270604,-0.554998037459284
0.391957051315425,-0.545961724829348
0.395295691146179,-0.536982753945094
0.398573471506646,-0.52806107316274
0.401790799140605,-0.519196630838501
0.404948080791834,-0.510389375328594
0.408045723204112,-0.501639254989235
0.411084133121219,-0.49294621817664
0.414063717286933,-0.484310213247027
0.416984882445034,-0.47573118855661
0.419848035339299,-0.467209092461607
0.422653582713508,-0.458743873318235
0.42540193131144,-0.450335479482709
0.428093487876874,-0.441983859311245
0.430728659153589,-0.433688961160061
0.433307851885363,-0.425450733385372
0.435831472815976,-0.417269124343396
0.438299928689206,-0.409144082390348
0.440713626248833,-0.401075555882444
0.443072972238635,-0.393063493175902
0.445378373402391,-0.385107842626937
0.44763023648388,-0.377208552591766
0.449828968226881,-0.369365571426606
0.451974975375173,-0.361578847487672
0.454068664672534,-0.353848329131181
0.456110442862745,-0.34617396471335
0.458100716689583,-0.338555702590395
0.460039892896827,-0.330993491118532
0.461928378228257,-0.323487278653977
0.463766579427651,-0.316037013552948
0.465554903238789,-0.30864264417166
0.467293756405448,-0.30130411886633
0.468983545671409,-0.294021385993174
0.470624677780449,-0.286794393908409
0.472217559476349,-0.279623090968251
0.473762597502886,-0.272507425528915
0.47526019860384,-0.26544734594662
0.476710769522989,-0.258442800577581
0.478114717004113,-0.251493737778015
0.479472447790991,-0.244600105904137
0.4807843686274,-0.237761853312165
0.482050886257121,-0.230978928358314
0.483272407423932,-0.224251279398802
0.484449338871612,-0.217578854789844
0.48558208734394,-0.210961602887656
0.486671059584695,-0.204399472048457
0.487716662337655,-0.19789241062846
0.488719302346601,-0.191440366983884
0.489679386355309,-0.185043289470944
0.490597321107561,-0.178701126445857
0.491473513347133,-0.172413826264839
0.492308369817806,-0.166181337284107
0.493102297263358,-0.160003607859876
0.493855702427569,-0.153880586348364
0.494568992054216,-0.147812221105787
0.495242572887079,-0.141798460488361
0.495876851669937,-0.135839252852302
0.496472235146569,-0.129934546553828
0.497029130060753,-0.124084289949153
0.497547943156269,-0.118288431394495
0.498029081176896,-0.112546919246071
0.498472950866412,-0.106859701860095
0.498879958968596,-0.101226727592786
0.499250512227227,-0.0956479448003588
0.499585017386084,-0.0901233018390304
0.499883881188947,-0.0846527470650169
0.500147510379593,-0.0792362288345347
0.500376311701802,-0.0738736955038003
0.500570691899353,-0.0685650954290302
0.500731057716025,-0.0633103769664405
0.500857815895596,-0.0581094884722479
0.500951373181845,-0.0529623783026685
0.501012136318552,-0.0478689948139188
0.501040512049495,-0.0428292863622154
0.501036907118453,-0.0378432013037744
0.501001728269206,-0.0329106879948122
0.500935382245531,-0.0280316947915454
0.500838275791208,-0.0232061700501902
0.500710815650016,-0.0184340621269631
0.500553408565734,-0.0137153193780803
0.50036646128214,-0.00904989015975845
0.500150380543015,-0.00443772282821384
0.499905573092135,0.000121234260337291
0.49963244567328,0.00462703274967835
0.49933140503023,0.00907972428359305
0.499002857906764,0.0134793605058649
0.498647211046659,0.0178259930602777
0.498264871193695,0.0221196735906151
0.497856245091651,0.0263604537406602
0.497421739484306,0.0305483851541972
0.496961761115438,0.0346835194750095
0.496476716728828,0.0387659083468807
0.495967013068252,0.0427956034135944
0.495433056877492,0.0467726563189342
0.494875254900324,0.0506971187066838
0.494294013880528,0.0545690422206267
0.493689740561884,0.0583884785045466
0.49306284168817,0.0621554792022271
0.492413724003165,0.0658700959574517
0.491742794250648,0.0695323804140042
0.491050459174397,0.073142384215668
0.490337125518193,0.0767001590062269
0.489603200025812,0.0802057564294645
0.488849089441036,0.0836592281291643
0.488075200507641,0.08706062574911
0.487281939969408,0.090410000933085
0.486469714570116,0.0937074053248733
0.485638931053542,0.0969528905682582
0.484789996163467,0.100146508307023
0.483923316643668,0.103288310184953
0.483039299237925,0.106378347845829
0.482138350690017,0.109416672933437
0.481220877743723,0.11240333709156
0.480287287142821,0.115338391963981
0.479337985631091,0.118221889194484
0.478373379952311,0.121053880426852
0.47739387685026,0.12383441730487
0.476399883068718,0.12656355147232
0.475391805351463,0.129241334572987
0.474370050442274,0.131867818250654
0.47333502508493,0.134443054149105
0.472287136023209,0.136967093912123
0.471226790000892,0.139439989183492
0.470154393761755,0.141861791606995
0.46907035404958,0.144232552826416
0.467975077608144,0.14655232448554
0.466868971181227,0.148821158228148
0.465752441512606,0.151039105698025
0.464625895346062,0.153206218538955
0.463489739425374,0.155322548394722
0.462344380494318,0.157388146909107
0.461190225296676,0.159403065725897
0.460027680576226,0.161367356488873
0.458857153076747,0.16328107084182
0.457679049542017,0.165144260428521
0.456493776715816,0.16695697689276
0.455301741341922,0.16871927187832
0.454103350164115,0.170431197028986
0.452899009926173,0.17209280398854
0.451689127371875,0.173704144400766
0.450474109245,0.175265269909448
0.449254362289327,0.17677623215837
0.448030293248635,0.178237082791315
0.446802308866703,0.179647873452067
0.44557081588731,0.181008655784409
0.444336221054234,0.182319481432125
0.443098931111255,0.183580402038998
0.441859352802151,0.184791469248813
0.440617892870702,0.185952734705352
0.439374958060686,0.1870642500524
0.438130955115882,0.18812606693374
0.436886290780069,0.189138236993156
0.435641371797026,0.190100811874431
0.434396604910532,0.191013843221348
0.433152396864366,0.191877382677692
0.431909154402306,0.192691481887246
0.430667284268132,0.193456192493794
0.429427193205623,0.194171566141119
0.428189287958557,0.194837654473005
0.426953975270714,0.195454509133236
0.425721661885872,0.196022181765595
0.424492754547809,0.196540724013865
0.423267660000306,0.197010187521831
0.422046784987141,0.197430623933276
0.420830536252093,0.197802084891983
0.419619320538941,0.198124622041737
0.418413544591463,0.19839828702632
0.417213615153439,0.198623131489517
0.416019938968647,0.198799207075111
0.414832922780867,0.198926565426885
0.413652973333878,0.199005258188624
0.412480497371457,0.19903533700411
0.411315901637384,0.199016853517128
0.410159592875439,0.198949859371462
0.4090119778294,0.198834406210894
0.407873463243045,0.198670545679208
0.406744455860154,0.198458329420188
0.405625362424506,0.198197809077617
0.40451658967988,0.19788903629528
0.403418544370054,0.19753206271696
0.402331633238807,0.19712693998644
0.401256263029919,0.196673719747504
0.400192840487168,0.196172453643935
0.399141772354333,0.195623193319518
0.398103465375193,0.195025990418036
0.397078326293528,0.194380896583272
0.396066761853115,0.19368796345901
0.395069178797733,0.192947242689033
0.394085983871163,0.192158785917126
0.393117583817182,0.191322644787072
0.392164385379569,0.190438870942654
0.391226795302104,0.189507516027657
0.390305220328565,0.188528631685863
0.389400067202732,0.187502269561057
0.388511742668382,0.186428481297021
0.387640653469296,0.18530731853754
0.386787206349251,0.184138832926397
0.385951808052028,0.182923076107376
0.385134865321404,0.181660099724261
0.384336784901158,0.180349955420834
0.383557973535071,0.17899269484088
0.382798837966919,0.177588369628182
0.382059784940484,0.176137031426524
0.381341221199542,0.17463873187969
0.380643553487874,0.173093522631462
0.379967188549257,0.171501455325625
0.379312533127472,0.169862581605963
0.378679993966297,0.168176953116258
0.37806997780951,0.166444621500295
0.377482891400892,0.164665638401857
0.37691914148422,0.162840055464728
0.376379134803273,0.160967924332691
0.375863278101831,0.15904929664953
0.375371978123672,0.157084224059029
0.374905641612576,0.155072758204971
0.374464675312321,0.15301495073114
0.374049485966686,0.150910853281319
0.37366048031945,0.148760517499292
0.373298065114391,0.146563995028843
0.37296264709529,0.144321337513754
0.372654633005924,0.142032596597811
0.372374429590073,0.139697823924796
0.372122443591516,0.137317071138494
0.371899081754031,0.134890389882687
0.371704750821397,0.132417831801159
0.371539857537393,0.129899448537695
0.371404808645799,0.127335291736076
0.371300010890393,0.124725413040088
0.371225871014954,0.122069864093514
0.371182795763261,0.119368696540137
0.371171191879092,0.116621962023741
0.371191466106227,0.11382971218811
0.371244025188445,0.110991998677027
0.371329275869525,0.108108873134275
0.371447624893244,0.105180387203639
0.371599479003384,0.102206592528902
0.371785244943721,0.0991875407538483
0.372005329458035,0.0961232835222603
0.372260139290106,0.0930138724779222
0.372550081183712,0.0898593592646174
0.372875561882631,0.08665979552613
0.373236988130643,0.0834152329062431
0.373634766671527,0.0801257230487407
0.374069304249062,0.0767913175974061
0.374541007607026,0.0734120681960232
0.375050283489199,0.0699880264883752
0.375597538639358,0.0665192441182462
0.376183179801285,0.0630057727294194
0.376807613718756,0.0594476639656787
0.377471247135551,0.0558449694708075
0.378174486795449,0.0521977408885897
0.37891773944223,0.0485060298628085
0.37970141181967,0.044769888037248
0.380525910671551,0.0409893670556913
0.38139164274165,0.0371645185619225
0.382299014773747,0.0332953941997248
0.38324843351162,0.0293820456128821
0.384240305699048,0.0254245244451778
0.385275038079811,0.0214228823403957
0.386353037397687,0.0173771709423192
0.387474710396455,0.0132874418947322
0.388640463819893,0.00915374684141801
0.389850704411782,0.00497613742616057
0.391105838915899,0.000754665292743151
0.392406274076024,-0.00351061791505039
0.393752416635936,-0.00781966055343669
0.395144673339413,-0.0121724109786318
0.396583450930235,-0.0165688175468525
0.398069156152179,-0.0210088286143148
0.399602195749026,-0.0254923925372353
0.401182976464555,-0.0300194576718303
0.402811905042543,-0.0345899723743163
0.40448938822677,-0.0392038850009095
0.406215832761015,-0.0438611439078266
0.407991645389057,-0.0485616974512836
0.409817232854674,-0.0533054939874973
0.411693001901646,-0.0580924818726836
0.413619359273751,-0.0629226094630594
0.415596711714769,-0.0677958251148406
0.417625465968478,-0.0727120771842441
0.419706028778657,-0.0776713140274858
0.421838806889086,-0.0826734840007825
0.424024207043542,-0.0877185354603503
0.426262635985805,-0.0928064167624058
0.428554500459655,-0.0979370762631651
0.430900207208869,-0.103110462318845
0.433300162977226,-0.108326523285661
0.435754774508506,-0.113585207519831
0.438264448546488,-0.11888646337757
0.44082959183495,-0.124230239215095
0.443450611117671,-0.129616483388622
0.44612791313843,-0.135045144254369
0.448861904641007,-0.14051617016855
0.451652992369179,-0.146029509487382
0.454501583066726,-0.151585110567083
0.457408083477428,-0.157182921763868
0.460372900345061,-0.162822891433953
0.463396440413407,-0.168504967933555
0.466479110426243,-0.174229099618891
0.469621317127349,-0.179995234846176
0.472823467260503,-0.185803321971628
0.476085967569484,-0.191653309351463
0.479409224798071,-0.197545145341896
0.482793645690044,-0.203478778299144
0.48623963698918,-0.209454156579425
0.489747605439259,-0.215471228538953
0.49331795778406,-0.221529942533946
0.496951100767362,-0.22763024692062
0.500647441132944,-0.233772090055191
0.504407385624584,-0.239955420293876
0.508231340986061,-0.246180185992891
0.512119713961155,-0.252446335508452
0.516072911293643,-0.258753817196776
0.520091339727307,-0.26510257941408
0.524175406005923,-0.271492570516579
0.528325516873271,-0.27792373886049
0.53254207907313,-0.284396032802029
0.536825499349279,-0.290909400697413
0.541176184445497,-0.297463790902859
0.545594541105562,-0.304059151774582
0.550080976073253,-0.310695431668798
0.55463589609235,-0.317372578941726
0.559259707906632,-0.324090541949579
0.563952818259877,-0.330849269048577
0.568715633895863,-0.337648708594933
0.573548561558371,-0.344488808944865
0.578452007991179,-0.35136951845459
0.583426379938066,-0.358290785480323
0.58847208414281,-0.365252558378282
0.593589527349191,-0.372254785504682
0.598779116300988,-0.379297415215739
0.604041257741979,-0.386380395867671
0.609376358415944,-0.393503675816693
0.614784825066661,-0.400667203419023
0.620267064437909,-0.407870927030875
0.625823483273467,-0.415114795008468
0.631454488317115,-0.422398755708016
0.63716048631263,-0.429722757485738
0.642941884003792,-0.437086748697848
0.64879908813438,-0.444490677700563
0.654732505448173,-0.4519344928501
0.660742542688949,-0.459418142502676
0.666829606600488,-0.466941575014505
0.672994103926568,-0.474504738741806
0.679236441410968,-0.482107582040794
0.685557025797467,-0.489750053267686
0.691956263829845,-0.497432100778697
0.69843456225188,-0.505153672930045
0.70499232780735,-0.512914718077946
0.711629967240036,-0.520715184578616
0.718347887293715,-0.528555020788271
0.725146494712167,-0.536434175063129
0.732026196239171,-0.544352595759404
0.738987398618505,-0.552310231233315
0.746030508593948,-0.560307029841077
0.75315593290928,-0.568342939938906
0.760364078308278,-0.576417909883019
0.767655351534723,-0.584531888029633
0.775030159332393,-0.592684822734963
0.782488908445067,-0.600876662355226
0.790032005616523,-0.609107355246638
0.797659857590542,-0.617376849765417
0.805372871110901,-0.625685094267778
0.81317145292138,-0.634032037109937
0.821056009765757,-0.642417626648111
0.829026948387811,-0.650841811238517
0.837084675531322,-0.659304539237371
0.845229597940068,-0.667805759000889
