0.843152474194873,0.0315431843042338
0.849302533175569,0.0562462400022492
0.670935375909957,-0.0254900373139165
0.860591264695846,0.115311933935958
0.704334524366156,0.0509187304875174
0.675256115539989,0.0594730765739678
0.633086545316363,0.0529032988948943
0.597876652452905,0.0951694230106371
0.56797709214157,0.0556603190994028
0.53035036858677,0.0869946892501373
0.618016372598201,0.171760668348511
0.476478312242553,0.0908612794650831
0.521295900308083,0.196638886908567
0.434583254399303,0.0851061104909899
0.383749615370176,0.0727055392479859
0.377520551363255,0.0507914955276808
0.363307749211909,0.0722304827606466
0.296691879462268,0.0841916286536653
0.324678333676744,0.077212935604734
0.307051236817545,0.0797551276085655
0.29050240732243,0.0823131097075214
0.274996740260272,0.0848732416820509
0.257421308122268,0.0918101323907703
0.240946270475615,0.0705955245939259
0.212394963987071,0.118585276926161
0.180758416809666,0.0774250460511661
0.241216547029186,0.0989941643060054
0.226811826383177,0.0944429219220144
0.192716804733174,0.101708583577567
0.281837723670249,0.209084409850125
0.270884492284893,0.212040175146439
0.165802729276282,0.131942944030449
0.135356341037103,0.139591500928692
0.157517210354317,0.110797475754717
0.145678670054127,0.115146180749198
0.147790695418705,0.113302303312338
0.138359029630359,0.134555580716726
0.156375508129704,0.151507045669008
0.136987574182722,0.115507043467247
0.139201440249385,0.148698896861857
0.188111134155099,0.113359420135399
0.130009871089756,0.105202275330523
0.117454487879409,0.133904737694629
0.162027740715002,0.129425155746368
0.135074524053398,0.133263743330708
0.0152672704908907,0.0414380035010107
0.123700930867296,0.109677608421081
0.247280194726254,0.254053538902029
0.109578634373472,0.113579537371934
0.214072099155791,0.223299079774775
0.121311388372677,0.0987394779377792
0.120776801324622,0.0950214040884656
0.111439179541638,0.0720766501493206
0.121792571876205,0.101384303369955
0.118762077863851,0.0812884400793427
0.10539739608792,0.12018195551936
0.144464315395175,0.0504734899488528
0.0741692167758201,0.0498495680073329
0.108977234270576,0.0554280212639179
0.102004327531603,0.0500319585527749
0.109723856716037,0.0409905512262182
0.121752881453573,-0.0355081578635947
0.104860301766328,0.0345640701364429
0.209051662567112,0.0960120908342162
0.0969457454558185,0.00343798345576098
0.0854392886556521,0.00709586817196737
0.0828484648873294,-0.00272470455287976
0.212676888003634,0.0987229148532463
0.0833391293794868,-0.014429611394904
0.0694270923217434,-0.0570604730586801
0.0597326208041286,-0.0498230816463534
0.0391460105627728,-0.0866393799534029
0.0469327578894314,-0.108437515933811
0.0504042183910796,-0.145162727251324
-0.0154760454700498,-0.104537832973051
0.0340134691498893,-0.152254266930142
0.00148491378490584,-0.170121515387468
-0.0109333108504979,-0.184050995604573
-0.0317218337823715,-0.193682470492462
-0.0431761593818401,-0.176320887026055
0.055863323439468,-0.14899135134849
-0.0740245264254278,-0.273457670952049
0.0316001007389746,-0.173786717079363
-0.111670236552685,-0.32050597626014
-0.233450719930998,-0.446685631948714
-0.161380433846662,-0.413147861057527
-0.19296563776187,-0.392044731509584
-0.217872532509529,-0.430168201809448
-0.349259685735234,-0.594940492714583
-0.252385686275363,-0.447659475498885
-0.282079350067981,-0.512892450982572
-0.3036812989091,-0.567648547106091
-0.343568652145059,-0.570081940501057
-0.37562246985646,-0.609360975295754
-0.409795698289912,-0.643486135410662
-0.450095425889254,-0.702350554410594
-0.48284106749952,-0.714771774973553
-0.527516519039708,-0.737733206617903
-0.554509014809661,-0.798783062771371
-0.571106643876678,-0.850840938185784
