-0.787439051055295,-0.200906056910432
-0.781667172191698,-0.200572134250096
-0.77590721411711,-0.200224244938914
-0.770159251086066,-0.199862472692452
-0.764423357353104,-0.199486901226278
-0.758699607172757,-0.199097614255959
-0.752988074799563,-0.198694695497062
-0.747288834488057,-0.198278228665153
-0.741601960492776,-0.1978482974758
-0.735927527068253,-0.197404985644569
-0.730265608469027,-0.196948376887028
-0.724616278949631,-0.196478554918743
-0.718979612764603,-0.195995603455282
-0.713355684168478,-0.195499606212211
-0.707744567415792,-0.194990646905098
-0.70214633676108,-0.194468809249509
-0.696561066458878,-0.193934176961011
-0.690988830763723,-0.193386833755171
-0.68542970393015,-0.192826863347557
-0.679883760212695,-0.192254349453735
-0.674351073865893,-0.191669375789272
-0.668831719144281,-0.191072026069735
-0.663325770302394,-0.190462384010692
-0.657833301594768,-0.189840533327708
-0.652354387275939,-0.189206557736351
-0.646889101600444,-0.188560540952189
-0.641437518822816,-0.187902566690787
-0.635999713197592,-0.187232718667713
-0.630575758979309,-0.186551080598534
-0.625165730422502,-0.185857736198817
-0.619769701781707,-0.185152769184129
-0.614387747311459,-0.184436263270036
-0.609019941266295,-0.183708302172106
-0.603666357900749,-0.182968969605906
-0.591012635290832,-0.226223347331476
-0.609219058877192,-0.164030187195845
-0.587691686427187,-0.180683580253354
-0.582395736325477,-0.179899598969743
-0.579542144129587,-0.153337328756145
-0.614940050914054,-0.162829784472688
-0.566595746752279,-0.177482272638563
-0.58021633194454,-0.189959215171182
-0.554517432004363,-0.185846922486005
-0.581852929380881,-0.16492289404658
-0.560334726136884,-0.140064986578564
-0.544301272942515,-0.178549395732486
-0.535397823807805,-0.172360933215678
-0.548358432223897,-0.183016394295043
-0.526159088238336,-0.123583475947272
-0.484348214727265,-0.144175639557768
-0.514903463313422,-0.168741601719539
-0.519606217624063,-0.152354237643044
-0.504749341615671,-0.166872413580812
-0.493119742707681,-0.141370755248412
-0.512272473613036,-0.172299570456041
-0.489636152982899,-0.163996111984656
-0.48463018550048,-0.163018341144722
-0.500583905785144,-0.199712662585121
-0.481626813875876,-0.174387492729802
-0.473643693970584,-0.146575645169722
-0.490491610907796,-0.127145270924618
-0.467779295335907,-0.15453900275015
-0.46264906927329,-0.136294647512125
-0.450040705454954,-0.155916489086361
-0.445164855407367,-0.154866163924996
-0.440305604184546,-0.153807146193504
-0.435463026041025,-0.152739519607451
-0.430637195231341,-0.151663367882405
-0.42582818601003,-0.150578774733932
-0.421036072631627,-0.1494858238776
-0.416260929350668,-0.148384599028975
-0.41150283042169,-0.147275183903624
-0.406761850099227,-0.146157662217115
-0.402038062637816,-0.145032117685014
-0.397331542291993,-0.143898634022889
-0.392642363316292,-0.142757294946305
-0.387970599965251,-0.141608184170831
-0.383316326493405,-0.140451385412033
-0.37867961715529,-0.139286982385478
-0.374060546205441,-0.138115058806733
-0.369459187898395,-0.136935698391365
-0.364875616488686,-0.135748984854941
-0.360309906230852,-0.134555001913028
-0.355762131379428,-0.133353833281193
-0.351232366188949,-0.132145562675003
-0.346720684913951,-0.130930273810025
-0.342227161808971,-0.129708050401825
-0.337751871128544,-0.128478976165972
-0.333294887127206,-0.127243134818031
-0.328856284059492,-0.12600061007357
-0.324436136179939,-0.124751485648155
-0.320034517743082,-0.123495845257354
-0.315651503003458,-0.122233772616734
-0.311287166215601,-0.120965351441862
-0.306941581634048,-0.119690665448303
-0.302614823513334,-0.118409798351627
-0.298306966107996,-0.117122833867399
-0.294018083672569,-0.115829855711186
-0.289748250461589,-0.114530947598556
-0.285497540729592,-0.113226193245075
-0.281266028731114,-0.111915676366311
-0.277053788720689,-0.11059948067783
-0.272860894952855,-0.109277689895199
-0.268687421682148,-0.107950387733985
-0.264533443163102,-0.106617657909755
-0.260399033650253,-0.105279584138077
-0.256284267398138,-0.103936250134517
-0.252189218661293,-0.102587739614642
-0.248113961694252,-0.101234136294018
-0.244058570751552,-0.0998755238882144
-0.24002312008773,-0.0985119861127962
-0.236007683957319,-0.097143606683331
-0.232012336614857,-0.0957704693153858
-0.228037152314879,-0.0943926577245275
-0.224082205311922,-0.0930102556263229
-0.220147569860519,-0.0916233467363391
-0.216233320215209,-0.0902320147701432
-0.212339530630526,-0.088836343443302
-0.208466275361006,-0.0874364164713824
-0.204613628661185,-0.0860323175699516
-0.200781664785599,-0.0846241304545763
-0.196970457988784,-0.0832119388408237
-0.193180082525275,-0.0817958264442606
-0.189410612649608,-0.080375876980454
-0.18566212261632,-0.0789521741649709
-0.181934686679945,-0.0775248017133783
-0.178228379095021,-0.0760938433412431
-0.174543274116081,-0.0746593827641322
-0.170879445997663,-0.0732215036976128
-0.167236968994302,-0.0717802898572516
-0.163615917360534,-0.0703358249586157
-0.160016365350895,-0.068888192717272
-0.156438387219921,-0.0674374768487875
-0.152882057222147,-0.0659837610687293
-0.149347449612109,-0.0645271290926641
-0.145834638644343,-0.063067664636159
-0.142343698573385,-0.061605451414781
-0.13887470365377,-0.060140573144097
-0.135427728140035,-0.058673113539674
-0.132002846286715,-0.057203156317079
-0.128600132348347,-0.0557307851918789
-0.125219660579465,-0.0542560838796407
-0.121861505234606,-0.0527791360959313
-0.118525740568305,-0.0513000255563177
-0.115212440835099,-0.049818835976367
-0.111921680289523,-0.048335651071646
-0.108653533186113,-0.0468505545577216
-0.105408073779404,-0.0453636301501609
-0.102185376323934,-0.0438749615645309
-0.0989855150742363,-0.0423846325163986
-0.095808564284848,-0.0408927267213307
-0.0926545982103048,-0.0393993278948943
-0.0895236911051424,-0.0379045197526566
-0.0864159172238967,-0.0364083860101842
-0.0833313508211034,-0.0349110103830443
-0.0802700661512983,-0.0334124765868037
-0.0772321374690174,-0.0319128683370296
-0.0742176390287963,-0.0304122693492887
-0.0712266450851708,-0.0289107633391481
-0.068259229892677,-0.0274084340221748
-0.0653154677058503,-0.0259053651139357
-0.0623954327792269,-0.0244016403299978
-0.0594991993673423,-0.022897343385928
-0.0566268417247326,-0.0213925579972933
-0.0537784341059334,-0.0198873678796607
-0.0509540507654806,-0.0183818567485971
-0.0481537659579099,-0.0168761083196695
-0.0453776539377572,-0.0153702063084449
-0.0426257889595584,-0.0138642344304903
-0.0398982452778492,-0.0123582764013725
-0.0371950971471654,-0.0108524159366586
-0.0345164188220428,-0.00934673675191548
-0.0318622845570174,-0.00784132256271018
-0.0292327686066248,-0.00633625708460966
-0.0266279452254009,-0.00483162403318081
-0.0240478886678814,-0.00332750712399068
-0.0214926731886023,-0.00182399007260619
-0.0189623730420993,-0.000321156594594307
-0.0164570624829082,0.001180909594478
-0.0139768157655648,0.00268212477904378
-0.0115217071446051,0.004182405243536
-0.00909181087456463,0.00568166727238776
-0.00668720120997938,0.00717982715003213
-0.00430795240538509,0.00867680116090209
-0.00195413871531766,0.0101725055894306
0.000374165605687191,0.0116668567200509
0.00267688630309365,0.0131597708371958
0.00495394912236591,0.0146511642252985
0.00720527980896798,0.016140953168792
0.00943080410836425,0.0176290539521092
0.0116304477660189,0.0191153828596834
0.013804136527396,0.0205998561759474
0.0159517961379599,0.0220823901853343
0.0180733523431746,0.0235629011722772
0.0201687308885044,0.025041305421209
0.0222378575194136,0.0265175192165629
0.024280657981366,0.0279914588427719
0.0262970580198262,0.0294630405842689
0.0282869833802583,0.0309321807254871
0.0302503598081263,0.0323987955508594
0.0321871130488946,0.0338628013448189
0.0340971688480273,0.0353241143917987
0.0359804529509885,0.0367826509762317
0.0378368911032425,0.0382383273825511
0.0396664090502535,0.0396910598951897
0.0414689325374857,0.0411407647985808
0.0432443873104031,0.0425873583771572
0.0449926991144702,0.0440307569153522
0.0467137936951508,0.0454708766975985
0.0484075967979095,0.0469076340083295
0.0500740341682102,0.0483409451319779
0.0517130315515172,0.049770726352977
0.0533245146932946,0.0511968939557596
0.0549084093390068,0.052619364224759
0.0564646412341177,0.054038053444408
0.0579931361240918,0.0554528778991398
0.059493819754393,0.0568637538733873
0.0609666178704856,0.0582705976515836
0.0624114562178338,0.0596733255181617
0.0638282605419019,0.0610718537575548
0.0652169565881539,0.0624660986541957
0.066577470102054,0.0638559764925176
0.0679097268290665,0.0652414035569535
0.0692136525146556,0.0666222961319363
0.0704891729042853,0.0679985705018992
0.07173621374342,0.0693701429512752
0.0729547007775238,0.0707369297644973
0.0741445597520609,0.0720988472259986
0.0753057164124954,0.0734558116202121
0.0764380965042917,0.0748077392315708
0.0775416257729137,0.0761545463445077
0.0786162299638259,0.077496149243456
0.0796618348224922,0.0788324642128485
0.080678366094377,0.0801634075371185
0.0816657495249444,0.0814888955006988
0.0826239108596586,0.0828088443880226
0.0835527758439838,0.0841231704835228
0.0844522702233841,0.0854317900716326
0.0853223197433238,0.0867346194367848
0.0861628501492671,0.0880315748634127
0.0869737871866781,0.0893225726359492
0.087755056601021,0.0906075290388273
0.08850658413776,0.0918863603564801
0.0892282955423594,0.0931589828733407
0.0899201165602832,0.0944253128738419
0.0905819729369957,0.095685266642417
0.091213790417961,0.0969387604634989
0.0918154947486435,0.0981857106215207
0.0923870116745071,0.0994260334009153
0.0929282669410162,0.100659645086116
0.0934391862936349,0.101886461961555
0.0939196954778275,0.103106400311667
0.094369720239058,0.104319376420884
0.0947891863227907,0.105525306573638
0.0951780194744898,0.106724107054364
0.0955361454396194,0.107915694147494
0.0958634899636437,0.109099984137461
0.0961599787920271,0.110276893308698
0.0964255376702335,0.111446337945639
0.0966600923437273,0.112608234332716
0.0968635685579725,0.113762498754362
0.0970358920584335,0.114909047495011
0.0971769885905743,0.116047796839094
0.0972867838998592,0.117178663071047
0.0973652037317523,0.118301562475301
0.0974121738317179,0.119416411336289
0.0974276199452201,0.120523125938445
0.0974114678177232,0.121621622566201
0.0973636431946912,0.122711817503991
0.0972840718215884,0.123793627036248
0.097172679443879,0.124866967447404
0.0970293918070272,0.125931755021893
0.0968541346564971,0.126987906044148
0.096646833737753,0.128035336798601
0.0964074147962591,0.129073963569687
0.0961358035774794,0.130103702641837
0.0958319258268783,0.131124470299485
0.0954957072899198,0.132136182827064
0.0951270737120683,0.133138756509007
0.0947259508387878,0.134132107629747
0.0942922644155426,0.135116152473717
0.0938259401877968,0.13609080732535
0.0933269039010147,0.137055988469079
0.0927950813006604,0.138011612189337
0.0922303981321982,0.138957594770558
0.0916327801410921,0.139893852497173
0.0910021530728064,0.140820301653617
0.0903384426728053,0.141736858524322
0.089641574686553,0.142643439393722
0.0889114748595136,0.143539960546249
0.0881480689371514,0.144426338266336
0.0873512826649305,0.145302488838417
0.0865210417883151,0.146168328546924
0.0856572720527694,0.14702377367629
0.0847598992037577,0.147868740510949
0.083828848986744,0.148703145335334
0.0828640471471926,0.149526904433877
0.0818654194305677,0.150339934091012
0.0808328915823334,0.151142150591171
0.079766389347954,0.151933470218789
0.0786658384728935,0.152713809258297
0.0775311647026163,0.153483083994128
0.0763622937825865,0.154241210710717
0.0751591514582683,0.154988105692495
0.0739216634751259,0.155723685223896
0.0726497555786234,0.156447865589353
0.0713433535142252,0.1571605630733
0.0700023830273952,0.157861693960168
0.0686267698635978,0.158551174534391
0.067216439768297,0.159228921080402
0.0657713184869573,0.159894849882634
0.0642913317650426,0.16054887722552
0.0627764053480172,0.161190919393494
0.0612264649813452,0.161820892670988
0.059641436410491,0.162438713342434
0.0580212453809185,0.163044297692268
0.0563658176380921,0.16363756200492
0.054675078927476,0.164218422564825
0.0529489549945342,0.164786795656415
0.0511873715847311,0.165342597564124
0.0493902544435307,0.165885744572384
0.0475575293163973,0.166416152965628
0.0456891219487952,0.16693373902829
0.0437849580861882,0.167438419044803
0.041844963474041,0.167930109299599
0.0398690638578173,0.168408726077112
0.0378571849829817,0.168874185661774
0.0358092525949981,0.169326404338019
0.0337251924393309,0.16976529839028
0.0316049302614441,0.17019078410299
0.0294483918068021,0.170602777760581
0.0272555028208688,0.171001195647487
0.0250261890491086,0.171385954048141
0.0227603762369856,0.171756969246976
0.0204579901299642,0.172114157528425
0.0181189564735082,0.172457435176921
0.0157432010130821,0.172786718476897
0.01333064949415,0.173101923712786
0.0108812276621761,0.173402967169021
0.00839486126262441,0.173689765130035
0.00587147604095944,0.173962233880261
0.0033109977426451,0.174220289704133
0.000713352113145813,0.174463848886082
-0.00192153510207449,0.174692827710543
-0.00459373815755136,0.174907142461948
-0.00730333130782085,0.175106709424731
-0.0100503888074185,0.175291444883324
-0.0128349849108805,0.17546126512216
-0.0156571938727422,0.175616086425673
-0.0185170899475399,0.175755825078295
-0.021414747389809,0.175880397364459
-0.0243502404540855,0.1759897195686
-0.0273236433949052,0.176083707975148
-0.030335030466804,0.176162278868539
-0.0333844759243174,0.176225348533204
-0.0364720540219816,0.176272833253576
-0.0395978390143321,0.17630464931409
-0.042761905155905,0.176320712999177
-0.0459643267012358,0.176320940593271
-0.0492051779048606,0.176305248380805
-0.052484533021315,0.176273552646211
-0.055802466305135,0.176225769673924
-0.0591590520108562,0.176161815748375
-0.0625543643930146,0.176081607153999
-0.0659884777061458,0.175985060175227
-0.0694614662047859,0.175872091096493
-0.0729734041434704,0.175742616202231
-0.0765243657767354,0.175596551776873
-0.0801144253591165,0.175433814104851
-0.0837436571451497,0.1752543194706
-0.0874121353893705,0.175057984158552
-0.0911199343463151,0.174844724453141
-0.0948671282705189,0.174614456638798
-0.0986537914165182,0.174367096999958
-0.102479998038848,0.174102561821053
-0.106345822392046,0.173820767386517
-0.110251338730645,0.173521629980782
-0.114196621309184,0.173205065888282
-0.118181744382196,0.172870991393449
-0.122206782204219,0.172519322780716
-0.126271809029787,0.172149976334517
-0.130376899113438,0.171762868339285
-0.134522126709705,0.171357915079452
-0.138707566073127,0.170935032839452
-0.142933291458237,0.170494137903718
-0.147199377119572,0.170035146556683
-0.151505897311668,0.169557975082779
-0.155852926289061,0.16906253976644
-0.160240538306286,0.168548756892099
-0.16466880761788,0.168016542744188
-0.169137808478377,0.167465813607142
-0.173647615142315,0.166896485765393
-0.178198301864227,0.166308475503373
-0.182789942898652,0.165701699105517
-0.187422612500124,0.165076072856256
-0.192096384923178,0.164431513040025
-0.196811334422352,0.163767935941256
-0.201567535252181,0.163085257844382
-0.206365061667199,0.162383395033836
-0.211203987921945,0.161662263794052
