-0.204120618776422,0.969391948635119
-0.229913173856545,-0.0774088794643455
0.175153422561307,-0.659985409910032
0.508110038085277,-0.888856387296492
0.841066653609247,-1.11772736468295
0.872699778878832,-0.0293911923169907
-0.797236600610554,-0.270185078676568
