0.0116459793455198,0.259591031648925
0.12856136740243,0.381657065044019
0.026326158647733,0.258215047222686
0.0244910067596952,0.263465301883318
0.0459503964027562,0.265462578412388
0.0474257520675936,0.272559010483509
0.0312052501185766,0.265601956422704
0.0334455347775361,0.266254173370229
0.0267241427241492,0.243428571365468
0.0379283078145576,0.267469404570868
0.145704255698903,0.36503022891587
0.0390757599106735,0.269894669421102
0.044655222693107,0.269071242520782
0.0468975280121641,0.269546785579804
0.0697728007697901,0.272387444501654
0.0504653372587767,0.262843745540831
0.0691910796068674,0.271814977936764
0.0558618551310031,0.271160494990001
-0.0492820621726311,0.156653908913071
0.0637204826146759,0.292156853916414
0.0593594534721915,0.261183259078102
0.0648095388788526,0.272319057110722
0.168918849373282,0.363391230441379
0.0817611700923957,0.309787099879686
0.0381401311765012,0.271491475473503
0.0737288289634903,0.273030996251229
0.071202220416151,0.249514147767394
0.100976260236752,0.299512973906003
0.0792034224845657,0.264613359351299
0.082607975092694,0.273304836720784
0.100255856867441,0.277309017716477
0.0379552292503347,0.287733900850909
0.0892339216836784,0.273227842724929
0.183809468678405,0.384068183862714
0.115772230652172,0.289337929158109
0.126756738878771,0.289289680955857
0.0910693433731912,0.258910624142568
0.100198834315911,0.272572318884088
0.0728507748743941,0.273238050030323
0.110313039162677,0.294247760417785
0.106722704557703,0.271868544733552
0.10888704682548,0.271583009196362
0.00616923278170239,0.160910472131052
0.210376389091522,0.368007364229311
0.0849571029468491,0.258491434886874
0.10678975830797,0.271753087861418
0.124871509644021,0.256390864002154
0.137833777962246,0.271231605094062
0.126922376819579,0.277811022524849
0.103027364630922,0.251736684872016
0.151570212130373,0.263477186041464
0.100711269579554,0.268837876002498
0.147580082699888,0.275686948266592
0.24151368508857,0.384793146720913
0.123403639711655,0.256493818478289
0.111068025402561,0.24723499689869
0.0367111345967302,0.158736674978191
0.14536992318558,0.243740220884083
0.144697723900519,0.262974326295523
0.166251071597691,0.239030189995758
0.150085019626034,0.249436811907048
0.142100555015623,0.28381943975224
0.142544522541166,0.250456773542427
0.165954820918806,0.254040770403003
0.156792062598256,0.258316248386579
0.26476261023755,0.367292293246069
0.136815141615799,0.264074877626348
0.164993043439398,0.275471694155421
0.16466401641021,0.254765353896631
0.150515299606589,0.245433981606967
0.168538305360642,0.252859450502435
0.0794568804702959,0.149317934504093
0.175990453235595,0.23284467912461
0.203421252195372,0.221261480486222
0.176156163417779,0.248792059108887
0.17803232364111,0.247722741423031
0.179896794951428,0.246632702186851
0.168027027056553,0.224178041509865
0.0899016973242375,0.125041789579875
0.207360360922501,0.243410456999681
0.187234119096249,0.242067993585543
0.155770932060865,0.235934290247705
0.0766505974176466,0.129422034152323
0.194033002791236,0.268588345247595
0.165400028650423,0.231979740583878
0.199929812938125,0.22996159271717
0.174869006268059,0.230185690971497
0.20075974517411,0.216319055482705
0.205639964157714,0.26519300025268
0.202987693667593,0.230637133548254
0.317641231647934,0.331893674083397
0.197805091112693,0.232590993384647
0.206171008803747,0.199157850319789
0.0972512988653182,0.108268635696332
0.211249172331686,0.223620450089062
0.191008601592256,0.22572376332113
0.0975495627863301,0.115461541065445
0.206608921782405,0.202879952744321
0.238193957098304,0.226291629115928
0.208681963322776,0.258111268384879
0.247251772712709,0.192852114179308
0.235357099681169,0.212954549471569
0.255196287386925,0.241232850483162
0.225148242964462,0.209855581569725
0.220509635363626,0.163999221571125
0.220030448605326,0.165435026993342
0.232286755543544,0.207514333078602
0.232307922180899,0.200472222471355
0.218387521220653,0.216575957473419
0.248336419148162,0.18761303834307
0.250772022828462,0.216527320170539
0.33691052095246,0.312081239394575
0.230565412409614,0.165264281717614
0.210142009825232,0.184632497008906
0.213671930643797,0.173047692895799
0.227571265885716,0.214303538458412
0.25643424970163,0.177195420520978
0.24401017775269,0.185743565247066
0.27089510462261,0.188809692687254
0.236264901469828,0.17280398544766
0.156883359068235,0.062456361877463
0.248722932253591,0.178293845641121
0.249851243785736,0.176394596001202
0.275846259336337,0.184298768285751
0.23730799179996,0.163715673177786
0.213221439893059,0.16246257315708
0.254159473592519,0.168654314257758
0.13292586765349,0.059826999370741
0.250594475658816,0.164759104077436
0.257170238056871,0.162702384992523
0.258130864565258,0.160691172652235
0.284265658032657,0.145488239882892
0.230096343565742,0.159951987581533
0.26184660623479,0.157367183913659
0.16410420150875,0.0594252405048165
0.262603522834999,0.150436835216674
0.263430674446297,0.148347244929064
0.242364121495945,0.153916404796786
0.376922399835025,0.236631411985315
0.29528166822343,0.151119567888585
0.272922713864919,0.126923549738707
0.364345559011789,0.241562489390078
0.240455533424823,0.0985752913238505
0.239449738085665,0.152719223826878
0.378022956354787,0.240196822840762
0.279745751772007,0.133573061560723
0.263342547247294,0.126297785288818
0.2679497324905,0.110777476257344
0.270633666908455,0.137082409301693
0.24164594273225,0.154578693936398
0.272523976690514,0.117830917517614
0.256280194289144,0.113597367342567
0.273427429573104,0.113291203857354
0.23251250243934,0.154625324394359
0.274227578522322,0.108709627234125
0.392918237765901,0.218498772265932
0.216061786506095,0.105971425522818
0.292303217252968,0.0951034680913589
0.255730776441917,0.0896721132281083
0.240319678339908,0.0781860869297929
0.275993513904466,0.094724374973204
0.276193375763786,0.0923598219338173
0.298558573433621,0.0801157509685459
0.262053267990078,0.0809786280531155
0.27662735673936,0.0852110935264735
0.276716203536036,0.0828102716020717
0.167045398610735,-0.073858475856778
0.264529970807784,0.0817253048601987
0.286706336737968,0.0621920434752136
0.280318616777203,0.0919134981052623
0.27673357413134,0.0706778122203584
0.272830347330018,0.0727455256275087
0.27653789228646,0.0657674181700127
0.372887792937213,0.143262512929019
0.299248395913993,0.0522531781278754
0.27435278878069,0.0409839897617098
0.279745383261326,0.0543867307547426
0.275529260584637,0.0533572307632529
0.277066944513725,0.0419091232365957
0.274914181503423,0.0483422719271674
0.302368223726978,0.0507527958836613
0.373142082521796,0.168941331367451
0.273760230351756,0.0407686450455791
0.251074366284924,0.0533293136541422
0.251641393536575,0.0444303225780241
0.27232427380469,0.0331367884270117
0.366387324699113,0.126254908178472
0.266780832417399,0.050506403349721
0.129338952660729,-0.0861257548158509
0.254789631653423,0.0257669861364453
0.234165719013742,0.00870901811031908
0.250830875149316,0.0575404618300871
0.263614086388617,0.0243172793991164
0.271054370564669,0.0220201151672323
0.223852722585178,-0.0065160656186148
0.26543739893149,0.00732289160655372
0.256845918389849,-0.000482564588583439
0.263661250571804,0.00209898844235254
0.324694935971985,0.116609342729228
0.24641810673642,0.0213851543171511
0.237534902747887,-0.0128812069789535
0.259205535686078,-0.0137109864387532
0.258621128319728,-0.0110367001036984
0.253517883600085,-0.00826270745562378
0.244265374692203,0.0131501245987467
0.289787656714731,-0.0416449417757579
0.193072809686177,-0.142701220639337
0.329761601793943,0.0763099522563022
0.265005429207698,-0.040871914739333
0.250089568650027,-0.0295827918963688
0.248727078848612,-0.0322447942309154
0.261196473154346,-0.029306395960221
0.209907713285208,-0.0382900455149185
0.251958096543573,-0.0538394583467888
0.242910536803101,-0.0429188775005116
0.257269132317281,-0.0472376703318733
0.23977974570001,-0.0482696988015045
0.203053576918422,-0.057073096311451
0.243833535322255,-0.0424999632086241
0.237430451879305,-0.0747208543167796
0.233065779400517,-0.0589935730425908
0.24730081133045,-0.104777931226424
0.22947966663106,-0.0643644949053686
0.240802623438753,-0.0602338315561156
0.24347297724661,-0.066008847856769
0.243167490269995,-0.0626211910771915
0.20983743640904,-0.0664792426654894
0.245205833064454,-0.0531964353243008
0.233942196222773,-0.114034574377552
0.198877351327951,-0.0784292954300934
0.228002508366034,-0.0535702097453831
0.204477556029844,-0.0913058435409903
0.0756893679937666,-0.187748813625727
0.223478301355041,-0.093119905595936
0.212003612762283,-0.110891984510526
0.206183153272739,-0.118276881140356
0.302860347211855,-0.0223873107187009
0.182251415661038,-0.134482482390974
0.207885590919429,-0.0987202650210394
0.185416741961457,-0.127904836704044
0.175379568896254,-0.117563614507862
0.187487803265536,-0.11546556302874
0.133211207980375,-0.112182105537861
0.182203964418643,-0.120831316805394
0.169122285990227,-0.118355801783902
0.176749991851364,-0.126190451536088
0.181665944918405,-0.144602980932941
0.140513974322843,-0.110763902720642
0.0642970844625241,-0.241089925410213
0.0742445436151153,-0.251017837643233
0.169706910911997,-0.150028386675054
0.159352583961935,-0.142217486065828
0.229328289680341,-0.0624079369969036
0.153203388647836,-0.147539489226101
0.133518827558602,-0.154691841154203
0.146876715680712,-0.152849545647124
0.160176203978228,-0.128726034796205
0.148231706234985,-0.161109019364805
0.147836940635492,-0.174087490718191
0.152480771418856,-0.1304264451441
0.103215302738135,-0.155440365718143
-0.00914287811115568,-0.250004076804433
0.123314518172714,-0.171325278834745
0.119765871551414,-0.173948993165567
0.116171019533698,-0.176568388888255
0.11252977852125,-0.179183332810476
0.00545767186083351,-0.275513426605951
0.105107395118895,-0.184399332484189
0.0842356150255496,-0.191031689017365
0.078149495660297,-0.192741322684287
0.0947634775727143,-0.190156224848713
0.147999506657844,-0.204071384086323
0.087827059038374,-0.216924334087436
0.0840841712399561,-0.179165200072062
0.184427818953029,-0.104822514762423
0.0735255820570079,-0.20505862069392
0.156234452254949,-0.0686562049659611
0.0651497149957801,-0.210166937431784
0.0608887096050651,-0.212711887445704
0.0565787448431945,-0.215250520966506
0.0312105520291414,-0.189958208445332
0.0478112028127232,-0.220308305759426
0.0520966229618309,-0.171445325020859
0.0395293352700945,-0.23744911545935
0.139970831675528,-0.14582878653901
0.13324422156969,-0.0977169150340683
0.0250227068592069,-0.232832905648906
-0.0748419316246821,-0.332884079895175
-0.013268219792157,-0.240443592125094
-0.0108783751409718,-0.244724563631376
0.0121782182916887,-0.237958746626063
0.00722690923436918,-0.248858810861045
-0.00398963707003444,-0.247617353352029
-0.0090043108512583,-0.250053570774295
0.100159193905568,-0.195997977302459
-0.0124968835083909,-0.252568158971864
-0.028340030914157,-0.237179925523743
-0.0295819754182631,-0.259713964759025
-0.0240308966972652,-0.257866962688956
0.0731237437180358,-0.152428845709561
-0.0455652825105791,-0.266866831372718
-0.0951965300194415,-0.287479633411025
-0.167944007480233,-0.391373584823515
-0.0614327958369665,-0.279953332194341
-0.0529140611983615,-0.264414447994251
-0.0732665463241221,-0.278601565342573
-0.0555103677351319,-0.255922178392002
-0.0718319484282208,-0.27101166012092
-0.102178387264135,-0.275692977620837
-0.0963969532474207,-0.287811723322866
-0.102315723279832,-0.290088482160227
-0.0957786314302562,-0.291144216100017
-0.143285060570723,-0.290173787333632
-0.122656520948281,-0.313626226789227
-0.0268924294487186,-0.182777585418508
-0.141541407482544,-0.320772070304904
-0.138986294277955,-0.303522221850037
-0.158836026695708,-0.292698813875249
-0.174091988703758,-0.305293076100215
-0.148659599640849,-0.285762732685672
-0.158514046652499,-0.320747036127662
-0.158524607589708,-0.319250618296357
-0.198435334475888,-0.319113256675105
-0.0322359173051602,-0.188871244373278
-0.211116791989909,-0.310286582186161
-0.201346312954822,-0.328798252935542
-0.191616338254994,-0.329229472513798
-0.19615662121447,-0.335325001091176
-0.19192815050893,-0.34839600444844
-0.193459168984376,-0.361275799844148
-0.323846811783225,-0.43693962469829
-0.239559408855631,-0.335251633923148
-0.237013582510681,-0.34931165632919
-0.246525900061272,-0.324091537342063
-0.27709460553958,-0.327666243832682
-0.169816155241483,-0.243041605702758
-0.271670406312783,-0.334556676219226
-0.285108679784769,-0.310644715097456
-0.290071052497907,-0.340541613990915
-0.298558478393541,-0.350972015804017
-0.291214342098058,-0.378769273255979
-0.333523365308513,-0.370391279212901
-0.321670701845659,-0.35663254157965
-0.321603821002967,-0.348472082997573
-0.210107556987042,-0.258942554195966
-0.337500465266403,-0.330567028635532
-0.300701387210447,-0.357656026114329
-0.377903496293642,-0.338012406196363
-0.36953926681562,-0.367549295273678
-0.272352473040325,-0.289826371332103
-0.376953190390734,-0.386550448322787
-0.387486707309222,-0.389332988317093
-0.418511710932501,-0.35764588332056
-0.430771433901891,-0.378607801759087
-0.419633036903427,-0.377903010538256
-0.468608188473494,-0.336550523795223
-0.444521345434646,-0.37448831381964
-0.471623667398087,-0.413099277208288
-0.461069491165022,-0.375763084547885
-0.446378653016603,-0.385371475663633
-0.365753956880694,-0.286716713788434
-0.48322140465527,-0.368675235981127
-0.489954703908445,-0.390782401530076
-0.534443533530797,-0.405038981288803
-0.520128175908018,-0.397800334277996
-0.52163970407201,-0.407819725349204
-0.526654821377572,-0.396806247604023
-0.535992181806466,-0.398267448557457
-0.545394841856637,-0.399710478900204
-0.555885704807075,-0.440468968562589
-0.564396795214074,-0.402541494984313
-0.658873254239597,-0.558851572286932
-0.537731637131596,-0.393371690969495
-0.593394062367706,-0.406648409722027
-0.603192375710174,-0.407979619361682
-0.513459267200557,-0.312898249508253
-0.646927877930905,-0.433204794673265
-0.640082127699582,-0.417688658569644
-0.662937663268769,-0.410152139651272
-0.630706773380488,-0.425397586483077
-0.547224638784041,-0.341685590103046
-0.673068290117105,-0.44516398192911
-0.683991357850054,-0.417930401870611
-0.66920360416697,-0.433206040562993
-0.704867967378869,-0.420219076387796
-0.715408811533092,-0.421332827922054
-0.713778646553874,-0.405173971374335
-0.74158293241116,-0.396901903112956
-0.718208458520069,-0.402416984034245
-0.748367444082063,-0.42030503218269
-0.666588958117728,-0.318026680677859
-0.77506887565657,-0.402753756865763
-0.940726010582247,-0.54588722868665
-0.801620794285841,-0.458806886606814
-0.813385638312408,-0.430415045380546
-0.834555403297466,-0.464444504125285
-0.731572132138825,-0.312270605895769
-0.819005100379898,-0.457273163211653
-0.858749614902757,-0.433891421245886
-0.870267627977235,-0.43470509926059
