-0.662980684669303,-0.138572183731747
-0.65576874786579,-0.143688505049653
-0.648622060311807,-0.14877507539553
-0.641540342663389,-0.153831891467386
-0.634523315576572,-0.158858949963227
-0.627570699707391,-0.163856247581062
-0.620682215711881,-0.168823781018896
-0.613857584246077,-0.173761546974737
-0.607096525966015,-0.178669542146591
-0.60039876152773,-0.183547763232467
-0.593764011587257,-0.18839620693037
-0.587191996800631,-0.193214869938309
-0.580682437823888,-0.198003748954289
-0.574235055313063,-0.202762840676319
-0.567849569924191,-0.207492141802404
-0.561525702313307,-0.212191649030552
-0.555263173136447,-0.216861359058771
-0.549061703049646,-0.221501268585067
-0.542921012708939,-0.226111374307446
-0.536840822770361,-0.230691672923917
-0.530820853889948,-0.235242161132486
-0.524860826723735,-0.239762835631161
-0.518960461927756,-0.244253693117947
-0.513119480158048,-0.248714730290853
-0.507337602070646,-0.253145943847885
-0.501614548321585,-0.257547330487051
-0.4959500395669,-0.261918886906357
-0.484795539664799,-0.270572495877418
-0.479304989829453,-0.274854541825187
-0.473871867612625,-0.279106744345125
-0.468495893670349,-0.283329100135238
-0.457914273233595,-0.291684258318019
-0.452708068051188,-0.295817054106701
-0.447557893767474,-0.299919989957586
-0.442463471038489,-0.303993062568683
-0.437424520520268,-0.308036268637997
-0.432440762868845,-0.312049604863535
-0.427511918740257,-0.316033067943306
-0.422637708790539,-0.319986654575315
-0.417817853675725,-0.32391036145757
-0.413052074051852,-0.327804185288078
-0.408340090574954,-0.331668122764846
-0.403681623901066,-0.33550217058588
-0.399076394686225,-0.339306325449189
-0.394524123586465,-0.343080584052778
-0.39002453125782,-0.346824943094656
-0.385577338356328,-0.350539399272829
-0.381182265538023,-0.354223949285303
-0.376839033458939,-0.357878589830087
-0.372547362775113,-0.361503317605187
-0.368306974142579,-0.36509812930861
-0.364117588217374,-0.368663021638363
-0.359978925655531,-0.372197991292453
-0.355890707113087,-0.375703034968888
-0.351852653246077,-0.379178149365674
-0.347864484710535,-0.382623331180818
-0.343925922162498,-0.386038577112328
-0.340036686257999,-0.389423883858209
-0.328662144966094,-0.39940013596216
-0.324967422196105,-0.402665652945601
-0.321320629349833,-0.40590121423345
-0.317721487083311,-0.409106816523714
-0.314169716052575,-0.412282456514399
-0.310665036913661,-0.415428130903513
-0.307207170322604,-0.418543836389062
-0.303795836935438,-0.421629569669054
-0.300430757408199,-0.424685327441496
-0.297111652396923,-0.427711106404394
-0.293838242557644,-0.430706903255757
-0.290610248546398,-0.43367271469359
-0.287427391019221,-0.4366085374159
-0.284289390632146,-0.439514368120696
-0.28119596804121,-0.442390203505983
-0.278146843902449,-0.44523604026977
-0.272180373605587,-0.450837704724867
-0.269262468759559,-0.453593525812192
-0.266387744989845,-0.456319335070044
-0.263555922952481,-0.459015129196431
-0.303941729475819,-0.420008439105772
-0.281032592063937,-0.503476315980757
-0.230347329405546,-0.430204170696538
-0.250030561712147,-0.472043757286618
-0.247450283845625,-0.474559391282356
-0.244910952303699,-0.477044987032678
-0.236082711567513,-0.487517457173887
-0.215040989175651,-0.451168975253733
-0.237535842185854,-0.484321511791212
-0.235157502502668,-0.486686921539936
-0.251988003228096,-0.485531468936395
-0.206576783893057,-0.510101218414032
-0.239488372587634,-0.458303682281062
-0.221708229065021,-0.500248114599516
-0.195334406592588,-0.532398166483882
-0.24178206955347,-0.486033250800566
-0.194572495857192,-0.504268774552025
-0.213503242179145,-0.508687462652354
-0.212472022445828,-0.4791634825693
-0.205416274118021,-0.475074297530814
-0.207630048225592,-0.564487860935869
-0.204071927207391,-0.51855964800895
-0.218966074263256,-0.51983848924711
-0.198839686319678,-0.524121734215537
-0.197165021309209,-0.525915538971213
-0.177991518805645,-0.566295011839111
-0.164232836390077,-0.567553613917992
-0.19257303381406,-0.547296701865895
-0.187275701521913,-0.523215296941002
-0.231858176732616,-0.528405634798622
-0.218434976118652,-0.543510851618924
-0.179660030226204,-0.545091087195991
-0.184260241110845,-0.564009745950141
-0.151028080574778,-0.560032523008273
-0.17164270989031,-0.542183686697572
-0.21287915970851,-0.540369930025044
-0.130391870726714,-0.523309618271809
-0.165685461901891,-0.539890293396414
-0.171533927184624,-0.554271741339948
-0.123833503807002,-0.548134257310424
-0.168490916486359,-0.557753669974786
-0.167533145049994,-0.558853936981536
-0.207477984538373,-0.528266993729614
-0.172581279871889,-0.583621106606744
-0.163977437447422,-0.562953037597742
-0.163155958362678,-0.563902304389131
-0.133756860856031,-0.522327516060734
-0.134765662745801,-0.585902495151623
-0.157781831950127,-0.587735392646403
-0.109381395750007,-0.590831842868985
-0.172243230821658,-0.606442490819009
-0.157511796575157,-0.570408603186985
-0.15691804505355,-0.571085861565166
-0.156348199874691,-0.571732880276358
-0.155801981694613,-0.57234965601857
-0.155279111169353,-0.572936185489808
-0.153847792082832,-0.574514263257749
-0.153415518737196,-0.574979774625162
-0.153005196326553,-0.575415023211636
-0.152249286934389,-0.576194718833795
-0.151903141264939,-0.576539159265495
-0.151577829154625,-0.576853323708285
-0.15127307125948,-0.577137208860171
-0.15098858823554,-0.57739081141916
-0.150479329425418,-0.577807155550477
-0.150253994951306,-0.577969890518819
-0.15004781797254,-0.578102329686292
-0.149860519145157,-0.578204469750904
-0.149691819125189,-0.578276307410661
-0.149541438568674,-0.578317839363572
-0.148978254756689,-0.577759725874808
-0.148983747821145,-0.577065618577616
-0.149398852018685,-0.574858080052633
-0.149517162714249,-0.574383909784214
-0.1496487646819,-0.573879374373074
-0.149950725057602,-0.57277919491466
-0.150496366562686,-0.570901104606809
-0.150701849939597,-0.570214308997491
-0.150918669180841,-0.569497125131503
-0.151146544942453,-0.56874954970685
-0.151634348650925,-0.567163210973577
-0.153027792951023,-0.562665280724259
-0.154303016290601,-0.558519432793813
-0.154641781467386,-0.557406901109733
-0.154987971692998,-0.55626393494108
-0.155341307623473,-0.555090530985861
-0.155701509914844,-0.553886685942083
-0.156068299223149,-0.552652396507753
-0.156820521514696,-0.550092471259464
-0.157991273979893,-0.546024167908066
-0.158796795962353,-0.543159650164573
-0.16003702256524,-0.538634334245632
-0.160881877040374,-0.535465058907285
-0.162170626983596,-0.530482482771328
-0.163478434548286,-0.525225431633414
-0.163917301825008,-0.52341207139993
-0.164357169239367,-0.521568200736034
-0.164797757447398,-0.519693816339734
-0.165679978868621,-0.515853493141948
-0.166561731336959,-0.511891075390628
-0.167001733353884,-0.509864072802411
-0.167878592233422,-0.505718463690897
-0.17046389487208,-0.492548567132222
-0.171303121912588,-0.487914157151473
-0.172533148790214,-0.480733284693178
-0.174107666638676,-0.470730702089025
-0.174487734166912,-0.468153590497362
-0.174861818233668,-0.465545885925463
-0.175590918606876,-0.460238684632987
-0.176292733006582,-0.454809071795652
-0.176965026681069,-0.449257020997515
-0.177289404886444,-0.446435073108163
-0.177605564878619,-0.443582505822631
-0.178501942136302,-0.43484105456903
-0.17956510996123,-0.422756914363475
-0.179805467865081,-0.41965927303676
-0.180656782952018,-0.40696218356881
-0.181171825281318,-0.397117423642897
-0.181966526736758,-0.369514910326029
-0.18188334944111,-0.343751090148079
-0.181470651850767,-0.328353101157941
-0.181323187683179,-0.324426774750555
-0.180973156216249,-0.316481903830011
-0.180770030228977,-0.312463352712867
-0.180044859124355,-0.300223197110031
-0.179462123995955,-0.291909308478708
-0.178433502836082,-0.279207732147713
-0.177212755260328,-0.266229184508077
-0.174730743152474,-0.243982537832215
-0.172960785064355,-0.230264964173128
-0.172322331167293,-0.225630822199213
-0.158557981950023,-0.147291572189339
-0.157461645652724,-0.142133139510379
-0.155180348650602,-0.13172365980753
-0.153994829257849,-0.126472606179655
-0.146235921747862,-0.0943176835165437
-0.140427792323343,-0.0722631111227363
-0.13889375876197,-0.0666721930953824
-0.13732636603057,-0.0610503584924813
-0.132421239376565,-0.043999322210568
-0.130717616525411,-0.0382537882855499
-0.127205823809589,-0.026669917876986
-0.12539709525699,-0.0208315747894542
-0.121672577042593,-0.00906205633792562
-0.1178034483895,0.0028312604955091
-0.10748329052932,0.0331063438545665
-0.0985428959912715,0.0578838994995463
-0.0962104322334553,0.0641557449493068
-0.0914267111621045,0.0767924068089974
-0.0889748951606405,0.0831572298229136
-0.078761410023683,0.108926546152218
-0.0761050867368446,0.115446397812919
-0.0563264747758129,0.16195398213884
-0.0533284139462083,0.168722051338032
-0.0502863788759164,0.175521162588504
-0.0408936347812705,0.196104781667526
