-0.727188688150053,0.990100950254894
-0.726571277441392,0.977556952241706
-0.725899451258875,0.965091619907959
-0.725173549339681,0.952704821313142
-0.724393911420987,0.940396424516747
-0.723560877239972,0.928166297578263
-0.722674786533815,0.91601430855718
-0.721735979039694,0.903940325512989
-0.720744794494787,0.89194421650518
-0.719701572636272,0.880025849593243
-0.718606653201329,0.868185092836669
-0.717460375927135,0.856421814294947
-0.716263080550868,0.844735882027569
-0.715015106809708,0.833127164094024
-0.713716794440832,0.821595528553802
-0.712368483181419,0.810140843466394
-0.710970512768647,0.798762976891291
-0.709523222939695,0.787461796887982
-0.70802695343174,0.776237171515957
-0.706482043981961,0.765088968834707
-0.704888834327538,0.754017056903722
-0.703247664205648,0.743021303782492
-0.701558873353469,0.732101577530508
-0.699822801508179,0.72125774620726
-0.698039788406958,0.710489677872238
-0.696210173786983,0.699797240584933
-0.694334297385433,0.689180302404834
-0.692412498939487,0.678638731391431
-0.690445118186321,0.668172395604217
-0.688432494863117,0.657781163102679
-0.68637496870705,0.647464901946309
-0.6842728794553,0.637223480194597
-0.682126566845045,0.627056765907033
-0.679936370613463,0.616964627143108
-0.677702630497733,0.606946931962311
-0.675425686235034,0.597003548424133
-0.673105877562543,0.587134344588065
-0.670743544217439,0.577339188513596
-0.6683390259369,0.567617948260216
-0.665892662458105,0.557970491887416
-0.663404793518232,0.548396687454687
-0.660875758854459,0.538896403021518
-0.658305898203965,0.5294695066474
-0.655695551303929,0.520115866391823
-0.653045057891527,0.510835350314277
-0.65035475770394,0.501627826474253
-0.647624990478345,0.49249316293124
-0.64485609595192,0.483431227744729
-0.642048413861844,0.474441888974211
-0.639202283945296,0.465525014679175
-0.636318045939454,0.456680472919112
-0.633396039581495,0.447908131753512
-0.630436604608599,0.439207859241865
-0.627440080757944,0.430579523443662
-0.624406807766707,0.422022992418392
-0.621337125372069,0.413538134225547
-0.618231373311206,0.405124816924616
-0.615089891321298,0.396782908575089
-0.611913019139522,0.388512277236457
-0.608701096503057,0.380312790968211
-0.605454463149082,0.37218431782984
-0.602173458814775,0.364126725880834
-0.598858423237313,0.356139883180684
-0.595509696153876,0.34822365778888
-0.592127617301642,0.340377917764913
-0.58871252641779,0.332602531168272
-0.585264763239496,0.324897366058448
-0.581784667503941,0.317262290494931
-0.578272578948302,0.309697172537212
-0.574728837309758,0.30220188024478
-0.571153782325487,0.294776281677126
-0.567547753732667,0.28742024489374
-0.563911091268478,0.280133637954113
-0.560244134670096,0.272916328917734
-0.556547223674701,0.265768185844094
-0.55282069801947,0.258689076792684
-0.549064897441584,0.251678869822993
-0.545280161678218,0.244737432994511
-0.541466830466553,0.23786463436673
-0.537625243543766,0.231060341999138
-0.533755740647036,0.224324423951228
-0.529858661513541,0.217656748282487
-0.52593434588046,0.211057183052408
-0.52198313348497,0.20452559632048
-0.518005364064251,0.198061856146194
-0.51400137735548,0.191665830589039
-0.509971513095836,0.185337387708506
-0.505916111022498,0.179076395564086
-0.501835510872643,0.172882722215268
-0.49773005238345,0.166756235721543
-0.493600075292098,0.1606968041424
-0.489445919335764,0.154704295537332
-0.485267924251628,0.148778577965826
-0.481066429776868,0.142919519487375
-0.476841775648661,0.137126988161467
-0.472594301604186,0.131400852047594
-0.468324347380622,0.125740979205245
-0.464032252715148,0.120147237693911
-0.45971835734494,0.114619495573082
-0.455383001007178,0.109157620902249
-0.451026523439041,0.103761481740901
-0.446649264377706,0.0984309461485287
-0.442251563560352,0.0931658821846226
-0.437833760724157,0.0879661579086729
-0.433396195606299,0.0828316413801699
-0.428939207943958,0.0777622006586037
-0.424463137474311,0.0727577038034646
-0.419968323934537,0.0678180188742428
-0.415455107061813,0.0629430139304289
-0.41092382659332,0.0581325570315127
-0.406374822266233,0.0533865162369846
-0.401808433817734,0.0487047596063349
-0.397225000984998,0.0440871551990539
-0.392624863505206,0.0395335710746318
-0.388008361115535,0.0350438752925589
-0.383375833553163,0.0306179359123254
-0.37872762055527,0.0262556209934215
-0.374064061859033,0.0219567985953376
-0.369385497201631,0.017721336777564
-0.364692266320242,0.0135491035995907
-0.359984708952044,0.00943996712090814
-0.355263164834216,0.00539379540100653
-0.350527973703937,0.0014104564993762
-0.345779475298384,-0.00251018152449278
-0.341018009354736,-0.00636825061110995
-0.336243915610171,-0.0101638827009852
-0.331457533801868,-0.0138972097346281
-0.326659203667005,-0.0175683636525486
-0.321849264942761,-0.0211774763952563
-0.317028057366313,-0.024724679903261
-0.312195920674841,-0.0282101061170724
-0.307353194605522,-0.0316338869772004
-0.302500218895535,-0.0349961544241545
-0.297637333282058,-0.0382970403984447
-0.29276487750227,-0.0415366768405805
-0.287883191293349,-0.0447151956910718
-0.282992614392474,-0.0478327288904282
-0.278093486536822,-0.0508894083791597
-0.273186147463572,-0.0538853660977758
-0.268270936909903,-0.0568207339867864
-0.263348194612992,-0.0596956439867011
-0.258418260310019,-0.0625102280380298
-0.253481473738162,-0.065264618081282
-0.248538174634598,-0.0679589460569678
-0.243588702736507,-0.0705933439055967
-0.238633397781066,-0.0731679435676784
-0.233672599505455,-0.0756828769837228
-0.228706647646851,-0.0781382760942396
-0.223735881942433,-0.0805342728397385
-0.218760642129379,-0.0828709991607293
-0.213781267944867,-0.0851485869977217
-0.208798099126077,-0.0873671682912253
-0.203811475410185,-0.0895268749817502
-0.198821736534372,-0.0916278390098059
-0.193829222235814,-0.0936701923159022
-0.188834272251691,-0.0956540668405488
-0.18383722631918,-0.0975795945242555
-0.178838424175461,-0.099446907307532
-0.173838205557711,-0.101256137130888
-0.168836910203109,-0.103007415934833
-0.163834877848834,-0.104700875659878
-0.158832448232063,-0.106336648246531
-0.153829961089974,-0.107914865635303
-0.148827756159747,-0.109435659766703
-0.14382617317856,-0.110899162581241
-0.138825551883591,-0.112305506019427
-0.133826232012019,-0.11365482202177
-0.128828553301021,-0.114947242528781
-0.123832855487776,-0.116182899480969
-0.118839478309463,-0.117361924818843
-0.11384876150326,-0.118484450482914
-0.108861044806345,-0.119550608413691
-0.103876667955897,-0.120560530551684
-0.0988959706890939,-0.121514348837403
-0.093919292743114,-0.122412195211357
-0.0889469738551359,-0.123254201614056
-0.083979353762338,-0.124040499986011
-0.0790167722018987,-0.12477122226773
-0.074059568910996,-0.125446500399724
-0.0691080836268086,-0.126066466322501
-0.064162656086515,-0.126631251976573
-0.0592236260272933,-0.127140989302448
-0.0542913331863218,-0.127595810240637
-0.049366117300779,-0.127995846731649
-0.0444483181078434,-0.128341230715994
-0.0395382753446932,-0.128632094134182
-0.0346363287485068,-0.128868568926721
-0.0297428180564626,-0.129050787034123
-0.0248580830057389,-0.129178880396897
-0.0199824633335142,-0.129252980955553
-0.0151162987769667,-0.1292732206506
-0.0102599290732748,-0.129239731422548
-0.00541369395961702,-0.129152645211907
-0.00057793317317173,-0.129012093959186
0.00424701354888302,-0.128818209604896
0.00906080646936855,-0.128571124089546
0.0138631058511066,-0.128270969353645
0.0186535719569186,-0.127917877337705
0.0234318650496267,-0.127511979982233
0.0281976453920521,-0.127053409227741
0.0329505732470164,-0.126542297014737
0.0376903088773415,-0.125978775283733
0.0424165125458487,-0.125362975975236
0.0471288445153601,-0.124695031029757
0.0518269650486968,-0.123975072387806
0.0565105344086809,-0.123203231989893
0.0611792128581336,-0.122379641776527
0.065832660659877,-0.121504433688218
0.0704705380767323,-0.120577739665476
0.0750925053715214,-0.11959969164881
0.0796982228070658,-0.11857042157873
0.0842873506461873,-0.117490061395747
0.0888595491517072,-0.116358743040369
0.0934144785864476,-0.115176598453107
0.0979517992132296,-0.113943759574469
0.102471171294875,-0.112660358344967
0.106972255094206,-0.11132652670511
0.111454710874044,-0.109942396595407
0.115918198897209,-0.108508099956368
0.120362379426526,-0.107023768728503
0.124786912724813,-0.105489534852322
0.129191459054894,-0.103905530268334
0.13357567867959,-0.10227188691705
0.137939231861722,-0.100588736738978
0.142281778864113,-0.0988562116746291
0.146602979949583,-0.0970744436645124
0.150902495380955,-0.095243564649138
0.15517998542105,-0.0933637065690154
0.15943511033269,-0.0914350013646545
0.163667530378696,-0.0894575809765649
0.16787690582189,-0.0874315773452565
0.172062896925094,-0.0853571224112389
0.176225163951128,-0.083234348115022
0.180363367162816,-0.0810633863971154
0.184477166822978,-0.0788443691980289
0.188566223194437,-0.0765774284582722
0.192630196540013,-0.0742626961183551
0.196668747122529,-0.0719003041187874
0.200681535204805,-0.0694903844000787
0.204668221049664,-0.0670330689027388
0.208628464919928,-0.0645284895672776
0.212561927078417,-0.0619767783342046
0.216468267787954,-0.0593780671440297
0.220347147311361,-0.0567324879372625
0.224198225911458,-0.0540401726544129
0.228021163851067,-0.0513012532359905
0.231815621393011,-0.0485158616225052
0.23558125880011,-0.0456841297544666
0.239317736335187,-0.0428061895723846
0.243024714261062,-0.0398821730167688
0.246701852840559,-0.0369122120281291
0.250348812336497,-0.033896438546975
0.253965253011699,-0.0308349845138165
0.257550835128987,-0.0277279818691631
0.261105218951182,-0.0245755625535249
0.264628064741106,-0.0213778585074112
0.26811903276158,-0.0181350016713321
0.271577783275426,-0.0148471239857971
0.275003976545466,-0.0115143573913162
0.278397272834521,-0.00813683382839879
0.281757332405414,-0.00471468523755499
0.285083815520964,-0.00124804355929424
0.288376382443995,0.00226295926587344
0.291634693437328,0.00581819129743864
0.294858408763784,0.00941752059489129
0.298047188686185,0.0130608152177219
0.301200693467353,0.0167479432254204
0.304318583370109,0.0204787726774775
0.307400518657275,0.024253171633383
0.310446159591673,0.0280710081526275
0.313455166436124,0.031932150294701
0.31642719945345,0.0358364661190941
0.319361918906473,0.0397838236852966
0.322258985058013,0.0437740910527991
0.325118058170894,0.0478071362810917
0.327938798507936,0.0518828274296648
0.33072086633196,0.0560010325580084
0.33346392190579,0.0601616197256131
0.336167625492246,0.0643644569919688
0.338831637354149,0.0686094124165661
0.341455617754323,0.0728963540588948
0.344039226955587,0.0772251499784459
0.346582125220764,0.0815956682347088
0.349083972812676,0.0860077768871744
0.351544429994144,0.0904613439953325
0.353963157027989,0.0949562376186738
0.356339814177034,0.0994923258166881
0.3586740617041,0.104069476648866
0.360965559872009,0.108687558174698
0.363213968943581,0.113346438453673
0.36541894918164,0.118045985545283
0.367580160849006,0.122786067509017
0.369697264208501,0.127566552404366
0.371769919522947,0.132387308290821
0.373797787055166,0.13724820322787
0.375780527067978,0.142149105275005
0.377717799824206,0.147089882491715
0.379609265586672,0.152070402937492
0.381454584618196,0.157090534671825
0.383253417181601,0.162150145754205
0.385005423539708,0.167249104244121
0.386710263955339,0.172387278201065
0.388367598691315,0.177564535684525
0.389977088010459,0.182780744753994
0.391538392175591,0.18803577346896
0.393051171449533,0.193329489888914
0.394515086095108,0.198661762073347
0.395929796375136,0.204032458081748
0.397294962552439,0.209441445973608
0.39861024488984,0.214888593808417
0.399875303650158,0.220373769645666
0.401089799096217,0.225896841544844
0.402253391490838,0.231457677565442
0.403365741096842,0.23705614576695
0.404426508177051,0.242692114208859
0.405435352994286,0.248365450950658
0.406391935811371,0.254076024051838
0.407295916891124,0.25982370157189
0.40814695649637,0.265608351570302
0.408944714889929,0.271429842106567
0.409688852334622,0.277288041240173
0.410379029093272,0.283182817030612
0.4110149054287,0.289114037537373
0.411596141603728,0.295081570819946
0.412122397881177,0.301085284937823
0.412593334523869,0.307125047950493
0.413008611794626,0.313200727917446
0.413367889956269,0.319312192898173
0.41367082927162,0.325459310952164
0.4139170900035,0.331641950138909
0.414106332414732,0.337859978517899
0.414238216768136,0.344113264148624
0.414312403326535,0.350401675090573
0.414328552352749,0.356725079403238
0.414286324109602,0.363083345146108
0.414185378859913,0.369476340378674
0.414025376866506,0.375903933160426
0.413805978392201,0.382365991550854
0.41352684369982,0.388862383609449
0.413187633052185,0.395392977395701
0.412788006712118,0.4019576409691
0.41232762494244,0.408556242389136
0.411806148005972,0.415188649715299
0.411223236165537,0.421854731007081
0.410578549683956,0.42855435432397
0.40987174882405,0.435287387725458
0.409102493848642,0.442053699271035
0.408270445020552,0.44885315702019
0.407375262602603,0.455685629032414
0.406416606857616,0.462550983367198
0.405394138048413,0.469449088084031
0.404307516437815,0.476379811242405
0.403156402288645,0.483343020901808
0.401940455863723,0.490338585121732
0.400659337425871,0.497366371961666
0.399312707237911,0.504426249481101
0.397900225562665,0.511518085739528
0.396421552662954,0.518641748796436
0.3948763488016,0.525797106711315
0.393264274241424,0.532984027543656
0.391584989245248,0.54020237935295
0.389838154075894,0.547452030198686
0.388023428996184,0.554732848140355
0.386140474268938,0.562044701237447
0.384188950156979,0.569387457549451
0.382168516923128,0.57676098513586
0.380078834830208,0.584165152056162
0.377919564141038,0.591599826369848
0.375690365118442,0.599064876136408
0.373390898025241,0.606560169415333
0.371020823124255,0.614085574266112
0.368579800678308,0.621640958748237
0.366067490950221,0.629226190921196
0.363483554202815,0.636841138844481
0.360827650698912,0.644485670577582
0.358099440701333,0.652159654179989
0.355298584472901,0.659862957711192
0.352424742276436,0.667595449230682
0.349477574374761,0.675356996797949
0.346456741030697,0.683147468472483
0.343361902507066,0.690966732313773
0.340192719066689,0.698814656381312
0.336948850972388,0.706691108734588
0.333629958486984,0.714595957433092
0.3302357018733,0.722529070536315
0.326765741394157,0.730490316103746
0.323219737312376,0.738479562194876
0.31959734989078,0.746496676869196
0.315898239392189,0.754541528186194
0.312122066079425,0.762613984205362
0.308268490215311,0.77071391298619
0.304337172062667,0.778841182588168
0.300327771884316,0.786995661070787
0.296239949943078,0.795177216493536
0.292073366501777,0.803385716915906
0.287827681823232,0.811621030397387
0.283502556170266,0.819883024997469
0.2790976498057,0.828171568775644
0.274612622992357,0.8364865297914
0.270047135993057,0.844827776104228
