-0.387141905400333,0.0393068401571148
-0.383373837080654,0.0388364348933722
-0.379614889736187,0.0383720592291019
-0.375865045781947,0.0379135930210457
-0.372124287632947,0.0374609161259449
-0.368392597704201,0.0370139084005412
-0.364669958410724,0.0365724497015762
-0.36095635216753,0.0361364198857912
-0.357251761389633,0.0357056988099279
-0.353556168492047,0.0352801663307278
-0.349869555889786,0.0348597023049325
-0.346191905997864,0.0344441865892835
-0.342523201231296,0.0340334990405224
-0.338863424005095,0.0336275195153906
-0.335212556734276,0.0332261278706298
-0.331570581833852,0.0328292039629814
-0.327937481718838,0.032436627649187
-0.324313238804248,0.0320482787859882
-0.320697835505096,0.0316640372301264
-0.317091254236396,0.0312837828383433
-0.313493477413162,0.0309073954673804
-0.309904487450409,0.0305347549739792
-0.30632426676315,0.0301657412148812
-0.302752797766399,0.029800234046828
-0.299190062875171,0.0294381133265612
-0.29563604450448,0.0290792589108222
-0.29209072506934,0.0287235506563527
-0.288554086984765,0.0283708684198941
-0.285026112665769,0.028021092058188
-0.281506784527366,0.027674101427976
-0.277996084984571,0.0273297763859995
-0.274493996452397,0.0269879967890002
-0.271000501345858,0.0266486424937196
-0.26751558207997,0.0263115933568991
-0.264039221069744,0.0259767292352804
-0.260571400730197,0.025643929985605
-0.257112103476342,0.0253130754646144
-0.253661311723193,0.0249840455290502
-0.250219007885764,0.024656720035654
-0.246785174379069,0.0243309788411671
-0.243359793618123,0.0240067018023313
-0.23994284801794,0.023683768775888
-0.236534319993533,0.0233620596185788
-0.233134191959916,0.0230414541871452
-0.229742446332105,0.0227218323383287
-0.226359065525113,0.022403073928871
-0.222984031953953,0.0220850588155135
-0.219617328033641,0.0217676668549978
-0.216258936179191,0.0214507779040654
-0.212908838805615,0.0211342718194579
-0.209567018327929,0.0208180284579168
-0.206233457161147,0.0205019276761837
-0.202908137720283,0.020185849331
-0.19959104242035,0.0198696732791074
-0.196282153676364,0.0195532793772473
-0.192981453903337,0.0192365474821614
-0.189688925516285,0.0189193574505911
-0.186404550930221,0.018601589139278
-0.183128312560159,0.0182831224049637
-0.179860192821114,0.0179638371043896
-0.1766001741281,0.0176436130942974
-0.17334823889613,0.0173223302314285
-0.170104369540219,0.0169998683725245
-0.166868548475381,0.016676107374327
-0.163640758116631,0.0163509270935775
-0.160420980878981,0.0160242073870175
-0.157209199177447,0.0156958281113885
-0.154005395427042,0.0153656691234322
-0.15080955204278,0.01503361027989
-0.147621651439677,0.0146995314375035
-0.144441676032745,0.0143633124530142
-0.141269608236998,0.0140248331831637
-0.138105430467452,0.0136839734846936
-0.13494912513912,0.0133406132143453
-0.131800674667016,0.0129946322288603
-0.128660061466154,0.0126459103849804
-0.125527267951549,0.0122943275394469
-0.122402276538215,0.0119397635490014
-0.119285069641164,0.0115820982703855
-0.116175629675413,0.0112212115603407
-0.113073939055974,0.0108569832756085
-0.109979980197863,0.0104892932729306
-0.106893735516092,0.0101180214090483
-0.103815187425677,0.00974304754070334
-0.100744318341631,0.00936425152463718
-0.097681110678968,0.00898151321759137
-0.0946255468527027,0.00859471247630745
-0.0915776092778491,0.00820372915752697
-0.0885372803694212,0.00780844311799147
-0.0855045425424332,0.00740873421444248
-0.0824793782118991,0.00700448230362154
-0.0794617697928331,0.00659556724227021
-0.0764516997002492,0.00618186888713002
-0.0734491503491616,0.00576326709494252
-0.0704541041545844,0.00533964172244923
-0.0674665435315316,0.0049108726263917
-0.0644864508950176,0.00447683966351149
-0.0615138086600562,0.00403742269055012
-0.0585485992416616,0.00359250156424913
-0.0555908050548479,0.00314195614135008
-0.0526404085146294,0.0026856662785945
-0.0496973920360199,0.00222351183272393
-0.0467617380340337,0.00175537266047991
-0.043833428923685,0.00128112861860399
-0.0409124471199877,0.000800659563837701
-0.037998775037956,0.000313845352922591
-0.035092395092604,-0.000179434157399806
-0.0321932896989459,-0.000679299110387938
-0.0293014412719956,-0.00118586964930027
-0.0264168322267675,-0.00169926591739526
-0.0235394449782754,-0.00221960805793137
-0.0206692619415336,-0.00274701621416706
-0.0178062655315562,-0.00328161052936078
-0.0149504381633573,-0.00382351114677099
-0.0121017622519509,-0.00437283820965616
-0.00926022021235128,-0.00492971186127474
-0.00642579445957248,-0.00549425224488519
-0.0035984674086286,-0.00606657950374596
-0.000778221474533713,-0.00664681378111553
0.00203496092769803,-0.00723507522025234
0.00484109738305245,-0.00783148396441486
0.00764020547651553,-0.00843616015686154
0.0104323027930732,-0.00904922394085084
0.0132174069177112,-0.00967079545964123
0.0159955354354156,-0.0103009948564911
0.0187667059311721,-0.0109399422746591
0.0215309359899667,-0.0115877578574034
0.0242882431967853,-0.0122445617479827
0.0270386451366138,-0.0129104740896554
0.029782159394438,-0.0135856150256799
0.0325188035552438,-0.0142701046993147
0.0352485952040172,-0.0149640632538183
0.0379715519257441,-0.015667610832449
0.0406876913054101,-0.0163808675784654
0.0433970309280015,-0.017103953635126
0.0460995883785039,-0.0178369891456892
0.0487953812419033,-0.0185800942534133
0.0514844271031856,-0.019333389101557
0.0541667435473366,-0.0200969938333787
0.0568423481593423,-0.0208710285921368
0.0595112585241885,-0.0216556135210897
0.0621734922268611,-0.022450868763496
0.0648290668523461,-0.0232569144626141
0.0674779999856292,-0.0240738707617025
0.0701203092116965,-0.0249018578040195
0.0727560121155337,-0.0257409957328238
0.0753851262821269,-0.0265914046913737
0.0780076692964618,-0.0274532048229276
0.0806236587435243,-0.0283265162707441
0.0832331122083004,-0.0292114591780817
0.085836047275776,-0.0301081536881987
0.0884324815309368,-0.0310167199443536
0.0910224325587689,-0.0319372780898049
0.0936059179442581,-0.032869948267811
0.0961829552723903,-0.0338148506216305
0.0987535621281513,-0.0347721052945217
0.101317756096527,-0.0357418324297432
0.103875554762504,-0.0367241521705533
0.106426975711067,-0.0377191846602105
0.108972036527202,-0.0387270500419734
0.111510754795896,-0.0397478684591003
0.114043148102134,-0.0407817600548497
0.116569234030902,-0.0418288449724801
0.119089030167186,-0.0428892433552499
0.121602554095972,-0.0439630753464176
0.124109823402246,-0.0450504610892417
0.126610855670994,-0.0461515207269806
0.129105668487201,-0.0472663744028928
0.131594279435853,-0.0483951422602366
0.134076706101937,-0.0495379444422707
0.136552966070438,-0.0506949010922534
0.139023076926343,-0.0518661323534432
0.141487056254636,-0.0530517583690985
0.143944921640304,-0.0542518992824779
0.146396690668333,-0.0554666752368398
0.148842380923708,-0.0566962063754426
0.151282009991416,-0.0579406128415448
0.153715595456443,-0.0592000147784048
0.156143154903774,-0.0604745323292812
0.158564705918395,-0.0617642856374323
0.160980266085293,-0.0630693948461167
0.163389852989452,-0.0643899800985927
0.165793484215859,-0.065726161538119
0.1681911773495,-0.0670780593079538
0.170582949975361,-0.0684457935513557
0.172968819678427,-0.0698294844115831
0.175348804043685,-0.0712292520318945
0.17772292065612,-0.0726452165555483
0.180091187100718,-0.074077498125803
0.182453620962466,-0.0755262168859171
0.184810239826348,-0.076991492979149
0.187161061277352,-0.0784734465487572
0.189506102900462,-0.0799721977380002
0.191845382280665,-0.0814878666901363
0.194178917002946,-0.0830205735484241
0.196506724652292,-0.084570438456122
0.198828822813689,-0.0861375815564884
0.201145229072121,-0.0877221229927819
0.203455961012576,-0.0893241829082609
0.205761036220039,-0.0909438814461838
0.208060472279495,-0.0925813387498092
0.210354286775932,-0.0942366749623954
0.212642497294334,-0.0959100102272009
0.214925121419688,-0.0976014646874842
0.217202176736979,-0.0993111584865038
0.219473680831194,-0.101039211767518
0.221739651287317,-0.102785744673785
0.224000105690337,-0.104550877348565
0.226255061625237,-0.106334729935114
0.228504536677004,-0.108137422576691
0.230748548430623,-0.109959075416556
0.232987114471082,-0.111799808597966
0.235220252383365,-0.11365974226418
0.237447979752459,-0.115538996558456
0.239670314163348,-0.117437691624054
0.241887273201021,-0.11935594760423
0.244098874450461,-0.121293884642244
0.246305135496656,-0.123251622881355
0.24850607392459,-0.12522928246482
0.25070170731925,-0.127226983535898
0.252892053265622,-0.129244846237848
0.255077129348691,-0.131282990713928
0.257256953153444,-0.133341537107396
0.259431542264867,-0.135420605561511
0.261600914267944,-0.137520316219532
0.263765086747663,-0.139640789224717
0.265924077289009,-0.141782144720324
0.268077903476968,-0.143944502849611
0.270226582896525,-0.146127983755838
0.272370133132668,-0.148332707582263
0.274508571770381,-0.150558794472144
0.27664191639465,-0.15280636456874
0.278770184590462,-0.155075538015308
0.280893393942802,-0.157366434955108
0.283011562036656,-0.159679175531398
0.285124706457011,-0.162013879887437
0.287232844788851,-0.164370668166482
0.289335994617163,-0.166749660511793
0.291434173526933,-0.169150977066628
0.293527399103146,-0.171574737974245
0.295615688930789,-0.174021063377903
0.297699060594848,-0.17649007342086
0.299777531680308,-0.178981888246375
0.301851119772154,-0.181496627997706
0.303919842455374,-0.184034412818111
0.305983717314953,-0.186595362850849
0.308042761935877,-0.189179598239179
0.310096993903131,-0.191787239126359
0.312146430801702,-0.194418405655648
0.314191090216576,-0.197073217970303
0.316230989732738,-0.199751796213584
0.318266146935174,-0.202454260528748
0.320296579408871,-0.205180731059055
0.322322304738813,-0.207931327947762
0.324343340509987,-0.210706171338129
0.32635970430738,-0.213505381373413
0.328371413715976,-0.216329078196873
0.330378486320762,-0.219177381951768
0.332380939706723,-0.222050412781356
0.334378791458845,-0.224948290828895
0.336372059162115,-0.227871136237645
0.338360760401519,-0.230819069150862
0.340344912762041,-0.233792209711807
0.342324533828668,-0.236790678063737
0.344299641186386,-0.23981459434991
0.346270252420181,-0.242864078713586
0.348236385115038,-0.245939251298023
0.350198056855944,-0.249040232246478
0.352155285227884,-0.252167141702212
0.354108087815845,-0.255320099808481
0.356056482204812,-0.258499226708545
0.358000485979771,-0.261704642545662
0.359940116725708,-0.26493646746309
0.361875392027609,-0.268194821604088
0.363806329470459,-0.271479825111915
0.365732946639245,-0.274791598129828
0.367655261118953,-0.278130260801087
0.369573290494568,-0.281495933268949
0.371487052351077,-0.284888735676673
0.373396564273464,-0.288308788167519
0.375301843846717,-0.291756210884743
0.377202908655821,-0.295231123971605
0.379099776285762,-0.298733647571363
0.380992464321525,-0.302263901827275
0.382880990348097,-0.3058220068826
0.384765371950464,-0.309408082880597
0.38664562671361,-0.313022249964524
0.388521772222524,-0.316664628277639
0.390393826062189,-0.3203353379632
0.392261805817593,-0.324034499164467
0.394125729073721,-0.327762232024698
0.395985613415558,-0.331518656687151
0.397841476428091,-0.335303893295084
0.399693335696306,-0.339118061991757
0.401541208805189,-0.342961282920427
0.403385113339725,-0.346833676224353
0.4052250668849,-0.350735362046793
0.4070610870257,-0.354666460531006
0.408893191347112,-0.358627091820251
0.410721397434121,-0.362617376057786
0.412545722871712,-0.366637433386868
0.414366185244872,-0.370687383950758
0.416182802138587,-0.374767347892713
0.417995591137843,-0.378877445355991
0.419804569827624,-0.383017796483852
0.421609755792919,-0.387188521419553
0.423411166618711,-0.391389740306353
0.425208819889988,-0.395621573287511
0.427002733191734,-0.399884140506284
0.428792924108937,-0.404177562105932
0.430579410226581,-0.408501958229713
0.432362209129653,-0.412857449020885
0.434141338403138,-0.417244154622707
0.435916815632024,-0.421662195178438
0.437688658401294,-0.426111690831334
0.439456884295935,-0.430592761724657
0.441221510900934,-0.435105528001662
0.442982555801276,-0.43965010980561
0.444740036581946,-0.444226627279759
0.446493970827931,-0.448835200567366
0.448244376124217,-0.453475949811691
0.44999127005579,-0.458148995155992
0.451734670207635,-0.462854456743527
0.453474594164739,-0.467592454717555
0.455211059512086,-0.472363109221334
0.456944083834664,-0.477166540398123
0.458673684717458,-0.48200286839118
0.460399879745453,-0.486872213343764
0.462122686503637,-0.491774695399133
0.463842122576994,-0.496710434700546
0.465558205550511,-0.50167955139126
0.467270953009173,-0.506682165614536
0.468980382537967,-0.51171839751363
0.470686511721877,-0.516788367231801
0.472389358145891,-0.521892194912309
0.474088939394994,-0.527030000698411
0.475785273054172,-0.532201904733365
0.477478376708411,-0.537408027160431
0.479168267942696,-0.542648488122866
0.480854964342014,-0.54792340776393
0.482538483491351,-0.55323290622688
0.484218842975692,-0.558577103654976
0.485896060380023,-0.563956120191475
0.48757015328933,-0.569370075979636
0.489241139288599,-0.574819091162718
0.490909035962816,-0.580303285883978
0.492573860896967,-0.585822780286676
0.494235631676038,-0.59137769451407
0.495894365885014,-0.596968148709418
0.497550081108882,-0.602594263015978
0.499202794932627,-0.60825615757701
0.500852524941235,-0.613953952535772
0.502499288719693,-0.619687768035521
0.504143103852986,-0.625457724219518
0.505783987926099,-0.631263941231019
0.507421958524019,-0.637106539213284
0.509057033231732,-0.642985638309571
0.510689229634224,-0.648901358663139
0.51231856531648,-0.654853820417245
0.513945057863487,-0.660843143715149
0.515568724860229,-0.666869448700108
0.517189583891694,-0.672932855515382
0.518807652542867,-0.679033484304228
0.520422948398734,-0.685171455209906
0.522035489044281,-0.691346888375673
0.523645292064493,-0.697559903944788
0.525252375044357,-0.70381062206051
0.526856755568859,-0.710099162866097
0.528458451222984,-0.716425646504807
0.530057479591718,-0.7227901931199
0.531653858260047,-0.729192922854632
0.533247604812958,-0.735633955852264
0.534838736835435,-0.742113412256053
0.536427271912465,-0.748631412209258
0.538013227629034,-0.755188075855136
0.539596621570128,-0.761783523336948
0.541177471320732,-0.768417874797951
0.542755794465832,-0.775091250381403
0.544331608590415,-0.781803770230564
0.545904931279466,-0.788555554488691
0.54747578011797,-0.795346723299043
0.549044172690915,-0.802177396804878
0.550610126583286,-0.809047695149455
0.552173659380068,-0.815957738476033
0.553734788666249,-0.822907646927869
0.555293532026812,-0.829897540648223
0.556849907046745,-0.836927539780353
0.558403931311033,-0.843997764467517
0.559955622404663,-0.851108334852973
0.561504997912619,-0.85825937107998
0.563052075419889,-0.865450993291797
0.564596872511457,-0.872683321631683
0.56613940677231,-0.879956476242894
0.567679695787434,-0.887270577268691
0.569217757141814,-0.89462574485233
0.570753608420437,-0.902022099137072
0.572287267208287,-0.909459760266174
0.573818751090352,-0.916938848382895
0.575348077651618,-0.924459483630493
0.576875264477069,-0.932021786152227
