-0.0364151484950068,-0.0527891918103531
-0.0305496816686582,-0.0520669035508286
-0.0247307686218537,-0.0513386610207826
-0.0189583390776448,-0.0506044553302576
-0.0132323227590829,-0.0498642775892958
-0.00755264938921958,-0.0491181189079395
-0.00191924869110621,-0.048365970396231
0.00366794961220569,-0.0476078231642126
0.00920901579766469,-0.0468436683219265
0.0147040201422193,-0.0460734969794151
0.0201530329228181,-0.0452973002467207
0.0255561244164096,-0.0445150692338855
0.0309133648999423,-0.0437267950509518
0.0362248246503647,-0.042932468807962
0.0414905739446255,-0.0421320816149582
0.0467106830596731,-0.0413256245819829
0.051885222272456,-0.0405130888190783
0.0570142618599229,-0.0396944654362867
0.0620978720990222,-0.0388697455436503
0.0671361232667025,-0.0380389202512115
0.0721290856399123,-0.0372019806690126
0.0770768294956002,-0.0363589179070958
0.0819794251107146,-0.0355097230755034
0.0868369427622041,-0.0346543872842778
0.0916494527270174,-0.0337929016434612
0.0964170252821028,-0.032925257263096
0.101139730704409,-0.0320514452532243
0.105817639270884,-0.0311714567238885
0.110450821258477,-0.0302852827851309
0.115039346944137,-0.0293929145469938
0.119583286604811,-0.0284943431195194
0.124082710517449,-0.0275895596127502
0.128537688958999,-0.0266785551367282
0.132948292206409,-0.0257613208014959
0.137314590536628,-0.0248378477170955
0.141636654226605,-0.0239081269935694
0.145914553553288,-0.0229721497409597
0.150148358793625,-0.0220299070693088
0.154338140224566,-0.0210813900886591
0.158483968123058,-0.0201265899090527
0.16258591276605,-0.019165497640532
0.166644044430492,-0.0181981043931392
0.17065843339333,-0.0172244012769168
0.174629149931515,-0.0162443794019068
0.178556264321993,-0.0152580298781517
0.182439846841715,-0.0142653438156937
0.186279967767628,-0.0132663123245751
0.190076697376681,-0.0122609265148383
0.193830105945823,-0.0112491774965254
0.197540263752001,-0.0102310563796788
0.201207241072165,-0.00920655427434082
0.204831108183263,-0.00817566229055369
0.208411935362244,-0.00713837153835973
0.211949792886056,-0.0060946731278012
0.215444751031648,-0.00504455816892042
0.218896880075968,-0.00398801777175967
0.222306250295965,-0.00292504304636125
0.225672931968587,-0.00185562510276744
0.228996995370783,-0.000779755051020528
0.232278510779502,0.000302575998837189
0.235517548471691,0.00139137693676341
0.2387141787243,0.00248665665271586
0.241868471814277,0.00358842403665226
0.24498049801857,0.00469668797853029
0.248050327614128,0.00581145736830766
0.2510780308779,0.00693274109594211
0.254063678086834,0.00806054805139133
0.257007339517879,0.00919488712461302
0.259909085447983,0.0103357672055649
0.262768986154095,0.0114831971842047
0.265587111913163,0.0126371859504901
0.268363533002136,0.0137977423943788
0.271098319697962,0.0149648754058285
0.27379154227759,0.016138593874797
0.276443271017969,0.0173189066912419
0.279053576196047,0.018505822745121
0.281622528088772,0.0196993509263919
0.284150196973093,0.0208995001250124
0.286636653125958,0.0221062792309402
0.289081966824317,0.023319697134133
0.291486208345117,0.0245397627245485
0.293849447965308,0.0257664848921444
0.296171755961837,0.0269998725268785
0.298453202611653,0.0282399345187083
0.300693858191706,0.0294866797575917
0.302893792978942,0.0307401171334863
0.305053077250312,0.0320002555363499
0.307171781282763,0.0332671038561402
0.309249975353243,0.0345406709828149
0.311287729738703,0.0358209658063316
0.313285114716089,0.0371079972166481
0.31524220056235,0.0384017741037221
0.317159057554436,0.0397023053575114
0.319035755969295,0.0410095998679736
0.320872366083874,0.0423236665250664
0.322668958175123,0.0436445142187475
0.324425602519991,0.0449721518389747
0.326142369395425,0.0463065882757057
0.327819329078374,0.0476478324188981
0.329456551845787,0.0489958931585097
0.331054107974613,0.0503507793844982
0.332612067741799,0.0517124999868213
0.334130501424295,0.0530810638554367
0.335609479299049,0.0544564798803021
0.337049071643009,0.0558387569513752
0.338449348733124,0.0572279039586138
0.339810380846343,0.0586239297919756
0.341132238259614,0.0600268433414181
0.342414991249886,0.0614366534968993
0.343658710094107,0.0628533691483767
0.344863465069225,0.0642769991858081
0.34602932645219,0.0657075524991512
0.347156364519949,0.0671450379783637
0.348244649549452,0.0685894645134033
0.349294251817647,0.0700408409942277
0.350305241601481,0.0714991763107947
0.351277689177905,0.0729644793530619
0.352211664823867,0.074436759010987
0.353107238816314,0.0759160241745278
0.353964481432196,0.077402283733642
0.354783462948461,0.0788955465782872
0.355564253642057,0.0803958215984213
0.356306923789934,0.0819031176840018
0.357011543669039,0.0834174437249865
0.357678183556322,0.0849388086113332
0.35830691372873,0.0864672212329994
0.358897804463212,0.088002690479943
0.359450926036718,0.0895452252421217
0.359966348726194,0.0910948344094931
0.360444142808591,0.0926515268720149
0.360884378560856,0.0942153115196449
0.361287126259937,0.0957861972423408
0.361652456182785,0.0973641929300603
0.361980438606346,0.0989493074727611
0.36227114380757,0.100541549760401
0.362524642063405,0.102140928682937
0.3627410036508,0.103747453130328
0.362920298846703,0.105361131992531
0.363062597928062,0.106981974159504
0.363167971171826,0.108609988521205
0.363236488854945,0.110245183967591
0.363268221254366,0.111887569388619
0.363263238647037,0.113537153674249
0.363221611309908,0.115193945714436
0.363143409519927,0.11685795439914
0.363028703554042,0.118529188618318
0.362877563689203,0.120207657261927
0.362690060202356,0.121893369219926
0.362466263370452,0.123586333382271
0.362206243470439,0.125286558638921
0.361910070779264,0.126994053879833
0.361577815573877,0.128708827994966
0.361209548131227,0.130430889874276
0.360805338728261,0.132160248407722
0.360365257641928,0.133896912485261
0.359889375149177,0.135640890996851
0.359377761526957,0.137392192832449
0.358830487052215,0.139150826882014
0.358247622001901,0.140916802035502
0.357629236652962,0.142690127182873
0.356975401282349,0.144470811214083
0.356286186167008,0.14625886301909
0.355561661583888,0.148054291487852
0.354801897809939,0.149857105510327
0.354006965122108,0.151667313976472
0.353176933797345,0.153484925776244
0.352311874112597,0.155309949799603
0.351411856344813,0.157142394936505
0.350476950770943,0.158982270076908
0.349507227667933,0.16082958411077
0.348502757312734,0.162684345928048
0.347463609982292,0.164546564418701
0.346389855953558,0.166416248472686
0.345281565503479,0.16829340697996
0.344138808909004,0.170178048830482
0.342961656447081,0.172070182914209
0.34175017839466,0.173969818121099
0.340504445028688,0.175876963341109
0.339224526626114,0.177791627464197
0.337910493463887,0.179713819380321
0.336562415818955,0.181643547979439
0.335180363968266,0.183580822151509
0.33376440818877,0.185525650786487
0.332314618757415,0.187478042774332
0.330831065951149,0.189438007005002
0.329313820046921,0.191405552368453
0.327762951321679,0.193380687754645
0.326178530052373,0.195363422053534
0.324560626515949,0.197353764155079
0.322909310989358,0.199351722949237
0.321224653749547,0.201357307325965
0.319506725073466,0.203370526175222
0.317755595238062,0.205391388386965
0.315971334520284,0.207419902851151
0.31415401319708,0.20945607845774
0.3123037015454,0.211499924096687
0.310420469842192,0.213551448657952
0.308504388364404,0.215610661031491
0.306555527388985,0.217677570107263
0.304573957192883,0.219752184775225
0.302559748053047,0.221834513925334
0.300512970246425,0.22392456644755
0.298433694049967,0.226022351231828
0.29632198974062,0.228127877168127
0.294177927595333,0.230241153146406
0.292001577891054,0.23236218805662
0.289793010904733,0.234490990788728
0.287552296913317,0.236627570232689
0.285279506193756,0.238771935278459
0.282974709022997,0.240924094815996
0.280637975677989,0.243084057735257
0.278269376435681,0.245251832926202
0.275868981573022,0.247427429278787
0.273436861366959,0.24961085568297
0.270973086094442,0.251802121028709
0.268477726032418,0.254001234205961
0.265950851457837,0.256208204104684
0.263392532647648,0.258423039614836
0.260802839878797,0.260645749626375
0.258181843428235,0.262876343029258
0.255529613572909,0.265114828713443
0.252846220589768,0.267361215568888
0.250131734755762,0.26961551248555
0.247386226347837,0.271877728353388
0.244609765642943,0.274147872062358
0.241802422918028,0.276425952502419
0.238964268450041,0.278711978563528
0.23609537251593,0.281005959135643
0.233195805392645,0.283307903108722
0.230265637357132,0.285617819372722
0.227304938686342,0.287935716817601
0.224313779657222,0.290261604333317
0.221292230546722,0.292595490809828
0.218240361631788,0.294937385137091
0.215158243189371,0.297287296205063
0.212045945496419,0.299645232903704
0.208903538829879,0.30201120412297
0.205731093466701,0.304385218752818
0.202528679683834,0.306767285683208
0.199296367758225,0.309157413804096
0.196034227966824,0.311555612005441
0.192742330586578,0.313961889177199
0.189420745894437,0.316376254209329
0.186069544167349,0.318798715991788
0.182688795682262,0.321229283414534
0.179278570716125,0.323667965367525
0.175838939545887,0.326114770740718
0.172369972448496,0.328569708424072
0.1688717397009,0.331032787307543
0.165344311580049,0.33350401628109
0.16178775836289,0.335983404234671
0.158202150326372,0.338470960058242
0.154587557747444,0.340966692641762
0.150944050903055,0.343470610875189
0.147271700070152,0.345982723648479
0.143570575525684,0.348503039851592
0.139840747546601,0.351031568374484
0.136082286409849,0.353568318107113
0.132295262392379,0.356113297939437
0.128479745771138,0.358666516761414
0.124635806823075,0.361227983463001
0.120763515825139,0.363797706934157
0.116862943054278,0.366375696064838
0.11293415878744,0.368961959745002
0.108977233301575,0.371556506864608
0.10499223687363,0.374159346313613
0.100979239780555,0.376770486981975
0.0969383122992969,0.37938993775965
0.0928695247068056,0.382017707536598
0.0887729472800289,0.384653805202776
0.0846486502959156,0.387298239648141
0.0804967040314142,0.389951019762652
0.0763171787634735,0.392612154436265
0.0721101447690414,0.395281652558938
0.0678756723250671,0.397959523020631
0.0636138317084987,0.400645774711299
0.059324693196285,0.403340416520901
0.0550083270653742,0.406043457339394
0.0506648035927153,0.408754906056737
0.0462941930552564,0.411474771562886
0.0418965657299464,0.4142030627478
0.0374719918937335,0.416939788501436
0.146320233011702,0.311706581406595
-0.0806954939587025,0.328638196160458
0.12619495711795,0.520419533061981
0.120070255697909,0.309403496977617
0.120737306956142,0.331022365586904
0.0103626076566168,0.433537766804053
-0.101072856486279,0.332637701689628
-0.0923591178497961,0.549679302718073
-0.0963713590973102,0.544443872138332
0.0882149359538383,0.339666702654998
-0.0129566908169076,0.44760299585501
-0.124482116551302,0.566219951448845
-0.141036491762528,0.549688417578175
-0.0272620703668544,0.4561445571445
-0.127095499825878,0.359765145679403
-0.144055251141135,0.36414231703525
0.0572503740880544,0.351521973177274
-0.0466980748011363,0.467653297870188
0.0629307153359252,0.570530221450333
-0.15786474915008,0.588046274769405
0.0360174544629881,0.574231592437928
-0.0665438592175071,0.479299694242575
-0.0715688063666872,0.482232868705151
0.0197894444971916,0.592084423958922
-0.0816944099805126,0.488125170303384
-0.179530568223172,0.383309199874665
-0.184490653698421,0.376975900224283
0.0119448460210709,0.597635660163355
0.00515095039580125,0.40336768004855
0.00577803518823486,0.603646269683326
-0.112671835405415,0.506010336559674
-0.117921591361689,0.509021662410094
-0.123195974689564,0.51204171619784
-0.128494915112092,0.515070506812871
-0.133818342352323,0.518108043145144
-0.13916618613331,0.521154334084617
-0.144538376178104,0.524209388521247
-0.149934842209757,0.527273215344993
-0.155355513951319,0.530345823445811
-0.160800321125842,0.533427221713661
-0.166269193456378,0.536517419038498
-0.171762060665979,0.539616424310282
-0.177278852477695,0.542724246418969
-0.182819498614579,0.545840894254518
-0.188383928799681,0.548966376706886
-0.193972072756053,0.552100702666032
-0.199583860206747,0.555243881021911
-0.205219220874813,0.558395920664483
-0.210878084483305,0.561556830483705
-0.216560380755272,0.564726619369535
-0.222266039413767,0.56790529621193
-0.22799499018184,0.571092869900849
-0.233747162782544,0.574289349326248
-0.23952248693893,0.577494743378086
-0.245320892374049,0.58070906094632
-0.251142308810953,0.583932310920908
-0.256986665972693,0.587164502191808
-0.262853893582321,0.590405643648978
-0.268743921362888,0.593655744182374
-0.274656679037446,0.596914812681955
-0.280592096329045,0.600182858037679
-0.286550102960738,0.603459889139503
-0.292530628655576,0.606745914877385
-0.298533603136611,0.610040944141283
-0.304558956126894,0.613344985821154
-0.310606617349476,0.616658048806957
-0.316676516527409,0.619980141988648
-0.322768583383744,0.623311274256185
-0.328882747641533,0.626651454499527
-0.335018939023827,0.630000691608631
-0.341177087253678,0.633358994473455
-0.347357122054137,0.636726371983955
-0.353558973148256,0.640102833030091
-0.359782570259086,0.64348838650182
-0.366027843109678,0.646883041289099
-0.390373122978855,0.659616701407925
-0.378583134922357,0.653699690370139
-0.384893013330546,0.657121702443816
-0.342296862648783,0.628570190911259
-0.429926919818135,0.70967431228182
-0.372209024547366,0.696575009996037
-0.423739542730515,0.663276270884553
-0.3696254479376,0.715852621388876
-0.423199111357819,0.677845960417405
-0.429657276373868,0.681332117307862
-0.424041708729548,0.711092866088907
-0.441987518532764,0.654929060800103
-0.460527695692953,0.645550869514331
-0.487986562239166,0.696522954265684
-0.462260236315073,0.698901066135586
-0.503110147302513,0.705358454729614
-0.470341252797702,0.723582286371835
-0.43259498616447,0.70895133046634
-0.498452417305439,0.723636169425578
-0.480713197887527,0.757142236454598
-0.538246425805087,0.725529607868686
-0.508765567438813,0.723886072717915
-0.515489985866149,0.727492511391183
-0.477729366597735,0.765529025309846
-0.493322811525973,0.702779261955601
-0.546915359675836,0.770265810562529
-0.542586847735986,0.742011501729188
-0.590533713434704,0.778957027453186
-0.55625380768992,0.749327062744557
-0.551725789750428,0.775253528638679
-0.530526288084377,0.780648896980098
-0.576900827663249,0.760370686599618
-0.555446306390464,0.723268224052438
-0.639461578779307,0.786848329779004
-0.640823411949789,0.774607604353877
-0.620517899986653,0.751581575350941
-0.611698722602035,0.778964738573922
-0.591958366247974,0.826696935958466
-0.625751409026217,0.786468371071543
-0.640336355286836,0.785053978484218
-0.639879554097683,0.7940098312246
-0.644606811167722,0.822738083967296
-0.636680936719404,0.78565082250329
