0.999531878210898,-0.840694170315182
0.996085411477049,-0.824411363561766
0.99261714710232,-0.808205587331658
0.989126724708532,-0.792076832146464
0.985613783917509,-0.776025088527791
0.982077964351073,-0.760050346997244
0.978518905631046,-0.744152598076431
0.97493624737925,-0.728331832286956
0.971329629217509,-0.712588040150426
0.967698690767643,-0.696921212188448
0.964043071651476,-0.681331338922627
0.96036241149083,-0.665818410874569
0.956656349907527,-0.650382418565882
0.95292452652339,-0.63502335251817
0.949166580960241,-0.61974120325304
0.945382152839902,-0.604535961292099
0.941570881784196,-0.589407617156951
0.937732407414945,-0.574356161369205
0.933866369353971,-0.559381584450465
0.929972407223098,-0.544483876922337
0.926050160644146,-0.529663029306429
0.922099269238939,-0.514919032124346
0.918119372629299,-0.500251875897694
0.914110110437048,-0.48566155114808
0.910071122284009,-0.471148048397109
0.906002047792004,-0.456711358166388
0.901902526582855,-0.442351470977523
0.897772198278385,-0.428068377352121
0.893610702500415,-0.413862067811786
0.88941767887077,-0.399732532878125
0.885192767011269,-0.385679763072746
0.880935606543738,-0.371703748917253
0.876645837089996,-0.357804480933253
0.872323098271868,-0.343981949642351
0.867967029711174,-0.330236145566155
0.863577271029738,-0.31656705922627
0.859153461849383,-0.302974681144303
0.854695241791929,-0.28945900184186
0.8502022504792,-0.276020011840546
0.845674127533018,-0.262657701661968
0.841110512575206,-0.249372061827732
0.836511045227585,-0.236163082859445
0.831875365111978,-0.223030755278712
0.827203111850208,-0.209975069607139
0.822493925064097,-0.196996016366334
0.817747444375466,-0.184093586077901
0.81296330940614,-0.171267769263447
0.808141159777939,-0.158518556444579
0.803280635112686,-0.145845938142901
0.798381375032204,-0.133249904880022
0.793443019158315,-0.120730447177546
0.788465207112842,-0.10828755555708
0.783447578517606,-0.0959212205402293
0.77838977299443,-0.0836314326486013
0.773291430165136,-0.0714181824038015
0.768152189651548,-0.0592814603274363
0.762971691075486,-0.0472212569411115
0.757749574058774,-0.0352375627664336
0.752485478223234,-0.0233303683250086
0.747179043190688,-0.0114996641384427
0.741829908582958,0.000254559271657961
0.736437714021868,0.0119323113836873
0.731002099129238,0.023533601676039
0.725522703526893,0.035058439627107
0.719999166836653,0.0465068347152852
0.714431128680342,0.0578787964189673
0.708818228679782,0.0691743342165473
0.813214850897807,0.175051612527286
0.591675534106075,0.184524564029107
0.793171401011378,0.222465516902017
0.567709718192508,0.208086654387817
0.582546657920061,0.220444900188862
0.554726783183171,0.0168517549125659
0.668241525269958,0.146104025613829
0.55584812358706,0.263202430874371
0.540147231121853,0.0492427958369542
0.741739791074799,0.277584660143478
0.644012378794361,0.188383983007823
0.737527870770126,0.0951883920797834
0.750564690204733,0.323006879517207
0.625325323246285,0.219292661142491
0.720155111893705,0.323907698610644
0.515043305054953,0.341829763333089
0.722858517310865,0.365841637952587
0.599703822180561,0.259436331998496
0.691687129396241,0.175411863061654
0.676729440600958,0.175910370570306
0.685583172174128,0.169265708148025
0.680950575475794,0.41175135056563
0.566510789845523,0.307900505782526
0.678372126192049,0.424064414722315
0.552861523115164,0.326752733974832
0.545955722423771,0.336064577129994
0.439881482057422,0.439505923583245
0.531979984497671,0.354459768950308
0.640225882079523,0.260524738855807
0.402160818002672,0.282526453014113
0.398011820093709,0.266590817045398
0.50336187188324,0.390336440025918
0.496066358864798,0.399115306301072
0.488713731144067,0.407818070935515
0.481303628342869,0.41644474340764
0.473835690083027,0.424995333195842
0.466309555986363,0.433469849778513
0.4587248656747,0.441868302634049
0.451081258769859,0.450190701240842
0.443378374893663,0.458437055077287
0.435615853667935,0.466607373621777
0.427793334714497,0.474701666352706
0.419910457655171,0.482719942748469
0.411966862111779,0.490662212287458
0.403962187706145,0.498528484448068
0.395896074060089,0.506318768708693
0.387768160795436,0.514033074547727
0.379578087534006,0.521671411443562
0.371325493897623,0.529233788874594
0.363010019508109,0.536720216319216
0.354631303987286,0.544130703255822
0.346188986956976,0.551465259162805
0.337682708039002,0.55872389351856
0.329112106855186,0.56590661580148
0.320476823027351,0.57301343548996
0.311776496177318,0.580044362062392
0.303010765926911,0.586999404997172
0.294179271897952,0.593878573772692
0.285281653712262,0.600681877867347
0.276317550991665,0.60740932675953
0.267286603357983,0.614060929927636
0.258188450433037,0.620636696850057
0.249022731838651,0.627136637005189
0.239789087196647,0.633560759871425
0.230487156128847,0.639909074927158
0.221116578257074,0.646181591650782
0.211676993203149,0.652378319520692
0.202168040588896,0.658499268015281
0.192589360036136,0.664544446612944
0.182940591166692,0.670513864792073
0.173221373602386,0.676407532031063
0.163431346965041,0.682225457808307
0.15357015087648,0.6879676516022
0.143637424958523,0.693634122891135
0.133632808832994,0.699224881153506
0.123555942121716,0.704739935867707
0.11340646444651,0.710179296512132
0.103184015429198,0.715542972565175
0.0928882346916041,0.720830973505229
0.0825187618555495,0.726043308810688
0.0720752365428568,0.731179987959946
0.0615572983753484,0.736241020431398
0.0509645869748467,0.741226415703436
0.0402967419631739,0.746136183254455
0.0295534029621524,0.750970332562849
0.0187342095936047,0.75572887310701
0.00783880147935309,0.760411814365334
-0.00313318175878013,0.765019165816215
-0.0141821004989726,0.769550936938045
-0.0253083151194018,0.774007137209219
-0.0365121859982456,0.77838777610813
-0.0477940735136815,0.782692863113173
-0.0591543380438872,0.786922407702741
-0.0705933399670402,0.791076419355228
-0.0821114396613184,0.795154907549029
-0.0937089975048992,0.799157881762536
-0.10538637387596,0.803085351474143
-0.117143929152679,0.806937326162246
-0.128982023713234,0.810713815305236
-0.140901017935802,0.814414828381509
-0.152901272198561,0.818040374869458
-0.164983146879688,0.821590464247476
-0.177147002357362,0.825065105993959
-0.189393199009759,0.828464309587299
-0.201722097215058,0.83178808450589
-0.214134057351436,0.835036440228127
-0.226629439797071,0.838209386232402
-0.239208604930139,0.841306931997111
-0.25187191312882,0.844329087000646
-0.264619724771291,0.847275860721402
-0.277452400235729,0.850147262637773
-0.290370299900312,0.852943302228152
-0.303373784143217,0.855663988970933
-0.316463213342623,0.85830933234451
-0.329638947876706,0.860879341827277
-0.342901348123645,0.863374026897627
-0.356250774461617,0.865793397033955
-0.3696875872688,0.868137461714654
-0.383212146923371,0.870406230418119
-0.396824813803508,0.872599712622743
-0.410525948287389,0.874717917806919
-0.424315910753192,0.876760855449043
-0.438195061579093,0.878728535027507
-0.452163761143271,0.880620966020705
-0.466222369823903,0.882438157907032
-0.480371247999167,0.88418012016488
-0.49461075604724,0.885846862272645
-0.508941254346301,0.88743839370872
-0.523363103274527,0.888954723951498
-0.537876663210094,0.890395862479373
-0.552482294531182,0.89176181877074
-0.567180357615968,0.893052602303993
-0.581971212842629,0.894268222557524
-0.589401550127344,0.894847849416392
-0.604023465723801,0.895838324674505
-0.618124766218515,0.896531488717708
-0.631710760362366,0.896931347121113
-0.644786756906236,0.89704190545983
-0.657358064601005,0.896867169308968
-0.669429992197555,0.896411144243641
-0.681007848446766,0.895677835838957
-0.692096942099521,0.894671249670028
-0.7027025819067,0.893395391311963
-0.712830076619183,0.891854266339875
-0.722484734987853,0.890051880328873
-0.731671865763591,0.887992238854068
-0.740396777697277,0.885679347490571
-0.748664779539793,0.883117211813492
-0.756481180042019,0.880309837397943
-0.763851287954838,0.877261229819033
-0.77078041202913,0.873975394651873
-0.777273861015775,0.870456337471574
-0.783336943665657,0.866708063853248
-0.788974968729654,0.862734579372003
-0.794193244958649,0.858539889602951
-0.798997081103523,0.854128000121203
-0.803391785915157,0.84950291650187
-0.807382668144431,0.844668644320061
-0.810975036542228,0.839629189150888
-0.814174199859428,0.834388556569461
-0.816985466846912,0.828950752150891
-0.819414146255561,0.823319781470288
-0.821465546836257,0.817499650102764
-0.823144977339881,0.811494363623428
-0.824457746517314,0.805307927607392
-0.825409163119437,0.798944347629766
-0.826004535897131,0.792407629265661
-0.826249173601277,0.785701778090187
-0.826148384982756,0.778830799678456
-0.82570747879245,0.771798699605577
-0.82493176378124,0.764609483446662
-0.823826548700006,0.75726715677682
-0.82239714229963,0.749775725171164
-0.820648853330993,0.742139194204802
-0.818586990544976,0.734361569452847
-0.81621686269246,0.726446856490408
-0.813543778524326,0.718399060892597
-0.810573046791456,0.710222188234523
-0.807309976244731,0.701920244091299
-0.803759875635032,0.693497234038033
-0.799928053713239,0.684957163649837
-0.795819819230234,0.676304038501822
-0.791440480936898,0.667541864169098
-0.786795347584113,0.658674646226777
-0.781889727922759,0.649706390249967
-0.776728930703717,0.640641101813781
-0.771318264677869,0.631482786493328
-0.765663038596096,0.62223544986372
-0.759768561209279,0.612903097500067
-0.753640141268299,0.60348973497748
-0.747283087524036,0.593999367871069
-0.740702708727373,0.584436001755946
-0.733904313629191,0.57480364220722
-0.72689321098037,0.565106294800003
-0.719674709531791,0.555347965109404
-0.712254118034336,0.545532658710535
-0.704636745238886,0.535664381178507
-0.696827899896323,0.525747138088429
-0.688832890757526,0.515784935015413
-0.680657026573377,0.50578177753457
-0.672305616094758,0.495741671221009
-0.66378396807255,0.485668621649842
-0.655097391257633,0.47556663439618
-0.646251194400888,0.465439715035132
-0.637250686253198,0.455291869141809
-0.628101175565443,0.445127102291323
-0.618807971088503,0.434949420058784
-0.609376381573262,0.424762828019302
-0.599811715770598,0.414571331747989
-0.590119282431394,0.404378936819954
-0.580304390306531,0.394189648810308
-0.570372348146889,0.384007473294163
-0.56032846470335,0.373836415846629
-0.550178048726796,0.363680482042816
-0.539926408968106,0.353543677457835
-0.529578854178163,0.343430007666797
-0.486004570651319,0.344770329948949
-0.505331802023393,0.338716671768645
-0.502756006402684,0.290273919622782
-0.487335659723475,0.303286787944284
-0.47658816104048,0.293348875749619
-0.475567915894089,0.286721861480134
-0.496776792984748,0.285779586548215
-0.426900435047213,0.264468551361873
-0.433010628557642,0.254108965168132
-0.409729587202029,0.258373570418749
-0.364341765512774,0.246911017095875
-0.414243813362964,0.196450710536153
-0.384618101910334,0.23456451615007
-0.377614909330747,0.206510906018211
-0.328880923113226,0.201030596670841
-0.367789142488932,0.210116477088719
-0.344139602571119,0.178918646974603
-0.301013946160564,0.175806637464425
-0.304614271013729,0.158409582967267
-0.31066107817295,0.152183504244405
-0.303800350459868,0.144744073570723
-0.326647470039303,0.150215157647115
-0.25250677419545,0.111449633643287
-0.236345327940395,0.108847940427934
-0.230143967848877,0.10661583743966
-0.244267721556151,0.101717169836189
-0.244233202591566,0.0890651071094338
-0.194376608357121,0.068665152649506
-0.211639561885101,0.078202279214147
-0.20088312531727,0.0706452456678431
-0.1901953449955,0.0632355197439123
-0.179581529670672,0.0559771070174648
-0.169046988093668,0.0488740130636118
-0.158597029015368,0.0419302434574636
-0.148236961186654,0.0351498037741308
-0.137972093358407,0.0285366995887242
-0.127807734281508,0.0220949364763545
-0.117749192706837,0.0158285200121322
-0.107801777385277,0.00974145577116811
-0.0979707970677088,0.00383774932857275
-0.0882615605050126,-0.00187859374054315
-0.07867937644807,-0.00740356786106909
-0.0692295536477621,-0.0127331674578942
-0.05991740085497,-0.0178633869559079
-0.0507482268205749,-0.0227902207799996
-0.0417273402954578,-0.0275096633550586
-0.0328600500304999,-0.0320177091059743
-0.0241516647765825,-0.036310352457636
-0.0156074932845864,-0.0403835878349331
-0.00723284430539303,-0.0442334096627548
0.000966973410116687,-0.0478558123659905
0.00898665111106157,-0.0512467903695298
0.0168208800465605,-0.0544023380982618
0.0244643514657324,-0.0573184499770758
0.0319117566176959,-0.0599911204308613
0.0391577867515701,-0.0624163438845076
0.0461971331164739,-0.0645901147629041
0.0530244869615261,-0.0665084274909401
0.0596345395358455,-0.0681672764935049
0.0660219820885511,-0.0695626561954878
0.0721815058687617,-0.0706905610217783
0.0781078021255962,-0.0715469853972657
0.0837955621081734,-0.0721279237468394
0.0892394770656124,-0.0724293704953887
0.0944342382470318,-0.0724473200678028
0.0993745369015506,-0.0721777668889712
0.104055064278288,-0.0716167053837833
0.108470511626362,-0.0707601299771283
0.112615570194892,-0.0696040350938958
0.116484931232997,-0.0681444151589748
0.120073285989796,-0.0663772645972549
0.123375325714408,-0.0642985778336253
0.12638574165595,-0.0619043492929755
0.129099225063544,-0.0591905734001948
0.131510467186306,-0.0561532445801724
0.133614159273357,-0.0527883572577979
0.135404992573815,-0.0490919058579604
0.136877658336799,-0.0450598848055494
0.138026847811427,-0.0406882885254542
0.138847252246819,-0.0359731114425642
0.139333562892093,-0.0309103479817687
0.139480470996369,-0.025495992567957
0.139282667808765,-0.0197260396260186
0.1387348445784,-0.0135964835808427
0.137831692554394,-0.00710331885731869
0.136567902985864,-0.000242539880335992
0.134938167121929,0.00698985892521616
0.13293717621171,0.0145978831344484
0.130559621504324,0.0225855383224713
0.12780019424889,0.0309568300643955
0.124653585694527,0.0397157639353317
0.121114487090355,0.0488663455103907
0.117177589685492,0.0584125803646829
0.112837584729056,0.0683584740733191
0.108089163470167,0.07870803221141
0.102927017157944,0.0894652603540659
0.0973458370415049,0.100634164076398
0.0913403143699695,0.112218748953516
0.0849051403924562,0.124223020560532
0.0780350063580841,0.136650984472556
0.0707246035159719,0.149506646264698
0.0629686231152385,0.162794011512069
0.0547617564050029,0.176517085789781
0.0460986946343838,0.190679874672942
0.0369741290525003,0.205286383736665
0.027382750908471,0.22034061855606
0.017319251451415,0.235846584706237
0.00677832193045105,0.251808287762307
-0.00424534640530195,0.26822973329938
-0.0157570623067251,0.285114926892569
-0.0277621345246996,0.302467874116982
-0.0402658718101064,0.320292580547731
-0.0532735829138269,0.338593051759926
-0.066790576586742,0.357373293328678
-0.0808221615797329,0.376637310829098
-0.0953736466436807,0.396389109836296
-0.110450340529467,0.416632695925383
