0.399608151114138,0.611316019381108
0.39606822764492,0.609982499311992
0.392574112163588,0.608632174055529
0.389125640126118,0.607265203425271
0.385722646988487,0.605881747234766
0.382364968206674,0.604481965297564
0.379052439236654,0.603066017427214
0.375784895534406,0.601634063437266
0.372562172555906,0.60018626314127
0.369384105757132,0.598722776352774
0.366250530594061,0.597243762885329
0.36316128252267,0.595749382552483
0.360116196998937,0.594239795167788
0.357115109478838,0.592715160544791
0.354157855418352,0.591175638497043
0.351244270273454,0.589621388838093
0.348374189500123,0.588052571381491
0.345547448554336,0.586469345940785
0.34276388289207,0.584871872329527
0.340023327969302,0.583260310361265
0.337325619242009,0.581634819849548
0.334670592166169,0.579995560607927
0.329487924792756,0.576676375189169
0.326959955407137,0.574996768639131
0.32447400949688,0.573304032613386
0.322029922517962,0.571598326925484
0.31962752992636,0.569879811388975
0.317266667178051,0.568148645817408
0.314947169729013,0.566404990024333
0.312668873035222,0.564649003823298
0.310431612552657,0.562880847027854
0.308235223737294,0.56110067945155
0.306079542045111,0.559308660907937
0.303964402932084,0.557504951210562
0.301889641854191,0.555689710172976
0.29985509426741,0.553863097608728
0.297860595627717,0.552025273331368
0.29590598139109,0.550176397154446
0.293991087013506,0.54831662889151
0.292115747950942,0.546446128356111
0.290279799659376,0.544565055361798
0.288483077594784,0.54267356972212
0.285006653970434,0.538859999760869
0.28332662332263,0.536938235066395
0.281685160725709,0.535006696980754
0.280082101635649,0.533065545317496
0.278517281508428,0.531114939890172
0.276990535800022,0.529155040512329
0.275501699966409,0.527186006997518
0.274050609463565,0.525207999159289
0.272637099747469,0.52322117681119
0.271261006274097,0.521225699766772
0.269922164499426,0.519221727839584
0.268620409879435,0.517209420843174
0.267355577870099,0.515188938591094
0.266127503927397,0.513160440896893
0.264936023507305,0.511124087574119
0.263780972065802,0.509080038436323
0.262662185058863,0.507028453297054
0.261579497942466,0.504969491969862
0.260532746172589,0.502903314268295
0.258546390496303,0.498749948996239
0.257606457501848,0.496663081052848
0.256701801677822,0.494569635989282
0.255832258480201,0.492469773619089
0.254997663364963,0.49036365375582
0.254197851788086,0.488251436213024
0.253432659205545,0.486133280804249
0.25270192107332,0.484009347343047
0.252005472847387,0.481879795642966
0.251343149983722,0.479744785517557
0.250714787938304,0.477604476780368
0.25012022216711,0.475459029244948
0.249559288126117,0.473308602724849
0.249031821271301,0.471153357033618
0.248537657058642,0.468993451984807
0.248076630944114,0.466829047391963
0.247648578383697,0.464660303068637
0.247253334833367,0.462487378828378
0.246890735749101,0.460310434484736
0.246560616586876,0.458129629851261
0.246262812802671,0.455945124741501
0.245763493192225,0.451565652347327
0.24556164827794,0.449371004690012
0.245391460565582,0.447173295810611
0.245145398570558,0.442769333639749
0.245069195199847,0.440563399975387
0.245023990854973,0.438355044343138
0.245009620991913,0.43614442655655
0.245025921066644,0.433931706429173
0.245072726535143,0.431717043774556
0.245149872853388,0.42950059840625
0.245257195477356,0.427282530137804
0.245394529863024,0.425062998782767
0.24556171146637,0.422842164154688
0.24575857574337,0.420620186067119
0.245984958150003,0.418397224333607
0.246240694142244,0.416173438767702
0.246525619176072,0.413948989182955
0.246839568707463,0.411724035392914
0.247182378192395,0.409498737211129
0.247553883086846,0.407273254451149
0.247953918846792,0.405047746926525
0.24838232092821,0.402822374450805
0.248838924787078,0.40059729683754
0.249836079661073,0.396148665452569
0.250376301588154,0.393925431307963
0.250944067116594,0.391703131280009
0.25153921170237,0.389481925182257
0.252810979869839,0.385043434031557
0.253487274363487,0.382826468605708
0.254190289738379,0.380611236364259
0.254919861450494,0.378397897120759
0.255675824955809,0.376186610688758
0.258960306028606,0.367365189346736
0.259845760339576,0.365166564175473
0.260756619179609,0.362970950697006
0.261692718004683,0.360778508724885
0.262653892270774,0.35858939807266
0.264650808949916,0.354221809982093
0.265686222274923,0.35204365217085
0.266746052864856,0.349869464933701
0.267830136175693,0.347699408084195
0.26893830766341,0.345533641435881
0.270070402783985,0.343372324802309
0.271226256993396,0.341215617997029
0.27240570574762,0.33906368083359
0.273608584502633,0.336916673125541
0.274834728714413,0.334774754686433
0.277356155332184,0.330506824869234
0.278651108650129,0.328381133118243
0.27996866924875,0.326261169890391
0.281308672584024,0.324147094999226
0.282670954111929,0.322039068258298
0.284055349288441,0.319937249481157
0.285461693569539,0.317841798481353
0.288339571269397,0.313670639067952
0.289810775600113,0.311595250281454
0.291303270859323,0.30952686852649
0.292816892503004,0.307465653616611
0.294351475987133,0.305411765365365
0.297482870300646,0.301326608092972
0.299079352041985,0.299295658698924
0.30069613744768,0.297272675217708
0.30233306197371,0.295257817462873
0.303989961076052,0.293251245247969
0.305666670210683,0.291253118386545
0.309078860400722,0.287282839978336
0.310814012368084,0.28531100805865
0.312568316191644,0.283348260746643
0.314341607327379,0.281394757855864
0.316133721231267,0.279450659199862
0.317944493359285,0.277516124592187
0.31977375916741,0.275591313846389
0.323487113647889,0.27177150319462
0.325370873232199,0.269876822915748
0.327272468320524,0.267992505752952
0.333082621169368,0.262403331096505
0.33505391283353,0.260562064533502
0.337042217281594,0.258731960154322
0.339047369969538,0.256913177772514
0.341069206353338,0.255105877201626
0.343107561888972,0.253310218255211
0.345162272032417,0.251526360746815
0.34723317223965,0.249754464489989
0.34932009796665,0.247994689298283
0.353541367803854,0.244512141364428
0.355675382826014,0.242789688249378
0.357824765191848,0.241079995453646
0.359989350357334,0.23938322279078
0.362168973778449,0.237699530074332
0.364363470911171,0.23602907711785
0.368796428135342,0.232728529738982
0.371034559138746,0.231098754943696
0.373286905677665,0.229482859162574
0.375553303208077,0.227881002209166
0.377833587185959,0.226293343897022
0.380127593067288,0.22472004403969
0.382435156308041,0.223161262450721
0.384756112364195,0.221617158943664
0.389437544746617,0.218573625429485
0.394170573862373,0.215590722005548
0.396556025835193,0.214122406111295
0.398953883359279,0.212669727180251
0.401363981890606,0.211232845025965
0.403786156885153,0.209811919461988
0.406220243798897,0.208407110301869
0.408666078087815,0.207018577359157
0.411123495207884,0.205646480447402
0.413592330615081,0.204290979380154
0.416072419765384,0.202952233970961
0.41856359811477,0.201630404033374
0.421065701119216,0.200325649380942
0.423578564234699,0.199038129827215
0.426102022917197,0.197768005185741
0.431180068807145,0.195280579893755
0.436298522436879,0.19286465201338
0.441456067454216,0.190521500053012
0.444049087873178,0.189377614576705
0.446651387506974,0.188252402521047
0.449262801811579,0.18714602369959
0.451883166242971,0.186058637925882
0.454512316257127,0.184990405013473
0.457150087310025,0.183941484775913
0.459796314857641,0.182912037026751
0.462450834355954,0.181902221579536
0.465113481260939,0.180912198247819
0.467784091028575,0.179942126845148
0.470462499114839,0.178992167185073
0.473148540975708,0.178062479081144
0.475842052067159,0.17715322234691
0.478542867845169,0.176264556795921
0.481250823765716,0.175396642241726
0.483965755284777,0.174549638497875
0.486687497858329,0.173723705377917
0.489415886942349,0.172919002695402
0.492150757992815,0.17213569026388
0.494891946465704,0.1713739278969
0.497639287816993,0.170633875408011
0.500392617502659,0.169915692610763
0.50315177097868,0.169219539318705
0.508686891125694,0.167893960504361
0.511462528708642,0.167264854609172
0.514243331905854,0.166658417473372
0.517029136173306,0.166074808910511
0.522615089742842,0.164976716757801
0.52541490995688,0.164462552795051
0.528219073065068,0.163971856659437
0.531027414523383,0.16350478816451
0.533839769787802,0.163061507123818
0.545126038026065,0.161529453774394
0.55078897683723,0.160910306977383
0.553624821511742,0.160638012895725
0.556463363640175,0.1603907847767
0.559304438678508,0.160168782433855
0.562147882082718,0.159972165680742
0.567841215812676,0.159655728197905
0.573542048477867,0.159442750836585
0.576394865551119,0.159375459235368
0.57924906372611,0.159334512105179
0.582104478458819,0.159320069259567
0.584960945205222,0.159332290512083
0.587818299421297,0.159371335676274
0.590676376563021,0.159437364565692
0.593535012086372,0.159530536993886
0.596394041447325,0.159651012774404
0.607830806386721,0.160409145690721
0.610689336775351,0.160668535436108
0.613547273737448,0.160956187415118
0.61640445272899,0.161272261441299
0.619260709205952,0.161616917328202
0.622115878624314,0.161990314889376
0.624969796440051,0.16239261393837
0.630673219087563,0.163284555754017
0.633522394831291,0.16377451814777
0.63921485243858,0.164843224974881
0.642057805214096,0.165422289035338
0.644898354578827,0.166031373278462
0.647736335988753,0.166670637517803
0.656233227049465,0.168771108348621
0.661881964675491,0.170325252131991
0.664701082932102,0.171148952433173
0.667516481425747,0.172003951425417
0.670327995612404,0.172890408922275
0.67313546094805,0.173808484737295
0.675938712888662,0.174758338684028
0.678737586890218,0.175740130576021
0.684321542900069,0.177800167449992
0.687106295820319,0.178878732059067
0.689886012625421,0.179989873867603
0.692660528771353,0.181133752689147
0.700951227813899,0.184763409367332
0.703703295882922,0.186039834376408
0.706449340572661,0.187349795466242
0.714649688925946,0.19148249335578
0.717369994658321,0.192928196904136
0.720083454291298,0.194408235600997
0.722789903280854,0.195922769259912
0.728181111153615,0.199055960718103
0.736211229536531,0.204018455459533
0.738872159241086,0.205743314975313
0.74152492649406,0.207503788147993
0.744169366751432,0.209300034791124
0.746805315469179,0.211132214718255
0.752051080109704,0.214905013678715
0.754660566944438,0.216845952339142
0.759851926922733,0.220837707088141
0.762433470978249,0.222888842803811
0.770119584881996,0.2292652010781
0.7751932501586,0.233703497335852
0.777714465967066,0.235979342127845
0.78022505116361,0.238293197779981
0.78272484120421,0.240645224105811
0.785213671544843,0.243035580918884
0.790157794950118,0.247931925260956
0.792612758926714,0.250438232417055
0.795056105027252,0.252983509314594
0.802314790632291,0.260854756591354
0.804710019788371,0.263557510590153
0.809462991767991,0.269082484828866
0.811820405503486,0.271905024695879
0.814164885010742,0.274767812812729
0.816496265745735,0.277671008992967
0.818814383164442,0.28061477305014
0.821119072722841,0.2835992647978
0.823410169876909,0.286624644049495
0.825687510082623,0.289691070618774
0.827950928795961,0.292798704319189
0.832435343569416,0.299138232367618
0.834656010541488,0.302370446342733
0.836862097845092,0.30564450670318
0.839053440936205,0.30896057326251
0.845537359494377,0.319162408269286
0.849783234163622,0.326176592516622
0.851882656555316,0.329748052353784
0.858084889430408,0.340721820481841
0.860119740475367,0.344466738775216
0.862138037323585,0.348255421216518
0.866124310253708,0.3559647177971
0.870042391868595,0.363850988731984
0.871975449572768,0.367860889116164
0.873890965816064,0.371915512529567
0.87953062034046,0.384349319080618
0.883199666078588,0.392865068509181
0.885006478132142,0.397191386182469
0.890314096502495,0.410446028800959
0.892045148215767,0.414956672251828
0.893756848483911,0.419513796680966
0.895449032762905,0.424117561901923
0.900143228181028,0.43777067945247
0.902883543077377,0.446621152871857
0.905315880392897,0.455272650355361
0.906417452473497,0.459524401341398
0.908393193511675,0.467881144242521
0.910068117094224,0.476043856969686
0.910793667355287,0.480053070238274
0.911445087271223,0.484014517827662
0.91331662360889,0.49938759715513
0.913602761893087,0.503113925669957
0.913816917869716,0.506793972234162
0.913959449545038,0.510427984135839
0.914030714925311,0.514016208663085
0.913960878825752,0.52105628474667
0.913610273621121,0.527916178789686
0.913330577620052,0.531279175766222
0.912981763361495,0.534597869096905
0.91256418885171,0.537872506069831
0.912078212096955,0.541103333973095
0.91090248387758,0.547434551723027
0.91021344842548,0.550535436145887
0.90945744275345,0.553593500651471
0.907745952774643,0.559582159063196
0.906791184480386,0.56251324754553
0.905770877991239,0.565402505262973
0.904685391313463,0.568250179503621
0.903535082453318,0.571056517555571
0.90104143021096,0.576546174245762
0.899698802841266,0.579229987460194
0.898292785314242,0.581873453638314
0.896823735636149,0.584476820068216
0.890324375538276,0.59449423406758
0.880824912768056,0.60614343180345
0.876606456996855,0.610537991810342
0.874408945994199,0.612679449733147
0.872153056921852,0.614784022652986
0.865038701349265,0.620878904275671
0.854757319989915,0.628504025208902
0.849282113167532,0.632106156333958
0.846462133742573,0.633855480069432
0.843587714316783,0.635570638971
0.840659212896422,0.637251880326757
0.828411547394457,0.6436426160536
0.825218006095136,0.645157979001747
0.801429114554108,0.654871220889628
0.797830125773969,0.656134037366603
0.790485296499152,0.658568551071259
0.775218255266644,0.663080025550091
0.771283295269435,0.664134846489843
0.767301771409112,0.665160942933806
0.763274041691937,0.666158562170076
0.742454835472357,0.670728155319395
0.73815738874552,0.671560104359526
0.733816242205649,0.672365307208637
0.729431753859005,0.673144011154826
0.720534183770435,0.674622911490817
0.716021818041028,0.675323602456813
0.706871715243274,0.676648702425286
0.702234694187445,0.677273606003955
0.683281832397186,0.6795280143371
0.678444212589185,0.680031551365484
0.663698510800294,0.681401962928412
0.658706856103233,0.6818128579023
0.653677587699558,0.682201210582805
0.638367680311442,0.683233487744983
0.633191537143906,0.683534144132917
0.617449597614445,0.684309267331692
0.612132307783208,0.684526184036596
0.59597552041288,0.685056023100588
0.590522812018099,0.685193156732001
0.562772035790855,0.685593857429008
0.551451032098583,0.685625768937581
0.545744670877192,0.685615206250632
0.528446445787122,0.685480411881998
0.516768591268091,0.685307099927381
0.51088702668966,0.685196151101704
0.504977514573632,0.685069336761241
0.499040412926268,0.684926904194091
0.481067150858751,0.684408370013471
0.475023271148637,0.68420593742053
0.462858471234558,0.683758174164122
0.456738267043112,0.683513338076848
0.450593337370408,0.683254862067656
0.438230733606268,0.682697979435901
0.419510337007123,0.681766538276289
0.381469618998004,0.679582115515459
0.375055908038483,0.679179248914754
0.362168629926065,0.67834248747144
0.355695778785689,0.677909087205023
0.349203930264213,0.677466003626227
0.323053722492521,0.675601781949187
0.296628197124042,0.673602410321793
0.263244030653306,0.670937251759252
0.243042843199266,0.669261522968587
0.23628281415688,0.668691658158086
0.229510231846073,0.668116561220939
0.209120745365732,0.666362350530587
0.202301530043844,0.665768797967819
0.188631167694967,0.664569953071887
0.181780736680498,0.663965155314914
0.174920616447687,0.663357103736066
0.168051165002796,0.662746045623438
0.161172740352085,0.662132228265127
0.154285700501812,0.661515898949229
0.147390403458238,0.660897304963839
0.133576469816228,0.659654312136974
0.112802590559952,0.6577790200779
0.0919737289020037,0.655896699550606
0.0850202274004175,0.655268851504131
0.0710995510114003,0.654014027333692
0.0571630301496554,0.652762014313909
0.0501897230571602,0.652137680205754
0.0432135288652625,0.651514790749553
0.00830178163384107,0.648430668331207
-0.00567059673544482,0.647215787010908
-0.0126569994972019,0.646613357141795
-0.054555851752964,0.643084508151687
-0.0615323916847016,0.642512963046329
-0.0754765905396471,0.641386323908189
-0.0894065613414862,0.64028326812079
-0.131082464927572,0.637135383910743
-0.138008063506689,0.636636853527101
-0.158742752801307,0.63519098011187
-0.165639087064402,0.634726419179012
-0.179406764300364,0.633824876350203
-0.186277391260712,0.633388389030444
-0.206832129436104,0.632139030906904
-0.21366346790515,0.631743437104624
-0.254413908592356,0.629606202966133
-0.267898286146586,0.628989756472446
-0.281328338946598,0.62842458959628
-0.301365294122909,0.627677316106569
-0.354094587127093,0.626321200434979
-0.360607449103643,0.626221245374362
-0.380033043351096,0.626020060971263
-0.405656822855527,0.625991302339815
-0.437209127488824,0.626362500185263
-0.480410977045032,0.627697575820668
-0.498552284624481,0.62857951150441
-0.510514739284988,0.629275667859304
-0.53411055943874,0.630936561098318
-0.539938865864149,0.631409181198888
-0.551508194335514,0.632425028565682
-0.568638606000026,0.634129026851451
-0.574287689585149,0.63474607602858
-0.607516067475674,0.638980703617752
-0.623685923811964,0.641451359143639
-0.660196787330785,0.648178453637238
-0.680257278950792,0.652652727169469
-0.704468826967838,0.658919786363467
-0.70919234764092,0.66026556672039
-0.736671876641282,0.669007600688881
-0.741104857576562,0.67057813967702
-0.749841648335256,0.673818757526212
-0.754144742146151,0.675489330963459
-0.770913420120647,0.682512491519022
-0.779026528658807,0.686232053914099
-0.786954998164135,0.690092908793733
-0.790849098263838,0.692076939135499
-0.809603931982337,0.702543011387674
-0.840244060227705,0.72375270347395
-0.84648746193201,0.728894418527404
-0.858335858764782,0.739660086078697
-0.881777802750287,0.766306077378635
-0.890713943204556,0.779262169206801
-0.904065058391259,0.803647531963059
