-0.238443450104232,0.123344013647083
-0.251553522676943,0.142668251070351
-0.256456292627824,0.148496522665888
-0.256095790434087,0.148714879993843
-0.286723857098719,0.14323571575952
-0.250475430910474,0.140461951323675
-0.262934817202932,0.137163636695148
-0.276818229031333,0.159725732292239
-0.243753140145097,0.138246295339199
-0.253399097035149,0.150623091169498
-0.252862681966639,0.151037923293413
-0.276386646173572,0.163098282156686
-0.251871830300467,0.125547655075008
-0.225725785806575,0.13438395408402
-0.295608267403321,0.13031939263763
-0.234335813150377,0.169751381463838
-0.249141704783089,0.1540796084396
-0.215994989656467,0.179360513765994
-0.237194493897699,0.148567772173299
-0.251455932853905,0.156746049417153
-0.220771021688507,0.158579295957948
-0.245406214118842,0.157304155986209
-0.27694774006012,0.151775977145839
-0.254293779623591,0.135007370989083
-0.214038977965043,0.170780906427947
-0.242021495110169,0.16030752548127
-0.196885717801564,0.172811663104897
-0.227804250172701,0.152924251669672
-0.236370620115939,0.152196169029818
-0.278718959733213,0.180089267047698
-0.22444705319943,0.18204684964277
-0.23631570253371,0.165472497998488
-0.234252905005243,0.167360256202175
-0.252456219758279,0.176481101158871
-0.232112503481095,0.169326949126242
-0.229871457714171,0.18227930797523
-0.22989619556475,0.171370107393535
-0.228760107210592,0.17241958935053
-0.244583001306876,0.188285420317787
-0.247274847749298,0.176512607754191
-0.243519917369865,0.196489225538481
-0.216301954885121,0.247501633151565
-0.213041480548742,0.185244932156988
-0.217735476222041,0.182646450677954
-0.216425536920062,0.183863945582184
-0.207271218274724,0.185520587910604
-0.213757216539382,0.186343937512286
-0.247652053611167,0.179075418168408
-0.224413371854362,0.232006166027998
-0.208795134877783,0.174586913244508
-0.205182982825226,0.195258178641635
-0.193508136688221,0.205363100969075
-0.200129360474585,0.171639500759147
-0.217671967356811,0.184737266464081
-0.201099642779594,0.188216275477648
-0.200992501196639,0.198185319120263
-0.199501951214776,0.199563684838112
-0.19037936729722,0.243291564402936
-0.19184837150679,0.206620332967412
-0.188697180125681,0.209514146124463
-0.161839135366273,0.186491624558192
-0.155694232670498,0.241374774452185
-0.182250260757632,0.215410168987634
-0.12443407401795,0.198093920465097
-0.159515757279825,0.195257104918005
-0.162009816936434,0.227233132064317
-0.18013575703962,0.196505117213731
-0.193127402042667,0.23774103776288
-0.170539832359185,0.226024484457026
-0.168825808495793,0.227566658349911
-0.102063789823669,0.22537227177442
-0.163626747034068,0.232225153908704
-0.160115336504316,0.235354375793236
-0.158346656974166,0.236925128172671
-0.11712933693405,0.229174381295199
-0.185466307780158,0.250262102308916
-0.124536555077349,0.25231608716199
-0.147566308706872,0.24641617622453
-0.14574351935199,0.248006225589035
-0.120314372356053,0.259639363245667
-0.142077509323004,0.251190581716626
-0.159813975697526,0.28313133458233
-0.141938817379406,0.252370295661402
-0.132803204242074,0.259161902160589
-0.129054226415464,0.262348120273136
-0.136329203375225,0.247495788482005
-0.101320782577869,0.271498588627844
-0.105447728705369,0.266905373731895
-0.110774776465903,0.306977273884829
-0.11246795496328,0.276899920155682
-0.127899239912154,0.276834851921778
-0.113876436371925,0.275018057922797
-0.00402166615833285,0.156015986058892
-0.0212610966060205,0.399590908266018
-0.0689085776303982,0.261999475881598
0.0157467793244398,0.399996572318714
-0.205736793582493,0.180550262538867
0.0225353670226632,0.185079404076456
0.00324055987167467,0.16919099620608
-0.205534235760712,0.196361499922185
-0.175377799409065,0.377927060103055
-0.0830009398716441,0.299484615731294
-0.0788240432508145,0.314885943649708
0.00913219458025182,0.45724949056789
-0.186413911609059,0.211877265893844
0.0231576005941675,0.401045019895012
0.0454747282347711,0.205166532448802
-0.17661431242494,0.217644043776602
-0.155957933962574,0.451353253455876
-0.155642312040763,0.427428276948298
0.0487197858822501,0.220089065229307
-0.160105174648556,0.215985533324656
0.062687030530665,0.432521404141636
0.049557058917377,0.414495431589586
-0.151287362866359,0.23361273821715
-0.0841869730324425,0.333617064500876
-0.107207898873423,0.215667804832803
-0.00569934212158424,0.345423673473533
0.0559729655083604,0.222494959912712
-0.0377960077307543,0.336429856245915
-0.0280221617542224,0.339963307113674
-0.124311251935489,0.431559626716924
-0.0137802527563639,0.357925334980933
-0.0179976599626179,0.346226002896303
-0.0448894616625529,0.359928157563519
-0.0243048143781882,0.352717100647592
-0.00609068582238381,0.349050407432739
-0.0248989740851613,0.348763847991965
-0.00209287951839682,0.3538780407016
0.0085448273449518,0.331933909131948
0.0228534766154418,0.345433519023568
-0.0287106305587512,0.341650940983843
0.0106019755848761,0.328753443741844
0.0126276713482683,0.357133910481024
0.0435254744636562,0.36958123023984
0.0177419722468126,0.365930842395766
0.0242800733457002,0.377641902050099
0.0237891268876902,0.346654625368867
0.0269513951349388,0.361541846248077
0.0190533670976266,0.384690574557733
0.0244580683853203,0.326719647888127
0.0262983857281818,0.344284266355563
0.0110391598735642,0.349040279001216
0.0237326289023744,0.387020695092997
0.0740916715939401,0.363774259240949
0.0416186856721152,0.363817928028109
0.0296463559183456,0.377552187241374
0.0890000796954144,0.367023353234181
0.0507683647909461,0.380428308503953
0.0656927843710248,0.402430709578675
0.0190416572283863,0.347528776152292
0.0551841828483373,0.362620984843132
0.0522691913326627,0.363451858395169
0.0618951190346853,0.366833959625665
0.0559903594204477,0.362777758032917
0.0571959879632038,0.362485518928962
0.0259108841467468,0.374342193364664
0.0866523367748705,0.389377865415893
0.0629538755085897,0.360503890788663
0.0657880546231379,0.332131660617078
0.0647283838775738,0.364126122360351
0.0702195831213435,0.356216221724487
0.0650396927703531,0.34747926379807
0.0818998286615791,0.328588659534154
0.0975879529620305,0.353181570175064
0.0958974625819879,0.365153658842413
0.0773021760034071,0.349030574410873
0.108629814408797,0.355922720066785
0.0693354912297786,0.337875275035196
0.096819123696725,0.341687417669157
0.0829781713799062,0.339255654261161
0.0890191890473563,0.353964549335027
0.0847218562811684,0.334890256062873
0.0982549217707846,0.336680088397962
0.0994762502507431,0.310696304531211
0.067234668993138,0.314479903181729
0.0712682652658476,0.34122668718269
0.10372635973062,0.32027600066071
0.0891997493701685,0.31544375113492
0.0903013022706438,0.30245314682375
0.0903884133128216,0.300117995964354
0.090480106245669,0.29281485541608
0.0863888553880177,0.275323274964107
0.0594515537793749,0.285320877136691
0.0903128826788392,0.28505870079764
0.0662102926359266,0.27024209010746
0.128692614058584,0.269811607317138
0.0931469733168361,0.311634837059851
0.0902159227858232,0.290265307521326
0.117121874918164,0.250677041486192
0.107542447867857,0.277863395468179
0.0651189809059747,0.224379656758173
0.0841980695718186,0.232147922828483
0.083551447725992,0.228541765331187
0.112332447722276,0.24663340510842
0.0560633556428484,0.248565186100143
0.0925151689811925,0.241307267034659
0.0703505419802113,0.175033536206542
0.0697463227012053,0.167458505064784
0.0619778517509972,0.12299053425454
0.0544567205620039,0.113936033266257
0.0508958395508281,0.127098967099634
0.0268283641018729,0.107355585585352
0.0177806596176893,0.0805828255042443
0.0530466650815989,0.0729868671550971
0.0573842589171587,0.0638609124866406
0.0237726522971855,0.0219680659297008
0.0191965003073333,0.00924193612067377
-0.0296488066416843,0.00729972023450182
0.0237639991958172,-0.0160322860237908
0.00182813967918959,-0.0375332789597535
-0.0122305230810642,-0.0434631621267154
-0.00352748844713005,-0.0515460296631648
-0.0583312437658872,-0.0608684463123749
-0.0152495114655202,-0.0215025383048896
-0.00170083527468178,-0.112990330539163
-0.0362086603876006,-0.133914498135937
-0.0595906844526485,-0.162900712812536
-0.0131575015141041,-0.191296438058211
-0.0564037995228454,-0.182721690011205
-0.0555454396462699,-0.204017568155737
-0.0958554937903702,-0.239330182323963
-0.0783297732838732,-0.234352148112211
-0.145609469399345,-0.386343050038821
-0.180973653913745,-0.445208766896496
-0.213282703525911,-0.452467595839205
-0.199644692525426,-0.503414803834569
-0.204673486759723,-0.545362888597102
-0.252636765526583,-0.625851454948552
