0.761073339492706,0.0274777553607242
0.762047970028672,0.0276574293083311
0.762994929830093,0.027858984750234
0.763914297793314,0.0280823090098531
0.764806152814679,0.0283272894106082
0.765670573790534,0.0285938132759194
0.884580160016997,0.147512569362235
0.767317429191092,0.02919104069389
0.768100021408485,0.0295215188933894
0.768855495165747,0.0298730898511248
0.769583929359222,0.0302456408905164
0.770285402885256,0.0306390593349839
0.770959994640193,0.0310532325079476
0.890121976704098,0.122255915751829
0.772228848422158,0.031943392333043
0.772823268241874,0.0324191536320148
0.773391121875874,0.0329152189531627
0.773932488220501,0.0334314756199066
0.774447446172101,0.0339678109556666
0.774936074627018,0.0345241122838626
0.87023857478155,0.14341513645951
0.664680585768689,-0.0678925737853944
0.776244771975122,0.0363116854572669
0.776628871406758,0.0369467239894071
0.776987035823434,0.0376011651310833
0.679964952130865,-0.0739832291436291
0.777625875197292,0.0389678045367239
0.777906707947162,0.0396797774475282
0.778161921267454,0.0404107022615486
0.778391594054511,0.041160466302205
0.778595805204679,0.0419289568929174
0.778774633614303,0.0427160613571058
0.778928158179727,0.0435216670181903
0.779056457797296,0.0443456611995909
0.779159611363355,0.0451879312247274
0.779237697774249,0.0460483644170199
0.779290795926323,0.0469268480998885
0.779318984715921,0.0478232695967531
0.779322343039389,0.0487375162310337
0.779300949793071,0.0496694753261503
0.67117878883638,-0.0629016295519543
0.779184224176458,0.0515860801925717
0.779089049598852,0.0525705006107163
0.77896943903684,0.053572182783377
0.778825471386766,0.0545910140339737
0.778657225544976,0.0556268816859264
0.778464780407814,0.056679673062655
0.778248214871625,0.0577492754875797
0.778007607832754,0.0588355762841204
0.777743038187545,0.0599384627756971
0.777454584832344,0.0610578222857298
0.777142326663496,0.0621935421376385
0.776806342577345,0.0633455096548432
0.776446711470236,0.0645136121607638
0.776063512238514,0.0656977369788205
0.775656823778524,0.0668977714324331
0.77522672498661,0.0681136028450218
0.774773294759119,0.0693451185400064
0.774296611992393,0.070592205840807
0.773796755582778,0.0718547520708436
0.77327380442662,0.0731326445535362
0.88647664359987,0.193700688061332
0.772158933460051,0.0757340175705693
0.888274055084396,0.167738990158885
0.770952630263444,0.0783954234792663
0.770315388819739,0.0797483570765387
0.769655526007559,0.0811159608669872
0.768973120723248,0.0824981221740316
0.768268251863153,0.0838947283210919
0.767540998323617,0.0853056666315883
0.766791439000986,0.0867308244289406
0.766019652791604,0.0881700890365688
0.765225718591817,0.089623347777893
0.764409715297968,0.0910904879763332
0.763571721806403,0.0925713969553094
0.762711817013467,0.0940659620382415
0.761830079815505,0.0955740705485495
0.760926589108861,0.0970956098096535
0.76000142378988,0.0986304671449735
0.759054662754908,0.100178529877929
0.758086384900288,0.101739685331941
0.757096669122367,0.103313820830429
0.756085594317488,0.104900823696813
0.755053239381996,0.106500581254513
0.753999683212237,0.108112980826948
0.850374819825556,0.199994161419276
0.751829282755295,0.111375255309707
0.750712596260802,0.113024904866871
0.749575024117421,0.11468674573245
0.748416645221496,0.116360665229865
0.643990677939401,0.0121449365987696
0.746037782757396,0.119744289413884
0.74481745698191,0.121453768747327
0.743576640039261,0.123174876006286
0.742315410825791,0.124907498514181
0.741033848237848,0.126651523594432
0.739732031171775,0.128406838570459
0.738410038523918,0.130173330765681
0.737067949190621,0.13195088750352
0.827165780517465,0.246775664665253
0.734323796053086,0.135538743900725
0.732921890041539,0.137348818206932
0.731500202929931,0.139169506349434
0.84317306377954,0.245435960801863
0.728597800991913,0.142842273437006
0.727117243958193,0.144694127028916
0.725617221409792,0.146556143750802
0.724097812243054,0.148428210926084
0.822275995702845,0.244634865980634
0.604822749621551,0.0610996425628009
0.719424053996274,0.154103588406505
0.71782788731964,0.15601473062957
0.716212728506395,0.157935359923132
0.621709238341511,0.0569647697912921
0.831038238254264,0.271309388808246
0.606213651073525,0.0552290316975728
0.70956374981419,0.165710494270736
0.707854813763058,0.167676868768077
0.589342045919952,0.0789353456943525
0.704381464281508,0.171635938119226
0.702617208643782,0.173628407619875
0.700834670936547,0.175629350101799
0.808434976186403,0.268180647915971
0.697215064898931,0.179656203303156
0.695378154361241,0.181681888669428
0.693523277339421,0.183715596310655
0.691650512729817,0.185757213550259
0.689759939428773,0.187806627711659
0.687851636332636,0.189863726118274
0.685925682337749,0.191928396093526
0.683982156340457,0.194000524960833
0.682021137237105,0.196080000043616
0.680042703924038,0.198166708665295
0.678046935297601,0.20026053814929
0.676033910254139,0.20236137581902
0.674003707689996,0.204469108997907
0.560952821241741,0.106888957094526
0.669892085585049,0.208704811176827
0.667810823836934,0.210832554823702
0.665712700153517,0.212966743273412
0.549243423430082,0.100928639470198
0.560205241862312,0.104330434027462
0.65931794645491,0.219406850673756
0.657153163993738,0.22156569156901
0.654971914078989,0.223730413884199
0.772465606449193,0.326883173483314
0.650560327474139,0.228077052068065
0.55796328601204,0.136063950355149
0.646083817811121,0.232445863812714
0.64382141407366,0.234638303078883
0.641543016260691,0.236835947705507
0.63924870326856,0.239038685016007
0.530027819066908,0.13654646231216
0.634612647332187,0.243458986982314
0.632271062180636,0.245676326284962
0.629913877435301,0.247898307565165
0.627541171992527,0.250124818146345
0.71937702747265,0.350820793713788
0.729669728277538,0.368138145260592
0.620330720443023,0.256830398929937
0.617896721173943,0.25907389994922
0.615447595689148,0.261321366886578
0.612983422884984,0.263572687065432
0.610504281657795,0.265827747809202
0.608010250903926,0.268086436441308
0.605501409519722,0.270348640285169
0.602977836401528,0.272614246664207
0.600439610445688,0.27488314290184
0.694976466205926,0.382195139893536
0.595319515606452,0.279430354246574
0.592737804515745,0.281708444000514
0.590141756172772,0.28398937290673
0.677637179726837,0.398124882190485
0.584906963315408,0.288559297469671
0.582268376593706,0.290848067773234
0.579615768205118,0.293139226522754
0.576949217045987,0.295432661041649
0.454950167768375,0.196505098962505
0.571574602001481,0.300025906681247
0.568866695908794,0.30232549244879
0.566145162630945,0.304626903279389
0.563410081064278,0.306930026496463
0.560661530105139,0.309234749423433
0.557899588649872,0.311540959383719
0.456300379541905,0.205702378624681
0.552335849836333,0.316157389697918
0.549534210270751,0.318467384698671
0.546719495794421,0.32077841602642
0.543891785303687,0.323090371004585
0.541051157694895,0.325403136956585
0.437650051769618,0.216616844437719
0.535331466708512,0.330030651075774
0.532452561123612,0.332345173889802
0.529561054006033,0.334660056971345
0.526657024252119,0.336975187643825
0.523740550758215,0.33929045323066
0.520811712420666,0.341605741055271
0.517870588135818,0.343920938441077
0.514917256800014,0.3462359327115
0.5119517973096,0.348550611189958
0.50897428856092,0.350864861199872
0.50598480945032,0.353178570064661
0.502983438874144,0.355491625107747
0.499970255728736,0.357803913652548
0.496945338910443,0.360115323022485
0.493908767315609,0.362425740540977
0.490860619840578,0.364735053531446
0.487800975381696,0.36704314931731
0.484729912835307,0.36934991522199
0.481647511097755,0.371655238568905
0.478553849065387,0.373959006681477
0.475449005634547,0.376261106883124
0.366483993155079,0.265938068493454
0.46920609016283,0.380859852847325
0.466068175914642,0.383156273256719
0.462919395853361,0.385450575048869
0.459759828875333,0.387742645547195
0.456589553876901,0.390032372075117
0.453408649754411,0.392319641956054
0.450217195404208,0.394604342513427
0.447015269722636,0.396886361070655
0.443802951606041,0.399165584951159
0.440580319950766,0.40144190147836
0.531125513703455,0.513382313896292
0.43410443160956,0.405985361766527
0.312514656161533,0.313576376784604
0.335668262034511,0.312679029272211
0.424315219966281,0.412775930134496
0.421032363902175,0.41503243633369
0.417739746573804,0.41728524644352
0.414437446877513,0.419534247787406
0.411125543709646,0.421779327688767
0.40780411596655,0.424020373471024
0.404473242544567,0.426257272457597
0.401133002340045,0.428489911971906
0.397783474249326,0.43071817933737
0.489945860247096,0.53225871265335
0.39105686999468,0.435161146915445
0.387679951623442,0.437375621774897
0.384294060951388,0.439585273779184
0.261751178057407,0.32248253994869
0.37749567829021,0.443989658515945
0.374083344093776,0.446184165895259
0.370662353181905,0.448373399713089
0.367232784450941,0.450557247292854
0.36379471679723,0.452735595957975
0.360348229117116,0.454908333031872
0.356893400306945,0.457075345837965
0.35343030926306,0.459236521699673
0.349959034881808,0.461391747940416
0.243429054746928,0.352687588874293
0.342992251692579,0.465683900852691
0.339496900677291,0.467820602171062
0.335993681910015,0.469950903162148
0.332482674287095,0.472074691149371
0.328963956704877,0.474191853456148
0.325437608059704,0.476302277405902
0.321903707247921,0.478405850322051
0.318362333165875,0.480502459528016
0.314813564709909,0.482591992347216
0.311257480776368,0.484674336103072
0.307694160261597,0.486749378119004
0.304123682061941,0.488817005718432
0.300546125073745,0.490877106224775
0.296961568193354,0.492929566961454
0.293370090317112,0.494974275251888
0.289771770341365,0.497011118419498
0.286166687162456,0.499039983787704
0.282554919676732,0.501060758679925
0.278936546780537,0.503073330419582
0.275311647370215,0.505077586330094
0.271680300342112,0.507073413734883
0.384035557346187,0.611081564119716
0.383125310431052,0.613482256249911
0.260748362514563,0.513009198149101
0.257092013978783,0.514970184765192
0.253429612306945,0.516922179492658
0.249761236395395,0.518865069654921
0.246086965140478,0.520798742575398
0.242406877438538,0.522723085577511
0.23872105218592,0.52463798598468
0.23502956827897,0.526543331120325
0.231332504614031,0.528439008307865
0.227629940087449,0.530324904870721
0.223921953595568,0.532200908132312
0.220208624034734,0.534066905416059
0.216490030301291,0.535922784045382
0.318504511059865,0.630210216197236
0.209037365901959,0.539603734634434
0.205303453028759,0.541428581241003
0.20156459156833,0.543242858486828
0.197820860417016,0.545046453695329
0.194072338471162,0.546839254189925
0.190319104627114,0.548621147294037
0.186561237781216,0.550392020331084
0.182798816829813,0.552151760624488
0.179031920669249,0.553900255497666
0.17526062819587,0.55563739227404
0.17148501830602,0.55736305827703
0.167705169896045,0.559077140830056
0.163921161862289,0.560779527256537
0.160133073101097,0.562470104879893
0.258697163864996,0.658110366066837
0.152544968981783,0.565815383010913
0.148745111416352,0.567469858165417
0.144941488708864,0.569112073810476
0.0320440390259101,0.474871057717835
0.253131985761567,0.682712199457868
0.133508818697509,0.573964036923186
0.129690924385243,0.575556087764667
0.125869659412644,0.577135315713804
0.122045102676058,0.578701608094017
0.118217333071829,0.580254852228725
0.206798342278684,0.67200497485267
0.110552470845823,0.583321745055307
0.106715536016735,0.584835168394022
0.21525301486335,0.703454146504105
0.0990330534081138,0.587821405539398
0.0951876634212705,0.589293993992899
0.0913396128411981,0.590752745464836
0.193539795489211,0.685954994852033
-0.0105574016710914,0.497531249609116
0.079780286505057,0.595044851225461
0.075922382515518,0.59644712800534
0.0720622124144744,0.597835004420754
0.068199855098271,0.599208367795125
0.0643353894632528,0.600567105451871
0.0604688944057645,0.601911104714412
0.0566004488221511,0.603240252906169
0.0527301316087572,0.604554437350561
-0.0640284079092892,0.509446737811614
0.044984197878008,0.607137464290933
-0.0639228173840471,0.516274195524354
0.0372317243842754,0.609659284122887
0.0333532324671526,0.610896959681757
0.0294733422983184,0.612118995433782
0.0255921327741179,0.613325278702384
0.132431457160644,0.731640707006607
0.0178260712449969,0.615690137082993
0.120739685826556,0.733808609634643
0.0100556790505484,0.617990633410944
0.00616905619468833,0.619116464113723
0.00228158736153111,0.620225866273597
-0.00160664855257887,0.621318727213987
-0.00549557265129629,0.622394934258312
-0.00938510603827672,0.623454374729993
-0.0132751698171749,0.62449693595245
-0.0171656850916464,0.625522505249102
-0.021056572965346,0.626530969943369
-0.0249477545419291,0.627522217358672
-0.0288391509250507,0.628496134818431
-0.0327306832183662,0.629452609646065
-0.0366222725255304,0.630391529164994
-0.15542052712586,0.533497339941617
-0.0444053065960263,0.632216251570419
-0.0482965935666683,0.633101829103756
-0.0521876219657796,0.633969400622067
-0.0560783128970157,0.634818853448774
-0.0599685874640315,0.635650074907297
-0.0638583667704824,0.636462952321055
-0.0677475719200232,0.637257373013468
0.0200791099611307,0.753245131713615
-0.0755239441629961,0.638790393527942
-0.0794109534637384,0.639528767996842
-0.0832970730221913,0.640248235038077
-0.0871822239420103,0.640948681975068
-0.09106632732685,0.641629996131235
-0.0949493042803662,0.642292064829996
-0.194795170707356,0.549747825799204
-0.102711563308048,0.643558015148987
-0.106590687589523,0.644161671416055
-0.110468369854296,0.644745631519399
-0.11434453120602,0.645309782782438
-0.231486991475561,0.54641842748685
-0.122091975584945,0.646378208081283
-0.125963100819457,0.646882256763929
-0.248620677644344,0.548286643399053
-0.133699762896852,0.647829462812767
-0.0463001325997057,0.741257723667264
-0.141428447809779,0.648694729262466
-0.145289601588704,0.649096353446189
-0.149148524387478,0.649477154700388
-0.153005137309756,0.649837020348482
-0.156859361459192,0.650175837713891
-0.160711117939442,0.650493494120036
-0.164560327854161,0.650789876890336
-0.168406912307004,0.651064873348212
-0.0637597864734796,0.760627009003352
-0.176091889241683,0.65155025662037
-0.17993012393083,0.651760418081492
-0.29242660116673,0.55921105704473
-0.187597691271012,0.652115117270923
-0.191426866129358,0.652259429646071
-0.195252863251414,0.652381566972735
-0.199075603740836,0.652481416574334
-0.202895008701278,0.652558865774289
-0.206710999236395,0.652613801896019
-0.210523496449844,0.652646112262945
-0.100790498551765,0.754940247768613
-0.218137695326354,0.652642405026062
-0.218137695326354,0.652642405026062
-0.107396767105247,0.7479500531807
-0.225607573637744,0.652518898564415
-0.229240383592555,0.652401936926938
-0.348162948001679,0.533887049529076
-0.236303728777899,0.65205862354429
-0.239735057479427,0.651832682481364
-0.129392510390094,0.757349438035144
-0.246399010777681,0.651273258317921
-0.249632428845403,0.650940185899648
-0.252800670172852,0.650571813711838
-0.255904131495524,0.650168347095613
-0.258943209548918,0.649729991392097
-0.15638826445612,0.747547460386562
-0.156048012993362,0.739789900787715
-0.267678111448405,0.648207643169016
-0.270463623779661,0.647631784527555
-0.273186736519127,0.647022063504413
-0.275847846402299,0.646378685440715
-0.278447350164676,0.64570185567758
-0.280985644541754,0.644991779556134
-0.283463126269033,0.644248662417498
-0.401485648241419,0.544661836946579
-0.288237238716179,0.642664126453145
-0.290534662907042,0.641823118309673
-0.292772861390094,0.640949890513502
-0.294952230900834,0.640044648405752
-0.297073168174759,0.639107597327547
-0.299136069947366,0.63813894262001
-0.301141332954153,0.637138889624263
-0.398187741166072,0.522328049092134
-0.304980529612258,0.635045410132627
-0.306815256734571,0.633952394318985
-0.308593932033054,0.632828801581621
-0.198295587252174,0.730100926730704
-0.311984714100521,0.630490706700223
-0.313597614340501,0.629276615238434
-0.31515604969864,0.628032768217414
-0.316660416910438,0.626759370978287
-0.318111112711391,0.625456628862173
-0.319508533836998,0.624124747210198
-0.320853077022755,0.622763931363481
-0.413190381136438,0.504655621091482
-0.323385116516712,0.619956318450316
-0.324573406295907,0.618509932066113
-0.325710405077242,0.61703543285166
-0.326796509596216,0.615533026148078
-0.327832116588327,0.614002917296491
-0.32881762278907,0.61244531163802
-0.329753424933945,0.61086041451379
-0.330639919758449,0.60924843126492
-0.331477503998079,0.607609567232535
-0.332266574388332,0.605944027757757
-0.333007527664707,0.604252018181708
-0.333700760562701,0.602533743845511
-0.334346669817812,0.600789410090288
-0.334945652165536,0.599019222257162
-0.335498104341372,0.597223385687255
-0.336004423080818,0.59540210572169
-0.336465005119369,0.593555587701588
-0.336880247192526,0.591684036968074
-0.337250546035784,0.589787658862269
-0.337576298384641,0.587866658725295
-0.337857900974595,0.585921241898275
-0.338095750541144,0.583951613722331
-0.338290243819785,0.581957979538587
-0.338441777546016,0.579940544688164
-0.338550748455333,0.577899514512185
-0.338617553283235,0.575835094351772
-0.33864258876522,0.573747489548049
-0.338626251636784,0.571636905442137
-0.240053579287951,0.670299906564046
-0.338471046490643,0.567347620688236
-0.338332971943932,0.565169330722493
-0.338155111728791,0.562968882819051
-0.337937862580717,0.560746482319033
-0.337681621235209,0.558502334563561
-0.337386784427764,0.556236644893758
-0.337053748893879,0.553949618650746
-0.336682911369051,0.551641461175648
-0.336274668588779,0.549312377809586
-0.33582941728856,0.546962573893683
-0.335347554203891,0.54459225476906
-0.334829476070271,0.542201625776841
-0.334275579623196,0.539790892258149
-0.333686261598164,0.537360259554105
-0.333061918730673,0.534909933005832
-0.33240294775622,0.532440117954452
-0.331709745410302,0.529951019741089
-0.330982708428419,0.527442843706864
-0.446803812889948,0.417971440093624
-0.329428717498741,0.522370079540319
-0.437887118500143,0.428083427222248
-0.327744148851168,0.517223468183798
-0.326853889721914,0.514622983162102
-0.325932176369679,0.51200465236628
-0.431480704149045,0.418706176063427
-0.323995973938256,0.506715274816745
-0.322982278330062,0.504044638745278
-0.321938715440877,0.501356978264174
-0.320865682006199,0.498652498714555
-0.319763574761525,0.495931405437545
-0.318632790442352,0.493193903774265
-0.317473725784179,0.490440199065839
-0.19844364020912,0.584702766687394
-0.196989063338615,0.590901442187826
-0.313830817130629,0.482083920080904
-0.312562598471427,0.479267456603115
-0.311268083150713,0.476435816785791
-0.309947667903983,0.473589205970056
-0.308601749466734,0.470727829497031
-0.307230724574466,0.467851892707839
-0.305834989962675,0.464961600943602
-0.418077035137274,0.362764812126008
-0.302970978522514,0.459138773854486
-0.301503495165139,0.45620664921185
-0.300012889030232,0.45326099095866
-0.298499556853289,0.450302004436038
-0.296963895369809,0.447329894985107
-0.295406301315289,0.444344867946988
-0.293827171425227,0.441347128662804
-0.29222690243512,0.438336882473678
-0.290605891080465,0.435314334720732
-0.288964534096761,0.432279690745089
-0.287303228219504,0.429233155887872
-0.285622370184193,0.426174935490202
-0.283922356726325,0.423105234893202
-0.282203584581397,0.420024259437994
-0.371655042089692,0.308752650359308
-0.278711351172353,0.413829305317447
-0.276938683379232,0.410715737334353
-0.275148843841041,0.40759171585754
-0.273342229293279,0.404457446228133
-0.271519236471442,0.401313133787254
-0.269680262111029,0.398158983876024
-0.267825702947537,0.394995201835567
-0.265955955716463,0.391821993007005
-0.264071417153305,0.38863956273146
-0.262172483993561,0.385448116350055
-0.260259552972728,0.382247859203912
-0.258333020826303,0.379038996634154
-0.256393284289785,0.375821733981904
-0.254440740098671,0.372596276588283
-0.252475784988458,0.369362829794414
-0.250498815694643,0.366121598941421
-0.248510228952726,0.362872789370424
-0.246510421498202,0.359616606422547
-0.354589386033848,0.250741234859259
-0.242478731393327,0.353082941760643
-0.24044764221397,0.34980587072886
-0.238406919263998,0.346522247684687
-0.236356959278907,0.343232277969245
-0.234298158994196,0.339936166923659
-0.232230915145362,0.336634119889049
-0.230155624467902,0.333326342206539
-0.228072683697315,0.330013039217251
-0.225982489569096,0.326694416262308
-0.223885438818745,0.323370678682831
-0.221781928181759,0.320042031819944
-0.334573168976729,0.22560417783241
-0.21755711418987,0.313370831608428
-0.119864534631863,0.417900869802669
-0.213311221477411,0.306682458356739
-0.211181362439711,0.303332345193636
-0.315241126126084,0.2023263172399
-0.206909802678859,0.296621292498526
-0.204768895426702,0.293260763648763
-0.112116279816747,0.39944038616816
-0.200478809856413,0.286530727650436
-0.0851879349148921,0.375369610036797
-0.196180341101475,0.279790089527855
-0.194028954868507,0.276416308022776
-0.191876663045869,0.273040492010001
-0.189723862369059,0.269662846830653
-0.187570949573575,0.266283577825854
-0.185418321394913,0.262902890336726
-0.183266374568573,0.259520989704392
-0.18111550583005,0.256138081269975
-0.178966111914844,0.252754370374597
-0.17681858955845,0.24937006235938
-0.174673335496368,0.245985362565447
-0.172530746464094,0.242600476333921
-0.170391219197126,0.239215609005923
-0.168255150430961,0.235830965922577
-0.166122936901098,0.232446752425005
-0.163994975343033,0.229063173854329
-0.161871662492265,0.225680435551672
-0.278601536104073,0.108880037676128
-0.157640569854606,0.218918301114904
-0.155533583538712,0.215539315663038
-0.153432832872104,0.212161991843681
-0.151338714590279,0.208786534997955
-0.149251625428737,0.205413150466982
-0.147171962122973,0.202042043591886
-0.246839308826663,0.0832734940655801
-0.143036500020774,0.195307484173812
-0.140981494695333,0.19194444231308
-0.138935502167661,0.188584499472713
-0.136898919173256,0.185227860993835
-0.134872142447616,0.181874732217567
-0.132855568726238,0.178525318485034
-0.0258221081105183,0.268493813892867
-0.128854617238257,0.171838457515657
-0.00773760341808266,0.261159564295072
-0.014034597167111,0.278934142272521
-0.12293963092569,0.161841162417654
-0.232933537044084,0.0631920378761772
-0.21748613637859,0.0470215709574609
-0.209720186857689,0.0581005460407293
-0.115231001782718,0.148581653145447
-0.113338278556325,0.145280683611984
-0.22797791652371,0.0508257934013969
-0.22529656849543,0.0229643354787444
0.00667807731205092,0.231764235705212
-0.203210917564292,0.0237277915779407
-0.235186867007348,0.0503866089228519
-0.125918845472277,0.0933290669049212
-0.100519311812019,0.122352662270867
-0.0928531280282736,0.121255444771682
-0.0743257372278128,0.125264922607469
-0.0997757211993583,0.111620392280917
-0.0875743719391241,0.105674099767877
-0.196177655641747,0.000710129966637191
-0.0786841671030644,0.087674243077868
-0.088550212985394,0.0997877889427164
-0.143355617416046,0.0779121024335809
0.0193795483606631,0.197928034790797
-0.0534445366682614,0.134301244865066
-0.0623803144449717,0.0826748268000698
-0.11237741814794,0.0608300041825437
-0.0993549573773923,0.0725201992451933
-0.0732813748751968,0.0763625669455766
-0.0760864611098248,0.0745343834121489
-0.0746291551432201,0.0714227624925305
-0.0731955411877944,0.06832183821481
-0.050892797704493,0.0672085929571292
-0.0427159127384592,0.101176936872114
-0.0403120047217271,0.0711024365302654
-0.174629755641792,-0.0529346848612176
-0.0539815780424217,0.0566365286786404
-0.0651136068778586,0.049952421131198
-0.0638569455946163,0.046932122898191
-0.161357334838978,-0.0559245285655952
-0.0614246174491072,0.0409287498859322
-0.170971621457403,-0.0791310655617411
-0.0591029267682157,0.0349763770861634
-0.0579845623157455,0.0320198291187691
-0.0568950474359223,0.0290766472278646
-0.0558347788642438,0.0261470367545726
-0.0548041533362074,0.0232312030400154
-0.0538035675873107,0.0203293514253158
-0.0528334183530514,0.0174416872515958
-0.0518941023689269,0.0145684158599784
-0.0509860163704348,0.0117097425915856
-0.0501095570930726,0.00886587278754027
-0.049265121272338,0.00603701178896456
-0.0484531056437284,0.00322336493698118
-0.143188799693764,-0.109009220253583
0.0628160815996551,0.0892012829497986
-0.0462155472656256,-0.00512423732819077
-0.0455371797604919,-0.00787497418258033
-0.044893216124971,-0.0106094701847654
-0.0442840530945604,-0.0133275199936232
-0.0437100874047579,-0.0160289182680315
-0.0431717157910608,-0.0187134596668676
-0.0426693349889668,-0.0213809388490094
-0.0422033417339734,-0.0240311504733339
-0.0417741327615782,-0.026663889198719
-0.0413821048072788,-0.0292789496840421
-0.0410276546065726,-0.0318761265881808
-0.0407111788949572,-0.0344552145700125
-0.0404330744079302,-0.0370160082884149
-0.0401937378809892,-0.0395583024022652
-0.0399935660496317,-0.0420818915704413
-0.0398329556493552,-0.0445865704518205
-0.0397123034156574,-0.0470721337052804
-0.0396320060840357,-0.0495383759896984
-0.154231833964701,-0.150005406091578
-0.0395940630690111,-0.0544120762869192
-0.0396372108566033,-0.056819123617477
-0.0397223004882618,-0.059206028614503
-0.0398497286994843,-0.0615725859368749
-0.0400198922257683,-0.0639185902434701
-0.0402331878026114,-0.0662438361931662
-0.040490012165511,-0.0685481184448405
-0.0407907620499649,-0.0708312316573709
-0.0411358341914704,-0.0730929704896346
-0.159282357545578,-0.178258804978162
-0.0419605321876269,-0.0775515036488724
-0.0424409515132729,-0.0797478872936015
-0.0429672800379609,-0.0819220751935741
0.0721909220284303,0.0279037107908067
-0.0441592516264529,-0.0862030423947599
-0.0448256881612521,-0.0883094110137282
-0.0455396208370833,-0.0903927625234501
-0.0463014463894443,-0.0924528915828031
-0.0471115615538326,-0.0944895928506647
0.0636628867999326,0.0190295044728747
-0.0488782476606813,-0.0984918906474239
-0.0498356120741367,-0.100457076494077
-0.0508428530416096,-0.102398013184748
-0.0519003672985976,-0.104314495378316
-0.0530085515805981,-0.106206317733657
-0.0541678026231089,-0.10807327490965
-0.0553785171616273,-0.109915161565171
-0.056641091931651,-0.111731772359099
-0.0579559236686775,-0.113522901950311
-0.0593234091082045,-0.115288344997684
-0.0607439449857293,-0.117027896160096
-0.0622179280367497,-0.118741350096425
-0.063745754996763,-0.120428501465547
-0.176085458896334,-0.238178267421661
-0.0669645275857591,-0.123723075137684
-0.0686562666857369,-0.125330086758453
-0.070403436636698,-0.126909974447526
-0.07220643417414,-0.128462532863781
-0.0740656560335602,-0.129987556666096
-0.0759814989504566,-0.131484840513346
-0.0779543596603261,-0.132954179064411
-0.079984634898667,-0.134395366978168
-0.0820727214009763,-0.135808198913493
0.0118917643712418,-0.0181821305486766
-0.0864239151394909,-0.138547973484362
0.0176629408443797,-0.0308849702364375
-0.0910111147598507,-0.141171860048038
-0.184577976355549,-0.235827732821075
-0.0958374941460359,-0.143678215875541
-0.098341368090057,-0.144886806410421
-0.100906227182027,-0.146065398237891
-0.103532468157444,-0.147213786016828
-0.106220487751805,-0.148331764406109
-0.108970682700607,-0.149419128064612
-0.111783449739349,-0.150475671651214
-0.114659185603527,-0.151501189824794
-0.11759828702864,-0.152495477244228
-0.120601150750185,-0.153458328568394
-0.12366817350366,-0.154389538456169
-0.126799752024561,-0.155288901566432
-0.129996283048387,-0.156156212558059
-0.133258163310635,-0.156991266089928
-0.136585789546803,-0.157793856820917
-0.139979558492388,-0.158563779409902
-0.143439866882888,-0.159300828515763
-0.1469671114538,-0.160004798797376
-0.150561688940622,-0.160675484913618
-0.154223996078852,-0.161312681523368
-0.157954429603987,-0.161916183285502
-0.161753386251524,-0.162485784858899
-0.165621262756961,-0.163021280902436
-0.169558455855796,-0.16352246607499
-0.173565362283527,-0.163989135035438
-0.17764237877565,-0.164421082442659
-0.181789902067663,-0.16481810295553
-0.186008328895065,-0.165179991232928
-0.190298055993352,-0.165506541933732
-0.194659480098022,-0.165797549716817
-0.199092997944572,-0.166052809241063
-0.203599006268501,-0.166272115165346
-0.208177901805305,-0.166455262148545
-0.212830081290483,-0.166602044849535
-0.217555941459531,-0.166712257927196
-0.324847490952273,-0.259473634267278
-0.22723029079123,-0.166822153848038
-0.232179573424876,-0.166821426008974
-0.237204123684383,-0.16678330718209
-0.242304338305249,-0.166707592026264
-0.247480614022971,-0.166594075200374
-0.252733347573046,-0.166442551363295
-0.258062935690973,-0.166252815173908
-0.263469775112249,-0.166024661291087
-0.176885988880703,-0.0634940858886427
-0.274516794806836,-0.165452279080661
-0.280157768551144,-0.165107640070809
-0.28587758054079,-0.164723762003035
-0.291676627511273,-0.164300439536217
-0.29755530619809,-0.163837467329231
-0.303514013336738,-0.163334640040956
-0.309553145662716,-0.162791752330269
-0.315673099911521,-0.162208598856047
-0.32187427281865,-0.161584974277168
-0.213470435899035,-0.0463130675816247
-0.334521861549872,-0.16021549044095
-0.340969070844959,-0.159469220501365
-0.347499085740361,-0.158681658092633
-0.235223965379839,-0.0531002773568621
-0.360809119274099,-0.156981834503239
-0.36758993138343,-0.156069162640332
-0.374455136035066,-0.155114376943788
-0.288806326695244,-0.0488194406149584
-0.388440309907242,-0.1530776426853
-0.395561072598777,-0.15199528344111
-0.402767814774608,-0.150869988998794
-0.501594966705874,-0.263961809807188
-0.417440824521144,-0.148489773155291
-0.424907885562845,-0.14723444107186
-0.432462513030831,-0.145935352425812
-0.4401051036606,-0.144592301876025
-0.447836054187649,-0.143205084081376
-0.455655761347476,-0.141773493700743
-0.366138858343668,-0.0300226746182457
