0.663063224538245,0.949536782325944
0.652646497836072,0.941222248184566
0.64228020098608,0.932946958773396
0.63196425137488,0.924710815770208
0.621698566389087,0.916513720852777
0.611483063415314,0.908355575698878
0.601317659840172,0.900236281986284
0.591202273050276,0.892155741392769
0.581136820432238,0.884113855596108
0.571121219372672,0.876110526274076
0.561155387258189,0.868145655104447
0.551239241475405,0.860219143764994
0.541372699410931,0.852330893933492
0.53155567845138,0.844480807287716
0.521788095983366,0.836668785505439
0.512069869393502,0.828894730264436
0.502400916068401,0.821158543242482
0.492781153394675,0.813460126117351
0.483210498758938,0.805799380566816
0.473688869547803,0.798176208268652
0.464216183147882,0.790590510900634
0.45479235694579,0.783042190140535
0.445417308328139,0.775531147666131
0.436090954681541,0.768057285155195
0.426813213392611,0.760620504285501
0.417584001847961,0.753220706734825
0.408403237434203,0.745857794180939
0.399270837537952,0.738531668301619
0.39018671954582,0.731242230774639
0.381150800844421,0.723989383277773
0.372162998820367,0.716773027488795
0.36322323086027,0.709593065085479
0.354331414350746,0.702449397745601
0.345487466678406,0.695341927146934
0.336691305229863,0.688270554967252
0.327942847391731,0.68123518288433
0.319242010550622,0.674235712575943
0.31058871209315,0.667272045719863
0.301982869405928,0.660344083993866
0.293424399875568,0.653451729075726
0.284913220888684,0.646594882643218
0.276449249831889,0.639773446374115
0.268032404091795,0.632987321946191
0.259662601055017,0.626236411037222
0.251339758108166,0.619520615324981
0.243063792637856,0.612839836487243
0.2348346220307,0.606193976201782
0.226652163673311,0.599582936146371
0.218516334952303,0.593006617998787
0.210427053254287,0.586464923436802
0.202384235965878,0.579957754138192
0.194387800473687,0.57348501178073
0.186437664164329,0.56704659804219
0.178533744424416,0.560642414600348
0.170675958640562,0.554272363132976
0.162864224199379,0.54793634531785
0.15509845848748,0.541634262832745
0.147378578891479,0.535366017355433
0.139704502797988,0.529131510563689
0.13207614759362,0.522930644135289
0.124493430664989,0.516763319748005
0.116956269398708,0.510629439079613
0.10946458118139,0.504528903807886
0.102018283399647,0.498461615610599
0.0946172934400928,0.492427476165526
0.0872615286893406,0.486426387150442
0.0799509065340031,0.48045825024312
0.0726853443606933,0.474522967121335
0.0654647595560246,0.468620439462862
0.0582890695066099,0.462750568945474
0.0511581915990621,0.456913257246946
0.0440720432199943,0.451108406045052
0.0370305417560197,0.445335917017567
0.0300336045937511,0.439595691842264
0.0230811491198017,0.433887632196919
0.0161730927207844,0.428211639759305
0.00930935278331252,0.422567616207196
0.0024898466939989,0.416955463218367
-0.00428550816054343,0.411375082470593
-0.0110167943937015,0.405826375641647
-0.017704094618862,0.400309244409303
-0.024347491449412,0.394823590451337
-0.0309470674987386,0.389369315445522
-0.0375029053802287,0.383946321069633
-0.0440150877072691,0.378554509001443
-0.050483697093247,0.373193780918728
-0.0569088161515492,0.367864038499262
-0.0632905274955626,0.362565183420818
-0.0696289137386742,0.357297117361171
-0.0759240574942712,0.352059741998095
-0.0821760413757402,0.346852959009365
-0.0883849479964684,0.341676670072756
-0.0945508599698426,0.33653077686604
-0.10067385990925,0.331415181066993
-0.106754030428077,0.326329784353388
-0.112791454139711,0.321274488403001
-0.11878621365754,0.316249194893605
-0.124738391594949,0.311253805502975
-0.130648070565325,0.306288221908885
-0.136515333182057,0.301352345789109
-0.14234026205853,0.296446078821421
-0.148122939808132,0.291569322683596
-0.15386344904425,0.286721979053409
-0.15956187238027,0.281903949608633
-0.16521829242958,0.277115136027042
-0.170832791805566,0.272355439986412
-0.176405453121616,0.267624763164515
-0.181936358991117,0.262923007239128
-0.187425592027454,0.258250073888023
-0.192873234844016,0.253605864788975
-0.19827937005419,0.248990281619759
-0.203644080271361,0.244403226058148
-0.208967448108918,0.239844599781917
-0.214249556180247,0.235314304468841
-0.219490487098735,0.230812241796693
-0.22469032347777,0.226338313443248
-0.229849147930737,0.221892421086281
-0.234967043071024,0.217474466403564
-0.240044091512019,0.213084351072874
-0.245080375867107,0.208721976771983
-0.250075978749676,0.204387245178667
-0.255030982773113,0.200080057970699
-0.259945470550805,0.195800316825854
-0.264819524696138,0.191547923421906
-0.2696532278225,0.18732277943663
-0.274446662543278,0.1831247865478
-0.279199911471859,0.178953846433189
-0.283913057221629,0.174809860770573
-0.288586182405976,0.170692731237726
-0.293219369638286,0.166602359512421
-0.297812701531947,0.162538647272434
-0.302366260700345,0.158501496195538
-0.306880129756867,0.154490807959508
-0.311354391314901,0.150506484242117
-0.315789127987833,0.146548426721142
-0.32018442238905,0.142616537074354
-0.32454035713194,0.13871071697953
-0.328857014829889,0.134830868114443
-0.333134478096283,0.130976892156868
-0.337372829544511,0.127148690784578
-0.341572151787959,0.123346165675348
-0.345732527440014,0.119569218506953
-0.349854039114063,0.115817750957166
-0.353936769423493,0.112091664703762
-0.35798080098169,0.108390861424516
-0.361986216402043,0.104715242797201
-0.365953098297937,0.101064710499592
-0.36988152928276,0.0974391662094626
-0.373771591969899,0.0938385116045879
-0.37762336897274,0.0902626483627419
-0.381436942904671,0.0867114781616989
-0.385212396379079,0.0831849026792329
-0.38894981200935,0.0796828235931187
-0.392649272408871,0.0762051425811302
-0.39631086019103,0.0727517613210417
-0.399934657969214,0.0693225814906278
-0.403520748356809,0.0659175047676625
-0.407069213967202,0.0625364328299202
-0.41058013741378,0.0591792673551752
-0.41405360130993,0.0558459100212016
-0.41748968826904,0.052536262505774
-0.420888480904496,0.0492502264866665
-0.424250061829685,0.0459877036416534
-0.427574513657994,0.042748595648509
-0.43086191900281,0.0395328041850076
-0.43411236047752,0.0363402309289235
-0.437325920695511,0.0331707775580309
-0.44050268227017,0.0300243457501042
-0.443642727814884,0.0269008371829177
-0.446746139943039,0.0238001535342457
-0.449813001268024,0.0207221964818623
-0.452843394403224,0.0176668677035419
-0.455837401962027,0.014634068877059
-0.458795106557819,0.0116237016801876
-0.461716590803988,0.00863566779070192
-0.46460193731392,0.00566986888637652
-0.467451228701003,0.00272620664498564
-0.470264547578624,-0.000195417255696495
-0.473041976560169,-0.00309510113789568
-0.475783598259025,-0.00597294332383753
-0.47848949528858,-0.00882904213574769
-0.48115975026222,-0.011663495895852
-0.483794445793332,-0.0144764029263761
-0.486393664495303,-0.0172678615495458
-0.48895748898152,-0.0200379700875866
-0.491486001865371,-0.0227868268627244
-0.493979285760242,-0.0255145301971849
-0.49643742327952,-0.0282211784131938
-0.498860497036591,-0.0309068698329766
-0.501248589644844,-0.0335717027787593
-0.503601783717665,-0.0362157755727675
-0.50592016186844,-0.038839186537227
-0.508203806710558,-0.0414420339943633
-0.510452800857404,-0.0440244162664023
-0.512667226922366,-0.0465864316755696
-0.51484716751883,-0.049128178544091
-0.516992705260185,-0.0516497551941921
-0.519103922759816,-0.0541512599480987
-0.52118090263111,-0.0566327911280366
-0.523223727487455,-0.0590944470562313
-0.525232479942237,-0.0615363260549087
-0.527207242608844,-0.0639585264462944
-0.529148098100662,-0.0663611465526141
-0.531055129031079,-0.0687442846960936
-0.532928418013481,-0.0711080391989585
-0.534768047661256,-0.0734525083834346
-0.536574100587789,-0.0757777905717475
-0.538346659406469,-0.0780839840861231
-0.540085806730681,-0.080371187248787
-0.541791625173814,-0.0826394983819649
-0.543464197349254,-0.0848890158078825
-0.545103605870389,-0.0871198378487657
-0.546709933350604,-0.0893320628268399
-0.548283262403287,-0.091525789064331
-0.549823675641824,-0.0937011148834646
-0.551331255679604,-0.0958581386064666
-0.552806085130013,-0.0979969585555625
-0.554248246606437,-0.100117673052978
-0.555657822722264,-0.102220380420939
-0.557034896090881,-0.104305178981672
-0.558379549325674,-0.106372167057401
-0.559691865040031,-0.108421442970352
-0.560971925847338,-0.110453105042752
-0.562219814360983,-0.112467251596826
-0.563435613194353,-0.1144639809548
-0.564619404960834,-0.116443391438899
-0.565771272273813,-0.118405581371349
-0.566891297746678,-0.120350649074376
-0.567979563992814,-0.122278692870205
-0.569036153625611,-0.124189811081063
-0.570061149258453,-0.126084102029174
-0.571054633504729,-0.127961664036766
-0.572016688977824,-0.129822595426062
-0.572947398291127,-0.13166699451929
-0.573846844058024,-0.133494959638675
-0.574715108891902,-0.135306589106442
-0.575552275406148,-0.137101981244817
-0.576358426214148,-0.138881234376027
-0.577133643929291,-0.140644446822296
-0.577878011164962,-0.14239171690585
-0.57859161053455,-0.144123142948915
-0.579274524651439,-0.145838823273718
-0.579926836129019,-0.147538856202482
-0.580548627580676,-0.149223340057435
-0.581139981619796,-0.150892373160802
-0.581700980859766,-0.152546053834808
-0.582231707913974,-0.15418448040168
-0.582732245395807,-0.155807751183643
-0.583202675918651,-0.157415964502923
-0.583643082095893,-0.159009218681745
-0.584053546540921,-0.160587612042335
-0.584434151867121,-0.162151242906919
-0.58478498068788,-0.163700209597723
-0.585106115616586,-0.165234610436972
-0.585397639266625,-0.166754543746892
-0.585659634251384,-0.168260107849709
-0.58589218318425,-0.169751401067648
-0.58609536867861,-0.171228521722936
-0.586269273347851,-0.172691568137797
-0.586413979805361,-0.174140638634458
-0.586529570664525,-0.175575831535144
-0.586616128538731,-0.176997245162082
-0.586673736041365,-0.178404977837496
-0.586702475785816,-0.179799127883612
-0.58670243038547,-0.181179793622657
-0.586673682453713,-0.182547073376855
-0.586616314603933,-0.183901065468433
-0.586530409449516,-0.185241868219617
-0.58641604960385,-0.186569579952631
-0.586273317680322,-0.187884298989702
-0.586102296292318,-0.189186123653056
-0.585903068053226,-0.190475152264917
-0.585675715576432,-0.191751483147513
-0.585420321475324,-0.193015214623068
-0.585136968363287,-0.194266445013808
-0.584825738853711,-0.195505272641959
-0.58448671555998,-0.196731795829747
-0.584119981095483,-0.197946112899397
-0.583725618073605,-0.199148322173136
-0.583303709107735,-0.200338521973188
-0.582854336811259,-0.20151681062178
-0.582377583797564,-0.202683286441137
-0.581873532680037,-0.203838047753485
-0.581342266072066,-0.20498119288105
-0.580783866587036,-0.206112820146057
-0.580198416838334,-0.207233027870732
-0.579585999439349,-0.208341914377301
-0.578946697003467,-0.209439577987989
-0.578280592144074,-0.210526117025023
-0.577587767474558,-0.211601629810627
-0.576868305608305,-0.212666214667029
-0.576122289158704,-0.213719969916452
-0.57534980073914,-0.214762993881124
-0.574550922963,-0.215795384883269
-0.573725738443672,-0.216817241245114
-0.572874329794542,-0.217828661288885
-0.571996779628998,-0.218829743336806
-0.571093170560426,-0.219820585711103
-0.570163585202213,-0.220801286734003
-0.569208106167747,-0.221771944727731
-0.568226816070414,-0.222732658014513
-0.567219797523601,-0.223683524916575
-0.566187133140696,-0.224624643756141
-0.565128905535084,-0.225556112855439
-0.564045197320154,-0.226478030536693
-0.562936091109291,-0.227390495122129
-0.561801669515884,-0.228293604933973
-0.560642015153318,-0.229187458294451
-0.559457210634982,-0.230072153525789
-0.558247338574261,-0.230947788950212
-0.557012481584543,-0.231814462889945
-0.555752722279215,-0.232672273667216
-0.554468143271663,-0.233521319604248
-0.553158827175276,-0.234361699023269
-0.551824856603438,-0.235193510246503
-0.550466314169539,-0.236016851596177
-0.549083282486964,-0.236831821394515
-0.547675844169101,-0.237638517963745
-0.546244081829336,-0.238437039626091
-0.544788078081056,-0.23922748470378
-0.543307915537649,-0.240009951519036
-0.541803676812501,-0.240784538394087
-0.540275444519,-0.241551343651156
-0.538723301270532,-0.242310465612471
-0.537147329680484,-0.243062002600257
-0.535547612362243,-0.243806052936739
-0.533924231929197,-0.244542714944143
-0.532277270994731,-0.245272086944696
-0.530606812172234,-0.245994267260622
-0.528912938075091,-0.246709354214147
-0.527195731316691,-0.247417446127498
-0.525455274510419,-0.248118641322899
-0.523691650269663,-0.248813038122577
-0.521904941207811,-0.249500734848757
-0.520095229938248,-0.250181829823665
-0.518262599074361,-0.250856421369527
-0.516407131229539,-0.251524607808568
-0.514528909017167,-0.252186487463015
-0.512628015050633,-0.252842158655092
-0.510704531943323,-0.253491719707025
-0.508758542308625,-0.254135268941041
-0.506790128759925,-0.254772904679365
-0.504799373910611,-0.255404725244222
-0.502786360374069,-0.256030828957839
-0.500751170763687,-0.256651314142441
-0.498693887692851,-0.257266279120253
-0.496614593774948,-0.257875822213502
-0.494513371623366,-0.258480041744413
-0.49239030385149,-0.259079036035213
-0.490245473072709,-0.259672903408125
-0.488078961900409,-0.260261742185378
-0.485890852947977,-0.260845650689195
-0.4836812288288,-0.261424727241803
-0.481450172156266,-0.261999070165427
-0.47919776554376,-0.262568777782294
-0.47692409160467,-0.263133948414628
-0.474629232952382,-0.263694680384656
-0.472313272200285,-0.264251072014604
-0.469976291961765,-0.264803221626696
-0.467618374850208,-0.265351227543159
-0.465239603479002,-0.265895188086219
-0.462840060461533,-0.266435201578101
-0.460419828411189,-0.26697136634103
-0.457978989941357,-0.267503780697233
-0.455517627665423,-0.268032542968936
-0.453035824196775,-0.268557751478364
-0.450533662148799,-0.269079504547742
-0.448011224134882,-0.269597900499297
-0.445468592768412,-0.270113037655253
-0.442905850662775,-0.270625014337838
-0.440323080431359,-0.271133928869276
-0.43772036468755,-0.271639879571794
-0.435097786044735,-0.272142964767616
-0.432455427116301,-0.27264328277897
-0.429793370515635,-0.273140931928079
-0.427111698856124,-0.273636010537171
-0.424410494751155,-0.274128616928471
-0.421689840814115,-0.274618849424204
-0.418949819658392,-0.275106806346596
-0.41619051389737,-0.275592586017874
-0.413412006144439,-0.276076286760262
-0.410614379012985,-0.276558006895986
-0.407797715116394,-0.277037844747272
-0.404962097068055,-0.277515898636347
-0.402107607481352,-0.277992266885435
-0.399234328969675,-0.278467047816762
-0.396342344146409,-0.278940339752554
-0.393431735624941,-0.279412241015037
-0.39050258601866,-0.279882849926436
-0.38755497794095,-0.280352264808977
-0.3845889940052,-0.280820583984886
-0.381604716824796,-0.281287905776389
-0.378602229013126,-0.28175432850571
-0.375581613183576,-0.282219950495077
-0.372542951949533,-0.282684870066714
-0.369486327924385,-0.283149185542848
-0.366411823721517,-0.283612995245703
-0.363319521954318,-0.284076397497507
-0.360209505236174,-0.284539490620484
-0.357081856180472,-0.28500237293686
