0.805527185835727,0.881428811322675
0.792218642229258,0.873286933437861
0.779011835252591,0.865179683466134
0.765906394213841,0.857106934523554
0.752901948421124,0.849068559726184
0.739998127182555,0.841064432190082
0.727194559806249,0.833094425031309
0.714490875600321,0.825158411365928
0.701886703872888,0.817256264309997
0.689381673932063,0.809387856979578
0.676975415085962,0.801553062490731
0.664667556642701,0.793751753959517
0.652457727910395,0.785983804501996
0.640345558197159,0.778249087234231
0.628330676811108,0.77054747527228
0.616412713060357,0.762878841732205
0.604591296253022,0.755243059730066
0.592866055697218,0.747640002381924
0.58123662070106,0.74006954280384
0.569702620572664,0.732531554111874
0.558263684620145,0.725025909422088
0.546919442151618,0.717552481850541
0.535669522475198,0.710111144513294
0.524513554899,0.702701770526408
0.51345116873114,0.695324233005944
0.502481993279734,0.687978405067963
0.491605657852895,0.680664159828525
0.480821791758741,0.67338137040369
0.470130024305385,0.666129909909519
0.459529984800943,0.658909651462074
0.44902130255353,0.651720468177415
0.438603606871262,0.644562233171601
0.428276527062254,0.637434819560695
0.418039692434621,0.630338100460757
0.407892732296478,0.623271948987847
0.397835275955941,0.616236238258026
0.387866952721124,0.609230841387355
0.377987391900144,0.602255631491894
0.368196222801115,0.595310481687704
0.358493074732153,0.588395265090846
0.348877577001373,0.581509854817381
0.339349358916889,0.574654123983368
0.320553278919275,0.561031193097945
0.311284675622375,0.554263739278656
0.302101869204233,0.547525457363063
0.293004488972964,0.540816220467226
0.283992164236683,0.534135901707205
0.26622119848155,0.52086151105886
0.257461816078928,0.514267185402655
0.240193398764146,0.501163639006486
0.231683622468219,0.494654164498643
0.223256306824086,0.488172719939041
0.214911081139864,0.481719178443742
0.190364236927816,0.462524703504266
0.182343664164389,0.456181505426783
0.17440332790145,0.449865575993907
0.166542857447113,0.443576788321697
0.158761882109493,0.437315015526213
0.143436934016866,0.424872007029671
0.135892219878091,0.418690517560733
0.128425518088493,0.412535535432765
0.113724668789295,0.400304585663981
0.106489779895925,0.394228364255287
0.0922492201622181,0.382153793969596
0.0783118132199914,0.370182207833241
0.0714558653159712,0.364234716611215
0.0646745935341667,0.358312590774705
0.0579676271826934,0.352415703439772
0.0513345955696664,0.346543927722477
0.0447751280032008,0.340697136738878
0.0318754022424155,0.329078001437018
0.0192654843652595,0.317557282462678
0.0130682766533306,0.311833511888479
0.00694240883665481,0.306133964744342
0.000887510223347349,0.300458514146328
-0.00509678987847648,0.294807033210496
-0.0110108621607015,0.289179395052909
-0.0168550773152125,0.283575472789626
-0.022629806033894,0.277995139536708
-0.028335419008631,0.272438268410217
-0.033972286931308,0.266904732526211
-0.0450412703880214,0.255907158949903
-0.0504741273058274,0.250442867489721
-0.0558397219391125,0.245001403736269
-0.0715366390506897,0.228812709876894
-0.0766368914647386,0.223461288110965
-0.0816717350536904,0.218132059632068
-0.0866415405094296,0.212824897556265
-0.0963875197888102,0.202276265078181
-0.101164434996221,0.197034540908022
-0.105877794837958,0.191814375605198
-0.110527970005906,0.186615642285771
-0.115115331191951,0.181438214065802
-0.119640249087976,0.17628196406135
-0.124103094385867,0.171146765388477
-0.13712290160958,0.155866208519935
-0.149597400357934,0.140770545813785
-0.157615726262322,0.1308077978696
-0.161536599311816,0.125856351403664
-0.165399106682024,0.120924687429914
-0.172950507152116,0.111120199423211
-0.180272893207677,0.101393318777977
-0.190833557371756,0.086946291143943
-0.194242484215518,0.0821683192858586
-0.197596381606956,0.0774089879645056
-0.200895620237954,0.0726681702959445
-0.204140570800397,0.067945739396236
-0.210469090487158,0.0585555303676196
-0.213553400995246,0.053887498470833
-0.216584906202317,0.0492373458071417
-0.219563976800258,0.0446049454926064
-0.222490983480952,0.0399901706432877
-0.225366296936284,0.0353928943752465
-0.22819028785814,0.0308129898045431
-0.230963326938403,0.0262503300472383
-0.233685784868959,0.021704788219393
-0.238980440048488,0.0126645508163229
-0.241553378681231,0.00816960147321946
-0.244077218931805,0.0036912625238181
-0.246552331492096,-0.0007705929158206
-0.248979087053987,-0.00521609172963605
-0.253689009950113,-0.0140585270155542
-0.255972918668116,-0.0184557172555355
-0.260400484103428,-0.0272026773492397
-0.262544882204506,-0.031552700970841
-0.266696762632929,-0.0402064697832389
-0.268704986344044,-0.0445104687419142
-0.270668559975608,-0.0487993799141594
-0.272587854219505,-0.053073330183914
-0.27446323976762,-0.0573324464351172
-0.278083767544043,-0.0658066844176268
-0.283194511287432,-0.0784099583507394
-0.284814229190435,-0.0825827350533602
-0.286392633240849,-0.0867415659250051
-0.28793009413056,-0.0908865778496133
-0.289426982551451,-0.0950178977111241
-0.290883669195407,-0.0991356523934769
-0.296315811839583,-0.115473557010094
-0.298800310489067,-0.123564417225877
-0.299985964067255,-0.127590768404424
-0.301134381403587,-0.131604569475329
-0.302245933189946,-0.135605947322529
-0.303320990118218,-0.139595028829964
-0.306330898673361,-0.151489764153075
-0.309025698413571,-0.163278400240119
-0.309855670708007,-0.167184960119503
-0.310652113679434,-0.171080238730636
-0.311415398019736,-0.174964362957459
-0.312843973574508,-0.182699655793929
-0.315319531553486,-0.19804197174847
-0.315861084848691,-0.201851568035419
-0.316853982842847,-0.209440469554867
-0.317306068925567,-0.213220028555245
-0.317729073987895,-0.216989828894645
-0.318123368721715,-0.220749997457006
-0.318489323818913,-0.224500661126268
-0.318827309971373,-0.228241946786369
-0.319420858209618,-0.23569689161485
-0.319677161679173,-0.239410804551107
-0.319906978971529,-0.243115847013961
-0.320110680778571,-0.246812145887352
-0.320288637792183,-0.250499828055219
-0.32044122070425,-0.2541790204015
-0.320568800206658,-0.257849849810137
-0.320750431750032,-0.265166927350231
-0.320733796504329,-0.28693064539671
-0.320550959914079,-0.294126096792652
-0.32042796757462,-0.297713308227184
-0.319937142681525,-0.308434408084296
-0.319512093109376,-0.315549298123027
-0.31901223694675,-0.322639364519051
-0.31873518312372,-0.326175406060896
-0.318128677453649,-0.333230140251949
-0.317454779030797,-0.340262588479081
-0.31671645339024,-0.347273765813806
-0.315058382596324,-0.361236368092098
-0.31460823153534,-0.364715310403159
-0.31267621459792,-0.378588053131532
-0.311636548199508,-0.385500384961348
-0.311099597939473,-0.388950985086451
-0.310551730561399,-0.392398043863603
-0.309424727218669,-0.399282044909812
-0.308846332637784,-0.402719240946747
-0.306442117728085,-0.416438955811946
-0.305820258313544,-0.419862251627307
-0.303910677490999,-0.430118250254165
-0.303260718663458,-0.433532709803174
-0.301942877329649,-0.440356080214912
-0.301275736207149,-0.44376524484552
-0.299245879319886,-0.453984179043572
-0.297872653714089,-0.460790937603523
-0.296486897754452,-0.467594189022574
-0.295790247621655,-0.470994816764111
-0.295091576976053,-0.47439494837224
-0.29228410310328,-0.487993051149475
-0.29158089027192,-0.49139260534966
-0.290877881079063,-0.494792424720073
-0.290175446216593,-0.498192636144655
-0.289473956376395,-0.501593366507345
-0.288773782250354,-0.504994742692081
-0.286684861076021,-0.515204015017967
-0.285993656725456,-0.518609243330284
-0.285305621548471,-0.522015751884346
-0.284621126236952,-0.525423667564091
-0.281264721877302,-0.542488793785936
-0.279959913407666,-0.549329135092331
-0.278681126540203,-0.556179165187517
-0.276818223851068,-0.566474597278216
-0.275030550901637,-0.576797538920964
-0.274453107533889,-0.580245224827386
-0.272781309963223,-0.590610174998318
-0.267570936081123,-0.628944795738103
-0.266444823868566,-0.639504737886744
-0.266101245654294,-0.643035991783612
-0.264895780530369,-0.657220756846074
-0.263796658416433,-0.675095665788327
-0.263193794012353,-0.693145325205919
-0.263089555048642,-0.704065599049482
-0.263099946158503,-0.70772153133314
-0.263842665663069,-0.733547858104442
-0.264048928428558,-0.737272398934142
-0.26513920711371,-0.752263301552156
-0.266671643206444,-0.767408677478002
-0.267611084118349,-0.775041830610149
-0.268669960987383,-0.782716647283798
-0.269851239348625,-0.790434142570464
-0.271157884737151,-0.79819533154166
-0.272592862688041,-0.806001229268903
-0.273359403104084,-0.80992126112589
-0.275859678417222,-0.821751211277584
-0.276761223849554,-0.825718235801525
-0.278668719357453,-0.833688607863106
-0.279675410816791,-0.837692209168625
-0.280717892335567,-0.841708256502549
-0.281796534605666,-0.845736876748817
-0.282911708318973,-0.849778196791368
-0.284063784167372,-0.853832343514142
-0.289048522749588,-0.870179734886253
-0.297695712296093,-0.895107192620789
-0.300901992731422,-0.903528770998725
-0.306025248586083,-0.916270027061233
-0.319495973385273,-0.946525534604742
