-0.79933099552819,0.186598280206201
-0.124485669350985,-0.518828607733567
0.0953467373252448,0.854668484487754
-0.138234765952165,-0.318362710392669
-0.371816269229575,-1.49139390527309
0.271700276635332,-0.203642419737173
0.393302330063562,-0.0672206099453094
