0.999833434927842,-0.673351388972385
0.392462023657117,0.136795114552413
0.507437692696005,0.434943480971147
0.625557390757088,0.420219451088223
0.743677088818171,0.405495421205299
-0.921946750400727,-0.221129459038657
0.120499700421022,0.461788955465806
