0.717755299409593,-0.671222800789814
0.706473227337718,-0.668503484952436
0.69531479336107,-0.665770911581143
0.684279448201936,-0.66302525730545
0.673366642582603,-0.660266698754872
0.66257582722536,-0.657495412558923
0.651906452852495,-0.654711575347117
0.641357970186294,-0.65191536374897
0.630929829949046,-0.649106954393995
0.620621482863038,-0.646286523911708
0.610432379650558,-0.643454248931624
0.600361971033894,-0.640610306083256
0.590409707735332,-0.637754871996119
0.580575040477162,-0.634888123299729
0.570857419981671,-0.632010236623599
0.561256296971145,-0.629121388597245
0.551771122167874,-0.626221755850181
0.542401346294144,-0.623311515011921
0.533146420072244,-0.620390842711981
0.52400579422446,-0.617459915579874
0.506065246540396,-0.611568003337222
0.497264226148689,-0.608607371485705
0.48857530902025,-0.60563719132008
0.479997945877367,-0.602657639469863
0.471531587442327,-0.599668892564567
0.463175684437417,-0.596671127233708
0.454929687584925,-0.5936645201068
0.44679304760714,-0.590649247813357
0.438765215226349,-0.587625486982894
0.430845641164838,-0.584593414244927
0.423033776144897,-0.581553206228968
0.415329070888813,-0.578505039564534
0.407730976118873,-0.575449090881139
0.400238942557365,-0.572385536808298
0.392852420926577,-0.569314553975524
0.385570861948796,-0.566236319012333
0.378393716346311,-0.563151008548239
0.371320434841408,-0.560058799212757
0.364350468156376,-0.556959867635402
0.357483267013502,-0.553854390445688
0.350718282135073,-0.55074254427313
0.344054964243378,-0.547624505747242
0.337492764060704,-0.54450045149754
0.33103113230934,-0.541370558153537
0.324669519711571,-0.538235002344749
0.318407376989687,-0.535093960700689
0.312244154865974,-0.531947609850874
0.306179304062721,-0.528796126424817
0.300212275302216,-0.525639687052032
0.294342519306745,-0.522478468362035
0.288569486798596,-0.519312646984341
0.282892628500058,-0.516142399548463
0.277311395133418,-0.512967902683916
0.271825237420963,-0.509789333020216
0.266433606084982,-0.506606867186877
0.261135951847761,-0.503420681813412
0.255931725431589,-0.500230953529338
0.250820377558754,-0.497037858964169
0.245801358951542,-0.493841574747419
0.240874120332242,-0.490642277508602
0.236038112423141,-0.487440143877235
0.231292785946527,-0.48423535048283
0.226637591624687,-0.481028073954903
0.222071980179911,-0.477818490922969
0.217595402334483,-0.474606778016542
0.213207308810694,-0.471393111865136
0.20890715033083,-0.468177669098267
0.204694377617179,-0.464960626345449
0.196528792377666,-0.458522447400024
0.19257488129638,-0.455301664466446
0.188706158870458,-0.452079988064978
0.184922075822187,-0.448857594825135
0.181222082873854,-0.44563466137643
0.174072170166158,-0.439187880370494
0.170621151851369,-0.435964386072294
0.16725202652567,-0.43274105808329
0.163964244911348,-0.429518073032999
0.160757257730692,-0.426295607550934
0.157630515705988,-0.42307383826661
0.154583469559524,-0.419852941809542
0.151615570013589,-0.416633094809245
0.148726267790469,-0.413414473895233
0.145915013612453,-0.41019725569702
0.143181258201828,-0.406981616844122
0.140524452280881,-0.403767733966053
0.137944046571901,-0.400555783692328
0.135439491797176,-0.397345942652461
0.133010238678992,-0.394138387475966
0.130655737939637,-0.39093329479236
0.1283754403014,-0.387730841231156
0.126168796486568,-0.384531203421868
0.124035257217428,-0.381334557994012
0.121974273216268,-0.378141081577102
0.119985295205376,-0.374950950800653
0.11806777390704,-0.371764342294179
0.114444904337184,-0.365402398609216
0.11273845751024,-0.362227416689757
0.109532793383759,-0.355890315844453
0.108032477528797,-0.352728550177639
0.106599773442404,-0.349571543187403
0.105234131846868,-0.346419471503259
0.103935003464477,-0.343272511754722
0.102701839017517,-0.340130840571307
0.100431204819047,-0.3338640704179
0.0993926365121105,-0.330739324706938
0.0984178350297572,-0.327620574079156
0.0975062510942746,-0.324507995164069
0.0966573354279502,-0.321401764591192
0.0958705387530718,-0.318302058990038
0.095145311791927,-0.315209054990124
0.0944811052668036,-0.312122929220963
0.0938773698999892,-0.30904385831207
0.0933335564137714,-0.305972018892959
0.092849115530438,-0.302907587593146
0.0924234979722766,-0.299850741042145
0.0920561544615749,-0.296801655869471
0.0917465357206206,-0.293760508704637
0.0914940924717012,-0.29072747617716
0.0912982754371047,-0.287702734916553
0.0911585353391185,-0.284686461552332
0.0910743229000303,-0.28167883271401
0.0910450888421279,-0.278680025031102
0.0910702838876989,-0.275690215133124
0.091149358759031,-0.272709579649589
0.0914669508681291,-0.266776538443909
0.0917043695504705,-0.263824485980793
0.0919934709477237,-0.260882314450179
0.0923337057821763,-0.257950200481582
0.092724524776116,-0.255028320704517
0.0931653786518305,-0.252116851748497
0.0936557181316075,-0.249215970243039
0.0947826567924996,-0.243446676101862
0.09541815741819,-0.240578616725174
0.0961009465370936,-0.237721851317105
0.0968304748714981,-0.234876556507169
0.0976061931436911,-0.232042908924882
0.0992940023905932,-0.226411261961313
0.100204994809878,-0.22361361583906
0.103199731918517,-0.215295506464601
0.104283399979285,-0.212548335102264
0.105408863756142,-0.209814224003692
0.106575573971377,-0.207093349798401
0.10903053660613,-0.201692018585718
0.110317690470224,-0.199011914837355
0.111643893661846,-0.196345754500332
0.113008596903284,-0.193693714204161
0.114411250916825,-0.191055970578359
0.115851306424758,-0.188432700252439
0.11732821414937,-0.185824079855917
0.118841424812948,-0.183230286018307
0.120390389137781,-0.180651495369123
0.12359338166036,-0.175539630154094
0.126932797495408,-0.170489897246947
0.128652290960827,-0.167988771982616
0.130404242421227,-0.165503709683799
0.132188102598895,-0.163034886980011
0.134003322216118,-0.160582480500767
0.135849351995185,-0.158146666875581
0.137725642658383,-0.155727622733969
0.139631644928,-0.153325524705443
0.14353058717564,-0.148572873505714
0.145522428598238,-0.14622267359354
0.147541784516407,-0.143890126312511
0.149588105652432,-0.141575408292143
0.151660842728602,-0.139278696161951
0.153759446467204,-0.137000166551449
0.158032056820857,-0.132498361407573
0.162401542491692,-0.128071405896632
0.164621240376772,-0.1258864383273
0.16686350925801,-0.123720713054745
0.171413562898113,-0.119447695918027
0.173720249101553,-0.117340757312893
0.176047309190302,-0.115253767522596
0.178394193886647,-0.11318690317665
0.180760353912878,-0.111140340904569
0.187968993193752,-0.105124232826668
0.192861059272366,-0.101218242685163
0.195331336445944,-0.0992972020760837
0.197817044005421,-0.0973976999474722
0.20283255317122,-0.0936640176497122
0.207903192548064,-0.0900186088280001
0.210457812871347,-0.0882294485444487
0.215602908399074,-0.084719099379528
0.218192285048093,-0.082998263757188
0.220792148583599,-0.0813005562809479
0.22340194972788,-0.0796261535803221
0.226021139203224,-0.0779752322848254
0.233929544838508,-0.073165123124256
0.236580794860979,-0.0716098937444219
0.239238686825952,-0.0700790289172899
0.241902671455712,-0.0685727052723749
0.247246721598751,-0.0656343880472539
0.249925688556604,-0.0642027477260771
0.252608551068396,-0.0627963551051759
0.255294759856416,-0.0614153868140646
0.260675019150287,-0.0587304297392707
0.263367971100713,-0.0574267942146174
0.266062072216518,-0.0561492895378126
0.268756773219987,-0.054898092338371
0.27145152483341,-0.0536733792458072
0.274145777779074,-0.0524753268896359
0.276838982779266,-0.0513041118993717
0.279530590556274,-0.0501599109045293
0.28490681732989,-0.0479532574191682
0.287590337771073,-0.0468911581876787
0.290270063878222,-0.0458567794696696
0.292945446373626,-0.0448502978946553
0.295615935979572,-0.0438718900921506
0.300940039412242,-0.0420000023227284
0.308875765947504,-0.0394071397002824
0.311505363384744,-0.0386008837526423
0.31412622298854,-0.0378239379841142
0.31673779548118,-0.0370764790242127
0.319339531584951,-0.0363586835024524
0.32193088202214,-0.035670728048348
0.327080228785927,-0.0343850438611654
0.337230126095186,-0.0321795279973149
0.339733397090363,-0.0317053986432114
0.344695050138165,-0.0308510758758381
0.347152333635366,-0.0304712357215975
0.34959318941115,-0.0301231785596737
0.352017068187805,-0.0298070810195815
0.354423420687619,-0.0295231197308353
0.356811697632879,-0.02927147132295
0.359181349745873,-0.02905231242544
0.361531827748889,-0.0288658196678201
0.363862582364214,-0.0287121696796048
0.368462724320943,-0.0285041045294468
0.372977381394361,-0.0284295300110831
0.375201279905548,-0.0284427433126107
0.377402159362771,-0.0284898591606308
0.379579470488316,-0.028571054184658
0.381732664004472,-0.0286865050142069
0.390093276420958,-0.0294943989779128
0.392117642724483,-0.0297837782777899
0.394114595752344,-0.0301084731602766
0.396083586226831,-0.0304686602548875
0.398024064870229,-0.0308645161911373
0.399935482404827,-0.0312962175985404
0.401817289552913,-0.0317639411066117
0.403668937036773,-0.0322678633448657
0.407279555900971,-0.0333850105299803
0.409037428725883,-0.0339985887358702
0.415739859497667,-0.0368237203369889
0.418885948678868,-0.0384612502172885
0.420405789246302,-0.0393368743806746
0.421889428094676,-0.0402506401989043
0.423336315946277,-0.0412027243014925
0.428745371830707,-0.0453977761457208
0.430000265532759,-0.0465441011128201
0.431215112571765,-0.0477298041413655
0.432389363670012,-0.0489550618608717
0.435663048543074,-0.0528699294603013
0.436669423101161,-0.0542551722387969
0.437632455329927,-0.0556808528558265
0.439426295688649,-0.058654234123546
0.441040175397539,-0.0617914862995769
0.441778256814018,-0.0634220055519957
0.442469700234901,-0.0650940224200362
0.443113956382477,-0.0668077135332132
0.443710475979035,-0.0685632555210411
0.444758108408242,-0.0722005986387086
0.445608203300824,-0.0760074648091557
0.4459578009766,-0.0779749106129583
0.446256366435082,-0.0799852670684997
0.446698203589318,-0.0841354184528575
0.446840376729647,-0.0862755666407032
0.446929320541833,-0.0884593319983462
0.446964485748165,-0.0906868911553012
0.446945323070929,-0.0929584207410828
0.446741816954906,-0.0976340977171845
0.446556374960695,-0.100038598366534
0.446314407972067,-0.102487775962768
0.44601536671131,-0.104981807135403
0.445658701900712,-0.107520868513951
0.445243864262561,-0.110105136727929
0.443644821605662,-0.118130948677583
0.442991799880174,-0.120897810528424
0.44227785893857,-0.123710762362267
0.439765028039944,-0.132427924056954
0.438801917456757,-0.135427002117952
0.437775141268892,-0.138473053309526
0.435528394968284,-0.144706781602457
0.434307326300116,-0.147894811962845
0.431667051539488,-0.154414088259036
0.430246746891604,-0.157745687453869
0.428758931695058,-0.16112549618588
0.425578572545126,-0.168030448779495
0.423884930036316,-0.171555945900127
0.422121579867994,-0.175130359075996
0.420287972762447,-0.178753864936616
0.418383559441963,-0.182426640111501
0.416407790628829,-0.186148861230167
0.412239989413766,-0.193742347816898
0.410046858456411,-0.197613966543992
0.405439389453492,-0.205507838013212
0.40053331581488,-0.213603732365905
0.397966929062909,-0.21772787969734
0.395324243318877,-0.221903062638187
0.392604709305072,-0.22612945781796
0.389807777743783,-0.230407241866175
0.3839795248679,-0.239117683085987
0.37783509046953,-0.24803579933374
0.371370080326973,-0.257163003645551
0.368015986157344,-0.261805455399264
0.364580100218532,-0.266500709057536
0.361061873232823,-0.271248941249881
0.3500076532172,-0.2858132753265
0.342216397880913,-0.295790962255712
0.334082595691946,-0.305984802429567
0.329885866333427,-0.311163221557023
0.325601852428601,-0.316396208884183
0.31676977386918,-0.327026594655676
0.31222061065916,-0.332424346359038
0.307581965791984,-0.337877372780163
0.302853289989939,-0.343385850548567
0.298034033975314,-0.348949956293762
0.288121584197472,-0.360245758232589
0.28302729187883,-0.36597780768525
0.277840222236759,-0.371766191632762
0.26171685659284,-0.389471116739551
0.26171685659284,-0.389471116739551
0.245505464690286,-0.407140321364426
0.240250503780623,-0.412901267525967
0.235069404103848,-0.418598329220244
0.224927451738468,-0.429802022941671
0.219965930694615,-0.435309266836155
0.205515177986923,-0.45145625785869
0.200841749966901,-0.456714694424784
0.191708123184931,-0.467047562496849
0.17010229861299,-0.491820646730728
0.165989016114695,-0.496596153456046
0.16194424800731,-0.501312670652768
0.154058918254773,-0.510569960195087
0.150217688254373,-0.515111344408018
0.139095727625167,-0.528390126017899
0.128569343323854,-0.541157275691412
0.125191339356259,-0.545300723953834
0.121878173825713,-0.549388547957994
0.112324366080133,-0.561321333757563
0.109267212521546,-0.565189720065338
0.103342073873539,-0.572764514844767
0.0949222744100947,-0.583726351428607
0.0896171150345649,-0.590770907987078
0.0870559448939591,-0.594215103718086
0.0845552688812944,-0.597607652328499
0.082114752818947,-0.600948859751982
0.0708028755451432,-0.616895486743802
0.0687163014546033,-0.619935071652714
0.0647162812167549,-0.625866948450417
0.0628021667141991,-0.628759852206543
0.060944870385724,-0.631604474112407
0.0591440580537059,-0.634401120101676
0.0557105486685459,-0.639851708065096
0.0540771832601568,-0.64250626190658
0.0524989651377301,-0.645114063566136
0.0509755601236419,-0.647675418977431
0.0480918527099868,-0.652660014789903
0.0467308819551725,-0.655083867058413
0.044169035461452,-0.659796209988317
0.041818421138118,-0.664330110333177
0.0407214905962867,-0.666530909370382
0.0396763655641809,-0.668688015562325
0.0377401953186515,-0.672872373145097
0.0352161268327072,-0.678828861521465
0.033782973691368,-0.682590057666628
0.0331402623426146,-0.684408634708486
0.0315035790525346,-0.689619952915163
0.0306519907130614,-0.6928935469572
0.0299889104655648,-0.69600950190353
0.0297272254322485,-0.697509129549971
0.0295116648890553,-0.698970265223486
0.0293418946583615,-0.700393214857741
0.0291383884239776,-0.703125779743136
0.0291039840650401,-0.70443600686161
0.0291140333081073,-0.705709271675491
0.0291682019755556,-0.706945880118446
0.0294075608731007,-0.709310351626242
0.0300891404616843,-0.712589784447656
0.0311497492780192,-0.715555830348734
0.0320629379137885,-0.717363169553711
0.032580364526266,-0.718216749538477
0.0337352114522882,-0.719825259940898
0.0365155231351386,-0.722656248619965
0.0373066970677977,-0.723285357043251
0.0381356410499881,-0.723883621835278
0.0408457515175099,-0.725496413760472
0.0449677393918069,-0.727233552132221
0.046086813375795,-0.727596081486178
0.0496512733227736,-0.728516351913166
0.0562627825603655,-0.729510766528537
0.0591343487082695,-0.729726891526545
0.0606174298830554,-0.729797254721329
0.0621315975548992,-0.729842892958188
0.063676517546177,-0.72986411217079
0.0668572777765403,-0.729834517257886
0.0701570371531558,-0.729710917451951
0.0735731222550342,-0.729495760222319
0.080743575950622,-0.728800563369298
0.0963627615214188,-0.726419169229577
0.106928708974925,-0.724316150798899
0.109111431345519,-0.723843093529327
0.111316551594955,-0.723353265577165
0.115792649019859,-0.722324521359737
0.118062957840079,-0.721786216961805
0.120354327828647,-0.72123236561595
0.124998914600331,-0.720079245815138
0.1273514630282,-0.719480589227514
0.146853860013463,-0.714201399277304
0.157024977074775,-0.711266996570724
0.159607877600083,-0.710506001036774
0.162206158274138,-0.709734659427234
0.164819484919313,-0.708953277675772
0.175416567658755,-0.705733467924037
0.178100111495182,-0.704906474467965
0.180796696236989,-0.704071276471971
0.183505987706551,-0.703228179869722
0.191706760705536,-0.700654557762111
0.194463537309884,-0.699782926071508
0.208406274373711,-0.695335352223006
0.214051263103241,-0.693520306260822
0.216886969451224,-0.692606289209515
0.219731038217856,-0.69168835068962
0.231184253918389,-0.687983500597495
0.234065122113905,-0.687050543739662
0.242744534107394,-0.684240381701302
0.2485581398326,-0.682360590125015
0.251472139481197,-0.681419707072657
0.254390491416957,-0.680478573755711
0.263168319170983,-0.677656731554018
0.269035839186386,-0.67577986088051
0.274912748087476,-0.673909331556654
0.277853887926094,-0.672977209735012
0.283739867491359,-0.671120781440635
0.289628552389838,-0.669276813169244
0.295517269200541,-0.667447752390174
0.298460804128917,-0.666539577144426
0.301403344502479,-0.665636046572758
0.307284104874662,-0.663844143186329
0.310221656518037,-0.662956382238902
0.316089431831233,-0.661198771503955
0.321945208662201,-0.659467081873331
0.324867762202791,-0.658611722306306
0.333610073193496,-0.656091255802383
0.336514613054631,-0.655267324145681
0.339413814051844,-0.654452014300727
0.34230734200751,-0.653645632201187
0.353818039862237,-0.650515499930504
0.382033924555204,-0.643465018929484
0.393039792614074,-0.641006163255359
0.398471928855626,-0.639863954594121
0.417067102069044,-0.636365884898372
0.419666108746199,-0.635933688739117
0.422249751230721,-0.635519292401612
0.424817695344986,-0.635123001819522
0.427369606911371,-0.634745122926515
0.429905151752252,-0.634385961656257
0.439876980308262,-0.633142611476051
0.444756005615028,-0.632641196397777
0.454286911181133,-0.631891123611558
0.484979348460643,-0.632176805528276
0.500401236694267,-0.63460641288119
0.503989446434294,-0.635495830383592
0.50574162397962,-0.635984524119586
0.512463021185126,-0.638239670747739
0.518708677103417,-0.640990096886578
0.520193250174685,-0.641757385347333
0.528429493295507,-0.647054001182975
0.529687215606692,-0.64805510671499
0.533256582058143,-0.651267404086214
0.534377323455846,-0.652408849913903
0.537527726903882,-0.65604951058015
0.538506140546124,-0.657336191642181
0.542845264460993,-0.664331820266952
0.544994352978391,-0.66898998970551
0.548228055511673,-0.679381658817946
0.549982306737342,-0.691262169637485
0.550294244548146,-0.700042277390017
0.549895180024667,-0.709533041954604
0.548763725798991,-0.719754043085913
0.547916668995356,-0.725144501037424
0.543429374060313,-0.745522640088959
0.541701234468058,-0.751786928835042
0.539769946792832,-0.758252132742809
0.537632837613648,-0.764920699281593
0.535287233509514,-0.771795075920729
0.514774109899948,-0.821664173622035
0.512805579518913,-0.825883982628549
