0.952301280526127,-0.61285014950889
0.943319230718017,-0.609034558710178
0.934392130653249,-0.60524675127112
0.925519860675539,-0.601486686801508
0.916702301128604,-0.597754324911135
0.907939332356157,-0.594049625209792
0.899230834701916,-0.59037254730727
0.890576688509596,-0.586723050813363
0.881976774122913,-0.583101095337861
0.873430971885582,-0.579506640490557
0.864939162141318,-0.575939645881242
0.856501225233839,-0.572400071119709
0.848117041506859,-0.568887875815748
0.839786491304094,-0.565403019579153
0.83150945496926,-0.561945462019715
0.823285812846072,-0.558515162747225
0.815115445278247,-0.555112081371475
0.8069982326095,-0.551736177502259
0.798934055183546,-0.548387410749366
0.790922793344102,-0.54506574072259
0.782964327434883,-0.541771127031721
0.775058537799604,-0.538503529286553
0.767205304781982,-0.535262907096876
0.759404508725732,-0.532049220072482
0.75165602997457,-0.528862427823165
0.743959748872211,-0.525702489958714
0.736315545762372,-0.522569366088923
0.728723300988767,-0.519463015823583
0.721182894895114,-0.516383398772485
0.713694207825127,-0.513330474545422
0.706257120122521,-0.510304202752186
0.698871512131014,-0.507304543002569
0.69153726419432,-0.504331454906361
0.684254256656155,-0.501384898073356
0.677022369860235,-0.498464832113345
0.669841484150276,-0.495571216636119
0.662711479869993,-0.492704011251472
0.655632237363102,-0.489863175569194
0.648603636973318,-0.487048669199078
0.641625559044358,-0.484260451750914
0.634697883919937,-0.481498482834496
0.627820491943771,-0.478762722059616
0.620993263459576,-0.476053129036064
0.614216078811066,-0.473369663373632
0.607488818341959,-0.470712284682114
0.600811362395969,-0.468080952571299
0.594183591316812,-0.465475626650981
0.587605385448204,-0.462896266530952
0.581076625133861,-0.460342831821002
0.574597190717499,-0.457815282130925
0.568166962542833,-0.455313577070511
0.561785820953578,-0.452837676249552
0.555453646293451,-0.450387539277842
0.549170318906167,-0.44796312576517
0.542935719135442,-0.44556439532133
0.536749727324992,-0.443191307556113
0.530612223818532,-0.44084382207931
0.524523088959778,-0.438521898500715
0.518482203092446,-0.436225496430118
0.512489446560251,-0.433954575477312
0.50654469970691,-0.431709095252088
0.500647842876137,-0.429489015364238
0.494798756411649,-0.427294295423554
0.488997320657161,-0.425124895039829
0.483243415956389,-0.422980773822853
0.477536922653048,-0.420861891382418
0.471877721090855,-0.418768207328318
0.466265691613525,-0.416699681270342
0.460700714564774,-0.414656272818284
0.455182670288318,-0.412637941581935
0.449711439127871,-0.410644647171087
0.44428690142715,-0.408676349195531
0.438908937529871,-0.406733007265061
0.433577427779749,-0.404814580989467
0.4282922525205,-0.402921029978541
0.42305329209584,-0.401052313842075
0.417860426849484,-0.399208392189862
0.412713537125148,-0.397389224631693
0.407612503266548,-0.395594770777359
0.4025572056174,-0.393824990236653
0.397547524521419,-0.392079842619367
0.39258334032232,-0.390359287535292
0.38766453336382,-0.38866328459422
0.382790983989635,-0.386991793405943
0.377962572543479,-0.385344773580254
0.373179179369069,-0.383722184726943
0.368440684810121,-0.382123986455803
0.363746969210349,-0.380550138376625
0.359097912913471,-0.379000600099202
0.354493396263201,-0.377475331233325
0.349933299603255,-0.375974291388786
0.345417503277349,-0.374497440175378
0.340945887629199,-0.373044737202891
0.33651833300252,-0.371616142081118
0.332134719741028,-0.37021161441985
0.327794928188438,-0.36883111382888
0.323498838688468,-0.367474599917999
0.319246331584831,-0.366142032296999
0.310871585941423,-0.36354857436381
0.306749108089083,-0.362287603271205
0.302669734007939,-0.361050416907648
0.298633344041709,-0.359836974882932
0.290689037828848,-0.357481162289188
0.28678088226965,-0.356338710939745
0.282915232200227,-0.355219842368309
0.279091967964295,-0.354124516184673
0.27531096990557,-0.353052691998628
0.271572118367768,-0.352004329419967
0.267875293694604,-0.350979388058481
0.264220376229793,-0.349977827523963
0.260607246317053,-0.348999607426203
0.253505870522644,-0.347113026980128
0.250017385328406,-0.346204585851397
0.246570209061101,-0.345319323598592
0.243164222064445,-0.344457199831505
0.239799304682152,-0.343618174159929
0.236475337257938,-0.342802206193654
0.23319220013552,-0.342009255542474
0.229949773658614,-0.341239281816179
0.226747938170933,-0.340492244624562
0.223586574016195,-0.339768103577415
0.217384781080409,-0.338388348355695
0.214344112986793,-0.337732653400707
0.211343437600981,-0.337099693029356
0.205461586327637,-0.335901814476732
0.202580171127536,-0.335336815515043
0.199738270010102,-0.334794389576158
0.196935763319052,-0.334274496269869
0.194172531398102,-0.333777095205968
0.191448454590966,-0.333302145994248
0.188763413241362,-0.332849608244499
0.186117287693004,-0.332419441566513
0.183509958289608,-0.332011605570084
0.18094130537489,-0.331626059865001
0.175919550386351,-0.330921677768046
0.208267503500807,-0.322256483101585
0.205704699835053,-0.334398299075917
0.159990218391434,-0.318362260698476
0.113449588349489,-0.338795631824559
0.157020439885746,-0.320830462309761
0.101710335029108,-0.323417525637424
0.147001811334806,-0.338261392616637
0.173466869712783,-0.35475585092499
0.146971324022151,-0.328490243908912
0.179064495502007,-0.306529659702418
0.143075761652925,-0.328443059343057
0.141182824309794,-0.328451832156635
0.0991171178881891,-0.333114022051458
0.140818880611035,-0.31671263507796
0.109965852307666,-0.339481703464059
0.147538501220496,-0.355007957977678
0.130585475685865,-0.328955035806063
0.154644518607605,-0.316982082564024
0.133091061445091,-0.317628059804915
0.125770165334939,-0.329494470136529
0.124235873651779,-0.329716654164667
0.15198542507872,-0.322009314128185
0.114465372891263,-0.334324312069638
0.119843758715758,-0.330509758540117
0.106027632466534,-0.337519666835346
0.117090118956788,-0.331143551130865
0.116420929447679,-0.361801367588732
0.114474911897864,-0.331861011818695
0.113218921490209,-0.332251016723496
0.119375175050214,-0.316856776877102
0.0968786470240897,-0.33136521435612
0.106398024403666,-0.335026345421583
0.105379265657153,-0.335561073107535
0.10344186334435,-0.3366920274558
0.102522980465491,-0.337288173337695
0.101637150229948,-0.337904711171156
0.0999641690636716,-0.339198801131938
0.0991767788203704,-0.339876272478843
0.0984219625952479,-0.340573974216481
0.0976996007320198,-0.341291865954643
0.0970095735744018,-0.342029907303121
0.0963517614661098,-0.342788057871706
0.0957260447508593,-0.343566277270191
0.095132303772366,-0.344364525108368
0.0945704188743456,-0.345182760996028
0.094040270400514,-0.346020944542963
0.0935417386945867,-0.346879035358965
0.0930747041002795,-0.347756993053826
0.092639046961308,-0.348654777237337
0.092234647621388,-0.349572347519292
0.0918613864242351,-0.35050966350948
0.0915191437135652,-0.351466684817695
0.0912077998330938,-0.352443371053729
0.0906773299376095,-0.354455576748417
0.0904579646100281,-0.355491015426656
0.090269019487508,-0.356545957471881
0.0899819112325149,-0.358714190102455
0.0898835087874732,-0.359827399907387
0.0898150479223556,-0.360959951518473
0.0897881182437053,-0.364473253286567
0.0898382271354416,-0.365682768220184
0.090026355158138,-0.368159177262546
0.0901641349765295,-0.369425990590875
0.0905265279459777,-0.372016632910789
0.0912854058875483,-0.376044529695677
0.0915952968395742,-0.377424849277812
0.0922997582631738,-0.380241777081591
0.0926940894221789,-0.381678304522818
0.0931163280042752,-0.38313348713666
0.0935663543531782,-0.384607284532909
0.0945492917262677,-0.387610562111794
0.0950819634378855,-0.389139961514013
0.0956419442911729,-0.390687814137806
0.0962291146298457,-0.392254079592966
0.0974845451382101,-0.395441687436549
0.0981525659953332,-0.397062949044557
0.0988472977127043,-0.398702461923098
0.0995686206340394,-0.400360185681964
0.101890940058985,-0.405442218338432
0.102717431233332,-0.407172381716517
0.103569915330222,-0.408920554023887
0.10444827269337,-0.410686694870333
0.105352383666492,-0.412470763865647
0.107237387817519,-0.416092524742047
0.108218041682857,-0.417930135842716
0.109223970533031,-0.419785513531421
0.110255054711757,-0.421658617417954
0.111311174562751,-0.423549407112106
0.112392210429729,-0.425457842223669
0.113498042656406,-0.427383882362435
0.115783617563721,-0.431288616160743
0.116963120931791,-0.433267229039869
0.118166942034423,-0.435263285385366
0.119394961215333,-0.437276744807024
0.120647058818236,-0.439307566914637
0.121923115186849,-0.441355711317996
0.123223010664886,-0.443421137626893
0.124546625596065,-0.44550380545112
0.127264535192706,-0.44972070408473
0.128658590545601,-0.451854854113697
0.130075886726499,-0.454006084097161
0.131516304079117,-0.456174353644914
0.134466023674372,-0.460561849872455
0.135975086604442,-0.462780995771826
0.139061020448042,-0.46726988119073
0.140637652049005,-0.469539539929846
0.142236567227697,-0.471825955501794
0.143857646327833,-0.474129087516366
0.14550076969313,-0.476448895583354
0.147165817667304,-0.47878533931255
0.148852670594069,-0.481138378313745
0.150561208817142,-0.483507972196731
0.154042862527074,-0.488296663047246
0.155815738701364,-0.490715679234357
0.157609821546825,-0.493151088742427
0.159424991407171,-0.495602851181248
0.16126112862612,-0.498070926160612
0.164995826514686,-0.503055852180133
0.170752137129941,-0.510654575508281
0.176690692533261,-0.518397930630071
0.178710151446833,-0.521011000914951
0.184886674336966,-0.528945502039522
0.186984498495867,-0.531621964536997
0.191237903669252,-0.537022090374624
0.193393245371166,-0.53974567293436
0.202202747633668,-0.550795858341263
0.204451558781583,-0.553597166533938
0.211307523122275,-0.562093473286911
0.223092053969527,-0.576559501712536
0.225501571774333,-0.579498171461388
0.227928347592928,-0.58245190165433
0.232833194646347,-0.588404381811653
0.237805637879509,-0.594416619062838
0.240316908922782,-0.597445045623109
0.242844720042139,-0.600488290286221
0.247949483883964,-0.606619072360137
0.250526197293863,-0.609706528990524
0.253118972154708,-0.612808642162919
0.263648292981859,-0.625362852468426
0.271708065679221,-0.634930424768449
0.274425024521397,-0.638148336229422
0.279903776182625,-0.644626997851564
0.288232193772394,-0.654451481182152
0.293856602907541,-0.661071659448364
0.302399019597528,-0.67110690311225
0.305274227332324,-0.674479816443264
0.30816310339238,-0.677866578512124
0.313981381863134,-0.684681487302549
0.316910544961263,-0.688109553243698
0.319852897759515,-0.69155130636186
0.322808320601605,-0.695006706266828
0.325776693831249,-0.698475712568392
0.328757897792162,-0.701958284876346
0.331751812828061,-0.70545438280048
0.337777297499677,-0.712486993936457
0.349975534866225,-0.726712746433424
0.353055077051061,-0.730302392744995
0.359249303238581,-0.737521252461477
0.365489587474671,-0.744792599034356
0.371774972509055,-0.752116109341967
0.374934278684898,-0.755797324920777
0.38128552007246,-0.763198474977364
0.384477215971612,-0.766918328674725
0.387679469132632,-0.770650980964521
0.403844905895801,-0.789504807642726
0.407107989846058,-0.793313403292756
0.410380793464194,-0.797134514803763
0.413663197093923,-0.800968101785539
0.416955081078961,-0.804814123847876
0.420256325763024,-0.808672540600566
0.423566811489828,-0.8125433116534
0.430215027446521,-0.820321755098671
0.453757286667486,-0.847929530251077
0.474251656247449,-0.872059928121741
0.477653292488199,-0.87607719715973
0.48098165209679,-0.880015060583171
0.484237188885565,-0.883873901326685
0.487420356666864,-0.887654102324891
0.4935714004564,-0.894980116823863
0.499438413964126,-0.901996167557048
0.502266543893164,-0.905388913848022
0.505025027688772,-0.908705318001408
0.507714319163293,-0.911945762951829
0.512887140398437,-0.918200306982254
0.515371577783741,-0.921215171931498
0.520138775151522,-0.927022002371152
0.524640094731138,-0.932534186429826
0.52887916702132,-0.937754787584482
0.530901494963725,-0.940256701909354
0.534754003504871,-0.945045672727286
0.536585091728294,-0.947333495089587
0.538353341003405,-0.949550719333604
0.540059205142545,-0.951697728393958
0.541703137958055,-0.95377490520527
0.544807024867552,-0.957721293819245
0.550291590545997,-0.964792933181967
0.551514710841651,-0.966392006419343
0.552679530312404,-0.967924310884637
0.553786502770598,-0.969390229512471
0.554836082028574,-0.970790145237463
0.555828721898672,-0.972124440994235
0.558469543305114,-0.975737437801426
0.559238963747114,-0.976813083031515
0.559953713862943,-0.977825022966485
0.560614247464941,-0.978773640540955
0.56122101836545,-0.979659318689545
0.562275087311364,-0.981243388447568
0.562723292981451,-0.981942545926241
0.563119551199414,-0.982580295717515
0.564337513939293,-0.984861332074609
0.56447695030231,-0.985357295517362
0.564473966147555,-0.985517569455772
0.564423118851744,-0.985619882118365
0.56432486222722,-0.985664616439761
0.564179650086324,-0.98565215535458
0.563466818688811,-0.985275429005779
0.563138322605836,-0.985038015640494
0.562765140068194,-0.984745321541732
0.561382011850679,-0.983539384190794
0.560244813991923,-0.982466042757493
0.559613042785444,-0.9818497058849
0.558939761810686,-0.981180768821173
0.558225424879991,-0.980459614500931
0.557470485805699,-0.979686625858796
0.556675398400151,-0.978862185829386
0.554966593844654,-0.977060483347226
0.554053784319386,-0.976083986763715
0.552113619835519,-0.973981617584935
0.548923816711506,-0.970460367806669
0.54778781588001,-0.969190097349702
0.545409437405825,-0.966507073247172
0.544167967387819,-0.96509508547085
0.540239879958241,-0.960581814457094
0.5374559619823,-0.957345706723468
0.534544125169898,-0.9539313647334
0.528351217030627,-0.946580231891783
0.526728713377286,-0.944635838953855
0.523397750814762,-0.94062180194731
0.519955206660058,-0.93644331633065
0.518193226016492,-0.934293362630077
0.516404711411904,-0.932103445580836
0.514590116658635,-0.929873948117547
0.512749895569027,-0.927605253174829
0.508994389630157,-0.922951802589592
0.503180278507834,-0.91568721898153
0.499188930760921,-0.910659025659921
0.493038074889326,-0.90284668799556
0.490945915714499,-0.900172094464067
0.488833575951427,-0.897462898668589
0.484550169909908,-0.891942232024156
0.480191487263499,-0.886287751539222
0.459743210116321,-0.859268782556857
0.457395992413625,-0.856115363200699
0.450275914136127,-0.846483487402606
0.447877925694962,-0.843216932675437
0.445468379100033,-0.839923051442066
0.438174928516069,-0.829881278050941
0.425830370286014,-0.812634199506241
0.420837053408744,-0.805565526883676
0.408246794116331,-0.787496047738966
0.400637442166477,-0.776396902147829
0.398094514994838,-0.772656574874452
0.395549105916258,-0.768896579787277
0.390452657287636,-0.761319117910012
0.387902525362277,-0.757502416989164
0.380249944890101,-0.745945029513191
0.375150942118645,-0.738154529947557
0.370058348963702,-0.730299144773056
0.367515590523276,-0.726348077419031
0.364975795924002,-0.722381937466649
0.362439418978221,-0.718401107850532
0.357378733296501,-0.71039691136557
0.349824682483646,-0.698290017525612
0.329984009766126,-0.665487798693219
0.32511247560261,-0.657186299502183
0.322692499591108,-0.653022514374635
0.317886398770321,-0.644670787728583
0.308422308683167,-0.627881431042009
0.303771580414259,-0.619449927955411
0.294650909919424,-0.602528589680402
0.292411053293326,-0.598288336375723
0.290188228690955,-0.594044881445914
0.285795490806758,-0.585549898449384
0.268996582687264,-0.551518488382091
0.265008019005359,-0.543013083729781
0.263047907634479,-0.538762854723714
0.259198294894566,-0.530269258024857
0.244807869769595,-0.496442519150749
0.243129957439004,-0.492237105603867
0.241480422440668,-0.488038063797359
0.235175132016696,-0.471313272667476
0.233674290864751,-0.467151833582143
0.230766362992109,-0.458855346390384
0.226645664446377,-0.446482337069314
0.224064622068691,-0.438285946070215
0.221620687261764,-0.430134954632863
0.219317490524324,-0.42203242623422
0.2171586623551,-0.413981424351248
0.216134521014422,-0.409976203189688
0.212417029565898,-0.394099452217431
0.211584694244019,-0.390168212565964
0.208657117487746,-0.374606534365086
0.208027933493194,-0.370758849589215
0.207440741201131,-0.366929024592325
0.205150538710088,-0.348061199004277
0.203834970946007,-0.318940774772106
0.203883312784605,-0.315401194816055
0.204126846936961,-0.308393229233419
0.206568796755188,-0.284653098288735
0.208399518410601,-0.274876850910862
0.209117643150682,-0.27167398923286
0.209890466338804,-0.268499709503204
0.215701486367486,-0.250075696379247
0.216869905437443,-0.247112212457372
0.222131409308373,-0.235578560369142
0.223596011235588,-0.232777132920003
0.230064937152609,-0.221910853453724
0.239558796442835,-0.209120442460514
0.263454415531822,-0.186362975550818
0.266217201973353,-0.184305507647666
0.274925422079096,-0.178381948421561
0.290865886932971,-0.169361807399761
0.301306192394887,-0.164478046522994
0.312418493576254,-0.160003165290927
0.332465598937883,-0.153481733208966
0.373521200281555,-0.14483047853101
0.388672921500452,-0.142867878608544
0.421249662694017,-0.140386441627361
0.432795458255589,-0.139998310305084
0.450770583153312,-0.13983821996571
0.469544317413661,-0.140193848030068
0.475981815371953,-0.140428781836134
0.552870406745524,-0.146980329019734
0.583664374416112,-0.151227286315219
0.649954480536235,-0.162845443248735
0.69465313543238,-0.172292687544165
0.703900820267868,-0.174389272522886
0.722707774293833,-0.178792642076925
