-0.207605870791496,0.123219196111855
-0.202630555046844,0.117578906928162
-0.197700912273955,0.111965795081754
-0.192816720054702,0.106379821135898
-0.187977755970959,0.100820945653865
-0.183183797604601,0.0952891291989209
-0.178434622537502,0.089784332334335
-0.173730008351536,0.0843065156233756
-0.169069732628578,0.078855639629311
-0.164453572950501,0.0734316649154095
-0.15988130689918,0.0680345520449393
-0.155352712056489,0.0626642615811689
-0.150867566004302,0.0573207540873666
-0.146425646324494,0.0520039901268008
-0.13767059640951,0.0414505350584515
-0.133357021338082,0.0362137650772049
-0.12908578296653,0.031003580882268
-0.124856658876727,0.0258199430369091
-0.120669426650548,0.0206628121043966
-0.116523863869867,0.0155321486479988
-0.112419748116558,0.0104279132309841
-0.108356856972496,0.00535006641662073
-0.104334968019554,0.000298568768177104
-0.100353858839607,-0.00472661915107851
-0.0964133070145289,-0.00972553677787773
-0.0925130901261941,-0.0146982235489523
-0.0886529857564767,-0.0196447189010338
-0.084832771487251,-0.0245650622708539
-0.0810522249003912,-0.0294592930951444
-0.0773111235777714,-0.0343274508106368
-0.073609245101266,-0.039169574854063
-0.0699463670527491,-0.0439857046621544
-0.0663222670140949,-0.0487758796716428
-0.0627367225671777,-0.0535401393192599
-0.0556804107760509,-0.0629910702758067
-0.0522091985955898,-0.0676778204581999
-0.0487756523343624,-0.0723388130256483
-0.0453795495742431,-0.0769740874148838
-0.0420206678971061,-0.0815836830626379
-0.0386987848848255,-0.0861676394056424
-0.0321651251823304,-0.0952587919243292
-0.0289529036558644,-0.0997660669734748
-0.0257767911217517,-0.104247860464797
-0.0226365651618664,-0.108704211835029
-0.0195320033580829,-0.113135160520901
-0.0164628832922754,-0.117540745959144
-0.013428982546318,-0.121921007586492
-0.010430078702085,-0.126275984839675
-0.00746594934145054,-0.130605717155425
-0.00164112439847426,-0.139189604721552
0.0012200160201192,-0.143443838845394
0.00404727162761719,-0.147672985778728
0.00684086484214552,-0.151877084958289
0.00960101808183001,-0.156056175820806
0.0123279537647964,-0.160210297803012
0.0150218943091705,-0.164339490341639
0.0176830621330782,-0.168443792873417
0.0254721534632599,-0.180607754794983
0.0280044545865593,-0.184612891666686
0.0305050950800212,-0.188593335715201
0.0378192769626394,-0.200386905288922
0.0401954991180089,-0.204268972411995
0.0425411727341697,-0.208126543895536
0.0448565202292477,-0.211959659176278
0.0471417640213686,-0.215768357690952
0.0493971265286582,-0.21955267887629
0.0538190973612468,-0.227048347005884
0.0559861505227974,-0.230759772823603
0.0581242120720198,-0.234446979058913
0.0623142500059832,-0.241748890529231
0.0643666712269759,-0.245363674637702
0.0663909905081437,-0.24895439691069
0.0683874302676121,-0.252521096784928
0.0703562129235072,-0.256063813697145
0.0722975608939547,-0.259582587084075
0.0742116965970803,-0.263077456382449
0.0760988424510098,-0.266548461028999
0.0779592208738691,-0.269995640460455
0.08160056509888,-0.276818681425016
0.0833819757372832,-0.280194621831584
0.0851375086171192,-0.283546894769986
0.0868673861565139,-0.286875539676954
0.0885718307735931,-0.290180595989219
0.0902510648864825,-0.293462103143512
0.0919053109133079,-0.296720100576566
0.0935347912721951,-0.299954627725113
0.0951397283812699,-0.303165724025883
0.0967203446586581,-0.306353428915609
0.0982768625224855,-0.309517781831022
0.0998095043908777,-0.312658822208854
0.10280404981386,-0.318871123098701
0.104266398204702,-0.32194246248418
0.105705760272612,-0.324990647079004
0.10851641511214,-0.331017709643616
0.109888152720008,-0.333996666486867
0.111237793677449,-0.336952626286391
0.113871675313546,-0.342795712501181
0.116419839365438,-0.34854728378184
0.117662333342621,-0.3513888499137
0.11888406517813,-0.354207655622222
0.120085257290091,-0.357003740344138
0.121266132096629,-0.359777143516179
0.122426912015871,-0.362527904575078
0.123567819465942,-0.365256062957566
0.125790906631074,-0.370644729440235
0.126873531182387,-0.37330531641388
0.127937172937032,-0.37594345845804
0.128982054313135,-0.378559195009448
0.130008397728822,-0.381152565504835
0.131016425602219,-0.383723609380932
0.133932840149924,-0.391303175660805
0.134869830035417,-0.393785307427062
0.135789616469249,-0.396245309757688
0.136692421869544,-0.398683222089414
0.13757846865443,-0.401099083858973
0.138447979242032,-0.403492934503096
0.139301176050475,-0.405864813458514
0.140138281497886,-0.40821476016196
0.140959518002391,-0.410542814050165
0.141765107982114,-0.412849014559861
0.142555273855182,-0.415133401127779
0.143330238039721,-0.41739601319065
0.144090222953856,-0.419636890185208
0.144835451015713,-0.421856071548183
0.145566144643418,-0.424053596716308
0.146984818268876,-0.42838383621493
0.14767324310288,-0.430516629418891
0.149009380904066,-0.434717759919773
0.149657538707501,-0.436786176090156
0.150292719003664,-0.438833212122811
0.151525036746679,-0.442863301521858
0.152122619029782,-0.444846433761715
0.152708113478117,-0.446808343610769
0.153281742509809,-0.448749070505752
0.153843728542985,-0.450668653883396
0.154394293995769,-0.452567133180432
0.154933661286289,-0.454444547833593
0.155462052832668,-0.456300937279609
0.155979691053034,-0.458136340955212
0.156983597188229,-0.461744348742109
0.157470309939309,-0.463517031726865
0.158872155943988,-0.468710270287145
0.159320748589781,-0.470399877798347
0.16019123435647,-0.473717121427806
0.160613572313618,-0.475344836419526
0.161027603544135,-0.476951999444882
0.161433550466149,-0.478538649940605
0.161831635497784,-0.480104827343428
0.162222081057167,-0.481650571090081
0.162980943431677,-0.484680915361807
0.164067501404692,-0.489074165266419
0.164759977872336,-0.491901947629378
0.165097314706226,-0.493285641849019
0.165429013830995,-0.494649257343075
0.271185237648162,-0.586187422700862
0.166076388625674,-0.497316409901361
0.271279974358823,-0.389617549261405
0.0750850048586351,-0.394744684281031
0.279611436282297,-0.616219350095676
0.167313272103121,-0.502411505527117
0.0659448884834364,-0.62041331544423
0.0552765131240344,-0.605391990285561
0.168769226985471,-0.508335110794396
0.285325835679406,-0.604286401470553
0.170150964577543,-0.513768578941572
0.0548175513688297,-0.607255008502451
0.285944594620524,-0.412934993322209
0.0584052637790397,-0.636808824008214
0.0796688900538424,-0.416327832320943
0.172802996953745,-0.523184822241452
0.284488757432865,-0.412649336028026
0.0701902218204946,-0.635633759143194
0.271942701733797,-0.641245700664746
0.1738616467369,-0.526416720957217
0.0627962238906686,-0.620476507069102
0.265196523631847,-0.422946726677502
0.293465027632327,-0.642532260914909
0.17521491528931,-0.530032625922109
0.279154999836124,-0.630015501103931
0.293565677569138,-0.643623877504244
0.070892464260646,-0.651791450961115
0.0767108747847563,-0.437854742394796
0.177818750440902,-0.535369050340001
0.0827748730948674,-0.417636959177488
0.282816819785179,-0.654329294927086
0.179407934741477,-0.537691247648289
0.179741331520595,-0.538101208696018
0.18113419897127,-0.539560772731561
0.181498348008118,-0.539880790885262
0.18186931475089,-0.540182938770352
0.182247321617711,-0.540467255823563
0.183025345396005,-0.540982555181276
0.183425807143728,-0.541213616359241
0.184675660838717,-0.541800919130348
0.185109176281405,-0.541961524588893
0.185551511193148,-0.542104614709413
0.187413493893194,-0.542502610545871
0.187903262422101,-0.542558715527239
0.191628408918189,-0.542469854759988
0.192205636977101,-0.542388834228758
0.194636106622172,-0.541895514233331
0.197964379209148,-0.540901036785287
0.206552012054112,-0.537258597463015
0.207426547698587,-0.53682963094601
0.210150668925263,-0.535446078827418
0.211092955492324,-0.534952808721134
0.213030232372457,-0.533918376028827
0.214025667521779,-0.533377292316267
0.216071243329566,-0.532247587341992
0.220387444689227,-0.529799131425312
0.221514677831561,-0.529147862917049
0.223828520406012,-0.527798616522734
0.225015574674381,-0.527100717510145
0.228699938421569,-0.524914390451432
0.229969868045078,-0.524154869547318
0.231261072552686,-0.523380041762152
0.238044002986625,-0.519277679906151
0.239467527579473,-0.518411839006038
0.245392168241922,-0.5147985615336
0.253333370584299,-0.509947616235957
0.258394315534065,-0.506860622843374
0.260132002283464,-0.505802457297237
0.263684767940236,-0.503642611202439
0.265500291683859,-0.502541009527241
0.267342205928475,-0.501425008015819
0.271106095593187,-0.499149963231232
0.280993222791146,-0.493213114707068
0.289408647268739,-0.488209881104682
0.312512513295478,-0.4747324565601
0.314991290347756,-0.473309636144872
0.320043585224095,-0.470423556376961
0.330533365771428,-0.464490745319811
0.333237356429548,-0.462974303536181
0.335974410132434,-0.461444645018278
0.359087799542203,-0.448736306849006
0.368327773402729,-0.443757375764548
0.381149025373211,-0.436940576114444
0.387778492094622,-0.433456504063064
0.39114871410281,-0.431695688009354
0.39800124750478,-0.428136693029548
0.423185406863625,-0.415292041297028
0.438435858420254,-0.407684897571611
