-0.414344483639378,-0.661461483371671
-0.452412268507011,-0.644213060341236
-0.488598757963644,-0.623972648219939
-0.522839141233411,-0.600959276214307
-0.555068607540447,-0.575391973530869
-0.585222346108885,-0.547489769376155
-0.613235546162859,-0.517471692956692
-0.639043396926503,-0.48555677347901
-0.66258108762395,-0.451964040149637
-0.683783807479334,-0.416912522175102
-0.70258674571679,-0.380621248761934
-0.718925091560451,-0.343309249116662
-0.732734034234451,-0.305195552445813
-0.743948762962924,-0.266499187955918
-0.752633325228576,-0.223932648312754
-0.758336335479824,-0.188234572345102
-0.761379557716518,-0.149104379637238
-0.737994223277932,-0.139934871885705
-0.766166702030454,-0.108168471448483
-0.729304059168193,-0.0419218336148586
-0.744369768414716,0.00229160905825022
-0.732497597647789,0.0377642646654867
-0.75202855708276,0.118201059491399
-0.711502251912093,0.0780749022243711
-0.722315921800486,0.166603715987375
-0.652585697538197,0.163578644632028
-0.613368362946656,0.210845984711863
-0.633094267424971,0.255422059065349
-0.570804264579261,0.221365158325775
-0.471688315456752,0.23076367327884
-0.466565375199856,0.241725530868626
-0.396499066385165,0.325773221073303
-0.377929627251754,0.288129778287793
-0.292577681473332,0.297665116087812
-0.265352078342053,0.286802749806176
-0.20586232526391,0.335762479864368
-0.0979862172061718,0.308340747459729
-0.0663300515361087,0.267537968540935
-0.0100816485396606,0.261802400659106
0.110636901521773,0.219639376337793
0.162154923857368,0.201300975427823
0.242328495385655,0.171234221217669
0.325156280657649,0.133057812546905
0.384762991532016,0.139484665046128
0.427509035162729,0.0863370284592919
0.509324626554709,0.0322050639214478
0.509276268633302,0.0335488544272967
0.549947815447959,-0.0296372046587298
0.533981867088272,-0.0575157433901989
0.578258134519306,-0.0411370157499385
0.588712501712952,-0.0650769764114069
0.558311613192408,-0.0893540364670819
0.593470065523118,-0.111889465889817
0.61489271463105,-0.164980381524041
0.57964630364757,-0.157684893188734
0.566874013734074,-0.180353526125836
0.50657102921947,-0.17630810230296
0.571478880740404,-0.188501239304551
0.462892991478407,-0.295328366420447
0.469712295733447,-0.242002004788479
0.432117027983858,-0.247464374861029
0.472403337517151,-0.332214970916602
0.425463761107347,-0.339338194522339
0.40976466658592,-0.319483740430204
0.361694041834111,-0.424520011319619
0.329859523068008,-0.413161174382669
0.304975690624788,-0.438394466020524
0.281649020436092,-0.464226470701244
0.260322547764488,-0.490718115466811
0.241439307872545,-0.517930327359206
0.22544233602283,-0.545924033420412
0.212774667477912,-0.574760160692408
0.203879337500358,-0.604499636217177
0.199199381352736,-0.6352033870367
0.199177834297615,-0.666932340192957
0.204257731597563,-0.699747422727931
0.214882108515147,-0.733709561683603
0.231494000312936,-0.768879684101955
0.254536442253498,-0.805318717024967
0.2844524695994,-0.84308758749462
