-0.419907655571312,-0.100988299965955
0.685556137569289,-0.103201192498798
-0.178129783211526,0.528948648960499
0.103067442705216,-0.19044289090329
0.384264668621959,-0.909834430767078
-0.441297330803611,-0.635422169171161
-0.0565280595201822,0.374029554202936
