0.498308855317776,0.794884060835928
0.496726829439148,0.785344612390392
0.495155312591872,0.775895777483394
0.493594255257824,0.766537129837672
0.492043607918883,0.757268243175966
0.490503321056925,0.748088691221014
0.488973345153829,0.738998047695556
0.487453630691471,0.72999588632233
0.485944128151728,0.721081780824075
0.48444478801648,0.71225530492353
0.482955560767602,0.703516032343434
0.481476396886972,0.694863536806525
0.480007246856468,0.686297392035543
0.478548061157967,0.677817171753227
0.477098790273347,0.669422449682314
0.475659384684484,0.661112799545545
0.474229794873257,0.652887795065658
0.472809971321542,0.644747009965392
0.471399864511218,0.636690017967486
0.46999942492416,0.628716392794678
0.468608603042249,0.620825708169708
0.467227349347359,0.613017537815314
0.465855614321369,0.605291455454236
0.464493348446157,0.597647034809211
0.463140502203599,0.59008384960298
0.461797026075574,0.58260147355828
0.460462870543957,0.575199480397851
0.459137986090628,0.567877443844432
0.457822323197463,0.560634937620761
0.45651583234634,0.553471535449578
0.455218464019136,0.54638681105362
0.453930168697728,0.539380338155628
0.452650896863995,0.53245169047834
0.451380598999813,0.525600441744494
0.450119225587059,0.518826165676831
0.448866727107612,0.512128435998088
0.447623054043349,0.505506826431004
0.446388156876147,0.498960910698318
0.445161986087884,0.49249026252277
0.443944492160436,0.486094455627097
0.442735625575682,0.47977306373404
0.441535336815498,0.473525660566336
0.440343576361763,0.467351819846725
0.439160294696353,0.461251115297946
0.437985442301146,0.455223120642737
0.43681896965802,0.449267409603837
0.435660827248852,0.443383555903985
0.434510965555519,0.43757113326592
0.433369335059898,0.431829715412381
0.432235886243868,0.426158876066107
0.431110569589305,0.420558188949836
0.429993335578088,0.415027227786308
0.428884134692092,0.409565566298261
0.427782917413197,0.404172778208435
0.426689634223279,0.398848437239567
0.425604235604215,0.393592117114397
0.424526672037883,0.388403391555664
0.422394851990926,0.378227019028464
0.421340496474055,0.373238519505475
0.420293777937426,0.368315909439878
0.419254646862916,0.363458762554412
0.418223053732403,0.358666652571816
0.417198949027763,0.353939153214829
0.415173006823616,0.344676281268638
0.414171070287863,0.340140056124911
0.413176424105494,0.335666736497748
0.412189018758386,0.331255896109888
0.411208804728416,0.326907108684071
0.410235732497462,0.322619947943035
0.409269752547402,0.318393987609518
0.408310815360112,0.31422880140626
0.407358871417471,0.310123963056
0.406413871201355,0.306079046281476
0.405475765193642,0.302093624805427
0.403620037730936,0.294299562639712
0.402702317239696,0.290490069395522
0.40179129288437,0.286738366340764
0.400886915146833,0.283044027198175
0.399989134508965,0.279406625690495
0.399097901452641,0.275825735540462
0.398213166459739,0.272300930470815
0.397334880012137,0.268831784204293
0.396462992591713,0.265417870463636
0.395597454680343,0.262058762971581
0.394738216759905,0.258754035450868
0.393885229312277,0.255503261624236
0.393038442819335,0.252306015214423
0.392197807762958,0.249161869944168
0.391363274625022,0.246070399536211
0.390534793887406,0.24303117771329
0.389712316031986,0.240043778198144
0.38889579154064,0.237107774713511
0.388085170895246,0.234222740982131
0.38728040457768,0.231388250726743
0.386481443069821,0.228603877670086
0.384900736410731,0.223183778043917
0.384118892223255,0.220547198919884
0.383342654772994,0.217959031885537
0.382571974541827,0.215418850663614
0.381806802011631,0.212926228976855
0.381047087664283,0.210480740547999
0.380292781981661,0.208081959099784
0.379543835445642,0.205729458354949
0.378800198538103,0.203422812036234
0.378061821740922,0.201161593866376
0.377328655535976,0.198945377568116
0.376600650405143,0.196773736864191
0.375159925293324,0.192562477130304
0.373739250260485,0.188524404446626
0.373036307728377,0.186569247555462
0.372338229161645,0.184656108595068
0.371644965042169,0.182784561288182
0.370272682072489,0.179164536525888
0.369593564186041,0.177415206515958
0.368249128019314,0.174035779852227
0.367583710702791,0.172404830643904
0.366922761206665,0.17081248914826
0.366266230012812,0.169258329088036
0.365614067603111,0.167741924185969
0.364966224459438,0.166262848164798
0.364322651063672,0.164820674747263
0.363683297897689,0.163414977656103
0.363048115443368,0.162045330614055
0.362417054182585,0.160711307343859
0.361790064597218,0.159412481568254
0.361167097169144,0.158148427009979
0.360548102380241,0.156918717391773
0.359933030712386,0.155722926436373
0.35871445866733,0.153431395404953
0.358110859253884,0.15233480277441
0.357510984888996,0.151270423697629
0.356914786054543,0.15023783189735
0.356322213232403,0.149236601096312
0.35514774755257,0.147326517382914
0.354565755658632,0.146416811916031
0.353987191704517,0.145536762339344
0.352271572299879,0.14307028617785
0.351144057896985,0.141566433104714
0.350585021701229,0.14085536704672
0.350029066818438,0.140170972938095
0.349476143730488,0.139512824501577
0.348926202919258,0.138880495459905
0.348379194866624,0.138273559535817
0.347835070054464,0.137691590452054
0.347293778964656,0.137134161931353
0.346755272079076,0.136600847696453
0.345686412848112,0.135604856975014
0.345155961466483,0.135141327933952
0.344628096216593,0.134700208069647
0.344102767580318,0.134281071104838
0.343579926039537,0.133883490762263
0.343059522076126,0.133507040764662
0.342541506171964,0.133151294834774
0.342025828808927,0.132815826695336
0.341512440468893,0.132500210069089
0.34100129163374,0.132204018678771
0.339480786976336,0.131427733150779
0.338978100979478,0.131204979931566
0.338477406896888,0.130999520561976
0.337978655210443,0.130810928764748
0.33748179640202,0.130638778262621
0.336986780953497,0.130482642778334
0.336493559346751,0.130342096034626
0.336002082063659,0.130216711754236
0.33502416239595,0.130009725474364
0.334052625805387,0.129858273720629
0.33356912736873,0.129802307597911
0.333087076146992,0.129758946274943
0.33260642262205,0.129727763474465
0.331649110590066,0.129700228331934
0.331172353046779,0.129703023435359
0.329749080090263,0.12977254411726
0.329276823935465,0.129814675210898
0.328805569332482,0.129865574608938
0.328335266763193,0.129924816034117
0.327397319653204,0.13006661985685
0.326929576076259,0.130148329699881
0.325996301287856,0.130331233862968
0.325530671040153,0.130431575628501
0.325065646199284,0.130537275480346
0.324137214665563,0.130763044333927
0.323673708936465,0.13088226078114
0.32274786996318,0.131131226330106
0.322285437682749,0.131260122877338
0.321823264182295,0.131391393570053
0.321361299943695,0.131524612130991
0.320899495448828,0.13165935228289
0.319976167617798,0.131931692250528
0.319514545245391,0.132068439511745
0.318591135996179,0.132340957202669
0.31812925008313,0.132475875077854
0.317667177286954,0.132609330603172
0.317204868089529,0.132740897501363
0.316742272972733,0.132870149495165
0.315816026908538,0.133120003660558
0.315352276924893,0.133239753277628
0.314888042949386,0.133355482881264
0.313957924950298,0.133573176939192
0.313491941890471,0.133674288838961
0.313025276766293,0.133769675616254
0.31162069382642,0.134017222440652
0.311150805263608,0.134085445955422
0.310679987045831,0.134145812961409
0.310208189654967,0.134197897181351
0.309735363572892,0.134241272337987
0.309261459281486,0.134275512154057
0.308310217998184,0.134314880655451
0.307832781970045,0.134319156786254
0.306874031550174,0.134294761421764
0.306392618122198,0.13426523737195
0.305909779858031,0.13422359404074
0.304939630748636,0.134102244425093
0.302980055698164,0.133695357617573
0.30248585707323,0.13355694355329
0.301491947361728,0.13323310064901
0.300992137238913,0.133046819254492
0.299986558868544,0.132623405194393
0.299480691584744,0.13238541997429
0.298462553229303,0.131854761767672
0.297950183121415,0.131561236226634
0.296918593454694,0.130915660882796
0.296399274859616,0.130562758525473
0.295877541065895,0.130189211341533
0.295353342555409,0.129794593053714
0.294826629810036,0.129378477384756
0.294297353311653,0.128940438057398
0.293765463542137,0.128480048794377
0.293230910983367,0.127996883318434
0.292693646117218,0.127490515352306
0.292153619425569,0.126960518618733
0.291610781390298,0.126406466840454
0.291065082493281,0.125827933740207
0.288291941947723,0.122553128705323
0.287728037999659,0.121818755850788
0.287160926562992,0.121056917733457
0.286016883151356,0.119449140601365
0.285439852140142,0.118602349032082
0.284859415567835,0.117726387090959
0.284275523916311,0.116820828500734
0.283097177303123,0.114919216263938
0.282502623305214,0.113922310062844
0.281904416155599,0.112894102103604
0.281302506336154,0.111834166108957
0.280696844328758,0.110742075801643
0.280087380615286,0.1096174049044
0.279474065677618,0.108459727139966
0.27885684999763,0.107268616231082
0.2782356840572,0.106043645900485
0.277610518338205,0.104784389870914
0.27634798949203,0.102161315605809
0.274422959930467,0.0979589045343209
0.273772755659509,0.0964849824884259
0.273118204983128,0.0949737908027295
0.272459258383202,0.0934249031999706
0.271795866341607,0.091837893402888
0.270455547860924,0.0885478021167075
0.269778522385589,0.0868438680730872
0.269096853396097,0.0851001067260987
0.268410491374323,0.083316091798481
0.267719386802146,0.0814913970129728
0.267023490161443,0.0796255960923129
0.266322751934091,0.0777182627592405
0.265617122601968,0.0757689707364942
0.264190992550917,0.0717428055129356
0.263470392795745,0.069665079757601
0.262744703863311,0.067543690203548
0.262013876235492,0.0653782105735157
0.259790065998506,0.0586129684549302
0.259038188407925,0.0562668657483686
0.258280924531347,0.0538745415795217
0.25675003984771,0.0489495237459282
0.255197015802613,0.0438345047360605
0.252825101865086,0.0357982641636753
0.25121499628205,0.0301933225089828
0.249581364830123,0.0243864439147045
0.247923811364323,0.0183742181627513
0.247085940080915,0.0152900344094938
0.246241939739671,0.0121532350350343
0.245391760822468,0.00896339376211143
0.244535353811185,0.00572008431346434
0.243672669187698,0.00242288041183156
0.242803657433885,-0.000928644220047604
0.241928269031623,-0.00433491585943475
0.237453944159292,-0.0222023988731257
0.236539255985763,-0.0259461043800432
0.228975553164195,-0.0580098698654009
0.226023055919735,-0.0710308885437367
0.225024420246435,-0.0754954997299168
0.224018467080357,-0.0800229571915659
0.223005146903378,-0.0846136872059456
0.221984410197377,-0.0892681160503167
0.21887720572401,-0.103617858335991
0.217826307720692,-0.108531345272939
0.216767745597737,-0.113510662426185
0.215701469837024,-0.118556236072988
0.213545579329833,-0.128847857956316
0.211358240054137,-0.139409621141009
0.208017398132501,-0.155766240710183
0.206887630617308,-0.161357212286854
0.205749703801253,-0.167018276852433
0.204603568166214,-0.172749860684182
0.202286472366693,-0.184426291255233
0.201115413165966,-0.190371990549058
0.199935947073764,-0.196389914218097
0.198748024571966,-0.202480488539611
0.197551596142447,-0.208644139790861
0.196346612267086,-0.214881294249109
0.193910780106348,-0.227577817895641
0.192679832784724,-0.234038039638448
0.191440131944769,-0.240573469697298
0.190191628068358,-0.24718453434945
0.188934271637369,-0.253871659872167
0.18766801313368,-0.260635272542709
0.186392803039168,-0.267475798638338
0.18510859183571,-0.274393664436314
0.183815330005185,-0.281389296213899
0.182512968029469,-0.288463120248354
0.178621198880207,-0.309789775000302
0.176143554567978,-0.323547226914792
0.173766597921094,-0.336891505175452
0.1726152757432,-0.343409825002795
0.171488403406894,-0.349826196397321
0.16930704549272,-0.36235488719544
0.168252078531686,-0.368468103252794
0.167220598645911,-0.37448116418485
0.166212365143813,-0.38039451831849
0.165227137333808,-0.386208613980592
0.162407081140535,-0.403059833406477
0.15978541127914,-0.419033866356211
0.158954483949485,-0.424165705870196
0.158144636779265,-0.429201873527684
0.157355629076897,-0.434142817655556
0.156587220150798,-0.438988986580691
0.155839169309387,-0.44374082862997
0.15511123586108,-0.448398792130273
0.154403179114296,-0.45296332540848
0.153045732958964,-0.461813894606125
0.149425403404928,-0.48616990286428
0.148885405850633,-0.489913738853224
0.148362878082037,-0.493568627888873
0.147369269135607,-0.500613358407805
0.146897706574609,-0.504004096544848
0.14644265103298,-0.507307681036115
0.146003861819135,-0.510524560208488
0.145581098241494,-0.513655182388846
0.144406554409965,-0.522533990246629
0.144045486461311,-0.525324067727727
0.143367576407295,-0.53065262494396
0.143050252918767,-0.533192001332854
0.142457665560759,-0.538023191306599
0.141919553084266,-0.542527286387487
0.141433989956628,-0.546707873190558
0.141210312669673,-0.548677971805113
0.14079996319158,-0.55238002109466
0.140437349230694,-0.555767528643992
0.139516317687817,-0.565198570617105
0.139425737906017,-0.566243873739976
0.139344685087695,-0.567215024696594
0.139073901242855,-0.57097418842669
0.139044955682163,-0.571509841250271
0.139023852243872,-0.57197448019576
0.139010350236398,-0.572368553590035
0.13900420896816,-0.572692509759978
0.139013045883057,-0.573131863734387
0.139027542683029,-0.573248158192613
0.139048437455906,-0.573296128734027
0.139075489510106,-0.573276223685509
0.139147102696144,-0.573034580126196
0.139240456708484,-0.572526814129715
0.139484685081431,-0.570727261285413
0.139556321546325,-0.570116650637108
0.139631708376719,-0.569442647667672
0.139710604881028,-0.568705700703985
0.13979277036767,-0.567906258072926
0.139877964145064,-0.567044768101376
0.140149308305926,-0.56409249741258
0.140244208330499,-0.562987301347866
0.140340933187911,-0.56182229957706
0.140946125093379,-0.553601475429605
0.141048884416353,-0.552030386868806
0.141355595420023,-0.546981599947626
0.14145650779422,-0.545188324983906
0.141556356702266,-0.543340624236656
0.141751901353577,-0.539483738699085
0.141847115713677,-0.537475450562526
0.141940303841296,-0.535414529949956
0.142287980195321,-0.526653489277181
0.142443402996308,-0.521968830583616
0.142515668132256,-0.51955203579162
0.142583981503065,-0.517086195138655
0.142707790182932,-0.512009169557337
0.14281290350325,-0.506741340454703
0.142857847674622,-0.504036995400093
0.142931307581879,-0.498489685918687
0.1429593419346,-0.49564761814565
0.143005774290141,-0.48685314261977
0.143002930025825,-0.480771082032341
0.14294315104569,-0.471328342333537
0.14281098036718,-0.461512783898661
0.1426794397502,-0.454767934447104
0.142412174746121,-0.444357911064912
0.142303469224136,-0.440811630123739
0.142184553955867,-0.43722795982048
0.142055188249732,-0.433607348482013
0.141915131414149,-0.429950244435219
0.141764142757535,-0.426257096006977
0.141428407214884,-0.418764459313673
0.141243178945683,-0.414965867702371
0.140380913079445,-0.399433473786693
0.140133804957616,-0.395468110074557
0.139873598790514,-0.391470736922894
0.139600053886556,-0.387441802658585
0.139312929554161,-0.383381755608509
0.138023824108552,-0.366839406088145
0.136902617138209,-0.354127927714448
0.136498192481343,-0.349835118145924
0.136078022171797,-0.345515230733554
0.134235070575167,-0.327973869183218
0.13321286287963,-0.319052377843858
0.132120933209065,-0.310035128281757
0.130348097897347,-0.296337552991367
0.129073439083827,-0.287096599313215
0.126292811906118,-0.268368663361655
0.125548061587738,-0.263638038656554
0.122363465470927,-0.244534426773706
0.121514714272991,-0.239715487171783
0.120644440824396,-0.234880229571136
0.119752404433559,-0.230029102298645
0.117902080058834,-0.220281032045652
0.108434812153878,-0.175747525447244
0.107262846512719,-0.170740931609271
0.104843998740381,-0.160698067992996
0.098348634177234,-0.135438721221457
0.0955661357758229,-0.125283522284983
0.0941344196853265,-0.120196688932582
0.0881321599211436,-0.0997982572557561
0.0865615426716364,-0.094688116404144
0.0849624231155798,-0.0895746590333302
0.0729503035468725,-0.0537252543579019
0.06924802920524,-0.0434782732671253
0.0673506485466542,-0.0383563086826951
0.0594472198569223,-0.0178890843785622
0.0531833076171571,-0.00257288503837202
0.0510299882826117,0.00252360578158617
0.0488435935014502,0.00761489491002526
0.0420835495624458,0.0228530688774255
0.039762446078996,0.0279190679709866
0.0301328361840909,0.0481041478172334
0.0276379312621759,0.0531284470123952
0.0251075439778203,0.0581430612472373
0.022541433639442,0.0631475421948791
0.0199393595554583,0.068141441528441
0.0173010810342869,0.0731243109210424
0.011914947914051,0.0830551665758443
0.000697637997698466,0.102764792211203
-0.00220081094809581,0.107657898864441
-0.0267812995218788,0.14623889661639
-0.0333221628587446,0.155711080881565
-0.0400251737382975,0.165106865847534
-0.0468922576931972,0.174422664899256
-0.0956605667109232,0.232778001474454
-0.103819575084447,0.24137958281491
-0.120680837673014,0.258247742454507
-0.133809706510615,0.270591612226331
-0.142795858917122,0.278667824333932
-0.180650773868957,0.309670687516188
-0.200751371997593,0.324340715347862
-0.211101695589399,0.331455325171193
-0.216352705937713,0.334955959915652
-0.221654602909743,0.338418216779466
-0.248935811331036,0.355138141448068
-0.2545480825686,0.358360716163534
-0.265930580129693,0.364680868761171
-0.271701287836386,0.367777549989581
-0.338749398367889,0.398913575725098
-0.398627205078614,0.420114058423803
-0.448443859487872,0.433717709807263
-0.46321170885576,0.437116498471731
-0.508969525380438,0.445957814909759
-0.581788444631847,0.455237227660678
-0.650855027082951,0.459239804438886
-0.659781965385952,0.459447050305963
-0.696152627447893,0.45960532576458
-0.724133417651089,0.459007235795725
-0.752723823164679,0.457781298966626
-0.772125977900613,0.456609226244245
