0.869750717439428,-0.492125257057643
0.864560204621824,-0.494197367575706
0.859396156581318,-0.496226008588655
0.854258398138816,-0.498211313735061
0.849146754115225,-0.500153416653496
0.844061049331452,-0.502052450982532
0.839001108608402,-0.503908550360739
0.833966756766982,-0.50572184842669
0.828957818628098,-0.507492478818956
0.823974119012658,-0.509220575176108
0.819015482741566,-0.510906271136718
0.81408173463573,-0.512549700339357
0.809172699516056,-0.514150996422597
0.804288202203451,-0.515710293025009
0.79942806751882,-0.517227723785164
0.794592120283071,-0.518703422341635
0.78978018531711,-0.520137522332993
0.784992087441842,-0.521530157397809
0.780227651478175,-0.522881461174654
0.775486702247015,-0.5241915673021
0.770769064569268,-0.525460609418719
0.766074563265841,-0.526688721163082
0.761403023157639,-0.52787603617376
0.756754269065571,-0.529022688089326
0.752128125810541,-0.53012881054835
0.747524418213457,-0.531194537189404
0.742942971095224,-0.532220001651059
0.738383609276749,-0.533205337571887
0.733846157578939,-0.53415067859046
0.7293304408227,-0.535056158345348
0.724836283828938,-0.535921910475124
0.72036351141856,-0.536748068618359
0.715911948412472,-0.537534766413624
0.711481419631581,-0.53828213749949
0.707071749896792,-0.53899031551453
0.702682764029013,-0.539659434097315
0.698314286849149,-0.540289626886416
0.693966143178108,-0.540881027520405
0.689638157836795,-0.541433769637852
0.685330155646118,-0.54194798687733
0.681041961426981,-0.542423812877411
0.676773400000293,-0.542861381276665
0.672524296186959,-0.543260825713664
0.668294474807885,-0.54362227982698
0.664083760683978,-0.543945877255184
0.659891978636145,-0.544231751636847
0.655718953485292,-0.544480036610542
0.651564510052324,-0.544690865814838
0.64742847315815,-0.544864372888309
0.643310667623674,-0.545000691469525
0.639210918269804,-0.545099955197058
0.635129049917445,-0.54516229770948
0.631064887387505,-0.545187852645361
0.62701825550089,-0.545176753643274
0.622988979078505,-0.545129134341789
0.618976882941258,-0.545045128379479
0.614981791910055,-0.544924869394914
0.611003530805803,-0.544768491026667
0.607041924449406,-0.544576126913309
0.603096797661773,-0.54434791069341
0.59916797526381,-0.544083976005544
0.595255282076422,-0.54378445648828
0.591358542920516,-0.543449485780191
0.587477582617,-0.543079197519849
0.583612225986778,-0.542673725345824
0.579762297850758,-0.542233202896688
0.575927623029846,-0.541757763811012
0.572108026344948,-0.541247541727369
0.568303332616971,-0.540702670284329
0.564513366666821,-0.540123283120464
0.560737953315404,-0.539509513874345
0.556976917383628,-0.538861496184545
0.553230083692397,-0.538179363689634
0.54949727706262,-0.537463250028184
0.545778322315202,-0.536713288838766
0.542073044271049,-0.535929613759952
0.538381267751068,-0.535112358430313
0.534702817576166,-0.534261656488421
0.531037518567248,-0.533377641572848
0.527385195545222,-0.532460447322164
0.523745673330993,-0.531510207374941
0.520118776745468,-0.530527055369752
0.516504330609553,-0.529511124945166
0.512902159744156,-0.528462549739756
0.509312088970181,-0.527381463392093
0.505733943108536,-0.526267999540749
0.502167546980127,-0.525122291824295
0.498612725405861,-0.523944473881302
0.495069303206643,-0.522734679350343
0.491537105203381,-0.521493041869989
0.48801595621698,-0.52021969507881
0.484505681068347,-0.518914772615378
0.481006104578389,-0.517578408118266
0.477517051568012,-0.516210735226044
0.474038346858121,-0.514811887577284
0.470569815269625,-0.513381998810558
0.467111281623428,-0.511921202564436
0.463662570740438,-0.510429632477491
0.460223507441561,-0.508907422188294
0.456793916547703,-0.507354705335416
0.453373622879771,-0.505771615557428
0.449962451258671,-0.504158286492904
0.44656022650531,-0.502514851780412
0.443166773440593,-0.500841445058526
0.439781916885428,-0.499138199965817
0.43640548166072,-0.497405250140856
0.433037292587377,-0.495642729222215
0.429677174486303,-0.493850770848464
0.426324952178407,-0.492029508658177
0.422980450484595,-0.490179076289924
0.419643494225772,-0.488299607382276
0.416313908222845,-0.486391235573805
0.41299151729672,-0.484454094503082
0.409676146268305,-0.48248831780868
0.406367619958505,-0.48049403912917
0.403065763188227,-0.478471392103122
0.399770400778377,-0.476420510369108
0.396481357549861,-0.474341527565701
0.393198458323587,-0.472234577331471
0.389921527920459,-0.47009979330499
0.386650391161386,-0.467937309124829
0.383384872867273,-0.46574725842956
0.380124797859026,-0.463529774857755
0.376869990957553,-0.461284992047984
0.373620276983758,-0.45901304363882
0.37037548075855,-0.456714063268833
0.367135427102834,-0.454388184576596
0.363899940837516,-0.452035541200679
0.360668846783504,-0.449656266779654
0.357441969761703,-0.447250494952093
0.35421913459302,-0.444818359356568
0.351000166098361,-0.442359993631648
0.347784889098632,-0.439875531415907
0.344573128414741,-0.437365106347916
0.341364708867593,-0.434828852066246
0.338159455278095,-0.432266902209468
0.334957192467154,-0.429679390416154
0.331757745255675,-0.427066450324876
0.328560938464565,-0.424428215574205
0.32536659691473,-0.421764819802712
0.322174545427078,-0.419076396648969
0.318984608822513,-0.416363079751547
0.315796611921944,-0.413625002749018
0.312610379546275,-0.410862299279954
0.309425736516414,-0.408075102982926
0.306242507653267,-0.405263547496505
0.303060517777741,-0.402427766459262
0.29987959171074,-0.39956789350977
0.296699554273174,-0.3966840622866
0.293520230285946,-0.393776406428323
0.290341444569965,-0.39084505957351
0.287163021946136,-0.387890155360734
0.283984787235365,-0.384911827428566
0.28080656525856,-0.381910209415576
0.277628180836627,-0.378885434960338
0.274449458790471,-0.375837637701421
0.271270223941,-0.372766951277398
0.268090301109119,-0.36967350932684
0.264909515115736,-0.366557445488318
0.261727690781756,-0.363418893400405
0.258544652928086,-0.360257986701671
0.255360226375633,-0.357074859030688
0.252174235945303,-0.353869644026027
0.248986506458001,-0.350642475326261
0.245796862734636,-0.347393486569959
0.242605129596112,-0.344122811395695
0.239411131863337,-0.340830583442039
0.236214694357216,-0.337516936347563
0.233015641898657,-0.334182003750838
0.229813799308565,-0.330825919290436
0.226608991407848,-0.327448816604928
0.22340104301741,-0.324050829332886
0.22018977895816,-0.320632091112881
0.216975024051003,-0.317192735583485
0.213756603116846,-0.313732896383269
0.210534340976595,-0.310252707150805
0.207308062451156,-0.306752301524664
0.204077592361436,-0.303231813143418
0.200842755528341,-0.299691375645637
0.197603376772778,-0.296131122669894
0.194359280915653,-0.292551187854761
0.191110292777873,-0.288951704838807
0.187856237180344,-0.285332807260606
0.184596938943971,-0.281694628758728
0.181332222889663,-0.278037302971746
0.178061913838325,-0.274360963538229
0.174785836610863,-0.270665744096751
0.171503816028184,-0.266951778285882
0.168215676911194,-0.263219199744194
0.164921244080801,-0.259468142110258
0.161620342357909,-0.255698739022646
0.158312796563426,-0.251911124119929
0.154998431518258,-0.248105431040679
0.151677072043311,-0.244281793423468
0.148348542959492,-0.240440344906866
0.145012669087707,-0.236581219129445
0.141669275248862,-0.232704549729777
0.138318186263865,-0.228810470346434
0.134959226953621,-0.224899114617985
0.131592222139037,-0.220970616183004
0.128216996641019,-0.217025108680062
0.124833375280474,-0.21306272574773
0.121441182878307,-0.209083601024579
0.118040244255426,-0.205087868149181
0.114630384232737,-0.201075660760108
0.111211427631146,-0.197047112495931
0.10778319927156,-0.193002356995222
0.104345523974885,-0.188941527896551
0.100898226562027,-0.184864758838491
0.0974411318538927,-0.180772183459612
0.093974064671389,-0.176663935398487
0.0904968498354218,-0.172540148293687
0.0870093121668978,-0.168400955783784
0.0835112764867232,-0.164246491507348
0.0800025676158045,-0.160076889102951
0.076483010375048,-0.155892282209165
0.0729524295853603,-0.151692804464562
0.0694106500676475,-0.147478589507712
0.0658574966428163,-0.143249770977188
0.0622927941317729,-0.13900648251156
0.0587163673554239,-0.1347488577494
0.0551280411346755,-0.13047703032928
0.0515276402904344,-0.126191133889771
0.0479149896436065,-0.121891302069445
0.0442899140150988,-0.117577668506873
0.0406522382258172,-0.113250366840626
0.0370017870966685,-0.108909530709276
0.0333383854485588,-0.104555293751395
0.0296618581023948,-0.100187789605554
0.0259720298790825,-0.0958071519103244
0.0222687255995288,-0.0914135143042778
0.0185517700846396,-0.0870070104259856
0.0148209881553217,-0.0825877739140193
0.0110762046324813,-0.0781559384069503
0.00731724433702503,-0.0737116375433503
0.00354393208985894,-0.0692550049617905
-0.000243907288110218,-0.0647861743008427
-0.00404644897597635,-0.0603052791990781
-0.0078638681528328,-0.0558124532950683
-0.0116963399977733,-0.0513078302273847
-0.0155440396898914,-0.046791543634599
-0.0194071424082807,-0.0422637271552823
-0.0232858233320347,-0.0377245144280064
-0.0271802576402472,-0.0331740390913426
-0.0310906205120116,-0.0286124347838626
-0.0350170871264217,-0.0240398351441375
-0.0389598326625709,-0.0194563738107393
-0.0429190322995529,-0.0148621844222389
-0.0468948612164612,-0.0102574006172083
-0.0508874945923895,-0.0056421560342185
-0.0548971076064313,-0.0010165843118414
-0.0589238754376804,0.00361918091135191
-0.06296797326523,0.00826500599678948
-0.0670295762681742,0.0129207573059004
-0.0711088596256062,0.0175863012001126
-0.0752059985166198,0.0222615040408551
-0.0793211681203083,0.0269462321895561
-0.0834545436157658,0.0316403520076443
-0.0876063001820854,0.036343729856548
-0.0917766129983611,0.0410562320976961
-0.0959656572436861,0.0457777250925167
-0.100173608097154,0.0505080752024388
-0.104400640737859,0.0552471487888904
-0.108646930344894,0.0599948122133004
-0.112912652097353,0.0647509318370971
-0.11719798117433,0.0695153740217093
-0.121503092754918,0.0742880051285651
-0.12582816201821,0.0790686915190934
-0.1301733641433,0.0838572995547225
-0.134538874309283,0.0886536955968811
-0.138924867695251,0.0934577460069975
-0.143331519480298,0.0982693171465005
-0.147759004843517,0.103088275376818
-0.152207498964003,0.10791448705938
-0.156677177020848,0.112747818555613
-0.161168214193148,0.117588136226947
-0.165680785659993,0.12243530643481
-0.17021506660048,0.12728919554063
-0.174771232193701,0.132149669905837
-0.17934945761875,0.137016595891858
-0.18394991805472,0.141889839860123
-0.188572788680705,0.146769268172059
-0.193218244675798,0.151654747189095
-0.197886461219094,0.15654614327266
-0.202577613489686,0.161443322784182
-0.207291876666667,0.16634615208509
-0.212029425929131,0.171254497536812
-0.216790436456172,0.176168225500777
-0.221575083426882,0.181087202338413
-0.226383542020357,0.18601129441115
-0.231215987415688,0.190940368080414
-0.236072594791971,0.195874289707636
-0.240953539328298,0.200812925654242
-0.245858996203764,0.205756142281663
-0.250789140597461,0.210703805951326
-0.255744147688484,0.21565578302466
-0.260724192655925,0.220611939863094
-0.265729450678879,0.225572142828056
-0.270760096936439,0.230536258280974
-0.275816306607699,0.235504152583277
-0.280898254871752,0.240475692096394
-0.286006116907692,0.245450743181753
-0.291140067894612,0.250429172200782
-0.296300283011607,0.255410845514911
-0.301486937437769,0.260395629485568
-0.306700206352192,0.26538339047418
-0.31194026493397,0.270373994842178
-0.317207288362197,0.275367308950988
-0.322501451815966,0.28036319916204
-0.32782293047437,0.285361531836763
-0.333171899516504,0.290362173336584
-0.338548534121461,0.295364990022933
-0.343953009468334,0.300369848257237
-0.349385500736217,0.305376614400926
-0.354846183104204,0.310385154815428
-0.360335231751387,0.315395335862171
-0.365852821856862,0.320407023902584
-0.371399128599721,0.325420085298096
-0.376974327159058,0.330434386410134
-0.382578592713967,0.335449793600129
-0.388212100443541,0.340466173229507
-0.393875025526874,0.345483391659697
-0.399567543143059,0.350501315252129
-0.40528982847119,0.35551981036823
-0.411042056690361,0.360538743369429
-0.416824402979665,0.365557980617155
-0.422637042518195,0.370577388472836
-0.428480150485046,0.375596833297901
-0.434353902059311,0.380616181453778
-0.440258472420084,0.385635299301896
-0.446194036746457,0.390654053203683
-0.452160770217526,0.395672309520568
-0.458158848012382,0.400689934613979
-0.464188445310121,0.405706794845345
-0.470249737289835,0.410722756576094
-0.476342899130619,0.415737686167655
-0.482468106011565,0.420751449981456
-0.488625533111767,0.425763914378927
-0.494815355610319,0.430774945721494
-0.501037748686315,0.435784410370588
-0.507292887518848,0.440792174687636
-0.513580947287011,0.445798105034067
-0.519902103169899,0.450802067771309
-0.526256530346605,0.455803929260792
-0.532644403996222,0.460803555863943
-0.539065899297844,0.465800813942191
-0.545521191430565,0.470795569856965
-0.552010455573478,0.475787689969693
-0.558533866905677,0.480777040641803
-0.565091600606256,0.485763488234725
-0.571683831854307,0.490746899109886
-0.578310735828925,0.495727139628716
-0.584972487709204,0.500704076152642
-0.591669262674236,0.505677575043094
-0.598401235903115,0.510647502661499
-0.605168582574936,0.515613725369287
-0.611971477868791,0.520576109527885
-0.618810096963775,0.525534521498723
-0.62568461503898,0.530488827643228
-0.632595207273501,0.53543889432283
-0.639542048846431,0.540384587898957
-0.646525314936863,0.545325774733037
-0.653545180723891,0.5502623211865
-0.66060182138661,0.555194093620772
-0.667695412104111,0.560120958397284
-0.67482612805549,0.565042781877463
-0.681994144419839,0.569959430422738
-0.689199636376252,0.574870770394538
-0.696442779103823,0.579776668154291
-0.703723747781646,0.584676990063425
-0.711042717588813,0.589571602483369
-0.718399863704419,0.594460371775553
-0.725795361307557,0.599343164301403
-0.733229385577321,0.604219846422349
-0.740702111692804,0.609090284499819
-0.7482137148331,0.613954344895242
-0.755764370177302,0.618811893970046
-0.763354252904505,0.62366279808566
-0.770983538193801,0.628506923603512
-0.778652401224285,0.633344136885032
-0.786361017175049,0.638174304291646
-0.794109561225188,0.642997292184784
-0.801898208553795,0.647812966925875
-0.809727134339964,0.652621194876346
-0.817596513762788,0.657421842397627
-0.825506522001361,0.662214775851146
-0.833457334234776,0.666999861598331
-0.841449125642128,0.671776966000612
-0.849482071402509,0.676545955419416
-0.857556346695013,0.681306696216172
-0.865672126698734,0.686059054752308
-0.873829586592766,0.690802897389254
-0.882028901556202,0.695538090488437
-0.890270246768135,0.700264500411286
-0.898553797407659,0.70498199351923
-0.906879728653869,0.709690436173697
-0.915248215685856,0.714389694736116
-0.923659433682716,0.719079635567915
-0.932113557823541,0.723760125030522
-0.940610763287426,0.728431029485367
