-0.309032328866102,-0.407161803807954
-0.482465345155999,-0.52917171821156
-0.320304630398005,-0.310680410126285
-0.257733656432908,-0.269141104264874
-0.300818698283483,-0.314263613457501
-0.173840958187962,-0.144684036175922
-0.115220302111809,-0.0909981970489418
-0.0440117558765124,-0.0780351988347261
0.00554564706901074,-0.0129711176937068
0.00787296918966618,-0.0183394339182689
0.0397619327527249,-0.0119700391390342
0.0768123953950503,0.042618596160062
0.106711217428265,0.0280781768332241
0.0128886487288926,-0.0377888524829845
0.160702670245268,0.0920002410015279
0.202909667517307,0.0685194907129954
0.182976704353276,0.0668425679889822
0.193343511351648,0.0672948500960261
0.217376366936381,0.0730410022464422
0.17153036534868,0.0279746536356425
0.175970145981884,0.0445012807525872
0.328747960424136,0.0993287085940636
0.20033353999054,-0.0182627130933437
0.160575666618169,-0.0371674465370521
0.156845384894668,-0.0751279975037797
0.0704076624841006,-0.0995611606566894
0.0866411649051197,-0.122453033860977
0.0243045077322506,-0.161847591171383
-0.0406407908055268,-0.179212522651272
-0.0213283469909434,-0.158440781710872
0.00535084556051262,-0.111901307256752
-0.158600261645935,-0.204532325175158
-0.229853739457765,-0.258695501512247
-0.302194879425367,-0.281050956381868
-0.380825889860649,-0.301873284382767
-0.464676583170664,-0.328823748732634
-0.557214081947676,-0.341244967895912
-0.635979788372236,-0.333721776388225
-0.765840615543901,-0.338201374352637
-0.878139404554022,-0.324088991708429
