0.351995689994668,-0.590850481563759
0.351297385463246,-0.587372486304875
0.350615962892788,-0.583879182469838
0.349951290718699,-0.58037068953264
0.349303237376385,-0.576847126967273
0.348671671301253,-0.573308614247726
0.348056460928706,-0.569755270847991
0.347457474694152,-0.56618721624206
0.346874581032997,-0.562604569903924
0.346307648380645,-0.559007451307573
0.345756545172503,-0.555395979926999
0.345221139843977,-0.551770275236194
0.344701300830472,-0.548130456709147
0.344196896567394,-0.544476643819851
0.34370779549015,-0.540808956042297
0.343233866034144,-0.537127512850475
0.342774976634783,-0.533432433718377
0.342330995727472,-0.529723838119994
0.341901791747617,-0.526001845529317
0.341487233130624,-0.522266575420338
0.341087188311899,-0.518518147267047
0.340701525726848,-0.514756680543436
0.340330113810876,-0.510982294723496
0.339972820999389,-0.507195109281217
0.339629515727793,-0.503395243690592
0.339300066431494,-0.499582817425611
0.338984341545897,-0.495757949960265
0.338682209506409,-0.491920760768546
0.338393538748434,-0.488071369324445
0.33811819770738,-0.484209895101953
0.337856054818651,-0.480336457575061
0.337606978517654,-0.47645117621776
0.337370837239794,-0.472554170504041
0.337147499420477,-0.468645559907896
0.336936833495109,-0.464725463903316
0.336738707899096,-0.460794001964291
0.336552991067843,-0.456851293564814
0.336379551436757,-0.452897458178875
0.336218257441242,-0.448932615280465
0.336068977516705,-0.444956884343575
0.335931580098552,-0.440970384842198
0.335805933622188,-0.436973236250323
0.33569190652302,-0.432965558041942
0.335589367236453,-0.428947469691046
0.335498184197892,-0.424919090671626
0.335418225842744,-0.420880540457674
0.335349360606414,-0.416831938523181
0.335291456924309,-0.412773404342137
0.335244383231834,-0.408705057388534
0.335208007964394,-0.404627017136364
0.335182199557396,-0.400539403059616
0.335166826446245,-0.396442334632283
0.335161757066348,-0.392335931328355
0.335166859853109,-0.388220312621824
0.335182003241935,-0.384095597986681
0.335207055668232,-0.379961906896917
0.335241885567405,-0.375819358826524
0.33528636137486,-0.371668073249491
0.335340351526003,-0.367508169639811
0.33540372445624,-0.363339767471475
0.335476348600976,-0.359162986218473
0.335558092395618,-0.354977945354798
0.335648824275571,-0.350784764354439
0.335748412676241,-0.346583562691389
0.335856726033033,-0.342374459839638
0.335973632781354,-0.338157575273179
0.336099001356609,-0.333933028466
0.336232700194204,-0.329700938892095
0.336374597729545,-0.325461426025453
0.336524562398038,-0.321214609340067
0.336682462635088,-0.316960608309928
0.336848166876101,-0.312699542409025
0.337021543556483,-0.308431531111352
0.337202461111641,-0.304156693890898
0.337390787976978,-0.299875150221656
0.337586392587903,-0.295587019577615
0.337789143379819,-0.291292421432768
0.337998908788134,-0.286991475261106
0.338215557248252,-0.282684300536619
0.33843895719558,-0.278371016733299
0.338668977065523,-0.274051743325137
0.338905485293488,-0.269726599786124
0.339148350314879,-0.265395705590251
0.339397440565103,-0.26105918021151
0.339652624479566,-0.256717143123891
0.339913770493673,-0.252369713801386
0.34018074704283,-0.248017011717986
0.340453422562443,-0.243659156347682
0.340731665487918,-0.239296267164466
0.341015344254661,-0.234928463642327
0.341304327298077,-0.230555865255258
0.341598483053571,-0.22617859147725
0.341897679956551,-0.221796761782294
0.342201786442422,-0.217410495644381
0.342510670946589,-0.213019912537502
0.342824201904458,-0.208625131935648
0.343142247751436,-0.204226273312811
0.343464676922927,-0.199823456142982
0.343791357854338,-0.195416799900151
0.344122158981074,-0.19100642405831
0.344456948738542,-0.186592448091451
0.344795595562147,-0.182174991473563
0.345137967887294,-0.177754173678639
0.345483934149391,-0.17333011418067
0.345833362783841,-0.168902932453647
0.346186122226052,-0.16447274797156
0.346542080911429,-0.160039680208401
0.346901107275378,-0.155603848638162
0.347263069753305,-0.151165372734833
0.347627836780614,-0.146724371972406
0.347995276792713,-0.142280965824871
0.348365258225007,-0.13783527376622
0.348737649512902,-0.133387415270444
0.349112319091804,-0.128937509811535
0.349489135397117,-0.124485676863482
0.349867966864249,-0.120032035900279
0.350248681928605,-0.115576706395915
0.350631149025591,-0.111119807824381
0.351015236590612,-0.10666145965967
0.351400813059074,-0.102201781375772
0.351787746866384,-0.0977408924466776
0.352175906447947,-0.0932789123463791
0.352565160239168,-0.0888159605488671
0.352955376675454,-0.084352156528133
0.35334642419221,-0.0798876197581677
0.353738171224842,-0.0754224697129625
0.354130486208756,-0.0709568258665085
0.354523237579358,-0.0664908076927969
0.354916293772054,-0.0620245346658189
0.355309523222248,-0.0575581262595656
0.355702794365348,-0.0530917019480281
0.356095975636759,-0.0486253812051976
0.356488935471886,-0.0441592835050654
0.356881542306136,-0.0396935283216225
0.357273664574913,-0.0352282351288599
0.357665170713625,-0.0307635234007691
0.358055929157677,-0.0262995126113411
0.358445808342475,-0.0218363222345672
0.358834676703424,-0.0173740717444382
0.35922240267593,-0.0129128806149455
0.359608854695399,-0.00845286832008035
0.359993901197237,-0.00399415433383377
0.36037741061685,0.000463141869803091
0.360759251389642,0.00491890081683907
0.361139291951022,0.0093730030332829
0.361517400736393,0.0138253290451435
0.361893446181162,0.0182757593784298
0.362267296720734,0.0227241745591505
0.362638820790516,0.0271704551133145
0.363007886825913,0.0316144815669306
0.363374363262331,0.0360561344460078
0.363738118535176,0.0404952942765548
0.364099021079853,0.0449318415845804
0.364456939331769,0.0493656568960935
0.364811741726328,0.053796620737103
0.365163296698938,0.0582246136336178
0.365511472685003,0.0626495161116465
0.36585613811993,0.067071208697198
0.366197161439124,0.0714895719162814
0.366534411077992,0.0759044862949053
0.366867755471938,0.0803158323590785
0.367197063056369,0.0847234906348101
0.36752220226669,0.0891273416481087
0.367843041538307,0.0935272659249833
0.368159449306627,0.0979231439914426
0.368471294007055,0.102314856373496
0.368778444074996,0.106702283597151
0.369080767945856,0.111085306188418
0.369378134055042,0.115463804673305
0.369670410837959,0.11983765957782
0.369957466730013,0.124206751427974
0.370239170166609,0.128570960749774
0.370515389583154,0.13293016806923
0.370785993415053,0.13728425391235
0.371050850097712,0.141633098805144
0.371309828066537,0.145976583273619
0.371562795756933,0.150314587843786
0.371809621604307,0.154646993041652
0.372050174044064,0.158973679393226
0.37228432151161,0.163294527424518
0.37251193244235,0.167609417661537
0.372732875271692,0.17191823063029
0.372947018435039,0.176220846856787
0.373154230367799,0.180517146867037
0.373354379505376,0.184807011187049
0.373547334283178,0.189090320342831
0.373732963136609,0.193366954860392
0.373911134501075,0.197636795265742
0.374081716811982,0.201899722084889
0.374244578504737,0.206155615843841
0.374399588014744,0.210404357068608
0.374546613777409,0.214645826285199
0.374685524228139,0.218879904019622
0.374816187802339,0.223106470797886
0.374938472935415,0.227325407146
0.375052248062772,0.231536593589973
0.375157381619817,0.235739910655814
0.375253742041955,0.239935238869531
0.375341197764592,0.244122458757134
0.375419617223134,0.248301450844631
0.375488868852987,0.252472095658031
0.375548821089556,0.256634273723343
0.375599342368248,0.260787865566576
0.375640301124467,0.264932751713738
0.37567156579362,0.269068812690839
0.375693004811113,0.273195929023887
0.375704486612351,0.277313981238891
0.375705879632741,0.281422849861861
0.375697052307687,0.285522415418804
0.375677873072596,0.28961255843573
0.375648210362874,0.293693159438647
0.375607932613926,0.297764098953565
0.375556908261159,0.301825257506492
0.375495005739977,0.305876515623437
0.375422093485787,0.309917753830408
0.375338039933994,0.313948852653416
0.375242713520005,0.317969692618468
0.375135982679225,0.321980154251574
0.37501771584706,0.325980118078741
0.374887781458916,0.32996946462598
0.374746047950198,0.333948074419299
0.374592383756313,0.337915827984707
0.374426657312666,0.341872605848212
0.374248737054662,0.345818288535823
0.374058491417709,0.34975275657355
0.37385578883721,0.353675890487401
0.373640497748573,0.357587570803385
0.373412486587203,0.361487678047511
0.373171623788506,0.365376092745788
0.372917777787888,0.369252695424224
0.372650817020754,0.373117366608829
0.37237060992251,0.37696998682561
0.372077024928563,0.380810436600578
0.371769930474317,0.384638596459741
0.371449194995179,0.388454346929107
0.371114686926554,0.392257568534686
0.370766274703849,0.396048141802486
0.370403826762468,0.399825947258517
0.370027211537819,0.403590865428786
0.369636297465306,0.407342776839304
0.369230952980335,0.411081562016078
0.368811046518312,0.414807101485118
0.368376446514644,0.418519275772433
0.367927021404735,0.42221796540403
0.367462639623992,0.42590305090592
0.36698316960782,0.429574412804111
0.366488479791625,0.433231931624612
0.365978438610814,0.436875487893431
0.365452914500791,0.440504962136578
0.364911775896962,0.444120234880061
0.364354891234734,0.44772118664989
0.363782128949512,0.451307697972073
0.363193357476702,0.454879649372618
0.36258844525171,0.458436921377535
0.361967260709941,0.461979394512833
0.361329672286802,0.46550694930452
0.360675548417697,0.469019466278605
0.360004757538034,0.472516825961098
0.359317168083217,0.475998908878006
0.358612648488653,0.479465595555339
0.357891067189747,0.482916766519106
0.357152292621905,0.486352302295315
0.356396193220532,0.489772083409976
0.355622637421036,0.493175990389096
0.354831493658821,0.496563903758686
0.354022630369293,0.499935704044754
0.353195915987858,0.503291271773308
0.352351218949922,0.506630487470358
0.351488407690891,0.509953231661912
0.35060735064617,0.513259384873979
0.349707916251165,0.516548827632568
0.348789972941282,0.519821440463689
0.347853389151928,0.523077103893348
0.346898033318506,0.526315698447557
0.345923773876424,0.529537104652323
0.344930479261087,0.532741203033655
0.343918017907902,0.535927874117562
0.342886258252273,0.539096998430054
0.341835068729606,0.542248456497138
0.340764317775308,0.545382128844824
0.339673873824784,0.548497895999119
0.33856360531344,0.551595638486035
0.337433380676682,0.554675236831578
0.336283068349915,0.557736571561759
0.335112536768545,0.560779523202585
0.333921654367979,0.563803972280067
0.332710289583622,0.566809799320211
0.331478310850879,0.569796884849028
0.330225586605157,0.572765109392526
0.328951985281861,0.575714353476715
0.327657375316397,0.578644497627601
0.326341625144171,0.581555422371197
0.325004603200589,0.584447008233508
0.323646177921056,0.587319135740545
0.322266217740978,0.590171685418315
0.320864591095761,0.59300453779283
0.319441166420812,0.595817573390096
0.317995812151535,0.598610672736123
0.316528396723336,0.601383716356919
0.315038788571622,0.604136584778494
0.313526856131797,0.606869158526856
0.311992467839269,0.609581318128015
0.310435492129442,0.612272944107978
0.308855797437722,0.614943916992756
0.307253252199516,0.617594117308355
0.305627724850229,0.620223425580787
0.303979083825266,0.622831722336059
0.302307197560034,0.62541888810018
0.300611934489939,0.627984803399159
0.298893163050385,0.630529348759005
0.29715075167678,0.633052404705727
0.295384568804528,0.635553851765333
0.293594482869036,0.638033570463832
0.291780362305709,0.640491441327234
0.289942075549953,0.642927344881547
0.288079491037174,0.64534116165278
0.286192477202778,0.647732772166942
0.284280902482171,0.650102056950042
0.282344635310758,0.652448896528087
0.280383544123945,0.654773171427089
0.278397497357137,0.657074762173054
0.276386363445742,0.659353549291992
0.274350010825164,0.661609413309912
0.272288307930809,0.663842234752823
0.270201123198083,0.666051894146734
0.268088325062392,0.668238272017652
0.265949781959142,0.670401248891588
0.263785362323739,0.67254070529455
0.261594934591587,0.674656521752547
0.259378367198094,0.676748578791588
0.257135528578664,0.678816756937681
0.254866287168704,0.680860936716836
0.25257051140362,0.68288099865506
0.250248069718816,0.684876823278364
0.2478988305497,0.686848291112756
0.245522662331676,0.688795282684245
0.243119433500152,0.690717678518839
0.240689012490531,0.692615359142548
0.238231267738221,0.69448820508138
0.235746067678626,0.696336096861344
0.233233280747154,0.698158915008449
0.230692775379209,0.699956540048704
0.228124420010197,0.701728852508118
0.225528083075525,0.703475732912699
0.222903633010597,0.705197061788457
0.22025093825082,0.7068927196614
0.2175698672316,0.708562587057537
0.214860288388342,0.710206544502877
0.212122070156453,0.711824472523428
0.209355080971337,0.7134162516452
0.206559189268401,0.714981762394202
0.20373426348305,0.716520885296442
0.200880172050691,0.718033500877928
0.197996783406728,0.719519489664671
0.195083965986569,0.720978732182679
0.192141588225618,0.72241110895796
0.189169518559282,0.723816500516524
0.186167625422966,0.725194787384379
0.183135777252076,0.726545850087534
0.180073842482018,0.727869569151998
0.176981689548198,0.72916582510378
0.173859186886021,0.730434498468889
0.170706202930893,0.731675469773333
0.16752260611822,0.732888619543122
0.164308264883409,0.734073828304263
0.161063047661863,0.735230976582767
0.15778682288899,0.736359944904642
0.154479459000196,0.737460613795897
0.151140824430885,0.73853286378254
0.147770787616464,0.73957657539058
0.144369216992339,0.740591629146027
0.140935980993915,0.741577905574889
0.137470948056599,0.742535285203174
0.133973986615795,0.743463648556893
0.13044496510691,0.744362876162053
0.12688375196535,0.745232848544664
0.12329021562652,0.746073446230734
0.119664224525826,0.746884549746272
0.116005647098674,0.747666039617287
0.11231435178047,0.748417796369788
0.108590207006619,0.749139700529784
0.104833081212527,0.749831632623283
0.101042842833601,0.750493473176295
0.0972193603052458,0.751125102714827
0.0933625020628673,0.75172640176489
0.0894721365418711,0.752297250852492
0.0855481321776633,0.752837530503641
0.0815903574056494,0.753347121244347
0.0775986806612356,0.753825903600619
0.0735729703798273,0.754273758098465
0.0695130949968306,0.754690565263893
0.0654189229476509,0.755076205622914
0.0612903226676946,0.755430559701536
0.0571271625923669,0.755753508025767
0.052929311157074,0.756044931121617
0.0486966367972213,0.756304709515093
0.0444290079482151,0.756532723732207
0.0401262930454607,0.756728854298965
0.0357883605243643,0.756892981741377
0.0314150788203313,0.757024986585451
0.0314150788203313,0.757024986585451
0.0270378273601268,0.757108144444532
0.0226880854044373,0.757126149151717
0.0183658711395519,0.757079508562643
0.0140712027517594,0.756968730532951
0.00980409842734878,0.756794322918278
0.0055645763526089,0.756556793574263
0.0013526547138287,0.756256650356545
-0.0028316483027029,0.755894401120763
-0.00698831451069698,0.755470553722555
-0.0111173257238646,0.754985616017561
-0.015218663755917,0.754440095861418
-0.019292310420565,0.753834501109766
-0.02333824753152,0.753169339618244
-0.0273564569024928,0.752445119242489
-0.0313469203471946,0.751662347838141
-0.0353096196793365,0.750821533260838
-0.0392445367126297,0.74992318336622
-0.043151653260785,0.748967806009925
-0.0470309511375137,0.747955909047591
-0.0508824121565269,0.746888000334858
-0.0547060181315356,0.745764587727364
-0.0585017508762508,0.744586179080747
-0.0622695922043838,0.743353282250647
-0.0660095239296456,0.742066405092702
-0.0697215278657472,0.740726055462552
-0.0734055858263997,0.739332741215834
-0.0770616796253143,0.737886970208187
-0.080689791076202,0.73638925029525
-0.084289901992774,0.734840089332663
-0.0878619941887412,0.733239995176063
-0.0914060494778147,0.731589475681089
-0.0949220496737058,0.72988903870338
-0.0984099765901254,0.728139192098575
-0.101869812040785,0.726340443722313
-0.105301537839395,0.724493301430231
-0.108705135799666,0.72259827307797
-0.112080587735311,0.720655866521167
-0.11542787546004,0.718666589615461
-0.118746980787563,0.716630950216491
-0.122037885531593,0.714549456179897
-0.12530057150584,0.712422615361316
-0.128535020524016,0.710250935616387
-0.131741214399831,0.708034924800748
-0.134919134946996,0.70577509077004
-0.138068763979223,0.7034719413799
-0.141190083310222,0.701125984485967
-0.144283074753706,0.69873772794388
-0.147347720123384,0.696307679609277
-0.150384001232968,0.693836347337798
-0.153391899896169,0.691324238985081
-0.156371397926698,0.688771862406764
-0.159322477138266,0.686179725458487
-0.162245119344585,0.683548335995888
-0.165139306359365,0.680878201874606
-0.168005019996317,0.678169830950279
-0.170842242069153,0.675423731078547
-0.173650954391584,0.672640410115048
-0.17643113877732,0.66982037591542
-0.179182777040073,0.666964136335303
-0.181905850993554,0.664072199230335
-0.184600342451474,0.661145072456156
-0.187266233227543,0.658183263868402
-0.189903505135474,0.655187281322714
-0.192512139988978,0.65215763267473
-0.195092119601764,0.649094825780089
-0.197643425787545,0.64599936849443
-0.200166040360031,0.64287176867339
-0.202659945132934,0.63971253417261
-0.205125121919965,0.636522172847728
-0.207561552534834,0.633301192554381
-0.209969218791253,0.63005010114821
-0.212348102502933,0.626769406484853
-0.214698185483585,0.623459616419949
-0.21701944954692,0.620121238809135
-0.219311876506649,0.616754781508051
-0.221575448176483,0.613360752372337
-0.223810146370134,0.60993965925763
-0.226015952901312,0.606492010019568
-0.228192849583729,0.603018312513792
-0.230340818231095,0.59951907459594
-0.232459840657122,0.59599480412165
-0.23454989867552,0.59244600894656
-0.236610974100002,0.588873196926311
-0.238643048744277,0.58527687591654
-0.240646104422058,0.581657553772886
-0.242620122947054,0.578015738350989
-0.244565086132978,0.574351937506485
-0.24648097579354,0.570666659095016
-0.248367773742451,0.566960410972218
-0.250225461793423,0.563233700993731
-0.252054021760166,0.559487037015194
-0.253853435456392,0.555720926892245
-0.255623684695811,0.551935878480523
-0.257364751292135,0.548132399635666
-0.259076617059076,0.544310998213315
-0.260759263810343,0.540472182069106
-0.262412673359648,0.536616459058679
-0.264036827520702,0.532744337037673
-0.265631708107217,0.528856323861726
-0.267197296932903,0.524952927386477
-0.268733575811471,0.521034655467565
-0.270240526556632,0.517102015960628
-0.271718130982099,0.513155516721305
-0.273166370901581,0.509195665605235
-0.274585228128789,0.505222970468058
-0.275974684477435,0.50123793916541
-0.277334721761231,0.497241079552931
-0.278665321793886,0.49323289948626
-0.279966466389112,0.489213906821036
-0.281238137360621,0.485184609412897
-0.282480316522123,0.481145515117482
-0.283692985687329,0.477097131790429
-0.28487612666995,0.473039967287378
-0.286029721283698,0.468974529463967
-0.287153751342284,0.464901326175835
-0.288248198659418,0.460820865278621
-0.289313045048812,0.456733654627963
-0.290348272324177,0.452640202079499
-0.291353862299223,0.44854101548887
-0.292329796787663,0.444436602711713
-0.293276057603207,0.440327471603667
-0.294192626559566,0.436214130020371
-0.295079485470451,0.432097085817463
-0.295936616149574,0.427976846850583
-0.296764000410645,0.423853920975369
-0.297561620067376,0.41972881604746
-0.298329456933477,0.415602039922494
-0.29906749282266,0.411474100456111
-0.299775709548635,0.407345505503948
-0.300454088925115,0.403216762921645
-0.30110261276581,0.39908838056484
-0.30172126288443,0.394960866289173
-0.302310021094688,0.390834727950281
-0.302868869210294,0.386710473403804
-0.303397789044959,0.38258861050538
-0.303896762412395,0.378469647110648
-0.304365771126312,0.374354091075247
-0.304804797000421,0.370242450254815
-0.305213821848434,0.366135232504991
-0.305592827484062,0.362032945681414
-0.305941795721016,0.357936097639723
-0.306260708373007,0.353845196235556
-0.306549547253746,0.349760749324552
-0.306808294176943,0.34568326476235
-0.307036930956311,0.341613250404589
-0.30723543940556,0.337551214106906
-0.307403801338402,0.333497663724941
-0.307541998568547,0.329453107114333
-0.307650012909706,0.325418052130721
-0.307727826175591,0.321393006629742
-0.307775420179913,0.317378478467036
-0.307792776736382,0.313374975498242
-0.307779877658711,0.309383005578998
-0.307736704760609,0.305403076564943
-0.307663239855788,0.301435696311715
-0.307559464757959,0.297481372674954
-0.307425361280834,0.293540613510299
-0.307260911238122,0.289613926673386
-0.307066096443536,0.285701820019857
-0.306840898710787,0.281804801405349
-0.306585299853585,0.2779233786855
-0.306299281685642,0.274058059715951
-0.305982826020668,0.270209352352339
-0.305635914672375,0.266377764450303
-0.305258529454474,0.262563803865482
-0.304850652180676,0.258767978453514
-0.304412264664692,0.254990796070039
-0.303943348720234,0.251232764570695
-0.303443886161011,0.247494391811121
-0.302913858800736,0.243776185646955
-0.302353248453119,0.240078653933836
-0.301762036931871,0.236402304527403
-0.301140206050704,0.232747645283295
-0.300487737623329,0.229115184057151
-0.299804613463456,0.225505428704608
-0.299090815384798,0.221918887081306
-0.298346325201064,0.218356067042884
-0.297571124725966,0.21481747644498
-0.296765195773215,0.211303623143233
-0.295928520156523,0.207815014993281
-0.295061079689599,0.204352159850765
-0.294162856186156,0.200915565571321
-0.293233831459905,0.197505740010589
-0.292273987324556,0.194123191024207
-0.29128330559382,0.190768426467815
-0.290261768081409,0.187441954197051
-0.289209356601034,0.184144282067554
-0.288126052966406,0.180875917934962
-0.287011838991236,0.177637369654914
-0.285866696489234,0.17442914508305
-0.284690607274113,0.171251752075006
-0.283483553159583,0.168105698486424
-0.282245515959355,0.16499149217294
-0.280976477487141,0.161909640990194
-0.279676419556651,0.158860652793824
-0.278345323981597,0.15584503543947
-0.276983172575689,0.15286329678277
-0.275589947152639,0.149915944679362
-0.274165629526157,0.147003486984886
-0.272710201509956,0.14412643155498
-0.271223644917746,0.141285286245283
-0.269705941563237,0.138480558911433
-0.268157073260142,0.135712757409069
-0.266577021822171,0.132982389593831
-0.264965769063035,0.130289963321356
-0.263323296796446,0.127635986447284
-0.261649586836114,0.125020966827253
-0.25994462099575,0.122445412316901
-0.258208381089067,0.119909830771869
-0.256440848929774,0.117414730047793
-0.254642006331582,0.114960618000314
-0.252811835108204,0.112548002485069
-0.25095031707335,0.110177391357698
-0.249057434040731,0.107849292473839
-0.247133167824058,0.105564213689131
-0.245177500237042,0.103322662859213
-0.243190413093394,0.101125147839723
-0.241171888206826,0.0989721764863
-0.239121907391049,0.0968642566545829
-0.237040452459773,0.0948018962002104
-0.23492750522671,0.092785602978821
-0.23278304750557,0.0908158848460537
-0.230607061110065,0.088893249657547
-0.228399527853907,0.0870182052689398
-0.226160429550805,0.0851912595358706
-0.223889748014471,0.0834129203139784
-0.221587465058617,0.0816836954589017
-0.219253562496953,0.0800040928262792
-0.21688802214319,0.0783746202717498
-0.21449082581104,0.0767957856509522
-0.212061955314213,0.0752680968195249
-0.209601392466421,0.073792061633107
-0.207109119081374,0.0723681879473368
-0.204585116972784,0.0709969836178533
-0.202029367954363,0.0696789565002951
-0.19944185383982,0.068414614450301
-0.196822556442867,0.0672044653235096
-0.194171457577215,0.0660490169755598
-0.191488539056576,0.0649487772620902
-0.18877378269466,0.0639042540387395
-0.186027170305178,0.0629159551611465
-0.183248683701842,0.0619843884849498
-0.180438304698362,0.0611100618657883
-0.17759601510845,0.0602934831593006
-0.174721796745816,0.0595351602211254
-0.171815631424173,0.0588356009069016
-0.16887750095723,0.0581953130722677
-0.1659073871587,0.0576148045728625
-0.162905271842292,0.0570945832643247
-0.159871136821719,0.0566351570022931
-0.15680496391069,0.0562370336424064
-0.153706734922919,0.0559007210403032
-0.150576431672114,0.0556267270516224
-0.147414035971988,0.0554155595320026
-0.144219529636252,0.0552677263370825
-0.140992894478616,0.055183735322501
-0.137734112312792,0.0551640943438966
-0.134443164952491,0.0552093112569082
-0.131120034211424,0.0553198939171743
-0.127764701903302,0.0554963501803339
-0.124377149841836,0.0557391879020255
-0.120957359840738,0.056048914937888
-0.117505313713717,0.0564260391435599
-0.114020993274486,0.0568710683746801
-0.110504380336755,0.0573845104868872
-0.106955456714236,0.05796687333582
-0.103374204220639,0.0586186647771173
-0.0997606046696767,0.0593403926664176
-0.0961146398750586,0.0601325648593598
-0.0924362916504965,0.0609956892115826
-0.0887255418097012,0.0619302735787247
-0.0849823721663841,0.0629368258164247
-0.0812067645342561,0.0640158537803215
-0.0773987007270284,0.0651678653260538
-0.0735581625584118,0.0663933683092602
-0.0696851318421178,0.0676928705855795
-0.0657795903918571,0.0690668800106504
-0.0618415200213411,0.0705159044401117
-0.0578709025442806,0.0720404517296021
-0.053867719774387,0.0736410297347601
-0.0498319535253711,0.0753181463112247
-0.0457635856109442,0.0770723093146345
-0.0416625978448172,0.0789040266006283
-0.0375289720407014,0.0808138060248446
-0.0333626900123076,0.0828021554429225
-0.0291637335733473,0.0848695827105003
-0.0249320845375311,0.0870165956832171
-0.0206677247185705,0.0892437022167112
-0.0163706359301761,0.0915514101666218
-0.0120407999860596,0.0939402273885872
-0.00767819869993161,0.0964106617382465
-0.00328281388550357,0.098963221071238
0.00114537264351386,0.101598413243201
0.00560637907340913,0.104316746109773
0.0101002235904716,0.107118727526595
0.0146269243809897,0.110004865349303
0.0191864996312529,0.112975667433538
0.0237789675275496,0.116031641634937
0.0284043462561691,0.11917329580914
0.0330626540033999,0.122401137811785
0.0377539089555314,0.125715675498511
0.0424781292988521,0.129117416724956
0.0472353332196513,0.13260686934676
0.0520255389042175,0.136184541219561
0.05684876453884,0.139850940198998
0.0617050283098074,0.143606574140709
0.0665943484034089,0.147451950900333
0.0715167430059331,0.15138757833351
0.0764722303036692,0.155413964295877
0.0814608284829059,0.159531616643074
0.0864825557299323,0.163741043230738
0.091537430231037,0.16804275191451
0.0966254701725095,0.172437250550027
0.101746693740638,0.176925046992928
0.106901119121712,0.181506649098853
0.11208876450202,0.186182564723438
0.117309648067851,0.190953301722325
0.122563788005494,0.195819367951151
0.127851202501239,0.200781271265554
0.133171909741372,0.205839519521174
0.138525927912185,0.21099462057365
0.143913275199965,0.21624708227862
0.149333969791002,0.221597412491722
0.154788029871585,0.227046119068596
0.160275473628002,0.23259370986488
0.165796319246542,0.238240692736213
0.171350584913494,0.243987575538233
0.176938288815148,0.24983486612658
0.182559449137791,0.255783072356892
0.188214084067714,0.261832702084808
0.193902211791204,0.267984263165967
0.199623850494552,0.274238263456006
0.205379018364045,0.280595210810566
0.211167733585972,0.287055613085284
0.216990014346623,0.2936199781358
0.222845878832287,0.300288813817752
0.228735345229252,0.307062627986779
0.234658431723807,0.313941928498519
0.240615156502242,0.320927223208612
0.246605537750844,0.328019019972696
0.252629593655904,0.335217826646409
0.258687342403709,0.342524151085391
0.26477880218055,0.34993850114528
0.270903991172714,0.357461384681715
0.277062927566491,0.365093309550335
0.28325562954817,0.372834783606778
0.289482115304039,0.380686314706683
0.295742403020387,0.388648410705689
0.302036510883504,0.396721579459434
0.308364457079678,0.404906328823558
0.314726259795198,0.413203166653699
0.321121937216354,0.421612600805495
0.327551507529433,0.430135139134585
0.334014988920725,0.438771289496609
0.340512399576519,0.447521559747205
0.347043757683104,0.456386457742011
0.353609081426769,0.465366491336666
0.360208388993802,0.474462168386809
0.366841698570492,0.48367399674808
0.373509028343129,0.493002484276115
0.380210396498002,0.502448138826555
0.386945821221398,0.512011468255038
0.393715320699608,0.521692980417202
0.40051891311892,0.531493183168686
0.407356616665622,0.54141258436513
0.414228449526005,0.551451691862171
0.421134429886356,0.561611013515449
0.428074575932965,0.571891057180602
0.435048905852121,0.582292330713269
0.442057437830112,0.592815341969089
0.449100190053228,0.6034605988037
0.456177180707757,0.614228609072741
0.463288427979989,0.625119880631851
0.470433950056211,0.636134921336668
0.477613765122714,0.647274239042832
0.484827891365786,0.658538341605981
0.492076346971716,0.669927736881753
0.499359150126792,0.681442932725788
0.506676319017304,0.693084436993724
0.514027871829541,0.704852757541199
0.521413826749792,0.716748402223854
0.528834201964345,0.728771878897326
0.53628901565949,0.740923695417253
0.543778286021515,0.753204359639276
0.551302031236709,0.765614379419032
0.558860269491361,0.778154262612159
0.566453018971761,0.790824517074299
0.574080297864196,0.803625650661087
0.581742124354957,0.816558171228164
0.589438516630331,0.829622586631168
0.597169492876608,0.842819404725738
0.604935071280076,0.856149133367512
0.612735270027025,0.86961228041213
0.620570107303744,0.883209353715229
0.628439601296521,0.89694086113245
0.636343770191645,0.910807310519429
0.644282632175406,0.924809209731807
0.652256205434092,0.938947066625221
0.660264508153992,0.953221389055311
