0.131894851627198,-0.166090208521235
-0.402678001044845,-0.051821666870455
0.962970503069426,0.944264355940443
0.366441673422086,0.637219290815919
-0.230087156225254,0.330174225691395
0.716939261303544,-0.0718289460215764
-0.182471487826598,-0.976759232083526
