0.793595437393989,-0.0597182563558629
0.795023118908447,-0.0594322755217715
0.796408931821127,-0.0591829098074386
0.797753020956925,-0.058969916032854
0.799055531140734,-0.0587930510180076
0.800316607197451,-0.0586520715828889
0.801536393951969,-0.0585467345474879
0.802715036229184,-0.0584767967317942
0.80385267885399,-0.0584420149557976
0.804949466651283,-0.058442146039488
0.806005544445956,-0.0584769468028549
0.807021057062906,-0.0585461740658882
0.807996149327027,-0.0586495846485777
0.808930966063214,-0.0587869353709131
0.80982565209636,-0.0589579830528842
0.810680352251363,-0.0591624845144807
0.811495211353116,-0.0594001965756924
0.812270374226514,-0.0596708760565091
0.813005985696453,-0.0599742797769205
0.813702190587826,-0.0603101645569163
0.814359133725529,-0.0606782872164864
0.814976959934456,-0.0610784045756204
0.815555814039503,-0.0615102734543082
0.816095840865565,-0.0619736506725395
0.816597185237536,-0.0624682930503041
0.817059991980311,-0.0629939574075918
0.817484405918784,-0.0635504005643922
0.817870571877852,-0.0641373793406951
0.818218634682408,-0.0647546505564903
0.818528739157347,-0.0654019710317676
0.818801030127565,-0.0660790975865168
0.819035652417957,-0.0667857870407275
0.819232750853416,-0.0675217962143896
0.819392470258838,-0.0682868819274927
0.819514955459118,-0.0690808010000267
0.819600351279151,-0.0699033102519814
0.819648802543831,-0.0707541665033464
0.819660454078054,-0.0716331265741116
0.819635450706714,-0.0725399472842666
0.819573937254706,-0.0734743854538013
0.819476058546925,-0.0744361979027055
0.819341959408266,-0.0754251414509688
0.819171784663623,-0.0764409729185811
0.818965679137892,-0.077483449125532
0.818723787655967,-0.0785523268918114
0.818446255042744,-0.079647363037409
0.818133226123117,-0.0807683143823146
0.81778484572198,-0.0819149377465179
0.81740125866423,-0.0830869899500088
0.81698260977476,-0.0842842278127769
0.816529043878466,-0.0855064081548119
0.816040705800242,-0.0867532877961038
0.815517740364983,-0.0880246235566422
0.814960292397585,-0.0893201722564169
0.814368506722941,-0.0906396907154176
0.813742528165948,-0.0919829357536341
0.813082501551499,-0.0933496641910562
0.81238857170449,-0.0947396328476736
0.811660883449814,-0.0961525985434761
0.810899581612369,-0.0975883180984535
0.809276716488745,-0.100527046065892
0.808415442852356,-0.102029568118332
0.807521134932775,-0.103553871309907
0.806593937554899,-0.105099712460605
0.804641453723836,-0.108255035919331
0.80361645692044,-0.109864031867338
0.802559149958326,-0.111493593054428
0.801469677662391,-0.113143476300591
0.800348184857527,-0.114813438425816
0.799194816368632,-0.116503236250092
0.798009717020599,-0.118212626593411
0.796793031638323,-0.119941366275761
0.795544905046699,-0.121689212117132
0.794265482070623,-0.123455920937514
0.792954907534988,-0.125241249556897
0.79161332626469,-0.127044954795271
0.790240883084624,-0.128866793472624
0.787403990294765,-0.132563898424232
0.785939830334763,-0.134438678338465
0.784445387764571,-0.136330618971637
0.782920807409085,-0.138239477143739
0.781366234093201,-0.140165009674759
0.779781812641812,-0.142106973384688
0.778167687879813,-0.144065125093515
0.776524004632099,-0.14603922162123
0.773148541979108,-0.150034276413285
0.771417052223619,-0.152054748317603
0.769656583281995,-0.154090192320768
0.767867279979132,-0.156140365242771
0.764202749589262,-0.160283925123245
0.762327812152046,-0.162376825721696
0.760424619653169,-0.164483482518944
0.758493316917526,-0.166603652334977
0.756534048770011,-0.168737091989786
0.75454696003552,-0.17088355830336
0.752532195538948,-0.173042808095689
0.75048990010519,-0.175214598186762
0.748420218559139,-0.177398685396571
0.744199276429741,-0.181802778452349
0.742048305496185,-0.1840222979383
0.739870527749915,-0.186253141822943
0.737666088015828,-0.18849506692627
0.735435131118819,-0.190747830068271
0.730894245135611,-0.195284897748249
0.728584605699203,-0.197568715926207
0.726249028399451,-0.199862399422797
0.723887658061252,-0.202165705058008
0.721500639509498,-0.204478389651832
0.719088117569086,-0.206800210024257
0.71665023706491,-0.209130922995272
0.714187142821866,-0.211470285384869
0.711698979664847,-0.213818054013037
0.709185892418749,-0.216173985699764
0.706648025908466,-0.218537837265043
0.704085524958895,-0.22090936552886
0.701498534394928,-0.223288327311208
0.698887199041462,-0.225674479432075
0.696251663723391,-0.228067578711451
0.690908572493013,-0.232873646025691
0.688201306230496,-0.235286127700533
0.685470419302954,-0.237704583813844
0.682716056535282,-0.240128771185613
0.679938362752373,-0.242558446635829
0.677137482779123,-0.244993366984483
0.674313561440428,-0.247433289051564
0.671466743561181,-0.249877969657063
0.668597173966278,-0.252327165620968
0.665704997480613,-0.254780633763269
0.662790358929082,-0.257238130903957
0.656894274928,-0.262164239460451
0.653913119128238,-0.264632364516237
0.650910080562189,-0.267103545850368
0.647885304054748,-0.269577540282834
0.644838934430809,-0.272054104633625
0.641771116515267,-0.27453299572273
0.638681995133018,-0.27701397037014
0.635571715108956,-0.279496785395844
0.632440421267976,-0.281981197619832
0.629288258434973,-0.284466963862094
0.626115371434842,-0.286953840942619
0.622921905092477,-0.289441585681397
0.619708004232773,-0.291929954898418
0.616473813680626,-0.294418705413672
0.60994514279858,-0.299396377618837
0.606650952118471,-0.301884812948728
0.596650697020537,-0.309345597687509
0.593278533718339,-0.311830208250106
0.589887239322857,-0.314313254670852
0.583047836551618,-0.319273682366758
0.57960001782565,-0.321750577281896
0.576133647305977,-0.324224935335143
0.572648869817494,-0.326696513346491
0.565624673233675,-0.331630356523443
0.562085543788128,-0.334092135329028
0.558528586673351,-0.336550161372671
0.551361768735683,-0.341453982454092
0.547752197562581,-0.34389929113185
0.540481454932318,-0.348775488861408
0.536820573124946,-0.351205891553188
0.533142877422607,-0.353630839222954
0.529448512650196,-0.356050088690698
0.525737623632607,-0.358463396776408
0.522010355194736,-0.360870520300074
0.514507259357725,-0.365665240941234
0.510731721608375,-0.368052351698708
0.506940383738322,-0.370432305174096
0.503133390572461,-0.37280485818739
0.495473017652894,-0.377526790107651
0.491619927548977,-0.379875682654598
0.487751761448831,-0.38221620201941
0.479970780559433,-0.386871148482584
0.47605825541997,-0.389185089220926
0.472131233583858,-0.391489684057091
0.468189859875991,-0.393784689811069
0.464234279121265,-0.396069863302849
0.460264636144574,-0.398344961352422
0.456281075770813,-0.400609740779777
0.452283742824876,-0.402863958404904
0.44827278213166,-0.405107371047792
0.440210556802966,-0.409560808666814
0.432095558383889,-0.413968108196758
0.428018631327694,-0.416153848228301
0.419826645646466,-0.420488292924478
0.411584783372753,-0.424771735931374
0.407445510575951,-0.426893723851315
0.403294203105713,-0.429002231808906
0.399131005786933,-0.431097016624136
0.394956063444506,-0.433177835116994
0.390769520903326,-0.43524444410747
0.386571522988289,-0.437296600415554
0.38236221452429,-0.439334060861236
0.369667874087466,-0.445355835223767
0.365414771676565,-0.447332080419738
0.361151082841176,-0.449292413853256
0.352592525196513,-0.453164372712889
0.348297946037028,-0.455075511778985
0.343993359752635,-0.456969766362587
0.331021006398952,-0.462548791418322
0.326677839863872,-0.464373076271844
0.322325390328358,-0.46617926074282
0.317963802617305,-0.46796710165124
0.313593221555606,-0.469736355817094
0.304825658679855,-0.473218131201063
0.300428966515591,-0.474930166059158
0.291610484858763,-0.478295314207515
0.287188985015988,-0.479947941137758
0.278322191426191,-0.48319208481032
0.273877187328959,-0.484783115192619
0.26942463813003,-0.486353127032249
0.2649646886543,-0.487901877149201
0.260497483726664,-0.489429122363463
0.256023168172016,-0.490934619495027
0.251541886815251,-0.492418125363881
0.247053784481264,-0.493879396790015
0.242559005994951,-0.49531819059342
0.238057696181205,-0.496734263594084
0.233549999864922,-0.498127372611998
0.229036061870996,-0.499497274467151
0.224516027024323,-0.500843725979534
0.215458246072314,-0.503465305255945
0.206377815608052,-0.50599016500115
0.201829468871064,-0.507215717099525
0.197275894230698,-0.508416359775067
0.192717236511848,-0.509591849847767
0.188153640539409,-0.510741944137613
0.183585251138276,-0.511866399464597
0.179012213133345,-0.512964972648708
0.174434671349509,-0.514037420509935
0.169852770611664,-0.515083499868268
0.165266655744705,-0.516102967543697
0.160676471573525,-0.517095580356212
0.156082362923022,-0.518061095125803
0.151484474618088,-0.518999268672459
0.14688295148362,-0.51990985781617
0.142277938344511,-0.520792619376925
0.137669580025657,-0.521647310174716
0.133058021351953,-0.52247368702953
0.128443407148293,-0.523271506761359
0.123825882239573,-0.524040526190191
0.119205591450686,-0.524780502136017
0.114582679606529,-0.525491191418827
0.109957291531996,-0.52617235085861
0.105329572051981,-0.526823737275355
0.10069966599138,-0.527445107489053
0.0960677181750872,-0.528036218319693
0.0821610724410089,-0.529625562713167
0.0775224058508987,-0.530093204211475
0.0682412646019215,-0.530933818178753
0.0635990795928443,-0.531306304287704
0.0589560114272343,-0.531646585573515
0.0543122049299867,-0.531954418856176
0.0496678049259958,-0.532229560955677
0.0450229562401571,-0.532471768692008
0.0357324921225147,-0.532856408355118
0.0310871663405008,-0.532998353921877
0.0264419711762183,-0.533106392405424
0.0217970514545619,-0.533180280625751
0.0171525520004267,-0.533219775402845
0.0125086176387072,-0.533224633556697
0.0078653931942988,-0.533194611907298
0.00322302349209576,-0.533129467274635
-0.0106975089123305,-0.532720863676972
-0.0153350113967624,-0.532512795311158
-0.0199709350145141,-0.53226838806203
-0.0246051349406913,-0.531987398749578
-0.0292374663503986,-0.531669584193793
-0.0338677844187416,-0.531314701214662
-0.0431218012317544,-0.530492757266328
-0.0523660267805709,-0.529519621464494
-0.0569841057686682,-0.528975748668488
-0.0754261505647729,-0.526412550650306
-0.0800283698502535,-0.525673608537169
-0.084626982720526,-0.524894923020576
-0.0892218443506959,-0.524076250920515
-0.0938128099158679,-0.523217349056976
-0.10298247355164,-0.521377883319426
-0.112134815028683,-0.519374580367843
-0.116704127895443,-0.518310881986763
-0.121268675747837,-0.517205494762145
-0.130382897109946,-0.51486868106225
-0.139476320515848,-0.512362193828078
-0.144014870922985,-0.511044714685611
-0.148547787366386,-0.509684087619544
-0.153074925021157,-0.508280069449867
-0.157596139062401,-0.506832416996568
-0.166620217004734,-0.503805236519068
-0.171122791256032,-0.502225222134846
-0.180108286194418,-0.498931129175406
-0.184590917231716,-0.497216564240167
-0.189066610881225,-0.495456662761237
-0.193535222318049,-0.493651181558603
-0.206897115103465,-0.487958827808383
-0.229011775168614,-0.477537280283005
-0.233410129571009,-0.475310638466586
-0.23779995351177,-0.473035985126361
-0.246553430708813,-0.468341671154456
-0.259616047419758,-0.460934034267803
-0.268277702880202,-0.455748661957385
-0.272594069431683,-0.45308116194635
-0.276900602097477,-0.450363461791418
-0.285483586472425,-0.444776488329821
-0.28975974853179,-0.441906728663136
-0.306758816667635,-0.42991352955691
-0.336078399480352,-0.406908463707417
-0.34022004487346,-0.403408579792796
-0.344349539182563,-0.399854604854114
-0.348466737582767,-0.396246295711361
-0.360743109081033,-0.38509293125857
-0.368863222078974,-0.377381225636164
-0.384944311176474,-0.361286349541677
-0.396861321229326,-0.348620000557022
-0.404735342810055,-0.33988869547958
-0.408650723589384,-0.335436191674526
-0.416437501001495,-0.326356265631703
-0.420308607984487,-0.321728357033913
-0.424164667385578,-0.317041493811856
-0.45038784218031,-0.282891040978095
-0.453858946973632,-0.277980231549984
-0.457241086321764,-0.273082181511676
-0.460534780470327,-0.268196930315219
-0.466858914151215,-0.25846498225605
-0.472835509981248,-0.248784702988861
-0.478468729925373,-0.239156408130035
-0.481157874554268,-0.234361853483878
-0.486283834353813,-0.224812127018318
-0.488721690015702,-0.220057034103009
-0.491076823179826,-0.21531517400208
-0.493349754091805,-0.210586586167577
-0.499680535771053,-0.196480850783108
-0.501629860130635,-0.191805746534791
-0.503499583466165,-0.187144111813141
-0.505290226023262,-0.182495986070206
-0.507002308047544,-0.177861408758033
-0.508636349784629,-0.17324041932867
-0.510192871480137,-0.168633057234166
-0.511672393379687,-0.164039361926569
-0.514402518773384,-0.154893129480284
-0.51565416275877,-0.150340671245693
-0.520799005395813,-0.127786538040173
-0.521608940184576,-0.123317619156891
-0.522347077633566,-0.118862761580996
-0.524135908398096,-0.105582951218105
-0.524979013378601,-0.0968007741339879
-0.525297291946954,-0.0924311128954162
-0.525547414894867,-0.0880757891285664
-0.525845274911845,-0.0794083118182242
-0.525876755394485,-0.0707986578193452
-0.525793903924475,-0.0665156131918242
-0.525433618789888,-0.0579932859408594
-0.525157225616548,-0.0537540822215115
-0.524817359033336,-0.0495295710423171
-0.52441453928587,-0.0453197918553244
-0.523422121280652,-0.0369445872661356
-0.522833563514137,-0.0327792407680353
-0.520704738106395,-0.0203726978842874
-0.518988096867255,-0.0121766443243955
-0.518042109694347,-0.00810122840937566
-0.517038371813373,-0.004040939007037
-0.512456318121184,0.0120481644345454
-0.511171630384157,0.0160322294927581
-0.503939158096081,0.0357213173683258
-0.502334498637208,0.0396126112960044
-0.500678331417693,0.043488305286426
-0.497213554679212,0.0511927356473068
-0.483540817740246,0.0776610444357446
-0.481398186423338,0.0813785691909587
-0.474697663102069,0.0924347821897016
-0.470008658868624,0.099724895279301
-0.457539535545338,0.117665442117032
-0.452264166278146,0.124726938004611
-0.449566908354623,0.128232944672883
-0.446830628565307,0.131722404554748
-0.444055847155816,0.135195278198156
-0.426627758429852,0.155681999736341
-0.417436082089628,0.165698250670389
-0.41430489798742,0.169003092066598
-0.411140934966844,0.172290913251822
-0.407944713273517,0.175561674774015
-0.401457574851087,0.182051861021113
-0.394847644685082,0.188473335191508
-0.384711619215196,0.197976020892443
-0.381276056982142,0.201108884836655
-0.367263245884293,0.213465798778384
-0.363695003796517,0.216511194544798
-0.360101786474652,0.219538978319509
-0.356484114164318,0.222549110650468
-0.352842507111133,0.225541552085627
-0.349177485560716,0.22851626317294
-0.345489569758685,0.231473204460357
-0.3342936592991,0.240237015002757
-0.322910429417267,0.248839477072373
-0.311353926744892,0.257279525463909
-0.303560265576811,0.262815468543138
-0.200855012952427,0.172514688743567
-0.27578524830156,0.281614536517087
-0.369836672781176,0.399488155603519
-0.230919516104031,0.309317301885383
-0.122551098943185,0.210776267103017
-0.324907199571585,0.222505617525633
-0.310718344701853,0.217831847197307
-0.307452549020165,0.432248110960951
-0.0840456348474545,0.231292020089951
-0.298243690122838,0.438852578610205
-0.286221162259252,0.460063644400126
-0.164273590954699,0.345504104544682
-0.27539772361666,0.440421022525376
-0.0380836933960118,0.252164531098497
-0.12261943996561,0.365585116505968
-0.234403355639268,0.477386943032985
-0.114346835944402,0.369362831988782
-0.219367352665156,0.473490006962902
-0.191481078407403,0.274803609988312
0.0217367871141494,0.272181019924552
-0.188737369771702,0.278321209666107
0.0324446829214557,0.277033698239575
-0.0574870371915273,0.393542667759098
-0.0535179407592854,0.395116503471989
-0.164935971505841,0.513369987711677
0.0759224209390116,0.295513392600686
-0.153917853166905,0.301823509927556
-0.124919275071791,0.511351587296634
-0.090216787076387,0.30277478011714
-0.0936894399659723,0.537775843642049
0.0360187051259005,0.42660288105193
0.039454635908731,0.427648636165503
0.0462417077717143,0.429675198638813
0.0562025376252147,0.432552081183465
0.0783460091722158,0.438498798396148
0.0988071751634568,0.443362148875403
0.101582462898341,0.443967686087935
0.124765360125335,0.448403655384957
0.12713228949344,0.448783165839772
0.131734536421289,0.449473688311249
0.13830107360788,0.45033763414236
0.142448140063267,0.450798579171803
0.15017004412615,0.451443003697852
0.151978271032452,0.451546074373076
0.153736557803748,0.451625851961689
0.15710122995885,0.45171537007089
0.160259898626506,0.451711242409071
0.161760681038495,0.45167396278391
0.163208401841767,0.451613153359849
0.164602540790703,0.451528774684841
0.167227992143092,0.451289151773793
0.172817520879871,0.450274870961245
0.173764276151844,0.450000518004935
0.176963454134504,0.44866346846543
0.177613686625768,0.448269099391748
0.178203053824034,0.447850608738447
0.179941464774742,0.445934641288099
0.180218701823737,0.445394950955986
0.180664411387985,0.443629572400018
0.180338597944167,0.440932877143133
0.179385959617536,0.438651831992096
0.178930728723689,0.437842030586375
0.177810618284829,0.436148011529585
0.174717235925119,0.432461203777261
0.172735640074369,0.43046778384896
0.170458558489757,0.428373932397388
0.163445791547595,0.42269784462163
0.15644346271724,0.417700298300548
0.152466814472908,0.415048431828127
0.150357798533789,0.413684087181778
0.14354174050119,0.409436934177604
0.138584990843905,0.406476671766735
0.133293216785735,0.40341297947695
0.130520394992271,0.401842248497344
0.121687947606944,0.396974042795095
0.118570736991459,0.395299171799708
0.115366128556423,0.393598167170257
0.112073602056217,0.391870989454692
0.108692637245221,0.390117599200967
0.0980139104913088,0.384699758690347
0.0865205100980194,0.379044585062551
0.0783987100945895,0.375142091551618
0.0655163055652147,0.369088995605652
0.0108835416413355,0.344831390519218
-0.0179240716208059,0.332723565142289
-0.0239925288550985,0.330220206288584
-0.0558981014449136,0.317292273265814
-0.0833297179559094,0.306454193219633
-0.105037789744642,0.298034798249335
-0.127733776963782,0.289364932629889
-0.151431726245033,0.280443531155998
