-0.775441397976093,-0.391651509667422
-0.7689937908453,-0.384551586422483
-0.762585401411022,-0.377480284288102
-0.75621609806093,-0.370437688341868
-0.749885749182697,-0.363423883661372
-0.743594223163992,-0.356438955324204
-0.737341388392487,-0.349482988407955
-0.731127113255853,-0.342556067990214
-0.724951266141762,-0.335658279148572
-0.718813715437885,-0.32878970696062
-0.712714329531893,-0.321950436503947
-0.706652976811457,-0.315140552856144
-0.700629525664249,-0.308360141094802
-0.69464384447794,-0.30160928629751
-0.688695801640201,-0.294888073541859
-0.682785265538703,-0.288196587905439
-0.676912104561118,-0.28153491446584
-0.671076187095116,-0.274903138300653
-0.66527738152837,-0.268301344487469
-0.65951555624855,-0.261729618103876
-0.653790579643328,-0.255188044227467
-0.648102320100374,-0.24867670793583
-0.64245064600736,-0.242195694306556
-0.636835425751958,-0.235745088417236
-0.631256527721839,-0.22932497534546
-0.625713820304673,-0.222935440168819
-0.620207171888133,-0.216576567964901
-0.614736450859888,-0.210248443811298
-0.609301525607612,-0.203951152785601
-0.603902264518974,-0.197684779965399
-0.598538535981646,-0.191449410428282
-0.5932102083833,-0.185245129251842
-0.587917150111606,-0.179072021513667
-0.582659229554236,-0.17293017229135
-0.577436315098861,-0.166819666662479
-0.572248275133153,-0.160740589704646
-0.567094978044782,-0.15469302649544
-0.56197629222142,-0.148677062112451
-0.556892086050738,-0.142692781633271
-0.551842227920407,-0.136740270135489
-0.546826586218099,-0.130819612696696
-0.541845029331485,-0.124930894394482
-0.536897425648236,-0.119074200306438
-0.531983643556023,-0.113249615510152
-0.527103551442518,-0.107457225083217
-0.522257017695391,-0.101697114103222
-0.517443910702315,-0.0959693676477579
-0.51266409885096,-0.0902740707944143
-0.507917450528998,-0.0846113086207818
-0.503203834124099,-0.0789811662044507
-0.498523118023936,-0.0733837286230114
-0.493875170616179,-0.067819080954054
-0.489259860288499,-0.0622873082751691
-0.484677055428568,-0.0567884956639468
-0.480126624424058,-0.0513227281979774
-0.475608435662638,-0.0458900909548511
-0.471122357531982,-0.0404906690121586
-0.466668258419759,-0.0351245474474898
-0.462246006713641,-0.0297918113384351
-0.4578554708013,-0.024492545762585
-0.453496519070406,-0.0192268357975295
-0.449169019908631,-0.0139947665208593
-0.444872841703646,-0.00879642301016419
-0.440607852843122,-0.00363189034303484
-0.436373921714731,0.00149874640293853
-0.432170916706144,0.00659540215016564
-0.427998706205032,0.0116579918210562
-0.423857158599066,0.0166864303380199
-0.419746142275918,0.0216806326234664
-0.415665525623259,0.0266405135998055
-0.41161517702876,0.0315659881894467
-0.407594964880092,0.0364569713147999
-0.403604757564926,0.0413133778982747
-0.399644423470935,0.0461351228622808
-0.395713830985788,0.0509221211292279
-0.391812848497158,0.0556742876215258
-0.387941344392716,0.060391537261584
-0.384099187060132,0.0650737849718124
-0.380286244887078,0.0697209456746206
-0.376502386261226,0.0743329342924182
-0.372747479570246,0.0789096657476151
-0.36902139320181,0.0834510549626209
-0.36532399554359,0.0879570168598452
-0.361655154983255,0.0924274663616979
-0.358014739908478,0.0968623183905885
-0.35440261870693,0.101261487868927
-0.350818659766282,0.105624889719123
-0.347262731474205,0.109952438863585
-0.343734702218371,0.114244050224725
-0.340234440386451,0.118499638724951
-0.336761814366116,0.122719119286673
-0.333316692545037,0.126902406832301
-0.329898943310886,0.131049416284245
-0.326508435051333,0.135160062564914
-0.323145036154051,0.139234260596718
-0.31980861500671,0.143271925302067
-0.316499039996981,0.14727297160337
-0.313216179512537,0.151237314423037
-0.309959901941047,0.155164868683477
-0.306730075670184,0.159055549307102
-0.303526569087618,0.162909271216319
-0.300349250581021,0.166725949333539
-0.297197988538065,0.170505498581172
-0.294072651346419,0.174247833881627
-0.290973107393756,0.177952870157314
-0.287899225067747,0.181620522330643
-0.284850872756063,0.185250705324023
-0.281827918846375,0.188843334059864
-0.278830231726355,0.192398323460575
-0.275857679783674,0.195915588448567
-0.272910131406003,0.19939504394625
-0.269987454981013,0.202836604876032
-0.267089518896376,0.206240186160324
-0.264216191539762,0.209605702721534
-0.261367341298844,0.212933069482074
-0.258542836561292,0.216222201364353
-0.255742545714777,0.219473013290779
-0.252966337146972,0.222685420183764
-0.250214079245546,0.225859336965717
-0.247485640398172,0.228994678559046
-0.24478088899252,0.232091359886163
-0.242099693416262,0.235149295869477
-0.239441922057069,0.238168401431397
-0.236807443302613,0.241148591494334
-0.234196125540564,0.244089780980696
-0.231607837158594,0.246991884812894
-0.229042446544374,0.249854817913338
-0.226499822085575,0.252678495204436
-0.223979832169869,0.255462831608599
-0.221482345184926,0.258207742048236
-0.219007229518419,0.260913141445757
-0.216554353558018,0.263578944723573
-0.214123585691395,0.266205066804091
-0.21171479430622,0.268791422609723
-0.209327847790165,0.271337927062878
-0.206962614530902,0.273844495085965
-0.204618962916102,0.276311041601395
-0.202296761333435,0.278737481531576
-0.199995878170573,0.281123729798919
-0.197716181815188,0.283469701325834
-0.19545754065495,0.28577531103473
-0.193219823077531,0.288040473848016
-0.191002897470602,0.290265104688103
-0.188806632221834,0.2924491184774
-0.186630895718899,0.294592430138317
-0.184475556349468,0.296694954593263
-0.182340482501211,0.298756606764649
-0.180225542561801,0.300777301574883
-0.178130604918909,0.302756953946376
-0.176055537960206,0.304695478801538
-0.174000210073362,0.306592791062778
-0.17196448964605,0.308448805652505
-0.16994824506594,0.31026343749313
-0.167951344720705,0.312036601507062
-0.165973656998014,0.31376821261671
-0.164015050285539,0.315458185744485
-0.162075392970952,0.317106435812797
-0.160154553441924,0.318712877744054
-0.158252400086126,0.320277426460667
-0.15636880129123,0.321799996885046
-0.154503625444906,0.323280503939599
-0.152656740934825,0.324718862546737
-0.15082801614866,0.326114987628869
-0.149017319474081,0.327468794108406
-0.14722451929876,0.328780196907756
-0.145449484010367,0.33004911094933
-0.143692081996575,0.331275451155537
-0.141952181645054,0.332459132448787
-0.140229651343475,0.33360006975149
-0.13852435947951,0.334698177986055
-0.13683617444083,0.335753372074892
-0.135164964615107,0.33676556694041
-0.133510598390011,0.33773467750502
-0.131872944153214,0.338660618691131
-0.130251870292387,0.339543305421153
-0.128647245195201,0.340382652617495
-0.127058937249328,0.341178575202567
-0.125486814842439,0.34193098809878
-0.123930746362205,0.342639806228542
-0.122390600196297,0.343304944514263
-0.120866244732386,0.343926317878353
-0.119357548358145,0.344503841243222
-0.117864379461243,0.345037429531279
-0.116386606429353,0.345526997664934
-0.114924097650145,0.345972460566597
-0.113476721511291,0.346373733158677
-0.112044346400462,0.346730730363585
-0.11062684070533,0.347043367103729
-0.109224072813565,0.34731155830152
-0.107835911112839,0.347535218879368
-0.106462223990822,0.347714263759681
-0.105102879835188,0.347848607864869
-0.103757747033605,0.347938166117344
-0.102426693973747,0.347982853439513
-0.101109589043284,0.347982584753787
-0.0998063006298864,0.347937274982575
-0.0985166971212269,0.347846839048287
-0.0972406469049761,0.347711191873334
-0.0959780183688054,0.347530248380124
-0.094728679900386,0.347303923491067
-0.0934924998873892,0.347032132128573
-0.0922693467174861,0.346714789215051
-0.0910590887783482,0.346351809672912
-0.0898615944576465,0.345943108424565
-0.0886767321430524,0.34548860039242
-0.087504370222237,0.344988200498886
-0.0863443770828718,0.344441823666373
-0.0851966211126278,0.343849384817291
-0.0840609706991764,0.343210798874049
-0.0829372942301887,0.342525980759058
-0.0818254600933362,0.341794845394726
-0.0807253366762899,0.341017307703464
-0.0796367923667212,0.340193282607682
-0.0785596955523012,0.339322685029788
-0.0774939146207013,0.338405429892193
-0.0764393179595927,0.337441432117307
-0.0753957739566467,0.336430606627538
-0.0743631509995345,0.335372868345298
-0.0733413174759273,0.334268132192994
-0.0723301417734964,0.333116313093038
-0.0713294922799131,0.331917325967839
-0.0703392373828485,0.330671085739807
-0.0693592454699741,0.329377507331351
-0.0683893849289609,0.32803650566488
-0.0674295241474802,0.326647995662805
-0.0664795315132033,0.325211892247536
-0.0655392754138016,0.323728110341482
-0.064608624236946,0.322196564867052
-0.0636874463703081,0.320617170746657
-0.0627756102015589,0.318989842902707
-0.0618729841183698,0.31731449625761
-0.060979436508412,0.315591045733776
-0.0600948357593567,0.313819406253616
-0.0592190502588752,0.311999492739539
-0.0583519483946388,0.310131220113954
-0.0574933985543186,0.308214503299272
-0.056643269125586,0.306249257217901
-0.0558014284961122,0.304235396792253
-0.0549677450535684,0.302172836944736
-0.054142087185626,0.30006149259776
-0.0533243232799561,0.297901278673735
-0.0525143217242299,0.29569211009507
-0.0517119509061188,0.293433901784175
-0.050917079213294,0.291126568663461
-0.0501295750334268,0.288770025655336
-0.0493493067541883,0.286364187682211
-0.0485761427632499,0.283908969666494
-0.0478099514482827,0.281404286530596
-0.0470506011969582,0.278850053196927
-0.0462979603969473,0.276246184587895
-0.0455518974359216,0.273592595625912
-0.0448122807015521,0.270889201233386
-0.0440789785815102,0.268135916332727
-0.043351859463467,0.265332655846345
-0.042630791735094,0.26247933469665
-0.0419156437840621,0.259575867806051
-0.0412062839980429,0.256622170096958
-0.0405025807647074,0.25361815649178
-0.039804402471727,0.250563741912929
-0.0391116175067728,0.247458841282812
-0.0384240942575162,0.24430336952384
-0.0377417011116284,0.241097241558422
-0.0370643064567806,0.237840372308968
-0.0363917786806441,0.234532676697889
-0.0357239861708902,0.231174069647593
-0.03506079731519,0.22776446608049
-0.0344020805012149,0.22430378091899
-0.033747704116636,0.220791929085503
-0.0330975365491247,0.217228825502438
-0.0324514461863522,0.213614385092206
-0.0318093014159897,0.209948522777215
-0.0311709706257085,0.206231153479875
-0.0305363222031799,0.202462192122597
-0.029905224536075,0.19864155362779
-0.0292775460120651,0.194769152917863
-0.0286531550188216,0.190844904915226
-0.0280319199440156,0.186868724542289
-0.0274137091753183,0.182840526721462
-0.0267983911004011,0.178760226375154
-0.0261858341069352,0.174627738425776
-0.0255759065825918,0.170442977795736
-0.0249684769150422,0.166205859407444
-0.0243634134919577,0.161916298183311
-0.0237605847010094,0.157574209045745
-0.0231598589298687,0.153179506917157
-0.0225611045662067,0.148732106719956
-0.0219641899976948,0.144231923376552
-0.0213689836120041,0.139678871809355
-0.020775353796806,0.135072866940774
-0.0201831689397717,0.130413823693219
-0.0195922974285724,0.125701656989099
-0.0190026076508793,0.120936281750825
-0.0184139679943639,0.116117612900807
-0.0178262468466972,0.111245565361453
-0.0172393125955505,0.106320054055173
-0.0166530336285951,0.101340993904378
-0.0160672783335022,0.0963082998314766
-0.0154819150979431,0.0912218867588787
-0.0148968123095891,0.0860816696089944
-0.0143118383561113,0.0808875633042327
-0.0137268616251811,0.075639482767004
-0.0131417505044696,0.0703373429197174
-0.0125563733816482,0.0649810586847832
-0.011970598644388,0.0595705449846105
-0.0113842946803604,0.0541057167416095
-0.0107973298772366,0.0485864888781895
-0.0102095726226878,0.0430127763167606
-0.00962089130438521,0.0373844939797319
-0.00903115431000021,0.0317015567895139
-0.00844023002720396,0.0259638796685155
-0.00784798684366778,0.020171377539147
-0.00725429314706284,0.0143239653238177
-0.00665901732506045,0.00842155794493762
-0.00606202776533181,0.00246407032491611
-0.00546319285554823,-0.00354858261383664
-0.00486238098338089,-0.00961648594891168
-0.00425946053650112,-0.0157397247578984
-0.00365429990258008,-0.021918384118388
-0.0030467674692891,-0.02815254910797
-0.00243673162429937,-0.0344423048042354
-0.00182406075528219,-0.0407877362847739
-0.00120862324990876,-0.0471889286271762
-0.000590287495850383,-0.0536459669090323
3.10781192217457e-05,-0.0601589362079329
0.000655605207636323,-0.0667279216014678
0.00128342538172216,-0.0733530081672279
0.00191467025380793,-0.0800342809828028
0.00254947143622246,-0.0867718251257836
0.00318796054129445,-0.0935657256737597
0.00383026918135269,-0.100416067704322
0.00447652896872587,-0.107322936295061
0.00512687151574282,-0.114286416523567
0.00578142843473221,-0.121306593467429
0.00644033133802285,-0.128383552204239
0.00710371183794345,-0.135517377811586
0.0077717015468228,-0.142708155367062
0.00844443207698961,-0.149955969948255
0.00912203504077267,-0.157260906632757
0.00980464205050068,-0.164623050498158
0.0104923847185024,-0.172042486622048
0.0111853946571067,-0.179519300082017
0.0118838034786421,-0.187053575955656
0.0125877427954376,-0.194645399320555
0.0132973442198218,-0.202294855254304
0.0140127393641234,-0.210002028834494
0.0147340598406713,-0.217767005138715
0.0154614372617941,-0.225589869244557
0.0161950032398207,-0.23347070622961
0.0169348893870798,-0.241409601171466
0.0176812273159001,-0.249406639147713
0.0184341486386104,-0.257461905235943
0.0191937849675394,-0.265575484513746
0.0199602679150159,-0.273747462058712
0.0207337290933687,-0.281977922948431
0.0215143001149263,-0.290266952260493
0.0223021125920178,-0.29861463507249
0.0230972981369717,-0.307021056462011
0.0238999883621169,-0.315486301506647
0.024710314879782,-0.324010455283987
0.0255284093022959,-0.332593602871623
0.0263544032419873,-0.341235829347143
0.0271884283111849,-0.34993721978814
0.0280306161222174,-0.358697859272203
0.0288810982874138,-0.367517832876922
0.0297400064191026,-0.376397225679887
0.0306074721296126,-0.38533612275869
0.0314836270312726,-0.39433460919092
0.0323686027364114,-0.403392770054168
0.0332625308573576,-0.412510690426023
0.0341655430064401,-0.421688455384077
0.0350777707959875,-0.430926150005919
0.0359993458383288,-0.44022385936914
0.0369303997457924,-0.449581668551329
0.0378710641307074,-0.458999662630079
0.0388214706054022,-0.468477926682978
0.0397817507822059,-0.478016545787617
0.040752036273447,-0.487615605021586
0.0417324586914544,-0.497275189462476
0.0427231496485567,-0.506995384187877
0.0437242407570829,-0.516776274275379
0.0447358636293614,-0.526617944802572
0.0457581498777213,-0.536520480847047
0.0467912311144911,-0.546483967486394
0.0478352389519996,-0.556508489798204
0.0488903050025756,-0.566594132860067
0.0499565608785479,-0.576740981749573
0.0510341381922452,-0.586949121544311
0.0521231685559962,-0.597218637321874
0.0532237835821297,-0.60754961415985
0.0543361148829744,-0.617942137135831
0.0554602940708592,-0.628396291327406
0.0565964527581127,-0.638912161812166
0.0577447225570636,-0.6494898336677
0.0589052350800408,-0.660129391971601
0.060078121939373,-0.670830921801457
0.0612635147473889,-0.68159450823486
0.0624615451164173,-0.692420236349398
0.063672344658787,-0.703308191222663
0.0648960449868266,-0.714258457932245
0.0661327777128651,-0.725271121555735
