0.529143026929486,-0.601199304233909
0.531611083605197,-0.593690622425213
0.534002404273075,-0.586239078048866
0.536317464910078,-0.578844377615112
0.538556741493165,-0.571506227634196
0.540720709999298,-0.564224334616361
0.542809846405436,-0.556998405071852
0.544824626688537,-0.549828145510914
0.546765526825562,-0.54271326244379
0.548633022793472,-0.535653462380724
0.550427590569224,-0.528648451831962
0.552149706129779,-0.521697937307746
0.553799845452098,-0.514801625318323
0.555378484513139,-0.507959222373936
0.556886099289861,-0.501170434984828
0.558323165759226,-0.494434969661245
0.559690159898192,-0.48775253291343
0.56098755768372,-0.481122831251629
0.562215835092769,-0.474545571186085
0.563375468102298,-0.468020459227042
0.564466932689268,-0.461547201884745
0.565490704830637,-0.455125505669438
0.566447260503367,-0.448755077091365
0.567337075684416,-0.442435622660771
0.568160626350744,-0.436166848887899
0.568918388479312,-0.429948462282995
0.569610838047077,-0.423780169356302
0.570238451031001,-0.417661676618065
0.570801703408044,-0.411592690578528
0.571301071155164,-0.405572917747935
0.571737030249321,-0.399602064636531
0.572110056667475,-0.393679837754559
0.572420626386587,-0.387805943612264
0.572669215383614,-0.381980088719891
0.572856299635518,-0.376201979587683
0.572982355119258,-0.370471322725886
0.573047857811794,-0.364787824644742
0.573053283690085,-0.359151191854497
0.572999108731091,-0.353561130865394
0.572885808911772,-0.348017348187678
0.572713860209088,-0.342519550331594
0.572483738599997,-0.337067443807385
0.57219592006146,-0.331660735125296
0.571850880570438,-0.326299130795571
0.571449096103888,-0.320982337328454
0.570991042638771,-0.31571006123419
0.570477196152047,-0.310482009023022
0.569908032620676,-0.305297887205196
0.569284028021616,-0.300157402290955
0.568605658331829,-0.295060260790544
0.567873399528272,-0.290006169214207
0.567087727587907,-0.284994834072188
0.566249118487693,-0.280025961874732
0.56535804820459,-0.275099259132083
0.564414992715557,-0.270214432354484
0.563420427997554,-0.265371188052181
0.562374830027541,-0.260569232735417
0.561278674782477,-0.255808272914438
0.560132438239322,-0.251088015099486
0.558936596375037,-0.246408165800807
0.557691625166579,-0.241768431528645
0.55639800059091,-0.237168518793244
0.555056198624989,-0.232608134104847
0.553666695245776,-0.228086983973701
0.55222996643023,-0.223604774910048
0.550746488155311,-0.219161213424133
0.549216736397979,-0.214756006026201
0.547641187135194,-0.210388859226495
0.546020316343914,-0.20605947953526
0.544354600001101,-0.20176757346274
0.542644514083713,-0.19751284751918
0.54089053456871,-0.193295008214824
0.539093137433053,-0.189113762059915
0.5372527986537,-0.184968815564699
0.535369994207611,-0.180859875239419
0.533445200071747,-0.17678664759432
0.531478892223067,-0.172748839139646
0.52947154663853,-0.168746156385641
0.527423639295096,-0.16477830584255
0.525335646169725,-0.160844994020617
0.523208043239377,-0.156945927430087
0.521041306481011,-0.153080812581202
0.518835911871588,-0.149249355984208
0.516592335388066,-0.14545126414935
0.514311053007405,-0.14168624358687
0.511992540706566,-0.137954000807014
0.509637274462507,-0.134254242320026
0.507245730252189,-0.13058667463615
0.504818384052572,-0.126951004265631
0.502355711840614,-0.123346937718712
0.499858189593276,-0.119774181505638
0.497326293287518,-0.116232442136653
0.494760498900298,-0.112721426122001
0.492161282408578,-0.109240839971928
0.489529119789315,-0.105790390196676
0.486864487019471,-0.102369783306491
0.484167860076006,-0.0989787258116157
0.481439714935877,-0.0956169242222957
0.478680527576046,-0.0922840850487748
0.475890773973472,-0.0889799148012972
0.473070930105115,-0.0857041199901073
0.470221471947934,-0.0824564071254492
0.467342875478889,-0.0792364827175675
0.46443561667494,-0.0760440532767061
0.461500171513047,-0.0728788253131095
0.458537015970169,-0.069740505337022
0.455546626023265,-0.0666287998586877
0.452529477649297,-0.0635434153883509
0.449486046825223,-0.060484058436256
0.446416809528003,-0.0574504355126473
0.443322241734597,-0.0544422531277688
0.440202819421964,-0.0514592177918651
0.437059018567064,-0.0485010360151802
0.433891315146857,-0.0455674143079586
0.430700185138303,-0.0426580591804445
0.427486104518361,-0.039772677142882
0.424249549263992,-0.0369109747055156
0.420990995352153,-0.0340726583785896
0.417710918759807,-0.0312574346723481
0.414409795463911,-0.0284650100970354
0.411088101441426,-0.0256950911628959
0.407746312669312,-0.0229473843801737
0.404384905124528,-0.0202215962591133
0.401004354784034,-0.0175174333099587
0.397605137624789,-0.0148346020429544
0.394187729623754,-0.0121728089683446
0.390752606757888,-0.00953176059637344
0.38730024500415,-0.00691116343728536
0.383831120339502,-0.00431072400132464
0.380345708740901,-0.00173014879873548
0.376844486185308,0.000830855660237842
0.373327928649682,0.00337258286535107
0.369796512110984,0.00589532630635985
0.366250712546173,0.00839937947301998
0.362691005932209,0.0108850358550871
0.35911786824605,0.0133525889423171
0.355531775464659,0.0158023322244656
0.351933203564993,0.0182345591912882
0.348322628524012,0.0206495633325409
0.344700526318676,0.0230476381379792
0.341067372925945,0.0254290770973589
0.33742364432278,0.0277941737004358
0.333769816486138,0.0301432214369655
0.33010636539298,0.0324765137967038
0.326433767020266,0.0347943442694065
0.322752497344956,0.0370970063448292
0.319063032344008,0.0393847935127276
0.315365847994383,0.0416579992628576
0.311661420273041,0.0439169170849747
0.307950225156942,0.0461618404688348
0.304232738623044,0.0483930629041937
0.300509436648307,0.0506108778808069
0.296780795209693,0.0528155788884302
0.293047290284159,0.0550074594168194
0.289309397848666,0.0571868129557301
0.285567593880173,0.0593539329949182
0.281822354355641,0.0615091130241393
0.278074155252028,0.0636526465331491
0.274323472546295,0.0657848270117035
0.270570782215401,0.067905947949558
0.266816560236307,0.0700163028364685
0.263061282585971,0.0721161851621907
0.259305425241353,0.0742058884164802
0.255549464179413,0.0762857060890929
0.251793875377112,0.0783559316697844
0.248039134811408,0.0804168586483105
0.244285718459261,0.0824687805144269
0.24053410229763,0.0845119907578893
0.236784762303477,0.0865467828684534
0.23303817445376,0.0885734503358751
0.229294814725439,0.0905922866499099
0.225555159095473,0.0926035853003137
0.221819683540823,0.0946076397768421
0.218088864038449,0.0966047435692509
0.214363176565309,0.0985951901672958
0.210643097098363,0.100579273060733
0.206929101614572,0.102557285739317
0.203221666090895,0.104529521692804
0.199521266504291,0.106496274410951
0.195828378831721,0.108457837383512
0.192143479050144,0.110414504100244
0.18846704313652,0.112366568050902
0.184799547067808,0.114314322725242
0.181141466820968,0.11625806161302
0.17749327837296,0.118198078203991
0.173855457700744,0.120134665987911
0.170228480781279,0.122068118454536
0.166612823591525,0.123998729093621
0.163008962108442,0.125926791394923
0.159417372308989,0.127852598848196
0.155838530170126,0.129776444943198
0.152272911668814,0.131698623169683
0.14872099278201,0.133619427017407
0.145183249486676,0.135539149976126
0.141660157759771,0.137458085535596
0.138152193578254,0.139376527185571
0.134659832919086,0.14129476841581
0.131183551759226,0.143213102716065
0.127723826075634,0.145131823576095
0.124281131845269,0.147051224485654
0.120855945045091,0.148971598934497
0.11744874165206,0.150893240412382
0.114059997643135,0.152816442409063
0.110690188995277,0.154741498414296
0.107339791685445,0.156668701917837
0.104009281690599,0.158598346409441
0.100699134987698,0.160530725378865
0.0974098275537016,0.162466132315864
0.0941418353655704,0.164404860710194
0.0908956344002636,0.16634720405161
0.0876717006347412,0.168293455829869
0.0844705100459625,0.170243909534726
0.0812925386108875,0.172198858655936
0.0781382623064757,0.174158596683256
0.0750081571096871,0.176123417106441
0.0719026989974811,0.178093613415246
0.0688223639468176,0.180069479099429
0.0657676279346561,0.182051307648744
0.0627389669379566,0.184039392552946
0.0597368569336785,0.186034027301793
0.0567617738987817,0.188035505385039
0.0538141938102258,0.190044120292441
0.0508945926449707,0.192060165513753
0.0480034463799757,0.194083934538732
0.045141230992201,0.196115720857134
0.0423084224586059,0.198155817958713
0.0395054967561503,0.200204519333227
0.0367329298617939,0.20226211847043
0.0339911977524964,0.204328908860079
0.0312807764052174,0.206405183991928
0.0286021417969167,0.208491237355734
0.025955769904554,0.210587362441253
0.0233421367050891,0.21269385273824
0.0207617181754814,0.214811001736452
0.0182149902926909,0.216939102925642
0.0157024290336772,0.219078449795569
0.0132245103754001,0.221229335835986
0.010781710294819,0.22339205453665
0.00837450476889405,0.225566899387317
0.00600336977458456,0.227754163877742
0.00366878128885045,0.229954141497681
0.00137121528865131,0.23216712573689
-0.000888852249052982,0.234393410085125
-0.00311094534730294,0.23663328803214
-0.00529458802913867,0.238887053067693
-0.00743930431760063,0.241154998681538
-0.00954461823572898,0.243437418363432
-0.0116100538065641,0.24573460560313
-0.0136351350531462,0.248046853890388
-0.0156193859985157,0.250374456714961
-0.0175623306657128,0.252717707566606
-0.019463493077778,0.255076899935077
-0.0213223972577512,0.257452327310132
-0.0231385672286731,0.259844283181525
-0.0249115270135836,0.262253061039012
-0.0266408006355234,0.264678954372349
-0.0283259121175324,0.267122256671292
-0.0299663854826513,0.269583261425596
-0.0315617447539201,0.272062262125018
-0.0331115139543792,0.274559552259312
-0.0346152171070689,0.277075425318235
-0.0360723782350296,0.279610174791542
-0.0374825213613014,0.282164094168989
-0.0388451705089246,0.284737476940332
-0.0401598497009396,0.287330616595326
-0.0414260829603868,0.289943806623728
-0.0426433943103062,0.292577340515292
-0.0438113077737383,0.295231511759775
-0.0449293473737234,0.297906613846933
-0.0459970371333017,0.300602940266521
-0.0470139010755136,0.303320784508294
-0.0479794632233993,0.306060440062009
-0.0488932475999992,0.308822200417422
-0.0497547782283535,0.311606359064287
-0.0505635791315025,0.314413209492361
-0.0513191743324865,0.3172430451914
-0.0520210878543459,0.320096159651159
-0.0526688437201209,0.322972846361394
-0.0532619659528518,0.32587339881186
-0.0537999785755789,0.328798110492314
-0.0542824056113425,0.331747274892511
-0.0547087710831829,0.334721185502206
-0.0550785990141404,0.337720135811157
-0.0553914134272553,0.340744419309117
-0.0556467383455679,0.343794329485844
-0.0558440977921185,0.346870159831092
-0.0559830157899473,0.349972203834618
-0.0560630163620947,0.353100754986177
-0.0560836235316011,0.356256106775525
-0.0560443613215065,0.359438552692418
-0.0559447537548514,0.362648386226611
-0.0557843248546761,0.36588590086786
-0.0555625986440209,0.369151390105921
-0.055279099145926,0.372445147430549
-0.0549333503834317,0.375767466331501
-0.0545248763795784,0.379118640298532
-0.0540532011574063,0.382498962821397
-0.0535178487399557,0.385908727389853
-0.052918343150267,0.389348227493655
-0.0522542084113803,0.392817756622559
-0.0515249685463362,0.396317608266321
-0.0507301475781747,0.399848075914696
-0.0498692695299363,0.40340945305744
-0.0489418584246611,0.407002033184309
-0.0479474382853895,0.410626109785058
-0.0468855331351619,0.414281976349444
-0.0457556669970185,0.417969926367222
-0.0445573638939994,0.421690253328147
-0.0432901478491453,0.425443250721976
-0.0419535428854962,0.429229212038464
-0.0405470730260924,0.433048430767367
-0.0390702622939744,0.436901200398441
-0.0375226347121824,0.440787814421441
-0.0359037143037565,0.444708566326123
-0.0342130250917373,0.448663749602243
-0.0324500910991648,0.452653657739556
-0.0306144363490796,0.456678584227818
-0.0287055848645217,0.460738822556786
-0.0267230606685318,0.464834666216214
-0.0246663877841497,0.468966408695859
-0.022535090234416,0.473134343485476
-0.0203286920423709,0.477338764074821
-0.0180467172310549,0.481579963953649
-0.0156886898235079,0.485858236611717
-0.0132541338427705,0.49017387553878
-0.0107425733118829,0.494527174224594
-0.00815353225388549,0.498918426158914
-0.00548653469181834,0.503347924831496
-0.0027411046487221,0.507815963732097
8.32338523633555e-05,0.512322836350471
0.00298695678839738,0.516868836176374
0.0059705401363399,0.521454256699563
0.00903445987315044,0.526079391409793
0.0121791919757889,0.530744533796819
0.0154052124212148,0.535449977350397
0.0187129971863881,0.540196015560284
0.0221030222482681,0.544982941916234
0.025575763583815,0.549811049908005
0.0291316971699879,0.554680633025349
0.0327712989837472,0.559591984758026
0.036495045002052,0.564545398595788
0.0403034112018624,0.569541168028394
0.0441968735601378,0.574579586545597
0.0481759080538383,0.579660947637154
0.0522409906599231,0.584785544792821
0.0563925973553524,0.589953671502353
0.0606312041170855,0.595165621255506
0.0649572869220825,0.600421687542036
0.0693713217473026,0.605722163851699
0.073873784569706,0.61106734367425
0.0784651513662521,0.616457520499444
0.0831458981139007,0.621892987817039
0.0879165007896115,0.627374039116788
0.0927774353703444,0.632900967888449
0.0977291778330586,0.638474067621777
0.102772204154714,0.644093631806527
0.107906990312271,0.649759953932456
0.113134012282688,0.655473327489319
0.118453746042926,0.661234045966871
0.123866667569944,0.667042402854869
0.129373252840702,0.672898691643068
0.134973977832159,0.678803205821225
0.140669318521276,0.684756238879093
0.146459750885011,0.690758084306431
0.152345750900325,0.696809035592992
0.158327794544178,0.702909386228533
0.164406357793529,0.70905942970281
0.170581916625337,0.715259459505578
0.176854947016563,0.721509769126593
0.183225924944166,0.727810652055611
0.189695326385106,0.734162401782388
0.196263627316342,0.740565311796678
0.202931303714835,0.747019675588239
0.209698831557544,0.753525786646825
0.216566686821428,0.760083938462193
0.223535345483448,0.766694424524097
0.230605283520563,0.773357538322295
0.237776976909733,0.780073573346541
0.245050901627917,0.786842823086591
0.252427533652075,0.793665581032202
0.259907348959168,0.800542140673128
0.267490823526154,0.807472795499126
0.275178433329993,0.814457838999951
0.282970654347645,0.821497564665359
0.29086796255607,0.828592265985105
0.298870833932228,0.835742236448946
0.306979744453078,0.842947769546637
0.315195170095579,0.850209158767934
0.323517586836692,0.857526697602592
0.331947470653377,0.864900679540368
0.340485297522592,0.872331398071016
0.349131543421298,0.879819146684294
0.357886684326454,0.887364218869955
0.366751196215021,0.894966908117757
0.375725555063957,0.902627507917455
0.384810236850223,0.910346311758805
0.394005717550778,0.918123613131562
0.403312473142582,0.925959705525482
0.412730979602594,0.933854882430321
0.422261712907775,0.941809437335835
