-0.762810131461935,-0.211077616897782
-0.710844827174644,-0.178806813883936
-0.660164102417188,-0.1474086667252
-0.610752317176304,-0.116874402722275
-0.562593831438731,-0.0871952491758667
-0.515673005191207,-0.058362433386676
-0.469974198420469,-0.0303671826554061
-0.425481771113255,-0.00320072428275978
-0.382180083256303,0.0231457144305601
-0.340053494836352,0.0486809061838509
-0.299086365840138,0.0734136236764097
-0.2592630562544,0.0973526396075338
-0.220567926065875,0.12050672667652
-0.182985335261302,0.142884657582667
-0.146499643827418,0.16449520502527
-0.111095211750962,0.185347141703627
-0.0767563990186703,0.205449240317036
-0.0434675656172819,0.224810273564794
-0.0112130715335343,0.243439014146197
0.0200227232458345,0.261344234760544
0.0502554587340867,0.27853470810713
0.0795007749444844,0.295019206885255
0.10777431189029,0.310806503794213
0.135091709584765,0.325905371533304
0.161468608041172,0.340324582801824
0.186920647272773,0.354072910299071
0.21146346729283,0.367159126724341
0.235112708114605,0.379592004776932
0.257884009751361,0.391380317156141
0.279793012216359,0.402532836561265
0.300855355522862,0.413058335691602
0.321086679684131,0.422965587246449
0.34050262471343,0.432263363925102
0.359118830624019,0.44096043842686
0.376950937429161,0.449065583451019
0.394014585142119,0.456587571696876
0.410325413776154,0.46353517586373
0.425899063344529,0.469917168650877
0.440751173860505,0.475742322757614
0.454897385337345,0.481019410883238
0.468353337788311,0.485757205727047
0.481134671226664,0.489964479988338
0.493257025665668,0.493650006366409
0.504736041118584,0.496822557560555
0.515587357598675,0.499490906270076
0.525826615119201,0.501663825194267
0.535469453693427,0.503350087032426
0.544531513334613,0.504558464483851
0.553028434056022,0.505297730247838
0.560975855870916,0.505576657023685
0.568389418792557,0.505404017510689
0.577290571421325,0.497833492593705
0.581677528009129,0.503739130415356
0.553671325762638,0.488822462303084
0.593017881811834,0.500373250556218
0.619334920255841,0.535564887091954
0.608487254032728,0.505861658306157
0.61109061806278,0.468170832512107
0.610355803600035,0.488819238924036
0.612056162610688,0.522720634597954
0.733831245619177,0.5583011051695
0.507741287064669,0.578914408970268
0.518179620080074,0.579945123272684
0.518071380578366,0.571639946398143
0.717310596125498,0.562410565486825
0.637238569480076,0.460627296143729
0.62716386687831,0.44838729264663
0.741810890876469,0.529123573121066
0.496650811154865,0.327776533810619
0.52211232234125,0.520803688982078
0.645275516651721,0.441435203793901
0.660259079367914,0.402402894089888
0.534537896700652,0.542895418951472
0.701562088878996,0.296817230996506
0.523912802859182,0.272759939805344
0.74306708302417,0.475443137245871
0.532235627624877,0.502165406733574
0.513914279264982,0.264429228172091
0.609400082560418,0.359828844240134
0.73206247550472,0.224289698608734
0.518040013485997,0.23385970022267
0.591047105094047,0.3685638726776
0.617335776008078,0.313948385180267
0.615906042892424,0.303795542441193
0.729246164380868,0.407898471781321
0.494560425659555,0.16779667692974
0.707387074009587,0.174585111458152
0.719474360762109,0.359874324792163
0.714522666988206,0.146115650426766
0.510129751769745,0.13619205921583
0.702908263590329,0.324001518871986
0.605706395156945,0.217791104811014
0.604820816537661,0.206574428632003
0.604073899595396,0.195283412233929
0.603481284343411,0.183926828316089
0.603058610794968,0.172513449577782
0.602821518963331,0.161052048718303
0.60278564886176,0.149551398436951
0.602966640503518,0.138020271433023
0.603380133901868,0.126467440405816
