-0.325157136710402,0.0527287820182689
-0.315526919619066,0.0554674067216521
-0.3060080621959,0.0582081635282891
-0.296600093506782,0.0609509918014142
-0.287302542617587,0.063695830904262
-0.278114938594194,0.0664426202000671
-0.269036810502477,0.0691912990520639
-0.260067687408315,0.0719418068234869
-0.251207098377582,0.0746940828775707
-0.242454572476157,0.0774480665775499
-0.233809638769916,0.0802036972866587
-0.225271826324734,0.0829609143681319
-0.21684066420649,0.0857196571852039
-0.208515681481059,0.0884798651011092
-0.200296407214318,0.0912414774790823
-0.192182370472143,0.0940044336823578
-0.184173100320412,0.0967686730741701
-0.176268125825001,0.0995341350177538
-0.168466976051786,0.102300758876343
-0.160769180066643,0.105068484013173
-0.153174266935451,0.107837249791478
-0.145681765724084,0.110606995574493
-0.138291205498421,0.113377660725451
-0.131002115324336,0.116149184607587
-0.123814024267708,0.118921506584137
-0.116726461394412,0.121694566018334
-0.109738955770325,0.124468302273413
-0.102851036461324,0.127242654712608
-0.0960622325332858,0.130017562699155
-0.0893720730520861,0.132792965596287
-0.0827800870836018,0.135568802767239
-0.0762858036937096,0.138345013575245
-0.0698887519482862,0.141121537383541
-0.0635884609132081,0.14389831355536
-0.0573844596543518,0.146675281453937
-0.051276277237594,0.149452380442507
-0.0452634427288114,0.152229549884304
-0.0393454851938804,0.155006729142562
-0.0335219336986776,0.157783857580517
-0.0277923173090797,0.160560874561402
-0.0221561650909633,0.163337719448452
-0.0166130061102049,0.166114331604902
-0.0111623694326812,0.168890650393986
-0.0058037841242686,0.171666615178939
-0.000536779250843958,0.174442165322995
0.00463911612171625,0.177217240189389
0.00972437292753555,0.179991779141355
0.0147194621007371,0.182765721542127
0.0196248545754445,0.185539006754941
0.0244410212857811,0.18831157414303
0.0291684331658703,0.19108336306963
0.0338075611498355,0.193854312897974
0.0383588761718001,0.196624362991298
0.0428228491658876,0.199393452712836
0.0471999510662212,0.202161521425822
0.0514906528069245,0.20492850849349
0.0556954253221208,0.207694353279076
0.0598147395459336,0.210458995145814
0.0638490664124862,0.213222373456938
0.067798876855902,0.215984427575683
0.0716646418103045,0.218745096865283
0.0754468322098171,0.221504320688974
0.0791459189885632,0.224262038409988
0.0827623730806661,0.227018189391562
0.0862966654202493,0.229772712996928
0.0897492669414362,0.232525548589323
0.0931206485783501,0.23527663553198
0.0964112812651146,0.238025913188135
0.099621635935853,0.24077332092102
0.102752183524689,0.243518798093872
0.105803394965745,0.246262284069924
0.108775741193146,0.249003718212411
0.111669693141014,0.251743039884568
0.114485721743473,0.254480188449628
0.117224297934646,0.257215103270827
0.119885892648657,0.259947723711399
0.122470976819629,0.262677989134579
0.124980021381686,0.265405838903601
0.12741349726895,0.268131212381699
0.129771875415546,0.270854048932108
0.132055626755597,0.273574287918063
0.134265222223226,0.276291868702798
0.136401132752557,0.279006730649548
0.138463829277712,0.281718813121547
0.140453782732816,0.284428055482029
0.142371464051992,0.28713439709423
0.144217344169363,0.289837777321383
0.145991894019053,0.292538135526723
0.147695584535184,0.295235411073485
0.149328886651881,0.297929543324904
0.150892271303267,0.300620471644213
0.152386209423465,0.303308135394647
0.153811171946599,0.305992473939441
0.155167629806791,0.308673426641829
0.156456053938167,0.311350932865046
0.157676915274848,0.314024931972326
0.158830684750958,0.316695363326904
0.159917833300621,0.319362166292014
0.16093883185796,0.322025280230891
0.161894151357098,0.32468464450677
0.16278426273216,0.327340198482884
0.163609636917267,0.329991881522469
0.164370744846545,0.332639632988758
0.165068057454115,0.335283392244987
0.165702045674102,0.337923098654389
0.166273180440629,0.3405586915802
0.166781932687819,0.343190110385654
0.167228773349796,0.345817294433985
0.167614173360683,0.348440183088428
0.167938603654603,0.351058715712218
0.168202535165681,0.353672831668589
0.168406438828039,0.356282470320774
0.1685507855758,0.35888757103201
0.168636046343089,0.361488073165531
0.168662692064028,0.36408391608457
0.168631193672741,0.366675039152363
0.168542022103352,0.369261381732144
0.168395648289983,0.371842883187147
0.168192543166759,0.374419482880608
0.167933177667802,0.37699112017576
0.167618022727236,0.379557734435838
0.167247549279185,0.382119265024076
0.166822228257771,0.38467565130371
0.166342530597118,0.387226832637973
0.165808927231351,0.389772748390101
0.165221889094591,0.392313337923327
0.164581887120962,0.394848540600885
0.163889392244589,0.397378295786012
0.163144875399593,0.399902542841941
0.1623488075201,0.402421221131907
0.161501659540231,0.404934270019143
0.160603902394111,0.407441628866885
0.159656007015862,0.409943237038368
0.158658444339609,0.412439033896825
0.157611685299475,0.414928958805492
0.156516200829582,0.417412951127602
0.155372461864056,0.41989095022639
0.154180939337018,0.422362895465091
0.152942104182592,0.42482872620694
0.151656427334902,0.42728838181517
0.150324379728071,0.429741801653016
0.148946432296223,0.432188925083714
0.14752305597348,0.434629691470496
0.146054721693967,0.437064040176599
0.144541900391807,0.439491910565255
0.142985063001122,0.441913241999701
0.141384680456038,0.44432797384317
0.139741223690676,0.446736045458896
0.13805516363916,0.449137396210115
0.136326971235615,0.451531965460062
0.134557117414162,0.453919692571969
0.132746073108926,0.456300516909072
0.13089430925403,0.458674377834606
0.129002296783597,0.461041214711805
0.127070506631752,0.463400966903903
0.125099409732616,0.465753573774135
0.123089477020314,0.468098974685735
0.121041179428969,0.470437109001939
0.118954987892704,0.47276791608598
0.116831373345643,0.475091335301093
0.114670806721909,0.477407306010512
0.112473758955626,0.479715767577473
0.110240700980917,0.482016659365209
0.107972103731906,0.484309920736955
0.105668438142715,0.486595491055945
0.103330175147469,0.488873309685415
0.10095778568029,0.491143315988598
0.0985517406753018,0.49340544932873
0.0961125110666285,0.495659649069044
0.093640567788393,0.497905854572775
0.0911363817747188,0.500144005203158
0.0886004239597293,0.502374040323426
0.0860331652775478,0.504595899296816
0.0834350766622979,0.506809521486561
0.0808066290481027,0.509014846255895
0.0781482933690859,0.511211812968053
0.0754605405593709,0.513400360986271
0.0727438415530809,0.515580429673781
0.0699986672843395,0.517751958393819
0.0672254886872699,0.51991488650962
0.0644247766959957,0.522069153384417
0.0615970022446402,0.524214698381445
0.0587426362673269,0.526351460863939
0.055862149698179,0.528479380195134
0.0529560134713202,0.530598395738263
0.0500246985208737,0.532708446856561
0.0470686757809629,0.534809472913264
0.0440884161857113,0.536901413271604
0.0410843906692424,0.538984207294818
0.0380570701656794,0.541057794346139
0.0350069256091457,0.543122113788801
0.0319344279337648,0.54517710498604
0.0288400480736602,0.54722270730109
0.0257242569629551,0.549258860097186
0.022587525535773,0.551285502737561
0.0194303247262373,0.55330257458545
0.0162531254684715,0.555310015004089
0.0130563986965989,0.557307763356711
0.00984061534474287,0.559295759006551
0.00660624634702688,0.561273941316843
0.00335376263757438,0.563242249650822
8.36351505085764e-05,0.565200623371723
-0.00320366518004679,0.56714900184278
-0.00650766741996864,0.569087324427228
-0.00982790063513328,0.5710155304883
-0.0131638938914176,0.572933559389232
-0.0165151762546979,0.574841350493258
-0.0198812767908511,0.576738843163612
-0.0232617245657535,0.57862597676353
-0.0266560486452819,0.580502690656245
-0.0300637780953127,0.582368924204992
-0.0334844419817228,0.584224616773006
-0.0369175693703883,0.586069707723521
-0.0403626893271863,0.587904136419771
-0.0438193309179931,0.589727842224992
-0.0472870232086855,0.591540764502417
-0.0507652952651398,0.593342842615282
-0.0542536761532329,0.59513401592682
-0.0577516949388411,0.596914223800266
-0.0612588806878414,0.598683405598855
-0.0647747624661099,0.600441500685821
-0.0682988693395237,0.602188448424399
-0.0718307303739589,0.603924188177823
-0.0753698746352925,0.605648659309328
-0.0789158311894008,0.607361801182148
-0.0824681291021606,0.609063553159518
-0.0860262974394484,0.610753854604672
-0.0895898652671409,0.612432644880845
-0.0931583616511145,0.614099863351272
-0.096731315657246,0.615755449379185
-0.100308256351412,0.617399342327822
-0.103888712799489,0.619031481560415
-0.107472214067353,0.6206518064402
-0.111058289220882,0.62226025633041
-0.114646467325951,0.623856770594281
-0.118236277448438,0.625441288595046
-0.121827248654218,0.627013749695941
-0.12541891000917,0.6285740932602
-0.129010790579168,0.630122258651057
-0.13260241943009,0.631658185231748
-0.136193325627813,0.633181812365505
-0.139783038238212,0.634693079415565
-0.143371086327165,0.636191925745161
-0.146956998960548,0.637678290717528
-0.150540305204238,0.6391521136959
-0.154120534124111,0.640613334043513
-0.157697214786044,0.6420618911236
-0.161269876255913,0.643497724299396
-0.164838047599596,0.644920772934135
-0.168401257882968,0.646330976391053
-0.171959036171907,0.647728274033383
-0.175510911532288,0.64911260522436
-0.179056413029989,0.650483909327219
-0.182595069730886,0.651842125705194
-0.186126410700856,0.653187193721519
-0.189649965005775,0.654519052739429
-0.19316526171152,0.655837642122159
-0.196671829883967,0.657142901232944
-0.200169198588993,0.658434769435017
-0.203656896892475,0.659713186091613
-0.207134453860289,0.660978090565966
-0.210601398558312,0.662229422221312
-0.21405726005242,0.663467120420885
-0.217501567408491,0.664691124527918
-0.2209338496924,0.665901373905648
-0.224353635970024,0.667097807917308
-0.22776045530724,0.668280365926132
-0.231153836769924,0.669448987295356
-0.234533309423953,0.670603611388213
-0.237898402335204,0.671744177567939
-0.241248644569553,0.672870625197767
-0.244583565192877,0.673982893640933
-0.247902693271053,0.67508092226067
-0.251205557869956,0.676164650420214
-0.254491688055464,0.677234017482799
-0.257760612893452,0.678288962811659
-0.261011861449799,0.679329425770028
-0.26424496279038,0.680355345721143
-0.267459445981072,0.681366662028235
-0.270654840087751,0.682363314054542
-0.273830674176295,0.683345241163296
-0.276986477312579,0.684312382717733
-0.28012177856248,0.685264678081087
-0.283236106991876,0.686202066616592
-0.286328991666642,0.687124487687483
-0.289399961652655,0.688031880656994
-0.292448546015792,0.688924184888361
-0.295474273821929,0.689801339744817
-0.298476674136942,0.690663284589596
-0.30145527602671,0.691509958785935
-0.304409608557107,0.692341301697066
-0.307339200794011,0.693157252686225
-0.310243581803298,0.693957751116646
-0.313122280650846,0.694742736351563
-0.315974826402529,0.695512147754212
-0.318800748124226,0.696265924687826
-0.321599574881812,0.69700400651564
-0.324370835741164,0.697726332600889
-0.32711405976816,0.698432842306807
-0.329828776028674,0.699123474996628
-0.332514513588585,0.699798170033588
-0.335170801513768,0.70045686678092
-0.337797168870101,0.701099504601859
-0.340393144723459,0.70172602285964
-0.34295825813972,0.702336360917498
-0.345492038184759,0.702930458138665
-0.347994013924455,0.703508253886378
-0.350463714424682,0.704069687523871
-0.352900668751318,0.704614698414378
-0.355304405970239,0.705143225921134
-0.357674455147323,0.705655209407373
-0.360010345348445,0.706150588236329
-0.362311605639482,0.706629301771238
-0.364577765086311,0.707091289375334
-0.366808352754808,0.707536490411851
-0.36900289771085,0.707964844244024
-0.371160929020314,0.708376290235087
-0.373281975749076,0.708770767748275
-0.375365566963012,0.709148216146822
-0.377411231728,0.709508574793963
-0.379418499109915,0.709851783052932
-0.381386898174635,0.710177780286965
-0.383315957988037,0.710486505859294
-0.385205207615995,0.710777899133156
-0.387054176124389,0.711051899471784
-0.388862392579093,0.711308446238412
-0.390629386045984,0.711547478796277
-0.39235468559094,0.711768936508611
-0.394037820279836,0.71197275873865
-0.395678319178549,0.712158884849627
-0.397275711352956,0.712327254204778
-0.398829525868934,0.712477806167337
-0.400339291792359,0.712610480100539
-0.401804538189107,0.712725215367617
-0.403224794125056,0.712821951331807
-0.404599588666081,0.712900627356344
-0.40592845087806,0.71296118280446
-0.407210909826869,0.713003557039392
-0.408446494578384,0.713027689424373
-0.409634734198483,0.713033519322638
-0.410775157753041,0.713020986097422
-0.411867294307936,0.712990029111959
-0.412910672929043,0.712940587729484
-0.413904822682241,0.71287260131323
-0.414849272633404,0.712786009226434
-0.41574355184841,0.712680750832328
-0.416587189393136,0.712556765494148
-0.417379714333457,0.712413992575128
-0.418120655735251,0.712252371438503
-0.418809542664394,0.712071841447507
-0.419445904186763,0.711872341965375
-0.420029269368234,0.711653812355341
-0.420559167274685,0.71141619198064
-0.42103512697199,0.711159420204506
-0.421456677526028,0.710883436390174
-0.421823348002674,0.710588179900878
-0.422134667467806,0.710273590099852
-0.4223901649873,0.709939606350332
-0.422589369627032,0.709586168015552
-0.422731810452879,0.709213214458746
-0.422817016530718,0.708820685043149
-0.422844516926425,0.708408519131995
-0.422813840705877,0.707976656088519
-0.42272451693495,0.707525035275956
-0.422576074679521,0.707053596057539
-0.422368043005468,0.706562277796504
-0.422099950978665,0.706051019856084
-0.42177132766499,0.705519761599515
-0.42138170213032,0.704968442390031
-0.42093060344053,0.704397001590866
-0.420417560661498,0.703805378565255
-0.419842102859101,0.703193512676433
-0.419203759099214,0.702561343287633
-0.418502058447715,0.701908809762091
-0.417736529970479,0.701235851463041
-0.416906702733385,0.700542407753718
-0.416012105802307,0.699828417997355
-0.415052268243123,0.699093821557188
-0.41402671912171,0.698338557796451
-0.412934987503943,0.697562566078379
-0.4117766024557,0.696765785766205
-0.410551093042858,0.695948156223166
-0.409257988331292,0.695109616812494
-0.407896817386879,0.694250106897425
-0.406467109275496,0.693369565841192
-0.40496839306302,0.692467933007032
-0.403400197815327,0.691545147758177
-0.401762052598294,0.690601149457863
-0.400053486477797,0.689635877469325
-0.398274028519712,0.688649271155796
-0.396423207789918,0.687641269880511
-0.394500553354289,0.686611813006704
-0.392505594278703,0.685560839897611
-0.390437859629037,0.684488289916466
-0.388296878471166,0.683394102426503
-0.386082179870968,0.682278216790957
-0.383793292894319,0.681140572373061
-0.381429746607095,0.679981108536052
-0.378991070075174,0.678799764643163
-0.376476792364432,0.677596480057628
