-0.270678068064936,0.0586040712734934
-0.927121830873534,0.987081814467693
0.961765087031415,0.857083626811092
0.145573540892561,0.85202497038658
-0.670618005246292,0.846966313962068
0.545644384853954,0.0696554892998762
0.952861355290165,-0.850153708923163
