-0.847968130644368,0.353404181808051
-0.84310403563909,0.357005445443807
-0.954825986496866,0.246710298853946
-0.951467866402485,0.26870070746697
-0.828695753656651,0.366772951882275
-0.82395294684566,0.369688839608548
-0.819239426712257,0.372437493659738
-0.814554779108051,0.375020558156759
-0.70515591838337,0.47782260280895
-0.805270444893654,0.379696494971956
-0.800669929986676,0.381792655531962
-0.796096631015323,0.383729803021459
-0.791550133831199,0.385509581561363
-0.787030024285913,0.387133635272588
-0.782535888231071,0.388603608276049
-0.77806731151828,0.389921144692661
-0.773623879999147,0.39108788864334
-0.769205179525279,0.392105484248999
-0.764810795948283,0.392975575630555
-0.760440315119765,0.393699806908921
-0.756093322891333,0.394279822205013
-0.751769405114594,0.394717265639747
-0.747468147641154,0.395013781334036
-0.74318913632262,0.395171013408795
-0.738931957010599,0.395190605984941
-0.734696195556699,0.395074203183387
-0.730481437812525,0.394823449125048
-0.726287269629686,0.39443998793084
-0.619698028420255,0.50257786518121
-0.717959045354436,0.393281520618476
-0.713824160965239,0.392509802742149
-0.709708209543804,0.391611954213612
-0.705610776941738,0.390589619153781
-0.701531449010646,0.38944444168357
-0.697469811602137,0.388178065923894
-0.693425450567817,0.386792135995667
-0.689397951759293,0.385288296019806
-0.685386901028172,0.383668190117225
-0.681391884226061,0.381933462408839
-0.677412487204566,0.380085757015562
-0.673448295815295,0.378126718058311
-0.669498895909855,0.376057989657999
-0.665563873339852,0.373881215935541
-0.661642813956893,0.371598041011853
-0.773761559523302,0.263077036216399
-0.653840928158536,0.366719064044446
-0.649959273446352,0.364126550242557
-0.646089925327639,0.361434211723097
-0.642232469654006,0.358643692606981
-0.638386492277058,0.355756637015124
-0.634551579048403,0.352774689068442
-0.630727315819647,0.349699492887848
-0.626913288442397,0.346532692594259
-0.623109082768261,0.343275932308589
-0.619314284648846,0.339930856151753
-0.615528479935757,0.336499108244665
-0.511923417612652,0.443197564958754
-0.607982194134988,0.329382173663397
-0.604220884750522,0.325700275231046
-0.505382512798095,0.41747364719399
-0.596719862271462,0.318097836687485
-0.592979320880081,0.314180584818105
-0.687205096788828,0.190654405177454
-0.697140603555048,0.201196064204101
-0.581792606317818,0.301984428270545
-0.57807395750638,0.297776389511268
-0.574359746468945,0.293499764331805
-0.460536396257907,0.40607301355478
-0.566942981122512,0.284747331195978
-0.563239598516727,0.280274811481444
-0.559538997091374,0.275740281830383
-0.555840762698057,0.27114538636371
-0.552144481188385,0.26649176920234
-0.548449738413965,0.261781074467188
-0.544756120226403,0.257014946279169
-0.541063212477306,0.252195028759197
-0.537370601018281,0.247322966028189
-0.533677871700935,0.242400402207057
-0.529984610376874,0.237428981416719
-0.526290402897707,0.232410347778087
-0.522594835115039,0.227346145412079
-0.518897492880478,0.222238018439608
-0.51519796204563,0.217087610981589
-0.511495828462102,0.211896567158937
-0.507790677981502,0.206666531092568
-0.504082096455436,0.201399146903396
-0.500369669735511,0.196096058712335
-0.496652983673334,0.190758910640302
-0.492931624120512,0.185389346808211
-0.489205176928651,0.179989011336977
-0.485473227949359,0.174559548347515
-0.481735363034243,0.16910260196074
-0.477991168034909,0.163619816297566
-0.474240228802965,0.158112835478909
-0.470482131190016,0.152583303625684
-0.35321407921076,0.26403591982792
-0.462942804227536,0.141463163299188
-0.459160746581218,0.135875843067748
-0.455369873960324,0.130272548285399
-0.451569772216461,0.124654923073056
-0.447760027201235,0.119024611551635
-0.443940224766254,0.113383257842049
-0.340081366425009,0.220710272519769
-0.436268791043453,0.102074000342048
-0.432416331458847,0.0964093847934608
-0.428552157860913,0.0907403035403701
-0.424675856101258,0.0850684007036904
-0.420787012031489,0.0793953204043366
-0.416885211503213,0.0737227067632236
-0.412970040368037,0.0680522039012665
-0.409041084477567,0.06238545593938
-0.405097929683411,0.0567241069984793
-0.401140161837176,0.0510698011994792
-0.397167366790468,0.0454241826632947
-0.393179130394894,0.0397888955108407
-0.389175038502061,0.0341655838630322
-0.385154676963576,0.028555891840784
-0.381117631631047,0.0229614635650112
-0.377063488356079,0.0173839431566287
-0.26686485989789,0.123354190453454
-0.368902251385257,0.00628620242569432
-0.364794329392616,0.000769270344972331
-0.360667652863965,-0.0047241773846996
-0.462767743867852,-0.111195689640151
-0.459084600227403,-0.126805352465389
-0.348170954578017,-0.0210471732582656
-0.343965118421393,-0.0264302423745879
-0.339738456986792,-0.0317816065352854
-0.227115364717523,0.0613447568052797
-0.331221001690091,-0.0423826435061463
-0.326929379531204,-0.0476290280744799
-0.322615275500769,-0.0528371312035288
-0.318278275450392,-0.0580053087723783
-0.313917965231681,-0.0631319166601134
-0.309533930696242,-0.0682153107458191
-0.305125757695682,-0.0732538469085804
-0.300693032081608,-0.0782458810274825
-0.296235339705627,-0.0831897689816105
-0.291752266419346,-0.0880838666500492
-0.194252673254299,0.00521165104860487
-0.282708320522311,-0.0977161146461996
-0.278146619614771,-0.102450976732081
-0.273557881203359,-0.107129472048614
-0.158794004642739,-0.00168320235918608
-0.264297635275344,-0.116310785889973
-0.259625299461956,-0.120810316172969
-0.254924269551123,-0.125246903202957
-0.250194131394451,-0.129618902859021
-0.245434470843549,-0.133924671020247
-0.240644873750022,-0.138162563565719
-0.235824925965478,-0.142330936374522
-0.230974213341524,-0.146428145325742
-0.226092321729766,-0.150452546298464
-0.221178836981812,-0.154402495171773
-0.216233344949268,-0.158276347824753
-0.211255431483741,-0.16207246013649
-0.318416627282326,-0.283122753528706
-0.102619499149077,-0.0603535123801736
-0.196123021005333,-0.172977913815093
-0.100222169136884,-0.0850321040382972
-0.0665631838567473,-0.0616414392249234
-0.180683908287928,-0.183124516069569
-0.175467448636514,-0.186330410606986
-0.0627600711701624,-0.0925856578935117
-0.164926911324912,-0.192467875635216
-0.159602005367937,-0.195396157884199
-0.154240122345655,-0.198228614461875
-0.148840848109673,-0.200963601247329
-0.143403768511598,-0.203599474119645
-0.137928469403037,-0.206134588957908
-0.132414536635596,-0.208567301641205
-0.126861556060883,-0.210895968048619
-0.00752764583580638,-0.102981598031554
-0.115636794896068,-0.215234585552141
-0.109964186009179,-0.217241248406419
-0.104250872721446,-0.219137288501154
0.00191576030386346,-0.120735994835636
-0.0927004763498722,-0.22259092392834
-0.0868625649692459,-0.22414523101896
-0.189214686405666,-0.334061082452821
-0.0750592450763487,-0.226900603349679
-0.0690930082672916,-0.228098380347949
-0.063083168018638,-0.229174025740272
-0.0570293101819949,-0.230125895405734
0.0434644406937157,-0.125626915853513
-0.0447878851511676,-0.231651731072412
-0.0385994896601971,-0.2322224088318
-0.0323654199876648,-0.232662734380665
0.0877302212455165,-0.123957428615401
-0.0197586015043418,-0.233145752363173
-0.0133850243967649,-0.233185156554986
-0.109433661761755,-0.337270510552034
-0.000495463707815127,-0.232851534735152
0.00602134817034406,-0.232475220481676
0.0125867332688169,-0.231957045171274
0.0192011057359965,-0.231295364683031
0.0258648797202759,-0.230488534896032
0.0325784693700483,-0.229534911689363
0.0393422888337068,-0.228432850942108
0.0461567522596444,-0.227180708533352
0.0495831048798407,-0.226497842918125
0.0563984434799405,-0.225032285620425
0.0631134964806349,-0.223444933718796
0.0697283325237973,-0.221738368142051
0.0762430202513006,-0.219915169819002
0.182522125624729,-0.118477023265069
0.0889722253268231,-0.215929198649238
0.0951868799585887,-0.213771587660145
0.195576150599195,-0.108250615609022
0.107316636619494,-0.209140019517599
0.11323187593238,-0.206671224221768
0.11904744742272,-0.204103862681315
0.124763419732385,-0.20144051582505
0.130379861503251,-0.198683764581786
0.135896841377189,-0.195836189880333
0.039398613464276,-0.30140236478261
0.146632690001776,-0.189878893818112
0.151851696036171,-0.186774334314966
0.156971514741132,-0.183589275068878
0.0581335193691982,-0.272778652410319
0.166913864730242,-0.176987981063126
0.171736533298138,-0.173576908161085
0.176460289104093,-0.170095659231349
0.181085200789978,-0.16654681520273
0.185611336997668,-0.162932957004039
0.190038766369035,-0.159256665564089
0.194367557545953,-0.15552052181169
0.198597779170296,-0.151727106675655
0.202729499883935,-0.147879001084795
0.206762788328744,-0.143978785967922
0.210697713146597,-0.140029042253847
0.116550037711072,-0.240013250120289
0.218272746468926,-0.13199129274934
0.221912992257149,-0.127908448816531
0.225455148985907,-0.123786400001766
0.228899285297075,-0.119627727233859
0.232245469832525,-0.115435011441619
0.235493771234131,-0.11121083355386
0.238644258143766,-0.106957774499392
0.241696999203303,-0.102678415207028
0.244652063054615,-0.0983753366055785
0.247509518339575,-0.0940511196238556
0.250269433700056,-0.0897083451906709
0.252931877777933,-0.0853495942348362
0.146986752321484,-0.183223612503811
0.257964626653362,-0.0765944864704628
0.260335068734661,-0.0722032915195475
0.262608314100848,-0.0678064437612287
0.264784431393795,-0.063406524124318
0.266863489255376,-0.0590061135376271
0.268845556327464,-0.0546077929299675
0.270730701251931,-0.050214143230151
0.272518992670652,-0.0458277453669892
0.2742104992255,-0.0414511802692938
0.275805289558346,-0.0370870288658763
0.277303432311066,-0.0327378720855486
0.17206343403539,-0.13559055144406
0.280010049643615,-0.0240948661094085
0.174990037742771,-0.132388091890691
0.282330900358134,-0.0155428097713667
0.167066324419376,-0.102120589299635
0.284266533589607,-0.00710235050191649
0.285090065253884,-0.00293042208994231
0.285817498473019,0.00120586426844903
0.286448901888885,0.0053039276444459
0.286984344143356,0.00936118710923669
0.287423893878304,0.0133750617340097
0.287767619735603,0.0173429705899532
0.288015590357126,0.0212623327482558
0.288167874384746,0.0251305672801056
0.288224540460337,0.028945093256691
0.28818565722577,0.0327033297492005
0.288051293322921,0.0364026958288223
0.28782151739366,0.0400406105667448
0.287496398079863,0.0436144930341563
0.287076004023402,0.0471217623022453
0.397627619071409,0.149386712872571
0.188334413452137,-0.0638128094430053
0.285243859816768,0.0572180816224602
0.284443053208383,0.0604330888051423
0.2835473150667,0.0635685781444436
0.282556714033592,0.0666219687115524
0.281471318750932,0.0695906795776571
0.280291197860594,0.072472129813946
0.27901642000445,0.0752637384916075
0.277647053824375,0.0779629246818299
0.27618316796224,0.0805671074558016
0.274624831059919,0.0830737058847109
0.163954356541524,-0.0124000034344529
0.271225078702213,0.087783825992096
0.269383800530574,0.0899821858129483
0.267448345886241,0.0920726375734917
0.377526050022985,0.19762923870406
0.263295181746989,0.0959194931984051
0.261077609535816,0.0976707352051518
0.258766135419443,0.0993037454363429
0.256360828039742,0.100815942963167
0.140627736719823,-0.0146003151331347
0.25126898805785,0.103467576188467
0.248582592739406,0.104601850029319
0.245802638725128,0.105604987450558
0.242929194656888,0.106474407523371
0.356399196149834,0.207712723612243
0.236902110926016,0.107801771908475
0.23374860854713,0.108254554363142
0.230501890681776,0.108563295754137
0.227162025971825,0.108725415152648
0.112503087352992,-0.00114132340942259
0.220203130585631,0.108599464256973
0.216584237193133,0.108306232105164
0.212872471523532,0.107856054245624
0.109351290562976,0.0140677602627095
0.107814620749231,0.00873380557955518
0.0965339462990258,0.0129289309351051
0.197098058911562,0.10443426715393
0.192922961484544,0.103160646823564
0.188655403631661,0.101714595212598
0.184295453994788,0.100093531392221
0.179843181215798,0.0982948744336196
0.266190140607645,0.196823333193707
0.170661940798956,0.0941544573865006
0.165933110444852,0.0918075354403593
0.161112231516122,0.089272696640748
0.156199372654641,0.086547360058855
0.151194602502281,0.0836289447658688
0.250930850898602,0.179873669773635
0.140909602892419,0.0772025543313696
0.135629510718662,0.0736894173322335
0.13025778182152,0.0699728779067574
0.124794484842864,0.0660503551261298
0.11923968842457,0.0619192680615389
0.113593461208509,0.0575770357841733
0.107855871836554,0.0530210773652211
0.10202698895058,0.0482488118758708
0.0961068811924581,0.0432576583873107
0.090095617204063,0.0380450359707292
0.0839932656272673,0.0326083636973145
0.0777998951039442,0.0269450606382552
0.0715155742759669,0.0210525458647393
-0.0265423502306383,-0.0909582757336964
0.0586743562735423,0.00856955745909205
0.0521175963828414,0.00197392196933723
0.0454701607549789,-0.00486124895012054
0.038732118031828,-0.0119385362280929
0.151126013191273,0.0746790424639788
0.0249844858671538,-0.0268297835748283
0.0179750337093769,-0.0346489055012144
0.0108752490238042,-0.0427204675013618
0.00368520045230902,-0.0510470505040821
-0.113963914724011,-0.155477145169017
-0.0109654137809562,-0.0684756032324876
-0.01842584215898,-0.0775827348157964
-0.0259762598554335,-0.0869552111169245
-0.0336165982284438,-0.0965956130646838
0.0647434710840739,0.0115307063525373
0.0541642998452513,-0.0157667724340953
-0.057076450988083,-0.127150182075865
-0.0650757856485882,-0.137888095898265
-0.166362709256981,-0.267088286689025
-0.081343118729298,-0.160208995343945
-0.0896109798657563,-0.171797142824848
-0.208047714619857,-0.2880467038043
-0.106414748121513,-0.195841737946838
-0.114950517957066,-0.208303347445549
-0.123575453408571,-0.221061272807819
-0.132289485834154,-0.23411809496246
-0.0358822749400059,-0.129120356397713
-0.149984567040063,-0.261138753364101
-0.158965478536643,-0.275107751468725
-0.168035212439809,-0.289385970080966
-0.177193700107688,-0.303975990129636
-0.0834177142822351,-0.223414830288483
-0.195776662170091,-0.33410175825151
-0.20520099928087,-0.349642668182337
-0.214713815588868,-0.36550570326484
-0.224315042452213,-0.38169344442783
-0.234004611229032,-0.398208472600119
-0.243782453277451,-0.415053368710519
-0.253648499955598,-0.432230713687841
-0.2636026826216,-0.449743088460897
-0.273644932633582,-0.467593073958499
-0.283775181349672,-0.485783251109458
-0.293993360127997,-0.504316200842586
-0.304299400326684,-0.523194504086694
-0.314693233303859,-0.542420741770595
-0.325174790417649,-0.561997494823099
-0.335744003026182,-0.581927344173019
-0.346400802487583,-0.602212870749165
-0.35714512015998,-0.622856655480351
-0.257236269604258,-0.544858740955778
-0.378896035570269,-0.665229323123085
-0.389902496024414,-0.686963367892257
-0.400996200122062,-0.709065994531714
-0.41217707922134,-0.731539783970268
-0.423445064680375,-0.754387317136731
-0.434800087857293,-0.777611174959914
-0.446242080110222,-0.801213938368629
-0.457770972797288,-0.825198188291688
-0.469386697276618,-0.849566505657902
-0.481089184906339,-0.874321471396082
