-0.0457023049363776,0.489770981812167
0.257224734415569,0.552233837065474
-0.459996293619959,0.657227896283207
-0.721009508621827,-0.270076505390073
-0.982022723623696,-1.19738090706335
0.526918841565053,0.549450115529525
-0.237770269024754,0.750160874530927
