-0.701899963041074,0.994568222772012
0.884162273779858,-0.598967113726435
-0.386430969166691,-0.357104559278381
-0.379621472637098,0.178188698717979
-0.372811976107505,0.71348195671434
-0.74306000481112,-0.132917427166035
-0.209534418881479,0.941093243072795
