-0.317458336666472,-0.579307651693267
-0.306999393406065,-0.557732860123373
-0.296713267708383,-0.536472968370856
-0.286598720187482,-0.515525988892628
-0.276654511457419,-0.494889934145598
-0.266879402132251,-0.474562816586677
-0.257272152826033,-0.454542648672776
-0.247831524152823,-0.434827442860805
-0.238556276726677,-0.415415211607674
-0.229445171161651,-0.396303967370294
-0.220496968071803,-0.377491722605576
-0.211710428071188,-0.35897648977043
-0.203084311773863,-0.340756281321766
-0.194617379793886,-0.322829109716494
-0.186308392745311,-0.305192987411526
-0.178156111242197,-0.287845926863772
-0.170159295898599,-0.270785940530142
-0.162316707328574,-0.254011040867547
-0.154627106146179,-0.237519240332897
-0.147089252965469,-0.221308551383102
-0.139701908400503,-0.205376986475074
-0.132463833065335,-0.189722558065722
-0.125373787574024,-0.174343278611957
-0.118430532540625,-0.15923716057069
-0.111632828579195,-0.14440221639883
-0.10497943630379,-0.129836458553289
-0.0984691163284674,-0.115537899490977
-0.0921006292672834,-0.101504551668805
-0.0858727357342945,-0.0877344275436818
-0.0797841963435572,-0.0742255395725193
-0.0738337717091283,-0.0609759002122276
-0.0680202224450642,-0.0479835219197171
-0.0623423091654214,-0.0352464171518983
-0.0567987924842566,-0.0227625983656816
-0.0513884330156263,-0.0105300780179777
-0.046109991373587,0.00145313143430321
-0.0409622281721953,0.0131890175342505
-0.0359439040255077,0.0246795678249538
-0.0310537795475809,0.0359267698495026
-0.0262906153524713,0.0469326111509863
-0.0216531720542356,0.0576990792724946
-0.0171402102669302,0.068228161757117
-0.0127504906046118,0.078521846147943
-0.00848277368133684,0.0885821199880622
-0.00433582011116195,0.098410970820564
-0.000308390508143637,0.108010386188538
0.00360075451366152,0.117382353635074
0.00739285434019694,0.126528860703261
0.0110691483574061,0.135451894936189
0.0430907929777902,0.175298451232483
-0.0145891166982197,0.182342817362491
0.0593312682184445,0.202783776587487
0.00115611479994548,0.199423726523297
0.0126308843318055,0.21894145686005
-0.000586696586639943,0.163816787134826
0.0336647522359837,0.191822848798947
0.0519766761826644,0.16385975534796
0.0111155181861573,0.235676946663156
0.00864578523097041,0.240572098780619
0.0894399436171473,0.178525497252182
0.0156504937700121,0.208765274551376
0.0480801731580434,0.252205461288609
0.058299351010935,0.203922751694612
0.0990995534041026,0.226936031219319
0.0551516014942294,0.249449972228843
0.08254791829873,0.225969794840325
0.0384938733540493,0.214500274690261
0.0228822841093635,0.299695998268495
0.0621844630959752,0.270044100548195
0.0637151332702681,0.274733327694362
0.0651572641259905,0.279242807953239
0.0665120950490859,0.283574528867917
0.0931390129399409,0.260471752632185
0.0689648146411693,0.291712642837029
0.0898853795984391,0.266087245538603
0.0710832071340656,0.299163569946417
0.0720201291831773,0.302636307286438
0.0735170871122978,0.307914631926887
0.0672207867920124,0.304663080886991
0.0621950935475892,0.30859629969824
0.0860000968307708,0.309881423195222
0.0755315728931087,0.31755223356339
0.0760079040295736,0.320059779535776
0.0338419576110185,0.330349623995077
0.0767445237845297,0.324615132542263
0.0770072911749078,0.326666914662542
0.0631250658603432,0.34201939894135
0.0817512999705108,0.348952841029478
0.0773882960289633,0.331942534008595
0.0365280112655232,0.301315462671906
0.123923329085555,0.319212528386738
0.0936218866165999,0.31380441931692
0.0527598848135066,0.360867782365889
0.0360806709916845,0.288383768405673
0.0764290125451302,0.338713880012232
0.0833638284604052,0.343980909534071
0.123581576984411,0.334498145022705
0.0690426306003888,0.310176458876595
0.0746218716769739,0.340600443905773
0.0937170726968398,0.389336324047334
0.0733977609418582,0.340803126854027
0.0727099083498429,0.340726274979338
0.0719731767894474,0.340533277596224
0.071188805646615,0.340226122247776
0.0703580343072892,0.339806796477083
0.0694821021574134,0.339277287827233
0.0685622485829311,0.338639583841318
0.0675997129697857,0.337895672062425
0.0665957347039206,0.337047540033645
0.0655515531712794,0.336097175298068
0.0644684077578054,0.335046565398782
0.0633475378494421,0.333897697878877
0.0621901828321329,0.332652560281444
0.0609975820918213,0.331313140149571
0.0597709750144507,0.329881425026348
0.0585116009859645,0.328359402454864
0.0572206993923063,0.326749059978209
0.0558995096194194,0.325052385139473
0.0545492710532473,0.323271365481745
0.0531712230797335,0.321407988548114
0.0517666050848213,0.319464241881671
0.0503366564544543,0.317442113025504
0.0488826165745758,0.315343589522703
0.0474057248311293,0.313170658916358
0.0459072206100583,0.310925308749559
0.0443883432973062,0.308609526565394
0.0428503322788164,0.306225299906953
0.0412944269405325,0.303774616317327
0.0397218666683977,0.301259463339603
0.0381338908483557,0.298681828516873
0.0365317388663497,0.296043699392225
0.0349166501083233,0.293347063508749
0.0332898639602199,0.290593908409534
0.031652619807983,0.287786221637671
0.030006157037556,0.284925990736248
0.0283517150348823,0.282015203248355
0.0266905331859053,0.279055846717082
0.0250238508765686,0.276049908685518
0.0233529074928156,0.272999376696753
0.0216789424205897,0.269906238293876
0.0200031950458344,0.266772481019977
0.018326904754493,0.263600092418145
0.0166513109325091,0.26039106003147
0.0149776529658261,0.257147371403041
0.0133071702403874,0.253871014075948
0.0116411021421365,0.250563975593281
0.00998068805701677,0.247228243498128
0.00832716737097175,0.243865805333581
0.00668177946994483,0.240478648642727
0.00504576373987944,0.237068760968656
0.00342035956671907,0.233638129854459
0.00180680633640714,0.230188742843224
0.000206343434887075,0.226722587478042
-0.00137978975189765,0.223241651302001
-0.00295035383800361,0.219747921858191
-0.00450410943748736,0.216243386689702
-0.00603981716440545,0.212730033339624
-0.00755623763281443,0.209209849351045
-0.00905213145677088,0.205684822267056
-0.0105262592503313,0.202156939630745
-0.0119773816275523,0.198628188985203
-0.0134042592024905,0.195100557873519
-0.0148056525892023,0.191576033838782
-0.0161803224017444,0.188056604424082
-0.0175270292541732,0.184544257172509
-0.0188445337605454,0.181040979627152
-0.0201315965349175,0.177548759331101
-0.0213869781913461,0.174069583827444
-0.0226094393438877,0.170605440659272
-0.0237977406065988,0.167158317369675
-0.0249506425935361,0.163730201501741
-0.0260669059187561,0.160323080598561
-0.0271452911963153,0.156938942203223
-0.0281845590402703,0.153579773858818
-0.0291834700646777,0.150247563108434
-0.030140784883594,0.146944297495162
-0.0310552641110757,0.143671964562091
-0.0319256683611795,0.14043255185231
-0.0327507582479618,0.137228046908909
-0.0335292943854793,0.134060437274978
-0.0342600373877885,0.130931710493606
-0.0349417478689459,0.127843854107882
-0.0355731864430081,0.124798855660897
-0.0361531137240317,0.121798702695739
-0.0366802903260732,0.118845382755498
-0.0371534768631891,0.115940883383265
-0.0375714339494361,0.113087192122127
-0.0379329221988707,0.110286296515175
-0.0382367022255495,0.107540184105498
-0.0384815346435289,0.104850842436187
-0.0386661800668655,0.102220259050329
-0.038789399109616,0.0996504214910158
-0.0388499523858369,0.0971433173013358
-0.0388466005095847,0.0947009340243788
-0.0387781040949159,0.0923252592032342
-0.0386432237558872,0.0900182803809917
-0.0384407201065551,0.0877819851007408
-0.0381693537609761,0.085618360905571
-0.0378278853332068,0.0835293953385717
-0.0374150754373038,0.0815170759428327
