-0.455112995273016,-0.085518089761129
-0.447114685978032,-0.0680274169305795
-0.441038553679307,-0.0508121887249317
-0.436740300788423,-0.0338368618104665
-0.434075629716961,-0.0170658928534643
-0.432900242876503,-0.000463738520206033
-0.433069842678631,0.0160051445230277
-0.434440131534925,0.0323762996099562
-0.436866811856967,0.0486852700742988
-0.44020558605634,0.0649675992497748
-0.444312156544624,0.0812588304701034
-0.449042225733401,0.0975945070690041
-0.454251496034252,0.114010172380196
-0.459795669858759,0.130541369737399
-0.465530449618504,0.147223642474331
-0.471311537725067,0.164092533924713
-0.476994636590031,0.181183587422263
-0.482435448624977,0.198532346300701
-0.487489676241487,0.216174353893746
-0.492013021851141,0.234145153535117
-0.495861187865523,0.252480288558534
-0.498889876696212,0.271215302297717
-0.500954790754791,0.290385738086383
-0.50191163245284,0.310027139258254
-0.501616104201943,0.330175049147047
-0.499923908413679,0.350865011086482
-0.496690747499631,0.372132568410279
-0.491772323871381,0.394013264452157
-0.492539628758149,0.421664410604851
-0.515262423128591,0.45962699414244
-0.458106492912037,0.486008940133968
-0.45236005044798,0.488378302474863
-0.442612672421095,0.546938812134954
-0.42178031113188,0.549860992117453
-0.398035005048793,0.567331660883988
-0.374439766523854,0.595397026684408
-0.347860586988946,0.624395421206382
-0.29301036250283,0.63633530443467
-0.285173214535547,0.685333469749871
-0.20346089625782,0.714111784120868
-0.192798652748112,0.795728257467024
-0.130225767976213,0.75942356330778
-0.129565884420612,0.798286784158988
-0.153816450604021,0.816816891355284
-0.0459745980082018,0.808011682672334
-0.0473973438491068,0.834874331349083
-0.0704870407349906,0.879468835556902
-0.00272218164788681,0.828954359516124
-0.017269123542076,0.807222255323428
0.0680795905252937,0.793508300913543
0.0528445936009069,0.789363199582374
0.0542092373882254,0.756614324401629
0.0622895937694257,0.727231748001842
0.096725934552466,0.689760942406609
0.071789036766622,0.656477455773618
0.106551526014511,0.660684933636476
0.0833963235138115,0.554649536227833
0.0709315874669524,0.523733043966976
0.0527795184060552,0.436587000566778
0.090066506785842,0.417190284507773
0.0544206986008016,0.364428864174873
-0.0028261505444358,0.331636513233661
0.04705534130423,0.237596702661837
0.0250401792797548,0.184612691590477
0.0341952251452637,0.117992959099518
0.0401148949451422,0.104547501363724
0.0352639392754241,-0.0581928579242
-0.0293417497124434,-0.076596804753966
0.000456262021110591,-0.150774189945888
-0.0445659193839981,-0.179163356271716
-0.0604590672438692,-0.323863349374676
-0.100740661966335,-0.33856494701839
-0.0786962745331538,-0.424683945739324
-0.0949318937425159,-0.450838742618654
-0.15461039566042,-0.529393718470673
-0.155662056770022,-0.666875994590049
-0.183079939028617,-0.684082346051578
-0.210585992791659,-0.769305999853555
-0.217473555243443,-0.81047593145497
-0.234083044669006,-0.871155610265789
