0.311100750476337,-0.717113552309088
0.91874128886225,0.579352997935748
-0.444263441438764,-0.772468401521452
-0.543998214339638,0.0695039818067729
-0.643732987240513,0.911476365134998
-0.481621992818575,-0.849893382003253
-0.121406126196114,0.979543254338365
