0.0311233655788856,-0.05395514839891
0.583335875425032,-0.562576877530562
-0.366915766783865,-0.950535402490294
-0.709878882480026,0.252068417355333
-1.05284199817619,1.45467223720096
-0.506010161718664,0.805745331089899
0.287373159329948,0.447502096616331
