-0.233276752550359,-0.755749754600532
-0.215479690282029,-0.703978463728001
-0.197987863090991,-0.653611449717252
-0.180797137392006,-0.604634880055811
-0.163903379599836,-0.557034922231197
-0.14730245612924,-0.510797743730935
-0.130990233394981,-0.465909512042548
-0.114962577811819,-0.422356394653557
-0.0992153557945138,-0.380124559051486
-0.0837444337578278,-0.339200172723857
-0.0685456781165212,-0.299569403158193
-0.0536149552853551,-0.261218417842017
-0.0389481316790903,-0.224133384262852
-0.0245410737124876,-0.188300469908219
-0.010389647800308,-0.153705842265643
-0.00456819457512602,-0.105538082890335
-0.0231913399141137,-0.134484060464951
0.0305721734620836,-0.0572133544854779
0.0437424070089621,-0.027433548566353
0.0808070479207736,-0.00719825461782807
0.0236291381474327,0.00846814652879732
0.111249503849386,0.0331692482092926
0.136036417724024,0.115622869289115
0.0656402291002324,0.124137149703344
0.129032569087025,0.144927873904211
0.142304658779217,0.145540519260909
0.0424114878298435,0.0805122607691117
0.192680474079325,0.223106225159901
0.177935903345183,0.198457116595007
0.174016732314218,0.226025275410825
0.302599804813632,0.354520869909167
0.169651195500347,0.29573413221426
0.16571914204716,0.223704374634399
0.215415022558749,0.286714849247437
0.184497979570201,0.269013497214336
0.3345267347532,0.416106903207477
0.244633189022582,0.322086432974864
0.136321033713365,0.223432850150461
0.246587978153275,0.38851966833751
0.169480315965988,0.258421029566137
0.255417013023935,0.384158454718145
0.33120518484273,0.320375159729012
0.366573134256737,0.468481607553623
0.322170766996218,0.386477132679847
0.314281114836307,0.350851964874007
0.324063897548045,0.380007593550439
0.326454978709129,0.396966148507949
0.340252140160304,0.3837718186397
0.229547136534786,0.237812255815048
0.253755500887352,0.292478222202965
0.39165307283493,0.342046046638252
0.371280612191218,0.382195153464096
0.464311955148193,0.514808277226401
0.354648643788353,0.361098569716395
0.35646706354279,0.363444198247313
0.391751226261718,0.351395932864807
0.393428720591487,0.318901513599783
0.429836325335345,0.347309286468437
0.421945182386564,0.352531468477256
0.428871426572192,0.345719844491289
0.526823880337053,0.440400126674469
0.442531587128417,0.330304455617526
0.43602283446629,0.314501087478364
0.374424245224535,0.185521850097663
0.41330153056463,0.341221292384809
0.49409046143435,0.260322639483459
0.475752976909117,0.281957345421401
0.482271064414051,0.270717102679985
0.488756733467475,0.258985528900286
0.495214117654626,0.24677645659478
0.501647350560746,0.234103718275946
0.619928490642645,0.323959745331679
0.411233929570768,0.0888140923705309
0.5208434774453,0.193441832364243
0.427776859439742,0.0702581672685084
0.533595921359224,0.164269174418547
0.539971051869169,0.149104922781763
0.546350966194757,0.133573832718991
0.552739797921224,0.117689736742708
0.559141680633811,0.101466467365392
0.565560747917757,0.0849178570995198
0.5720011333583,0.0680577384575688
0.578466970540681,0.0508999439520162
0.584962393050137,0.0334583060953394
0.591491534471909,0.0157466574000156
0.598058528391235,-0.00222116962147798
0.604667508393354,-0.020431342456664
0.611322608063506,-0.0388700285930652
0.520438746046646,-0.151444751748076
0.624787700748863,-0.076377610719604
0.631605960934547,-0.0954188416847871
0.63848687512922,-0.114633255901276
0.645434576918121,-0.134007020856594
0.652453199886489,-0.153526304038264
0.659546877619564,-0.173177272933808
0.666719743702584,-0.192946095030748
0.673975931720788,-0.212818937816609
0.681319575259416,-0.232781968778912
0.688754807903707,-0.25282135540518
0.6962857632389,-0.272923265182937
