-0.484690602210696,0.891987481175837
0.135461561920255,0.590237683570252
0.223304941764367,-0.131700646022697
-0.477016380737953,0.120110319705764
-1.17733770324027,0.371921285434224
-0.765485415394386,-0.708847344904692
0.101438835178481,-0.882656750346467
