-0.474381688707211,-0.527056205621171
-0.472563163786027,-0.552560924420262
-0.505397658207751,-0.469738268885001
-0.447783854326909,-0.511758391188295
-0.501064022056825,-0.494913777578451
-0.466699609931018,-0.53439412609728
-0.476562211673288,-0.475491007137002
-0.403774787646841,-0.479732850351601
-0.416949471023695,-0.430250880994574
-0.431074694461404,-0.459361660052629
-0.450373977857401,-0.403070151169615
-0.45512461564662,-0.399036274038467
-0.391019701117078,-0.440167831302181
-0.378747309442955,-0.445435121282775
-0.386715383183627,-0.422786382721057
-0.444754643563934,-0.401958162407119
-0.434892593270067,-0.436181864562166
-0.430226961311218,-0.373951274073784
-0.390747147587898,-0.393328189151224
-0.357379611873291,-0.348681187804191
-0.420250687415195,-0.386444858103023
-0.3779410583389,-0.371708144574604
-0.394254345081387,-0.382737606366422
-0.340827175102802,-0.358324659067877
-0.365444013334596,-0.350291507867066
-0.345674101349484,-0.298425362997065
-0.357281624521576,-0.336129080855626
-0.397484255869549,-0.369655478720073
-0.394846372208283,-0.314022738175071
-0.348489835012145,-0.293777480829898
-0.29545833511063,-0.345683131917773
-0.292608041858795,-0.252734243988308
-0.31270176773689,-0.264649441685097
-0.284004832388878,-0.257608146742646
-0.375008703444872,-0.280479989515153
-0.274101747824465,-0.301910436711694
-0.318436248447617,-0.266753259813615
-0.28368042522925,-0.236033781866447
-0.347063207803447,-0.21954153589035
-0.326557348561204,-0.279453595049726
-0.350155497080643,-0.227335375153974
-0.260482242133972,-0.265477269591499
-0.311712015708535,-0.262312042403701
-0.293117883712043,-0.219680280314141
-0.323987366830871,-0.260357557954325
-0.248966337696035,-0.198349492436851
-0.244478067681527,-0.222112376371893
-0.264655448627381,-0.197205886379415
-0.311374987367266,-0.23643056621218
-0.272583447576209,-0.180360883257337
-0.271397242291976,-0.176007177242859
-0.220940902354003,-0.141043403062866
-0.214349542299934,-0.114733673721139
-0.260487464072662,-0.108199485839069
-0.242509997327922,-0.11828340489734
-0.254280729942936,-0.145371778017459
-0.249926322526815,-0.135741529055228
-0.276347280328968,-0.171959718974928
-0.243700776184627,-0.123248894501581
-0.240628303901689,-0.1170460750265
-0.233445584915908,-0.14184499351777
-0.266530084380884,-0.0853659056860218
-0.256434439866983,-0.107135077756307
-0.228602333090868,-0.0925288537094063
-0.179415905527801,-0.0493299595585933
-0.176705102298428,-0.0779491825067507
-0.219854264099606,-0.0744545826199137
-0.230572920295273,-0.0492600719513585
-0.169470949690383,-0.0389123589941752
-0.176774201008883,-0.0728240859909585
-0.182592980833131,-0.00499205721060311
-0.236500633543952,-0.00357475800815671
-0.228080754533181,-0.0130082259860489
-0.242972987548853,-0.00139500676325081
-0.173055049583932,0.00841427407118583
-0.194947194205499,-0.0218950509695911
-0.143108060546518,-0.0116982979418816
-0.221970904289119,0.0183189290332365
-0.222786850217135,0.0392865177087693
-0.190568661664283,-0.0389076472916228
-0.206955748191562,0.0374054844388823
-0.179401748184142,0.0117114587392175
-0.176889424552607,0.0171978172955456
-0.17313239937109,-0.022499361621657
-0.218566680087689,-0.00154616071984993
-0.21421494789972,0.0205424005337704
-0.150312645823022,0.0616213627689446
-0.132697681368646,-0.000570153451145118
-0.198471911624541,0.0201624962344307
-0.119399674974757,0.0422525448601091
-0.172307467113324,0.072133945688561
-0.147520897954167,0.0889225589778831
-0.106955415790273,0.105041638003313
-0.166688563551293,0.118750367482874
-0.10009966881752,0.110098306013473
-0.151200759815017,0.134734480533374
-0.0994554759790211,0.102102088263988
-0.157851527236652,0.0668277690601592
-0.160378988749481,0.122599829761611
-0.179228512879126,0.137478614535628
-0.12191206403559,0.0707926038537073
-0.104608831365521,0.0801991420444744
-0.109456641149891,0.0944570433666285
-0.088242052949032,0.0823143567680427
-0.0851192940098013,0.0885960381654575
-0.124740531951713,0.133855499032186
-0.122697793841109,0.138495838549773
-0.120672074865249,0.143098746253573
-0.142182424137001,0.196477862514792
-0.161742351651878,0.165446463893533
-0.114694995203239,0.156681133665843
-0.112735315223457,0.161132569298088
-0.124986841256879,0.13426766792756
-0.144143826568886,0.153590793536905
-0.106951462446714,0.174256352936319
-0.105054561394367,0.17855352479076
-0.0812696918772819,0.196789609190505
-0.101306111573782,0.187030687572345
-0.139965457922377,0.20879357804635
-0.0976167731034089,0.195350445906597
-0.118280214140278,0.19769712945522
-0.0939849159489252,0.203511403940391
-0.0921900334794165,0.207531896640515
-0.0904089100760098,0.211512165820603
-0.060761801040721,0.167295256980597
-0.0375951700452842,0.24650782846613
-0.0566015548880175,0.260450935259362
-0.0834179320375985,0.227027517707785
-0.0729083537186092,0.279927689457508
-0.114645742025359,0.262447535612752
-0.0634315095233005,0.26400585958548
-0.0766307987136032,0.241885334743149
-0.0749643379620555,0.245495740569089
-0.115375653097142,0.215525819328335
-0.0716663772742702,0.252590472730006
-0.116734224674426,0.217304518349161
-0.0684136726449637,0.259515935692033
-0.113364125626156,0.302479702656275
-0.0960412353737732,0.299999412317569
-0.0636159051105737,0.269583696958447
-0.0957385504795688,0.321054970138224
-0.0732166406325801,0.298775215486015
-0.0589107947647029,0.279262750853536
-0.057362064282396,0.282401908488393
-0.0307125360647166,0.305660255461588
-0.0839522663053171,0.250862471325305
-0.0527719391743632,0.291555357659479
-0.0780481127449695,0.255087742634216
-0.0986044639386855,0.310022090482867
-0.080785525508314,0.285131218440038
0.00225583368061565,0.329849315283598
0.00234614308387091,0.319321853821185
-0.00731369512313496,0.353816407717451
-0.0791712427162033,0.299121251671113
-0.0409068979497129,0.313997672634755
-0.0802647404671799,0.289192453435807
-0.0380171020175145,0.319153671686055
-0.036582553058914,0.321662524608804
-0.0793627897437904,0.31058019310205
0.000163014884549048,0.29004850801221
-0.0323178571616246,0.328910403185762
-0.0641810925520932,0.38048563787633
-0.0295051481692901,0.333508343927922
-0.0741699273049996,0.365328518695884
-0.0349306225108265,0.384558593427181
-0.0253276420037724,0.34005079794463
-0.00309848944530976,0.295807349628793
-0.066528718271452,0.382084542317588
0.0138588289396221,0.303566367658101
-0.0402283804442427,0.330165963728484
-0.022522480392369,0.347614716450605
-0.0171020643607509,0.351842386748125
-0.00027544435136153,0.386024477106589
-0.0421893173177524,0.351790389731058
-0.0156656505056419,0.378776190304762
-0.0210360987476916,0.34063663135925
-0.0576218655075198,0.372678833373409
0.0274417698557941,0.335282386868408
-0.00767423415483206,0.363377417068121
-0.00633842660600031,0.364826696427907
0.00199006275591313,0.36314785156358
-0.0356100146420877,0.327900028436128
-0.00234305937171321,0.368872822739428
-0.0146808245937844,0.417488489773881
-0.00834198025526979,0.339129355562892
0.00163850358435551,0.372462717284738
-0.010234754863035,0.327197590095875
-0.0255493027825778,0.39798192100506
0.0056117636280409,0.375591669059544
0.0502957197971032,0.350576164225973
0.0323285799338448,0.399506391424912
0.0403190152470302,0.390345327871146
-0.00937153597398302,0.365807788287499
0.0122303547657223,0.379769476096127
0.0345485407944253,0.372887952727529
-0.0232260161357144,0.344982884335123
-0.0203772612545939,0.420927729396477
0.017536739943146,0.38216575771799
0.0216400331905134,0.417731245443133
0.0319709934004953,0.34396730458767
0.0466371122974101,0.419695589362834
0.0221486844952263,0.358732583254863
0.0242055059494929,0.383960334163811
-0.018161811421768,0.404192637500466
-0.00146559117633905,0.360293634203779
0.0613368276105935,0.349174482950577
-0.0160902952771784,0.386524753858512
0.0595446530291896,0.349904703336457
0.00853142198341764,0.346713346413186
0.0225475077397362,0.405040190614625
0.0813858473432537,0.368989735829849
0.0639832481305461,0.420459120200819
0.0705909075822381,0.433152519039845
0.0839363085749223,0.397803823766796
0.040518248151288,0.382699221772936
0.0664445464165609,0.366456349079193
0.0432973385850411,0.381709317217508
0.0317067622531929,0.389402311754644
0.0460980043674953,0.380492913485096
0.0475069374002109,0.37979933822342
0.00449266156969233,0.411169999169794
0.100242941408359,0.370258237855986
0.00418679180686037,0.376204182863792
0.075131710586008,0.376323848976458
0.0160976207911489,0.372368088694247
0.0560937740976233,0.374431666773431
0.0241697669073996,0.416686216527511
0.0337561135196233,0.347129619243858
0.0795818086482229,0.420473888563148
0.110101860400631,0.381269911584731
0.0981144919326963,0.357207425222498
0.0618059008801396,0.31892911190861
0.0664436974913116,0.365518858740244
0.11198042994173,0.318741120453105
0.0237976682894695,0.326751562915947
0.0710051124472193,0.360811325994274
0.0725438427641791,0.35912250116364
0.074092042004118,0.357373561905949
0.0980069200430023,0.344842815323758
0.120813137872437,0.368447051379843
0.0715454855288069,0.346477807335418
0.10894606630779,0.398628289194382
0.0819822034486529,0.347721042354229
0.0572382038436399,0.299264600937023
0.0745158654683527,0.345558881463355
0.0868429676656932,0.341196990673525
0.121739172033773,0.294178319992726
0.10997356670054,0.319045415459841
0.105340366418144,0.300586098717408
0.0806513102513501,0.375264178308069
0.0951730123164415,0.329087549547388
0.0968751706785551,0.326478687738651
0.0985898542780003,0.323807094278249
0.0584321545277769,0.320624377414591
0.102057612206047,0.318275014475891
0.0748683471156307,0.287553798539917
0.133480475487366,0.279895324960663
0.0742267295711192,0.35712978319306
0.119120808623475,0.315352351192697
0.124528469707889,0.285955400632133
0.086098183403974,0.254336817281934
0.124584590756251,0.337979290114634
0.10888086941165,0.303091238337806
0.118336313262783,0.29022937545479
0.147062727752129,0.326493183211151
0.103212250292455,0.261507647710534
0.14767537709602,0.232193374514698
0.116410507237861,0.26049185006976
0.158827841005476,0.261004585574305
0.0990061079786272,0.285748065401776
0.0874224685750885,0.264967093159879
0.133819630966428,0.260895744132477
0.103386341645994,0.276654150346658
0.137852388537889,0.252903613089959
0.139894177194048,0.248807779437886
0.141953177436214,0.244645201056416
0.144029593018675,0.24041570346391
0.176553724301023,0.23312759060246
0.188857506792927,0.261829174071846
0.171554806824045,0.219732796666143
0.152513483837284,0.222825031350701
0.106962522856182,0.213728760557022
0.134815655381839,0.170564981017999
0.159069246984569,0.208920825949518
0.161292320443846,0.204149693329656
0.16353464303203,0.199310071163991
0.165796418503413,0.194401784970883
0.177473000561971,0.213672055879097
0.144978405504124,0.144781567742229
0.172700499759649,0.179263197410501
0.220587767431498,0.220267568712991
0.166156795801647,0.120106906392592
0.179786992119113,0.163500352264078
0.182190642893006,0.158106532392939
0.189853389934766,0.200476826935085
0.204469635334113,0.196959868420827
0.232471253753045,0.176919159469796
0.165334410950591,0.119341120484668
0.194529215611066,0.130083045195931
0.176551712407973,0.1424790193245
0.204662975295193,0.146842268620489
0.182855993048044,0.0692424162710378
0.18417901689544,0.0743524885179423
0.207420330553383,0.100286250779689
0.21006709990595,0.0941121757320873
0.189625049265319,0.0572983593060175
0.215430815009507,0.0815479136194048
0.225822188977487,0.0586163032173912
0.176797010777782,0.0377845637841297
0.223654884975257,0.0621586231820775
0.272893535638332,0.103528983835989
0.263972290104625,0.0489261271040041
0.242567318281381,0.0916995279536115
0.234962064255884,0.0352854994692395
0.237851244698623,0.0283837809616883
0.290415630237677,0.0382305470631699
0.24370589461123,0.0143589974798912
0.246671771589679,0.00723558354236456
0.292850167949119,-0.0174236794901109
0.252681648362319,-0.00723416113414746
0.245031683345332,-0.0202180372519106
0.297825915135059,-0.00614742006033484
0.261894826874986,-0.0294986873771702
0.26501959829069,-0.0370702031789415
0.26817156525262,-0.044717013310495
0.259122033908822,-0.0472914070915652
0.274557900832314,-0.0602372144895125
0.27779267695866,-0.0681109545002574
0.254273606635303,-0.123988823030542
0.245156531477263,-0.0970781323302886
0.28766588373517,-0.092188825997122
0.308156283760389,-0.13204569356098
0.294390791126975,-0.108623028031963
0.297796686947986,-0.116955338805384
0.311345755011142,-0.150535485597716
0.304696381611681,-0.13385125227243
0.31114578179048,-0.180945925547341
0.311714638666203,-0.151056718177353
0.356006971496517,-0.112838581071353
0.318853088145875,-0.168573132373276
0.306089836590717,-0.216017739360601
0.326113360085019,-0.186401890713323
0.365582294695203,-0.175656979565701
0.359528390217112,-0.222955470388554
0.337235750805321,-0.213733726922336
0.38508720307016,-0.25481887827054
0.344807710293299,-0.232349452480113
0.348641411002492,-0.241776189129453
0.37537928912536,-0.238139894219865
0.33327497756024,-0.231974420742842
0.360335842042366,-0.270533988338968
0.364299107874057,-0.280279699434773
0.376306464236157,-0.253419681091017
0.397213324631902,-0.303050888770347
0.40512062752098,-0.351175568358314
0.332391269401459,-0.339489158499039
0.384613022113566,-0.33021444178237
0.38877674825771,-0.340443848997088
0.390845832118621,-0.326841558996291
0.397206773876561,-0.361146518024846
0.393028216554827,-0.36270606483669
0.405774922298098,-0.382175489727971
0.361192606632532,-0.42519731221302
0.404562944106499,-0.428214962788427
0.383670943411354,-0.377062707127683
0.468300333202716,-0.400268215220118
0.423167856511231,-0.416592593566882
0.444104007457556,-0.440754253195969
0.472700569964514,-0.452444281535065
0.447397865984473,-0.484935672652733
0.486442488164041,-0.483156634717511
0.430784692053249,-0.510537574739029
0.449057687763538,-0.534294305919845
0.418149976865484,-0.470968455845173
0.472811843200265,-0.527755143247761
0.469756322607068,-0.538632018222552
0.484850583936866,-0.51582740653487
0.472944848485666,-0.598572934776562
0.479007352422639,-0.600056028443747
0.473020913088811,-0.554085620797885
0.53310299212265,-0.623507540660809
0.490141187449682,-0.562227114551235
0.548591727768704,-0.573807534298909
0.509606849728218,-0.635429369030089
0.532111571581555,-0.676867649455503
0.488163782903836,-0.702351043263216
0.525195637415662,-0.673138670603339
0.567070066408733,-0.649458235239364
0.583091357372168,-0.688411608442487
0.494797402372258,-0.75983170813654
0.592046053577277,-0.736420573593909
0.587186362244845,-0.746143718807605
0.557459579952057,-0.750891724928807
0.562980106214297,-0.764155216977242
0.549201232671128,-0.745419917577243
0.604777546433111,-0.794328275663675
0.612027706196878,-0.779663295627955
0.585478832271534,-0.818086010433587
0.591208687809364,-0.831788787521526
0.56569066690541,-0.868061874362112
