0.984049955668022,0.643272665389375
0.972907993583625,0.637611295816808
0.961849672278204,0.631886822546688
0.950875070102717,0.626100574550371
0.939984265408124,0.620253880799212
0.929177336545384,0.614348070264568
0.918454361865457,0.608384471917794
0.9078154197193,0.602364414730246
0.897260588457873,0.596289227673281
0.886789946432135,0.590160239718254
0.876403571993045,0.583978779836521
0.866101543491563,0.577746176999439
0.855883939278647,0.571463760178362
0.845750837705256,0.565132858344647
0.835702317122349,0.55875480046965
0.825738455880885,0.552330915524726
0.815859332331825,0.545862532481232
0.806065024826125,0.539350980310524
0.796355611714746,0.532797587983957
0.786731171348646,0.526203684472888
0.777191782078785,0.519570598748671
0.767737522256122,0.512899659782664
0.758368470231615,0.506192196546222
0.749084704356224,0.499449538010701
0.739886302980907,0.492673013147457
0.730773344456624,0.485863950927846
0.721745907134334,0.479023680323223
0.712804069364996,0.472153530304946
0.703947909499569,0.465254829844368
0.695177505889011,0.458328907912848
0.686492936884283,0.451377093481739
0.677894280836343,0.444400715522399
0.669381616096149,0.437401103006183
0.660955021014662,0.430379584904448
0.65261457394284,0.423337490188548
0.644360353231642,0.416276147829841
0.636192437232027,0.409196886799681
0.628110904294954,0.402101036069425
0.620115832771383,0.394989924610429
0.612207301012272,0.387864881394048
0.60438538736858,0.380727235391639
0.596650170191267,0.373578315574558
0.589001727831292,0.36641945091416
0.581440138639612,0.359251970381801
0.573965480967189,0.352077202948837
0.56657783316498,0.344896477586624
0.559277273583944,0.337711123266519
0.552063880575041,0.330522468959876
0.54493773248923,0.323331843638052
0.53789890767747,0.316140576272403
0.530947484490719,0.308949995834285
0.524083541279938,0.301761431295054
0.517307156396083,0.294576211626064
0.510618408190117,0.287395665798674
0.504017375012996,0.280221122784237
0.497504135215679,0.273053911554111
0.491078767149127,0.265895361079651
0.484741349164299,0.258746800332213
0.478491959612152,0.251609558283153
0.472330676843646,0.244484963903827
0.466257579209741,0.237374346165591
0.460272745061394,0.230279034039801
0.454376252749567,0.223200356497812
0.448568180625216,0.216139642510981
0.442848607039302,0.209098221050663
0.437217610342783,0.202077421088215
0.431675268886619,0.195078571594992
0.426221661021768,0.18810300154235
0.42085686509919,0.181152039901645
0.415580959469843,0.174227015644234
0.410394022484687,0.167329257741471
0.40529613249468,0.160460095164713
0.400287367850782,0.153620856885316
0.395367806903952,0.146812871874636
0.373175988210066,0.157779098517148
0.380527838211325,0.173793639580795
0.356596593534454,0.0992791559688963
0.376583167106491,0.119920043946201
0.39233665211796,0.115209676536472
0.401549656953056,0.128774672618337
0.357071254614264,0.104864634448226
0.349138173552368,0.0900865089352338
0.404507336254897,0.0815134885327244
0.351095637985367,0.0807443252455537
0.331766307886128,0.0584002021503062
0.382124633825507,0.0779482717327524
0.339455254603217,0.0377569835946645
0.294327458189077,0.0990223782893042
0.33233211500178,0.0493471894824589
0.281659216968799,0.0167826253312522
0.292166809149649,0.0774702912317509
0.280893183828551,0.0116297066297394
0.314450033735358,0.0496480716918375
0.315830024828502,0.0192629739796473
0.312801840591633,0.013418299995234
0.309864583772931,0.00763411664936751
0.342433588574028,0.026786226255085
0.2629300485292,-0.00483378265690395
0.301599161335415,-0.00934219984339178
0.321329974170336,-0.0121082297290282
0.296544953235487,-0.0203329265043056
0.262081376291259,-0.0621640884744103
0.291856335231242,-0.0310497952984901
0.301496243060606,-0.0226858289131488
0.311881496706895,-0.0335332957414336
0.28717322130771,-0.0254593564939702
0.317903127124729,-0.0288816683584767
0.325568581028829,-0.0155042517749975
0.279990289869333,-0.0614509367721955
0.250390971157192,-0.041933603693861
0.276770300324546,-0.0709660563909901
0.232453122892647,-0.044211536031839
0.267776537719203,-0.12784090984534
0.24830434060403,-0.0720752231566615
0.273626522484188,-0.0965727872449631
0.268893345086744,-0.136549827132801
0.30535597212222,-0.0960354263902124
0.268408152898748,-0.101623947382981
0.263584300263742,-0.0712702261742061
0.265183295967317,-0.117839762261108
0.23664061592434,-0.118302595532926
0.265668108004992,-0.117168726051254
0.265215508139307,-0.120817310983821
0.264856029518642,-0.124368194079876
0.264589750493956,-0.127820046368062
0.264416749416208,-0.131171538877024
0.264337104636357,-0.134421342635406
0.264350894505362,-0.137568128671852
0.264458197374182,-0.140610568015006
0.264659091593776,-0.143547331693512
0.264953655515103,-0.146377090736014
0.265341967489122,-0.149098516171156
0.265824105866792,-0.151710279027583
0.266400148999073,-0.154211050333938
0.267070175236923,-0.156599501118866
0.267834262931301,-0.158874302411011
0.268692490433167,-0.161034125239016
0.269644936093479,-0.163077640631526
0.270691678263196,-0.165003519617185
0.271832795293278,-0.166810433224636
0.273068365534683,-0.168497052482525
0.274398467338371,-0.170062048419495
0.275823179055301,-0.17150409206419
0.277342579036431,-0.172821854445255
0.278956745632721,-0.174014006591333
0.28066575719513,-0.175079219531068
0.282469692074616,-0.176016164293105
0.28436862862214,-0.176823511906088
0.286362645188659,-0.17749993339866
0.288451820125133,-0.178044099799467
0.290636231782521,-0.178454682137151
0.292915958511782,-0.178730351440357
0.295291078663875,-0.178869778737729
0.297761670589759,-0.178871635057912
0.300327812640393,-0.178734591429548
0.302989583166737,-0.178457318881283
0.305747060519748,-0.178038488441761
0.308600323050387,-0.177476771139625
0.311549449109612,-0.176770838003519
0.314594517048383,-0.175919360062089
0.317735605217657,-0.174921008343977
0.320972791968396,-0.173774453877828
0.324306155651556,-0.172478367692286
0.327735774618098,-0.171031420815994
0.331261727218981,-0.169432284277598
0.334884091805163,-0.167679629105742
0.338602946727604,-0.165772126329068
0.342418370337262,-0.163708446976222
0.346330440985097,-0.161487262075848
0.350339237022068,-0.159107242656588
0.354444836799134,-0.156567059747089
0.358647318667253,-0.153865384375993
0.362946760977386,-0.151000887571945
0.36734324208049,-0.147972240363589
0.371836840327525,-0.144778113779569
0.37642763406945,-0.14141717884853
0.381115701657224,-0.137888106599114
0.385901121441807,-0.134189568059966
0.390783971774156,-0.130320234259731
0.395764331005231,-0.126278776227052
0.400842277485992,-0.122063864990574
0.406017889567397,-0.11767417157894
0.411291245600405,-0.113108367020795
0.416662423935976,-0.108365122344783
0.422131502925068,-0.103443108579547
0.42769856091864,-0.0983409967537327
0.433363676267651,-0.0930574578959832
0.439126927323062,-0.0875911630349427
0.444988392435829,-0.0819407831992555
0.450948149956914,-0.0761049894175656
0.457006278237274,-0.070082452718517
0.463162855627868,-0.0638718441307538
0.469417960479656,-0.0574718346829202
0.475771671143597,-0.0508810954036601
0.48222406597065,-0.0440982973216178
0.488775223311773,-0.0371221114654373
0.495425221517927,-0.0299512088637627
0.502174138940069,-0.022584260545238
0.509022053929159,-0.0150199375385074
0.515969044836157,-0.00725691087221486
0.519479718243545,-0.00330046836318409
0.526354942349604,0.00460954293317726
0.532890508624112,0.0124140569862387
0.539089683735292,0.0201138058121778
0.544955734351362,0.0277095214271719
0.550491927140544,0.0352019358473985
0.555701528771057,0.0425917810890352
0.560587805911122,0.0498797891682594
0.565154025228959,0.0570666921012486
0.569403453392789,0.0641532219041802
0.573339357070832,0.0711401105932318
0.576965002931307,0.0780280901845808
0.580283657642436,0.0848178926944047
0.583298587872438,0.091510250138881
0.586013060289534,0.0981058945341872
0.588430341561945,0.104605557896501
0.59055369835789,0.111009972241999
0.592386397345589,0.11731986958686
0.593931705193264,0.12353598194726
0.595192888569134,0.129659041339378
0.59617321414142,0.13568977977939
0.596875948578342,0.141628929283475
0.59730435854812,0.147477221867809
0.597461710718974,0.153235389548571
0.597351271759126,0.158904164341937
0.596976308336794,0.164484278264085
0.5963400871202,0.169976463331193
0.595445874777563,0.175381451559438
0.594296937977105,0.180699974964998
0.592896543387045,0.18593276556405
0.591247957675603,0.191080555372771
0.589354447511001,0.196144076407339
0.587219279561457,0.201124060683932
0.584845720495193,0.206021240218727
0.582237036980429,0.210836347027901
0.579396495685385,0.215570113127632
0.576327363278281,0.220223270534098
0.573032906427337,0.224796551263476
0.569516391800775,0.229290687331943
0.565781086066814,0.233706410755676
0.561830255893674,0.238044453550854
0.557667167949576,0.242305547733654
0.553295088902741,0.246490425320254
0.548717285421387,0.25059981832683
0.543937024173737,0.25463445876956
0.538957571828009,0.258595078664622
0.533782195052424,0.262482410028193
0.528414160515204,0.266297184876451
0.522856734884566,0.270040135225573
0.517113184828734,0.273711993091737
0.511186777015925,0.27731349049112
0.505080778114361,0.2808453594399
0.498798454792263,0.284308331954253
0.492343073717849,0.287703140050358
0.485717901559341,0.291030515744393
0.478926204984959,0.294291191052534
0.471971250662924,0.297485897990958
0.464856305261454,0.300615368575845
0.457584635448772,0.30368033482337
0.450159507893096,0.306681528749712
0.442584189262648,0.309619682371048
0.434861946225648,0.312495527703555
0.426996045450316,0.315309796763411
0.418989753604871,0.318063221566793
0.410846337357536,0.32075653412988
0.402569063376529,0.323390466468847
0.394161198330071,0.325965750599874
0.385626008886383,0.328483118539136
0.376966761713684,0.330943302302813
0.368186723480195,0.333347033907081
0.359289160854137,0.335695045368117
0.350277340503729,0.3379880687021
0.341154529097192,0.340226835925207
0.331923993302747,0.342412079053614
0.322588999788612,0.344544530103501
0.31315281522301,0.346624921091043
0.303618706274159,0.348653984032419
0.293989939610281,0.350632450943806
0.284269781899595,0.352561053841382
0.274461499810323,0.354440524741324
0.264568360010683,0.356271595659809
0.254593629168897,0.358054998613015
0.244540573953185,0.35979146561712
0.234412461031767,0.361481728688301
0.224212557072863,0.363126519842735
0.213944128744694,0.364726571096601
0.20361044271548,0.366282614466074
0.193214765653442,0.367795381967334
0.182760364226799,0.369265605616557
0.172250505103771,0.370694017429921
0.16168845495258,0.372081349423603
0.151077480441445,0.373428333613781
0.140420848238587,0.374735702016632
0.129721825012226,0.376004186648334
0.118983677430582,0.377234519525064
0.108209672161876,0.378427432663
0.0974030758743278,0.379583658078319
0.0865671552361577,0.380703927787199
0.0757051769155861,0.381788973805817
0.0648204075808333,0.382839528150351
0.0539161139001195,0.383856322836978
0.0429955625416651,0.384840089881876
0.0320620201736903,0.385791561301221
0.0211187534644155,0.386711469111192
0.0101690290820609,0.387600545327967
-0.000783886305153164,0.388459521967721
-0.0117367260290064,0.389289131046634
-0.0226862234212785,0.390090104580882
-0.0336291118137493,0.390863174586644
-0.0445621245381983,0.391609073080095
-0.0554819949264054,0.392328532077415
-0.0663854563101502,0.39302228359478
-0.0772692420212123,0.393691059648368
-0.0881300853913717,0.394335592254356
-0.0989647197524078,0.394956613428923
-0.109769878436101,0.395554855188244
-0.12054229477423,0.396131049548498
-0.131278702098574,0.396685928525863
-0.141975833740915,0.397220224136515
-0.152630423033031,0.397734668396633
-0.163239203306702,0.398229993322394
-0.173798907893708,0.398706930929974
-0.184306270125828,0.399166213235552
-0.194758023334843,0.399608572255306
-0.205150900852531,0.400034740005412
-0.215481636010673,0.400445448502048
-0.225746962141049,0.400841429761392
-0.235943612575437,0.401223415799621
-0.246068320645619,0.401592138632913
-0.256117819683372,0.401948330277444
-0.266088843020478,0.402292722749394
-0.275978123988716,0.402626048064938
-0.285782395919865,0.402949038240254
-0.295498392145706,0.403262425291521
-0.305122845998017,0.403566941234915
-0.314652490808579,0.403863318086614
-0.324084059909172,0.404152287862795
-0.333414286631575,0.404434582579637
-0.342639904307568,0.404710934253315
-0.35175764626893,0.404982074900009
-0.360764245847441,0.405248736535895
-0.369656436374881,0.405511651177151
-0.37843095118303,0.405771550839954
-0.387084523603667,0.406029167540481
-0.395613886968573,0.406285233294911
-0.404015774609526,0.406540480119421
-0.412286919858307,0.406795640030188
-0.420424056046694,0.40705144504339
-0.428423916506469,0.407308627175203
-0.43628323456941,0.407567918441807
-0.443998743567298,0.407830050859377
-0.451567176831911,0.408095756444093
-0.458985267695031,0.40836576721213
-0.466249749488435,0.408640815179667
-0.473357355543905,0.408921632362881
-0.48030481919322,0.409208950777949
-0.487088873768159,0.40950350244105
-0.493706252600503,0.40980601936836
-0.500153689022031,0.410117233576057
-0.506427916364522,0.410437877080318
-0.512525667959756,0.410768681897321
-0.518443677139514,0.411110380043244
-0.524178677235574,0.411463703534264
-0.529727401579717,0.411829384386558
-0.535086583503723,0.412208154616303
-0.540252956339369,0.412600746239679
-0.545223253418438,0.41300789127286
-0.549994208072708,0.413430321732027
-0.554562553633959,0.413868769633355
-0.558925023433971,0.414323966993022
-0.563078350804523,0.414796645827206
-0.567019269077396,0.415287538152084
-0.570744511584368,0.415797375983834
-0.57425081165722,0.416326891338633
-0.577534902627731,0.416876816232659
-0.580593517827682,0.417447882682089
-0.58342339058885,0.4180408227031
-0.586021254243018,0.418656368311871
-0.588383842121963,0.419295251524578
-0.590507887557466,0.419958204357399
-0.592390123881307,0.420645958826512
-0.594027284425265,0.421359246948094
-0.59541610252112,0.422098800738322
-0.596553311500652,0.422865352213374
-0.59743564469564,0.423659633389428
-0.598059835437864,0.42448237628266
-0.598422617059103,0.425334312909249
-0.598520722891139,0.426216175285372
-0.598350886265749,0.427128695427206
-0.597909840514715,0.428072605350929
-0.597194318969815,0.429048637072719
-0.596201054962829,0.430057522608752
-0.594926781825537,0.431099993975206
-0.593368232889719,0.432176783188259
-0.591522141487155,0.433288622264089
-0.589385240949623,0.434436243218872
-0.586954264608905,0.435620378068786
-0.584225945796779,0.43684175883001
-0.581197017845025,0.438101117518719
-0.577864214085423,0.439399186151092
