0.872170318108567,-0.363318507537229
0.869816419211461,-0.355974760041307
0.86741608277181,-0.348720615310168
0.864969739225137,-0.341555615177279
0.862477819006963,-0.334479301476109
0.859940752552811,-0.327491216040123
0.857358970298203,-0.320590900702791
0.85473290267866,-0.313777897297579
0.852062980129706,-0.307051747657956
0.849349633086862,-0.300411993617388
0.84659329198565,-0.293858177009343
0.843794387261593,-0.287389839667288
0.840953349350212,-0.281006523424692
0.83807060868703,-0.274707770115022
0.835146595707569,-0.268493121571745
0.83218174084735,-0.262362119628328
0.829176474541897,-0.25631430611824
0.826131227226731,-0.250349222874949
0.823046429337374,-0.24446641173192
0.819922511309348,-0.238665414522622
0.816759903578176,-0.232945773080523
0.813559036579379,-0.22730702923909
0.81032034074848,-0.221748724831791
0.807044246521001,-0.216270401692092
0.803731184332464,-0.210871601653463
0.800381584618392,-0.205551866549369
0.796995877814305,-0.200310738213279
0.793574494355726,-0.195147758478661
0.790117864678178,-0.190062469178981
0.786626419217183,-0.185054412147708
0.783100588408262,-0.180123129218309
0.779540802686938,-0.17526816222425
0.775947492488733,-0.170489052999001
0.772321088249169,-0.165785343376029
0.768662020403768,-0.1611565751888
0.764970719388052,-0.156602290270783
0.761247615637544,-0.152122030455446
0.757493139587765,-0.147715337576254
0.753707721674238,-0.143381753466677
0.749891792332484,-0.139120819960182
0.746045781998027,-0.134932078890236
0.742170121106387,-0.130815072090307
0.738265240093088,-0.126769341393862
0.73433156939365,-0.122794428634369
0.730369539443597,-0.118889875645296
0.726379580678451,-0.115055224260109
0.722362123533733,-0.111290016312277
0.718317598444965,-0.107593793635267
0.714246435847671,-0.103966098062546
0.710149066177371,-0.100406471427583
0.706025919869589,-0.096914455563844
0.701877427359845,-0.0934895923047973
0.697704019083663,-0.0901314234839104
0.693506125476564,-0.0868394909346508
0.689284176974071,-0.0836133364904859
0.685038604011705,-0.0804525019848833
0.680769837024989,-0.0773565292513106
0.676478306449445,-0.0743249601232354
0.672164442720595,-0.0713573364341251
0.667828676273961,-0.0684532000174472
0.663471437545065,-0.0656120927066694
0.65909315696943,-0.0628335563352592
0.654694264982577,-0.060117132736684
0.650275192020028,-0.0574623637444114
0.645836368517306,-0.054868791191909
0.641378224909933,-0.0523359569126444
0.636901191633431,-0.0498634027400849
0.632405699123322,-0.0474506705076982
0.627892177815129,-0.0450973020489519
0.623361058144372,-0.0428028391973134
0.618812770546575,-0.0405668237862504
0.614247745457259,-0.0383887976492302
0.609666413311947,-0.0362683026197205
0.605069204546161,-0.0342048805311888
0.600456549595422,-0.0321980732171027
0.595828878895254,-0.0302474225109296
0.591186622881178,-0.0283524702461372
0.586530211988716,-0.0265127582561929
0.58186007665339,-0.0247278283745643
0.577176647310722,-0.022997222434719
0.572480354396236,-0.0213204822701244
0.567771628345452,-0.0196971497142481
0.563050899593893,-0.0181267666005577
0.55831859857708,-0.0166088747625207
0.553575155730537,-0.0151430160336045
0.548821001489785,-0.0137287322472769
0.544056566290346,-0.0123655652370052
0.539282280567743,-0.0110530568362571
0.534498574757497,-0.00979074887850008
0.529705879295131,-0.00857818319720166
0.524904624616166,-0.00741490162582932
0.520095241156126,-0.0063004459978507
0.515278159350531,-0.00523435814673333
0.510453809634905,-0.00421617990594469
0.505622622444768,-0.00324545310895234
0.500785028215644,-0.00232171958922386
0.495941457383055,-0.00144452118022676
0.491092340382522,-0.000613399715428564
0.486238107649568,0.000172102971703229
0.481379189619715,0.000912445047701001
0.476516016728484,0.00160808467909727
0.471649019411399,0.00225948003242445
0.466778628103981,0.00286708927421504
0.461905273241752,0.00343137057100145
0.457029385260235,0.00395278208931626
0.452151394594951,0.00443178199569183
0.447271731681423,0.00486882845666065
0.442390826955172,0.00526437963875518
0.437509110851722,0.00561889370850785
0.432627013806593,0.00593282883245119
0.427744966255308,0.0062066431771176
0.42286339863339,0.00644079490903961
0.41798274137636,0.00663574219474964
0.413103424919741,0.00679194320078014
0.408225879699054,0.00690985609366359
0.403350536149822,0.00698993903993245
0.398477824707567,0.00703265020611919
0.39360817580781,0.00703844775875624
0.388742019886075,0.0070077898643761
0.383879787377883,0.00694113468951123
0.379021908718756,0.00683894040069406
0.374168814344217,0.00670166516445711
0.369320934689787,0.0065297671473328
0.364478700190989,0.00632370451585358
0.359642541283345,0.00608393543655193
0.354812888402376,0.00581091807596031
0.349990171983606,0.00550511060061119
0.345174822462555,0.00516697117703704
0.340367270274747,0.00479695797177029
0.335567945855704,0.00439552915134345
0.330777279640946,0.00396314288228892
0.325995702065997,0.00350025733113924
0.32122364356638,0.0030073306644268
0.316461534577615,0.00248482104868408
0.311709805535224,0.00193318665044359
0.306968886874731,0.00135288563623773
0.302239209031657,0.000744376172598985
0.297521202441525,0.000108116426059839
0.292815297539856,-0.000555435436847256
0.288121924762172,-0.00124582124958989
0.283441514543996,-0.00196258284563552
0.27877449732085,-0.00270526205845173
0.274121303528256,-0.00347340072150603
0.269482363601736,-0.004266540668266
0.264858107976812,-0.00508422373219913
0.260248967089006,-0.00592599174677301
0.25565537137384,-0.00679138654545511
0.251077751266837,-0.00767994996171304
0.246516537203519,-0.00859122382901428
0.241972159619408,-0.00952474998082639
0.237445048950025,-0.0104800702506169
0.232935635630893,-0.0114567264718534
0.228444350097534,-0.0124542604780034
0.223971622785471,-0.0134722141025343
0.219517884130225,-0.0145101291789139
0.215083564567318,-0.0155675475406095
0.210669094532273,-0.0166440110210888
0.206274904460612,-0.0177390614538193
0.201901424787856,-0.0188522406722684
0.197549085949528,-0.0199830905099038
0.19321831838115,-0.021131152800193
0.188909552518244,-0.0222959693766035
0.184623218796333,-0.0234770820726029
0.180359747650938,-0.0246740327216587
0.176119569517582,-0.0258863631572384
0.171903114831786,-0.0271136152128096
0.167710814029073,-0.0283553307218398
0.163543097544964,-0.0296110515177966
0.159400395814983,-0.0308803194341474
0.155283139274651,-0.0321626763043599
0.15119175835949,-0.0334576639619015
0.147126683505022,-0.0347648242402398
0.14308834514677,-0.0360836989728424
0.139077173720255,-0.0374138299931767
0.135093599661,-0.0387547591347104
0.131138053404527,-0.0401060282309109
0.127210965386358,-0.0414671791152458
0.123312766042015,-0.0428377536211826
0.11944388580702,-0.0442172935821889
0.115604755116895,-0.0456053408317322
0.111795804407163,-0.04700143720328
0.108017464113345,-0.0484051245302999
0.104270164670964,-0.0498159446462595
0.100554336515541,-0.0512334393846261
0.0968704100825994,-0.0526571505788675
0.0932188158076608,-0.0540866200624511
0.0895999841262472,-0.0555213896688445
0.0860143454738808,-0.0569610012315151
0.0824623302860838,-0.0584049965839306
0.0789443689983784,-0.0598529175595585
0.0754608920462864,-0.0613043059918663
0.07201232986533,-0.0627587037143216
0.0685991128910316,-0.0642156525603918
0.0652216715589132,-0.0656746943635446
0.0618804363044966,-0.0671353709572475
0.0585758375633043,-0.0685972241749679
0.0553083057708582,-0.0700597958501735
0.0520782713626806,-0.0715226278163318
0.0488861647742935,-0.0729852619069103
0.0457324164412189,-0.0744472399553765
0.0426174567989793,-0.075908103795198
0.0395417162830964,-0.0773673952598425
0.0365056253290925,-0.0788246561827771
0.0335096143724898,-0.0802794283974699
0.0305541138488103,-0.0817312537373879
0.0276395541935761,-0.083179674035999
0.0247663658423094,-0.0846242311267706
0.0219349792305322,-0.0860644668431703
0.0191458247937668,-0.0874999230186655
0.0163993329675352,-0.0889301414867239
0.0136959341873595,-0.0903546640808129
0.0110360588887619,-0.0917730326344002
0.00842013750726445,-0.0931847889809532
0.0058486004783893,-0.0945894749539395
0.00332187823765855,-0.0959866323868266
0.000840401220594311,-0.0973758031130821
-0.00159540013728122,-0.0987565289661734
-0.00398509540044609,-0.100128351779568
-0.00632825413337798,-0.101490813386734
-0.00862444590055493,-0.102843455621138
-0.0108732402664547,-0.104185820316249
-0.0130742067955553,-0.105517449305533
-0.0152269150523345,-0.106837884422458
-0.0173309346012703,-0.108146667500491
-0.0193858350068404,-0.109443340373101
-0.0213911858335229,-0.110727444873755
-0.0233465566457955,-0.11199852283592
-0.0252515170081362,-0.113256116093063
-0.0271056364850227,-0.114499766478654
-0.0289084846409332,-0.115729015826158
-0.0306596310403453,-0.116943405969043
-0.032358645247737,-0.118142478740777
-0.0340050968275862,-0.119325775974828
-0.0355985553443707,-0.120492839504663
-0.0371385903625685,-0.121643211163749
-0.0386247714466573,-0.122776432785555
-0.0400566681611152,-0.123892046203547
-0.0414338500704199,-0.124989593251194
-0.0427558867390494,-0.126068615761962
-0.0440223477314815,-0.127128655569319
-0.045232802612194,-0.128169254506733
-0.0463868209456651,-0.129189954407672
-0.0474839722963724,-0.130190297105602
-0.0485238262287939,-0.131169824433992
-0.0495059523074074,-0.132128078226309
-0.0504299200966909,-0.13306460031602
-0.0512952991611221,-0.133978932536593
-0.0521016590651791,-0.134870616721496
-0.0528485693733396,-0.135739194704196
-0.0535355996500816,-0.136584208318161
-0.0541623194598829,-0.137405199396858
-0.0547282983672214,-0.138201709773754
-0.055233105936575,-0.138973281282318
-0.0556763117324217,-0.139719455756016
-0.0560574853192391,-0.140439775028317
-0.0563761962615054,-0.141133780932688
-0.0566320141236982,-0.141801015302596
-0.0568245084702956,-0.142441019971509
-0.0569532488657754,-0.143053336772895
-0.0570178048746154,-0.14363750754022
-0.0570177460612936,-0.144193074106954
-0.0569526419902878,-0.144719578306562
-0.056822062226076,-0.145216561972513
-0.0566255763331359,-0.145683566938274
-0.0563627538759455,-0.146120135037312
-0.0560331644189827,-0.146525808103096
-0.0556363775267254,-0.146900127969093
-0.0551719627636513,-0.14724263646877
-0.0546394896942385,-0.147552875435595
-0.0540385278829648,-0.147830386703036
-0.053368646894308,-0.148074712104559
-0.0526294162927461,-0.148285393473633
-0.051820405642757,-0.148461972643724
-0.0509411845088184,-0.148603991448302
-0.0499913224554084,-0.148710991720832
-0.0489703890470047,-0.148782515294783
-0.0478779538480853,-0.148818104003622
-0.0467135864231281,-0.148817299680817
-0.0454768563366109,-0.148779644159835
-0.0441673331530115,-0.148704679274144
-0.042784586436808,-0.148591946857211
-0.0413281857524782,-0.148440988742504
-0.0397977006644999,-0.14825134676349
-0.0381927007373511,-0.148022562753638
-0.0365127555355095,-0.147754178546414
-0.0347574346234531,-0.147445735975285
-0.0329263075656599,-0.147096776873721
-0.0310189439266076,-0.146706843075187
-0.0290349132707742,-0.146275476413152
-0.0269737851626375,-0.145802218721083
-0.0248351291666755,-0.145286611832448
-0.0226185148473658,-0.144728197580714
-0.0203235117691866,-0.144126517799349
-0.0179496894966156,-0.14348111432182
-0.0154966175941308,-0.142791528981595
-0.0129638656262099,-0.142057303612141
-0.0103510031573311,-0.141277980046926
-0.00765759975197189,-0.140453100119418
-0.00488322497461047,-0.139582205663084
-0.0020274483897245,-0.138664838511391
0.000910160438207908,-0.137700540497807
0.00393003194470917,-0.1366888534558
0.00703259656530102,-0.135629319218837
0.0102182847355061,-0.134521479620386
0.013487526890846,-0.133364876493914
0.0168407534668431,-0.132159051672888
0.0202783948990194,-0.130903546990777
0.0238008816228973,-0.129597904281048
0.0274086440739985,-0.128241665377168
0.0311021126878455,-0.126834372112605
0.0348817178999602,-0.125375566320827
0.0387478901458647,-0.1238647898353
0.0427010598610813,-0.122301584489493
0.046741657481132,-0.120685492116873
0.0508701134415389,-0.119016054550908
0.0550868581778241,-0.117292813625064
0.0593923221255097,-0.115515311172811
0.063786935720118,-0.113683089027614
0.0682711293971709,-0.111795689022943
0.0728453335921908,-0.109852652992263
0.0775099787406995,-0.107853522769044
0.0822654952782193,-0.105797840186751
0.0871123136402722,-0.103685147078854
0.0920508642623805,-0.101514985278819
0.097081577580066,-0.0992868966201143
0.102204884028851,-0.0970004229362068
0.107421214044258,-0.0946551060605645
0.112730998061809,-0.0922504878266547
0.118134666517025,-0.089786110067945
0.12363264984543,-0.0872615146179029
0.129225378482544,-0.0846762433099962
0.134913282863891,-0.082029837977692
0.140696793424992,-0.0793218404544582
0.14657634060137,-0.0765517925737622
0.152552354828546,-0.0737192361690716
0.158625266542043,-0.0708237130738537
0.164795506177382,-0.0678647651215764
0.171063504170087,-0.0648419341457069
0.177429690955679,-0.061754761979713
0.18389449696968,-0.0586027904570621
0.190458352647612,-0.0553855614112218
0.197121688424998,-0.0521026166756595
0.203884934737359,-0.0487534980838431
0.210748522020218,-0.0453377474692396
0.217712880709096,-0.041854906665317
0.224778441239517,-0.0383045175055425
0.231945634047001,-0.034686121823384
0.239214889567072,-0.0309992614523087
0.24658663823525,-0.0272434782257844
0.25406131048706,-0.0234183139772783
0.261639336758021,-0.0195233105402584
0.269321147483658,-0.0155580097481917
0.277107173099491,-0.0115219534345462
0.284997844041043,-0.00741468343278917
0.292993590743835,-0.00323574157638842
0.301094843643391,0.00101533030118893
0.309302033175232,0.00533899036647489
0.317615589774881,0.00973569678600234
0.326035943877858,0.0142059077263033
0.334563525919688,0.0187500813539107
0.34319876633589,0.0233686758353566
0.351942095561989,0.0280621493371739
0.360793944033506,0.0328309600258945
0.369754742185963,0.0376755660680514
0.378824920454881,0.0425964256301766
0.388004909275784,0.047593996878803
0.397295139084194,0.0526687379804627
0.406696040315632,0.0578211071016884
0.41620804340562,0.0630515624090124
0.425831578789681,0.0683605620689674
0.435567076903337,0.0737485642480854
0.445414968182111,0.0792160271128995
0.455375683061523,0.0847634088299415
0.465449651977096,0.0903911675657445
0.475637305364352,0.0960997614868403
0.485939073658815,0.101889648759762
0.496355387296004,0.107761287551042
0.506886676711443,0.113715136027212
0.517533372340654,0.119751652354805
0.528295904619159,0.125871294700354
0.53917470398248,0.13207452123039
0.55017020086614,0.138361790111447
0.561282825705659,0.144733559510057
0.572513008936561,0.151190287592752
0.583861180994367,0.157732432526065
0.5953277723146,0.164360452476528
0.606913213332781,0.171074805610674
0.618617934484434,0.177875950095035
0.630442366205079,0.184764344096144
0.64238693893024,0.191740445780532
0.654452083095437,0.198804713314734
0.666638229136195,0.20595760486528
0.678945807488033,0.213199578598703
0.691375248586475,0.220531092681537
0.703926982867043,0.227952605280313
0.716601440765258,0.235464574561564
0.729399052716644,0.243067458691822
0.742320249156721,0.25076171583762
0.755365460521013,0.25854780416549
0.768535117245041,0.266426181841966
