0.865361288289741,-0.764828831051195
0.853559114770754,-0.762547977731666
0.841828003448527,-0.760243514460555
0.830167743225261,-0.757915687029675
0.818578123003158,-0.755564741230836
0.807058931684417,-0.75319092285585
0.795609958171241,-0.750794477696529
0.78423099136583,-0.748375651544684
0.772921820170385,-0.745934690192128
0.761682233487107,-0.743471839430672
0.750512020218196,-0.740987345052127
0.739410969265854,-0.738481452848306
0.728378869532282,-0.735954408611019
0.71741550991968,-0.733406458132079
0.70652067933025,-0.730837847203297
0.695694166666191,-0.728248821616484
0.684935760829707,-0.725639627163453
0.674245250722996,-0.723010509636015
0.66362242524826,-0.720361714825982
0.6530670733077,-0.717693488525164
0.642578983803518,-0.715006076525376
0.632157945637913,-0.712299724618426
0.621803747713086,-0.709574678596128
0.611516178931239,-0.706831184250293
0.601295028194573,-0.704069487372732
0.591140084405289,-0.701289833755258
0.581051136465586,-0.698492469189681
0.571027973277667,-0.695677639467814
0.561070383743732,-0.692845590381468
0.551178156765982,-0.689996567722455
0.541351081246619,-0.687130817282586
0.531588946087842,-0.684248584853674
0.521891540191853,-0.681350116227529
0.512258652460852,-0.678435657195963
0.502690071797042,-0.675505453550789
0.493185587102621,-0.672559751083817
0.483744987279793,-0.66959879558686
0.474368061230757,-0.666622832851728
0.465054597857714,-0.663632108670234
0.455804386062865,-0.660626868834189
0.446617214748411,-0.657607359135406
0.437492872816554,-0.654573825365695
0.428431149169493,-0.651526513316868
0.419431832709431,-0.648465668780736
0.410494712338567,-0.645391537549113
0.401619576959103,-0.642304365413808
0.392806215473239,-0.639204398166634
0.384054416783177,-0.636091881599403
0.375363969791117,-0.632967061503926
0.366734663399261,-0.629830183672014
0.358166286509809,-0.62668149389548
0.349658628024962,-0.623521237966134
0.341211476846921,-0.62034966167579
0.332824621877887,-0.617167010816258
0.324497852020061,-0.613973531179349
0.316230956175644,-0.610769468556876
0.308023723246837,-0.607555068740651
0.299875942135841,-0.604330577522485
0.291787401744855,-0.601096240694188
0.283757890976082,-0.597852304047574
0.275787198731723,-0.594599013374454
0.267875113913978,-0.59133661446664
0.260021425425048,-0.588065353115942
0.252225922167135,-0.584785475114173
0.244488393042438,-0.581497226253145
0.23680862695316,-0.578200852324669
0.2291864128015,-0.574896599120556
0.22162153948966,-0.571584712432619
0.21411379591984,-0.568265438052669
0.206662970994243,-0.564939021772517
0.199268853615067,-0.561605709383975
0.191931232684515,-0.558265746678856
0.184649897104788,-0.55491937944897
0.177424635778086,-0.55156685348613
0.170255237606609,-0.548208414582146
0.16314149149256,-0.54484430852883
0.156083186338139,-0.541474781117996
0.149080111045547,-0.538100078141452
0.142132054516985,-0.534720445391012
0.135238805654653,-0.531336128658488
0.128400153360753,-0.52794737373569
0.121615886537486,-0.52455442641443
0.114885794087052,-0.52115753248652
0.108209664911652,-0.517756937743773
0.101587287913488,-0.514352887977998
0.0950184519947595,-0.510945628981009
0.0885029460576685,-0.507535406544615
0.0820405590044155,-0.504122466460631
0.0756310797372013,-0.500707054520866
0.0692742971582271,-0.497289416517133
0.0629700001696936,-0.493869798241243
0.0567179776738017,-0.490448445485007
0.0505180185727525,-0.487025604040239
0.0443699117687468,-0.483601519698748
0.0382734461639855,-0.480176438252347
0.0322284106606693,-0.476750605492848
0.0262345941609996,-0.473324267212062
0.020291785567177,-0.4698976692018
0.0143997737814024,-0.466471057253875
0.00855834770587677,-0.463044677160098
0.00276729624280109,-0.45961877471228
-0.00297359170562375,-0.456193595702234
-0.00866452723719707,-0.452769385921771
-0.0143057214497177,-0.449346391162702
-0.0198973854409847,-0.44592485721684
-0.0254397303087973,-0.442505029875995
-0.0309329671509545,-0.439087154931981
-0.0363773070652556,-0.435671478176607
-0.0417729611494994,-0.432258245401686
-0.047120140501485,-0.428847702399029
-0.0524190562190117,-0.425440094960449
-0.0576699193998785,-0.422035668877756
-0.0628729411418845,-0.418634669942763
-0.0680283325428286,-0.415237343947281
-0.0731363047005102,-0.411843936683122
-0.0781970687127281,-0.408454693942097
-0.0832108356772816,-0.405069861516018
-0.0881778166919697,-0.401689685196696
-0.0930982228545916,-0.398314410775944
-0.0979722652629461,-0.394944284045573
-0.102800155014832,-0.391579550797395
-0.10758210320805,-0.38822045682322
-0.112318320940397,-0.384867247914862
-0.117009019309674,-0.381520169864131
-0.121654409413679,-0.378179468462839
-0.126254702350211,-0.374845389502798
-0.130810109217069,-0.37151817877582
-0.135320841112053,-0.368198082073715
-0.139787109132962,-0.364885345188297
-0.144209124377594,-0.361580213911376
-0.148587097943749,-0.358282934034763
-0.152921240929225,-0.354993751350272
-0.157211764431823,-0.351712911649713
-0.161458879549341,-0.348440660724898
-0.165662797379577,-0.345177244367638
-0.169823729020332,-0.341922908369746
-0.173941885569404,-0.338677898523032
-0.178017478124593,-0.33544246061931
-0.182050717783697,-0.332216840450389
-0.186041815644515,-0.329001283808082
-0.189990982804848,-0.325796036484201
-0.193898430362492,-0.322601344270557
-0.197764369415249,-0.319417452958962
-0.201589011060916,-0.316244608341227
-0.205372566397294,-0.313083056209164
-0.20911524652218,-0.309933042354585
-0.212817262533375,-0.306794812569302
-0.216478825528677,-0.303668612645125
-0.220100146605885,-0.300554688373867
-0.223681436862799,-0.29745328554734
-0.227222907397217,-0.294364649957354
-0.230724769306938,-0.291289027395722
-0.234187233689763,-0.288226663654255
-0.237610511643489,-0.285177804524765
-0.240994814265916,-0.282142695799064
-0.244340352654843,-0.279121583268963
-0.247647337908069,-0.276114712726273
-0.250915981123393,-0.273122329962808
-0.254146493398614,-0.270144680770377
-0.257339085831531,-0.267182010940793
-0.260493969519944,-0.264234566265868
-0.263611355561651,-0.261302592537413
-0.266691455054452,-0.258386335547239
-0.269734479096145,-0.255486041087158
-0.27274063878453,-0.252601954948983
-0.275710145217406,-0.249734322924525
-0.278643209492572,-0.246883390805594
-0.281540042707827,-0.244049404384004
-0.28440085596097,-0.241232609451565
-0.2872258603498,-0.23843325180009
-0.290015266972116,-0.235651577221389
-0.292769286925718,-0.232887831507275
-0.295488131308404,-0.230142260449559
-0.298172011217973,-0.227415109840053
-0.300821137752225,-0.224706625470568
-0.303435722008959,-0.222017053132917
-0.306015975085974,-0.21934663861891
-0.308562108081068,-0.21669562772036
-0.311074332092041,-0.214064266229077
-0.313552858216693,-0.211452799936875
-0.315997897552821,-0.208861474635563
-0.318409661198226,-0.206290536116955
-0.320788360250706,-0.203740230172861
-0.32313420580806,-0.201210802595094
-0.325447408968088,-0.198702499175465
-0.327728180828589,-0.196215565705785
-0.329976732487361,-0.193750247977866
-0.332193275042203,-0.191306791783521
-0.334378019590916,-0.188885442914559
-0.336531177231297,-0.186486447162794
-0.338652959061147,-0.184110050320037
-0.340743576178263,-0.181756498178099
-0.342803239680446,-0.179426036528793
-0.344832160665494,-0.177118911163929
-0.346830550231206,-0.174835367875319
-0.348798619475382,-0.172575652454776
-0.35073657949582,-0.17034001069411
-0.35264464139032,-0.168128688385133
-0.35452301625668,-0.165941931319658
-0.356371915192701,-0.163779985289495
-0.35819154929618,-0.161643096086456
-0.359982129664917,-0.159531509502353
-0.361743867396711,-0.157445471328998
-0.363476973589361,-0.155385227358202
-0.365181659340667,-0.153351023381777
-0.366858135748427,-0.151343105191535
-0.36850661391044,-0.149361718579286
-0.370127304924505,-0.147407109336844
-0.371720419888423,-0.145479523256018
-0.373286169899991,-0.143579206128622
-0.374824766057008,-0.141706403746467
-0.376336419457275,-0.139861361901364
-0.377821341198589,-0.138044326385125
-0.37927974237875,-0.136255542989561
-0.380711834095558,-0.134495257506485
-0.38211782744681,-0.132763715727708
-0.383497933530307,-0.131061163445042
-0.384852363443847,-0.129387846450297
-0.38618132828523,-0.127744010535287
-0.387485039152254,-0.126129901491822
-0.388763707142719,-0.124545765111715
-0.390017543354424,-0.122991847186776
-0.391246758885167,-0.121468393508818
-0.392451564832748,-0.119975649869652
-0.393632172294966,-0.118513862061089
-0.394788792369621,-0.117083275874942
-0.39592163615451,-0.115684137103022
-0.397030914747433,-0.114316691537141
-0.39811683924619,-0.11298118496911
-0.399179620748579,-0.111677863190741
-0.4002194703524,-0.110406971993846
-0.401236599155452,-0.109168757170236
-0.402231218255533,-0.107963464511724
-0.403203538750442,-0.106791339810119
-0.40415377173798,-0.105652628857235
-0.405082128315944,-0.104547577444883
-0.405988819582135,-0.103476431364874
-0.406874056634351,-0.10243943640902
-0.40773805057039,-0.101436838369134
-0.408581012488054,-0.100468883037026
-0.409403153485139,-0.0995358162045074
-0.410204684659446,-0.0986378836633909
-0.410985817108773,-0.097775331205488
-0.41174676193092,-0.09694840462261
-0.412487730223686,-0.0961573497065688
-0.41320893308487,-0.0954024122491759
-0.41391058161227,-0.094683838042243
-0.414592886903687,-0.0940018728775817
-0.415256060056918,-0.0933567625470037
-0.415900312169764,-0.0927487528423206
-0.416525854340023,-0.0921780895553441
-0.417132897665494,-0.0916450184778858
-0.417721653243977,-0.0911497854017574
-0.41829233217327,-0.0906926361187704
-0.418845145551173,-0.0902738164207367
-0.419380304475484,-0.0898935720994677
-0.419898020044003,-0.0895521489467752
-0.420398503354529,-0.0892497927544707
-0.420881965504861,-0.0889867493143661
-0.421348617592798,-0.0887632644182727
-0.421798670716139,-0.0885795838580025
-0.422232335972684,-0.0884359534253669
-0.42264982446023,-0.0883326189121776
-0.423051347276578,-0.0882698261102463
-0.423437115519527,-0.0882478208113846
-0.423807340286875,-0.0882668488074041
-0.424162232676421,-0.0883271558901166
-0.424502003785966,-0.0884289878513337
-0.424826864713307,-0.0885725904828669
-0.425137026556244,-0.088758209576528
-0.425432700412576,-0.0889860909241285
-0.425714097380102,-0.0892564803174802
-0.425981428556621,-0.0895696235483947
-0.426234905039933,-0.0899257664086836
-0.426474737927836,-0.0903251546901586
-0.426701138318129,-0.0907680341846314
-0.426914317308612,-0.0912546506839134
-0.427114485997083,-0.0917852499798165
-0.427301855481342,-0.0923600778641523
-0.427476636859188,-0.0929793801287324
-0.42763904122842,-0.0936434025653684
-0.427789279686837,-0.094352390965872
-0.427927563332237,-0.0951065911220549
-0.428054103262421,-0.0959062488257287
-0.428169110575187,-0.0967516098687048
-0.428272796368335,-0.0976429200427954
-0.428365371739663,-0.0985804251398117
-0.42844704778697,-0.0995643709515654
-0.428518035608056,-0.100595003269868
-0.428578546300719,-0.101672567886532
-0.428628790962759,-0.102797310593368
-0.428668980691975,-0.103969477182188
-0.428699326586166,-0.105189313444804
-0.428720039743131,-0.106457065173027
-0.428731331260669,-0.107772978158669
-0.428733412236579,-0.109137298193542
-0.428726493768661,-0.110550271069457
-0.428710786954712,-0.112012142578226
-0.428686502892534,-0.113523158511661
-0.428653852679924,-0.115083564661573
-0.428613047414681,-0.116693606819774
-0.428564298194605,-0.118353530778075
-0.428507816117495,-0.120063582328288
-0.42844381228115,-0.121824007262226
-0.428372497783368,-0.123635051371698
-0.42829408372195,-0.125496960448518
-0.428208781194694,-0.127409980284496
-0.428116801299399,-0.129374356671445
-0.428018355133864,-0.131390335401176
-0.427913653795889,-0.133458162265501
-0.427802908383273,-0.135578083056231
-0.427686329993813,-0.137750343565178
-0.427564129725311,-0.139975189584154
-0.427436518675564,-0.14225286690497
-0.427303707942372,-0.144583621319437
-0.427165908623534,-0.146967698619369
-0.42702333181685,-0.149405344596575
-0.426876188620117,-0.151896805042869
-0.426724690131135,-0.154442325750061
-0.426569047447704,-0.157042152509963
-0.426409471667622,-0.159696531114386
-0.426246173888688,-0.162405707355144
-0.426079365208702,-0.165169927024046
-0.425909256725463,-0.167989435912905
-0.425736059536769,-0.170864479813533
-0.42555998474042,-0.17379530451774
-0.425381243434215,-0.176782155817339
-0.425200046715953,-0.179825279504142
-0.425016605683433,-0.182924921369959
-0.424831131434454,-0.186081327206604
-0.424643835066816,-0.189294742805886
-0.424454927678317,-0.192565413959618
-0.424264620366756,-0.195893586459612
-0.424073124229932,-0.199279506097679
-0.423880650365646,-0.202723418665631
-0.423687409871695,-0.206225569955279
-0.423493613845878,-0.209786205758435
-0.423299473385996,-0.213405571866912
-0.423105199589846,-0.217083914072519
-0.422911003555229,-0.22082147816707
-0.422717096379942,-0.224618509942375
-0.422523689161786,-0.228475255190247
-0.422330992998559,-0.232391959702497
-0.422139218988061,-0.236368869270936
-0.42194857822809,-0.240406229687377
-0.421759281816445,-0.244504286743631
-0.421571540850926,-0.248663286231509
-0.421385566429332,-0.252883473942824
-0.421201569649462,-0.257165095669386
-0.421019761609114,-0.261508397203008
-0.420840353406089,-0.265913624335501
-0.420663556138184,-0.270381022858677
-0.4204895809032,-0.274910838564347
-0.420318638798935,-0.279503317244324
-0.420150940923189,-0.284158704690418
-0.419986698373759,-0.288877246694442
-0.419826122248447,-0.293659189048206
-0.41966942364505,-0.298504777543524
-0.419516813661367,-0.303414257972206
-0.419368503395198,-0.308387876126064
-0.419224703944343,-0.313425877796909
-0.419085626406599,-0.318528508776554
-0.418951481879766,-0.323696014856809
-0.418822481461643,-0.328928641829487
-0.41869883625003,-0.3342266354864
-0.418580757342725,-0.339590241619358
-0.418468455837527,-0.345019706020174
-0.418362142832236,-0.350515274480659
-0.41826202942465,-0.356077192792624
-0.418168326712569,-0.361705706747883
-0.418081245793791,-0.367401062138245
-0.418000997766117,-0.373163504755523
-0.417927793727344,-0.378993280391528
-0.417861844775273,-0.384890634838073
-0.417803362007701,-0.390855813886968
-0.417752556522429,-0.396889063330025
-0.417709639417255,-0.402990628959057
-0.417674821789978,-0.409160756565874
-0.417648314738397,-0.415399691942288
-0.417630329360313,-0.421707680880112
-0.417621076753523,-0.428084969171155
-0.417620768015826,-0.434531802607231
-0.417629614245022,-0.441048426980151
-0.417647826538911,-0.447635088081726
-0.41767561599529,-0.454292031703769
-0.417713193711959,-0.46101950363809
-0.417760770786717,-0.467817749676502
-0.417818558317364,-0.474687015610816
-0.417886767401698,-0.481627547232843
-0.417965609137518,-0.488639590334396
-0.418055294622624,-0.495723390707286
-0.418156034954814,-0.502879194143324
-0.418268041231888,-0.510107246434323
-0.418391524551645,-0.517407793372094
-0.418526696011883,-0.524781080748448
-0.418673766710403,-0.532227354355198
-0.418832947745002,-0.539746859984155
-0.419004450213481,-0.54733984342713
-0.419188485213637,-0.555006550475935
-0.419385263843271,-0.562747226922382
-0.419385263843271,-0.562747226922382
-0.419565891031545,-0.570473433053084
-0.419701498987441,-0.578096874025464
-0.419792339728485,-0.585618012937545
-0.419838665272207,-0.593037312887355
-0.419840727636134,-0.600355236972917
-0.419798778837793,-0.607572248292257
-0.419713070894713,-0.614688809943401
-0.419583855824421,-0.621705385024375
-0.419411385644445,-0.628622436633202
-0.419195912372313,-0.635440427867909
-0.418937688025552,-0.64215982182652
-0.418636964621691,-0.648781081607062
-0.418293994178257,-0.655304670307559
-0.417909028712778,-0.661731051026036
-0.417482320242781,-0.66806068686052
-0.417014120785795,-0.674294040909035
-0.416504682359348,-0.680431576269606
-0.415954256980966,-0.686473756040259
-0.415363096668178,-0.692421043319019
-0.414731453438512,-0.698273901203912
-0.414059579309496,-0.704032792792963
-0.413347726298656,-0.709698181184196
-0.412596146423522,-0.715270529475638
-0.41180509170162,-0.720750300765314
-0.410974814150479,-0.726137958151248
-0.410105565787626,-0.731433964731466
-0.409197598630589,-0.736638783603994
-0.408251164696897,-0.741752877866858
-0.407266516004076,-0.746776710618081
-0.406243904569654,-0.751710744955689
-0.40518358241116,-0.756555443977708
-0.404085801546121,-0.761311270782163
-0.402950813992064,-0.765978688467079
-0.401778871766518,-0.770558160130482
-0.400570226887011,-0.775050148870397
-0.39932513137107,-0.779455117784849
-0.398043837236222,-0.783773529971863
-0.396726596499997,-0.788005848529465
-0.395373661179921,-0.79215253655568
-0.393985283293522,-0.796214057148534
-0.392561714858329,-0.800190873406051
-0.391103207891868,-0.804083448426256
-0.389610014411668,-0.807892245307177
-0.388082386435257,-0.811617727146836
-0.386520575980161,-0.815260357043261
-0.38492483506391,-0.818820598094476
-0.383295415704031,-0.822298913398506
-0.381632569918051,-0.825695766053377
-0.379936549723498,-0.829011619157113
-0.378207607137901,-0.832246935807741
-0.376445994178786,-0.835402179103286
-0.374651962863683,-0.838477812141773
-0.372825765210118,-0.841474298021226
-0.370967653235619,-0.844392099839673
-0.369077878957714,-0.847231680695136
-0.367156694393931,-0.849993503685643
-0.365204351561798,-0.852678031909219
-0.363221102478842,-0.855285728463888
-0.361207199162592,-0.857817056447676
-0.359162893630574,-0.860272478958608
-0.357088437900317,-0.86265245909471
-0.354984083989349,-0.864957459954006
-0.352850083915197,-0.867187944634523
-0.350686689695389,-0.869344376234285
-0.348494153347454,-0.871427217851318
-0.346272726888918,-0.873436932583647
-0.344022662337309,-0.875373983529297
-0.341744211710156,-0.877238833786294
-0.339437627024985,-0.879031946452663
-0.337103160299326,-0.880753784626428
-0.334741063550705,-0.882404811405617
-0.332351588796651,-0.883985489888253
-0.329934988054691,-0.885496283172363
-0.327491513342352,-0.88693765435597
-0.325021416677164,-0.888310066537101
-0.322524950076653,-0.889613982813782
-0.320002365558347,-0.890849866284036
-0.317453915139775,-0.89201818004589
-0.314879850838463,-0.893119387197369
-0.31228042467194,-0.894153950836498
-0.309655888657734,-0.895122334061303
-0.307006494813372,-0.896024999969808
-0.304332495156382,-0.896862411660039
-0.301634141704291,-0.897635032230022
-0.298911686474629,-0.898343324777781
-0.296165381484921,-0.898987752401342
-0.293395478752697,-0.899568778198731
-0.290602230295484,-0.900086865267972
-0.28778588813081,-0.90054247670709
-0.284946704276202,-0.900936075614112
-0.282084930749188,-0.901268125087062
-0.279200819567297,-0.901539088223966
-0.276294622748055,-0.901749428122849
-0.273366592308991,-0.901899607881736
-0.270416980267632,-0.901990090598653
-0.267446038641507,-0.902021339371625
-0.264454019448143,-0.901993817298677
-0.261441174705067,-0.901907987477834
-0.258407756429808,-0.901764313007122
-0.255354016639894,-0.901563256984566
-0.252280207352852,-0.901305282508192
-0.249186580586209,-0.900990852676024
-0.246073388357494,-0.900620430586087
-0.242940882684235,-0.900194479336409
-0.239789315583959,-0.899713462025013
-0.236618939074194,-0.899177841749924
-0.233430005172468,-0.898588081609169
-0.230222765896309,-0.897944644700772
-0.226997473263244,-0.897247994122759
-0.223754379290801,-0.896498592973155
-0.220493735996508,-0.895696904349985
-0.217215795397893,-0.894843391351275
-0.213920809512484,-0.893938517075049
-0.210609030357808,-0.892982744619334
-0.207280709951393,-0.891976537082154
-0.203936100310767,-0.890920357561536
-0.200575453453458,-0.889814669155503
-0.197199021396993,-0.888659934962081
-0.1938070561589,-0.887456618079296
-0.190399809756708,-0.886205181605174
-0.186977534207943,-0.884906088637738
-0.183540481530134,-0.883559802275015
-0.180088903740808,-0.88216678561503
-0.176623052857493,-0.880727501755808
-0.173143180897718,-0.879242413795374
-0.169649539879009,-0.877711984831754
-0.166142381818895,-0.876136677962973
-0.162621958734903,-0.874516956287057
-0.159088522644561,-0.87285328290203
-0.155542325565397,-0.871146120905918
-0.151983619514939,-0.869395933396746
-0.148412656510714,-0.86760318347254
-0.14482968857025,-0.865768334231325
-0.141234967711076,-0.863891848771125
-0.137628745950718,-0.861974190189967
-0.134011275306705,-0.860015821585876
-0.130382807796564,-0.858017206056877
-0.126743595437823,-0.855978806700994
-0.123093890248011,-0.853901086616255
-0.119433944244654,-0.851784508900683
-0.11576400944528,-0.849629536652305
-0.112084337867418,-0.847436632969145
-0.108395181528595,-0.845206260949228
-0.104696792446339,-0.842938883690581
-0.100989422638178,-0.840634964291229
-0.0972733241216384,-0.838294965849195
-0.0935487489142495,-0.835919351462507
-0.0898159490335386,-0.833508584229189
-0.0860751764970336,-0.831063127247266
-0.082326683322262,-0.828583443614765
-0.0785707215267518,-0.826069996429709
-0.0748075431280308,-0.823523248790125
-0.0710374001436267,-0.820943663794037
-0.0672605445910673,-0.818331704539472
-0.0634772284878804,-0.815687834124453
-0.0596877038515938,-0.813012515647008
-0.0558922226997353,-0.81030621220516
-0.0520910370498324,-0.807569386896935
-0.0482843989194133,-0.804802502820359
-0.0444725603260057,-0.802006023073457
-0.0406557732871372,-0.799180410754254
-0.0368342898203357,-0.796326128960775
-0.0330083619431288,-0.793443640791046
-0.0291782416730447,-0.790533409343091
-0.0253441810276109,-0.787595897714938
-0.0215064320243551,-0.784631569004609
-0.0176652466808052,-0.781640886310131
-0.013820877014489,-0.77862431272953
-0.00997357504293438,-0.77558231136083
-0.00612359278366889,-0.772515345302056
-0.00227118225422046,-0.769423877651235
0.00158340452788312,-0.766308371506391
0.0054399155451141,-0.76316928996555
0.0092980987799447,-0.760007096126736
0.0131577022148472,-0.756822253087975
0.0170184738322936,-0.753615223947294
0.0208801616147563,-0.750386471802716
0.0247425135447076,-0.747136459752267
0.0286052776046195,-0.743865650893972
0.0324682017769642,-0.740574508325857
0.0363310340442141,-0.737263495145947
0.0401935223888414,-0.733933074452268
0.0440554147933183,-0.730583709342843
0.0479164592401169,-0.7272158629157
0.0517764037117094,-0.723829998268863
0.0556349961905682,-0.720426578500357
0.0594919846591654,-0.717006066708208
0.0633471170999732,-0.713568925990442
0.0672001414954639,-0.710115619445082
0.0710508058281096,-0.706646610170155
0.0748988580803827,-0.703162361263686
0.0787440462347552,-0.6996633358237
0.0825861182736994,-0.696149996948223
0.0864248221796876,-0.69262280773528
0.0902599059351919,-0.689082231282895
0.0940911175226846,-0.685528730689095
0.0979182049246378,-0.681962769051905
0.101740916123524,-0.67838480946935
0.105558999101815,-0.674795315039455
0.109372201841983,-0.671194748860246
0.113180272326501,-0.667583574029747
0.11698295853784,-0.663962253645985
0.120780008458474,-0.660331250806984
0.124571170070873,-0.65669102861077
0.128356191357511,-0.653042050155368
0.132134820300859,-0.649384778538803
0.13590680488339,-0.645719676859101
0.139671893087575,-0.642047208214287
0.143429832895888,-0.638367835702386
0.147180372290801,-0.634682022421424
0.150923259254785,-0.630990231469425
0.154658241770313,-0.627292925944416
0.158385067819857,-0.623590568944421
0.162103485385888,-0.619883623567466
0.165813242450881,-0.616172552911575
0.169514086997306,-0.612457820074776
0.173205767007636,-0.608739888155091
0.176888030464344,-0.605019220250548
0.1805606253499,-0.60129627945917
0.184223299646778,-0.597571528878985
0.18787580133745,-0.593845431608016
0.191517878404388,-0.590118450744289
0.195149278830064,-0.586391049385829
0.19876975059695,-0.582663690630663
0.20237904168752,-0.578936837576814
0.205976900084243,-0.575210953322308
0.209563073769594,-0.571486500965171
0.213137310726045,-0.567763943603428
0.216699358936066,-0.564043744335104
0.220248966382132,-0.560326366258224
0.223785881046713,-0.556612272470814
0.227309850912283,-0.552901926070899
0.230820623961312,-0.549195790156505
0.234317948176275,-0.545494327825656
0.237801571539642,-0.541798002176378
0.241271242033886,-0.538107276306696
0.24472670764148,-0.534422613314635
0.248167716344894,-0.530744476298222
0.251594016126603,-0.527073328355481
0.255005354969077,-0.523409632584437
0.258401480854789,-0.519753852083115
0.261782141766212,-0.516106449949542
0.265147085685817,-0.512467889281742
0.268496060596077,-0.50883863317774
0.271828814479464,-0.505219144735563
0.27514509531845,-0.501609887053234
0.278444651095507,-0.49801132322878
0.281727229793108,-0.494423916360226
0.284992579393725,-0.490848129545597
0.28824044787983,-0.487284425882918
0.291470583233895,-0.483733268470215
0.294682733438392,-0.480195120405513
0.297876646475795,-0.476670444786836
0.301052070328574,-0.473159704712212
0.304208752979202,-0.469663363279664
0.307346442410151,-0.466181883587219
0.310464886603894,-0.4627157287329
0.313563833542903,-0.459265361814735
0.31664303120965,-0.455831245930747
0.319702227586606,-0.452413844178963
0.322741170656246,-0.449013619657408
0.325759608401039,-0.445631035464106
0.32875728880346,-0.442266554697083
0.33173395984598,-0.438920640454366
0.334689369511071,-0.435593755833977
0.337623265781205,-0.432286363933944
0.340535396638856,-0.428998927852291
0.343425510066494,-0.425731910687044
0.346293354046592,-0.422485775536228
0.349138676561622,-0.419260985497868
0.351961225594058,-0.416058003669989
0.354760749126369,-0.412877293150618
0.35753699514103,-0.409719317037779
0.360289711620512,-0.406584538429496
0.363018646547288,-0.403473420423797
0.365723547903829,-0.400386426118706
0.368404163672608,-0.397324018612248
0.371060241836097,-0.394286661002449
0.373691530376768,-0.391274816387333
0.376297777277094,-0.388288947864927
0.378878730519546,-0.385329518533255
0.381434138086598,-0.382396991490343
0.38396374796072,-0.379491829834217
0.386467308124386,-0.3766144966629
0.388944566560068,-0.373765455074419
0.391395271250237,-0.3709451681668
0.393819170177366,-0.368154099038066
0.396216011323928,-0.365392710786244
0.398585542672394,-0.362661466509359
0.400927512205237,-0.359960829305436
0.403241667904928,-0.357291262272501
0.405527757753941,-0.354653228508578
0.407785529734747,-0.352047191111693
0.410014731829818,-0.349473613179872
0.412215112021627,-0.346932957811139
0.414386418292646,-0.34442568810352
0.416528398625348,-0.341952267155041
0.418640801002203,-0.339513158063726
0.420723373405685,-0.3371088239276
0.422775863818266,-0.33473972784469
0.424798020222419,-0.33240633291302
0.426789590600614,-0.330109102230616
0.428750322935325,-0.327848498895503
0.430679965209023,-0.325624986005706
0.432578265404182,-0.323439026659251
0.434444971503272,-0.321291083954163
0.436279831488767,-0.319181620988467
0.438082593343138,-0.317111100860188
0.439853005048858,-0.315079986667352
0.4415908145884,-0.313088741507984
0.443295769944234,-0.31113782848011
0.444967619098834,-0.309227710681754
0.446606110034671,-0.307358851210942
0.448210990734218,-0.3055317131657
0.449782009179947,-0.303746759644052
0.451318913354331,-0.302004453744023
0.452821451239841,-0.30030525856364
0.454289370818949,-0.298649637200927
0.455722420074129,-0.29703805275391
0.457120346987852,-0.295470968320614
0.45848289954259,-0.293948846999065
0.459809825720815,-0.292472151887287
0.461100873505001,-0.291041346083306
0.462355790877618,-0.289656892685147
0.46357432582114,-0.288319254790835
0.464756226318038,-0.287028895498396
0.465901240350785,-0.285786277905856
0.467009115901852,-0.284591865111239
0.468079600953713,-0.28344612021257
0.469112443488839,-0.282349506307875
0.470107391489702,-0.28130248649518
0.471064192938775,-0.280305523872509
0.47198259581853,-0.279359081537888
0.47286234811144,-0.278463622589342
0.473703197799975,-0.277619610124897
0.47450489286661,-0.276827507242577
0.475267181293815,-0.276087777040409
0.475989811064063,-0.275400882616417
0.476672530159826,-0.274767287068626
0.477315086563577,-0.274187453495062
0.477917228257787,-0.273661844993751
0.478478703224929,-0.273190924662717
0.478999259447476,-0.272775155599986
0.479478644907898,-0.272415000903583
0.47991660758867,-0.272110923671533
0.480312895472262,-0.271863387001862
0.480667256541147,-0.271672853992595
0.480979438777797,-0.271539787741757
0.481249190164684,-0.271464651347374
0.481476258684281,-0.271447907907471
0.48166039231906,-0.271490020520073
0.481801339051493,-0.271591452283205
0.481898846864052,-0.271752666294893
0.48195266373921,-0.271974125653162
0.481962537659439,-0.272256293456038
0.48192821660721,-0.272599632801545
0.481849448564996,-0.273004606787709
0.48172598151527,-0.273471678512555
0.481557563440503,-0.274001311074109
0.481343942323169,-0.274593967570396
0.481084866145738,-0.275250111099441
0.480780082890683,-0.275970204759269
0.480429340540477,-0.276754711647906
0.480032387077591,-0.277604094863377
0.479588970484498,-0.278518817503707
0.47909883874367,-0.279499342666922
0.47856173983758,-0.280546133451046
0.477977421748699,-0.281659652954106
0.4773456324595,-0.282840364274127
0.476666119952454,-0.284088730509133
0.475938632210035,-0.28540521475715
0.475162917214714,-0.286790280116204
0.474338722948964,-0.288244389684319
0.473465797395257,-0.289768006559521
0.472543888536064,-0.291361593839836
0.471572744353859,-0.293025614623288
0.470552112831113,-0.294760532007903
0.469481741950299,-0.296566809091705
0.468361379693889,-0.298444908972722
0.467190774044355,-0.300395294748977
0.465969672984169,-0.302418429518496
0.464697824495804,-0.304514776379305
0.463374976561731,-0.306684798429428
0.462000877164423,-0.308928958766891
0.460575274286353,-0.311247720489719
0.459097915909992,-0.313641546695938
0.457568550017812,-0.316110900483572
0.455986924592287,-0.318656244950648
0.454352787615887,-0.32127804319519
0.452665887071086,-0.323976758315224
0.450925970940355,-0.326752853408774
0.449132787206166,-0.329606791573867
0.447286083850993,-0.332539035908528
0.445385608857307,-0.335550049510781
0.44343111020758,-0.338640295478653
0.441422335884284,-0.341810236910168
0.439359033869893,-0.345060336903352
0.437240952146877,-0.348391058556229
0.43506783869771,-0.351802864966827
