-0.1968437513018,0.279407750181612
-0.201154432806638,0.273345584781778
-0.205440282433501,0.267342506090876
-0.209701335325186,0.261398217105909
-0.213937626624489,0.255512420823883
-0.218149191474208,0.249684820241801
-0.222336065017138,0.24391511835667
-0.226498282396078,0.238203018165493
-0.230635878753823,0.232548222665275
-0.234748889233171,0.22695043485302
-0.238837348976918,0.221409357725735
-0.242901293127861,0.215924694280422
-0.246940756828798,0.210496147514087
-0.250955775222524,0.205123420423735
-0.254946383451837,0.19980621600637
-0.258912616659534,0.194544237258997
-0.262854509988411,0.18933718717862
-0.266772098581265,0.184184768762244
-0.270665417580893,0.179086685006875
-0.274534502130092,0.174042638909516
-0.278379387371659,0.169052333467172
-0.28220010844839,0.164115471676848
-0.285996700503083,0.159231756535549
-0.289769198678534,0.154400891040279
-0.29351763811754,0.149622578188043
-0.297242053962898,0.144896520975846
-0.300942481357404,0.140222422400692
-0.304618955443856,0.135599985459586
-0.30827151136505,0.131028913149533
-0.311900184263784,0.126508908467538
-0.315505009282853,0.122039674410604
-0.319086021565056,0.117620913975737
-0.322643256253188,0.113252330159942
-0.326176748490046,0.108933625960222
-0.329686533418428,0.104664504373584
-0.33317264618113,0.10044466839703
-0.336635121920949,0.0962738210275675
-0.340073995780682,0.0921516652621995
-0.343489302903125,0.0880779040979308
-0.346881078431076,0.0840522405317663
-0.350249357507331,0.0800743775607108
-0.353594175274687,0.0761440181817688
-0.356915566875941,0.072260865391945
-0.36021356745389,0.0684246221882441
-0.363488212151331,0.0646349915676708
-0.36673953611106,0.0608916765272298
-0.369967574475874,0.0571943800639258
-0.373172362388571,0.0535428051747633
-0.376353934991946,0.0499366548567473
-0.379512327428798,0.0463756321068822
-0.382647574841921,0.0428594399221727
-0.385759712374115,0.0393877812996236
-0.388848775168174,0.0359603592362396
-0.391914798366897,0.0325768767290252
-0.394957817113079,0.0292370367749853
-0.397977866549518,0.0259405423711244
-0.400974981819011,0.0226870965144473
-0.403949198064355,0.0194764022019586
-0.406900550428345,0.016308162430663
-0.409829074053779,0.0131820801975652
-0.412734804083455,0.01009785849967
-0.415617775660168,0.00705520033398186
-0.418478023926716,0.00405380869750556
-0.421315584025895,0.00109338658724574
-0.424130491100503,-0.00182636299979284
-0.426922780293335,-0.00470573706660552
-0.429692486747189,-0.00754503261618768
-0.432439645604862,-0.0103445466515346
-0.435164292009151,-0.0131045761756416
-0.437866461102852,-0.015825418191504
-0.440546188028762,-0.0185073697021171
-0.443203507929678,-0.0211507277104763
-0.445838455948397,-0.0237557892195768
-0.448451067227716,-0.026322851232414
-0.451041376910431,-0.0288522107519832
-0.453609420139339,-0.0313441647812797
-0.456155232057238,-0.0337990103232989
-0.458678847806924,-0.036217044381036
-0.461180302531194,-0.0385985639574864
-0.463659631372844,-0.0409438660556454
-0.466116869474672,-0.0432532476785084
-0.468552051979474,-0.0455270058290705
-0.470965214030047,-0.0477654375103272
-0.473356390769188,-0.0499688397252738
-0.475725617339695,-0.0521375094769056
-0.478072928884362,-0.0542717437682179
-0.480398360545989,-0.0563718396022061
-0.48270194746737,-0.0584380939818654
-0.484983724791304,-0.0604708039101912
-0.487243727660587,-0.0624702663901788
-0.489481991218015,-0.0644367784248235
-0.491698550606386,-0.0663706370171206
-0.493893440968497,-0.0682721391700655
-0.496066697447143,-0.0701415818866534
-0.498218355185123,-0.0719792621698798
-0.500348449325233,-0.0737854770227399
-0.50245701501027,-0.075560523448229
-0.50454408738303,-0.0773046984493425
-0.506609701586311,-0.0790182990290756
-0.508653892762909,-0.0807016221904238
-0.510676696055621,-0.0823549649363822
-0.512678146607244,-0.0839786242699463
-0.514658279560575,-0.0855728971941113
-0.51661713005841,-0.0871380807118727
-0.518554733243547,-0.0886744718262255
-0.520471124258783,-0.0901823675401654
-0.522366338246913,-0.0916620648566874
-0.524240410350735,-0.093113860778787
-0.526093375713045,-0.0945380523094595
-0.527925269476642,-0.0959349364517001
-0.529736126784321,-0.0973048102085043
-0.531525982778879,-0.0986479705828673
-0.533294872603113,-0.0999647145777845
-0.53504283139982,-0.101255339196251
-0.536769894311796,-0.102520141441263
-0.53847609648184,-0.103759418315814
-0.540161473052746,-0.104973466822901
-0.541826059167313,-0.106162583965519
-0.543469889968337,-0.107327066746663
-0.545093000598615,-0.108467212169328
-0.546695426200943,-0.10958331723651
-0.548277201918119,-0.110675678951203
-0.54983836289294,-0.111744594316405
-0.551378944268201,-0.112790360335109
-0.552898981186701,-0.113813274010311
-0.554398508791235,-0.114813632345006
-0.555877562224601,-0.11579173234219
-0.557336176629596,-0.116747871004857
-0.558774387149016,-0.117682345336004
-0.560192228925658,-0.118595452338626
-0.561589737102319,-0.119487489015718
-0.562966946821796,-0.120358752370274
-0.564323893226886,-0.121209539405292
-0.565660611460385,-0.122040147123765
-0.56697713666509,-0.122850872528689
-0.568273503983799,-0.12364201262306
-0.569549748559307,-0.124413864409873
-0.570805905534413,-0.125166724892123
-0.572042010051912,-0.125900891072805
-0.573258097254601,-0.126616659954915
-0.574454202285278,-0.127314328541448
-0.575630360286739,-0.1279941938354
-0.576786606401781,-0.128656552839765
-0.577922975773201,-0.12930170255754
-0.579039503543795,-0.129929939991719
-0.580136224856361,-0.130541562145297
-0.581213174853695,-0.131136866021271
-0.582270388678594,-0.131716148622635
-0.583307901473855,-0.132279706952384
-0.584325748382275,-0.132827838013515
-0.58532396454665,-0.133360838809021
-0.586302585109778,-0.1338790063419
-0.587261645214456,-0.134382637615145
-0.588201180003479,-0.134872029631753
-0.589121224619645,-0.135347479394718
-0.590021814205751,-0.135809283907036
-0.590902983904593,-0.136257740171703
-0.59176476885897,-0.136693145191713
-0.592607204211676,-0.137115795970061
-0.593430325105509,-0.137525989509744
-0.594234166683266,-0.137924022813757
-0.595018764087744,-0.138310192885094
-0.595784152461739,-0.138684796726751
-0.596530366948049,-0.139048131341724
-0.59725744268947,-0.139400493733008
-0.5979654148288,-0.139742180903597
-0.598654318508833,-0.140073489856489
-0.599324188872369,-0.140394717594676
-0.599975061062203,-0.140706161121156
-0.600606970221133,-0.141008117438924
-0.601219951491955,-0.141300883550974
-0.601814040017466,-0.141584756460302
-0.602389270940462,-0.141860033169903
-0.602945679403742,-0.142127010682773
-0.603483300550101,-0.142385986001907
-0.604002169522336,-0.1426372561303
-0.604502321463245,-0.142881118070948
-0.604983791515623,-0.143117868826846
-0.605446614822268,-0.143347805400989
-0.605890826525977,-0.143571224796373
-0.606316461769547,-0.143788424015992
-0.606723555695774,-0.143999700062843
-0.607112143447455,-0.14420534993992
-0.607482260167387,-0.14440567065022
-0.607833940998367,-0.144600959196736
-0.608167221083191,-0.144791512582465
-0.608482135564657,-0.144977627810401
-0.608778719585561,-0.145159601883541
-0.609057008288701,-0.145337731804879
-0.609317036816872,-0.145512314577411
-0.609558840312872,-0.145683647204132
-0.609782453919498,-0.145852026688038
-0.609987912779546,-0.146017750032123
-0.610175252035814,-0.146181114239383
-0.610344506831098,-0.146342416312814
-0.610495712308194,-0.14650195325541
-0.610628903609901,-0.146660022070168
-0.610744115879014,-0.146816919760081
-0.61084138425833,-0.146972943328147
-0.610920743890647,-0.147128389777359
-0.610982229918761,-0.147283556110713
-0.611025877485469,-0.147438739331206
-0.611051721733567,-0.147594236441831
-0.611059797805853,-0.147750344445584
-0.611050140845124,-0.147907360345461
-0.611022785994176,-0.148065581144457
-0.610977768395806,-0.148225303845567
-0.61091512319281,-0.148386825451786
-0.610834885527987,-0.148550442966111
-0.610737090544132,-0.148716453391535
-0.610621773384043,-0.148885153731055
-0.610488969190516,-0.149056840987666
-0.610338713106347,-0.149231812164363
-0.610171040274335,-0.149410364264142
-0.609985985837276,-0.149592794289997
-0.609783584937966,-0.149779399244924
-0.609563872719202,-0.149970476131919
-0.609326884323782,-0.150166321953976
-0.609072654894501,-0.150367233714092
-0.608801219574158,-0.15057350841526
-0.608512613505548,-0.150785443060478
-0.608206871831469,-0.151003334652739
-0.607884029694717,-0.15122748019504
-0.607544122238089,-0.151458176690376
-0.607187184604383,-0.151695721141741
-0.606813251936394,-0.151940410552132
-0.60642235937692,-0.152192541924543
-0.606014542068757,-0.15245241226197
-0.605589835154703,-0.152720318567409
-0.605148273777554,-0.152996557843854
-0.604689893080107,-0.153281427094301
-0.604214728205159,-0.153575223321745
-0.603722814295506,-0.153878243529182
-0.603214186493946,-0.154190784719606
-0.602688879943275,-0.154513143896014
-0.60214692978629,-0.1548456180614
-0.601588371165789,-0.15518850421876
-0.601013239224567,-0.155542099371089
-0.600421569105422,-0.155906700521382
-0.59981339595115,-0.156282604672635
-0.599188754904549,-0.156670108827844
-0.598547681108414,-0.157069509990003
-0.597890209705544,-0.157481105162107
-0.597216375838735,-0.157905191347152
-0.596526214650783,-0.158342065548134
-0.595819761284485,-0.158792024768048
-0.595097050882639,-0.159255366009888
-0.594358118588041,-0.159732386276651
-0.593602999543488,-0.160223382571332
-0.592831728891777,-0.160728651896925
-0.592044341775704,-0.161248491256427
-0.591240873338067,-0.161783197652832
-0.590421358721662,-0.162333068089136
-0.589585833069286,-0.162898399568335
-0.588734331523736,-0.163479489093423
-0.587866889227809,-0.164076633667395
-0.586983541324301,-0.164690130293248
-0.58608432295601,-0.165320275973977
-0.585169269265732,-0.165967367712576
-0.584238415396264,-0.166631702512042
-0.583291796490403,-0.167313577375369
-0.582329447690946,-0.168013289305553
-0.581351404140689,-0.168731135305589
-0.580357700982429,-0.169467412378472
-0.579348373358964,-0.170222417527198
-0.57832345641309,-0.170996447754762
-0.577282985287604,-0.17178980006416
-0.576226995125303,-0.172602771458386
-0.575155521068983,-0.173435658940437
-0.574068598261441,-0.174288759513306
-0.572966261845475,-0.175162370179991
-0.57184854696388,-0.176056787943485
-0.570715488759455,-0.176972309806785
-0.569567122374995,-0.177909232772885
-0.568403482953298,-0.178867853844781
-0.56722460563716,-0.179848470025469
-0.566030525569378,-0.180851378317943
-0.56482127789275,-0.181876875725199
-0.563596897750071,-0.182925259250232
-0.562357420284139,-0.183996825896038
-0.56110288063775,-0.185091872665612
-0.559833313953702,-0.186210696561948
-0.558548755374791,-0.187353594588044
-0.557249240043814,-0.188520863746893
-0.555934803103567,-0.189712801041491
-0.554605479696849,-0.190929703474834
-0.553261304966454,-0.192171868049917
-0.551902314055181,-0.193439591769734
-0.550528542105827,-0.194733171637282
-0.549140024261187,-0.196052904655556
-0.547736795664059,-0.197399087827551
-0.54631889145724,-0.198772018156262
-0.544886346783526,-0.200171992644685
-0.543439196785714,-0.201599308295816
-0.541977476606602,-0.203054262112648
-0.540501221388985,-0.204537151098178
-0.539010466275662,-0.206048272255401
-0.537505246409428,-0.207587922587312
-0.53598559693308,-0.209156399096907
-0.534451552989416,-0.210753998787181
-0.532903149721231,-0.212381018661129
-0.531340422271324,-0.214037755721747
-0.52976340578249,-0.21572450697203
-0.528172135397527,-0.217441569414973
-0.526566646259232,-0.219189240053571
-0.524946973510401,-0.22096781589082
-0.523313152293831,-0.222777593929716
-0.521665217752318,-0.224618871173253
-0.520003205028661,-0.226491944624427
-0.518327149265655,-0.228397111286232
-0.516637085606097,-0.230334668161666
-0.514933049192785,-0.232304912253722
-0.513215075168515,-0.234308140565396
-0.511483198676083,-0.236344650099684
-0.509737454858287,-0.23841473785958
-0.507977878857924,-0.240518700848081
-0.506204505817791,-0.242656836068181
-0.504417370880683,-0.244829440522875
-0.502616509189399,-0.24703681121516
-0.500801955886734,-0.24927924514803
-0.498973746115486,-0.25155703932448
-0.497131915018452,-0.253870490747507
-0.495276497738428,-0.256219896420105
-0.493407529418211,-0.258605553345269
-0.491525045200598,-0.261027758525996
-0.489629080228387,-0.263486808965279
-0.487719669644372,-0.265983001666116
-0.485796848591353,-0.2685166336315
-0.483860652212124,-0.271088001864427
-0.481911115649484,-0.273697403367893
-0.479948274046229,-0.276345135144893
-0.477972162545156,-0.279031494198422
-0.475982816289061,-0.281756777531475
-0.473980270420742,-0.284521282147048
-0.471964560082995,-0.287325305048137
-0.469935720418617,-0.290169143237736
-0.467893786570405,-0.29305309371884
-0.465838793681157,-0.295977453494446
-0.463770776893667,-0.298942519567548
-0.461689771350734,-0.301948588941142
-0.459595812195155,-0.304995958618223
-0.457488934569726,-0.308084925601786
-0.455369173617243,-0.311215786894827
-0.453236564480505,-0.314388839500341
-0.451091142302307,-0.317604380421323
-0.448932942225446,-0.320862706660769
-0.44676199939272,-0.324164115221674
-0.444578348946925,-0.327508903107033
-0.442382026030858,-0.330897367319842
-0.440173065787315,-0.334329804863096
-0.437951503359095,-0.33780651273979
-0.435717373888992,-0.34132778795292
-0.433470712519805,-0.34489392750548
-0.43121155439433,-0.348505228400467
-0.428939934655364,-0.352161987640875
-0.426655888445704,-0.3558645022297
-0.424359450908146,-0.359613069169937
-0.422050657185488,-0.363407985464582
-0.419729542420526,-0.36724954811663
-0.417396141756057,-0.371138054129075
-0.415050490334878,-0.375073800504914
-0.412692623299785,-0.379057084247142
-0.410322575793577,-0.383088202358754
-0.407940382959048,-0.387167451842746
-0.405546079938997,-0.391295129702112
-0.40313970187622,-0.395471532939848
-0.400721283913514,-0.399696958558949
-0.398290861193675,-0.403971703562412
-0.395848468859501,-0.40829606495323
-0.393394142053789,-0.412670339734399
-0.390927915919334,-0.417094824908916
-0.388449825598935,-0.421569817479774
-0.385959906235387,-0.426095614449969
-0.383458192971489,-0.430672512822497
-0.380944720950035,-0.435300809600353
-0.378419525313825,-0.439980801786532
-0.375882641205653,-0.44471278638403
-0.373334103768317,-0.449497060395842
-0.370773948144614,-0.454333920824962
-0.368202209477341,-0.459223664674388
-0.365618922909294,-0.464166588947113
-0.363024123583271,-0.469162990646134
-0.360417846642068,-0.474213166774444
-0.357800127228482,-0.479317414335041
-0.355171000485309,-0.484476030330919
-0.352530501555348,-0.489689311765073
-0.349878665581393,-0.494957555640499
-0.347215527706243,-0.500281058960192
-0.344541123072695,-0.505660118727148
-0.341855486823544,-0.511095031944361
-0.339158654101588,-0.516586095614827
-0.336450660049624,-0.522133606741542
-0.333731539810448,-0.5277378623275
-0.331001328526857,-0.533399159375697
-0.328260061341649,-0.539117794889129
-0.325507773397619,-0.54489406587079
-0.322744499837566,-0.550728269323676
-0.319970275804284,-0.556620702250783
-0.317185136440573,-0.562571661655105
-0.314389116889227,-0.568581444539638
-0.314389116889227,-0.568581444539638
-0.311600789933886,-0.574597969712517
-0.308838590391498,-0.580568992597808
-0.306102346454823,-0.586494565122402
-0.303391886316626,-0.592374739213192
-0.300707038169667,-0.59820956679707
-0.298047630206708,-0.603999099800926
-0.295413490620512,-0.609743390151654
-0.29280444760384,-0.615442489776144
-0.290220329349456,-0.62109645060129
-0.287660964050119,-0.626705324553982
-0.285126179898593,-0.632269163561112
-0.282615805087641,-0.637788019549572
-0.280129667810022,-0.643261944446254
-0.277667596258501,-0.64869099017805
-0.275229418625838,-0.654075208671852
-0.272814963104796,-0.659414651854552
-0.270424057888136,-0.66470937165304
-0.268056531168622,-0.66995941999421
-0.265712211139014,-0.675164848804953
-0.263390925992075,-0.680325710012161
-0.261092503920567,-0.685442055542725
-0.258816773117252,-0.690513937323538
-0.256563561774892,-0.695541407281491
-0.254332698086249,-0.700524517343476
-0.252124010244084,-0.705463319436386
-0.249937326441161,-0.710357865487111
-0.247772474870241,-0.715208207422543
-0.245629283724086,-0.720014397169576
-0.243507581195457,-0.724776486655099
-0.241407195477118,-0.729494527806006
-0.23932795476183,-0.734168572549187
-0.237269687242355,-0.738798672811536
-0.235232221111456,-0.743384880519943
-0.233215384561893,-0.7479272476013
-0.231219005786429,-0.7524258259825
-0.229242912977827,-0.756880667590434
-0.227286934328848,-0.761291824351994
-0.225350898032255,-0.765659348194071
-0.223434632280808,-0.769983291043558
-0.221537965267271,-0.774263704827347
-0.219660725184405,-0.778500641472328
-0.217802740224973,-0.782694152905395
-0.215963838581736,-0.786844291053439
-0.214143848447456,-0.790951107843352
-0.212342598014896,-0.795014655202025
-0.210559915476817,-0.79903498505635
-0.208795629025981,-0.80301214933322
-0.207049566855151,-0.806946199959526
-0.205321557157089,-0.810837188862159
-0.203611428124556,-0.814685167968013
-0.201919007950315,-0.818490189203978
-0.200244124827127,-0.822252304496946
-0.198586606947755,-0.82597156577381
-0.19694628250496,-0.829648024961461
-0.195322979691505,-0.83328173398679
-0.193716526700152,-0.83687274477669
-0.192126751723663,-0.840421109258053
-0.190553482954799,-0.84392687935777
-0.188996548586323,-0.847390107002733
-0.187455776810996,-0.850810844119835
-0.185930995821582,-0.854189142635966
-0.184422033810841,-0.857525054478019
-0.182928718971536,-0.860818631572885
-0.181450879496429,-0.864069925847457
-0.179988343578282,-0.867278989228626
-0.178540939409856,-0.870445873643284
-0.177108495183915,-0.873570631018322
-0.175690839093219,-0.876653313280634
-0.174287799330532,-0.87969397235711
-0.172899204088614,-0.882692660174642
-0.171524881560229,-0.885649428660123
-0.170164659938137,-0.888564329740443
-0.168818367415102,-0.891437415342496
-0.167485832183884,-0.894268737393171
-0.166166882437247,-0.897058347819363
-0.164861346367952,-0.899806298547961
-0.163569052168761,-0.902512641505859
-0.162289828032436,-0.905177428619948
-0.161023502151739,-0.907800711817119
-0.159769902719433,-0.910382543024266
-0.158528857928279,-0.912922974168278
-0.157300195971038,-0.915422057176049
-0.156083745040475,-0.91787984397447
-0.154879333329349,-0.920296386490433
-0.153686789030424,-0.92267173665083
-0.152505940336461,-0.925005946382552
-0.151336615440223,-0.927299067612492
-0.150178642534471,-0.929551152267541
-0.149031849811967,-0.931762252274592
-0.147896065465474,-0.933932419560534
-0.146771117687753,-0.936061706052262
-0.145656834671567,-0.938150163676667
-0.144553044609678,-0.94019784436064
-0.143459575694846,-0.942204800031073
-0.142376256119836,-0.944171082614857
-0.141302914077408,-0.946096744038887
-0.140239377760324,-0.947981836230052
-0.139185475361347,-0.949826411115244
-0.138141035073239,-0.951630520621356
-0.137105885088762,-0.953394216675279
-0.136079853600677,-0.955117551203905
-0.135062768801747,-0.956800576134126
-0.134054458884733,-0.958443343392833
-0.133054752042398,-0.960045904906919
-0.132063476467505,-0.961608312603276
-0.131080460352813,-0.963130618408795
-0.130105531891087,-0.964612874250367
-0.129138519275088,-0.966055132054886
-0.128179250697577,-0.967457443749243
-0.127227554351317,-0.968819861260328
-0.126283258429071,-0.970142436515036
-0.125346191123599,-0.971425221440256
-0.124416180627664,-0.972668267962882
-0.123493055134028,-0.973871628009804
-0.122576642835453,-0.975035353507915
-0.121666771924701,-0.976159496384106
-0.120763270594534,-0.97724410856527
-0.119865967037715,-0.978289241978298
-0.118974689447004,-0.979294948550082
-0.118089266015164,-0.980261280207514
-0.117209524934958,-0.981188288877485
-0.116335294399147,-0.982076026486888
-0.115466402600493,-0.982924544962614
-0.114602677731758,-0.983733896231556
-0.113743947985704,-0.984504132220604
-0.112890041555094,-0.985235304856651
-0.112040786632689,-0.985927466066589
-0.111196011411251,-0.986580667777309
-0.110355544083542,-0.987194961915704
-0.109519212842325,-0.987770400408665
-0.108686845880362,-0.988307035183083
-0.107858271390413,-0.988804918165852
-0.107033317565242,-0.989264101283862
-0.106211812597611,-0.989684636464005
-0.105393584680281,-0.990066575633174
-0.104578462006014,-0.99040997071826
-0.103766272767573,-0.990714873646155
-0.102956845157719,-0.99098133634375
-0.102150007369215,-0.991209410737938
-0.101345587594823,-0.991399148755611
-0.100543414027304,-0.99155060232366
-0.0997433148594206,-0.991663823368977
-0.0989451182839349,-0.991738863818454
-0.098148652493609,-0.991775775598982
-0.0973537456812047,-0.991774610637455
-0.0965602260394841,-0.991735420860762
-0.0957679217612093,-0.991658258195796
-0.0949766610391422,-0.99154317456945
-0.0941862720660449,-0.991390221908615
-0.0933965830346794,-0.991199452140183
-0.0926074221378076,-0.990970917191044
-0.0918186175681918,-0.990704668988093
-0.0910299975185938,-0.99040075945822
-0.0902413901817757,-0.990059240528316
-0.0894526237504994,-0.989680164125275
-0.0886635264175272,-0.989263582175987
-0.0878739263756209,-0.988809546607345
-0.0870836518175426,-0.98831810934624
-0.0862925309360542,-0.987789322319564
-0.0855003919239179,-0.98722323745421
-0.0847070629738957,-0.986619906677068
-0.0839123722787495,-0.985979381915031
-0.0831161480312413,-0.98530171509499
-0.0823182184241334,-0.984586958143838
-0.0815184116501875,-0.983835162988466
-0.0807165559021658,-0.983046381555766
-0.0799124793728303,-0.982220665772629
-0.079106010254943,-0.981358067565949
-0.0782969767412659,-0.980458638862616
-0.0774852070245611,-0.979522431589522
-0.0766705292975905,-0.978549497673559
-0.0758527717531162,-0.97753988904162
-0.0750317625839003,-0.976493657620595
-0.0742073299827047,-0.975410855337377
-0.0733793021422914,-0.974291534118857
-0.0725475072554226,-0.973135745891928
-0.0717117735148602,-0.971943542583481
-0.0708719291133661,-0.970714976120407
-0.0700278022437026,-0.9694500984296
-0.0691792210986315,-0.96814896143795
-0.0683260138709149,-0.96681161707235
-0.0674680087533149,-0.965438117259691
-0.0666050339385933,-0.964028513926864
-0.0657369176195124,-0.962582859000763
-0.0648634879888341,-0.961101204408279
-0.0639845732393203,-0.959583602076303
-0.0631000015637332,-0.958030103931728
-0.0622096011548347,-0.956440761901445
-0.061313200205387,-0.954815627912346
-0.0604106269081519,-0.953154753891323
-0.0595017094558915,-0.951458191765268
-0.058586276041368,-0.949725993461072
-0.0576641548573432,-0.947958210905628
-0.0567351740965791,-0.946154896025827
-0.0557991619518379,-0.944316100748561
-0.0548559466158816,-0.942441877000722
-0.0539053562814721,-0.940532276709202
-0.0529472191413714,-0.938587351800892
-0.0519813633883417,-0.936607154202685
-0.051007617215145,-0.934591735841472
-0.0500258088145431,-0.932541148644145
-0.0490357663792983,-0.930455444537595
-0.0480373181021724,-0.928334675448716
-0.0470302921759276,-0.926178893304398
-0.0460145167933258,-0.923988150031534
-0.0449898201471291,-0.921762497557014
-0.0439560304300994,-0.919501987807732
-0.042912975834999,-0.917206672710579
-0.0418604845545896,-0.914876604192446
-0.0407983847816333,-0.912511834180225
-0.0397265047088923,-0.910112414600809
-0.0386446725291285,-0.90767839738109
-0.0375527164351038,-0.905209834447958
-0.0364504646195805,-0.902706777728306
-0.0353377452753204,-0.900169279149026
-0.0342143865950856,-0.89759739063701
-0.0330802167716381,-0.894991164119148
-0.03193506399774,-0.892350651522334
-0.0307787564661532,-0.889675904773459
-0.0296111223696397,-0.886966975799414
-0.0284319899009617,-0.884223916527093
-0.0272411872528812,-0.881446778883385
-0.02603854261816,-0.878635614795184
-0.0248238841895605,-0.875790476189382
-0.0235970401598443,-0.872911414992869
-0.0223578387217737,-0.869998483132538
-0.0211061080681106,-0.867051732535281
-0.0198416763916171,-0.864071215127989
-0.0185643718850551,-0.861056982837554
-0.0172740227411869,-0.858009087590869
-0.0159704571527742,-0.854927581314824
-0.0146535033125792,-0.851812515936312
-0.0133229894133638,-0.848663943382225
-0.0119787436478902,-0.845481915579455
-0.0106205942089202,-0.842266484454892
-0.00924836928921612,-0.83901770193543
-0.00786189708153968,-0.835735619947959
-0.00646100577865311,-0.832420290419373
-0.00504552357331832,-0.829071765276562
-0.00361527865829737,-0.825690096446418
-0.00217009922635224,-0.822275335855834
-0.00070981347024509,-0.818827535431701
0.000765750417262248,-0.81534674710091
0.00225676424340759,-0.811833022790354
0.00376339981542904,-0.808286414426925
0.00528582894056446,-0.804706973937515
0.00682422342605195,-0.801094753249014
0.00837875507912934,-0.797449804288316
0.00994959570703475,-0.793772178982311
0.0115369171170061,-0.790061929257893
0.0131408911162813,-0.786319107041951
0.0147616895120984,-0.78254376426138
0.0163994841116955,-0.778735952843069
0.0180544467223102,-0.774895724713911
0.0197267491511809,-0.771023131800799
0.0214165632055454,-0.767118226030623
0.0231240606926416,-0.763181059330275
0.0248494134197076,-0.759211683626648
0.0265927931939813,-0.755210150846633
0.0283543718227007,-0.751176512917122
0.0301343211131039,-0.747110821765007
0.0319328128724286,-0.74301312931718
0.033750018907913,-0.738883487500532
0.035586111026795,-0.734721948241956
0.0374412610363127,-0.730528563468342
0.0393156407437039,-0.726303385106584
0.0412094219562067,-0.722046465083572
0.0431227764810589,-0.7177578553262
0.0450558761254987,-0.713437607761357
0.0470088926967639,-0.709085774315937
0.0489819980020927,-0.704702406916831
0.0509753638487228,-0.700287557490932
0.0529891620438924,-0.695841277965129
0.0550235643948394,-0.691363620266317
0.0570787427088017,-0.686854636321386
0.0591548687930174,-0.682314378057228
0.0612521144547244,-0.677742897400736
0.0633706515011606,-0.6731402462788
0.0655106517395642,-0.668506476618313
0.0676722869771731,-0.663841640346167
0.0698557290212252,-0.659145789389254
0.0720611496789584,-0.654418975674464
0.0742887207576109,-0.649661251128691
0.0765386140644204,-0.644872667678825
0.0788110014066253,-0.64005327725176
0.0811060545914631,-0.635203131774386
0.0834239454261721,-0.630322283173595
0.0857648457179901,-0.62541078337628
0.0881289272741552,-0.620468684309332
0.0905163619019053,-0.615496037899642
0.0929273214084785,-0.610492896074104
0.0953619776011126,-0.605459310759608
0.0978205022870457,-0.600395333883046
0.100303067273516,-0.595301017371311
0.102809844367761,-0.590176413151294
0.105341005377018,-0.585021573149886
0.107896722108527,-0.579836549293981
0.110477166369525,-0.574621393510469
0.113082509967249,-0.569376157726242
0.115712924708938,-0.564100893868193
0.11836858240183,-0.558795653863212
0.121049654853163,-0.553460489638192
0.123756313870174,-0.548095453120026
0.126488731260102,-0.542700596235604
0.129247078830185,-0.537275970911818
0.132031528387661,-0.53182162907556
0.134842251739767,-0.526337622653722
0.137679420693741,-0.520824003573196
0.140543207056823,-0.515280823760874
0.143433782636249,-0.509708135143648
0.146351319239257,-0.504105989648408
0.149295988673086,-0.498474439202048
0.152267962744974,-0.492813535731459
0.155267413262158,-0.487123331163533
0.158294512031876,-0.481403877425161
0.161349430861367,-0.475655226443236
0.164432341557868,-0.46987743014465
0.167543415928618,-0.464070540456293
0.170682825780854,-0.458234609305058
0.173850742921814,-0.452369688617838
0.177047339158737,-0.446475830321523
0.18027278629886,-0.440553086343005
0.183527256149422,-0.434601508609177
0.186810920517659,-0.42862114904693
0.190123951210811,-0.422612059583155
0.193466520036115,-0.416574292144746
0.196838798800809,-0.410507898658593
0.200240959312132,-0.404412931051589
0.20367317337732,-0.398289441250625
0.207135612803613,-0.392137481182593
0.210628449398247,-0.385957102774385
0.214151854968462,-0.379748357952893
0.217706001321495,-0.373511298645008
0.221291060264584,-0.367245976777623
0.224907203604967,-0.360952444277629
0.228554603149882,-0.354630753071919
0.232233430706567,-0.348280955087383
0.235943858082259,-0.341903102250914
0.239686057084198,-0.335497246489403
0.243460199519621,-0.329063439729743
0.247266457195765,-0.322601733898825
0.251105001919869,-0.316112180923542
0.254976005499172,-0.309594832730784
0.258879639740909,-0.303049741247444
0.262816076452321,-0.296476958400413
0.266785487440645,-0.289876536116584
0.270788044513118,-0.283248526322848
0.274823919476979,-0.276592980946097
0.278893284139466,-0.269909951913223
0.282996310307816,-0.263199491151118
0.287133169789268,-0.256461650586673
0.291304034391059,-0.249696482146781
0.295509075920428,-0.242904037758333
0.299748466184613,-0.236084369348221
0.304022376990851,-0.229237528843337
0.308330980146381,-0.222363568170572
0.312674447458441,-0.215462539256819
0.317052950734267,-0.20853449402897
0.3214666617811,-0.201579484413915
0.325915752406175,-0.194597562338548
0.330400394416732,-0.187588779729759
0.334920759620009,-0.180553188514442
0.339477019823243,-0.173490840619486
0.344069346833672,-0.166401787971785
0.348697912458535,-0.15928608249823
0.353362888505068,-0.152143776125714
0.358064446780512,-0.144974920781127
0.362802759092102,-0.137779568391361
0.367577997247078,-0.130557770883309
0.372390333052676,-0.123309580183863
0.377239938316136,-0.116035048219913
0.382126984844696,-0.108734226918353
0.387051644445592,-0.101407168206073
0.392014088926063,-0.0940539240099666
0.397014490093348,-0.086674546256924
0.402053019754684,-0.0792690868738379
0.407129849717308,-0.0718375977875997
0.41224515178846,-0.0643801309251018
0.417399097775377,-0.0568967382132353
0.422591859485297,-0.0493874715788927
0.427823608725457,-0.0418523829489653
0.433094517303097,-0.0342915242503455
0.438404757025454,-0.0267049474099245
0.443754499699765,-0.0190927043545947
0.449143917133269,-0.0114548470112474
0.454573181133204,-0.00379142730677498
0.460042463506808,0.00389750283193132
0.465551936061319,0.011611891477979
0.471101770603975,0.019351686704477
0.476692138942013,0.0271168365845327
0.482323212882672,0.034907289191255
0.48799516423319,0.0427229925977514
0.493708164800805,0.0505638948771307
0.499462386392754,0.0584299441025004
0.505258000816276,0.0663210883469694
0.511095179878608,0.0742372756836452
0.516974095386989,0.0821784541856366
0.522894919148656,0.090144571926051
0.528857822970849,0.0981355769779975
