-0.203891267336968,0.232615300903526
-0.197477473206537,0.230785753378126
-0.191138207232771,0.228970031091075
-0.184873124446903,0.227168025850798
-0.178681879880169,0.22537962946572
-0.172564128563803,0.223604733744267
-0.166519525529041,0.221843230494863
-0.160547725807116,0.220095011525933
-0.154648384429265,0.218359968645902
-0.148821156426721,0.216637993663196
-0.143065696830719,0.21492897838624
-0.137381660672494,0.213232814623457
-0.131768702983281,0.211549394183274
-0.126226478794315,0.209878608874116
-0.12075464313683,0.208220350504407
-0.115352851042061,0.206574510882573
-0.110020757541243,0.204940981817038
-0.104758017665611,0.203319655116227
-0.0995642864463999,0.201710422588567
-0.0944392189148438,0.200113176042481
-0.0893824701021779,0.198527807286394
-0.0843936950396368,0.196954208128732
-0.0794725487584554,0.19539227037792
-0.0746186862898684,0.193841885842383
-0.0698317626651107,0.192302946330545
-0.0651114329154169,0.190775343650833
-0.0604573520720219,0.189258969611669
-0.0558691751661606,0.187753716021481
-0.0513465572290675,0.186259474688693
-0.0468891532919775,0.184776137421729
-0.0424966183861255,0.183303596029016
-0.0381686075427461,0.181841742318977
-0.0339047757930742,0.180390468100038
-0.0297047781683446,0.178949665180625
-0.025568269699792,0.177519225369161
-0.0214949054186511,0.176099040474072
-0.0174843403561569,0.174689002303784
-0.013536229543544,0.17328900266672
-0.00965022801204721,0.171898933371307
-0.00582599079290137,0.170518686225968
-0.00206317291734125,0.16914815303913
0.0016385705833984,0.167787225619217
0.0052795846780828,0.166435795774654
0.00886021433547719,0.165093755313867
0.0123808045243467,0.163760996045279
0.0158417002134567,0.162437409777317
0.0192432463715722,0.161122888318406
0.0225857879674586,0.159817323476969
0.0258696699698811,0.158520607061433
0.0290952373476048,0.157232630880223
0.0322628350693951,0.155953286741762
0.0353728081040171,0.154682466454478
0.038425501420236,0.153420061826793
0.0414212599868171,0.152165964667135
0.0443604287725256,0.150920066783926
0.0472433527461266,0.149682259985593
0.0500703768763855,0.148452436080561
0.0528418461320675,0.147230486877255
0.0555581054819377,0.146016304184099
0.0582194998947614,0.144809779809518
0.0608263743393037,0.143610805561939
0.0633790737843301,0.142419273249785
0.0658779431986056,0.141235074681481
0.0683233275508954,0.140058101665454
0.0707155718099648,0.138888246010127
0.073055020944579,0.137725399523926
0.0753420199235033,0.136569454015276
0.0775769137155028,0.135420301292602
0.0797600472893428,0.134277833164328
0.0818917656137884,0.133141941438881
0.083972413657605,0.132012517924684
0.0860023363895577,0.130889454430163
0.0879818787784117,0.129772642763744
0.0899113857929323,0.12866197473385
0.0917912024018847,0.127557342148908
0.0936216735740341,0.126458636817341
0.0954031442781457,0.125365750547575
0.0971359594829848,0.124278575148036
0.0988204641573166,0.123197002427148
0.100457003269906,0.122120924193336
0.102045921789519,0.121050232255025
0.10358756468492,0.11998481842064
0.105082276924875,0.118924574498606
0.106530403478148,0.117869392297349
0.107932289313505,0.116819163625293
0.109288279399712,0.115773780290863
0.110598718705533,0.114733134102485
0.111863952199734,0.113697116868583
0.113084324851079,0.112665620397583
0.114260181628335,0.111638536497908
0.115391867500266,0.110615756977986
0.116479727435637,0.109597173646239
0.117524106403215,0.108582678311094
0.118525349371763,0.107572162780976
0.119483801310047,0.106565518864309
0.120399807186833,0.105562638369519
0.121273711970886,0.104563413105031
0.12210586063097,0.103567734879269
0.122896598135851,0.102575495500658
0.123646269454295,0.101586586777625
0.124355219555066,0.100600900518593
0.12502379340693,0.0996183285319874
0.125652335978652,0.0986387626262338
0.126241192238997,0.0976620946097571
0.12679070715673,0.0966882162909821
0.127301225700618,0.095717019478334
0.127773092839423,0.0947483959802377
0.128206653541913,0.0937822376051182
0.128602252776853,0.0928184361614007
0.128960235513006,0.0918568834575101
0.12928094671914,0.0908974713018714
0.129564731364018,0.0899400915029097
0.129811934416407,0.08898463586905
0.130022900845071,0.0880309962087174
0.130197975618775,0.0870790643303367
0.130337503706285,0.0861287320423332
0.130441830076367,0.0851798911531317
0.130511299697785,0.0842324334711575
0.130546257539304,0.0832862508048353
0.130547048569689,0.0823412349625903
0.130514017757707,0.0813972777528475
0.130447510072122,0.0804542709840319
0.130347870481699,0.0795121064645686
0.130215443955204,0.0785706760028826
0.130050575461402,0.0776298714073989
0.129853609969057,0.0766895844865425
0.129624892446936,0.0757497070487385
0.129364767863803,0.0748101309024118
0.129073581188424,0.0738707478559876
0.128751677389564,0.0729314497178908
0.128399401435988,0.0719921282965464
0.128017098296462,0.0710526754003795
0.12760511293975,0.0701129828378152
0.127163790334617,0.0691729424172784
0.12669347544983,0.0682324459471941
0.126194513254153,0.0672913852359874
0.125667248716351,0.0663496520920834
0.12511202680519,0.065407138323907
0.124529192489435,0.0644637357398832
0.123919090737851,0.0635193361484371
0.123282066519204,0.0625738313579938
0.122618464802258,0.0616271131769782
0.121928630555778,0.0606790734138153
0.121212908748531,0.0597296038769303
0.120471644349281,0.058778596374748
0.119705182326793,0.0578259427156937
0.118913867649833,0.0568715347081921
0.118098045287166,0.0559152641606685
0.117258060207557,0.0549570228815478
0.116394257379771,0.053996702679255
0.115506981772573,0.0530341953622152
0.11459657835473,0.0520693927388534
0.113663392095005,0.0511021866175946
0.112707767962165,0.0501324688068639
0.111730050924974,0.0491601311150862
0.110730585952197,0.0481850653506866
0.109709718012601,0.0472071633220902
0.10866779207495,0.046226316837722
0.107605153108008,0.0452424177060068
0.106522146080543,0.0442553577353699
0.105419115961318,0.0432650287342362
0.104296407719099,0.0422713225110308
0.103154366322651,0.0412741308741786
0.101993336740739,0.0402733456321048
0.10081366394213,0.0392688585932343
0.0996156928955866,0.0382605615659921
0.0983997685698757,0.0372483463588033
0.0971662359337619,0.0362321047800929
0.0959154399560108,0.035211728638286
0.0946477256053874,0.0341871097418075
0.0933634378506568,0.0331581398990825
0.0920629216605844,0.032124710918536
0.0907465220039353,0.031086714608593
0.0894145838494749,0.0300440427776786
0.0880674521659683,0.0289965872342178
0.0867054719221807,0.0279442397866355
0.0853289880868773,0.026886892243357
0.0839383456288235,0.0258244364128071
0.0825338895167843,0.0247567641034108
0.081115964719525,0.0236837671235933
0.0796849162058108,0.0226053372817795
0.0782410889444071,0.0215213663863945
0.0767848279040789,0.0204317462458633
0.0753164780535914,0.0193363686686108
0.0738363843617101,0.0182351254630623
0.0723448917971999,0.0171279084376426
0.0708423453288262,0.0160146094007768
0.0693290899253541,0.0148951201608898
0.067805470555549,0.0137693325264069
0.066271832188176,0.0126371383057529
0.0647285197920002,0.0114984293073529
0.0631758783357871,0.0103530973396319
0.0616142527883017,0.00920103421101503
0.0600439881183094,0.00804213172992718
0.0584654292945752,0.0068762817047934
0.0568789212858644,0.00570337594403876
0.0552848090609424,0.00452330625608827
0.0536834375885742,0.00333596444936698
0.0520751518375251,0.00214124233229984
0.0504602967765603,0.000939031713311923
0.0488392173744451,-0.000270775599171692
0.0472122585999446,-0.00148828779672609
0.0455797654218241,-0.00271361307092613
0.0439420828088487,-0.0039468596133469
0.0422995557297839,-0.00518813561556325
0.0406525291533946,-0.0064375492691503
0.0390013480484462,-0.00769520876568288
0.0373463573837039,-0.00896122229673608
0.0356879021279329,-0.0102356980538848
0.0340263272498984,-0.011518744228704
0.0323619777183656,-0.0128104690127688
0.0306951985020998,-0.014110980597654
0.0290263345698662,-0.0154203871749346
0.0273557308904299,-0.0167387969361857
0.0256837324325564,-0.0180663180729821
0.0240106841650106,-0.019403058776899
0.0223369310565579,-0.0207491272395111
0.0206628180759634,-0.0221046316523937
0.0189886901919925,-0.0234696802071214
0.0173148923734103,-0.0248443810952694
0.0156417695889821,-0.0262288425084127
0.0139696668074729,-0.0276231726381262
0.0122989289976483,-0.0290274796759849
0.0106299011282731,-0.0304418718135637
0.00896292816811287,-0.0318664572424377
0.00729835508593259,-0.0333013441541818
0.00563652685049763,-0.0347466407403709
0.0039777884305731,-0.0362024551925801
0.00232248479492432,-0.0376688957023844
0.000670960912316422,-0.0391460704613587
-0.000976438248485277,-0.0406340876610779
-0.0026193677187157,-0.0421330554931171
-0.00425748252960943,-0.0436430821490512
-0.00589043771240144,-0.0451642758204553
-0.00751788829832635,-0.0466967446989042
-0.00913948931861912,-0.048240596975973
-0.0107548958045143,-0.0497959408432366
-0.0123637627872469,-0.05136288449227
-0.0139657452980515,-0.0529415361146481
-0.0155604983681631,-0.0545320039019462
-0.0171476770288162,-0.0561343960457388
-0.0187269363112459,-0.0577488207376012
-0.0202979312466867,-0.0593753861691082
-0.0218603168663736,-0.0610142005318349
-0.0234137482015411,-0.0626653720173562
-0.0249578802834243,-0.0643290088172472
-0.0264923681432578,-0.0660052191230826
-0.0280168668122764,-0.0676941111264377
-0.0295310313217148,-0.0693957930188872
-0.0310345167028081,-0.0711103729920063
-0.0325269779867906,-0.0728379592373698
-0.0340080702048975,-0.0745786599465528
-0.0354774483883634,-0.0763325833111302
-0.036934767568423,-0.078099837522677
-0.0383796827763112,-0.0798805307727681
-0.0398118490432628,-0.0816747712529786
-0.0412309214005125,-0.0834826671548834
-0.0426365548792951,-0.0853043266700575
-0.0440284045108454,-0.0871398579900759
-0.0454061253263982,-0.0889893693065135
-0.0467693723571882,-0.0908529688109453
-0.0481178006344503,-0.0927307646949463
-0.0494510651894191,-0.0946228651500915
-0.0507688210533296,-0.0965293783679558
-0.0520707232574164,-0.0984504125401142
-0.0533564268329144,-0.100386075858142
-0.0546255868110582,-0.102336476513613
-0.0558778582230829,-0.104301722698104
-0.0571128961002229,-0.106281922603189
-0.0583303554737133,-0.108277184420442
-0.0595298913747887,-0.11028761634144
-0.0607111588346839,-0.112313326557756
-0.0618738128846338,-0.114354423260967
-0.063017508555873,-0.116411014642646
-0.0641419008796364,-0.118483208894369
-0.0652466448871588,-0.120571114207711
-0.0663313956096748,-0.122674838774247
-0.0673958080784194,-0.124794490785552
-0.0684395373246272,-0.1269301784332
-0.0694622383795332,-0.129082009908767
-0.0704635662743719,-0.131250093403828
-0.0714431760403783,-0.133434537109957
-0.0724007227087871,-0.13563544921873
-0.0733358613108331,-0.137852937921722
-0.074248246877751,-0.140087111410507
-0.0751375344407757,-0.142338077876661
-0.0760033790311419,-0.144605945511758
-0.0768454356800845,-0.146890822507374
-0.077663359418838,-0.149192817055084
-0.0784568052786375,-0.151512037346462
-0.0792254282907176,-0.153848591573083
-0.0799688834863132,-0.156202587926523
-0.0806868258966589,-0.158574134598356
-0.0813789105529896,-0.160963339780158
-0.08204479248654,-0.163370311663503
-0.0826841267285451,-0.165795158439966
-0.0832965683102394,-0.168237988301122
-0.0838817722628579,-0.170698909438547
-0.0844393936176352,-0.173178030043815
-0.0849690874058062,-0.175675458308501
-0.0854705086586056,-0.178191302424181
-0.0859433124072682,-0.180725670582428
-0.0863871536830289,-0.183278670974819
-0.0868016875171223,-0.185850411792928
-0.0871865689407833,-0.18844100122833
-0.0875414529852466,-0.1910505474726
-0.087865994681747,-0.193679158717313
-0.0881598490615194,-0.196326943154044
-0.0884226711557984,-0.198994008974368
-0.0886541159958188,-0.20168046436986
-0.0888538386128156,-0.204386417532095
-0.0890214940380233,-0.207111976652648
-0.0891567373026768,-0.209857249923094
-0.0892592234380109,-0.212622345535007
-0.0893286074752604,-0.215407371679964
-0.08936454444566,-0.218212436549538
-0.0893666893804445,-0.221037648335305
-0.0893346973108488,-0.22388311522884
-0.0892682232681074,-0.226748945421717
-0.0891669222834554,-0.229635247105513
-0.0890304493881274,-0.232542128471801
-0.0888584596133582,-0.235469697712156
-0.0886506079903826,-0.238418063018154
-0.0884065495504354,-0.24138733258137
-0.0881259393247513,-0.244377614593378
-0.0878084323445652,-0.247389017245754
-0.0874536836411118,-0.250421648730073
-0.0870613482456258,-0.253475617237909
-0.0866310811893422,-0.256551030960837
-0.0861625375034956,-0.259647998090433
-0.0856553722193208,-0.262766626818271
-0.0851092403680526,-0.265907025335927
-0.0845237969809259,-0.269069301834975
-0.0838986970891753,-0.27225356450699
-0.0832335957240357,-0.275459921543548
-0.0825281479167418,-0.278688481136223
-0.0817820086985284,-0.28193935147659
-0.0809948331006303,-0.285212640756225
-0.0801662761542823,-0.288508457166702
-0.0792959928907191,-0.291826908899596
-0.0783836383411756,-0.295168104146482
-0.0774288675368864,-0.298532151098935
-0.0764313355090865,-0.30191915794853
-0.0753906972890105,-0.305329232886843
-0.0743066079078933,-0.308762484105447
-0.0731787223969696,-0.312219019795919
-0.0720066957874743,-0.315698948149833
-0.070790183110642,-0.319202377358763
-0.0695288393977076,-0.322729415614286
-0.0682223196799058,-0.326280171107975
-0.0668702789884715,-0.329854752031407
-0.0654723723546393,-0.333453266576155
-0.0640282548096442,-0.337075822933795
-0.0625375813847208,-0.340722529295902
-0.0610000071111041,-0.344393493854051
-0.0594151870200285,-0.348088824799816
-0.0577827761427292,-0.351808630324774
-0.0561024295104406,-0.355553018620498
-0.0543738021543979,-0.359322097878564
-0.0525965491058354,-0.363115976290546
-0.0507703253959883,-0.36693476204802
-0.0488947860560911,-0.370778563342561
-0.0469695861173788,-0.374647488365743
-0.044994380611086,-0.378541645309142
-0.0429688245684476,-0.382461142364333
-0.0408925730206982,-0.38640608772289
-0.0387652809990728,-0.390376589576388
-0.036586603534806,-0.394372756116403
-0.0343561956591328,-0.398394695534509
-0.0320737124032878,-0.402442516022282
-0.0297388087985058,-0.406516325771297
-0.0273511398760216,-0.410616232973127
-0.02491036066707,-0.414742345819349
-0.0224161262028857,-0.418894772501538
-0.0198680915147037,-0.423073621211267
-0.0172659116337585,-0.427279000140113
-0.0146092415912851,-0.43151101747965
-0.011897736418518,-0.435769781421454
-0.00913105114669235,-0.440055400157098
-0.00630884080704259,-0.444367981878159
-0.00343076043080379,-0.448707634776211
-0.000496465049210477,-0.453074467042829
0.00249439030650233,-0.457468586869588
0.00554215060510011,-0.461890102448063
0.00864716081534782,-0.466339121969829
0.0118097659060109,-0.470815753626461
0.0150303108458544,-0.475320105609534
0.0183091406036438,-0.479852286110624
0.0216466001481439,-0.484412403321304
0.0250430344481203,-0.48900056543315
0.028498788472338,-0.493616880637737
0.0320142071895624,-0.498261457126639
0.0355896355685585,-0.502934403091433
0.0392254185780918,-0.507635826723692
0.0429219011869272,-0.512365836214993
0.0466794283638302,-0.517124539756908
0.0504983450775658,-0.521912045541015
0.0543789962968994,-0.526728461758888
0.058321726990596,-0.531573896602101
0.0623268821274212,-0.53644845826223
