-0.0878375311515101,0.11302968443847
-0.0882408488453634,0.105783139397205
-0.0886333889395132,0.0985978924616155
-0.0890151385165687,0.0914738333652357
-0.0893860846591396,0.0844108518415992
-0.089746214449835,0.07740883762424
-0.0900955149712643,0.0704676804466917
-0.090433973306037,0.0635872700424882
-0.0907615765367624,0.0567674961451632
-0.0910783117460499,0.0500082484882505
-0.0913841660165088,0.043309416805284
-0.0916791264307486,0.0366708908297974
-0.0919631800713785,0.0300925602953246
-0.0922363140210081,0.0235743149353992
-0.0924985153622466,0.0171160444835551
-0.0927497711777034,0.0107176386733262
-0.0929900685499879,0.00437898723824605
-0.0932193945617095,-0.00190002008815137
-0.0934377362954775,-0.00811949357233236
-0.0936450808339014,-0.0142795434807631
-0.0938414152595905,-0.0203802800799098
-0.0940267266551541,-0.0264218136362386
-0.0942010021032017,-0.0324042544162159
-0.0943642286863425,-0.0383277126863077
-0.0945163934871862,-0.0441922987129803
-0.0946574835883419,-0.0499981227627
-0.0947874860724189,-0.0557452951019328
-0.0949063880220269,-0.0614339259971451
-0.095014176519775,-0.067064125714803
-0.0951108386482727,-0.0726360045213727
-0.0951963614901293,-0.0781496726833205
-0.0952707321279542,-0.0836052404671126
-0.0953339376443569,-0.0890028181392151
-0.0953859651219466,-0.0943425159660944
-0.0954268016433327,-0.0996244442142164
-0.0954564342911247,-0.104848713150048
-0.0954748501479318,-0.110015433040054
-0.0954820362963636,-0.115124714150702
-0.0954779798190292,-0.120176666748458
-0.0954626677985381,-0.125171401099788
-0.0954360873174998,-0.130109027471157
-0.0953982254585235,-0.134989656129034
-0.0953490693042186,-0.139813397339882
-0.0952886059371945,-0.14458036137017
-0.0952168224400607,-0.149290658486362
-0.0951337058954264,-0.153944398954926
-0.095039243385901,-0.158541693042327
-0.0949334219940939,-0.163082651015032
-0.0948162288026145,-0.167567383139507
-0.0946876508940721,-0.171995999682217
-0.0945476753510762,-0.17636861090963
-0.0943962892562361,-0.180685327088211
-0.0942334796921612,-0.184946258484427
-0.0940592337414608,-0.189151515364744
-0.0938735384867443,-0.193301207995628
-0.0936763810106212,-0.197395446643545
-0.0934677483957007,-0.201434341574961
-0.0932476277245923,-0.205418003056344
-0.0930160060799053,-0.209346541354158
-0.0927728705442491,-0.21322006673487
-0.092518208200233,-0.217038689464947
-0.0922520061304666,-0.220802519810854
-0.091974251417559,-0.224511668039058
-0.0916849311441197,-0.228166244416025
-0.0913840323927581,-0.231766359208221
-0.0910715422460836,-0.235312122682113
-0.0907474477867054,-0.238803645104166
-0.0904117360972331,-0.242241036740847
-0.0900643942602759,-0.245624407858622
-0.0897054093584433,-0.248953868723957
-0.0893347684743446,-0.252229529603318
-0.0889524586905892,-0.255451500763173
-0.0885584670897864,-0.258619892469986
-0.0881527807545457,-0.261734814990224
-0.0877353867674764,-0.264796378590353
-0.0873062722111879,-0.26780469353684
-0.0868654241682895,-0.27075987009615
-0.0864128297213907,-0.273662018534751
-0.0859484759531009,-0.276511249119107
-0.0854723499460292,-0.279307672115686
-0.0849844387827853,-0.282051397790953
-0.0844847295459784,-0.284742536411375
-0.0839732093182179,-0.287381198243418
-0.0834498651821132,-0.289967493553548
-0.0829146842202736,-0.292501532608232
-0.0823676535153086,-0.294983425673935
-0.0818087601498275,-0.297413283017123
-0.0812379912064396,-0.299791214904264
-0.0806553337677544,-0.302117331601823
-0.0800607749163813,-0.304391743376266
-0.0794543017349295,-0.30661456049406
-0.0788359013060085,-0.308785893221671
-0.0782055607122277,-0.310905851825565
-0.0775632670361965,-0.312974546572208
-0.0769090073605241,-0.314992087728066
-0.0762427687678199,-0.316958585559607
-0.0755645383406935,-0.318874150333295
-0.0748743031617541,-0.320738892315597
-0.074172050313611,-0.322552921772979
-0.0734577668788737,-0.324316348971908
-0.0727314399401516,-0.326029284178849
-0.0719930565800541,-0.32769183766027
-0.0712426038811904,-0.329304119682636
-0.0704800689261699,-0.330866240512412
-0.0697054387976022,-0.332378310416067
-0.0689187005780964,-0.333840439660065
-0.0681198413502621,-0.335252738510873
-0.0673088481967084,-0.336615317234958
-0.066485708200045,-0.337928286098784
-0.0656504084428811,-0.33919175536882
-0.064802936007826,-0.34040583531153
-0.0639432779774893,-0.341570636193381
-0.0630714214344801,-0.342686268280839
-0.0621873534614081,-0.343752841840371
-0.0612910611408823,-0.344770467138442
-0.0603825315555123,-0.34573925444152
-0.0594617517879075,-0.346659314016069
-0.0585287089206773,-0.347530756128556
-0.0575833900364308,-0.348353691045448
-0.0566257822177776,-0.349128229033211
-0.0556558725473271,-0.349854480358311
-0.0546736481076886,-0.350532555287213
-0.0536790959814715,-0.351162564086385
-0.0526722032512851,-0.351744617022293
-0.0516529569997389,-0.352278824361402
-0.0506213443094422,-0.352765296370179
-0.0495773522630043,-0.35320414331509
-0.0485209679430347,-0.353595475462602
-0.0474521784321428,-0.35393940307918
-0.0463709708129378,-0.354236036431291
-0.0452773321680292,-0.354485485785401
-0.0441712495800264,-0.354687861407976
-0.0430527101315387,-0.354843273565483
-0.0419217009051756,-0.354951832524387
-0.0407782089835462,-0.355013648551155
-0.0396222214492602,-0.355028831912253
-0.0384537253849268,-0.354997492874147
-0.0372727078731553,-0.354919741703304
-0.0360791559965553,-0.354795688666189
-0.0348730568377359,-0.354625444029269
-0.0336543974793068,-0.354409118059011
-0.0324231650038771,-0.354146821021879
-0.0311793464940563,-0.353838663184341
-0.0299229290324537,-0.353484754812863
-0.0286538997016788,-0.353085206173911
-0.0273722455843409,-0.35264012753395
-0.0260779537630493,-0.352149629159448
-0.0247710113204134,-0.351613821316871
-0.0234514053390427,-0.351032814272685
-0.0221191229015465,-0.350406718293355
-0.0207741510905341,-0.349735643645348
-0.019416476988615,-0.349019700595131
-0.0180460876783985,-0.34825899940917
-0.016662970242494,-0.34745365035393
-0.0152671117635109,-0.346603763695878
-0.0138584993240585,-0.345709449701481
-0.0124371200067462,-0.344770818637204
-0.0110029608941834,-0.343787980769513
-0.00955600906897948,-0.342761046364876
-0.00809625161374375,-0.341690125689757
-0.00662367561108568,-0.340575329010624
-0.0051382681436146,-0.339416766593942
-0.00364001629393985,-0.338214548706178
-0.00212890714467082,-0.336968785613797
-0.00060492777841694,-0.335679587583267
0.000931934722212459,-0.334347064881053
0.00248169327460802,-0.332971327773622
0.00404436079616037,-0.331552486527439
0.00561995020426006,-0.330090651408972
0.00720847441629779,-0.328585932684685
0.00880994634966418,-0.327038440621046
0.0104243789217498,-0.32544828548452
0.0120517850499454,-0.323815577541575
0.0136921776516414,-0.322140427058675
0.0153455696442287,-0.320422944302287
0.0170119739450977,-0.318663239538877
0.0186914034716391,-0.316861423034913
0.0203838711412434,-0.315017605056859
0.0220893898713015,-0.313131895871182
0.0238079725792039,-0.311204405744348
0.0255396321823411,-0.309235244942824
0.0272843815981038,-0.307224523733076
0.0290422337438828,-0.305172352381569
0.0308132015370685,-0.303078841154771
0.0325972978950516,-0.300944100319146
0.0343945357352227,-0.298768240141163
0.0362049279749725,-0.296551370887285
0.0380284875316916,-0.294293602823981
0.0398652273227705,-0.291995046217716
0.0417151602656,-0.289655811334956
0.0435782992775707,-0.287276008442168
0.0454546572760731,-0.284855747805818
0.0473442471784979,-0.282395139692371
0.0492470819022358,-0.279894294368295
0.0511631743646774,-0.277353322100055
0.0530925374832132,-0.274772333154117
0.0550351841752339,-0.272151437796949
0.0569911273581302,-0.269490746295015
0.0589603799492927,-0.266790368914783
0.0609429548661119,-0.264050415922718
0.0629388650259785,-0.261270997585287
0.0649481233462832,-0.258452224168955
0.0669707427444166,-0.25559420594019
0.0690067361377692,-0.252697053165457
0.0710561164437317,-0.249760876111222
0.0731188965796949,-0.246785785043952
0.0751950894630491,-0.243771890230113
0.0772847080111852,-0.240719301936171
0.0793877651414936,-0.237628130428592
0.0815042737713651,-0.234498485973843
0.0836342468181903,-0.231330478838389
0.0857776971993598,-0.228124219288697
0.0879346378322641,-0.224879817591234
0.0901050816342941,-0.221597384012465
0.0922890415228402,-0.218277028818856
0.0944865304152932,-0.214918862276875
0.0966975612290435,-0.211522994652986
0.0989221468814818,-0.208089536213656
0.101160300289999,-0.204618597225352
0.103412034371985,-0.20111028795454
0.105677362044832,-0.197564718667685
0.107956296225928,-0.193981999631254
0.110248849832666,-0.190362241111714
0.112555035782436,-0.186705553375529
0.114874866992628,-0.183012046689168
0.117208356380634,-0.179281831319095
0.119555516863843,-0.175515017531778
0.121916361359646,-0.171711715593682
0.124290902785434,-0.167872035771273
0.126679154058598,-0.163996088331018
0.129081128096528,-0.160083983539383
0.131496837816615,-0.156135831662834
0.133926296136249,-0.152151742967837
0.136369515972821,-0.148131827720859
0.138826510243722,-0.144076196188366
0.141297291866342,-0.139984958636823
0.143781873758072,-0.135858225332698
0.146280268836303,-0.131696106542456
0.148792490018425,-0.127498712532564
0.151318550221829,-0.123266153569488
0.153858462363905,-0.118998539919693
0.156412239362044,-0.114695981849647
0.158979894133637,-0.110358589625815
0.161561439596075,-0.105986473514664
0.164156888666747,-0.101579743782659
0.166766254263044,-0.0971385106962678
0.169389549302358,-0.0926628845219558
0.172026786702079,-0.0881529755261891
0.174677979379597,-0.0836088939754343
0.177343140252304,-0.0790307501361571
0.180022282237589,-0.0744186542748242
0.182715418252843,-0.0697727166579014
0.185422561215457,-0.0650930475518554
0.188143724042822,-0.0603797572231519
0.190878919652328,-0.0556329559382575
0.193628160961366,-0.050852753963638
0.196391460887326,-0.0460392615657601
0.199168832347599,-0.0411925890110895
0.201960288259576,-0.0363128465660929
0.204765841540648,-0.0314001444972362
0.207585505108204,-0.0264545930709857
0.210419291879636,-0.0214763025538075
0.213267214772334,-0.0164653832121681
0.216129286703689,-0.0114219453125333
0.219005520591091,-0.00634609912136974
0.221895929351932,-0.00123795490514308
0.224800525903601,0.00390237706967972
0.227719323163489,0.00907478653663318
0.230652334048988,0.0142791632292505
0.233599571477487,0.0195153968810661
0.236561048366377,0.0247833772256131
0.239536777633049,0.0300829939964259
0.242526772194894,0.0354141369270377
0.245531044969301,0.0407766957509828
0.248549608873663,0.0461705602017947
0.251582476825368,0.0515956200130074
0.254629661741809,0.0570517649181544
0.257691176540375,0.0625388846507698
0.260767034138457,0.068056868944387
0.263857247453447,0.0736056075325404
0.266961829402733,0.0791849901487631
0.270080792903708,0.0847949065265894
0.273214150873762,0.0904352463995527
0.276361916230285,0.0961058995011873
0.279524101890667,0.101806755565026
0.282700720772301,0.107537704324604
0.285891785792575,0.113298635513454
0.289097309868882,0.119089438865111
0.292317305918611,0.124910004113107
0.295551786859153,0.130760220990977
0.298800765607899,0.136639979232255
0.302064255082239,0.142549168570474
0.305342268199564,0.148487678739168
0.308634817877264,0.154455399471871
0.311941917032731,0.160452220502116
0.315263578583355,0.166478031563439
0.318599815446526,0.172532722389371
0.321950640539636,0.178616182713447
0.325316066780073,0.184728302269202
0.328696107085231,0.190868970790168
0.332090774372498,0.197038078009879
0.335500081559266,0.20323551366187
0.338924041562925,0.209461167479673
0.342362667300866,0.215714929196824
0.34581597169048,0.221996688546855
0.349283967649156,0.2283063352633
0.352766668094287,0.234643759079694
0.356264085943261,0.24100884972957
0.359776234113471,0.247401496946461
0.363303125522306,0.253821590463902
0.366844773087158,0.260269020015426
0.370401189725416,0.266743675334568
0.373972388354472,0.27324544615486
0.377558381891716,0.279774222209837
0.381159183254539,0.286329893233033
0.384774805360331,0.292912348957981
0.388405261126483,0.299521479118215
0.392050563470385,0.306157173447269
0.395710725309429,0.312819321678676
0.399385759561005,0.319507813545972
0.403075679142503,0.326222538782688
0.406780496971315,0.332963387122359
0.41050022596483,0.339730248298519
0.414234879040439,0.346523012044702
0.417984469115534,0.353341568094441
0.421749009107504,0.360185806181271
0.42552851193374,0.367055616038724
0.429322990511633,0.373950887400336
0.433132457758574,0.380871509999638
0.436956926591952,0.387817373570167
0.44079640992916,0.394788367845454
0.444650920687587,0.401784382559034
0.448520471784624,0.408805307444441
0.452405076137661,0.415851032235209
0.45630474666409,0.422921446664871
0.4602194962813,0.430016440466961
0.464149337906684,0.437135903375013
0.46809428445763,0.44427972512256
0.47205434885153,0.451447795443137
0.476029544005774,0.458640004070278
0.480019882837753,0.465856240737515
0.484025378264858,0.473096395178384
0.48804604320448,0.480360357126417
0.492081890574008,0.487648016315148
0.496132933290833,0.494959262478112
0.500199184272347,0.502293985348842
0.50428065643594,0.509652074660871
0.508377362699002,0.517033420147734
0.512489315978923,0.524437911542965
0.516616529193096,0.531865438580096
0.52075901525891,0.539315890992663
0.524916787093755,0.546789158514198
0.529089857615023,0.554285130878236
0.533278239740105,0.561803697818311
0.53748194638639,0.569344749067955
0.541700990471269,0.576908174360704
0.545935384912133,0.58449386343009
0.550185142626374,0.592101706009647
0.55445027653138,0.59973159183291
0.558730799544543,0.607383410633413
0.563026724583254,0.615057052144687
0.567338064564903,0.622752406100269
0.57166483240688,0.630469362233691
0.576007041026577,0.638207810278487
0.580364703341384,0.645967639968192
0.584737832268692,0.653748741036338
0.589126440725891,0.66155100321646
0.593530541630372,0.669374316242091
0.597950147899525,0.677218569846765
0.602385272450742,0.685083653764017
0.606835928201412,0.692969457727379
0.611302128068927,0.700875871470386
0.615783884970676,0.708802784726571
0.620281211824052,0.716750087229469
0.624794121546443,0.724717668712612
0.629322627055242,0.732705418909535
0.633866741267838,0.740713227553772
0.638426477101622,0.748740984378856
0.643001847473985,0.756788579118321
0.647592865302317,0.764855901505701
0.652199543504009,0.77294284127453
0.656821894996452,0.781049288158341
0.661459932697037,0.789175131890668
0.666113669523153,0.797320262205046
0.670783118392192,0.805484568835007
0.675468292221543,0.813667941514086
0.680169203928599,0.821870269975817
0.684885866430749,0.830091443953732
0.689618292645384,0.838331353181367
0.694366495489895,0.846589887392255
0.699130487881672,0.854866936319929
0.703910282738106,0.863162389697923
0.708705892976587,0.871476137259772
0.713517331514507,0.879808068739009
0.718344611269255,0.888158073869167
0.723187745158223,0.896526042383781
0.728046746098801,0.904911864016385
0.732921627008379,0.913315428500511
0.737812400804349,0.921736625569694
0.742719080404101,0.930175344957469
