-0.95133667148691,0.832009399568949
-0.937220399526012,0.822975312298662
-0.923236273800418,0.814031596907829
-0.909383762898647,0.805177836597866
-0.895662335409214,0.796413614570195
-0.882071459920635,0.787738514026231
-0.868610605021426,0.779152118167394
-0.855279239300105,0.770654010195103
-0.842076831345187,0.762243773310775
-0.829002849745188,0.75392099071583
-0.816056763088624,0.745685245611686
-0.803238039964012,0.73753612119976
-0.790546148959868,0.729473200681473
-0.777980558664709,0.721496067258241
-0.765540737667049,0.713604304131484
-0.753226154555407,0.70579749450262
-0.741036277918297,0.698075221573067
-0.728970576344236,0.690437068544244
-0.717028518421741,0.68288261861757
-0.705209572739327,0.675411454994462
-0.693513207885511,0.66802316087634
-0.68193889244881,0.660717319464621
-0.670486095017737,0.653493513960725
-0.659154284180812,0.646351327566068
-0.64794292852655,0.639290343482072
-0.636851496643466,0.632310144910152
-0.625879457120078,0.625410315051729
-0.6150262785449,0.61859043710822
-0.604291429506451,0.611850094281044
-0.593674378593246,0.605188869771619
-0.5831745943938,0.598606346781364
-0.57279154549663,0.592102108511697
-0.562524700490253,0.585675738164037
-0.552373527963186,0.579326818939802
-0.542337496503942,0.573054934040411
-0.53241607470104,0.566859666667281
-0.522608731142996,0.560740600021832
-0.512914934418325,0.554697317305482
-0.503334153115543,0.54872940171965
-0.493865855823168,0.542836436465753
-0.484509511129716,0.537018004745211
-0.475264587623702,0.531273689759441
-0.466130553893642,0.525603074709862
-0.457106878528054,0.520005742797894
-0.448193030115453,0.514481277224953
-0.439388477244355,0.509029261192459
-0.430692688503277,0.50364927790183
-0.422105132480735,0.498340910554484
-0.413625277765245,0.49310374235184
-0.405252592945324,0.487937356495317
-0.396986546609487,0.482841336186332
-0.38882660734625,0.477815264626305
-0.380772243744131,0.472858725016653
-0.372822924391645,0.467971300558796
-0.364978117877309,0.463152574454151
-0.357237292789638,0.458402129904137
-0.34959991771715,0.453719550110173
-0.342065461248359,0.449104418273677
-0.334633391971783,0.444556317596068
-0.327303178475937,0.440074831278763
-0.320074289349339,0.435659542523181
-0.312946193180503,0.431310034530742
-0.305918358557947,0.427025890502862
-0.298990254070186,0.422806693640961
-0.292161348305737,0.418652027146458
-0.285431109853116,0.41456147422077
-0.278799007300839,0.410534618065316
-0.272264509237423,0.406571041881515
-0.265827084251383,0.402670328870784
-0.259486200931237,0.398832062234543
-0.253241327865499,0.39505582517421
-0.247091933642687,0.391341200891203
-0.241037486851316,0.387687772586941
-0.235077456079903,0.384095123462843
-0.229211309916964,0.380562836720326
-0.223438516951015,0.377090495560808
-0.217758545770573,0.37367768318571
-0.212170864964154,0.370323982796449
-0.206674943120273,0.367028977594443
-0.201270248827448,0.363792250781111
-0.195956250674194,0.360613385557872
-0.190732417249028,0.357491965126143
-0.185598217140465,0.354427572687344
-0.180553118937023,0.351419791442892
-0.175596591227217,0.348468204594207
-0.170728102599563,0.345572395342706
-0.165947121642578,0.342731946889808
-0.161253116944779,0.339946442436932
-0.15664555709468,0.337215465185496
-0.152123910680799,0.334538598336918
-0.147687646291651,0.331915425092618
-0.143336232515753,0.329345528654012
-0.139069137941622,0.326828492222521
-0.134885831157773,0.324363898999562
-0.130785780752722,0.321951332186553
-0.126768455314986,0.319590374984914
-0.122833323433081,0.317280610596062
-0.118979853695524,0.315021622221417
-0.11520751469083,0.312812993062396
-0.111515775007515,0.310654306320418
-0.107904103234097,0.308545145196901
-0.104371967959091,0.306485092893265
-0.100918837771012,0.304473732610926
-0.0975441812583791,0.302510647551305
-0.0942474670097066,0.300595420915819
-0.0910281636135112,0.298727635905886
-0.087885739658309,0.296906875722926
-0.0848196637326164,0.295132723568356
-0.0818294044249495,0.293404762643595
-0.0789144303238245,0.291722576150062
-0.0760742100177578,0.290085747289175
-0.0733082120952655,0.288493859262352
-0.0706159051448638,0.286946495271012
-0.0679967577550691,0.285443238516573
-0.0654502385143974,0.283983672200455
-0.062975816011365,0.282567379524074
-0.0605729588344882,0.28119394368885
-0.0582411355722832,0.279862947896201
-0.0559798148132662,0.278573975347546
-0.0537884651459534,0.277326609244303
-0.0516665551588611,0.27612043278789
-0.0496135534405056,0.274955029179727
-0.0476289285794028,0.27382998162123
-0.0457121491640692,0.27274487331382
-0.043862683783021,0.271699287458914
-0.0420800010247744,0.270692807257931
-0.0403635694778457,0.269725015912288
-0.0387128577307509,0.268795496623406
-0.0371273343720065,0.267903832592701
-0.0356064679901287,0.267049607021594
-0.0341497271736333,0.266232403111501
-0.0327565805110371,0.265451804063842
-0.0314264965908561,0.264707393080034
-0.0301589440016065,0.263998753361497
-0.0289533913318045,0.263325468109649
-0.0278093071699663,0.262687120525908
-0.0267261601046083,0.262083293811693
-0.0257034187242466,0.261513571168422
-0.0247405516173973,0.260977535797513
-0.0238370273725769,0.260474770900386
-0.0229923145783015,0.260004859678458
-0.0222058818230874,0.259567385333149
-0.0214771976954507,0.259161931065875
-0.0208057307839076,0.258788080078057
-0.0201909496769744,0.258445415571112
-0.0196323229631674,0.258133520746459
-0.0191293192310028,0.257851978805516
-0.0186814070689968,0.257600372949702
-0.0182880550656655,0.257378286380435
-0.0179487318095253,0.257185302299133
-0.0176629058890924,0.257021003907216
-0.0174300458928829,0.256884974406101
-0.0172496204094132,0.256776796997207
-0.0171210980271995,0.256696054881953
-0.0170439473347579,0.256642331261756
-0.0170176369206046,0.256615209338036
-0.0170416353732561,0.25661427231221
-0.0171154112812284,0.256639103385698
-0.0172384332330377,0.256689285759918
-0.0174101698172004,0.256764402636287
-0.0176300896222327,0.256864037216225
-0.0178976612366506,0.256987772701151
-0.0182123532489706,0.257135192292481
-0.0185736342477088,0.257305879191636
-0.0189809728213815,0.257499416600033
-0.0194338375585047,0.257715387719091
-0.0199316970475949,0.257953375750228
-0.0204740198771683,0.258212963894863
-0.0210602746357409,0.258493735354415
-0.0216899299118292,0.258795273330301
-0.0223624542939493,0.25911716102394
-0.0230773163706173,0.25945898163675
-0.0238339847303497,0.259820318370151
-0.0246319279616625,0.26020075442556
-0.025470614653072,0.260599873004396
-0.0263495133930945,0.261017257308077
-0.0272680927702461,0.261452490538022
-0.0282258213730432,0.26190515589565
-0.0292221677900019,0.262374836582378
-0.0302566006096383,0.262861115799626
-0.0313285884204689,0.263363576748811
-0.0324375998110097,0.263881802631352
-0.0335831033697772,0.264415376648668
-0.0347645676852873,0.264963882002176
-0.0359814613460565,0.265526901893297
-0.0372332529406008,0.266104019523447
-0.0385194110574365,0.266694818094045
-0.03983940428508,0.26729888080651
-0.0411927012120473,0.267915790862261
-0.0425787704268547,0.268545131462715
-0.0439970805180185,0.269186485809292
-0.0454471000740548,0.269839437103409
-0.0469282976834799,0.270503568546485
-0.04844014193481,0.271178463339938
-0.0499821014165615,0.271863704685188
-0.0515536447172504,0.272558875783652
-0.0531542404253929,0.273263559836749
-0.0547833571295054,0.273977340045897
-0.056440463418104,0.274699799612515
-0.0581250278797051,0.275430521738022
-0.0598365191028247,0.276169089623835
-0.0615744056759793,0.276915086471373
-0.0633381561876847,0.277668095482054
-0.0651272392264576,0.278427699857298
-0.066941123380814,0.279193482798522
-0.0687792772392701,0.279965027507146
-0.0706411693903421,0.280741917184586
-0.0725262684225464,0.281523735032263
-0.074434042924399,0.282310064251594
-0.0763639614844164,0.283100488043997
-0.0783154926911146,0.283894589610892
-0.0802881051330099,0.284691952153697
-0.0822812673986185,0.285492158873829
-0.0842944480764567,0.286294792972708
-0.0863271157550407,0.287099437651752
-0.0883787390228867,0.28790567611238
-0.0904487864685108,0.28871309155601
-0.0925367266804296,0.28952126718406
-0.0946420282471589,0.290329786197949
-0.0967641597572153,0.291138231799095
-0.0989025897991146,0.291946187188917
-0.101056786961374,0.292753235568833
-0.103226219832508,0.293558960140261
-0.105410357001034,0.294362944104621
-0.107608667055468,0.29516477066333
-0.109820618584327,0.295964023017808
-0.112045680176126,0.296760284369472
-0.114283320419382,0.29755313791974
-0.116533007902611,0.298342166870032
-0.118794211214329,0.299126954421766
-0.121066398943052,0.299907083776361
-0.123349039677297,0.300682138135233
-0.12564160200558,0.301451700699803
-0.127943554516417,0.302215354671489
-0.130254365798324,0.302972683251709
-0.132573504439818,0.303723269641881
-0.134900439029415,0.304466697043424
-0.13723463815563,0.305202548657757
-0.139575570406981,0.305930407686298
-0.141922704371983,0.306649857330465
-0.144275508639153,0.307360480791676
-0.146633451797007,0.308061861271351
-0.148996002434061,0.308753581970908
-0.151362629138832,0.309435226091765
-0.153732800499834,0.31010637683534
-0.156105985105586,0.310766617403053
-0.158481651544603,0.311415530996321
-0.160859268405401,0.312052700816563
-0.163238304276497,0.312677710065197
-0.165618227746406,0.313290141943642
-0.167998507403645,0.313889579653317
-0.170378611836731,0.314475606395639
-0.172758009634178,0.315047805372028
-0.175136169384505,0.315605759783901
-0.177512559676226,0.316149052832677
-0.179886649097859,0.316677267719775
-0.182257906237918,0.317189987646613
-0.184625799684922,0.317686795814609
-0.186989798027385,0.318167275425183
-0.189349369853824,0.318631009679751
-0.191703983752755,0.319077581779734
-0.194053108312695,0.319506574926549
-0.196396212122159,0.319917572321615
-0.198732763769664,0.320310157166349
-0.201062231843726,0.320683912662172
-0.203384084932862,0.3210384220105
-0.205697791625587,0.321373268412754
-0.208002820510418,0.32168803507035
-0.210298640175872,0.321982305184707
-0.212584719210463,0.322255661957245
-0.214860526202709,0.322507688589381
-0.217125529741125,0.322737968282533
-0.219379198414229,0.322946084238121
-0.221621000810536,0.323131619657563
-0.223850405518562,0.323294157742277
-0.226066881126823,0.323433281693681
-0.228269896223837,0.323548574713195
-0.230458919398118,0.323639620002236
-0.232633419238184,0.323706000762223
-0.234792864332551,0.323747300194575
-0.236936723269734,0.323763101500709
-0.23906446463825,0.323752987882045
-0.241175557026615,0.323716542540001
-0.243269469023346,0.323653348675994
-0.245345669216959,0.323562989491445
-0.247403626195969,0.323445048187771
-0.249442808548894,0.32329910796639
-0.251462684864248,0.323124752028721
-0.25346272373055,0.322921563576183
-0.255442393736314,0.322689125810194
-0.257401163470057,0.322427021932172
-0.259338501520296,0.322134835143536
-0.261253876475546,0.321812148645705
-0.263146756924323,0.321458545640096
-0.265016611455145,0.321073609328128
-0.266862908656526,0.32065692291122
-0.268685117116984,0.32020806959079
-0.270482705425035,0.319726632568257
-0.272255142169195,0.319212195045039
-0.274001895937979,0.318664340222554
-0.275722435319905,0.318082651302222
-0.277416228903489,0.317466711485459
-0.279082745277246,0.316816103973686
-0.280721453029693,0.31613041196832
-0.282331820749346,0.315409218670779
-0.283913317024722,0.314652107282483
-0.285465410444336,0.313858661004849
-0.286987569596706,0.313028463039297
-0.288479263070346,0.312161096587244
-0.289939959453773,0.311256144850109
-0.291369127335505,0.31031319102931
-0.292766235304056,0.309331818326267
-0.294130751947943,0.308311609942397
-0.295462145855682,0.307252149079118
-0.29675988561579,0.30615301893785
-0.298023439816782,0.305013802720011
-0.299252277047176,0.303834083627019
-0.300445865895486,0.302613444860292
-0.30160367495023,0.30135146962125
-0.302725172799924,0.30004774111131
-0.303809828033083,0.298701842531891
-0.304857109238224,0.297313357084412
-0.305866485003864,0.29588186797029
-0.306837423918518,0.294406958390945
-0.307769394570703,0.292888211547794
-0.308661865548935,0.291325210642257
-0.30951430544173,0.289717538875752
-0.310326182837604,0.288064779449696
-0.311096966325074,0.28636651556551
-0.311826124492656,0.28462233042461
-0.312513125928866,0.282831807228416
-0.313157439222221,0.280994529178346
-0.313758532961235,0.279110079475818
-0.314315875734427,0.277178041322251
-0.314828936130312,0.275197997919064
-0.315297182737406,0.273169532467674
-0.315720084144225,0.2710922281695
-0.316097108939286,0.268965668225961
-0.316427725711105,0.266789435838476
-0.316711403048198,0.264563114208462
-0.316947609539082,0.262286286537337
-0.317135813772272,0.259958536026522
-0.317275484336284,0.257579445877433
-0.317366089819636,0.25514859929149
-0.317407098810843,0.25266557947011
-0.317397979898422,0.250129969614713
-0.317338201670888,0.247541352926717
-0.317227232716759,0.24489931260754
-0.317064541624549,0.2422034318586
-0.316849596982776,0.239453293881317
-0.316581867379956,0.236648481877108
-0.316260821404604,0.233788579047392
-0.315885927645238,0.230873168593588
-0.315456654690372,0.227901833717114
-0.314972471128525,0.224874157619388
-0.314432845548211,0.221789723501828
-0.313837246537947,0.218648114565854
-0.313185142686249,0.215448914012884
-0.312476002581634,0.212191705044336
-0.311709294812617,0.208876070861629
-0.310884487967716,0.20550159466618
-0.310001050635445,0.20206785965941
-0.309058451404322,0.198574449042735
-0.308056158862862,0.195020946017575
-0.306993641599582,0.191406933785347
-0.305870368202999,0.187731995547471
-0.304685807261627,0.183995714505365
-0.303439427363984,0.180197673860447
-0.302130697098586,0.176337456814136
-0.300759085053948,0.172414646567849
-0.299324059818588,0.168428826323007
-0.297825089981021,0.164379579281026
-0.296261644129764,0.160266488643326
-0.294633190853333,0.156089137611325
-0.292939198740243,0.151847109386442
-0.291179136379012,0.147539987170094
-0.289352472358156,0.143167354163701
-0.28745867526619,0.13872879356868
-0.285497213691632,0.134223888586451
-0.283467556222996,0.129652222418431
-0.2813691714488,0.12501337826604
-0.279201527957559,0.120306939330695
-0.276964094337791,0.115532488813815
-0.27465633917801,0.110689609916819
-0.272277731066734,0.105777885841124
-0.269827738592479,0.10079689978815
-0.26730583034376,0.0957462349593151
-0.264711474909094,0.0906254745560371
-0.262044140876998,0.0854342017797351
-0.259303296835987,0.0801719998318271
-0.256488411374578,0.074838451913732
-0.253598953081286,0.0694331412268677
-0.250634390544629,0.0639556509726533
-0.247594192353122,0.0584055643525066
-0.244477827095282,0.0527824645678466
-0.241284763359625,0.0470859348200914
-0.238014469734667,0.0413155583106598
-0.234666414808924,0.0354709182409697
-0.231240067170912,0.0295515978124402
-0.227734895409148,0.0235571802264891
-0.227734895409148,0.0235571802264891
-0.224217182178075,0.0175464129338648
-0.220753428576379,0.0115782966321172
-0.217343430858942,0.00565279439286814
-0.213986985280648,-0.000230130712260426
-0.210683888096378,-0.00607051561164667
-0.207433935561015,-0.0118683972336687
-0.204236923929442,-0.0176238125067047
-0.201092649456541,-0.0233367983591328
-0.198000908397194,-0.029007391719331
-0.194961497006283,-0.0346356295156776
-0.191974211538692,-0.0402215486765506
-0.189038848249303,-0.0457651861303282
-0.186155203392998,-0.0512665788053885
-0.183323073224659,-0.0567257636301097
-0.18054225399917,-0.0621427775328698
-0.177812541971412,-0.067517657442047
-0.175133733396268,-0.0728504402860195
-0.17250562452862,-0.0781411629931653
-0.169928011623351,-0.0833898624918627
-0.167400690935344,-0.0885965757104896
-0.16492345871948,-0.0937613395774244
-0.162496111230643,-0.0988841910210449
-0.160118444723714,-0.10396516696973
-0.157790255453576,-0.109004304351856
-0.155511339675112,-0.114001640095803
-0.153281493643203,-0.118957211129949
-0.151100513612733,-0.123871054382671
-0.148968195838584,-0.128743206782347
-0.146884336575639,-0.133573705257357
-0.144848732078779,-0.138362586736077
-0.142861178602887,-0.143109888146886
-0.140921472402846,-0.147815646418163
-0.139029409733539,-0.152479898478285
-0.137184786849846,-0.15710268125563
-0.135387400006652,-0.161684031678577
-0.133637045458839,-0.166223986675504
-0.131933519461288,-0.170722583174788
-0.130276618268882,-0.175179858104809
-0.128666138136505,-0.179595848393943
-0.127101875319038,-0.18397059097057
-0.125583626071363,-0.188304122763067
-0.124111186648364,-0.192596480699813
-0.122684353304922,-0.196847701709185
-0.12130292229592,-0.201057822719562
-0.119966689876241,-0.205226880659322
-0.118675452300767,-0.209354912456843
-0.11742900582438,-0.213441955040502
-0.116227146701964,-0.21748804533868
-0.115069671188399,-0.221493220279752
-0.113956375538569,-0.225457516792098
-0.112887056007357,-0.229380971804096
-0.111861508849644,-0.233263622244124
-0.110879530320313,-0.237105505040559
-0.109940916674247,-0.240906657121781
-0.109045464166328,-0.244667115416167
-0.108192969051438,-0.248386916852095
-0.10738322758446,-0.252066098357943
-0.106616036020277,-0.25570469686209
-0.10589119061377,-0.259302749292914
-0.105208487619823,-0.262860292578792
-0.104567723293317,-0.266377363648104
-0.103968693889136,-0.269853999429226
-0.103411195662161,-0.273290236850538
-0.102895024867275,-0.276686112840417
-0.10241997775936,-0.280041664327242
-0.1019858505933,-0.28335692823939
-0.101592439623976,-0.28663194150524
-0.101239541106271,-0.28986674105317
-0.100926951295067,-0.293061363811558
-0.100654466445247,-0.296215846708782
-0.100421882811693,-0.29933022667322
-0.100228996649288,-0.302404540633251
-0.100075604212914,-0.305438825517252
-0.0999615017574533,-0.308433118253601
-0.0998864855377887,-0.311387455770678
-0.0998503518088026,-0.314301874996859
-0.0998528968253774,-0.317176412860524
-0.0998939168423954,-0.320011106290049
-0.0999732081147394,-0.322805992213814
-0.100090566897292,-0.325561107560197
-0.100245789444934,-0.328276489257575
-0.10043867201255,-0.330952174234326
-0.100669010855022,-0.33358819941883
-0.100936602227232,-0.336184601739463
-0.101241242384062,-0.338741418124604
-0.101582727580395,-0.341258685502632
-0.101960854071113,-0.343736440801924
-0.102375418111099,-0.346174720950858
-0.102826215955236,-0.348573562877814
-0.103313043858405,-0.350933003511167
-0.10383569807549,-0.353253079779298
-0.104393974861372,-0.355533828610583
-0.104987670470934,-0.357775286933402
-0.105616581159059,-0.359977491676132
-0.106280503180628,-0.362140479767151
-0.106979232790525,-0.364264288134838
-0.107712566243632,-0.366348953707571
-0.108480299794832,-0.368394513413727
-0.109282229699006,-0.370401004181685
-0.110118152211037,-0.372368462939823
-0.110987863585808,-0.37429692661652
-0.111891160078201,-0.376186432140152
-0.112827837943099,-0.378037016439099
-0.113797693435383,-0.379848716441739
-0.114800522809938,-0.381621569076449
-0.115836122321644,-0.383355611271608
-0.116904288225384,-0.385050879955594
-0.118004816776041,-0.386707412056785
-0.119137504228498,-0.38832524450356
-0.120302146837636,-0.389904414224295
-0.121498540858339,-0.39144495814737
-0.122726482545488,-0.392946913201163
-0.123985768153966,-0.394410316314051
-0.125276193938655,-0.395835204414413
-0.126597556154439,-0.397221614430627
-0.127949651056199,-0.398569583291072
-0.129332274898818,-0.399879147924124
-0.130745223937178,-0.401150345258163
-0.132188294426162,-0.402383212221566
-0.133661282620652,-0.403577785742713
-0.135163984775531,-0.404734102749979
-0.136696197145681,-0.405852200171745
-0.138257715985984,-0.406932114936387
-0.139848337551323,-0.407973883972285
-0.141467858096581,-0.408977544207817
-0.14311607387664,-0.409943132571359
-0.144792781146382,-0.410870685991291
-0.14649777616069,-0.411760241395991
-0.148230855174446,-0.412611835713836
-0.149991814442533,-0.413425505873206
-0.151780450219833,-0.414201288802477
-0.153596558761229,-0.414939221430029
-0.155439936321603,-0.415639340684239
-0.157310379155837,-0.416301683493485
-0.159207683518814,-0.416926286786146
-0.161131645665416,-0.4175131874906
-0.163082061850527,-0.418062422535224
-0.165058728329027,-0.418574028848398
-0.167061441355801,-0.419048043358498
-0.169089997185729,-0.419484502993904
-0.171144192073695,-0.419883444682994
-0.173223822274582,-0.420244905354144
-0.17532868404327,-0.420568921935734
-0.177458573634644,-0.420855531356143
-0.179613287303586,-0.421104770543747
-0.181792621304977,-0.421316676426924
-0.1839963718937,-0.421491285934054
-0.186224335324638,-0.421628635993515
-0.188476307852674,-0.421728763533684
-0.190752085732689,-0.421791705482939
-0.193051465219566,-0.421817498769659
-0.195374242568188,-0.421806180322221
-0.197720214033437,-0.421757787069005
-0.200089175870195,-0.421672355938388
-0.202480924333345,-0.421549923858747
-0.20489525567777,-0.421390527758463
-0.207331966158352,-0.421194204565911
-0.209790852029972,-0.420960991209472
-0.212271709547515,-0.420690924617521
-0.214774334965861,-0.420384041718439
-0.217298524539895,-0.420040379440603
-0.219844074524497,-0.41965997471239
-0.222410781174551,-0.41924286446218
-0.224998440744939,-0.418789085618351
-0.227606849490543,-0.418298675109279
-0.230235803666246,-0.417771669863345
-0.23288509952693,-0.417208106808925
-0.235554533327478,-0.416608022874398
-0.238243901322773,-0.415971454988142
-0.240952999767696,-0.415298440078535
-0.24368162491713,-0.414589015073955
-0.246429573025958,-0.413843216902781
-0.249196640349061,-0.413061082493391
-0.251982623141324,-0.412242648774161
-0.254787317657627,-0.411387952673472
-0.257610520152853,-0.410497031119701
-0.260452026881885,-0.409569921041225
-0.263311634099606,-0.408606659366424
-0.266189138060897,-0.407607283023675
-0.269084335020641,-0.406571828941357
-0.271997021233721,-0.405500334047847
-0.274926992955019,-0.404392835271524
-0.277874046439418,-0.403249369540765
-0.280837977941799,-0.40206997378395
-0.283818583717046,-0.400854684929456
-0.286815660020041,-0.39960353990566
-0.289829003105666,-0.398316575640942
-0.292858409228804,-0.39699382906368
-0.295903674644337,-0.395635337102252
-0.298964595607147,-0.394241136685034
-0.302040968372118,-0.392811264740407
-0.305132589194131,-0.391345758196748
-0.308239254328069,-0.389844653982435
-0.311360760028815,-0.388307989025846
-0.31449690255125,-0.38673580025536
-0.317647478150258,-0.385128124599354
-0.320812283080721,-0.383484998986207
-0.323991113597521,-0.381806460344296
-0.32718376595554,-0.380092545602
-0.330390036409662,-0.378343291687698
-0.333609721214768,-0.376558735529766
-0.336842616625742,-0.374738914056584
-0.340088518897464,-0.37288386419653
-0.343347224284819,-0.37099362287798
-0.346618529042688,-0.369068227029315
-0.349902229425954,-0.367107713578911
-0.353198121689499,-0.365112119455147
-0.356506002088206,-0.363081481586402
-0.359825666876957,-0.361015836901052
-0.363156912310635,-0.358915222327477
-0.366499534644122,-0.356779674794054
-0.3698533301323,-0.354609231229162
-0.373218095030053,-0.352403928561179
-0.376593625592262,-0.350163803718482
-0.379979718073809,-0.347888893629451
-0.383376168729578,-0.345579235222462
-0.386782773814451,-0.343234865425895
-0.39019932958331,-0.340855821168127
-0.393625632291037,-0.338442139377537
-0.397061478192516,-0.335993856982502
-0.400506663542628,-0.333511010911401
-0.403960984596256,-0.330993638092612
-0.407424237608283,-0.328441775454513
-0.410896218833591,-0.325855459925482
-0.414376724527062,-0.323234728433898
-0.417865550943579,-0.320579617908138
-0.421362494338024,-0.31789016527658
-0.42486735096528,-0.315166407467603
-0.428379917080229,-0.312408381409585
-0.431899988937753,-0.309616124030903
-0.435427362792736,-0.306789672259937
-0.438961834900059,-0.303929063025064
-0.442503201514605,-0.301034333254663
-0.446051258891256,-0.29810551987711
-0.449605803284896,-0.295142659820786
-0.453166630950405,-0.292145790014067
-0.456733538142668,-0.289114947385331
-0.460306321116565,-0.286050168862958
-0.463884776126981,-0.282951491375325
-0.467468699428796,-0.279818951850811
-0.471057887276894,-0.276652587217792
-0.474652135926157,-0.273452434404648
-0.478251241631467,-0.270218530339757
-0.481855000647707,-0.266950911951496
-0.48546320922976,-0.263649616168245
-0.489075663632507,-0.26031467991838
-0.492692160110832,-0.25694614013028
-0.496312494919616,-0.253544033732324
-0.499936464313743,-0.250108397652889
-0.503563864548094,-0.246639268820354
-0.507194491877552,-0.243136684163096
-0.510828142556999,-0.239600680609494
-0.514464612841319,-0.236031295087926
-0.518103698985393,-0.23242856452677
-0.521745197244103,-0.228792525854404
-0.525388903872333,-0.225123215999207
-0.529034615124965,-0.221420671889556
-0.532682127256881,-0.217684930453829
-0.536331236522963,-0.213916028620405
-0.539981739178095,-0.210114003317663
-0.543633431477158,-0.206278891473979
-0.547286109675035,-0.202410730017732
-0.550939570026609,-0.1985095558773
-0.554593608786761,-0.194575405981062
-0.558248022210375,-0.190608317257395
-0.561902606552332,-0.186608326634678
-0.565557158067516,-0.182575471041288
-0.569211473010809,-0.178509787405605
-0.572865347637092,-0.174411312656005
-0.576518578201249,-0.170280083720868
-0.580170960958163,-0.16611613752857
-0.583822292162714,-0.161919511007492
-0.587472368069787,-0.157690241086009
-0.591120984934263,-0.153428364692502
-0.594767939011024,-0.149133918755347
-0.598413026554954,-0.144806940202923
-0.602056043820935,-0.140447465963608
-0.605696787063849,-0.13605553296578
-0.609335052538578,-0.131631178137818
-0.612970636500006,-0.127174438408099
-0.616603335203014,-0.122685350705001
-0.620232944902485,-0.118163951956904
-0.623859261853301,-0.113610279092184
-0.627482082310345,-0.10902436903922
-0.6311012025285,-0.10440625872639
-0.634716418762647,-0.0997559850820722
-0.63832752726767,-0.0950735850346447
-0.64193432429845,-0.090359095512486
-0.645536606109871,-0.0856125534439736
-0.649134168956813,-0.0808339957574861
-0.652726809094161,-0.0760234593814013
-0.656314322776796,-0.0711809812440977
-0.659896506259602,-0.066306598273953
-0.663473155797459,-0.0614003473993458
-0.667044067645252,-0.0564622655486537
-0.670609038057861,-0.0514923896502554
-0.67416786329017,-0.0464907566325285
-0.677720339597062,-0.0414574034238516
-0.681266263233418,-0.0363923669526023
-0.684805430454121,-0.0312956841471594
-0.688337637514054,-0.0261673919359003
-0.691862680668098,-0.0210075272472038
-0.695380356171137,-0.0158161270094474
-0.698890460278053,-0.0105932281510099
-0.702392789243728,-0.00533886760026879
-0.705887139323045,-5.30822856027457e-05
-0.709373306770886,0.00526409086461065
-0.712851087842133,0.0106126149219926
-0.71632027879167,0.0159924529581657
-0.719780675874378,0.0214035680447512
-0.72323207534514,0.0268459232533715
-0.726674273458839,0.032319481655648
-0.730107066470356,0.0378242063232029
-0.733530250634575,0.0433600603276579
-0.736943622206378,0.048927006740635
-0.740346977440647,0.0545250086337557
-0.743740112592264,0.0601540290786426
-0.747122823916113,0.0658140311469167
-0.750494907667075,0.0715049779102006
-0.753856160100034,0.0772268324401157
-0.75720637746987,0.0829795578082842
-0.760545356031468,0.0887631170863276
-0.763872892039709,0.0945774733458682
-0.767188781749476,0.100422589658527
-0.770492821415651,0.106298429095928
-0.773784807293117,0.11220495472969
-0.777064535636756,0.118142129631437
-0.780331802701451,0.124109916872791
-0.783586404742083,0.130108279525372
-0.786828138013536,0.136137180660804
-0.790056798770693,0.142196583350708
-0.793272183268434,0.148286450666705
-0.796474087761644,0.154406745680418
-0.799662308505203,0.160557431463469
-0.802836641753996,0.166738471087479
-0.805996883762904,0.17294982762407
-0.809142830786809,0.179191464144865
-0.812274279080595,0.185463343721484
-0.815391024899143,0.191765429425551
-0.818492864497336,0.198097684328686
-0.821579594130057,0.204460071502512
-0.824651010052187,0.21085255401865
-0.82770690851861,0.217275094948723
-0.830747085784208,0.223727657364352
-0.833771338103863,0.230210204337159
-0.836779461732457,0.236722698938766
-0.839771252924874,0.243265104240795
-0.842746507935995,0.249837383314868
-0.845705023020703,0.256439499232606
-0.848646594433881,0.263071415065632
-0.851571018430411,0.269733093885567
-0.854478091265175,0.276424498764033
-0.857367609193056,0.283145592772653
-0.860239368468937,0.289896338983047
-0.863093165347699,0.296676700466838
-0.865928796084225,0.303486640295648
-0.868746056933398,0.310326121541099
-0.8715447441501,0.317195107274811
-0.874324653989214,0.324093560568408
-0.877085582705622,0.331021444493512
-0.879827326554206,0.337978722121743
-0.882549681789848,0.344965356524724
-0.885252444667433,0.351981310774077
-0.887935411441841,0.359026547941424
-0.890598378367955,0.366101031098386
-0.893241141700658,0.373204723316585
-0.895863497694832,0.380337587667644
-0.89846524260536,0.387499587223184
-0.901046172687123,0.394690685054827
-0.903606084195006,0.401910844234195
-0.906144773383889,0.40916002783291
-0.908662036508655,0.416438198922593
-0.911157669824187,0.423745320574866
-0.913631469585368,0.431081355861352
-0.916083232047079,0.438446267853673
-0.918512753464204,0.445840019623448
-0.920919830091624,0.453262574242303
-0.923304258184222,0.460713894781857
-0.925665833996881,0.468193944313733
-0.928004353784483,0.475702685909552
-0.93031961380191,0.483240082640937
-0.932611410304045,0.490806097579509
-0.93487953954577,0.49840069379689
-0.937123797781968,0.506023834364702
-0.939343981267521,0.513675482354568
-0.941539886257312,0.521355600838107
-0.943711309006223,0.529064152886944
-0.945858045769137,0.536801101572699
-0.947979892800936,0.544566409966995
-0.950076646356502,0.552360041141453
-0.952148102690718,0.560181958167695
-0.954194058058466,0.568032124117342
-0.956214308714629,0.575910502062019
-0.95820865091409,0.583817055073344
-0.96017688091173,0.591751746222941
-0.962118794962432,0.599714538582432
-0.964034189321079,0.607705395223438
-0.965922860242553,0.615724279217581
-0.967784603981737,0.623771153636484
