0.855975121648128,0.107469098543659
0.855924275736908,0.101672317930198
0.855824868207583,0.0958971485428875
0.855677138942727,0.0901436305800372
0.855481327824912,0.0844118042399549
0.855237674736711,0.0787017097209489
0.854946419560697,0.0730133872213275
0.854607802179444,0.067346876939399
0.854222062475524,0.0617022190734716
0.853789440331511,0.0560794538218537
0.853310175629977,0.0504786213828534
0.852784508253494,0.0448997619547791
0.852212678084638,0.0393429157359391
0.85159492500598,0.0338081229246416
0.850931488900092,0.0282954237191948
0.850222609649549,0.0228048583179071
0.849468527136924,0.0173364669190868
0.848669481244788,0.0118902897210421
0.847825711855716,0.00646636692208126
0.846937458852279,0.00106473872051258
0.846004962117052,-0.00431455468535562
0.845028461532608,-0.00967147309721511
0.844008196981518,-0.0150059763167576
0.842944408346356,-0.0203180241456748
0.841837335509696,-0.0256075763856586
0.84068721835411,-0.0308745928384005
0.83949429676217,-0.0361190333055923
0.838258810616451,-0.0413408575889257
0.836980999799525,-0.0465400254900925
0.835661104193965,-0.0517164968107844
0.834299363682344,-0.0568702313526931
0.832896018147235,-0.0620011889175103
0.831451307471211,-0.0671093293069278
0.829965471536845,-0.0721946123226373
0.82843875022671,-0.0772569977663305
0.826871383423379,-0.0822964454396991
0.825263611009425,-0.087312915144435
0.823615672867421,-0.0923063666822296
0.82192780887994,-0.0972767598547749
0.820200258929555,-0.102224054463763
0.818433262898839,-0.107148210310884
0.816627060670365,-0.112049187197832
0.814781892126705,-0.116926944926297
0.812897997150433,-0.121781443297971
0.810975615624123,-0.126612642114546
0.809014987430346,-0.131420501177714
0.807016352451676,-0.136204980289167
0.804979950570686,-0.140966039250595
0.802906021669949,-0.145703637863691
0.800794805632038,-0.150417735930147
0.798646542339525,-0.155108293251655
0.796461471674984,-0.159775269629905
0.794239833520988,-0.16441862486659
0.79198186776011,-0.169038318763401
0.789687814274923,-0.173634311122031
0.787357912947999,-0.178206561744171
0.784992403661912,-0.182755030431512
0.782591526299235,-0.187279676985747
0.78015552074254,-0.191780461208567
0.777684626874401,-0.196257342901664
0.775179084577391,-0.200710281866729
0.772639133734083,-0.205139237905455
0.770065014227049,-0.209544170819532
0.767456965938862,-0.213925040410654
0.764815228752097,-0.218281806480511
0.762140042549325,-0.222614428830795
0.75943164721312,-0.226922867263198
0.756690282626054,-0.231207081579411
0.753916188670701,-0.235467031581127
0.751109605229634,-0.239702677070037
0.748270772185425,-0.243913977847833
0.745399929420647,-0.248100893716207
0.742497316817874,-0.252263384476849
0.739563174259679,-0.256401409931453
0.736597741628634,-0.26051492988171
0.733601258807313,-0.264603904129311
0.730573965678288,-0.268668292475948
0.727516102124133,-0.272708054723313
0.72442790802742,-0.276723150673097
0.721309623270722,-0.280713540126993
0.718161487736613,-0.284679182886692
0.714983741307666,-0.288620038753886
0.711776623866453,-0.292536067530267
0.708540375295547,-0.296427229017525
0.705275235477522,-0.300293483017354
0.70198144429495,-0.304134789331444
0.698659241630404,-0.307951107761488
0.695308867366458,-0.311742398109177
0.691930561385684,-0.315508620176203
0.688524563570656,-0.319249733764257
0.685091113803945,-0.322965698675032
0.681630451968126,-0.326656474710218
0.678142817945772,-0.330322021671509
0.674628451619455,-0.333962299360595
0.671087592871748,-0.337577267579168
0.667520481585224,-0.34116688612892
0.663927357642456,-0.344731114811543
0.660308460926018,-0.348269913428729
0.656664031318482,-0.351783241782168
0.652994308702421,-0.355271059673553
0.649299532960409,-0.358733326904576
0.645579943975018,-0.362170003276929
0.64183578162882,-0.365581048592302
0.63806728580439,-0.368966422652388
0.6342746963843,-0.372326085258878
0.630458253251124,-0.375659996213465
0.626618196287433,-0.37896811531784
0.622754765375801,-0.382250402373694
0.618868200398802,-0.38550681718272
0.614958741239008,-0.388737319546608
0.611026627778992,-0.391941869267052
0.607072099901326,-0.395120426145742
0.603095397488585,-0.39827294998437
0.599096760423342,-0.401399400584629
0.595076428588167,-0.404499737748209
0.591034641865636,-0.407573921276803
0.586971640138321,-0.410621910972102
0.582887663288795,-0.413643666635797
0.578782951199631,-0.416639148069582
0.574657743753402,-0.419608315075147
0.570512280832682,-0.422551127454183
0.566346802320042,-0.425467545008384
0.562161548098055,-0.42835752753944
0.557956758049296,-0.431221034849044
0.553732672056337,-0.434058026738886
0.549489530001751,-0.436868463010659
0.54522757176811,-0.439652303466055
0.540947037237988,-0.442409507906765
0.536648166293959,-0.44514003613448
0.532331198818594,-0.447843847950894
0.527996374694467,-0.450520903157696
0.52364393380415,-0.45317116155658
0.519274116030218,-0.455794582949236
0.514887161255243,-0.458391127137357
0.510483309361797,-0.460960753922635
0.506062800232454,-0.46350342310676
0.501625873749787,-0.466019094491425
0.497172769796368,-0.468507727878321
0.492703728254771,-0.47096928306914
0.488218989007569,-0.473403719865575
0.483718791937335,-0.475810998069316
0.479203376926642,-0.478191077482055
0.474672983858062,-0.480543917905484
0.470127852614169,-0.482869479141295
0.465568223077535,-0.48516772099118
0.460994335130734,-0.48743860325683
0.456406428656339,-0.489682085739936
0.451804743536923,-0.491898128242192
0.447189519655058,-0.494086690565288
0.442560996893318,-0.496247732510915
0.437919415134275,-0.498381213880767
0.433265014260503,-0.500487094476534
0.428598034154574,-0.502565334099909
0.423918714699062,-0.504615892552583
0.41922729577654,-0.506638729636247
0.41452401726958,-0.508633805152594
0.409809119060756,-0.510601078903315
0.40508284103264,-0.512540510690102
0.400345423067806,-0.514452060314647
0.395597105048826,-0.516335687578641
0.390838126858273,-0.518191352283776
0.386068728378722,-0.520019014231744
0.381289149492743,-0.521818633224236
0.376499630082911,-0.523590169062945
0.371700410031799,-0.525333581549562
0.366891729221979,-0.527048830485778
0.362073827536024,-0.528735875673286
0.357246944856508,-0.530394676913777
0.352411321066003,-0.532025194008943
0.347567196047082,-0.533627386760476
0.342714809682319,-0.535201214970067
0.337854401854286,-0.536746638439408
0.332986212445557,-0.538263616970191
0.328110481338704,-0.539752110364107
0.3232274484163,-0.541212078422849
0.318337353560918,-0.542643480948108
0.313440436655132,-0.544046277741575
0.308536937581514,-0.545420428604943
0.303627096222638,-0.546765893339903
0.298711152461075,-0.548082631748146
0.2937893461794,-0.549370603631366
0.288861917260185,-0.550629768791253
0.283929105586003,-0.551860087029498
0.278991151039428,-0.553061518147795
0.274048293503031,-0.554234021947834
0.269100772859387,-0.555377558231307
0.264148828991068,-0.556492086799907
0.259192701780647,-0.557577567455323
0.254232631110698,-0.55863395999925
0.249268856863792,-0.559661224233377
0.244301618922504,-0.560659319959398
0.239331157169405,-0.561628206979003
0.23435771148707,-0.562567845093884
0.229381521758071,-0.563478194105733
0.224402827864981,-0.564359213816242
0.219421869690373,-0.565210864027103
0.21443888711682,-0.566033104540006
0.209454120026895,-0.566825895156645
0.204467808303171,-0.56758919567871
0.199480191828221,-0.568322965907894
0.194491510484618,-0.569027165645888
0.189502004154935,-0.569701754694384
0.184511912721746,-0.570346692855073
0.179521476067622,-0.570961939929647
0.174530934075137,-0.571547455719799
0.169540526626864,-0.572103200027219
0.164550493605375,-0.5726291326536
0.159561074893245,-0.573125213400633
0.154572510373046,-0.57359140207001
0.14958503992735,-0.574027658463422
0.144598903438732,-0.574433942382562
0.139614340789763,-0.574810213629121
0.134631591863018,-0.575156432004791
0.129650896541067,-0.575472557311263
0.124672494706487,-0.57575854935023
0.119696626241847,-0.576014367923382
0.114723531029723,-0.576239972832412
0.109753448952686,-0.576435323879012
0.10478661989331,-0.576600380864873
0.0998232837341679,-0.576735103591687
0.0948636803578325,-0.576839451861145
0.0899080496468768,-0.57691338547494
0.0849566314838741,-0.576956864234762
0.0800096657513968,-0.576969847942305
0.0750673923320185,-0.576952296399259
0.0701300511083116,-0.576904169407316
0.0651978819628496,-0.576825426768169
0.0602711247782051,-0.576716028283508
0.0553500194369515,-0.576575933755025
0.0504348058216613,-0.576405102984413
0.0455257238149079,-0.576203495773362
0.040623013299264,-0.575971071923565
0.035726914157303,-0.575707791236713
0.0308376662715973,-0.575413613514499
0.0259555095247204,-0.575088498558613
0.0210806837992449,-0.574732406170748
0.0162134289777441,-0.574345296152595
0.0113539849427907,-0.573927128305845
0.00650259157695807,-0.573477862432192
0.00165948876281874,-0.572997458333326
-0.00317508361705376,-0.572485875810939
-0.00800088568008714,-0.571943074666723
-0.0128176775437077,-0.571369014702369
-0.0176252193253431,-0.57076365571957
-0.0224232711424197,-0.570126957520017
-0.027211593112365,-0.569458879905401
-0.0319899453526058,-0.568759382677415
-0.0367580879805693,-0.56802842563775
-0.0415157811136821,-0.567265968588098
-0.0462627848693718,-0.566471971330151
-0.0509988593650649,-0.5656463936656
-0.0557237647181887,-0.564789195396137
-0.0604372610461701,-0.563900336323454
-0.0651391084664362,-0.562979776249243
-0.0698290670964137,-0.562027474975195
-0.0745068970535302,-0.561043392303002
-0.0791723584552121,-0.560027488034355
-0.0838252114188869,-0.558979721970948
-0.0884652160619812,-0.55790005391447
-0.0930921325019224,-0.556788443666614
-0.0977057208561371,-0.555644851029072
-0.102305741242053,-0.554469235803535
-0.106891953777096,-0.553261557791695
-0.111464118578694,-0.552021776795244
-0.116021995764274,-0.550749852615874
-0.120565345451263,-0.549445745055275
-0.125093927757087,-0.548109413915141
-0.129607502799174,-0.546740818997163
-0.134105830694951,-0.545339920103032
-0.138588671561845,-0.54390667703444
-0.143055785517283,-0.542441049593079
-0.147506932678691,-0.54094299758064
-0.151941873163498,-0.539412480798816
-0.156360367089129,-0.537849459049298
-0.160762174573012,-0.536253892133778
-0.165147055732574,-0.534625739853947
-0.169514770685242,-0.532964962011497
-0.173865079548443,-0.531271518408121
-0.178197742439604,-0.529545368845509
-0.182512519476152,-0.527786473125354
-0.186809170775514,-0.525994791049346
-0.191087456455116,-0.524170282419179
-0.195347136632387,-0.522312907036543
-0.199587971424753,-0.52042262470313
-0.203809720949641,-0.518499395220633
-0.208012145324477,-0.516543178390742
-0.21219500466669,-0.51455393401515
-0.216358059093706,-0.512531621895548
-0.220501068722952,-0.510476201833627
-0.224623793671855,-0.508387633631081
-0.228725994057842,-0.5062658770896
-0.23280742999834,-0.504110892010876
-0.236867861610776,-0.501922638196601
-0.240907049012578,-0.499701075448466
-0.244924752321171,-0.497446163568164
-0.248920731653984,-0.495157862357385
-0.252894747128443,-0.492836131617823
-0.256846558861975,-0.490480931151168
-0.260775926972007,-0.488092220759112
-0.264682611575966,-0.485669960243347
-0.26856637279128,-0.483214109405565
-0.272426970735374,-0.480724628047457
-0.276264165525677,-0.478201475970715
-0.280077717279616,-0.475644612977031
-0.283867386114616,-0.473053998868096
-0.287632932148106,-0.470429593445603
-0.291374115497512,-0.467771356511243
-0.295090696280261,-0.465079247866707
-0.298782434613781,-0.462353227313688
-0.302449090615498,-0.459593254653877
-0.306090424402839,-0.456799289688966
-0.309706196093231,-0.453971292220646
-0.313296165804102,-0.45110922205061
-0.316860093652879,-0.448213038980549
-0.320397739756987,-0.445282702812155
-0.323908864233855,-0.442318173347119
-0.327393227200909,-0.439319410387134
-0.330850588775577,-0.43628637373389
-0.334280709075286,-0.433219023189081
-0.337683348217461,-0.430117318554396
-0.341058266319531,-0.426981219631529
-0.344405223498923,-0.423810686222171
-0.347723979873063,-0.420605678128013
-0.351014295559378,-0.417366155150747
-0.354275930675296,-0.414092077092066
-0.357508645338244,-0.41078340375366
-0.360712199665648,-0.407440094937222
-0.363886353774936,-0.404062110444443
-0.367030867783534,-0.400649410077015
-0.370145501808869,-0.39720195363663
-0.373230015968369,-0.393719700924979
-0.376284170379461,-0.390202611743754
-0.379307725159572,-0.386650645894648
-0.382300440426128,-0.38306376317935
-0.385262076296556,-0.379441923399554
-0.388192392888284,-0.375785086356951
-0.391091150318739,-0.372093211853233
-0.393958108705348,-0.368366259690091
-0.396793028165537,-0.364604189669218
-0.399595668816734,-0.360806961592304
-0.402365790776365,-0.356974535261042
-0.405103154161858,-0.353106870477123
-0.40780751909064,-0.34920392704224
-0.410478645680138,-0.345265664758083
-0.413116294047778,-0.341292043426345
-0.415720224310988,-0.337283022848717
-0.418290196587195,-0.333238562826891
-0.420825970993826,-0.329158623162559
-0.423327307648307,-0.325043163657412
-0.425793966668066,-0.320892144113143
-0.42822570817053,-0.316705524331442
-0.430622292273126,-0.312483264114002
-0.432983479093281,-0.308225323262515
-0.435309028748421,-0.303931661578671
-0.437598701355975,-0.299602238864163
-0.439852257033368,-0.295237014920683
-0.442069455898028,-0.290835949549922
-0.444250058067382,-0.286399002553572
-0.446393823658857,-0.281926133733325
-0.44850051278988,-0.277417302890872
-0.450569885577877,-0.272872469827906
-0.452601702140277,-0.268291594346117
-0.454595722594505,-0.263674636247198
-0.45655170705799,-0.25902155533284
-0.458469415648158,-0.254332311404735
-0.460348608482435,-0.249606864264575
-0.462189045678249,-0.244845173714052
-0.463990487353028,-0.240047199554856
-0.465752693624198,-0.235212901588681
-0.467475424609185,-0.230342239617217
-0.469158440425418,-0.225435173442157
-0.470801501190322,-0.220491662865192
-0.472404367021326,-0.215511667688014
-0.473966798035856,-0.210495147712314
-0.475488554351339,-0.205442062739785
-0.476969396085202,-0.200352372572118
-0.478409083354872,-0.195226037011004
-0.479807376277776,-0.190063015858136
-0.481164034971342,-0.184863268915205
-0.482478819552995,-0.179626755983903
-0.483751490140164,-0.174353436865922
-0.484981806850275,-0.169043271362953
-0.486169529800755,-0.163696219276689
-0.487314419109031,-0.15831224040882
-0.488416234892531,-0.152891294561039
-0.489474737268681,-0.147433341535037
-0.490489686354907,-0.141938341132506
-0.491460842268639,-0.136406253155137
-0.492387965127301,-0.130837037404624
-0.493270815048322,-0.125230653682656
-0.494109152149128,-0.119587061790926
-0.494902736547146,-0.113906221531126
-0.495651328359804,-0.108188092704948
-0.496354687704528,-0.102432635114082
-0.497012574698745,-0.0966398085602213
-0.497624749459883,-0.0908095728450569
-0.498190972105368,-0.0849418877702811
-0.498711002752627,-0.079036713137585
-0.499184601519088,-0.0730940087486609
-0.499611528522177,-0.0671137344052
-0.499611528522177,-0.0671137344052
-0.50001520924772,-0.0611390708531294
-0.500419174730921,-0.0552131534008959
-0.500823343413272,-0.0493358736939718
-0.501227633736269,-0.0435071233778291
-0.501631964141404,-0.0377267940979399
-0.502036253070171,-0.0319947774997763
-0.502440418964064,-0.0263109652288104
-0.502844380264577,-0.0206752489305144
-0.503248055413204,-0.0150875202503604
-0.503651362851438,-0.00954767083382036
-0.504054221020772,-0.00405559232636653
-0.504456548362702,0.00138882362652901
-0.50485826331872,0.00678568537939414
-0.50525928433032,0.0121351012867568
-0.505659529838997,0.0174371797031448
-0.506058918286242,0.0226920289830862
-0.506457368113552,0.0278997574811086
-0.506854797762418,0.0330604735517402
-0.507251125674336,0.0381742855495087
-0.507646270290798,0.043241301828942
-0.508040150053298,0.0482616307445681
-0.50843268340333,0.0532353806509148
-0.508823788782389,0.05816265990251
-0.509213384631967,0.0630435768538816
-0.509601389393558,0.0678782398595576
-0.509987721508657,0.0726667572740657
-0.510372299418756,0.0774092374519338
-0.51075504156535,0.08210578874769
-0.511135866389932,0.086756519515862
-0.511514692333996,0.0913615381109777
-0.511891437839036,0.0959209528875651
-0.512266021346545,0.100434872200152
-0.512638361298018,0.104903404403266
-0.513008376134947,0.109326657851436
-0.513375984298828,0.113704740899189
-0.513741104231152,0.118037761901053
-0.514103654373416,0.122325829211556
-0.51446355316711,0.126569051185225
-0.514820719053731,0.13076753617659
-0.515175070474771,0.134921392540177
-0.515526525871724,0.139030728630515
-0.515875003686084,0.143095652802131
-0.516220422359345,0.147116273409554
-0.516562700333,0.15109269880731
-0.516901756048543,0.155025037349929
-0.517237507947468,0.158913397391938
-0.517569874471269,0.162757887287865
-0.517898774061439,0.166558615392237
-0.518224125159472,0.170315690059583
-0.518545846206861,0.174029219644431
-0.518863855645102,0.177699312501308
-0.519178071915686,0.181326076984743
-0.519488413460109,0.184909621449262
-0.519794798719863,0.188450054249395
-0.520097146136443,0.191947483739669
-0.520395374151342,0.195402018274612
-0.520689401206054,0.198813766208751
-0.520979145742073,0.202182835896616
-0.521264526200892,0.205509335692732
-0.521545461024006,0.20879337395163
-0.521821868652907,0.212035059027835
-0.52209366752909,0.215234499275877
-0.522360776094049,0.218391803050283
-0.522623112789276,0.221507078705581
-0.522880596056267,0.224580434596299
-0.523133144336514,0.227611979076965
-0.523380676071511,0.230601820502106
-0.523623109702753,0.233550067226251
-0.523860363671732,0.236456827603928
-0.524092356419943,0.239322209989664
-0.524319006388879,0.242146322737987
-0.524540232020034,0.244929274203425
-0.524755951754903,0.247671172740506
-0.524966084034977,0.250372126703759
-0.525170547301752,0.25303224444771
-0.525369259996721,0.255651634326887
-0.525562140561377,0.25823040469582
-0.525749107437215,0.260768663909035
-0.525930079065729,0.26326652032106
-0.526104973888411,0.265724082286424
-0.526273710346756,0.268141458159653
-0.526436206882258,0.270518756295277
-0.526592381936409,0.272856085047823
-0.526742153950704,0.275153552771818
-0.526885441366638,0.277411267821791
-0.527022162625702,0.27962933855227
-0.527152236169392,0.281807873317783
-0.5272755804392,0.283946980472856
-0.527392113876622,0.286046768372019
-0.527501754923149,0.2881073453698
-0.527604422020277,0.290128819820725
-0.527700033609498,0.292111300079323
-0.527788508132307,0.294054894500122
-0.527869764030197,0.29595971143765
-0.527943719744663,0.297825859246435
-0.528010293717197,0.299653446281004
-0.528069404389294,0.301442580895885
-0.528120970202446,0.303193371445607
-0.528164909598149,0.304905926284697
-0.528201141017896,0.306580353767683
-0.52822958290318,0.308216762249093
-0.528250153695495,0.309815260083454
-0.528262771836335,0.311375955625296
-0.528267355767194,0.312898957229145
-0.528263823929565,0.31438437324953
-0.528252094764943,0.315832312040978
-0.52823208671482,0.317242881958018
-0.528203718220691,0.318616191355176
-0.52816690772405,0.319952348586982
-0.528121573666389,0.321251462007963
-0.528067634489204,0.322513639972647
-0.528005008633986,0.323738990835561
-0.527933614542232,0.324927622951234
-0.527853370655433,0.326079644674194
-0.527764195415084,0.327195164358968
-0.527666007262679,0.328274290360084
-0.527558724639711,0.329317131032071
-0.527442265987674,0.330323794729456
-0.527316549748062,0.331294389806767
-0.527181494362368,0.332229024618531
-0.527037018272087,0.333127807519278
-0.526883039918711,0.333990846863534
-0.526719477743736,0.334818251005828
-0.526546250188653,0.335610128300687
-0.526363275694958,0.336366587102639
-0.526170472704144,0.337087735766213
-0.525967759657705,0.337773682645936
-0.525755054997134,0.338424536096336
-0.525532277163925,0.339040404471941
-0.525299344599572,0.339621396127278
-0.525056175745568,0.340167619416876
-0.524802689043408,0.340679182695263
-0.524538802934586,0.341156194316966
-0.524264435860593,0.341598762636514
-0.523979506262926,0.342006996008434
-0.523683932583077,0.342381002787254
-0.52337763326254,0.342720891327502
-0.523060526742808,0.343026769983706
-0.522732531465376,0.343298747110394
-0.522393565871738,0.343536931062093
-0.522043548403387,0.343741430193333
-0.521682397501816,0.343912352858639
-0.521310031608519,0.344049807412541
-0.520926369164992,0.344153902209567
-0.520531328612726,0.344224745604243
-0.520124828393215,0.344262445951098
-0.519706786947954,0.344267111604661
-0.519277122718437,0.344238850919458
-0.518835754146156,0.344177772250018
-0.518382599672606,0.344083983950868
-0.51791757773928,0.343957594376538
-0.517440606787672,0.343798711881553
-0.516951605259277,0.343607444820443
-0.516450491595587,0.343383901547735
-0.515937184238096,0.343128190417956
-0.515411601628298,0.342840419785636
-0.514873662207687,0.342520698005302
-0.514323284417757,0.342169133431482
-0.513760386700001,0.341785834418703
-0.513184887495913,0.341370909321493
-0.512596705246988,0.340924466494381
-0.511995758394717,0.340446614291895
-0.511381965380595,0.339937461068561
-0.510755244646117,0.339397115178909
-0.510115514632776,0.338825684977465
-0.509462693782065,0.338223278818759
-0.508796700535478,0.337590005057317
-0.508117453334509,0.336925972047667
-0.507424870620652,0.336231288144339
-0.5067188708354,0.335506061701859
-0.505999372420247,0.334750401074755
-0.505266293816688,0.333964414617555
-0.504519553466215,0.333148210684787
-0.503759069810322,0.33230189763098
-0.502984761290503,0.33142558381066
-0.502196546348253,0.330519377578356
-0.501394343425064,0.329583387288595
-0.50057807096243,0.328617721295906
-0.499747647401845,0.327622487954817
-0.498902991184804,0.326597795619855
-0.498044020752798,0.325543752645548
-0.497170654547323,0.324460467386424
-0.496282811009872,0.323348048197011
-0.495380408581939,0.322206603431837
-0.494463365705018,0.32103624144543
-0.493531600820601,0.319837070592318
-0.492585032370184,0.318609199227028
-0.491623578795259,0.317352735704088
-0.490647158537321,0.316067788378027
-0.489655690037863,0.314754465603372
-0.488649091738379,0.313412875734652
-0.487627282080363,0.312043127126393
-0.486590179505308,0.310645328133124
-0.485537702454708,0.309219587109373
-0.484469769370057,0.307766012409667
-0.483386298692849,0.306284712388536
-0.482287208864577,0.304775795400505
-0.481172418326735,0.303239369800104
-0.480041845520817,0.301675543941861
-0.478895408888317,0.300084426180302
-0.477733026870728,0.298466124869956
-0.476554617909544,0.296820748365352
-0.475360100446259,0.295148405021016
-0.474149392922366,0.293449203191477
-0.47292241377936,0.291723251231262
-0.471679081458734,0.2899706574949
-0.470419314401981,0.288191530336918
-0.469143031050596,0.286385978111845
-0.467850149846073,0.284554109174207
-0.466540589229904,0.282696031878534
-0.465214267643584,0.280811854579353
-0.463871103528606,0.278901685631191
-0.462511015326465,0.276965633388577
-0.461133921478654,0.275003806206039
-0.459739740426666,0.273016312438104
-0.458328390611995,0.271003260439301
-0.456899790476136,0.268964758564157
-0.455453858460582,0.2669009151672
-0.453990513006826,0.264811838602958
-0.452509672556363,0.262697637225959
-0.451011255550685,0.260558419390731
-0.449495180431288,0.258394293451802
-0.447961365639664,0.256205367763699
-0.446409729617308,0.253991750680951
-0.444840190805712,0.251753550558085
-0.443252667646372,0.249490875749629
-0.441647078580779,0.247203834610112
-0.44002334205043,0.24489253549406
-0.438381376496816,0.242557086756003
-0.436721100361432,0.240197596750467
-0.435042432085771,0.237814173831982
-0.433345290111328,0.235406926355074
-0.431629592879595,0.232975962674271
-0.429895258832068,0.230521391144102
-0.428142206410238,0.228043320119094
-0.426370354055601,0.225541857953775
-0.42457962020965,0.223017113002673
-0.422769923313879,0.220469193620317
-0.42094118180978,0.217898208161233
-0.41909331413885,0.21530426497995
-0.417226238742579,0.212687472430995
-0.415339874062464,0.210047938868898
-0.413434138539997,0.207385772648184
-0.411508950616672,0.204701082123383
-0.409564228733983,0.201993975649022
-0.407599891333423,0.199264561579629
-0.405615856856487,0.196512948269732
-0.403612043744667,0.19373924407386
-0.401588370439459,0.190943557346538
-0.399544755382355,0.188125996442297
-0.397481117014849,0.185286669715663
-0.395397373778436,0.182425685521164
-0.393293444114607,0.179543152213329
-0.391169246464859,0.176639178146685
-0.389024699270684,0.17371387167576
-0.386859720973575,0.170767341155082
-0.384674230015028,0.167799694939179
-0.382468144836535,0.164811041382579
-0.380241383879589,0.16180148883981
-0.377993865585686,0.158771145665399
-0.375725508396319,0.155720120213874
-0.373436230752981,0.152648520839764
-0.371125951097166,0.149556455897596
-0.368794587870368,0.146444033741898
-0.36644205951408,0.143311362727199
-0.364068284469797,0.140158551208025
-0.361673181179012,0.136985707538905
-0.359256668083219,0.133792940074366
-0.356818663623911,0.130580357168937
-0.354359086242582,0.127348067177146
-0.351877854380727,0.12409617845352
-0.349374886479838,0.120824799352587
-0.34685010098141,0.117534038228876
-0.344303416326937,0.114224003436913
-0.341734750957911,0.110894803331228
-0.339144023315826,0.107546546266347
-0.336531151842178,0.104179340596799
-0.333896054978458,0.100793294677111
-0.331238651166162,0.0973885168618122
-0.328558858846782,0.0939651155054296
-0.325856596461812,0.0905231989624911
-0.323131782452747,0.087062875587525
-0.32038433526108,0.0835842537350587
-0.317614173328304,0.0800874417596205
-0.314821215095914,0.0765725480157381
-0.312005379005402,0.0730396808579394
-0.309166583498264,0.0694889486407522
-0.306304747015992,0.0659204597187047
-0.303419788000081,0.0623343224463244
-0.300511624892023,0.0587306451781396
-0.297580176133314,0.0551095362686777
-0.294625360165446,0.0514711040724671
-0.291647095429913,0.0478154569440352
-0.288645300368209,0.0441427032379104
-0.285619893421828,0.0404529513086202
-0.282570793032264,0.0367463095106927
-0.279497917641009,0.0330228861986556
-0.276401185689559,0.029282789727037
-0.273280515619406,0.0255261284503646
-0.270135825872045,0.0217530107231666
-0.266967034888969,0.0179635448999704
-0.263774061111672,0.0141578393353043
-0.260556822981648,0.010336002383696
-0.25731523894039,0.00649814239967356
-0.254049227429392,0.00264436773776461
-0.250758706890148,-0.0012252132475026
-0.247443595764152,-0.00511049220160066
-0.244103812492897,-0.00901136077000118
-0.240739275517877,-0.0129277105981767
-0.237349903280586,-0.0168594333315989
-0.233935614222518,-0.0208064206157403
-0.230496326785166,-0.0247685640960728
-0.227031959410024,-0.0287457554180686
-0.223542430538585,-0.0327378862271995
-0.220027658612345,-0.0367448481689382
-0.216487562072795,-0.0407665328887562
-0.212922059361431,-0.044802832032126
-0.209331068919745,-0.0488536372445195
-0.205714509189232,-0.052918840171409
-0.202072298611385,-0.0569983324582664
-0.198404355627698,-0.061092005750564
-0.194710598679665,-0.0651997516937737
-0.190990946208779,-0.0693214619333679
-0.187245316656534,-0.0734570281148184
-0.183473628464424,-0.0776063418835976
-0.179675800073943,-0.0817692948851773
-0.175851749926584,-0.08594577876503
-0.172001396463842,-0.0901356851686273
-0.168124658127209,-0.0943389057414418
-0.16422145335818,-0.0985553321289453
-0.160291700598248,-0.10278485597661
-0.156335318288907,-0.107027368929908
-0.152352224871651,-0.111282762634312
-0.148342338787974,-0.115550928735292
-0.144305578479369,-0.119831758878323
-0.14024186238733,-0.124125144708876
-0.136151108953351,-0.128430977872422
-0.132033236618926,-0.132749150014434
-0.127888163825547,-0.137079552780385
-0.12371580901471,-0.141422077815745
-0.119516090627907,-0.145776616765988
-0.115288927106633,-0.150143061276585
-0.111034236892381,-0.154521302993009
-0.106751938426645,-0.158911233560731
-0.102441950150919,-0.163312744625225
-0.0981041905066958,-0.167725727831961
-0.0937385779354699,-0.172150074826412
-0.0893450308787352,-0.17658567725405
-0.084923467777985,-0.181032426760347
-0.0804738070747133,-0.185490214990775
-0.0759959672104135,-0.189958933590807
-0.0714898666265798,-0.194438474205915
-0.0669554237647054,-0.19892872848157
-0.0623925570662847,-0.203429588063244
-0.0578011849728108,-0.207940944596411
-0.0531812259257779,-0.212462689726542
-0.0485325983666794,-0.216994715099108
-0.0438552207370093,-0.221536912359583
-0.0391490114782611,-0.226089173153438
-0.0344138890319289,-0.230651389126145
-0.0296497718395059,-0.235223451923177
-0.0248565783424864,-0.239805253190006
-0.0200342269823637,-0.244396684572103
-0.0151826362006319,-0.248997637714941
-0.0103017244387844,-0.253608004263992
-0.0053914101383153,-0.258227675864728
-0.000451611740717908,-0.262856544162621
0.0045177523125136,-0.267494500803144
0.00951676357988589,-0.272141437431768
0.0145455036199048,-0.276797245693965
0.0196040539910771,-0.281461817235208
0.0246924962519085,-0.286135043700968
0.0298109119609057,-0.290816816736719
0.0349593826765746,-0.295507027987931
0.0401379899574219,-0.300205569100078
0.0453468153619534,-0.30491233171863
0.0505859404486758,-0.309627207489061
0.0558554467760949,-0.314350088056842
0.0611554159027174,-0.319080865067445
0.0664859293870492,-0.323819430166343
0.0718470687875969,-0.328565674999008
0.0772389156628663,-0.333319491210912
0.0826615515713642,-0.338080770447526
0.0881150580715964,-0.342849404354324
0.0935995167220696,-0.347625284576777
0.0991150090812896,-0.352408302760356
0.104661616707763,-0.357198350550536
0.110239421159996,-0.361995319592786
0.115848503996495,-0.366799101532581
0.121488946775766,-0.37160958801539
0.127160831056315,-0.376426670686688
0.132864238396648,-0.381250241191946
0.138599250355273,-0.386080191176635
0.144365948490695,-0.390916412286229
0.15016441436142,-0.395758796166199
0.155994729525955,-0.400607234462017
0.161856975542805,-0.405461618819156
0.167751233970478,-0.410321840883087
0.17367758636748,-0.415187792299283
