0.561695297774727,-0.672140640716919
0.556862229854144,-0.672292082864777
0.552083514331971,-0.672426137894184
0.547358946677916,-0.67254285825606
0.542688322361688,-0.672642296401322
0.538071436852994,-0.672724504780889
0.533508085621541,-0.672789535845678
0.528998064137037,-0.672837442046607
0.524541167869191,-0.672868275834596
0.52013719228771,-0.672882089660561
0.515785932862301,-0.67287893597542
0.511487185062673,-0.672858867230093
0.507240744358533,-0.672821935875496
0.503046406219589,-0.672768194362549
0.498903966115549,-0.672697695142168
0.49481321951612,-0.672610490665272
0.49077396189101,-0.67250663338278
0.486785988709928,-0.672386175745609
0.482849095442581,-0.672249170204677
0.478963077558675,-0.672095669210902
0.47512773052792,-0.671925725215203
0.471342849820024,-0.671739390668497
0.467608230904693,-0.671536718021703
0.463923669251635,-0.671317759725738
0.460288960330559,-0.671082568231521
0.456703899611172,-0.670831195989969
0.453168282563182,-0.670563695452001
0.449681904656297,-0.670280119068535
0.446244561360223,-0.669980519290489
0.442856048144671,-0.669664948568781
0.439516160479345,-0.669333459354328
0.436224693833956,-0.66898610409805
0.43298144367821,-0.668622935250864
0.429786205481815,-0.668244005263688
0.426638774714479,-0.66784936658744
0.42353894684591,-0.667439071673039
0.420486517345815,-0.667013172971402
0.417481281683903,-0.666571722933447
0.41452303532988,-0.666114774010093
0.411611573753455,-0.665642378652257
0.408746692424336,-0.665154589310858
0.40592818681223,-0.664651458436814
0.403155852386845,-0.664133038481042
0.400429484617888,-0.663599381894461
0.397748878975069,-0.663050541127989
0.395113830928093,-0.662486568632544
0.39252413594667,-0.661907516859043
0.389979589500506,-0.661313438258406
0.38747998705931,-0.66070438528155
0.385025124092789,-0.660080410379393
0.382614796070652,-0.659441566002853
0.380248798462605,-0.658787904602849
0.377926926738357,-0.658119478630298
0.375648976367615,-0.657436340536118
0.373414742820087,-0.656738542771228
0.371224021565481,-0.656026137786545
0.369076608073505,-0.655299178032988
0.366972297813867,-0.654557715961474
0.364910886256273,-0.653801804022922
0.362892168870432,-0.65303149466825
0.360915941126053,-0.652246840348376
0.358981998492841,-0.651447893514218
0.357090136440506,-0.650634706616693
0.355240150438755,-0.64980733210672
0.353431835957295,-0.648965822435218
0.351664988465835,-0.648110230053104
0.349939403434082,-0.647240607411296
0.348254876331744,-0.646357006960712
0.346611202628529,-0.64545948115227
0.345008177794145,-0.64454808243689
0.343445597298299,-0.643622863265487
0.341923256610699,-0.64268387608898
0.340440951201052,-0.641731173358289
0.338998476539068,-0.64076480752433
0.337595628094452,-0.639784831038021
0.336232201336914,-0.638791296350282
0.33490799173616,-0.637784255912029
0.333622794761899,-0.636763762174181
0.332376405883839,-0.635729867587656
0.331168620571687,-0.634682624603372
0.32999923429515,-0.633622085672247
0.328868042523937,-0.632548303245199
0.327774840727756,-0.631461329773147
0.326719424376314,-0.630361217707007
0.325701588939318,-0.629248019497699
0.324721129886478,-0.628121787596141
0.323777842687499,-0.626982574453249
0.322871522812091,-0.625830432519943
0.322001965729961,-0.624665414247141
0.321168966910817,-0.62348757208576
0.320372321824366,-0.622296958486719
0.319611825940317,-0.621093625900936
0.318887274728376,-0.619877626779328
0.318198463658252,-0.618649013572814
0.317545188199653,-0.617407838732312
0.316927243822286,-0.61615415470874
0.316344425995859,-0.614888013953017
0.31579653019008,-0.613609468916059
0.315283351874657,-0.612318572048786
0.314804686519296,-0.611015375802114
0.314360329593707,-0.609699932626963
0.313950076567597,-0.60837229497425
0.313573722910674,-0.607032515294894
0.313231064092644,-0.605680646039812
0.312921895583217,-0.604316739659923
0.3126460128521,-0.602940848606144
0.312403211369,-0.601553025329394
0.312193286603626,-0.60015332228059
0.312016034025685,-0.598741791910652
0.311871249104885,-0.597318486670496
0.311758727310933,-0.595883459011041
0.311678264113538,-0.594436761383205
0.311629654982408,-0.592978446237906
0.311612695387249,-0.591508566026062
0.31162718079777,-0.590027173198592
0.311672906683678,-0.588534320206412
0.311749668514682,-0.587030059500442
0.311857261760489,-0.585514443531599
0.311995481890806,-0.583987524750801
0.312164124375342,-0.582449355608967
0.312362984683804,-0.580899988557014
0.3125918582859,-0.579339476045861
0.312850540651338,-0.577767870526426
0.313138827249826,-0.576185224449626
0.313456513551071,-0.57459159026638
0.313803395024781,-0.572987020427606
0.314179267140664,-0.571371567384221
0.314583925368428,-0.569745283587145
0.31501716517778,-0.568108221487295
0.315478782038428,-0.566460433535588
0.315968571420079,-0.564801972182944
0.316486328792443,-0.56313288988028
0.317031849625226,-0.561453239078514
0.317604929388136,-0.559763072228565
0.318205363550881,-0.55806244178135
0.318832947583169,-0.556351400187787
0.319487476954707,-0.554629999898795
0.320168747135203,-0.552898293365291
0.320876553594366,-0.551156333038194
0.321610691801902,-0.549404171368421
0.322370957227519,-0.547641860806892
0.323157145340926,-0.545869453804523
0.32396905161183,-0.544087002812233
0.324806471509938,-0.54229456028094
0.32566920050496,-0.540492178661562
0.326557034066601,-0.538679910405017
0.32746976766457,-0.536857807962222
0.328407196768575,-0.535025923784098
0.329369116848324,-0.53318431032156
0.330355323373524,-0.531333020025528
0.331365611813884,-0.529472105346919
0.33239977763911,-0.527601618736651
0.33345761631891,-0.525721612645643
0.334538923322993,-0.523832139524813
0.335643494121066,-0.521933251825077
0.336771124182837,-0.520025001997356
0.337921608978014,-0.518107442492567
0.339094743976304,-0.516180625761627
0.340290324647415,-0.514244604255455
0.341508146461055,-0.512299430424968
0.342748004886932,-0.510345156721086
0.344009695394754,-0.508381835594726
0.345293013454227,-0.506409519496806
0.34659775453506,-0.504428260878244
0.347923714106962,-0.502438112189959
0.349270687639638,-0.500439125882867
0.350638470602798,-0.498431354407888
0.352026858466149,-0.496414850215939
0.353435646699399,-0.494389665757939
0.354864630772255,-0.492355853484805
0.356313606154425,-0.490313465847456
0.357782368315618,-0.488262555296809
0.35927071272554,-0.486203174283784
0.3607784348539,-0.484135375259297
0.362305330170405,-0.482059210674266
0.363851194144763,-0.479974732979611
0.365415822246682,-0.477881994626248
0.36699900994587,-0.475781048065097
0.368600552712034,-0.473671945747074
0.370220246014882,-0.471554740123099
0.371857885324122,-0.469429483644089
0.373513266109462,-0.467296228760962
0.375186183840609,-0.465155027924637
0.376876433987271,-0.46300593358603
0.378583812019157,-0.460848998196062
0.380308113405972,-0.458684274205649
0.382049133617427,-0.456511814065709
0.383806668123227,-0.454331670227161
0.385580512393082,-0.452143895140922
0.387370461896698,-0.449948541257912
0.389176312103784,-0.447745661029047
0.390997858484046,-0.445535306905246
0.392834896507194,-0.443317531337427
0.394687221642935,-0.441092386776508
0.396554629360976,-0.438859925673406
0.398436915131026,-0.436620200479041
0.400333874422791,-0.434373263644331
0.40224530270598,-0.432119167620192
0.404170995450301,-0.429857964857544
0.406110748125461,-0.427589707807304
0.408064356201169,-0.425314448920391
0.410031615147131,-0.423032240647721
0.412012320433056,-0.420743135440215
0.414006267528651,-0.418447185748789
0.416013251903624,-0.416144444024362
0.418033069027683,-0.413834962717851
0.420065514370536,-0.411518794280176
0.42211038340189,-0.409195991162253
0.424167471591453,-0.406866605815001
0.426236574408933,-0.404530690689338
0.428317487324038,-0.402188298236182
0.430410005806475,-0.399839480906451
0.432513925325953,-0.397484291151063
0.434629041352178,-0.395122781420937
0.436755149354859,-0.392755004166989
0.438892044803704,-0.390381011840139
0.44103952316842,-0.388000856891305
0.443197379918715,-0.385614591771404
0.445365410524296,-0.383222268931354
0.447543410454873,-0.380823940822074
0.449731175180151,-0.378419659894482
0.451928500169839,-0.376009478599495
0.454135180893645,-0.373593449388032
0.456351012821277,-0.371171624711011
0.458575791422443,-0.36874405701935
0.460809312166849,-0.366310798763967
0.463051370524204,-0.36387190239578
0.465301761964215,-0.361427420365707
0.467560281956591,-0.358977405124666
0.46982672597104,-0.356521909123575
0.472100889477267,-0.354060984813352
0.474382567944983,-0.351594684644916
0.476671556843894,-0.349123061069184
0.478967651643708,-0.346646166537075
0.481270647814133,-0.344164053499506
0.483580340824877,-0.341676774407395
0.485896526145647,-0.339184381711662
0.488218999246152,-0.336686927863223
0.490547555596098,-0.334184465312996
0.492881990665194,-0.331677046511901
0.495222099923148,-0.329164723910854
0.497567678839667,-0.326647549960774
0.499918522884458,-0.32412557711258
0.502274427527231,-0.321598857817188
0.504635188237692,-0.319067444525517
0.507000600485549,-0.316531389688486
0.509370459740511,-0.313990745757012
0.511744561472284,-0.311445565182013
0.514122701150577,-0.308895900414408
0.516504674245097,-0.306341803905113
0.518890276225552,-0.303783328105049
0.52127930256165,-0.301220525465132
0.523671548723098,-0.29865344843628
0.526066810179605,-0.296082149469412
0.528464882400878,-0.293506681015446
0.530865560856625,-0.2909270955253
0.533268641016553,-0.288343445449892
0.535673918350371,-0.285755783240139
0.538081188327786,-0.283164161346961
0.540490246418506,-0.280568632221274
0.542900888092239,-0.277969248313998
0.545312908818692,-0.27536606207605
0.547726104067573,-0.272759125958348
0.550140269308591,-0.27014849241181
0.552555200011452,-0.267534213887354
0.554970691645864,-0.264916342835899
0.557386539681536,-0.262294931708363
0.559802539588174,-0.259670032955663
0.562218486835488,-0.257041699028717
0.564634176893184,-0.254409982378444
0.56704940523097,-0.251774935455762
0.569463967318554,-0.249136610711589
0.571877658625644,-0.246495060596843
0.574290274621948,-0.243850337562441
0.576701610777172,-0.241202494059302
0.579111462561026,-0.238551582538345
0.581519625443217,-0.235897655450486
0.583925894893453,-0.233240765246645
0.58633006638144,-0.230580964377739
0.588731935376888,-0.227918305294686
0.591131297349504,-0.225252840448404
0.593527947768995,-0.222584622289812
0.59592168210507,-0.219913703269827
0.598312295827436,-0.217240135839368
0.600699584405801,-0.214563972449352
0.603083343309872,-0.211885265550698
0.605463368009358,-0.209204067594323
0.607839453973966,-0.206520431031147
0.610211396673404,-0.203834408312086
0.61257899157738,-0.201146051888059
0.614942034155601,-0.198455414209984
0.617300319877775,-0.195762547728779
0.619653644213611,-0.193067504895362
0.622001802632815,-0.190370338160651
0.624344590605096,-0.187671099975564
0.626681803600161,-0.18496984279102
0.629013237087718,-0.182266619057936
0.631338686537475,-0.17956148122723
0.633657947419139,-0.176854481749821
0.635970815202419,-0.174145673076626
0.638277085357021,-0.171435107658564
0.640576553352655,-0.168722837946552
0.642869014659027,-0.166008916391509
0.645154264745846,-0.163293395444353
0.647432099082818,-0.160576327556001
0.649702313139653,-0.157857765177373
0.651964702386057,-0.155137760759385
0.654219062291738,-0.152416366752956
0.656465188326405,-0.149693635609004
0.658702875959765,-0.146969619778448
0.660931920661525,-0.144244371712204
0.663152117901393,-0.141517943861192
0.665363263149078,-0.138790388676329
0.667565151874287,-0.136061758608534
0.669757579546727,-0.133332106108724
0.671940341636107,-0.130601483627817
0.674113233612135,-0.127869943616732
0.676276050944517,-0.125137538526386
0.678428589102962,-0.122404320807698
0.680570643557177,-0.119670342911586
0.682702009776871,-0.116935657288968
0.684822483231751,-0.114200316390761
0.686931859391524,-0.111464372667884
0.689029933725899,-0.108727878571256
0.691116501704583,-0.105990886551793
0.693191358797285,-0.103253449060414
0.695254300473711,-0.100515618548038
0.69730512220357,-0.0977774474655814
0.699343619456569,-0.0950389882639635
0.701369587702417,-0.0923002933941018
0.70338282241082,-0.0895614153069145
0.705383119051487,-0.0868224064533197
0.707370273094125,-0.0840833192842354
0.709344080008442,-0.0813442062505796
0.711304335264146,-0.0786051198032705
0.713250834330946,-0.0758661123932261
0.715183372678547,-0.0731272364713645
0.717101745776658,-0.0703885444886036
0.719005749094988,-0.0676500888958617
0.720895178103243,-0.0649119221440566
0.722769828271132,-0.0621740966841067
0.724629495068362,-0.0594366649669297
0.726473973964641,-0.0566996794434439
0.728303060429676,-0.0539631925645673
0.730116549933176,-0.051227256781218
0.731914237944849,-0.0484919245443138
0.733695919934401,-0.0457572483047732
0.735461391371541,-0.0430232805135139
0.737210447725977,-0.0402900736214541
0.738942884467416,-0.0375576800795119
0.740658497065566,-0.0348261523386054
0.742357080990135,-0.0320955428496524
0.744038431710831,-0.0293659040635713
0.745702344697361,-0.0266372884312798
0.747348615419433,-0.0239097484036964
0.748977039346755,-0.0211833364317388
0.750587411949034,-0.0184581049663252
0.752179528695979,-0.0157341064583736
0.753753185057297,-0.0130113933588022
0.755308176502696,-0.0102900181185289
0.756844298501883,-0.00757003318847188
0.758361346524567,-0.00485149101954908
0.759859116040455,-0.00213444406267875
0.761337402519256,0.0005810552312213
0.762796001430675,0.00329495441123275
0.764234708244423,0.00600720102643775
0.765653318430205,0.00871774262591807
0.767051627457731,0.0114265267587558
0.768429430796707,0.0141335009740328
0.769786523916842,0.016838612820831
0.771122702287843,0.0195418098482323
0.772437761379418,0.0222430396053188
0.773731496661274,0.0249422496411723
0.775003703603121,0.0276393875048748
0.776254177674665,0.0303344007455081
0.777482714345613,0.0330272369121543
0.778689109085675,0.0357178435538953
0.779873157364557,0.0384061682198131
0.781034654651968,0.0410921584589894
0.782173396417614,0.0437757618205064
0.783289178131205,0.0464569258534459
0.784381795262447,0.04913559810689
0.785451043281048,0.0518117261299204
0.786496717656717,0.0544852574716192
0.78751861385916,0.0571561396810683
0.788516527358087,0.0598243203073496
0.789490253623203,0.0624897468995451
0.790439588124218,0.0651523670067368
0.791364326330839,0.0678121281780063
0.792264263712773,0.0704689779624361
0.793139195739729,0.0731228639091076
0.793988917881414,0.0757737335671031
0.794813225607536,0.0784215344855043
0.795611914387803,0.0810662142133933
0.796384779691922,0.0837077202998519
0.797131616989602,0.0863460002939623
0.797852221750549,0.0889810017448061
0.798546389444473,0.0916126722014655
0.79921391554108,0.0942409592130222
0.799854595510078,0.0968658103285585
0.799854595510078,0.0968658103285585
0.80044853865765,0.0994732917137264
0.800976295435928,0.10204953156255
0.801438323033545,0.104594570466668
0.801835078639135,0.107108449017721
0.802167019441331,0.109591207807348
0.802434602628765,0.112042887427188
0.802638285390071,0.11446352846888
0.802778524913881,0.116853171524063
0.80285577838883,0.119211857184378
0.802870503003549,0.121539626041463
0.802823155946673,0.123836518686958
0.802714194406834,0.126102575712501
0.802544075572666,0.128337837709734
0.802313256632801,0.130542345270294
0.802022194775872,0.13271613898582
0.801671347190513,0.134859259447954
0.801261171065357,0.136971747248333
0.800792123589037,0.139053642978597
0.800264661950185,0.141104987230386
0.799679243337436,0.143125820595338
0.799036324939422,0.145116183665093
0.798336363944776,0.147076117031291
0.797579817542132,0.14900566128557
0.796767142920122,0.150904857019571
0.79589879726738,0.152773744824932
0.794975237772538,0.154612365293293
0.79399692162423,0.156420759016293
0.792964306011089,0.158198966585571
0.791877848121748,0.159947028592767
0.79073800514484,0.161664985629521
0.789545234268998,0.16335287828747
0.788299992682856,0.165010747158256
0.787002737575046,0.166638632833517
0.785653926134201,0.168236575904892
0.784254015548955,0.16980461696402
0.782803463007941,0.171342796602543
0.781302725699792,0.172851155412097
0.77975226081314,0.174329733984323
0.77815252553662,0.175778572910861
0.776503977058863,0.177197712783349
0.774807072568504,0.178587194193427
0.773062269254175,0.179947057732734
0.77127002430451,0.181277343992909
0.769430794908141,0.182578093565592
0.767545038253701,0.183849347042423
0.765613211529825,0.18509114501504
0.763635771925144,0.186303528075083
0.761613176628292,0.187486536814191
0.759545882827902,0.188640211824003
0.757434347712607,0.18976459369616
0.755279028471041,0.190859723022299
0.753080382291836,0.191925640394062
0.750838866363626,0.192962386403086
0.748554937875042,0.193970001641011
0.74622905401472,0.194948526699477
0.743861671971291,0.195898002170122
0.741453248933389,0.196818468644587
0.739004242089647,0.197709966714511
0.736515108628698,0.198572536971532
0.733986305739175,0.199406220007291
0.731418290609712,0.200211056413426
0.728811520428941,0.200987086781577
0.726166452385495,0.201734351703383
0.723483543668008,0.202452891770484
0.720763251465113,0.203142747574519
0.718006032965442,0.203803959707127
0.715212345357629,0.204436568759948
0.712382645830307,0.205040615324621
0.709517391572109,0.205616139992785
0.706617039771668,0.206163183356079
0.703682047617618,0.206681786006144
0.700712872298591,0.207171988534618
0.697709971003221,0.20763383153314
0.69467380092014,0.208067355593351
0.691604819237981,0.208472601306888
0.688503483145379,0.208849609265392
0.685370249830966,0.209198420060503
0.682205576483374,0.209519074283858
0.679009920291237,0.209811612527099
0.675783738443189,0.210076075381863
0.672527488127862,0.210312503439791
0.669241626533889,0.210520937292521
0.665926610849904,0.210701417531693
0.66258289826454,0.210853984748946
0.659210945966429,0.210978679535921
0.655811211144205,0.211075542484255
0.652384150986501,0.211144614185589
0.64893022268195,0.211185935231561
0.645449883419185,0.211199546213811
0.641943590386839,0.211185487723979
0.638411800773546,0.211143800353703
0.634854971767938,0.211074524694624
0.631273560558648,0.210977701338379
0.62766802433431,0.21085337087661
0.624038820283557,0.210701573900954
0.620386405595022,0.210522351003052
0.616711237457338,0.210315742774543
0.613013773059137,0.210081789807066
0.609294469589054,0.20982053269226
0.605553784235721,0.209532012021765
0.601792174187771,0.209216268387219
0.598010096633838,0.208873342380264
0.594208008762554,0.208503274592537
0.590386367762553,0.208106105615678
0.586545630822468,0.207681876041327
0.582686255130932,0.207230626461122
0.578808697876577,0.206752397466703
0.574913416248038,0.20624722964971
0.571000867433947,0.205715163601782
0.567071508622936,0.205156239914558
0.563125797003641,0.204570499179677
0.559164189764693,0.203957981988779
0.555187144094725,0.203318728933503
0.551195117182371,0.202652780605488
0.547188566216264,0.201960177596375
0.543167948385036,0.201240960497801
0.539133720877322,0.200495169901407
0.535086340881754,0.199722846398832
0.531026265586964,0.198924030581715
0.526953952181588,0.198098763041695
0.522869857854256,0.197247084370412
0.518774439793603,0.196369035159506
0.514668155188262,0.195464656000614
0.510551461226865,0.194533987485378
0.506424815098046,0.193577070205436
0.502288673990438,0.192593944752427
0.498143495092674,0.191584651717992
0.493989735593387,0.190549231693768
0.48982785268121,0.189487725271396
0.485658303544777,0.188400173042515
0.481481545372719,0.187286615598764
0.477298035353672,0.186147093531782
0.473108230676267,0.18498164743321
0.468912588529138,0.183790317894685
0.464711566100917,0.182573145507848
0.460505620580239,0.181330170864338
0.456295209155735,0.180061434555794
0.45208078901604,0.178766977173856
0.447862817349785,0.177446839310163
0.443641751345606,0.176101061556354
0.439418048192133,0.174729684504068
0.435192165078001,0.173332748744946
0.430964559191843,0.171910294870625
0.426735687722291,0.170462363472746
0.42250600785798,0.168988995142949
0.418275976787541,0.167490230472871
0.414046051699608,0.165966110054153
0.409816689782814,0.164416674478434
0.405588348225793,0.162841964337353
0.401361484217176,0.16124202022255
0.397136554945599,0.159616882725663
0.392914017599693,0.157966592438333
0.388694329368091,0.156291189952199
0.384477947439427,0.1545907158589
0.380265329002334,0.152865210750074
0.376056931245446,0.151114715217363
0.371853211357394,0.149339269852404
0.367654626526812,0.147538915246838
0.363461633942333,0.145713691992303
0.359274690792591,0.14386364068044
0.355094254266219,0.141988801902887
0.350920781551848,0.140089216251283
0.346754729838114,0.138164924317268
0.342596556313648,0.136215966692482
0.338446718167085,0.134242383968563
0.334305672587056,0.132244216737152
0.330173876762195,0.130221505589886
0.326051787881135,0.128174291118407
0.32193986313251,0.126102613914352
0.317838559704952,0.124006514569362
0.313748334787095,0.121886033675075
0.309669645567571,0.119741211823132
0.305602949235014,0.117572089605171
0.301548702978056,0.115378707612831
0.297507363985332,0.113161106437752
0.293479389445473,0.110919326671575
0.289465236547114,0.108653408905936
0.285465362478887,0.106363393732477
0.281480224429425,0.104049321742836
0.277510279587361,0.101711233528653
0.273555985141329,0.0993491696815667
0.269617798279962,0.096963170793217
0.265696176191892,0.094553277455243
0.261791576065753,0.0921195302592841
0.257904455090178,0.0896619697969797
0.2540352704538,0.0871806366599689
0.250184479345252,0.0846755714398912
0.246352538953168,0.0821468147283861
0.24253990646618,0.0795944071170927
0.23874703907292,0.0770183891976503
0.234974393962024,0.0744188015616984
0.231222428322123,0.0717956848008763
0.227491599341851,0.0691490795068233
0.223782364209841,0.0664790262711787
0.220095180114726,0.0637855656855819
0.216430504245139,0.0610687383416723
0.212788793789713,0.0583285848310892
0.209170505937081,0.0555651457454718
0.205576097875876,0.0527784616764595
0.202006026794732,0.0499685732156918
0.198460749882281,0.0471355209548078
0.194940724327158,0.044279345485447
0.191446407317993,0.0414000873992486
0.187978256043422,0.0384977872878522
0.184536727692077,0.0355724857428968
0.18112227945259,0.0326242233560221
0.177735368513596,0.029653040718867
0.174376452063728,0.0266589784230713
0.171045987291617,0.0236420770602739
0.167744431385898,0.0206023772221146
0.164472241535203,0.0175399195002323
0.161229874928167,0.0144547444862666
0.15801778875342,0.0113468927718566
0.154836440199598,0.00821640494864205
0.151686286455333,0.00506332160826188
0.148567784709258,0.00188768334235569
0.145481392150006,-0.00131046925743744
0.14242756596621,-0.00453109559947786
0.139406763346504,-0.00777415509212655
0.13641944147952,-0.0110396071437438
0.133466057553892,-0.0143274111626907
0.130547068758252,-0.0176375265573276
0.127662932281234,-0.0209699127360153
0.124814105311472,-0.0243245291071144
0.122001045037597,-0.0277013350789856
0.119224208648243,-0.0311002900599895
0.116484053332043,-0.034521353458487
0.113781036277631,-0.0379644846828383
0.111115614673639,-0.0414296431414046
0.108488245708701,-0.0449167882425461
0.105899386571449,-0.0484258793946238
0.103349494450517,-0.0519568760059981
0.100839026534538,-0.05550973748503
0.0983684400121444,-0.0590844232400797
0.09593819207197,-0.0626808926795083
0.0935487399026478,-0.0662991052116761
0.0912005406928107,-0.0699390202449441
0.0888940516310921,-0.0736005971876727
0.0866297299061248,-0.0772837954482228
0.0844080327065421,-0.0809885744349547
0.082229417220977,-0.0847148935562295
0.0800943406380626,-0.0884627122204075
0.0780032601464321,-0.0922319898358498
0.0759566329347184,-0.0960226858109164
0.0739549161915548,-0.0998347595539686
0.0719985671055744,-0.103668170473367
0.0700880428654101,-0.107522877977472
0.0682238006596953,-0.111398841474644
0.0664062976770629,-0.115296020373244
0.064635991106146,-0.119214374081632
0.0629133381355777,-0.12315386200817
0.0612387959539912,-0.127114443561219
0.0596128217500195,-0.131096078149137
0.0580358727122959,-0.135098725180287
0.0565084060294532,-0.139122344063029
0.0550308788901248,-0.143166894205724
0.0536037484829435,-0.147232335016732
0.0522274719965427,-0.151318625904413
0.0509025066195553,-0.15542572627713
0.0496293095406145,-0.159553595543242
0.0484083379483533,-0.163702193111109
0.0472400490314049,-0.167871478389094
0.0461248999784024,-0.172061410785555
0.0450633479779788,-0.176271949708855
0.0440558502187673,-0.180503054567353
0.043102863889401,-0.18475468476941
0.042204846178513,-0.189026799723387
0.0413622542747364,-0.193319358837645
0.0405755453667042,-0.197632321520544
0.0398451766430497,-0.201965647180445
0.0391716052924058,-0.206319295225709
0.0385552885034057,-0.210693225064695
0.0379966834646825,-0.215087396105766
0.0374962473648693,-0.219501767757281
0.0370544373925992,-0.223936299427602
0.0366717107365053,-0.228390950525088
0.0363485245852207,-0.232865680458101
0.0360853361273785,-0.237360448635001
0.0358826025516118,-0.241875214464149
0.0357407810465537,-0.246409937353905
0.0356603288008373,-0.250964576712631
0.0356417030030957,-0.255539091948686
0.0356853608419621,-0.260133442470432
0.0357917595060694,-0.264747587686229
0.0359613561840509,-0.269381487004439
0.0361946080645395,-0.27403509983342
0.0364919723361685,-0.278708385581535
0.0368539061875709,-0.283401303657143
0.03728086680738,-0.288113813468607
0.0377733113842285,-0.292845874424285
0.0383316971067499,-0.297597445932539
0.038956481163577,-0.302368487401729
0.0396481207433431,-0.307158958240217
0.0404070730346812,-0.311968817856362
0.0412337952262245,-0.316798025658526
0.0421287445066059,-0.321646541055069
0.0430923780644588,-0.326514323454352
0.044125153088416,-0.331401332264735
0.0452275267671109,-0.33630752689458
0.0463999562891763,-0.341232866752246
0.0476428988432456,-0.346177311246095
0.0489568116179516,-0.351140819784486
0.0503421518019277,-0.356123351775782
0.0517993765838067,-0.361124866628342
0.053328943152222,-0.366145323750527
0.0549313086958065,-0.371184682550698
0.0566069304031933,-0.376242902437215
0.0583562654630157,-0.381319942818439
0.0601797710639066,-0.386415763102732
0.0620779043944991,-0.391530322698452
0.0640511226434264,-0.396663581013962
0.0660998829993216,-0.401815497457621
0.0682246426508178,-0.406986031437791
0.0704258587865481,-0.412175142362831
0.0727039885951455,-0.417382789641104
0.0750594892652432,-0.422608932680969
0.0774928179854743,-0.427853530890786
0.0800044319444719,-0.433116543678918
0.0825947883308691,-0.438397930453724
0.0852643443332988,-0.443697650623565
0.0880135571403946,-0.449015663596802
0.090842883940789,-0.454351928781795
0.0937527819231156,-0.459706405586905
0.0967437082760073,-0.465079053420493
0.0998161201880971,-0.470469831690919
0.102970474848018,-0.475878699806544
0.106207229444404,-0.481305617175729
0.109526841165887,-0.486750543206834
0.112929767201101,-0.49221343730822
0.116416464738678,-0.497694258888248
0.119987390967252,-0.503192967355278
0.123643003075456,-0.508709522117671
0.127383758251923,-0.514243882583788
0.131210113685286,-0.519796008161989
0.135122526564179,-0.525365858260635
0.139121454077234,-0.530953392288086
0.143207353413084,-0.536558569652704
0.147380681760363,-0.542181349762849
0.151641896307703,-0.547821692026882
0.155991454243738,-0.553479555853163
0.160429812757101,-0.559154900650053
0.164957429036425,-0.564847685825912
0.169574760270343,-0.570557870789102
0.174282263647488,-0.576285414947982
0.179080396356493,-0.582030277710914
0.183969615585991,-0.587792418486259
0.188950378524616,-0.593571796682376
0.194023142361001,-0.599368371707627
0.199188364283778,-0.605182102970373
0.204446501481581,-0.611012949878973
0.209798011143043,-0.616860871841788
0.215243350456797,-0.62272582826718
0.220782976611476,-0.628607778563509
0.226417346795713,-0.634506682139135
0.232146918198141,-0.64042249840242
0.237972148007394,-0.646355186761724
0.243893493412104,-0.652304706625407
0.249911411600904,-0.65827101740183
0.256026359762429,-0.664254078499354
0.26223879508531,-0.67025384932634
0.268549174758181,-0.676270289291148
0.274957955969675,-0.682303357802138
0.281465595908425,-0.688353014267673
0.288072551763064,-0.694419218096111
0.294779280722226,-0.700501928695815
0.301586239974543,-0.706601105475143
0.308493886708648,-0.712716707842458
0.315502678113175,-0.71884869520612
0.322613071376757,-0.72499702697449
0.329825523688026,-0.731161662555927
0.337140492235616,-0.737342561358794
0.344558434208161,-0.743539682791449
0.352079806794292,-0.749752986262255
0.359705067182644,-0.755982431179572
0.367434672561849,-0.76222797695176
0.37526908012054,-0.768489582987181
0.383208747047351,-0.774767208694194
0.391254130530914,-0.781060813481161
0.399405687759864,-0.787370356756441
0.407663875922831,-0.793695797928397
0.416029152208451,-0.800037096405388
0.424501973805356,-0.806394211595775
0.43308279790218,-0.812767102907919
0.441772081687553,-0.81915572975018
0.450570282350112,-0.82556005153092
0.459477857078488,-0.831980027658498
0.468495263061315,-0.838415617541276
0.477622957487225,-0.844866780587614
0.486861397544852,-0.851333476205872
0.496211040422828,-0.857815663804412
0.505672343309788,-0.864313302791594
0.515245763394364,-0.870826352575779
0.524931757865189,-0.877354772565327
0.534730783910896,-0.883898522168599
0.544643298720118,-0.890457560793956
0.554669759481489,-0.897031847849759
0.564810623383641,-0.903621342744367
0.575066347615208,-0.910226004886142
0.585437389364823,-0.916845793683445
