0.519247352423541,-0.492272924837441
0.92011817545976,-0.64975453582465
0.0445391247037872,-0.0744874852636463
0.0500563618250751,0.210416234329943
0.055573598946363,0.495319953923532
-0.620592042726981,0.299577263194297
-0.763196015350849,-0.239808015199181
