-0.491610271224293,-0.814147232966701
-0.491631374539883,-0.802598674334122
-0.491664015137533,-0.791140080795251
-0.491708060798893,-0.779771188123081
-0.491763379305611,-0.768491732090606
-0.491829838439335,-0.757301448470819
-0.491907305981715,-0.746200073036712
-0.491995649714399,-0.73518734156128
-0.492094737419035,-0.724262989817514
-0.492204436877272,-0.713426753578409
-0.49232461587076,-0.702678368616957
-0.492455142181145,-0.692017570706152
-0.492595883590079,-0.681444095618987
-0.492746707879208,-0.670957679128455
-0.492907482830181,-0.660558057007549
-0.493078076224647,-0.650244965029262
-0.493258355844255,-0.640018138966589
-0.493448189470654,-0.62987731459252
-0.493647444885491,-0.619822227680051
-0.493855989870416,-0.609852614002174
-0.494073692207078,-0.599968209331882
-0.494300419677125,-0.590168749442169
-0.494536040062205,-0.580453970106027
-0.494780421143967,-0.57082360709645
-0.495033430704061,-0.561277396186431
-0.495294936524134,-0.551815073148963
-0.495564806385835,-0.542436373757039
-0.495842908070813,-0.533141033783653
-0.496129109360716,-0.523928789001798
-0.496423278037194,-0.514799375184467
-0.496725281881894,-0.505752528104652
-0.497034988676466,-0.496787983535348
-0.497352266202558,-0.487905477249547
-0.497676982241819,-0.479104745020243
-0.498009004575897,-0.470385522620428
-0.498348200986441,-0.461747545823096
-0.4986944392551,-0.453190550401241
-0.499047587163522,-0.444714272127855
-0.499407512493356,-0.436318446775931
-0.499774083026251,-0.428002810118463
-0.500147166543855,-0.419767097928444
-0.500526630827817,-0.411611045978866
-0.500912343659785,-0.403534390042724
-0.501304172821409,-0.39553686589301
-0.501701986094336,-0.387618209302718
-0.502105651260216,-0.37977815604484
-0.502515036100697,-0.37201644189237
-0.502930008397428,-0.364332802618301
-0.503350435932058,-0.356726973995626
-0.503776186486234,-0.349198691797339
-0.504207127841606,-0.341747691796433
-0.504643127779823,-0.3343737097659
-0.505084054082532,-0.327076481478734
-0.505529774531383,-0.319855742707928
-0.505980156908025,-0.312711229226475
-0.506435068994105,-0.305642676807369
-0.506894378571273,-0.298649821223602
-0.507357953421178,-0.291732398248169
-0.507825661325467,-0.284890143654061
-0.508297370065789,-0.278122793214272
-0.508772947423795,-0.271430082701796
-0.50925226118113,-0.264811747889625
-0.509735179119446,-0.258267524550753
-0.510221569020389,-0.251797148458173
-0.510711298665609,-0.245400355384878
-0.511204235836755,-0.239076881103861
-0.511700248315474,-0.232826461388115
-0.512199203883416,-0.226648832010634
-0.51270097032223,-0.220543728744411
-0.513205415413564,-0.214510887362438
-0.513712406939066,-0.20855004363771
-0.514221812680386,-0.202660933343219
-0.514733500419172,-0.196843292251958
-0.515247337937072,-0.191096856136921
-0.515763193015735,-0.185421360771101
-0.516280933436811,-0.179816541927491
-0.516800426981947,-0.174282135379084
-0.517321541432792,-0.168817876898873
-0.517844144570994,-0.163423502259852
-0.518368104178204,-0.158098747235013
-0.518893288036068,-0.152843347597351
-0.519419563926237,-0.147657039119857
-0.519946799630357,-0.142539557575526
-0.520474862930079,-0.13749063873735
-0.52100362160705,-0.132510018378322
-0.52153294344292,-0.127597432271437
-0.522062696219337,-0.122752616189686
-0.522592747717949,-0.117975305906063
-0.523122965720406,-0.113265237193561
-0.523653218008355,-0.108622145825174
-0.524183372363446,-0.104045767573895
-0.524713296567328,-0.0995358382127164
-0.525242858401648,-0.0950920935146316
-0.525771925648056,-0.0907142692526342
-0.5263003660882,-0.086402101199717
-0.526828047503728,-0.0821553251288733
-0.527354837676291,-0.0779736768130964
-0.527880604387535,-0.0738568920253793
-0.52840521541911,-0.0698047065387151
-0.528928538552665,-0.0658168561260972
-0.529450441569847,-0.0618930765605187
-0.529970792252307,-0.0580331036149728
-0.530489458381691,-0.0542366730624527
-0.53100630773965,-0.0505035206759512
-0.531521208107831,-0.0468333822284621
-0.532034027267883,-0.0432259934929782
-0.532544633001456,-0.0396810902424927
-0.533052893090196,-0.0361984082499987
-0.533558675315755,-0.0327776832884897
-0.534061847459779,-0.0294186511309586
-0.534562277303917,-0.0261210475503986
-0.535059832629819,-0.0228846083198029
-0.535554381219132,-0.0197090692121648
-0.536045790853506,-0.0165941660004773
-0.536533929314589,-0.0135396344577337
-0.53701866438403,-0.0105452103569271
-0.537499863843477,-0.00761062947105075
-0.53797739547458,-0.00473562757309784
-0.538451127058985,-0.00191994043606135
-0.538920926378344,0.000836696167065387
-0.539386661214303,0.00353454646328918
-0.539848199348512,0.00617387467961684
-0.540305408562619,0.0087549450430553
-0.540758156638273,0.0112780217806113
-0.541206311357122,0.0137433691192916
-0.541649740500816,0.0161512512861033
-0.542088311851003,0.0185019325080529
-0.542521893189331,0.0207956770121474
-0.542950352297449,0.0230327490253935
-0.543373556957006,0.0252134127747981
-0.54379137494965,0.0273379324873681
-0.544203674057031,0.0294065723901103
-0.544610322060796,0.0314195967100314
-0.545011186742595,0.0333772696741383
-0.545406135884076,0.0352798555094378
-0.545795037266887,0.0371276184429367
-0.546177758672678,0.038920822701642
-0.546554167883096,0.0406597325125603
-0.546924132679792,0.0423446121026985
-0.547287520844412,0.0439757256990634
-0.547644200158606,0.045553337528662
-0.547994038404023,0.0470777118185009
-0.548336903362312,0.048549112795587
-0.548672662815119,0.0499678046869271
-0.549001184544096,0.0513340517195282
-0.54932233633089,0.0526481181203969
-0.549635985957149,0.05391026811654
-0.549942001204523,0.0551207659349646
-0.55024024985466,0.0562798758026773
-0.550530599689208,0.0573878619466849
-0.550812918489817,0.0584449885939943
-0.551087074038135,0.0594515199716124
-0.551352934115811,0.0604077203065459
-0.551610366504493,0.0613138538258017
-0.55185923898583,0.0621701847563865
-0.55209941934147,0.0629769773253073
-0.552330775353063,0.0637344957595708
-0.552553174802257,0.0644430042861839
-0.5527664854707,0.0651027671321534
-0.552970575140041,0.0657140485244861
-0.553165311591929,0.0662771126901888
-0.553350562608013,0.0667922238562684
-0.55352619596994,0.0672596462497316
-0.553692079459361,0.0676796440975853
-0.553848080857923,0.0680524816268365
-0.553994067947275,0.0683784230644917
-0.554129908509066,0.0686577326375579
-0.554255470324944,0.0688906745730419
-0.554370621176558,0.0690775130979506
-0.554475228845557,0.0692185124392906
-0.554569161113589,0.069313936824069
-0.554652285762303,0.0693640504792924
-0.554724470573347,0.0693691176319678
-0.554785583328371,0.0693294025091019
-0.554835491809023,0.0692451693377016
-0.554874063796951,0.0691166823447737
-0.554901167073804,0.0689442057573249
-0.554916669421231,0.0687280038023622
-0.554920438620881,0.0684683407068924
-0.554912342454401,0.0681654806979222
-0.554892248703442,0.0678196880024586
-0.554860025149651,0.0674312268475083
-0.554815539574677,0.0670003614600781
-0.554758659760168,0.0665273560671749
-0.554689253487775,0.0660124748958055
-0.554607188539144,0.0654559821729768
-0.554512332695924,0.0648581421256955
-0.554404553739765,0.0642192189809684
-0.554283719452315,0.0635394769658025
-0.554149697615222,0.0628191803072045
-0.554002356010136,0.0620585932321812
-0.553841562418705,0.0612579799677395
-0.553667184622577,0.0604176047408861
-0.553479090403401,0.0595377317786281
-0.553277147542826,0.058618625307972
-0.5530612238225,0.0576605495559247
-0.552831187024073,0.0566637687494933
-0.552586904929192,0.0556285471156842
-0.552328245319507,0.0545551488815045
-0.552055075976665,0.053443838273961
-0.551767264682317,0.0522948795200605
-0.55146467921811,0.0511085368468097
-0.551147187365692,0.0498850744812156
-0.550814656906714,0.0486247566502849
-0.550466955622822,0.0473278475810245
-0.550103951295667,0.0459946115004412
-0.549725511706896,0.0446253126355418
-0.549331504638158,0.0432202152133332
-0.548921797871102,0.0417795834608221
-0.548496259187377,0.0403036816050154
-0.548054756368631,0.03879277387292
-0.547597157196512,0.0372471244915425
-0.547123329452671,0.03566699768789
-0.546633140918754,0.0340526576889691
-0.546126459376411,0.0324043687217868
-0.54560315260729,0.0307223950133497
-0.54506308839304,0.0290070007906649
-0.54450613451531,0.0272584502807389
-0.543932158755748,0.0254770077105789
-0.543341028896004,0.0236629373071914
-0.542732612717725,0.0218165032975834
-0.54210677800256,0.0199379699087616
-0.541463392532158,0.0180276013677331
-0.540802324088167,0.0160856619015043
-0.540123440452237,0.0141124157370824
-0.539426609406016,0.012108127101474
-0.538711698731152,0.010073060221686
-0.537978576209294,0.0080074793247252
-0.537227109622091,0.00591164863759849
-0.536457166751192,0.00378583238731257
-0.535668615378244,0.00163029480087443
-0.534861323284897,-0.000554699894709298
-0.5340351582528,-0.00276888747243158
-0.533189988063601,-0.00501200370528584
-0.532325680498948,-0.00728378436626499
-0.531442103340491,-0.00958396522836243
-0.530539124369877,-0.0119122820645711
-0.529616611368757,-0.0142684706478845
-0.528674432118777,-0.0166522667512955
-0.527712454401587,-0.0190634061477975
-0.526730545998836,-0.0215016246103834
-0.525728574692172,-0.0239666579120467
-0.524706408263244,-0.0264582418257804
-0.523663914493701,-0.0289761121245777
-0.52260096116519,-0.0315200045814317
-0.521517416059362,-0.0340896549693359
-0.520413146957863,-0.036684799061283
-0.519288021642344,-0.0393051726302665
-0.518141907894453,-0.0419505114492794
-0.516974673495838,-0.0446205512913151
-0.515786186228147,-0.0473150279293665
-0.514576313873031,-0.050033677136427
-0.513344924212137,-0.0527762346854897
-0.512091885027113,-0.0555424363495477
-0.51081706409961,-0.0583320179015943
-0.509520329211274,-0.0611447151146226
-0.508201548143756,-0.0639802637616258
-0.506860588678703,-0.0668383996155971
-0.505497318597764,-0.0697188584495296
-0.504111605682588,-0.0726213760364166
-0.502703317714824,-0.0755456881492511
-0.501272322476119,-0.0784915305610265
-0.499818487748124,-0.0814586390447357
-0.498341681312485,-0.0844467493733722
-0.496841770950853,-0.0874555973199289
-0.495318624444876,-0.0904849186573992
-0.493772109576202,-0.0935344491587759
-0.49220209412648,-0.0966039245970528
-0.490608445877358,-0.0996930807452224
-0.488991032610486,-0.102801653376278
-0.487349722107512,-0.105929378263214
-0.485684382150084,-0.109075991179022
-0.483994880519852,-0.112241227896695
-0.482281084998463,-0.115424824189228
-0.480542863367567,-0.118626515829612
-0.478780083408812,-0.121846038590842
-0.476992612903847,-0.12508312824591
-0.47518031963432,-0.12833752056781
-0.473343071381881,-0.131608951329534
-0.471480735928177,-0.134897156304077
-0.469593181054858,-0.138201871264431
-0.467680274543571,-0.141522831983589
-0.465741884175967,-0.144859774234544
-0.463777877733693,-0.14821243379029
-0.461788122998397,-0.15158054642382
-0.45977248775173,-0.154963847908127
-0.457730839775338,-0.158362074016204
-0.455663046850872,-0.161774960521045
-0.453568976759979,-0.165202243195642
-0.451448497284308,-0.168643657812988
-0.449301476205508,-0.172098940146078
-0.447127781305228,-0.175567825967904
-0.444927280365116,-0.179050051051459
-0.44269984116682,-0.182545351169736
-0.440445331491991,-0.186053462095729
-0.438163619122275,-0.189574119602431
-0.435854571839322,-0.193107059462835
-0.43351805742478,-0.196652017449934
-0.431153943660298,-0.200208729336721
-0.428762098327525,-0.203776930896189
-0.42634238920811,-0.207356357901333
-0.4238946840837,-0.210946746125144
-0.421418850735945,-0.214547831340616
-0.418914756946493,-0.218159349320742
-0.416382270496993,-0.221781035838516
-0.413821259169094,-0.22541262666693
-0.411231590744444,-0.229053857578978
-0.408613133004692,-0.232704464347653
-0.405965753731486,-0.236364182745948
-0.403289320706475,-0.240032748546856
-0.400583701711309,-0.243709897523371
-0.397848764527634,-0.247395365448485
-0.395084376937101,-0.251088888095192
-0.392290406721357,-0.254790201236485
-0.389466721662052,-0.258499040645357
-0.386613189540834,-0.262215142094801
-0.383729678139352,-0.265938241357811
-0.380816055239253,-0.269668074207379
-0.377872188622188,-0.2734043764165
-0.374897946069804,-0.277146883758165
-0.371893195363751,-0.280895332005368
-0.368857804285677,-0.284649456931103
-0.36579164061723,-0.288408994308363
-0.362694572140059,-0.29217367991014
-0.359566466635813,-0.295943249509428
-0.356407191886141,-0.29971743887922
-0.35321661567269,-0.303495983792509
-0.349994605777111,-0.307278620022289
-0.346741029981051,-0.311065083341552
-0.343455756066159,-0.314855109523292
-0.340138651814084,-0.318648434340502
-0.336789585006474,-0.322444793566176
-0.333408423424978,-0.326243922973305
-0.329995034851245,-0.330045558334884
-0.326549287066923,-0.333849435423906
-0.323071047853661,-0.337655290013363
-0.319560184993108,-0.34146285787625
-0.316016566266911,-0.345271874785558
-0.312440059456721,-0.349082076514282
-0.308830532344185,-0.352893198835415
-0.305187852710953,-0.356704977521949
-0.301511888338672,-0.360517148346878
-0.297802507008992,-0.364329447083195
-0.294059576503561,-0.368141609503894
-0.290282964604028,-0.371953371381966
-0.286472539092041,-0.375764468490407
-0.282628167749249,-0.379574636602208
-0.278749718357301,-0.383383611490363
-0.274837058697845,-0.387191128927866
-0.27089005655253,-0.390996924687708
-0.266908579703005,-0.394800734542884
-0.262892495930918,-0.398602294266387
-0.258841673017918,-0.402401339631209
-0.254755978745654,-0.406197606410345
-0.250635280895774,-0.409990830376787
-0.246479447249927,-0.413780747303528
-0.242288345589761,-0.417567092963561
-0.238061843696925,-0.421349603129881
-0.233799809353069,-0.425128013575479
-0.22950211033984,-0.428902060073349
-0.225168614438887,-0.432671478396485
-0.220799189431858,-0.436436004317879
-0.216393703100403,-0.440195373610524
-0.21195202322617,-0.443949322047415
-0.207474017590808,-0.447697585401543
-0.202959553975965,-0.451439899445902
-0.19840850016329,-0.455175999953486
-0.193820723934432,-0.458905622697287
-0.189196093071039,-0.462628503450299
-0.18453447535476,-0.466344377985515
-0.179835738567244,-0.470052982075927
-0.175099750490138,-0.47375405149453
-0.170326378905093,-0.477447322014316
-0.165515491593756,-0.481132529408279
-0.160666956337777,-0.484809409449411
-0.155780640918803,-0.488477697910707
-0.150856413118483,-0.492137130565158
-0.145894140718467,-0.495787443185758
-0.140893691500403,-0.499428371545501
-0.135854933245938,-0.50305965141738
-0.130777733736723,-0.506681018574387
-0.125661960754406,-0.510292208789517
-0.120507482080635,-0.513892957835761
-0.115314165497058,-0.517483001486114
-0.110081878785326,-0.521062075513568
-0.104810489727086,-0.524629915691117
-0.0994998661039864,-0.528186257791754
-0.0941498756976765,-0.531730837588471
-0.0887603862898051,-0.535263390854263
-0.0833312656620203,-0.538783653362122
-0.0778623815959712,-0.542291360885042
-0.072353601873306,-0.545786249196015
-0.0668047942756739,-0.549268054068036
-0.061215826584723,-0.552736511274096
-0.0555865665821024,-0.55619135658719
-0.0499168820494603,-0.55963232578031
-0.0442066407684458,-0.563059154626449
-0.0384557105207071,-0.566471578898602
-0.0326639590878934,-0.56986933436976
-0.0268312542516527,-0.573252156812918
