-0.750701213593363,-0.882903069122115
-0.710938674290447,-0.855651440939703
-0.703380606567536,-0.845409739563139
-0.696442739906443,-0.831837166700496
-0.685408039874127,-0.846057504470144
-0.677349059310146,-0.813877527041653
-0.668756204478502,-0.829883162822759
-0.635761693254493,-0.812372824722873
-0.66033588056276,-0.781237956003544
-0.651082753072092,-0.776114844176021
-0.643698337977754,-0.766554857979524
-0.63633553985146,-0.75707890641783
-0.629036969656193,-0.74423411825257
-0.6216747148492,-0.738378058520889
-0.65754835633584,-0.723063771020299
-0.619263066686861,-0.722371199306699
-0.618902603729455,-0.692173538008691
-0.587411090386847,-0.729671041256979
-0.585399555342764,-0.693078193023258
-0.578208976076594,-0.684265080438334
-0.554491733217412,-0.686790665353639
-0.563892110871765,-0.666883618427167
-0.567474695284522,-0.653933996079429
-0.54966083734728,-0.649826759497639
-0.528979866820484,-0.690463903126715
-0.535514996195534,-0.633092406293828
-0.556052281537992,-0.60973152154057
-0.518793342823471,-0.556717228845106
-0.512333181244496,-0.592021434591823
-0.529959510234125,-0.606740886129269
-0.503949163034543,-0.598555057298861
-0.497143337849613,-0.606128135411426
-0.486675032096184,-0.577031622094387
-0.476403982934192,-0.566501365701744
-0.46772267808957,-0.544891971509459
-0.486573731928859,-0.555017928968742
-0.45923285446501,-0.546724527927298
-0.452425107886658,-0.539341455379391
-0.468662994884066,-0.53459732139422
-0.438872832731127,-0.524805916289786
-0.403500356759023,-0.52179272554793
-0.423515916958275,-0.52686587848811
-0.418702166299006,-0.503575190128544
-0.405829144221989,-0.490370256289898
-0.404943532283714,-0.478318615219907
-0.406485381038672,-0.48589298801674
-0.372926896762547,-0.486375224515193
-0.385503718151892,-0.469700055155566
-0.378926748687376,-0.463149079929922
-0.383326644446547,-0.463448123264097
-0.355340254975967,-0.431352347508016
-0.348169950604312,-0.426038204415445
-0.35282727426398,-0.437683279274177
-0.356969793483237,-0.418714375823956
-0.339902300324773,-0.425389568721541
-0.333470934476214,-0.419351593295815
-0.312448104007889,-0.384786705703853
-0.301427429114465,-0.415149267381405
-0.303276369932352,-0.409653351109975
-0.293304780600948,-0.40263404876739
-0.277355415936505,-0.408671818665152
-0.306244251736565,-0.395210288929348
-0.275828057732982,-0.357766035510182
-0.28276428601734,-0.373626299931533
-0.27651869104942,-0.368229019473834
-0.231791570387606,-0.400747412067706
-0.267346303912075,-0.352325757838072
-0.257905076342094,-0.352455394316755
-0.260097087254446,-0.334529176021867
-0.2263857264185,-0.320469726274251
-0.239475798746957,-0.337303587924405
-0.236125557543079,-0.342576636909108
-0.223918854194706,-0.349138556705471
-0.22123032060084,-0.322766521720548
-0.203317936669705,-0.284108419120765
-0.198827722162942,-0.304717373358162
-0.233637063613237,-0.289074300774369
-0.197187997365682,-0.304327794721296
-0.191228173257638,-0.2998849415926
-0.162946322745903,-0.260194120026274
-0.184660265753396,-0.301001520047628
-0.173470198400083,-0.286952576185348
-0.167591306224921,-0.282772978477575
-0.188663013006789,-0.306836337845989
-0.169618608337869,-0.275777882999924
-0.150075649243197,-0.270624087265329
-0.108549399556663,-0.231359231225716
-0.152598732122273,-0.296302769214117
-0.118872377262659,-0.243234611389588
-0.106528770368647,-0.262436193854569
-0.103306798860362,-0.27565980186815
-0.0706769154775438,-0.261088415121644
-0.109909174731607,-0.244517457166753
-0.0800315326394744,-0.257002813641657
-0.0683823627075198,-0.270522059456969
-0.0929951306148158,-0.234272195849069
-0.0702987316114955,-0.235082403108054
-0.0818187560163814,-0.227751209727092
-0.038953295494614,-0.232388590865119
-0.0707219194092809,-0.221475127161722
-0.0398440993519422,-0.230271688097139
-0.047512959458296,-0.23238534919412
-0.0542254497469952,-0.212515609516226
-0.0571169265020477,-0.18634460630801
-0.0386920110771881,-0.23168055802947
-0.0362708781754248,-0.210992817108145
-0.043173292427451,-0.232055190416385
-0.0605027748128841,-0.224929308181154
-0.0217661658849183,-0.196207201774913
0.0161527359754109,-0.18146888402768
-0.00962622435474483,-0.158797711873804
-0.03637061326657,-0.220450968099041
-0.000520217820396102,-0.186505266035758
-0.00300343165681289,-0.205142200706021
-0.00415284105613827,-0.161815237372755
0.0152085226721494,-0.179831311965988
0.0204123575069546,-0.177720023845374
0.0255966861994894,-0.175664980393597
0.0213812876691669,-0.182801344376877
0.0352092945626401,-0.135928935223654
0.0319808717987795,-0.17788689725752
0.0717918520503085,-0.177482431645465
0.0512264344988805,-0.166224257235112
0.0599340816667628,-0.161610921954478
0.0613424877935178,-0.162832504721421
0.0663714842321137,-0.161217980518694
0.0456843378738319,-0.146293852583016
0.0668650692486307,-0.193656368564193
0.0843724268032151,-0.132102917572583
0.0862943999088616,-0.155296113447133
0.0873768914399896,-0.176981438225795
0.0682233063464763,-0.152575015883476
0.0772469239130424,-0.176493489336469
0.105909359307026,-0.150219629823001
0.0727214714940145,-0.148664416770801
0.109979904901144,-0.143194998493387
0.113399824294995,-0.148809994296598
0.127297020608256,-0.140740184895425
0.129996936599414,-0.145037284240481
0.14680687119088,-0.149300702602366
0.139498351797728,-0.14331951977427
0.144220507110979,-0.142535697527516
0.185936837474056,-0.15107915091644
0.128752266179818,-0.139963265535652
0.160083217880139,-0.17339537240413
0.112509187953591,-0.150610613184744
0.178408977204181,-0.12971040727504
0.172154961535189,-0.138867087178048
0.176744476888882,-0.138425592393069
0.181315123330726,-0.13803195285324
0.182778652373723,-0.128307561496738
0.190399889132672,-0.137387190831071
0.181982291025177,-0.125725915789249
0.168308399796308,-0.147555486641709
0.174165335308447,-0.0934476120983822
0.226449400448534,-0.145195889964246
0.212408352352124,-0.137771419788491
0.217203403653021,-0.136574165021172
0.242095546411729,-0.145852460019702
0.213162968126092,-0.112554248204231
0.230352581255916,-0.136785383620798
0.278819718130339,-0.142928889283876
0.239025516716562,-0.137150179026033
0.243334089304851,-0.137398985121825
0.219299989246134,-0.144743439919375
0.243035360063624,-0.132926983436985
0.272742115017837,-0.162974417014128
0.224475718498375,-0.157310892055846
0.264598797363991,-0.139296612752926
0.268796247393513,-0.139805022523142
0.296771029013561,-0.161583641105412
0.238841410107346,-0.14111718807443
0.28351719783947,-0.143378298261065
0.285401739352266,-0.142259536767651
0.274411571896217,-0.102754986581816
0.333825734160224,-0.142543476220677
0.29012115936794,-0.109926460249543
0.312277342656005,-0.163318838970743
0.305745404451013,-0.146254985979722
0.309759243291977,-0.147175094981425
0.26139101794579,-0.143412481733464
0.331510175062392,-0.14095224403489
0.321691329899408,-0.150172741254287
0.325632281841568,-0.151250189202858
0.337291757360137,-0.121195348542015
0.333459689816116,-0.153520860869485
0.326348784456209,-0.162698596348252
0.331060513384115,-0.156476293259843
0.39526902367961,-0.120641208552211
0.348897079702742,-0.158517966534947
0.387153919139551,-0.162660592590785
0.356507380230032,-0.16124020582194
0.360285501586748,-0.162656329485786
0.364045630223447,-0.164108772937211
0.333221516545315,-0.138847930531165
0.372682791477071,-0.187711632996095
0.371650082361525,-0.199114953604428
0.37069339161727,-0.148573103892081
0.382577079577443,-0.171906611075868
0.401834846013301,-0.201579584126544
0.389119097876902,-0.156222469838777
0.393481311010469,-0.177004372562638
0.405559784432822,-0.223238953299665
0.432102634801454,-0.164587385049556
0.437799567511911,-0.184065919091118
0.387033118339211,-0.185630282767075
0.435704350281164,-0.166636890109769
0.41480934706772,-0.188109744038458
0.416436619409059,-0.164905285800493
0.426917866848846,-0.150409089671964
0.425234227018282,-0.194103196875034
0.440309408056334,-0.202466248856851
0.406461977438542,-0.214264855864819
0.436799538350062,-0.217574263701501
0.447048223514112,-0.194983498235944
0.44225660689045,-0.204720804077893
0.448842990440274,-0.204262054210418
0.448942676470598,-0.209181711370595
0.45225945897832,-0.211456944427177
0.455558766515742,-0.213761680864591
0.450165024265416,-0.208681764887869
0.462105036333489,-0.218458615203959
0.448768834409583,-0.201795322836328
0.473448549937964,-0.23121237427565
0.471793876619125,-0.225718737832004
0.488969960858949,-0.202808105412504
0.520160944966169,-0.28029580523728
0.504040724701057,-0.25736215966019
0.484469446408401,-0.235788702972927
0.502512000430414,-0.22175697541203
0.460745410614964,-0.255353006867741
0.461638524366751,-0.22779806764075
0.501638948330344,-0.238645389408006
0.490018707239915,-0.268052471340463
0.502964924287533,-0.251694857872432
0.50089020022596,-0.257714147125194
0.508992620329724,-0.257202175332078
0.519277248807241,-0.231887552490638
0.50731800086981,-0.231590546067416
0.501305519065859,-0.281531275508742
0.479119066134563,-0.233733682386636
0.523762669677305,-0.27139960679027
0.510665874934015,-0.259812682801037
0.53146682705139,-0.296452196093059
0.498581166326444,-0.271425307776782
0.535272284377849,-0.283181647659804
0.53810729500153,-0.286183875312405
0.54092538823153,-0.289208265600113
0.563945321856665,-0.29815683898713
0.55352023646019,-0.307226328186902
0.556612191936241,-0.291887068211144
0.552028985483736,-0.301522209712205
0.578080530825263,-0.303930581807485
0.557479797497473,-0.307805341172145
0.560180026548326,-0.310977529159872
0.541284686849467,-0.326021543601693
0.585260818059267,-0.279933640588933
0.552708521738973,-0.376923378891271
0.581353507071395,-0.311750084357894
0.59184350597023,-0.311950447634708
0.575156967850064,-0.326055999159489
0.578613518647436,-0.33372999139968
0.581180240586308,-0.337055360875158
0.57405788717913,-0.355051166952368
0.586263908042092,-0.343759741426412
0.585156263296984,-0.362263784394248
0.594261664782221,-0.35948819748155
0.593765266872633,-0.353946483711685
0.596232694842446,-0.357375728184386
0.605601277107463,-0.3628859467723
0.601118132802227,-0.364283139679262
0.598606537288584,-0.394422485399303
0.605937812878551,-0.371254033443502
0.573727702804082,-0.377010681964398
0.622715247536074,-0.386763994854637
0.613044385446943,-0.381824815378839
0.622445554986687,-0.375032595992663
0.615516874920859,-0.41725951965364
0.620003898882838,-0.392526634793183
0.64917104293267,-0.394980733214074
0.634329947095547,-0.395473048989214
0.649254952332516,-0.383934926693982
0.629055420774513,-0.406987328847888
0.622550148032453,-0.417308661096503
0.637596526911802,-0.365988191223171
0.605950920823009,-0.423134589600549
0.639538868855057,-0.423939131222186
0.642570486715423,-0.43116977380469
0.661701397924261,-0.399840404503006
0.644272631138743,-0.432773344456382
0.646382114564823,-0.436502715715909
0.644012483332161,-0.446412410585042
0.66307007528134,-0.484290721497857
0.652614397285763,-0.447753543881745
0.650324610121558,-0.467889759777249
0.661242278817243,-0.439633618206672
0.658702846853219,-0.45909293806917
0.660700460048811,-0.462891194012155
0.671239134735926,-0.475080583441938
0.665496050675229,-0.475559658788015
0.668843270155441,-0.473854908720634
0.66853209388873,-0.478169516000238
0.67045039718035,-0.482009110203843
0.634282911708907,-0.466227122445186
0.674239616955717,-0.489710479872523
0.670494284956406,-0.508324801605637
0.668745867863759,-0.47898552954328
0.679805278300837,-0.501314054986864
0.672573122845065,-0.503829217542117
0.659828182359262,-0.529165735171801
0.713728324936569,-0.517386859278106
0.687006415599126,-0.516870649161862
0.66539603691716,-0.536653468541057
0.690513166478152,-0.524680724636768
0.688114650479288,-0.534525278069427
0.69395758458724,-0.532509189228718
0.695656468636684,-0.536429662019858
0.685989843332809,-0.534617985893575
0.671737774243084,-0.562768980809436
0.707306896247559,-0.530654244837479
0.738478522735559,-0.546650869943637
0.711873292285986,-0.54713790645706
0.685987340188911,-0.560196435731349
0.707115115476322,-0.563964991648509
0.708690369485326,-0.567908609860243
0.736802048675859,-0.589662639982054
0.704240753081559,-0.565212016496777
0.751567865447504,-0.59564236011114
0.705133653937836,-0.568542915094893
0.707309559348672,-0.620040211849362
0.717819943475057,-0.591597124910719
0.757140435494936,-0.605138110905091
0.709192904560458,-0.605804092303372
0.724324317339072,-0.601237168936051
0.723601167345745,-0.607395771829441
0.712635048892776,-0.617699723143885
0.727772492820391,-0.620128405646843
0.73143109680961,-0.598143376694101
0.709933073708058,-0.598928724731411
0.740528334134317,-0.60623201509382
0.731818451120191,-0.631061250416693
0.731467330370612,-0.622178052813056
0.734436969067005,-0.638932689377867
0.715210816740788,-0.650812389185625
0.74376579903077,-0.632511616479811
0.741674905206941,-0.638522100332592
0.742462318656923,-0.671130818718575
0.740721012627173,-0.658554100185493
0.743232795742239,-0.658143700722022
0.741028105948907,-0.695009653999093
0.739088542194219,-0.634512362289201
0.740628503640429,-0.665990998050012
0.746562857408186,-0.68806947050996
0.747770181487017,-0.68195446533781
0.757064581507837,-0.699373926979533
0.70767913326463,-0.697639820026583
0.800547551608112,-0.669534721118572
0.753979246437877,-0.67609197167923
0.745687358334158,-0.700359777118145
0.739044613892487,-0.730165591336394
0.756596009078067,-0.711189862111235
0.780779198883668,-0.707457785336931
0.72605053422666,-0.743658997392391
0.764676096299372,-0.734509310998552
0.717240344247503,-0.736741764428962
0.753796927416029,-0.737765423998719
0.746854173185898,-0.718435837111437
0.714608957188415,-0.767510690396777
0.763073614665113,-0.739403906829543
0.762315219451797,-0.734018879987574
0.764866310268817,-0.746916170788283
0.773801561842804,-0.744904981170925
0.798834339492956,-0.78244338459705
0.818394655717834,-0.76688510709381
0.768278483274287,-0.761814444769649
0.747455521353078,-0.75977013880916
0.761799267898842,-0.782350575729191
0.754122419506828,-0.765644704579755
0.753951977748395,-0.786017762649414
0.772220558262175,-0.780178932133197
0.773103676571577,-0.837940854896628
0.763170217252358,-0.780279470165419
0.792217967637483,-0.745485802782891
0.77511725848648,-0.794643388713269
0.79245072769925,-0.837919483972061
0.764894888702943,-0.822330503496894
0.819234734960847,-0.818354012175945
0.77976483430564,-0.821257742334608
0.778419024971676,-0.812412515003426
0.788773925670557,-0.846748095118611
0.770326698613719,-0.812201541944359
0.803543500905084,-0.817465626838384
0.780806704372838,-0.826358211267369
0.784863830884492,-0.839125960941506
0.781916404240337,-0.833235423414493
0.775009770801139,-0.838428038683696
0.7966274621293,-0.860791887733581
0.774088992770831,-0.837588463127726
0.741374093490315,-0.866181642624782
0.784446523842344,-0.850132692950878
0.788070853773492,-0.853013414122029
0.764230928509196,-0.852581495864207
0.78532146469024,-0.856669981540253
0.785708372477697,-0.85983859958886
0.80821203114734,-0.882246052748771
0.791044951490972,-0.854356471426466
0.800146432225423,-0.876018427008321
0.781354987955467,-0.884847908866681
0.766629501333761,-0.898232061988847
0.785192950724028,-0.884436244514132
0.767631501773723,-0.903906089065353
0.787601418834908,-0.882832398521353
0.795198487123989,-0.875814887313069
0.787414887295368,-0.862893965820346
0.78776593924526,-0.89039837367831
0.790236088157737,-0.901591227565114
0.787712208003263,-0.895129611045809
0.846759793410698,-0.90190488605064
0.759118287727324,-0.897640230470662
0.814403604396535,-0.898431227733797
0.810764445096951,-0.910415479959563
0.787010927683036,-0.905883193669096
0.747832439007681,-0.933682290612723
0.786505430380977,-0.909762058562653
0.774307547402238,-0.930995978247179
0.787882184454609,-0.904187093548182
0.766201408278623,-0.907449815493309
0.785112509351654,-0.916810547280226
0.788063018166592,-0.931426500733375
0.812775449513226,-0.899364316695406
0.783736326525797,-0.921487182126198
0.756813672578823,-0.906805378598796
0.783657436958702,-0.88777286723091
0.8033871744007,-0.911587063977372
0.757465104584892,-0.885032240355403
0.777281062566079,-0.928699654130168
0.780141557417419,-0.92931288608599
0.782776334571165,-0.927912462504689
0.782328473598761,-0.851161415941532
0.777927588680366,-0.932480562474626
0.760077590043513,-0.931072432341562
0.793180015462692,-0.95024793402761
0.770233021543403,-0.940196837514807
0.751957128947781,-0.948428332028905
0.801374521003363,-0.895467565952363
0.774478437193474,-0.9001791755602
0.796863410372089,-0.947213114459815
0.766140157694489,-0.939018961904309
0.767031328526876,-0.958502384511744
0.768577118853266,-0.939593453049178
0.751243673312931,-0.923037565150127
0.80376337849982,-0.929680748940126
0.780147458580804,-0.968474428569949
0.776686441474564,-0.944204847069112
0.757499914175467,-0.968919602867097
0.780599510508235,-0.886008750889708
0.760261875824248,-0.941554716013392
0.758957050380177,-0.941640291685477
0.724446626939166,-0.950125707825746
0.786320126442839,-0.899616554804355
0.744684090307816,-0.936478688511317
0.753448835050983,-0.94150986566191
0.773178563332292,-0.953684802225207
0.750522576396058,-0.941165839531267
0.785107359526945,-0.954658639646776
0.732965798127347,-0.916692819199773
0.74591992365304,-0.940309036967904
0.711432878221838,-0.941198152300638
0.742796682770233,-0.918212143860146
0.718178864290146,-0.917530210545098
0.720724433029151,-0.931765057494138
0.736881457143095,-0.914667859009465
0.729598256565507,-0.95927676068614
0.709821607947587,-0.93072618255831
0.746314194057856,-0.924096847406955
0.739953479591143,-0.901207118174084
0.728757244033749,-0.934611734133946
0.707959880286707,-0.930231113404311
0.762440817696213,-0.919990079063068
0.714297575436733,-0.93157679890777
0.742195224472253,-0.91400540669977
0.711647757349298,-0.915045140839183
0.717141259289216,-0.929199917947013
0.716041953442751,-0.933611785997576
0.700328035991613,-0.946681979859154
0.710969784506961,-0.92596281792266
0.69871050537342,-0.957253662022658
0.704879903200267,-0.945480066232995
0.706617914528201,-0.903140868209535
0.702369394355294,-0.921116723319987
0.700153481686744,-0.919812860928585
0.720067561643975,-0.914281718620329
0.695643276763593,-0.917096741711044
0.657918137041669,-0.921977484925916
0.691029135793049,-0.914238393774941
0.65870351679116,-0.894942548400008
0.717160055240911,-0.908479588052823
0.709255902393356,-0.901551140121497
0.684624394687332,-0.932701027219061
0.670020739652031,-0.928960483240736
0.678656682756178,-0.913316104976615
0.674071022439616,-0.903153923733262
0.671546893053138,-0.901437847511031
0.692775782307631,-0.882830570011396
0.666423333057777,-0.897909705481708
0.678753652688102,-0.897439542454378
0.662842843020221,-0.873323946404376
0.662902579229268,-0.89347887193618
0.646349458761913,-0.889948417174574
0.653179166410064,-0.888545491524332
0.607674300315531,-0.892016668240744
0.627993708069794,-0.885048857004704
0.660506463020054,-0.88907981374451
0.609464224693963,-0.885342888699038
0.636931430595438,-0.904850234505065
0.636477605819727,-0.87633214712872
0.633609453100762,-0.874197868178232
0.58835418657098,-0.868636788956725
0.634288251904042,-0.888801514674641
0.59729404947001,-0.87822319010191
0.621898379631731,-0.865391325370686
0.630647870764229,-0.868421056197681
0.608114344731675,-0.851488322625304
0.58854900126495,-0.894981450507229
0.633492980968523,-0.862021328416903
0.61925820949955,-0.868470066205598
0.603625787759808,-0.851411133850541
0.566250114349311,-0.848322898753819
0.597349398347508,-0.846556662594696
0.603269057989699,-0.854153675177745
0.590981386342394,-0.841609582019796
0.632969163492194,-0.806733818684444
0.558855958466094,-0.845813980973999
0.58125907239997,-0.834021348819575
0.601418221835653,-0.800123339502422
0.541402546683742,-0.813711223840088
0.580498294485716,-0.825335501159533
0.571764022728497,-0.83757174132495
0.564606794010004,-0.820950299195766
0.553413972813231,-0.828781604323511
0.561096671403444,-0.836616545222986
0.57680109026488,-0.83986357472514
0.550887548387989,-0.810136674335376
0.531715840835116,-0.820320415552065
0.543897332495862,-0.804618514259657
0.520013638607298,-0.792672310632931
0.539181544327718,-0.794435575814223
0.533250691283549,-0.796209842620348
0.512461331718054,-0.820387866582905
0.544522785808802,-0.809967642782194
0.527064346778562,-0.763484233918545
0.518757635326357,-0.784767413911428
0.515081810272119,-0.781867877763768
0.524398261284654,-0.77727694037186
0.507667685456425,-0.776024502758071
0.503929556715171,-0.773081353058361
0.525338088772213,-0.763172204747523
0.496391594116356,-0.767153852161038
0.488127242775586,-0.761655466326764
0.488771928096472,-0.761173713127595
0.484931670078883,-0.758164765757737
0.481071242736331,-0.755143692591339
0.488491840493445,-0.742898566623906
0.47329022211674,-0.749066547185576
0.469369799859905,-0.746011164104537
0.462989867515568,-0.751038895593956
0.455706885032074,-0.741341615033676
0.468040525854294,-0.774028733785
0.453490693087993,-0.733685602773145
0.452290177471947,-0.732075185882301
0.445433886196713,-0.727465228811392
0.441376468660095,-0.724341849533572
0.437299822409628,-0.721210134830008
0.427012252093838,-0.712046600010119
0.437874725621043,-0.731513938099498
0.444673538222001,-0.700085726718202
0.385101889837993,-0.716217929380595
0.422713884234908,-0.705096845258656
0.393910228212807,-0.694919216862547
0.418415008652005,-0.726787095588689
0.407487886936872,-0.707635840190729
0.399758823198901,-0.692706463901368
0.420339959543635,-0.649530200383413
0.371274174652304,-0.665052726868105
0.386911353400613,-0.683104821994596
0.370944398808065,-0.70553087958741
0.378255645605585,-0.676683873608365
0.373900829859525,-0.673468477018225
0.402574587614367,-0.697740278790448
0.365137702220816,-0.667029561939709
0.36072956134837,-0.66380673260966
0.354993066875852,-0.695396710563282
0.35972296427246,-0.661537887734907
0.376074622573066,-0.677571747367644
0.342921812740341,-0.650900976864671
0.307967925785672,-0.659128665056281
0.326604173595508,-0.658448688798971
0.338690048371645,-0.653713847775593
0.307806782529459,-0.625242257520167
0.333401592657676,-0.627283285102504
0.273953152841163,-0.620246806311439
0.306512419949167,-0.589743964523133
0.334686757329211,-0.638515518435003
0.28009053348429,-0.612929577900379
0.297206073927985,-0.618656121235765
0.257417138592692,-0.654608705005842
0.282913908232714,-0.586537879676811
0.259784799804291,-0.613512793716348
0.257533349714859,-0.64505486697324
0.273727602121416,-0.602625995472706
0.301900076529367,-0.610813765285137
0.282654093166802,-0.586941650052297
0.25944808299664,-0.593062266371071
0.254656683675516,-0.589885481871539
0.274378316709446,-0.55317945751893
0.24006845686162,-0.615901732037078
0.238759066201184,-0.554807081746141
0.218900544702115,-0.574456960652977
0.230466837927965,-0.574100504443818
0.211146638124409,-0.535263298862118
0.211314431975388,-0.550915504936675
0.247536022275781,-0.561035498298419
0.199218478233369,-0.579505852405002
0.214007309911155,-0.567968639558253
0.18872044184444,-0.522058122403093
0.174422889870622,-0.512346696552979
0.197015910888742,-0.557716923747682
0.185974084868156,-0.546211656804097
0.180957104763707,-0.543163106603381
0.194429711945925,-0.560738982659145
0.195375306100481,-0.504018226930134
0.175852525909211,-0.555931999729718
0.170805569496591,-0.567180824923965
0.144067342836894,-0.560509281824278
0.110741283653191,-0.491862218291826
0.124013271556781,-0.540371428266924
0.140311679805799,-0.519210650763544
0.125634590283508,-0.503819364813953
0.122372575648871,-0.530051459933316
0.124841729723872,-0.510451030524411
0.103915709972954,-0.499150896293849
0.120457121943605,-0.475817866080788
0.109251053399263,-0.501827273901482
0.113050409175017,-0.502356700836848
0.0987913391827174,-0.496158176995152
0.110200723636249,-0.502532044806612
0.0882796790603384,-0.490556355501512
0.0830045830597144,-0.487781534482358
0.0635255295524486,-0.457192204837138
0.0549022017155053,-0.503465494499228
0.0819663994845747,-0.498451769223435
0.0488679015377291,-0.49113139127273
0.0272651035905242,-0.511376673064522
0.0350284204762517,-0.478198445517079
0.0663484567966219,-0.450481710775273
0.0570099128586423,-0.451410966892983
0.0349661326892926,-0.463652861389353
0.0284272070432548,-0.467822180933904
0.000628568743169598,-0.452247852591842
0.0101883092364228,-0.493145019370859
0.0597514580314744,-0.443341854775309
-0.00650839230116151,-0.420297946194182
0.00280674297035366,-0.435319500299172
0.0353623748067909,-0.495374912068491
-0.0322108123797202,-0.427859973641366
-0.00363027052446296,-0.437189491185153
-0.0205242359239917,-0.418624777633759
-0.0316100333271318,-0.439106101039932
-0.0305813649591748,-0.43416489343444
-0.0490840516176509,-0.41868986144463
-0.0516020726366895,-0.414615121064698
-0.0413695908824848,-0.435523124519028
-0.0527877231928778,-0.425109006793087
-0.0583660070106151,-0.422910341359198
-0.0829114089052988,-0.431299339338561
-0.0253541319802468,-0.425940713928251
-0.109394638463711,-0.414195429408291
-0.0807833540157727,-0.414387241904338
-0.10833752445654,-0.433456094467503
-0.0977822408640574,-0.44905994566863
-0.126003941779199,-0.438743194510473
-0.0853642009582985,-0.390323048623768
-0.107287140930913,-0.428352268144206
-0.114712603614997,-0.40245518327209
-0.1272043769118,-0.41237207610341
-0.120515882740573,-0.389357910620729
-0.131808679164856,-0.396892977584533
-0.0904795386222407,-0.420680013956136
-0.151063071498295,-0.397775179910615
-0.12792498630963,-0.393554804799976
-0.156490816032848,-0.397362927268951
-0.162325210653125,-0.437034199547109
-0.169925466961856,-0.414194305791269
-0.153865704435331,-0.396905777701131
-0.175081249856317,-0.389806617353414
-0.152569279507824,-0.354108134978305
-0.209003417820492,-0.396996221922143
-0.190586186431434,-0.417747547100054
-0.234342386253667,-0.379786746972086
-0.2216404189569,-0.405781596963006
-0.222681805789623,-0.385455832641457
-0.191089513875285,-0.368068901664511
-0.224359474046036,-0.372211102453405
-0.238756650499992,-0.342424472326313
-0.231552025331551,-0.363836906215403
-0.241952074965459,-0.368589622011905
-0.215086043247276,-0.398176816675865
-0.236193019815895,-0.335966786189244
-0.251155435309175,-0.350207000191161
-0.260903375651455,-0.379455388344647
-0.279592603908418,-0.365458403979809
-0.277344767759187,-0.362377595683822
-0.277178043877916,-0.350793919944718
-0.284905385300844,-0.3311837792293
-0.290579343356888,-0.370188652374131
-0.302965394730183,-0.3167451481045
-0.337014913632891,-0.346288545081665
-0.330137601355988,-0.35963543653823
-0.305676294938446,-0.34481077430154
-0.353746905049808,-0.382278885867122
-0.336250755259226,-0.378574256569844
-0.33690405197857,-0.355253426149851
-0.349931087484868,-0.375029364902866
-0.366220385375618,-0.358829050131467
-0.329382259730657,-0.342601193514896
-0.360911815794532,-0.353598302467893
-0.309481271716909,-0.370185606819155
-0.350217366377184,-0.359208708360275
-0.375756002387779,-0.374658577361302
-0.384837514188103,-0.362673358877146
-0.403290839232205,-0.377783182536539
-0.397103556064164,-0.352464401490064
-0.403155426426467,-0.35243719828995
-0.409212758376318,-0.352457136909374
-0.425547727672037,-0.367461916537246
-0.421343464998261,-0.352639817923487
-0.427416668650149,-0.352803249476502
-0.433494991849182,-0.353015201165708
-0.439578349085256,-0.353276017570268
-0.446126320004426,-0.34788247847349
-0.451759823628126,-0.353945622842102
-0.467191296289824,-0.331431137575885
-0.463960408197949,-0.354814821925309
-0.470067652967715,-0.355325130594086
-0.453024327326022,-0.374092872915585
-0.506719784853353,-0.409458768001036
-0.483773153633222,-0.363751207293943
-0.490333040649831,-0.357735542275721
-0.512217842675996,-0.355411669181079
-0.537456200744471,-0.350765354055475
-0.540121702992651,-0.364106675970469
-0.504300515276383,-0.369916282578587
-0.520423273643206,-0.365858678394376
-0.531374645202574,-0.363286343312113
-0.513305312715356,-0.362701815213613
-0.579589170731016,-0.328547906799819
-0.573403373708579,-0.35706660887634
-0.558700929259752,-0.349210990558446
-0.562170956029661,-0.369284587797132
-0.59396444195895,-0.401796054001451
-0.584674026914037,-0.375117234476543
-0.599982413941019,-0.389688660653106
-0.586866807600423,-0.37509093171024
-0.593048224979644,-0.376685354226696
-0.60406169733017,-0.366587642027385
-0.605419406551214,-0.380048015159565
-0.61160899972336,-0.381816942734304
-0.608643412860564,-0.365650424245151
-0.627434542874944,-0.354810222750033
-0.64162187378553,-0.379630557421738
-0.63639205975199,-0.389484673935771
-0.642593569043653,-0.391551334857582
-0.664725192287066,-0.418509601157927
-0.636558273166747,-0.359163816689858
-0.661210515039834,-0.398116178381089
-0.668447422546561,-0.401003975350945
-0.677346955175267,-0.418482911667136
-0.664873357262224,-0.384575604158091
-0.687749116950852,-0.431785073133001
-0.692275021498037,-0.410294461530317
-0.67656430639644,-0.415161338918964
-0.704711520941554,-0.415606722017335
-0.742232531299149,-0.442008082557495
-0.725993917187679,-0.451371785516219
-0.72337559327598,-0.424056170684791
-0.729599094858824,-0.427002314007111
-0.798116607573822,-0.434441469531775
-0.742048801170957,-0.433091158776482
-0.736262303153838,-0.412287290490644
-0.752727943076538,-0.444983872537173
-0.76072883585375,-0.442720989929815
-0.766956632098168,-0.44606472903072
-0.772931736191046,-0.477170834793693
-0.809619072328964,-0.477817848721066
-0.812445864180922,-0.451711750837332
-0.779362533336094,-0.450908373380648
-0.806846974211492,-0.454411871899979
-0.810542043733618,-0.510321069751609
-0.815825754924213,-0.462970107786397
-0.828778643315728,-0.445497732018646
