-0.789724734522598,-0.867438302490996
-0.952879148267026,0.264030913604237
-0.199994283540297,-0.0338306300326361
0.294204454666939,-0.313223433834069
0.788403192874175,-0.592616237635502
-0.00966389685460722,-0.180895451041406
0.275747795988098,0.350489984499841
