0.0604434994608021,-0.314539900950316
0.0621504830223041,-0.307592024421697
0.0638591384583343,-0.30068616950321
0.0655693828346581,-0.293822216500257
0.0672811332170409,-0.28700004571824
0.0689943066712481,-0.280219537462559
0.0707088202630453,-0.273480572038617
0.0724245910581979,-0.266783029751815
0.0741415361224712,-0.260126790907554
0.0758595725216309,-0.253511735811237
0.0775786173214423,-0.246937744768265
0.0792985875876708,-0.24040469808404
0.081019400386082,-0.233912476063963
0.0827409727824412,-0.227460959013435
0.0844632218425139,-0.221050027237859
0.0861860646320657,-0.214679561042636
0.0879094182168618,-0.208349440733168
0.0896331996626678,-0.202059546614856
0.091357326035249,-0.195809758993102
0.0930817144003711,-0.189599958173307
0.0948062818237993,-0.183430024460873
0.0965309453712992,-0.177299838161202
0.0982556221086363,-0.171209279579696
0.0999802291015758,-0.165158229021755
0.101704683415883,-0.159146566792782
0.103428902117324,-0.153174173198179
0.105152802271664,-0.147240928543346
0.106876300944669,-0.141346713133685
0.108599315202103,-0.135491407274598
0.110321762109732,-0.129674891271488
0.112043558733322,-0.123897045429754
0.113764622138638,-0.118157750054799
0.115484869391446,-0.112456885452025
0.117204217557511,-0.106794331926833
0.118922583702598,-0.101169969784624
0.120639884892473,-0.0955836793308011
0.122356038192902,-0.090035340870765
0.124070960669649,-0.0845248347099173
0.125784569388481,-0.0790520411536599
0.127496781415162,-0.0736168405073942
0.129207513815459,-0.068219113076522
0.130916683655136,-0.0628587391664448
0.13262420799996,-0.0575355990825642
0.134330003915694,-0.0522495731302818
0.136033988468106,-0.0470005416149994
0.137736078722961,-0.0417883848421184
0.139436191746023,-0.0366129831170405
0.141134244603058,-0.0314742167451673
0.142830154359832,-0.0263719660319004
0.144523838082111,-0.0213061112826415
0.146215212835659,-0.0162765328027921
0.147904195686242,-0.0112831108977539
0.149590703699626,-0.00632572587292847
0.151274653941576,-0.00140425803371745
0.152955963477857,0.00348141231447754
0.154634549374235,0.00833140486625498
0.156310328696476,0.0131458393162131
0.157983218510344,0.0179248353589504
0.159653135881606,0.0226685126890653
0.161319997876026,0.027376991001156
0.162983721559371,0.032050389989821
0.164644223997405,0.0366888293496587
0.166301422255894,0.0412924287752675
0.167955233400604,0.0458613079612458
0.1696055744973,0.0503955866021919
0.171252362611747,0.0548953843927042
0.17289551480971,0.0593608210273812
0.174534948156957,0.0637920162008211
0.176170579719251,0.0681890896076224
0.177802326562358,0.0725521609423835
0.179430105752043,0.0768813498997028
0.181053834354073,0.0811767761741786
0.182673429434213,0.0854385594604093
0.184288808058227,0.0896668194529933
0.185899887291882,0.093861675846529
0.187506584200943,0.0980232483356148
0.189108815851175,0.102151656614849
0.190706499308344,0.10624702037883
0.192299551638215,0.110309459322157
0.193887889906553,0.114339093139426
0.195471431179125,0.118336041525238
0.197050092521696,0.122300424174191
0.19862379100003,0.126232360780882
0.200192443679894,0.13013197103991
0.201755967627053,0.133999374645874
0.203314279907272,0.137834691293372
0.204867297586318,0.141638040677002
0.206414937729954,0.145409542491363
0.207957117403947,0.149149316431053
0.209493753674062,0.15285748219067
0.211024763606065,0.156534159464813
0.212550064265721,0.160179467948081
0.214069572718796,0.163793527335071
0.215583206031054,0.167376457320382
0.217090881268262,0.170928377598613
0.218592515496185,0.174449407864361
0.220088025780588,0.177939667812226
0.221577329187236,0.181399277136805
0.223060342781896,0.184828355532697
0.224536983630333,0.1882270226945
0.226007168798312,0.191595398316813
0.227470815351598,0.194933602094234
0.228927840355958,0.198241753721362
0.230378160877155,0.201519972892794
0.231821693980957,0.20476837930313
0.233258356733128,0.207987092646968
0.234688066199434,0.211176232618905
0.23611073944564,0.214335918913541
0.237526293537512,0.217466271225474
0.238934645540815,0.220567409249301
0.240335712521314,0.223639452679623
0.241729411544776,0.226682521211036
0.243115659676965,0.22969673453814
0.244494373983647,0.232682212355532
0.245865471530587,0.235639074357812
0.247228869383551,0.238567440239577
0.248584484608305,0.241467429695426
0.249932234270613,0.244339162419957
0.251272035436242,0.247182758107769
0.252603805170956,0.249998336453459
0.253927460540521,0.252786017151628
0.255242918610703,0.255545919896872
0.256550096447266,0.25827816438379
0.257848911115977,0.260982870306981
0.259139279682601,0.263660157361043
0.260421119212904,0.266310145240574
0.26169434677265,0.268932953640173
0.262958879427605,0.271528702254438
0.264214634243535,0.274097510777967
0.265461528286205,0.27663949890536
0.26669947862138,0.279154786331213
0.267928402314827,0.281643492750127
0.296788860538475,0.326629469746181
0.270358838039595,0.286541641345526
0.271560184202448,0.288951322911209
0.291319697912905,0.268073456958446
0.273934718457916,0.293692499051532
0.324152408039362,0.266194986165545
0.257911916113655,0.307804334871274
0.262858663052206,0.304551610378557
0.264851131094837,0.273911277527826
0.291252922296825,0.329631207991348
0.318550002241694,0.28484420554092
0.28194122051995,0.309478220069552
0.283045250855575,0.311632265606694
0.284139093470189,0.313761405861273
0.276252718175858,0.339433809219769
0.282834907593855,0.277537739872776
0.287358665645606,0.320000591875617
0.288410928033823,0.322031307945928
0.268465735905788,0.370454881924836
0.253539249601635,0.375523884925477
0.287851813588883,0.286938426790832
0.273882415560535,0.332636125141824
0.293511545407433,0.331822680045886
0.294498949429019,0.333709350677747
0.302827221320308,0.32424155756086
0.296440374545178,0.337412045710125
0.347312358392401,0.341464166776224
0.30767952996248,0.330568481460837
0.299267810888365,0.342791268099308
0.309200239811837,0.332444144295987
0.301095333330387,0.346262266022822
0.266183788457125,0.37037907115872
0.268651659039373,0.368358162627925
0.341712719593505,0.313871151103726
0.329173507325805,0.320112448449863
0.298619213055224,0.307823668182707
0.306294913867315,0.356133071305505
0.321541023809989,0.354507449764998
0.354350571818788,0.364824610892904
0.348516235840382,0.40401269770583
0.285032272408017,0.333136577910677
0.327179355619124,0.405115422061803
0.340700407043446,0.379925332356318
0.353350273624845,0.326580730313626
0.305592221684151,0.351356381295601
0.290962893521014,0.416419457363001
0.313977783699156,0.370834571891001
0.286006769963224,0.350272051195478
0.282858398795376,0.372349334205023
0.316004843404548,0.350573311381683
0.316691366369379,0.376125070573591
0.317336621317707,0.377396503788182
0.317968454109875,0.378647699809546
0.318586781811648,0.379878778332284
0.319191521488791,0.381089859050992
0.319782590207071,0.382281061660269
0.320359905032253,0.383452505854714
0.320923383030101,0.384604311328925
0.321472941266382,0.3857365977775
0.322008496806861,0.386849484895038
0.322529966717304,0.387943092376138
0.323037268063475,0.389017539915396
0.32353031791114,0.390072947207413
0.324009033326065,0.391109433946786
0.324473331374016,0.392127119828114
0.324923129120757,0.393126124545995
0.325358343632054,0.394106567795027
0.325778891973673,0.395068569269809
0.326184691211378,0.39601224866494
0.326575658410936,0.396937725675017
0.326951710638112,0.397845119994639
0.327312764958672,0.398734551318405
0.32765873843838,0.399606139340912
0.327989548143002,0.40046000375676
0.328305111138304,0.401296264260546
0.328605344490051,0.402115040546869
0.328890165264008,0.402916452310327
0.329159490525942,0.403700619245519
0.329413237341617,0.404467661047043
0.329651322776799,0.405217697409498
0.329873663897254,0.405950848027481
0.330080177768746,0.406667232595592
0.330270781457041,0.407366970808429
0.330445392027906,0.408050182360589
0.330603926547104,0.408716986946672
0.330746302080402,0.409367504261275
0.330872435693565,0.410001853998998
0.330982244452358,0.410620155854439
0.331075645422548,0.411222529522195
0.331152555669899,0.411809094696866
0.331212892260177,0.412379971073049
0.331256572259147,0.412935278345344
0.331283512732575,0.413475136208348
0.331293630746226,0.41399966435666
0.331286843365865,0.414508982484878
0.331263067657259,0.415003210287601
0.331222220686172,0.415482467459427
0.33116421951837,0.415946873694954
0.331088981219619,0.416396548688781
0.330996422855684,0.416831612135506
0.33088646149233,0.417252183729728
0.330759014195323,0.417658383166045
0.330613998030428,0.418050330139055
0.33045133006341,0.418428144343357
0.330270927360036,0.418791945473549
0.330072706986071,0.41914185322423
0.329856586007279,0.419477987289997
0.329622481489427,0.41980046736545
0.32937031049828,0.420109413145187
0.329099990099603,0.420404944323805
0.328811437359162,0.420687180595904
0.328504569342722,0.420956241656082
0.328179303116049,0.421212247198936
0.327835555744909,0.421455316919067
0.327473244295066,0.421685570511071
0.327092285832286,0.421903127669548
0.326692597422334,0.422108108089096
0.326274096130976,0.422300631464313
0.325836699023978,0.422480817489797
0.325380323167105,0.422648785860147
0.324904885626122,0.422804656269961
0.324410303466795,0.422948548413838
0.323896493754889,0.423080581986377
0.32336337355617,0.423200876682174
0.322810859936402,0.423309552195829
0.322238869961353,0.423406728221941
0.321647320696786,0.423492524455107
0.321036129208468,0.423567060589927
0.320405212562164,0.423630456320997
0.319754487823639,0.423682831342917
0.319083872058659,0.423724305350286
0.318393282332989,0.423754998037701
0.317682635712395,0.423775029099761
0.316951849262642,0.423784518231064
0.316200840049495,0.423783585126209
0.315429525138721,0.423772349479794
0.314637821596084,0.423750930986417
0.31382564648735,0.423719449340677
0.312992916878284,0.423678024237173
0.312139549834653,0.423626775370502
0.31126546242222,0.423565822435263
0.310370571706753,0.423495285126054
0.309454794754015,0.423415283137475
0.308518048629773,0.423325936164122
0.307560250399793,0.423227363900595
0.306581317129838,0.423119686041492
0.305581165885676,0.423003022281411
0.304559713733071,0.42287749231495
0.30351687773779,0.422743215836709
0.302452574965596,0.422600312541286
0.301366722482256,0.422448902123278
0.300259237353536,0.422289104277284
0.2991300366452,0.422121038697903
0.297979037423014,0.421944825079733
0.296806156752744,0.421760583117373
0.295611311700154,0.42156843250542
0.294394419331012,0.421368492938473
0.293155396711081,0.421160884111131
0.291894160906128,0.420945725717992
0.290610628981917,0.420723137453654
0.289304718004215,0.420493239012716
0.287976345038786,0.420256150089776
0.286625427151396,0.420011990379432
0.285251881407812,0.419760879576284
0.283855624873797,0.419502937374928
0.282436574615118,0.419238283469964
0.280994647697539,0.41896703755599
0.279529761186827,0.418689319327605
0.278041832148747,0.418405248479406
0.276530777649065,0.418114944705993
0.274996514753545,0.417818527701963
0.273438960527953,0.417516117161915
0.271858032038055,0.417207832780447
0.270253646349616,0.416893794252158
0.268625720528401,0.416574121271646
0.266974171640177,0.41624893353351
0.265298916750708,0.415918350732347
0.263599872925759,0.415582492562757
0.261876957231098,0.415241478719337
0.260130086732488,0.414895428896686
0.258359178495695,0.414544462789403
0.256564149586485,0.414188700092086
0.254744917070623,0.413828260499332
0.252901398013874,0.413463263705742
0.251033509482005,0.413093829405912
0.24914116854078,0.412720077294441
0.247224292255965,0.412342127065929
0.245282797693326,0.411960098414972
0.243316601918627,0.41157411103617
0.241325621997635,0.411184284624121
0.239309774996114,0.410790738873423
0.23726897797983,0.410393593478675
0.23520314801455,0.409992968134474
0.233112202166037,0.40958898253542
0.230996057500058,0.409181756376111
0.228854631082377,0.408771409351145
0.226687839978761,0.408358061155121
0.224495601254975,0.407941831482637
0.222277831976785,0.407522840028291
0.220034449209955,0.407101206486681
0.217765370020251,0.406677050552407
0.215470511473439,0.406250491920066
0.213149790635284,0.405821650284258
0.210803124571552,0.405390645339579
0.208430430348007,0.404957596780629
0.206031625030416,0.404522624302006
0.203606625684544,0.404085847598309
0.201155349376157,0.403647386364135
0.198677713171019,0.403207360294084
0.196173634134896,0.402765889082753
0.193643029333554,0.402323092424741
0.191085815832759,0.401879090014647
0.188501910698275,0.401434001547068
0.185891230995867,0.400987946716603
0.183253693791303,0.400541045217851
0.180589216150346,0.40009341674541
0.177897715138763,0.399645180993878
0.175179107822319,0.399196457657854
0.172433311266779,0.398747366431936
0.169660242537908,0.398298027010722
0.166859818701473,0.397848559088811
0.164031956823238,0.397399082360801
0.16117657396897,0.396949716521291
0.158293587204433,0.396500581264879
0.155382913595393,0.396051796286163
0.152444470207616,0.395603481279742
0.149478174106866,0.395155755940214
0.14648394235891,0.394708739962177
0.143461692029512,0.394262553040231
0.140411340184439,0.393817314868972
0.137332803889456,0.393373145143001
0.134226000210327,0.392930163556914
0.131090846212819,0.392488489805311
0.127927258962697,0.39204824358279
0.124735155525727,0.391609544583949
0.121514452967674,0.391172512503386
0.118265068354303,0.390737267035701
0.114986918751379,0.390303927875491
0.111679921224669,0.389872614717355
0.108343992839938,0.38944344725589
0.104979050662951,0.389016545185697
0.101585011759473,0.388592028201372
0.098161793195271,0.388170015997515
0.0947093120361091,0.387750628268723
0.0912274853477532,0.387333984709595
0.0877162301959686,0.38692020501473
0.0841754636465209,0.386509408878726
0.0806051027651755,0.38610171599618
0.0770050646176979,0.385697246061693
0.0733752662698534,0.385296118769861
0.0697156247874078,0.384898453815284
0.066026057236126,0.38450437089256
0.062306480681774,0.384113989696286
0.0585568121901168,0.383727429921063
0.0547769688269202,0.383344811261487
0.0509668676579493,0.382966253412157
0.04712642574897,0.382591876067672
0.0432555601657473,0.382221798922631
0.039354187974047,0.38185614167163
0.0354222262396342,0.38149502400927
0.0314595920282748,0.381138565630148
0.0274662024057337,0.380786886228862
0.0234419744377769,0.380440105500012
0.0193868251901693,0.380098343138195
0.0153006717286769,0.379761718838009
0.0111834311190647,0.379430352294054
0.00703502042709852,0.379104363200927
0.00285535671854342,0.378783871253227
