-0.907424001275296,-0.123783940816011
0.323856499918289,-0.521082649176373
0.0157127954520944,-0.0651895076254219
0.531318364537171,0.105615164753022
1.04692393362225,0.276419837131467
0.752431181079501,0.0922013765719354
0.80919135670722,-0.64154755010002
