0.191546729554842,0.381010844437546
0.908550934315718,0.0778336967233579
-0.753674458965141,-0.517153058525624
-0.757488478593634,-0.018292160186363
-0.761302498222126,0.480568738152898
-0.737863123641636,-0.333707417300133
0.478374710560227,-0.500456584843077
