0.328895189685325,0.240313272311271
0.325941675274568,0.24488744809796
0.323021055857803,0.249385224011622
0.320133143134418,0.25380703483567
0.317277748803799,0.258153315353519
0.314454684565334,0.262424500348583
0.311663762118409,0.266621024604276
0.308904793162411,0.270743322904013
0.306177589396727,0.274791830031208
0.303481962520745,0.278766980769276
0.30081772423385,0.28266920990163
0.298184686235429,0.286498952211685
0.295582660224871,0.290256642482856
0.293011457901561,0.293942715498556
0.290470890964886,0.2975576060422
0.287960771114233,0.301101748897203
0.28548091004899,0.304575578846978
0.283031119468543,0.30797953067494
0.280611211072278,0.311314039164504
0.278220996559584,0.314579539099083
0.275860287629846,0.317776465262092
0.273528895982452,0.320905252436945
0.271226633316788,0.323966335407057
0.268953311332241,0.326960148955842
0.266708741728199,0.329887127866714
0.264492736204048,0.332747706923088
0.262305106459175,0.335542320908377
0.260145664192967,0.338271404605996
0.25801422110481,0.34093539279936
0.255910588894093,0.343534720271883
0.2538345792602,0.346069821806979
0.251786003902521,0.348541132188063
0.249764674520441,0.350949086198548
0.247770402813346,0.35329411862185
0.245803000480625,0.355576664241381
0.243862279221664,0.357797157840558
0.24194805073585,0.359956034202794
0.24006012672257,0.362053728111503
0.23819831888121,0.364090674350099
0.236362438911158,0.366067307701998
0.234552298511801,0.367984062950613
0.232767709382524,0.369841374879359
0.231008483222716,0.37163967827165
0.229274431731763,0.3733794079109
0.227565366609052,0.375060998580524
0.22588109955397,0.376684885063936
0.224221442265903,0.37825150214455
0.22258620644424,0.379761284605781
0.220975203788365,0.381214667231042
0.219388245997667,0.382612084803749
0.217825144771533,0.383953972107316
0.216285711809349,0.385240763925156
0.214769758810501,0.386472895040685
0.213277097474378,0.387650800237316
0.211807539500366,0.388774914298464
0.210360896587851,0.389845672007543
0.208936980436221,0.390863508147968
0.207535602744862,0.391828857503152
0.206156575213162,0.392742154856511
0.204799709540507,0.393603834991458
0.203464817426284,0.394414332691408
0.202151710569881,0.395174082739775
0.200860200670683,0.395883519919974
0.199590099428078,0.396543079015418
0.198341218541453,0.397153194809522
0.197113369710194,0.397714302085701
0.195906364633689,0.398226835627368
0.194720015011325,0.398691230217939
0.193554132542487,0.399107920640827
0.192408528926564,0.399477341679446
0.191283015862942,0.399799928117212
0.190177405051008,0.400076114737537
0.189091508190148,0.400306336323838
0.18802513697975,0.400491027659528
0.186978103119201,0.40063062352802
0.185950218307887,0.400725558712731
0.184941294245196,0.400776267997073
0.183951142630514,0.400783186164462
0.182979575163228,0.400746747998311
0.182026403542725,0.400667388282035
0.181091439468392,0.400545541799049
0.180174494639616,0.400381643332765
0.179275380755783,0.4001761276666
0.178393909516281,0.399929429583967
0.177529892620497,0.399641983868281
0.176683141767817,0.399314225302955
0.175853468657628,0.398946588671404
0.175040684989317,0.398539508757043
0.174244602462271,0.398093420343286
0.173465032775877,0.397608758213547
0.172701787629522,0.39708595715124
0.171954678722593,0.39652545193978
0.171223517754476,0.395927677362581
0.170508116424558,0.395293068203058
0.169808286432227,0.394622059244624
0.169123839476869,0.393915085270694
0.168454587257871,0.393172581064683
0.167800341474621,0.392394981410005
0.167160913826504,0.391582721090073
0.166536116012907,0.390736234888303
0.165925759733219,0.389855957588108
0.165329656686825,0.388942323972903
0.164747618573112,0.387995768826103
0.164179457091468,0.387016726931121
0.163624983941279,0.386005633071372
0.163084010821932,0.384962922030271
0.162556349432814,0.383889028591231
0.162041811473311,0.382784387537667
0.161540208642812,0.381649433652993
0.161051352640702,0.380484601720624
0.160575055166369,0.379290326523974
0.160111127919199,0.378067042846456
0.159659382598579,0.376815185471487
0.159219630903897,0.375535189182479
0.158791684534538,0.374227488762847
0.158375355189891,0.372892518996006
0.157970454569341,0.37153071466537
0.157576794372277,0.370142510554353
0.157194186298083,0.368728341446369
0.156822442046148,0.367288642124833
0.156461373315859,0.365823847373159
0.156110791806602,0.364334391974762
0.155770509217764,0.362820710713055
0.155440337248732,0.361283238371453
0.155120087598893,0.359722409733371
0.154809571967634,0.358138659582222
0.154508602054342,0.356532422701421
0.154216989558403,0.354904133874383
0.153934546179204,0.353254227884521
0.153661083616133,0.351583139515251
0.153396413568577,0.349891303549985
0.153140347735921,0.34817915477214
0.152892697817553,0.346447127965128
0.152653275512861,0.344695657912365
0.15242189252123,0.342925179397264
0.152198360542048,0.341136127203239
0.151982491274701,0.339328936113707
0.151774096418577,0.33750404091208
0.151572987673062,0.335661876381772
0.151378976737543,0.333802877306199
0.151191875311408,0.331927478468775
0.151011495094043,0.330036114652913
0.150837647784834,0.328129220642028
0.150670145083169,0.326207231219535
0.150508798688435,0.324270581168848
0.150353420300019,0.322319705273381
0.150203821617307,0.320355038316548
0.150059814339686,0.318377015081764
0.149921210166543,0.316386070352443
0.149787820797266,0.314382638912
0.14965945793124,0.312367155543848
0.149535933267854,0.310340055031402
0.149417058506493,0.308301772158077
0.149302645346545,0.306252741707287
0.149192505487396,0.304193398462445
0.149086450628434,0.302124177206967
0.148984292469045,0.300045512724266
0.148885842708617,0.297957839797758
0.148790913046535,0.295861593210856
0.148699315182187,0.293757207746974
0.148610860814961,0.291645118189528
0.148525361644242,0.28952575932193
0.148442629369417,0.287399565927596
0.148362475689874,0.285266972789941
0.148284712305,0.283128414692377
0.148209150914181,0.28098432641832
0.148135603216804,0.278835142751184
0.148063880912256,0.276681298474383
0.147993795699924,0.274523228371331
0.147925159279195,0.272361367225444
0.147857783349455,0.270196149820134
0.147791479610092,0.268028010938818
0.147726059760493,0.265857385364908
0.147661335500044,0.263684707881819
0.147597118528133,0.261510413272965
0.147533220544145,0.259334936321761
0.147469453247469,0.257158711811622
0.14740562833749,0.254982174525961
0.147341557513597,0.252805759248192
0.147277052475175,0.250629900761731
0.147211924921611,0.248455033849991
0.147145986552294,0.246281593296386
0.147079049066608,0.244110013884332
0.147010924163942,0.241940730397242
0.146941423543682,0.239774177618531
0.146870358905215,0.237610790331613
0.146797541947928,0.235451003319902
0.146722784371207,0.233295251366812
0.146645897874441,0.231143969255759
0.146566694157015,0.228997591770156
0.146484984918316,0.226856553693417
0.146400581857732,0.224721289808958
0.146313296674649,0.222592234900192
0.146222941068454,0.220469823750533
0.146129326738534,0.218354491143396
0.146032265384276,0.216246671862195
0.145931568705067,0.214146800690345
0.145827048400293,0.21205531241126
0.145718516169342,0.209972641808354
0.145605783711601,0.207899223665041
0.145488662726456,0.205835492764737
0.145366964913294,0.203781883890854
0.145240501971502,0.201738831826808
0.145109085600467,0.199706771356012
0.144972527499576,0.197686137261882
0.144830639368216,0.195677364327831
0.144683232905773,0.193680887337274
0.144530119811635,0.191697141073625
0.144371111785189,0.189726560320299
0.144206020525821,0.187769579860709
0.144034657732917,0.18582663447827
0.143856835105866,0.183898158956396
0.143672364344055,0.181984588078502
0.143481057146868,0.180086356628003
0.143282725213695,0.178203899388311
0.143077180243921,0.176337651142842
0.142864233936934,0.17448804667501
0.14264369799212,0.172655520768229
0.142415384108867,0.170840508205914
0.14217910398656,0.169043443771479
0.141934669324588,0.167264762248339
0.141681891822337,0.165504898419906
0.141420583179193,0.163764287069597
0.141150555094545,0.162043362980825
0.140871619267778,0.160342560937004
0.140583587398279,0.158662315721549
0.140286271185436,0.157003062117875
0.139979482328635,0.155365234909394
0.139663032527263,0.153749268879523
0.139336733480707,0.152155598811675
0.139000396888355,0.150584659489264
0.138653834449592,0.149036885695706
0.138296857863805,0.147512712214413
0.137929278830383,0.1460125738288
0.137550909048711,0.144536905322283
0.137161560218176,0.143086141478274
0.136761044038165,0.141660717080189
0.136349172208066,0.140261066911442
0.135925756427265,0.138887625755446
0.135490608395148,0.137540828395617
0.135043539811104,0.136221109615369
0.134584362374518,0.134928904198116
0.134112887784778,0.133664646927272
0.13362892774127,0.132428772586251
0.133132293943381,0.131221715958469
0.132622798090499,0.130043911827339
0.13210025188201,0.128895794976275
0.131564467017301,0.127777800188693
0.131015255195759,0.126690362248006
0.13045242811677,0.125633915937628
0.129875797479722,0.124608896040974
0.129285174984002,0.123615737341458
0.128680372328996,0.122654874622495
0.128061201214092,0.121726742667499
0.127427473338676,0.120831776259884
0.126779000402135,0.119970410183065
0.126115594103856,0.119143079220455
0.125437066143226,0.118350218155469
0.124743228219631,0.117592261771522
0.124033892032459,0.116869644852028
0.123308869281097,0.116182802180401
0.122567971664932,0.115532168540055
0.121811010883349,0.114918178714405
0.121037798635737,0.114341267486865
0.120248146621482,0.11380186964085
0.119441866539971,0.113300419959773
0.11861877009059,0.112837353227049
0.117778668972728,0.112413104226093
0.11692137488577,0.112028107740319
0.116046699529103,0.11168279855314
0.115154454602116,0.111377611447972
0.114244451804193,0.111112981208228
0.113316502834722,0.110889342617323
0.112370419393091,0.110707130458672
0.111406013178686,0.110566779515688
0.110423095890893,0.110468724571786
0.1094214792291,0.110413400410381
0.108400974892694,0.110401241814886
0.107361394581061,0.110432683568715
0.106302549993589,0.110508160455285
0.105224252829664,0.110628107258007
0.104126314788673,0.110792958760298
0.103008547570003,0.111003149745571
0.101870762873041,0.11125911499724
0.100712772397174,0.11156128929872
0.0995343878417889,0.111910107433425
0.0983354209062722,0.11230600418477
0.0971156832900109,0.112749414336168
0.0958749866923921,0.113240772671035
0.0946131428128025,0.113780513972784
0.093329963350629,0.11436907302483
0.0920252600052586,0.115006884610587
0.0906988444760782,0.115694383513469
0.0893505284624745,0.116432004516891
0.0879801236638346,0.117220182404267
0.0865874417795452,0.118059351959012
0.0851722945089933,0.118949947964539
0.0837344935515657,0.119892405204263
0.0822738506066494,0.120887158461598
0.0807901773736312,0.12193464251996
0.0792832855518981,0.123035292162761
0.0777529868408368,0.124189542173416
0.0761990929398344,0.12539782733534
0.0746214155482776,0.126660582431947
0.0730197663655535,0.127978242246651
0.0713939570910487,0.129351241562867
0.0697437994241503,0.130780015164009
0.0680691050642451,0.132264997833491
0.0663696857107201,0.133806624354727
0.064645353062962,0.135405329511133
0.0628959188203579,0.137061548086121
0.0611211946822944,0.138775714863108
0.0593209923481587,0.140548264625506
0.0574951235173375,0.14237963215673
0.0556433998892178,0.144270252240194
0.0537656331631863,0.146220559659314
0.0518616350386302,0.148230989197502
0.049931217214936,0.150301975638174
0.0479741913914909,0.152433953764744
0.0459903692676816,0.154627358360626
0.0439795625428951,0.156882624209234
0.0419415829165182,0.159200186093983
0.0398762420879379,0.161580478798287
0.037783351756541,0.16402393710556
0.0356627236217144,0.166530995799217
0.0335141693828449,0.169102089662673
0.0313375007393196,0.17173765347934
0.0291325293905252,0.174438122032634
0.0268990670358488,0.177203930105969
0.0246369253746769,0.18003551248276
0.0223459161063968,0.18293330394642
0.0200258509303951,0.185897739280364
0.0176765415460589,0.188929253268006
0.0152977996527749,0.192028280692761
0.0128894369499302,0.195195256338042
0.0104512651369114,0.198430614987265
0.00798309591310566,0.201734791423844
0.00548474097789965,0.205108220431192
0.00295601203068047,0.208551336792725
0.000396720770834795,0.212064575291856
-0.00219332110225028,0.215648370712
-0.00481430188918808,0.219303157836571
-0.00746640989059148,0.223029371448984
-0.0101498334070738,0.226827446332652
-0.0128647607392481,0.230697817270991
-0.0156113801877275,0.234640919047414
-0.018389880053125,0.238657186445336
-0.0212004486360539,0.24274705424817
-0.024043274237127,0.246910957239333
-0.0269185451569579,0.251149330202237
-0.0298264496961592,0.255462607920297
-0.0327671761553444,0.259851225176927
-0.0357409128351264,0.264315616755542
-0.0387478480361184,0.268856217439557
-0.0417881700589335,0.273473462012384
-0.0448620672041848,0.27816778525744
-0.0479697277724853,0.282939621958137
-0.0511113400644484,0.28778940689789
-0.0542870923806869,0.292717574860114
-0.0574971730218142,0.297724560628223
-0.0607417702884432,0.302810798985632
-0.0640210724811871,0.307976724715754
-0.0673352679006589,0.313222772602004
-0.0706845448474719,0.318549377427796
-0.0740690916222391,0.323956973976544
-0.0774890965255737,0.329445997031664
-0.0809447478580886,0.335016881376569
-0.0844362339203972,0.340670061794673
-0.0879637430131124,0.346405973069391
-0.0915274634368475,0.352225049984137
-0.0951275834922153,0.358127727322326
-0.0987642914798293,0.364114439867372
-0.102437775700302,0.370185622402688
-0.106148224454248,0.376341709711691
-0.109895826042278,0.382583136577793
-0.113680768765007,0.388910337784409
-0.117503240923048,0.395323748114953
-0.121363430817013,0.401823802352841
-0.125261526747516,0.408410935281485
-0.129197717015171,0.415085581684301
-0.133172189920589,0.421848176344702
-0.137185133764384,0.428699154046103
-0.141236736847169,0.435638949571919
-0.145327187469558,0.442667997705564
-0.149456673932164,0.449786733230451
-0.153625384535599,0.456995590929996
-0.157833507580476,0.464295005587612
-0.16208123136741,0.471685411986714
-0.166368744197012,0.479167244910717
-0.170696234369897,0.486740939143034
-0.175063890186676,0.49440692946708
-0.179471899947965,0.50216565066627
-0.183920451954374,0.510017537524017
-0.188409734506518,0.517963024823735
-0.192939935905009,0.52600254734884
-0.197511244450461,0.534136539882746
-0.202123848443487,0.542365437208866
-0.2067779361847,0.550689674110616
-0.211473695974713,0.559109685371409
-0.216211316114139,0.56762590577466
