-0.773142883596572,0.131439522526684
-0.769584941085034,0.127536115797814
-0.766004646280195,0.123654265739547
-0.762402291921935,0.119793882746646
-0.758778170750137,0.115954877213875
-0.75513257550468,0.112137159535995
-0.751465798925447,0.108340640107769
-0.747778133752318,0.104565229323961
-0.744069872725175,0.100810837579332
-0.740341308583898,0.0970773752686457
-0.73659273406837,0.0933647527866648
-0.73282444191847,0.0896728805281518
-0.72903672487408,0.0860016688878695
-0.725229875675081,0.0823510282605805
-0.721404187061354,0.0787208690410476
-0.717559951772782,0.0751111016240334
-0.713697462549243,0.0715216364043008
-0.709817012130621,0.0679523837766124
-0.705918893256795,0.0644032541357308
-0.702003398667647,0.0608741578764188
-0.698070821103058,0.0573650053934391
-0.694121453302909,0.0538757070815545
-0.690155588007082,0.0504061733355275
-0.686173517955457,0.046956314550121
-0.682175535887916,0.0435260411200977
-0.67816193454434,0.0401152634402202
-0.674133006664609,0.0367238919052513
-0.670089044988606,0.0333518369099536
-0.666030342256211,0.0299990088490899
-0.661957191207305,0.0266653181174229
-0.657869884581769,0.0233506751097153
-0.653768715119485,0.0200549902207298
-0.649653975560334,0.0167781738452291
-0.645525958644196,0.0135201363779759
-0.641384957110953,0.0102807882137329
-0.637231263700487,0.0070600397472628
-0.633065171152678,0.0038578013733284
-0.628886972207407,0.000673983486692328
-0.624696959604555,-0.00249150351788271
-0.620495426084004,-0.00563874924563398
-0.616282664385635,-0.00876784330179878
-0.612058967249329,-0.0118788752916144
-0.607824627414967,-0.0149719348203181
-0.603579937622429,-0.0180471114931473
-0.599325190611599,-0.0211044949153391
-0.595060679122355,-0.0241441746921309
-0.59078669589458,-0.02716624042876
-0.586503533668155,-0.0301707817304637
-0.582211485182961,-0.0331578882024793
-0.577910843178878,-0.036127649450044
-0.573601900395788,-0.0390801550783952
-0.569284949573573,-0.0420154946927701
-0.564960283452113,-0.0449337578984061
-0.56062819477129,-0.0478350343005404
-0.556288976270984,-0.0507194135044103
-0.551942920691076,-0.0535869851152531
-0.547590320771449,-0.0564378387383061
-0.543231469251983,-0.0592720639788067
-0.538866658872558,-0.062089750441992
-0.534496182373057,-0.0648909877330994
-0.530120332493361,-0.0676758654573662
-0.52573940197335,-0.0704444732200296
-0.521353683552905,-0.073196900626327
-0.516963469971908,-0.0759332372814956
-0.51256905397024,-0.0786535727907729
-0.508170728287783,-0.0813579967593959
-0.503768785664416,-0.0840465987926021
-0.499363518840022,-0.0867194684956286
-0.494955220554481,-0.0893766954737129
-0.490544183547675,-0.0920183693320922
-0.486130700559484,-0.0946445796760038
-0.48171506432979,-0.0972554161106849
-0.477297567598474,-0.099850968241373
-0.472878503105418,-0.102431325673305
-0.468458163590501,-0.104996578011719
-0.464036841793606,-0.107546814861851
-0.459614830454614,-0.11008212582894
-0.455192422313405,-0.112602600518222
-0.45076991010986,-0.115108328534934
-0.446347586583862,-0.117599399484315
-0.441925744475291,-0.1200759029716
-0.437504676524028,-0.122537928602028
-0.433084675469954,-0.124985565980836
-0.42866603405295,-0.127418904713261
-0.424249045012898,-0.129838034404541
-0.419834001089679,-0.132243044659912
-0.415421195023174,-0.134634025084612
-0.411010919553263,-0.137011065283878
-0.406603467419829,-0.139374254862948
-0.402199131362752,-0.141723683427059
-0.397798204121913,-0.144059440581447
-0.393400978437193,-0.146381615931352
-0.389007747048475,-0.148690299082009
-0.384618802695638,-0.150985579638656
-0.380234438118564,-0.15326754720653
-0.375854946057133,-0.155536291390869
-0.371480619251228,-0.15779190179691
-0.36711175044073,-0.16003446802989
-0.362748632365518,-0.162264079695046
-0.358391557765475,-0.164480826397616
-0.354040819380482,-0.166684797742838
-0.34969670995042,-0.168876083335947
-0.34535952221517,-0.171054772782183
-0.341029548914612,-0.173220955686781
-0.336707082788629,-0.175374721654979
-0.332392416577101,-0.177516160292015
-0.32808584301991,-0.179645361203126
-0.323787654856936,-0.181762413993549
-0.319498144828061,-0.183867408268521
-0.315217605673166,-0.18596043363328
-0.220397996828111,-0.0940330503777765
-0.423165459412362,-0.0933281795314065
-0.30243274085117,-0.19216859231865
-0.298191012591006,-0.194214638094929
-0.384619392649681,-0.300621926037098
-0.387354752089856,-0.290952899874966
-0.386897366990275,-0.30175546928251
-0.168671542437935,-0.32162816733891
-0.277144744688589,-0.204273845820665
-0.16528560873275,-0.319389672447627
-0.268807476257992,-0.208219391669416
-0.147083770504918,-0.0932510513938947
-0.260520142837609,-0.212121362928703
-0.369448215060853,-0.103129142602122
-0.35311522347384,-0.114604896651396
-0.141803283248757,-0.109040191318012
-0.338129695020751,-0.127574751704306
-0.358973290328654,-0.337071147872758
-0.347368567082478,-0.129460703773985
-0.231941525527974,-0.225445461849094
-0.227916997639197,-0.227307838909188
-0.314834453546444,-0.333815079892244
-0.107558695821676,-0.33813919049487
-0.331392774879852,-0.116389840767107
-0.328945862226754,-0.347602375820083
-0.113978374387299,-0.334154219437628
-0.316383763252218,-0.144390592167822
-0.092786554556299,-0.122825816179724
-0.196300166128128,-0.241854468810128
-0.079670301675908,-0.129142868839935
-0.288161020671451,-0.353766732709245
-0.184728729626575,-0.247153858452895
-0.18090845638633,-0.248902178318735
-0.177107107176023,-0.25064157585243
-0.173324974735536,-0.252372140659218
-0.169562351804749,-0.254093962344334
-0.165819531123544,-0.255807130513017
-0.162096805431802,-0.257511734770503
-0.158394467469404,-0.259207864722031
-0.154712809976232,-0.260895609972837
-0.151052125692165,-0.262575060128159
-0.147412707357086,-0.264246304793233
-0.143794847710875,-0.265909433573298
-0.140198839493414,-0.267564536073591
-0.136624975444584,-0.269211701899348
-0.133073548304266,-0.270851020655807
-0.129544850812341,-0.272482581948206
-0.12603917570869,-0.274106475381782
-0.122556815733194,-0.275722790561771
-0.119098063625735,-0.277331617093412
-0.115663212126193,-0.278933044581942
-0.11225255397445,-0.280527162632597
-0.108866381910387,-0.282114060850616
-0.105504988673885,-0.283693828841234
-0.102168667004825,-0.285266556209691
-0.0988577096430886,-0.286832332561223
-0.0955724093285563,-0.288391247501067
-0.0923130588011094,-0.289943390634461
-0.0890799508006293,-0.291488851566641
-0.085873378066997,-0.293027719902846
-0.0826936333400935,-0.294560085248313
-0.0795410093598,-0.296086037208278
-0.0764157988659978,-0.297605665387979
-0.0733182945985679,-0.299119059392654
-0.0702487892973914,-0.300626308827539
-0.0672075757023494,-0.302127503297872
-0.0641949465533232,-0.303622732408891
-0.0612111945901939,-0.305112085765832
-0.0582566125528424,-0.306595652973933
-0.05533149318115,-0.308073523638431
-0.0524361292149979,-0.309545787364564
-0.0495708133942672,-0.311012533757568
-0.046735838458839,-0.312473852422681
-0.0439314971485943,-0.313929832965141
-0.0411580822034145,-0.315380564990184
-0.0384158863631806,-0.316826138103048
-0.0357052023677736,-0.31826664190897
-0.0330263229570747,-0.319702166013188
-0.0303795408709653,-0.321132800020938
-0.0277651488493262,-0.322558633537459
-0.0251834396320386,-0.323979756167987
-0.0226347059589838,-0.325396257517759
-0.0201192405700428,-0.326808227192014
-0.0176373362050967,-0.328215754795987
-0.0151892856040267,-0.329618929934918
-0.0127753815067139,-0.331017842214042
-0.0103959166530394,-0.332412581238597
-0.00805118378288448,-0.33380323661382
-0.00574147563613009,-0.335189897944949
-0.00346708495265742,-0.336572654837222
-0.00122830447234773,-0.337951596895874
0.000974573064918077,-0.339326813726144
0.00314125491925869,-0.340698394933269
0.00527144835079305,-0.342066430122486
0.00736486061963994,-0.343431008899032
0.00942119898591839,-0.344792220868146
0.0114401707097471,-0.346150155635063
0.0134214830512451,-0.347504902805021
0.015364843270531,-0.348856551983259
0.017269958627724,-0.350205192775012
0.0191365363829428,-0.351550914785518
0.0209642837963063,-0.352893807620015
0.0227529081279332,-0.354233960883739
0.0245021166379427,-0.355571464181929
0.0262116165864533,-0.356906407119821
0.0278811152335841,-0.358238879302652
0.0295103198394539,-0.359568970335661
0.0310989376641817,-0.360896769824084
0.0326466759678861,-0.362222367373158
0.0341532420106862,-0.363545852588121
0.0356183430527007,-0.36486731507421
0.0370416863540487,-0.366186844436663
0.0384229791748488,-0.367504530280716
0.0397619287752201,-0.368820462211608
0.0410582424152812,-0.370134729834574
0.0423116273551512,-0.371447422754853
0.0435217908549489,-0.372758630577682
0.0446884401747932,-0.374068442908299
0.0458112825748029,-0.375376949351939
0.0468900253150969,-0.376684239513842
0.0479243756557941,-0.377990402999243
0.0489140408570132,-0.379295529413381
0.0498587281788734,-0.380599708361492
0.0507581448814932,-0.381903029448815
0.0516119982249917,-0.383205582280585
0.0524199954694877,-0.384507456462041
0.0531818438751001,-0.38580874159842
0.0538972507019477,-0.387109527294959
0.0545659232101494,-0.388409903156895
0.0551875686598241,-0.389709958789466
0.0557618943110907,-0.391009783797909
0.0562886074240679,-0.392309467787461
0.0567674152588747,-0.39360910036336
0.05719802507563,-0.394908771130842
0.0575801441344526,-0.396208569695146
0.0579134796954614,-0.397508585661508
0.0581977390187753,-0.398808908635166
0.058432629364513,-0.400109628221356
0.0586178579927936,-0.401410834025317
0.0587531321637357,-0.402712615652286
0.0588381591374585,-0.4040150627075
0.0588726461740806,-0.405318264796195
0.0588563005337209,-0.40662231152361
0.0587888294764984,-0.407927292494982
0.0586699402625319,-0.409233297315548
0.0584993401519403,-0.410540415590546
0.0582767364048424,-0.411848736925211
0.058001836281357,-0.413158350924783
0.0576743470416032,-0.414469347194498
0.0572939759456997,-0.415781815339594
0.0568604302537653,-0.417095844965307
0.0563734172259191,-0.418411525676876
0.0558326441222798,-0.419728947079537
0.0552378182029663,-0.421048198778527
0.0545886467280975,-0.422369370379085
0.0538848369577922,-0.423692551486446
0.0531260961521693,-0.42501783170585
0.0523121315713477,-0.426345300642532
0.0514426504754463,-0.42767504790173
0.0505173601245838,-0.429007163088682
0.0495359677788793,-0.430341735808624
0.0484981806984514,-0.431678855666795
0.0474037061434193,-0.43301861226843
0.0462522513739016,-0.434361095218769
0.0450435236500172,-0.435706394123047
0.0437772302318851,-0.437054598586502
0.0424530783796241,-0.438405798214372
0.0410707753533529,-0.439760082611894
0.0396300284131907,-0.441117541384305
0.0381305448192561,-0.442478264136842
0.0365720318316681,-0.443842340474742
0.0349541967105455,-0.445209860003244
0.0332767467160073,-0.446580912327584
0.0315393891081721,-0.447955587052999
0.029741831147159,-0.449333973784727
0.0278837800930868,-0.450716162128006
0.0259649432060744,-0.452102241688071
0.0239850277462406,-0.453492302070162
0.0219437409737044,-0.454886432879514
0.0198407901485844,-0.456284723721366
0.0176758825309998,-0.457687264200954
0.0154487253810692,-0.459094143923516
0.0131590259589116,-0.460505452494289
0.0108064915246459,-0.461921279518511
0.00839082933839089,-0.463341714601418
0.00591174666026535,-0.464766847348248
0.00336895075038843,-0.466196767364239
0.000762148868878681,-0.467631564254628
-0.00190895172414479,-0.469071327624651
-0.00464464376856326,-0.470516147079546
-0.00744522000425778,-0.471966112224551
-0.0103109731711096,-0.473421312664903
-0.0132421960089996,-0.474881838005838
-0.0162391812578093,-0.476347777852595
-0.0193022216574193,-0.477819221810411
-0.0224316099477113,-0.479296259484523
-0.0256276388685661,-0.480778980480168
-0.0288906011598649,-0.482267474402583
-0.0322207895614889,-0.483761830857007
-0.0356184968133191,-0.485262139448675
-0.0390840156552367,-0.486768489782826
-0.0426176388271229,-0.488280971464696
-0.0462196590688586,-0.489799674099524
-0.0498903691203254,-0.491324687292546
-0.0536300617214038,-0.492856100648999
-0.0574390296119755,-0.494394003774121
-0.0613175655319213,-0.495938486273149
-0.0652659622211224,-0.497489637751321
-0.06928451241946,-0.499047547813874
-0.0733735088668152,-0.500612306066044
-0.077533244303069,-0.50218400211307
-0.0817640114681029,-0.503762725560189
-0.0860661031017975,-0.505348566012637
-0.0904398119440345,-0.506941613075653
-0.0948854307346945,-0.508541956354473
-0.0994032522136591,-0.510149685454335
-0.103993569120809,-0.511764889980476
-0.108656674196026,-0.513387659538133
-0.11339286017919,-0.515018083732545
-0.118202419810184,-0.516656252168947
-0.123085645828887,-0.518302254452577
-0.128042830975182,-0.519956180188673
-0.133074267988948,-0.521618118982471
-0.138180249610069,-0.52328816043921
-0.143361068578424,-0.524966394164126
-0.148617017633894,-0.526652909762457
-0.153948389516362,-0.52834779683944
-0.159355476965707,-0.530051145000312
-0.164838572721812,-0.531763043850311
-0.170397969524556,-0.533483582994674
-0.176033960113822,-0.535212852038637
-0.221700745968747,-0.52247463449638
-0.187536893611443,-0.538697938246318
-0.224310062835261,-0.50913219216904
-0.192348630150462,-0.503870812805532
-0.209383593776513,-0.49511994456011
-0.165324790053246,-0.556443631200176
-0.217655110411299,-0.547569699375149
-0.223914389928456,-0.549372033404465
-0.230252897891066,-0.551183903780518
-0.190910375584041,-0.59558183676103
-0.227314320364964,-0.561730408716576
-0.249746719850414,-0.556677629041469
-0.256405068993641,-0.558528540856841
-0.263144110281725,-0.560389437045137
-0.292957556717067,-0.540779421970125
-0.286816039690088,-0.560330439038823
-0.283848314413932,-0.566032927899937
-0.290913051680256,-0.567934657632299
-0.262719475109217,-0.614368498528608
-0.277826746595938,-0.58521324096307
-0.334990232744054,-0.533661830639524
-0.319996486586993,-0.575646796605216
-0.327474930473444,-0.5776015843855
-0.301486109808488,-0.60572488466967
-0.384129143259321,-0.564209891613058
-0.382887969229064,-0.540823694032827
-0.395512615905585,-0.597279361739194
-0.391165928431859,-0.552710629055309
-0.367910390020046,-0.604091715931982
-0.342204949136791,-0.609163826205808
-0.3444862036651,-0.546396392768648
-0.363420001239815,-0.643013892670063
-0.437510642916493,-0.610895318337159
-0.45491518522098,-0.56546590447999
-0.423822305122993,-0.601933338019867
-0.432410636787862,-0.60403656053751
-0.485640011925592,-0.633196952797777
-0.450239912030771,-0.592958462782314
-0.478712125526302,-0.618858547575215
-0.508751981519564,-0.660483088900261
-0.446368894018387,-0.598333486580445
-0.482297559699832,-0.591298188895776
-0.494993256414741,-0.619101404268963
-0.548306570852908,-0.612936321998875
-0.549776528033683,-0.634136629467807
-0.523150639433719,-0.625746061714042
-0.559526718312433,-0.662522290029056
-0.522562988468446,-0.583332506937139
-0.528895293662814,-0.60115175658599
-0.561960118764887,-0.634787201972475
-0.613227712521912,-0.618166804823111
-0.581912828593701,-0.639387212280961
-0.5920272006385,-0.641707391098352
-0.602233974423401,-0.644041138498158
-0.612533442688285,-0.646388544085616
-0.622925898173035,-0.648749697465963
-0.63341163361753,-0.651124688244438
-0.643990941761652,-0.653513606026276
-0.654664115345283,-0.655916540416716
