0.187977286846073,0.252997937002299
0.180039823141535,0.215673658088904
0.218506924405021,0.240926856372356
0.184759153759128,0.230067463369675
0.179444617652082,0.21175772398619
0.187899590437883,0.194945487400262
0.154349620021401,0.160221698271169
0.18998408050736,0.19362965940478
0.169115372506506,0.176039216125392
0.172728402826477,0.154639965245063
0.154846614546802,0.155232996397969
0.150857778351762,0.157373659270471
0.144887564782741,0.151205301308799
0.12895637516158,0.17953136211252
0.105401955058696,0.118463022321067
0.125078353553371,0.13463928786356
0.105656664696303,0.131971254389735
0.135750469043736,0.134535035086773
0.11018944990695,0.12724131963084
0.122990711516015,0.0855315513313717
0.08948009449717,0.0847550907370631
0.126492564411692,0.0841826737853569
0.0829343753676442,0.0851188340908501
0.0524992314851493,0.0732567445865499
0.0723848282608422,0.073450885930145
0.0671904519974599,0.0676570428661072
0.0707228592109621,0.0909362468720241
0.046947598311956,0.0358782382994575
0.0292983815437525,0.076269268401362
0.0568694473276826,-0.00582186622035799
0.0371311756620884,0.03345584881502
0.0470744433102633,0.0263267668540605
0.0275260456187107,0.0222695058219433
0.0134989543194186,0.00569068105823925
0.00892357182288728,0.000217925308659134
-0.0113416083847461,0.0297416649751958
-7.84908667872189e-05,-0.0106473045659014
-0.00450576092708403,-0.016039777735176
-0.00888425004245629,-0.021405489088643
-0.0139423932133479,-0.0199631102407338
-0.00490654466191224,-0.0514568275619653
-0.0217299810547938,-0.0373420474756685
-0.0464071398505187,-0.0749370332719187
-0.0322214685898192,-0.0401944255209347
-0.0183336211346798,-0.0694632723889479
-0.0565947029164875,-0.0535092250393732
-0.0421914409773675,-0.0633676972049506
-0.0393398259141186,-0.0641325865348378
-0.0500510746122265,-0.0735905976262455
-0.0539124389494981,-0.0786618974675345
-0.0662104460239382,-0.119679192604982
-0.0431339084994329,-0.117630822423498
-0.0866129675324313,-0.0842335847066737
-0.0342935866361904,-0.0989477148636548
-0.0855893412247405,-0.105555147817912
-0.0853619058257726,-0.119291361382598
-0.0796917368146213,-0.113411478195593
-0.0682671331587414,-0.121192182922204
-0.0866642316240321,-0.123098998944855
-0.0885546799671598,-0.144506432224942
-0.0888057594242086,-0.135611517341412
-0.0968043061235038,-0.137429489993721
-0.0991621031856279,-0.165495306682658
-0.0682952951877514,-0.145970249587842
-0.137591431305726,-0.17578168440704
-0.0815955810651867,-0.146213027670647
-0.0907406963371933,-0.16552809499063
-0.106048506897133,-0.170269008183013
-0.122031221531492,-0.174466073239915
-0.125004445337834,-0.178975154181188
-0.127938621007286,-0.183457457537507
-0.160007461734759,-0.193624158215881
-0.136509808530072,-0.196743697318207
-0.124220870944484,-0.186977164673843
-0.179105262484118,-0.220314839047426
-0.117641999757899,-0.225331028387068
-0.152637699912488,-0.222593117575692
-0.194964877525138,-0.239707202110853
-0.177675021050917,-0.2814336500133
-0.197806093530374,-0.293713754430138
-0.15172848232218,-0.23192955251099
-0.1650821888092,-0.243397790508111
-0.129775250371,-0.230004333738508
-0.175707886119115,-0.267544004290679
-0.187967205377486,-0.249448327603659
-0.192165529111712,-0.27791458401947
-0.188397476918762,-0.299360500209818
-0.183208252661573,-0.275292435208712
-0.21113818941515,-0.302032302687549
-0.189465048966568,-0.286810928615457
-0.210589729172473,-0.320556932109115
-0.208651830183561,-0.277232260745928
-0.192931956698795,-0.27105756694564
-0.197369502302087,-0.30179385746664
-0.241026657888078,-0.311618922039112
-0.20297970867556,-0.312749740611818
-0.230141872221146,-0.324843118784605
-0.226276031830879,-0.314438866352978
-0.227195347233374,-0.314766089376797
-0.211747678501937,-0.330473672400384
-0.222182132830436,-0.300407026718389
-0.259319686749293,-0.373759819488647
-0.22286178663823,-0.354161742303128
-0.211038034579469,-0.370990818776065
-0.228654363963796,-0.354621113317637
-0.248356863724777,-0.377020000041224
-0.198694932184162,-0.380110209991099
-0.234022955623813,-0.379625867334737
-0.214665095930252,-0.432056734718415
-0.220926690979037,-0.369686982586502
-0.242083282278242,-0.359723153112657
-0.185828797716973,-0.363912581889642
-0.22508964235017,-0.394859506040183
-0.263453246294766,-0.393452746832033
-0.252199725414689,-0.450018297266217
-0.238055980371008,-0.406181835350873
-0.250710760043535,-0.40682117438463
-0.237986833152248,-0.399126587341601
-0.241190337586391,-0.422319588674485
-0.277345378683428,-0.448491164923239
-0.252952420193126,-0.428041209774194
-0.248117398964296,-0.417784529778624
-0.255699539644505,-0.435780829593718
-0.276054717429512,-0.434746806386414
-0.256587385823712,-0.448310698427515
-0.25911849013541,-0.445724945901378
-0.235764178152245,-0.420981395738588
-0.286475317637714,-0.481150690364873
-0.247157720645312,-0.472492599315496
-0.26091319489157,-0.520839793629324
-0.277064466135046,-0.483657114610929
-0.266563479460143,-0.468708163197
-0.267229472952208,-0.470858987441258
-0.259970686945218,-0.47794883552515
-0.268522472923524,-0.475080176543884
-0.271994195874382,-0.466626953801213
-0.270368929352113,-0.481210804565303
-0.270960782955047,-0.483200703825693
-0.273217902895855,-0.49089207105742
-0.273756083931209,-0.49274785302363
-0.267225709408722,-0.505507723279459
-0.243597333260576,-0.501561266281908
-0.324486219013194,-0.52127813707555
-0.279090879663146,-0.511390906626239
-0.260116870777739,-0.484544125340027
-0.296914807628039,-0.532353695116266
-0.264271248654831,-0.488481912585456
-0.282324515786151,-0.517159847872192
-0.285131717991617,-0.530401096910816
-0.28244630245122,-0.522910436074272
-0.270477506530435,-0.513291551602562
-0.2743000424518,-0.513008140289644
-0.284395862170667,-0.529238053432499
-0.285154222374813,-0.531581249194705
-0.285903856819804,-0.533817095690627
-0.287017109026471,-0.536969577197801
-0.281381779731686,-0.54324126125768
-0.283701674007446,-0.583156131781163
-0.30522465146612,-0.545610015541826
-0.291869941283914,-0.547838835332966
-0.278264134629,-0.534378893206802
-0.284670452713401,-0.545911328401185
-0.2754989051088,-0.579546588184296
-0.305847037473951,-0.533327620632857
-0.275748740941971,-0.564939262273848
-0.295500272247886,-0.552706023551755
-0.29592861874123,-0.553112577521104
-0.30871651910146,-0.566940951806599
-0.299294485284811,-0.554144319669227
-0.309406291479814,-0.537134604537093
-0.301106377778805,-0.555812420090388
-0.305358814812823,-0.552861235148703
-0.296656486988624,-0.581118634150742
-0.307514505686456,-0.552703367521899
-0.31938810435504,-0.556122444393754
-0.306163917341296,-0.555604375108526
-0.306781810593374,-0.555446964103244
-0.287718399917191,-0.555138168925886
-0.298469203674596,-0.528714116084502
-0.324984867204413,-0.565490547972537
-0.311467148191519,-0.553592959828296
-0.29755301629621,-0.536667468672762
-0.336328258203337,-0.531953380762357
-0.316548665443856,-0.58123240929491
-0.310535711975756,-0.579020194609863
-0.3355592831519,-0.529675421968034
-0.35843979312395,-0.53579736914226
-0.328834750522903,-0.520154437637937
-0.317413940928346,-0.554847368274091
-0.324333859915238,-0.539014577448168
-0.329069306266677,-0.54104194505859
-0.318692676668023,-0.505382448182607
-0.34725112623391,-0.508807541385585
-0.36129924766694,-0.507640054924833
-0.315449710642702,-0.536455606070207
-0.364784647735769,-0.534998713674162
-0.369102471029951,-0.492301428420029
-0.347587895284823,-0.54263040587351
-0.35630442215094,-0.516294211802466
-0.347556849809132,-0.521084249569452
-0.341510722227859,-0.51708102748204
-0.411873373727736,-0.53349433460367
-0.360620810998673,-0.516946136244309
-0.379231992284994,-0.516178924528571
-0.352698979987102,-0.510460482226348
-0.327232972189678,-0.461856912636154
-0.408713011342296,-0.520914384207264
-0.380767206083721,-0.493209497402821
-0.407633671455114,-0.533898968468339
-0.360537911274627,-0.487101867609983
-0.393037438202576,-0.481702703336084
-0.39775752980531,-0.435207966580661
-0.414514676814257,-0.468059450446397
-0.420786155581631,-0.488503151216466
-0.421132793272277,-0.455784543647061
-0.422751294814614,-0.44413752952243
-0.432978403162538,-0.426267180973589
-0.494830695586425,-0.450323162910039
-0.445565680059624,-0.43380401735527
-0.493815341529714,-0.40730063292069
-0.463574371961734,-0.417939707951721
-0.455127647707713,-0.425870215521164
-0.477111539120361,-0.44582858125696
-0.476382014020891,-0.406825385506197
-0.474590798522295,-0.393322616074121
-0.469333168486382,-0.375454928359354
-0.50765388535812,-0.380243993143018
-0.515080974587397,-0.374040993592909
-0.530412839995163,-0.35696160205978
-0.545430977354104,-0.383145040578994
-0.55919020802373,-0.338000092961971
-0.547632611422395,-0.350345140449852
-0.581383272204914,-0.274438609602105
-0.604314701640733,-0.302409206652996
-0.598010132510006,-0.264523682167727
-0.668050514053276,-0.266087608363803
-0.681638597065964,-0.243974603466975
-0.687225157435627,-0.239863537111274
-0.704319771526518,-0.227368750278287
