0.211002059544405,0.247360684606655
0.326010714354943,-0.746996835470818
0.932139662796275,-0.747367511390523
0.958881135127575,0.409797335279492
0.985622607458876,1.56696218194951
0.0391623933729159,-0.227628819681111
-0.268794197182499,0.678850092687527
