0.348699437186508,0.0105755951023914
0.302629421379087,0.0385144744684339
0.262301039590514,0.0669923759340081
0.227443369876626,0.0959178338154995
0.197785490293262,0.125199382429294
0.173056478896257,0.154745556091776
0.15298541374145,0.184464889119332
0.137301372884676,0.214265915828348
0.125733434381775,0.244057170535209
0.118010676288582,0.2737471875563
0.113862176660935,0.303244501208008
0.113017013554671,0.332457645806717
0.154139506909637,0.392099888339413
0.164798484950397,0.347043717716251
0.106401758452294,0.437973948092405
0.13725128746019,0.444639219999284
0.190441883667949,0.436980848043323
0.194369027949516,0.49492035687503
0.176836851099875,0.52130980709012
0.220419548744981,0.508756250328415
0.209358568273673,0.567496502013799
0.217004324217818,0.619470606328501
0.210894692006147,0.583921178377036
0.261919717272125,0.627556686021713
0.279364032025026,0.644752255722532
0.250656110246408,0.65445245673896
0.312513027495977,0.674357863569754
0.327675864325701,0.686584970348929
0.367475960644815,0.679952313478877
0.353541499763128,0.713962895151855
0.364266667861914,0.711865913905334
0.354251085951133,0.753516569302984
0.331126899132155,0.698791779769363
0.420569838919806,0.730924405366652
0.344793124833317,0.737455839147899
0.423471297416284,0.717060366780351
0.324150632045481,0.672728955774806
0.326586511548676,0.687833757758585
0.315467023561971,0.672128232051168
0.335563993884164,0.667203114079577
