0.264938862618356,-0.0769270954333945
-0.420579601776841,0.0779323704146275
-0.657130609738878,-0.21392567116773
-0.812934183395531,0.469025960404806
-0.968737757052184,1.15197759197734
0.33587354348806,-0.91161472962398
0.111372902474877,-0.946961304859074
