-0.503167804242187,0.820622998898468
-0.456031236137282,0.79173343030232
-0.409070164565063,0.738553333885248
-0.397309911258797,0.727772440058198
-0.340533874077931,0.729812101620148
-0.328233454582692,0.693955473475737
-0.327579735542637,0.685203739513842
-0.29686884449108,0.654439903167105
-0.300846066423254,0.672588423256692
-0.284211039555002,0.620186770695754
-0.284198115121477,0.60480240750082
-0.285901823078182,0.575066739980553
-0.29540607452584,0.577055664895952
-0.306067699244679,0.564508316567426
-0.3247154999458,0.533344334955808
-0.361705554427513,0.549021223931821
-0.354927598753538,0.53106054996593
-0.357175045087255,0.530700408489153
-0.420975713262427,0.521599351412154
-0.43409200573683,0.503731342965915
-0.464615168837743,0.511884933030069
-0.475697527532445,0.522689246758232
-0.497696929513518,0.452643227624438
-0.530190570271453,0.476329790715765
-0.532134599810052,0.474026819008935
-0.564681643297213,0.436112955543933
-0.642087083646354,0.421207034874313
-0.634267847294144,0.428006955498859
-0.621563557738407,0.424384043752294
-0.694359248986426,0.404316878671723
-0.701197211327134,0.384225796204131
-0.735661252133362,0.374105128409434
-0.73517260285356,0.370995227098233
-0.799042783054505,0.360654684321057
-0.792083724905309,0.334310258871202
-0.804127247872393,0.317134459923265
-0.810454377751371,0.286723971536111
-0.826300382042275,0.251226491914972
-0.817575823705192,0.237338425678962
-0.82464344145749,0.210844604963411
