-0.294317921875448,0.479806298513598
-0.238713139700512,0.494822492422914
-0.190868730878287,0.505303483900734
-0.150356998803725,0.511434379466586
-0.116750246871776,0.51340028564
0.0009290501766413,0.630098626870409
-0.0841815691170758,0.510608300728433
-0.0433306947532929,0.485125438454969
-0.0527371658426674,0.481359357781562
-0.0373218081745399,0.467233703804007
-0.036163308392255,0.448096910532898
-0.113724590470014,0.313026462773905
-0.0451519239444593,0.401400699243
-0.0350278959799055,0.370861127971547
-0.0878535579239539,0.339455249882656
-0.0661231850210861,0.320017450894591
-0.104385367291113,0.276861349737097
-0.113613709437222,0.244166497568144
-0.13928872617625,0.229417131004231
-0.160992092820771,0.206711687776156
-0.169119085636484,0.129463146978594
-0.187459415556547,0.0889455309684783
-0.173167896069995,0.0684899223328516
-0.240973837200475,0.0169319099260214
-0.236008266406987,-0.0368653232292624
-0.288079057449764,-0.0861196042185363
-0.251734973634757,-0.111501447741743
-0.157869270494323,-0.0551145391984367
-0.149095129699808,-0.0708411848550455
-0.269687425155641,-0.249637042945073
-0.148095376998982,-0.21121016827423
-0.217953575719851,-0.315388967580607
-0.249682591059145,-0.349671064390115
-0.214748941877321,-0.394767523183465
-0.154503096288128,-0.467714094742957
-0.0621858275669452,-0.389659228170213
-0.0869532316921194,-0.520136036101052
-0.0821470130812965,-0.546761689478586
-0.0288301059943527,-0.576267043528379
0.0325512021266752,-0.603458658787099
