0.128726031629925,-0.573300881599403
0.129100071772769,-0.566777577783349
0.129489174732418,-0.56030720583927
0.129893293850417,-0.553889466051253
0.130312382468308,-0.547524058703384
0.130746393927634,-0.541210684079749
0.131195281569939,-0.534949042464435
0.131658998736766,-0.528738834141527
0.132137498769658,-0.522579759395113
0.132630735010158,-0.516471518509279
0.13313866079981,-0.51041381176811
0.133661229480156,-0.504406339455694
0.134198394392739,-0.498448801856116
0.134750108879104,-0.492540899253463
0.135316326280792,-0.486682331931821
0.135896999939347,-0.480872800175276
0.136492083196313,-0.475112004267916
0.137101529393232,-0.469399644493825
0.137725291871648,-0.463735421137091
0.138363323973104,-0.458119034481799
0.139015579039142,-0.452550184812037
0.139682010411307,-0.447028572411889
0.140362571431141,-0.441553897565444
0.141057215440187,-0.436125860556786
0.141765895779989,-0.430744161670003
0.14248856579209,-0.42540850118918
0.143225178818032,-0.420118579398405
0.14397568819936,-0.414874096581762
0.144740047277616,-0.409674753023339
0.145518209394344,-0.404520249007222
0.146310127891085,-0.399410284817497
0.147115756109385,-0.394344560738251
0.147935047390786,-0.389322777053569
0.14876795507683,-0.384344634047539
0.149614432509062,-0.379409832004246
0.150474433029024,-0.374518071207777
0.15134790997826,-0.369669051942218
0.152234816698313,-0.364862474491655
0.153135106530725,-0.360098039140175
0.15404873281704,-0.355375446171864
0.154975648898802,-0.350694395870809
0.155915808117553,-0.346054588521095
0.156869163814836,-0.341455724406809
0.157835669332196,-0.336897503812037
0.158815278011174,-0.332379627020866
0.159807943193314,-0.327901794317382
0.160813618220159,-0.323463705985671
0.161832256433252,-0.31906506230982
0.162863811174137,-0.314705563573914
0.163908235784357,-0.310384910062041
0.164965483605455,-0.306102802058286
0.166035507978973,-0.301858939846736
0.167118262246456,-0.297653023711478
0.168213699749446,-0.293484753936596
0.169321773829486,-0.289353830806179
0.17044243782812,-0.285259954604311
0.171575645086891,-0.28120282561508
0.172721348947342,-0.277182144122572
0.173879502751016,-0.273197610410873
0.175050059839456,-0.269248924764069
0.176232973554206,-0.265335787466246
0.177428197236808,-0.261457898801492
0.178635684228806,-0.257614959053892
0.179855387871743,-0.253806668507533
0.181087261507162,-0.2500327274465
0.182331258476607,-0.246292836154881
0.183587332121619,-0.242586694916761
0.184855435783744,-0.238914004016228
0.186135522804523,-0.235274463737366
0.1874275465255,-0.231667774364263
0.188731460288218,-0.228093636181005
0.19004721743422,-0.224551749471678
0.19137477130505,-0.221041814520368
0.192714075242251,-0.217563531611162
0.194065082587365,-0.214116601028146
0.195427746681936,-0.210700723055407
0.196802020867507,-0.20731559797703
0.198187858485621,-0.203960926077103
0.199585212877821,-0.200636407639711
0.200994037385651,-0.19734174294894
0.202414285350654,-0.194076632288877
0.203845910114373,-0.190840775943609
0.205288865018351,-0.187633874197222
0.206743103404131,-0.184455627333801
0.208208578613256,-0.181305735637433
0.20968524398727,-0.178183899392205
0.211173052867715,-0.175089818882203
0.212671958596136,-0.172023194391513
0.214181914514074,-0.168983726204222
0.215702873963073,-0.165971114604416
0.217234790284677,-0.16298505987618
0.218777616820428,-0.160025262303602
0.22033130691187,-0.157091422170768
0.221895813900546,-0.154183239761764
0.223471091127999,-0.151300415360677
0.225057091935772,-0.148442649251592
0.226653769665408,-0.145609641718596
0.228261077658451,-0.142801093045776
0.229878969256443,-0.140016703517217
0.231507397800928,-0.137256173417006
0.233146316633449,-0.134519203029229
0.234795679095549,-0.131805492637973
0.236455438528772,-0.129114742527324
0.238125548274659,-0.126446652981369
0.239805961674756,-0.123800924284193
0.241496632070604,-0.121177256719882
0.243197512803747,-0.118575350572524
0.244908557215729,-0.115994906126205
0.246629718648091,-0.11343562366501
0.248360950442378,-0.110897203473027
0.250102205940133,-0.10837934583434
0.251853438482898,-0.105881751033038
0.253614601412217,-0.103404119353206
0.255385648069634,-0.10094615107893
0.25716653179669,-0.0985075464942969
0.25895720593493,-0.0960880058833929
0.260757623825896,-0.0936872295303042
0.262567738811132,-0.0913049177191173
0.264387504232181,-0.0889407707339182
0.266216873430587,-0.0865944888587935
0.268055799747891,-0.0842657723778295
0.269904236525638,-0.0819543215751124
0.27176213710537,-0.0796598367347284
0.273629454828631,-0.0773820181407641
0.275506143036963,-0.0751205660773057
0.277392155071911,-0.0728751808284395
0.279287444275017,-0.0706455626782518
0.281191963987824,-0.0684314119108289
0.283105667551876,-0.0662324288102572
0.285028508308716,-0.064048313660623
0.286960439599886,-0.0618787667460125
0.28890141476693,-0.0597234883505121
0.290851387151392,-0.0575821787582082
0.292810310094814,-0.055454538253187
0.294778136938739,-0.0533402671195348
0.296754821024711,-0.051239065641338
0.298740315694273,-0.0491506341026828
0.300734574288967,-0.0470746727876557
0.302737550150338,-0.0450108819803429
0.304749196619928,-0.0429589619648307
0.306769467039281,-0.0409186130252054
0.308798314749939,-0.0388895354455535
0.310835693093446,-0.036871429509961
0.312881555411345,-0.0348639955025145
0.314935855045179,-0.0328669337073002
0.316998545336492,-0.0308799444084044
0.319069579626825,-0.0289027278899134
0.321148911257724,-0.0269349844359135
0.32323649357073,-0.0249764143304912
0.325332279907387,-0.0230267178577327
0.327436223609238,-0.0210855953017242
0.329548278017827,-0.0191527469465521
0.331668396474695,-0.0172278730763029
0.333796532321388,-0.0153106739750626
0.335932638899447,-0.0134008499269177
0.338076669550416,-0.0114981012159544
0.340228577615838,-0.00960212812625927
0.342388316437256,-0.00771263094191839
0.344555839356214,-0.00582930994701809
0.346731099714254,-0.00395186542564478
0.34891405085292,-0.00207999766188469
0.351104646113755,-0.000213406939824239
0.353302838838302,0.00164820645645038
0.355508582368104,0.00350514224285275
0.357721830044705,0.00535770013529662
0.359942535209647,0.00720617984969561
0.362170651204473,0.00905088110196348
0.364406131370728,0.0108921036080139
0.366648929049953,0.0127301470837605
0.368898997583693,0.014565311245117
0.37115629031349,0.016397895807997
0.373420760580888,0.0182282004883144
0.375692361727429,0.0200565250019827
0.377971047094657,0.0218831690649156
0.380256770024115,0.0237084323930268
0.382549483857346,0.0255326147022301
0.384849141935894,0.027356015708439
0.387155697601301,0.0291789351275673
0.38946910419511,0.0310016726755286
0.391789315058866,0.0328245280682367
0.39411628353411,0.0346478010216052
0.396449962962387,0.0364717912515478
0.398790306685239,0.0382967984739781
0.401137268044209,0.04012312240481
0.403490800380841,0.0419510627599571
0.405850857036678,0.0437809192553329
0.408217391353262,0.0456129916068513
0.410590356672138,0.0474475795304259
0.412969706334848,0.0492849827419704
0.415355393682935,0.0511255009573984
0.417747372057943,0.0529694338926237
0.420145594801415,0.05481708126356
0.422550015254894,0.0566687427861209
0.424960586759923,0.0585247181762201
0.427377262658045,0.0603853071497713
0.429799996290803,0.0622508094226882
0.432228740999741,0.0641215247108844
0.434663450126402,0.0659977527302737
0.437104077012328,0.0678797931967697
0.439550574999064,0.0697679458262862
0.442002897428152,0.0716625103347367
0.444460997641135,0.0735637864380351
0.446924828979557,0.0754720738520949
0.44939434478496,0.0773876722928299
0.451869498398889,0.0793108814761536
0.454350243162885,0.08124200111798
0.456836532418493,0.0831813309342224
0.459328319507255,0.0851291706407949
0.461825557770714,0.0870858199536109
0.464328200550414,0.0890515785885841
0.466836201187898,0.0910267462616283
0.469349513024709,0.0930116226886571
0.471868089402391,0.0950065075855842
0.474391883662485,0.0970117006683233
0.476920849146536,0.0990275016527881
0.479454939196087,0.101054210254892
0.48199410715268,0.103092126190549
0.48453830635786,0.105141549175673
0.487087490153168,0.107202778926178
0.489641611880149,0.109276115157976
0.492200624880346,0.111361857586982
0.494764482495301,0.11346030592911
0.497333138066558,0.115571759900273
0.49990654493566,0.117696519216385
0.502484656444149,0.119834883593359
0.505067425933571,0.121987152747109
0.507654806745466,0.12415362639355
0.51024675222138,0.126334604248593
0.512843215702854,0.128530386028155
0.515444150531432,0.130741271448147
0.518049510048657,0.132967560224483
0.520659247596072,0.135209552073078
0.523273316515221,0.137467546709845
0.525891670147646,0.139741843850698
0.528514261834891,0.14203274321155
0.531141044918499,0.144340544508315
0.533771972740013,0.146665547456907
0.536406998640977,0.149008051773239
0.539046075962932,0.151368357173225
0.541689158047424,0.153746763372779
0.544336198235994,0.156143570087815
0.546987149870185,0.158559077034246
0.549641966291542,0.160993583927985
0.552300600841608,0.163447390484947
0.554963006861924,0.165920796421045
0.557629137694035,0.168414101452193
0.560298946679484,0.170927605294305
0.562972387159814,0.173461607663294
0.565649412476567,0.176016408275074
0.568329975971288,0.178592306845558
0.571014030985519,0.181189603090661
0.573701530860804,0.183808596726296
0.576392428938685,0.186449587468376
0.579086678560707,0.189112875032816
0.581784233068411,0.191798759135529
0.584485045803341,0.194507539492429
0.587189070107041,0.197239515819429
0.589896259321053,0.199994987832443
0.592606566786921,0.202774255247384
0.595319945846188,0.205577617780168
0.598036349840396,0.208405375146706
0.60075573211109,0.211257827062914
0.603478045999812,0.214135273244703
0.606203244848106,0.217038013407989
0.608931281997514,0.219966347268685
0.61166211078958,0.222920574542705
0.614395684565847,0.225900994945961
0.617131956667858,0.228907908194369
0.619870880437156,0.231941614003841
0.622612409215285,0.235002412090292
0.625356496343787,0.238090602169634
0.628103095164206,0.241206483957783
0.630852159018085,0.24435035717065
0.633603641246967,0.247522521524151
0.636357495192396,0.250723276734198
0.639113674195914,0.253952922516706
0.641872131599064,0.257211758587588
0.64463282074339,0.260500084662757
0.647395694970435,0.263818200458128
0.650160707621742,0.267166405689615
0.652927812038855,0.270545000073129
0.655696961563316,0.273954283324587
0.658468109536668,0.277394555159901
0.661241209300455,0.280866115294984
0.66401621419622,0.284369263445751
0.666793077565506,0.287904299328116
0.669571752749856,0.291471522657991
0.672352193090813,0.295071233151291
0.675134351929921,0.298703730523929
0.677918182608723,0.30236931449182
0.680703638468761,0.306068284770876
0.68349067285158,0.309800941077011
0.686279239098722,0.313567583126139
0.68906929055173,0.317368510634174
0.691860780552148,0.321204023317029
0.694653662441518,0.325074420890619
0.697447889561384,0.328980003070856
0.700243415253289,0.332921069573655
0.703040192858777,0.336897920114929
0.705838175719389,0.340910854410592
0.70863731717667,0.344960172176557
0.711437570572163,0.349046173128738
0.71423888924741,0.353169156983049
0.717041226543956,0.357329423455404
0.719844535803343,0.361527272261716
0.722648770367114,0.365763003117899
0.725453883576812,0.370036915739867
0.728259828773981,0.374349309843533
0.731066559300164,0.378700485144811
0.733874028496904,0.383090741359614
0.736682189705744,0.387520378203857
0.739490996268227,0.391989695393453
0.742300401525896,0.396498992644316
0.745110358820295,0.401048569672359
0.747920821492967,0.405638726193496
0.750731742885455,0.410269761923641
0.753543076339302,0.414941976578707
0.756354775196051,0.419655669874609
0.759166792797246,0.424411141527259
0.761979082484429,0.429208691252572
0.764791597599144,0.434048618766461
0.767604291482934,0.438931223784839
0.770417117477342,0.443856806023622
0.773230028923911,0.448825665198722
0.776042979164184,0.453838101026052
0.778855921539705,0.458894413221527
0.781668809392017,0.463994901501061
0.784481596062663,0.469139865580566
0.787294234893185,0.474329605175957
0.790106679225128,0.479564420003148
0.792918882400034,0.484844609778051
0.795730797759447,0.490170474216582
0.798542378644909,0.495542313034652
0.801353578397965,0.500960425948177
0.804164350360156,0.506425112673069
0.806974647873026,0.511936672925243
0.809784424278119,0.517495406420612
0.812593632916977,0.52310161287509
0.815402227131144,0.528755592004591
0.818210160262163,0.534457643525027
0.821017385651577,0.540208067152314
0.823823856640929,0.546007162602364
0.826629526571762,0.551855229591091
0.82943434878562,0.557752567834409
0.832238276624045,0.563699477048232
0.835041263428581,0.569696256948473
0.837843262540771,0.575743207251046
0.840644227302158,0.581840627671864
0.843444111054286,0.587988817926842
0.846242867138697,0.594188077731893
0.849040448896935,0.600438706802931
0.851836809670542,0.606741004855869
0.854631902801062,0.613095271606621
0.857425681630039,0.619501806771101
0.860218099499014,0.625960910065223
0.863009109749532,0.632472881204899
0.865798665723136,0.639038019906045
0.868586720761368,0.645656625884573
0.871373228205773,0.652328998856397
0.874158141397892,0.659055438537431
0.87694141367927,0.665836244643588
0.879722998391449,0.672671716890783
0.882502848875973,0.679562154994928
0.885280918474384,0.686507858671939
0.888057160528226,0.693509127637727
0.890831528379043,0.700566261608208
0.893603975368376,0.707679560299294
0.89637445483777,0.714849323426899
0.899142920128767,0.722075850706938
0.901909324582912,0.729359441855323
0.904673621541746,0.736700396587968
0.907435764346813,0.744099014620788
0.910195706339656,0.751555595669696
0.912953400861819,0.759070439450605
0.915708801254844,0.766643845679429
0.918461860860275,0.774276114072081
0.921212533019654,0.781967544344477
0.923960771074526,0.789718436212528
0.926706528366433,0.79752908939215
0.929449758236918,0.805399803599255
0.932190414027524,0.813330878549757
0.934928449079796,0.82132261395957
0.937663816735275,0.829375309544608
0.940396470335505,0.837489265020783
0.943126363222029,0.845664780104011
0.945853448736391,0.853902154510205
0.948577680220133,0.862201687955278
0.951299011014798,0.870563680155144
0.954017394461931,0.878988430825716
0.956732783903073,0.887476239682909
0.959445132679769,0.896027406442636
0.962154394133561,0.904642230820811
0.964860521605992,0.913321012533347
0.967563468438606,0.922064051296159
0.970263187972945,0.930871646825159
0.972959633550554,0.939744098836262
0.975652758512975,0.948681707045381
0.978342516201751,0.95768477116843
0.981028859958425,0.966753590921322
0.983711743124541,0.975888466019972
