-0.112507046780127,0.33827418990686
-0.113344518575788,0.337428611084122
-0.114150839929185,0.336572225124914
-0.114926141937208,0.335705121454154
-0.115670555696751,0.334827389496758
-0.116384212304706,0.333939118677644
-0.117067242857964,0.333040398421729
-0.117719778453418,0.33213131815393
-0.11834195018796,0.331211967299165
-0.118933889158482,0.330282435282352
-0.119495726461876,0.329342811528406
-0.120027593195035,0.328393185462247
-0.12052962045485,0.32743364650879
-0.121001939338213,0.326464284092954
-0.121444680942018,0.325485187639655
-0.121857976363155,0.324496446573811
-0.122241956698517,0.323498150320339
-0.122596753044997,0.322490388304157
-0.122922496499485,0.321473249950182
-0.123219318158875,0.320446824683331
-0.123487349120059,0.319411201928521
-0.123726720479928,0.31836647111067
-0.123937563335375,0.317312721654695
-0.124120008783292,0.316250042985514
-0.124274187920571,0.315178524528043
-0.124400231844104,0.3140982557072
-0.124498271650784,0.313009325947902
-0.124568438437502,0.311911824675067
-0.12461086330115,0.310805841313612
-0.124625677338621,0.309691465288455
-0.124613011646807,0.308568786024511
-0.124572997322601,0.3074378929467
-0.124505765462893,0.306298875479937
-0.124411447164576,0.305151823049142
-0.124290173524543,0.303996825079229
-0.124142075639685,0.302833970995118
-0.123967284606895,0.301663350221726
-0.123765931523065,0.300485052183969
-0.123538147485087,0.299299166306764
-0.123284063589853,0.298105782015031
-0.123003810934255,0.296904988733685
-0.122697520615185,0.295696875887643
-0.122365323729535,0.294481532901824
-0.122007351374199,0.293259049201145
-0.121623734646067,0.292029514210522
-0.121214604642031,0.290793017354874
-0.120780092458985,0.289549648059117
-0.12032032919382,0.288299495748168
-0.119835445943428,0.287042649846946
-0.119325573804702,0.285779199780367
-0.118790843874532,0.284509234973349
-0.118231387249813,0.283232844850809
-0.117647335027435,0.281950118837664
-0.117038818304292,0.280661146358832
-0.116405968177274,0.279366016839229
-0.115748915743274,0.278064819703774
-0.115067792099185,0.276757644377384
-0.114362728341898,0.275444580284975
-0.113633855568306,0.274125716851465
-0.1128813048753,0.272801143501772
-0.112105207359774,0.271470949660813
-0.111305694118618,0.270135224753504
-0.110482896248725,0.268794058204764
-0.109636944846988,0.26744753943951
-0.108767971010298,0.266095757882659
-0.107876105835547,0.264738802959128
-0.106961480419628,0.263376764093834
-0.106024225859433,0.262009730711696
-0.105064473251853,0.260637792237629
-0.104082353693782,0.259261038096553
-0.103077998282111,0.257879557713383
-0.102051538113732,0.256493440513037
-0.101003104285537,0.255102775920433
-0.0999328278944195,0.253707653360487
-0.0988408400372702,0.252308162258118
-0.0977272718109817,0.250904392038241
-0.0965922543124462,0.249496432125776
-0.0954359186385558,0.248084371945639
-0.0942583958862026,0.246668300922746
-0.0930598171522786,0.245248308482017
-0.0918403135336762,0.243824484048367
-0.0906000161272875,0.242396917046715
-0.0893390560300044,0.240965696901977
-0.0880575643387192,0.239530913039071
-0.086755672150324,0.238092654882914
-0.085433510561711,0.236651011858424
-0.0840912106697722,0.235206073390517
-0.0827289035713998,0.233757928904111
-0.081346720363486,0.232306667824124
-0.0799447921429228,0.230852379575473
-0.0785232500066024,0.229395153583074
-0.077082225051417,0.227935079271846
-0.0756218483742586,0.226472246066705
-0.0741422510720194,0.22500674339257
-0.0726435642415916,0.223538660674356
-0.0711259189798672,0.222068087336982
-0.0695894463837384,0.220595112805365
-0.0680342775500974,0.219119826504422
-0.0664605435758361,0.217642317859071
-0.0648683755578469,0.216162676294228
-0.0632579045930218,0.214680991234811
-0.061629261778253,0.213197352105738
-0.0599825782104326,0.211711848331925
-0.0583179849864526,0.210224569338291
-0.0566356132032054,0.208735604549751
-0.0549355939575829,0.207245043391225
-0.0532180583464773,0.205752975287628
-0.0514831374667808,0.204259489663878
-0.0497309624153855,0.202764675944894
-0.0479616642891835,0.20126862355559
-0.0461753741850669,0.199771421920886
-0.0443722231999279,0.198273160465699
-0.0425523424306587,0.196773928614945
-0.0407158629741513,0.195273815793542
-0.0388629159272978,0.193772911426408
-0.0369936323869905,0.192271304938459
-0.0351081434501214,0.190769085754614
-0.0332065802135828,0.189266343299788
-0.0312890737742665,0.1877631669989
-0.029355755229065,0.186259646276868
-0.0274067556748702,0.184755870558607
-0.0254422062085743,0.183251929269036
-0.0234622379270695,0.181747911833072
-0.0214669819272478,0.180243907675632
-0.0194565693060015,0.178740006221633
-0.0174311311602226,0.177236296895993
-0.0153907985868032,0.175732869123629
-0.0133357026826355,0.174229812329459
-0.0112659745446117,0.172727215938399
-0.00918174526962389,0.171225169375368
-0.00708314595456414,0.169723762065281
-0.00497030769632457,0.168223083433057
-0.00284336159179743,0.166723222903614
-0.000702438737874775,0.165224269901867
0.00145232976855127,0.163726313852735
0.00362081283058854,0.162229444181135
0.00580287935134492,0.160733750311984
0.00799839823392828,0.159239321670199
0.0102072383814465,0.157746247680698
0.0124292686970074,0.156254617768398
0.0146643580837188,0.154764521358217
0.0169123754446888,0.153276047875071
0.019173189683025,0.151789286743878
0.0214466697018355,0.150304327389556
0.0237326844042279,0.148821259237021
0.0260311026933103,0.147340171711191
0.0283417934721904,0.145861154236984
0.0306646256439762,0.144384296239315
0.0329994681117756,0.142909687143104
0.0353461897786963,0.141437416373267
0.0377046595478462,0.139967573354721
0.0400747463223334,0.138500247512385
0.0424563190052654,0.137035528271174
0.0448492464997503,0.135573505056006
0.047253397708896,0.1341142672918
0.0496686415358102,0.132657904403471
0.0520948468836009,0.131204505815938
0.0545318826553759,0.129754160954117
0.0569796177542432,0.128306959242926
0.0594379210833104,0.126862990107282
0.0619066615456856,0.125422342972103
0.0643857080444766,0.123985107262306
0.0668749294827912,0.122551372402808
0.0693741947637374,0.121121227818526
0.071883372790423,0.119694762934378
0.0744023324659558,0.118272067175282
0.0769309426934438,0.116853229966153
0.0794690723759948,0.11543834073191
0.0820165904167167,0.114027488897471
0.0845733657187172,0.112620763887751
0.0871392671851044,0.111218255127669
0.0897141637189861,0.109820052042143
0.0922979242234701,0.108426244056088
0.0948904176016643,0.107036920594423
0.0974915127566765,0.105652171082065
0.100101078591615,0.104272084943931
0.102718984009587,0.102896751604938
0.105345097913701,0.101526260490004
0.107979289207064,0.100160701024046
0.110621426792784,0.098800162631982
0.11327137957397,0.0974447347387284
0.115929016453729,0.0960945067692027
0.118594206335169,0.0947495681483223
0.121266818121398,0.0934100083010046
0.123946720715524,0.0920759166521668
0.126633783020654,0.0907473826267262
0.129327873939897,0.0894244956496002
0.13202886237636,0.088107345145706
0.134736617233152,0.086796020539961
0.137451007413379,0.0854906112572824
0.140171901820151,0.0841912067225876
0.142899169356574,0.0828978963607939
0.145632678925757,0.0816107695968186
0.148372299430807,0.080329915855579
0.151117899774833,0.0790554245619924
0.153869348860942,0.077787385140976
0.156626515592243,0.0765258870174474
0.159389268871842,0.0752710196163236
0.162157477602848,0.0740228723625221
0.16493101068837,0.0727815346809601
0.167709737031513,0.071547095996555
0.170493525535387,0.070319645734224
0.1732822451031,0.0690992733188846
0.176075764637759,0.0678860681754538
0.178873953042471,0.0666801197288492
0.181676679220346,0.0654815174039879
0.184483812074491,0.0642903506257874
0.187295220508013,0.0631067088191648
0.190110773424021,0.0619306814090376
0.192930339725623,0.060762357820323
0.195753788315925,0.0596018274779384
0.198580988098037,0.0584491798068009
0.201411807975066,0.057304504231828
0.20424611685012,0.0561678901779369
0.207083783626306,0.0550394270700451
0.209924677206734,0.0539192043330697
0.212768666494509,0.052807311391928
0.215615620392741,0.0517038376715375
0.218465407804538,0.0506088725968153
0.221317897633006,0.0495225055926788
0.224172958781254,0.0484448260840454
0.227030460152391,0.0473759234958323
0.229890270649523,0.0463158872529568
0.232752259175758,0.0452648067803362
0.235616294634205,0.0442227715028879
0.238482245927972,0.043189870845529
0.241349981960165,0.0421661942331771
0.244219371633894,0.0411518310907493
0.247090283852265,0.040146870843163
0.249962587518387,0.0391514029153355
0.252836151535368,0.0381655167321841
0.255710844806316,0.037189301718626
0.258586536234338,0.0362228472995787
0.261463094722542,0.0352662428999593
0.264340389174036,0.0343195779446853
0.267218288491928,0.0333829418586739
0.270096661579326,0.0324564240668424
0.272975377339338,0.0315401139941082
0.275854304675071,0.0306341010653885
0.278733312489634,0.0297384747056007
0.281612269686135,0.028853324339662
0.28449104516768,0.0279787393924899
0.287369507837378,0.0271148092890015
0.290247526598338,0.0262616234541141
0.293124970353666,0.0254192713127452
0.296001708006471,0.024587842289812
0.29887760845986,0.0237674258102318
0.301752540616942,0.0229581112989219
0.304626373380824,0.0221599881807996
0.307498975654614,0.0213731458807823
0.31037021634142,0.0205976738237872
0.31323996434435,0.0198336614347316
0.316108088566512,0.019081198138533
0.318974457911014,0.0183403733601084
0.321838941280963,0.0176112765243754
0.324701407579467,0.0168939970562511
0.327561725709634,0.016188624380653
0.330419764574573,0.0154952479224982
0.33327539307739,0.0148139571067041
0.336128480121194,0.014144841358188
0.338978894609093,0.0134879901018673
0.341826505444195,0.0128434927626592
0.344671181529607,0.012211438765481
0.347512791768437,0.0115919175352501
0.350351205063793,0.0109850184968837
0.353186290318784,0.0103908310752992
0.356017916436516,0.00980944469541381
0.358845952320098,0.0092409487821449
0.361670266872638,0.00868543276040982
0.364490728997243,0.00814298605512579
0.367307207597021,0.00761369809121019
0.370119571575081,0.00709765829358027
0.37292768983453,0.00659495608715338
0.375731431278476,0.0061056808968468
0.378530664810026,0.00562992214757786
0.381325259332289,0.00516776926426384
0.384115083748373,0.00471931167182209
0.386900006961386,0.00428463879516986
0.389679897874434,0.00386384005922452
0.392454625390627,0.00345700488890333
0.395224058413071,0.00306422270912363
0.397988065844876,0.0026855829448027
0.400746516589149,0.00232117502085788
0.403499279548997,0.00197108836220643
0.406246223627528,0.00163541239376571
0.408987217727851,0.001314236540453
0.411722130753073,0.00100765022718562
0.414450831606302,0.000715742878880852
0.417173189190647,0.00043860392045603
0.419889072409214,0.000176322776828451
0.422598350165112,-7.10111270845601e-05
0.425300891361448,-0.000303308366365725
0.427996564901331,-0.00052047951609771
0.430685239687868,-0.000722435151363224
0.433366784624167,-0.000909085847244945
0.436041068613336,-0.00108034217882558
0.438707960558484,-0.00123611472118781
0.441367329362717,-0.00137631404941434
0.444019043929143,-0.00150085073858785
0.446662973160872,-0.00160963536379103
0.449298985961009,-0.00170257850010658
0.451926951232664,-0.00177959072261719
0.454546737878944,-0.00184058260640555
0.457158214802957,-0.00188546472655436
0.45976125090781,-0.00191414765814631
0.462355715096613,-0.00192654197626408
0.464941476272472,-0.00192255825599038
0.467518403338495,-0.00190210707240789
0.470086365197791,-0.00186509900059931
0.472645230753467,-0.00181144461564732
0.475194868908631,-0.00174105449263462
0.477735148566391,-0.00165383920664389
0.480265938629855,-0.00154970933275786
0.482787108002131,-0.00142857544605919
0.485298525586326,-0.00129034812163057
0.487800060285548,-0.00113493793455472
0.490291581002906,-0.000962255459914292
0.492772956641507,-0.000772211272792004
0.495244056104458,-0.000564715948270544
0.497704748294869,-0.000339680061432605
0.500154902115846,-9.70141873608806e-05
0.502594386470498,0.000163371098861946
0.505023070261933,0.000441565222153168
0.507440822393257,0.000737657607430108
0.50984751176758,0.00105173767961006
0.512243007288009,0.00138389486361034
0.514627177857652,0.00173421858434826
0.516999892379617,0.00210279826674112
0.519361019757012,0.00248972333570623
0.521710428892944,0.00289508321616091
0.524047988690521,0.00331896733302243
0.526373568052852,0.00376146511120816
0.528687035883044,0.00422266597563533
0.530988261084204,0.00470265935122133
0.533277112559442,0.00520153466288338
0.535553459211865,0.00571938133553889
0.53781716994458,0.00625628879410507
0.540068113660695,0.0068123464634993
0.542306159263319,0.00738764376863883
0.544531175655559,0.00798227013444104
0.546743031740523,0.00859631498582313
0.54894159642132,0.00922986774770254
0.551126738601056,0.00988301784499645
0.553298327182839,0.0105558547026223
0.555456231069778,0.0112484677454972
0.557600319164981,0.0119609463985387
0.559730460371555,0.0126933800866639
0.561846523592608,0.0134458582347903
0.563948377731248,0.0142184702678351
0.566035891690583,0.0150113056107156
0.568108934373721,0.015824453688349
0.570167374683769,0.0166580039256529
0.572211081523836,0.0175120457475443
0.574239923797029,0.0183866685789407
0.576253770406457,0.0192819618447594
0.578252490255226,0.0201980149699176
0.580235952246446,0.0211349173793327
0.582204025283223,0.022092758497922
0.584156578268666,0.0230716277506027
0.586093480105883,0.0240716145622923
0.588014599697981,0.0250928083579079
0.589919805948068,0.026135298562367
0.591808967759253,0.0271991746005867
0.593681954034642,0.0282845258974845
0.595538633677344,0.0293914418779776
0.597378875590468,0.0305200119669834
0.599202548677119,0.0316703255894191
0.601009521840408,0.0328424721702021
0.602799663983441,0.0340365411342496
0.604572844009326,0.035252621906479
0.606328930821171,0.0364908039118076
0.608067793322084,0.0377511765751527
0.609789300415173,0.0390338293214315
0.611493321003545,0.0403388515755615
0.61317972399031,0.0416663327624598
0.614848378278573,0.0430163623070439
0.616499152771444,0.044389029634231
0.61813191637203,0.0457844241689385
0.619746537983439,0.0472026353360835
0.621342886508779,0.0486437525605836
0.622920830851158,0.0501078652673558
0.624480239913684,0.0515950628813177
0.626020982599464,0.0531054348273864
0.627542927811607,0.0546390705304793
0.629045944453219,0.0561960594155137
0.63052990142741,0.0577764909074069
0.631994667637287,0.0593804544310762
0.633440111985958,0.0610080394114389
0.63486610337653,0.0626593352734123
0.636272510712112,0.0643344314419137
0.637659202895811,0.0660334173418605
0.639026048830736,0.0677563823981699
0.640372917419994,0.0695034160357593
0.641699677566693,0.071274607679546
0.643006198173941,0.0730700467544471
0.644292348144846,0.0748898226853802
0.645557996382515,0.0767340248972624
0.646803011790057,0.0786027428150112
0.648027263270579,0.0804960658635437
0.64923061972719,0.0824140834677773
0.64923061972719,0.0824140834677773
0.650394704571615,0.0843197323323238
0.651501435678088,0.0861761220213956
0.652551123643484,0.0879836012493115
0.653544079064675,0.0897425187303901
0.654480612538534,0.0914532231789503
0.655361034661934,0.0931160633093107
0.656185656031747,0.09473138783579
0.656954787244846,0.0962995454727068
0.657668738898106,0.09782088493438
0.658327821588396,0.0992957549351282
0.658932345912592,0.10072450418927
0.659482622467566,0.102107481411124
0.659978961850191,0.10344503531501
0.660421674657338,0.104737514615245
0.660811071485882,0.105985268026149
0.661147462932696,0.107188644262039
0.661431159594651,0.108347992037236
0.661662472068621,0.109463660066058
0.661841710951479,0.110535997062822
0.661969186840098,0.111565351741849
0.66204521033135,0.112552072817457
0.662070092022108,0.113496509003964
0.662044142509245,0.114399009015689
0.661967672389635,0.115259921566951
0.661840992260149,0.116079595372068
0.66166441271766,0.116858379145359
0.661438244359042,0.117596621601144
0.661162797781168,0.11829467145374
0.66083838358091,0.118952877417467
0.66046531235514,0.119571588206642
0.660043894700732,0.120151152535585
0.65957444121456,0.120691919118615
0.659057262493494,0.12119423667005
0.658492669134409,0.121658453904209
0.657880971734177,0.12208491953541
0.657222480889672,0.122473982277972
0.656517507197765,0.122825990846215
0.65576636125533,0.123141293954456
0.65496935365924,0.123420240317014
0.654126795006367,0.123663178648208
0.653238995893584,0.123870457662358
0.652306266917765,0.12404242607378
0.651328918675781,0.124179432596795
0.650307261764507,0.124281825945721
0.649241606780814,0.124349954834876
0.648132264321576,0.124384167978579
0.646979544983664,0.12438481409115
0.645783759363954,0.124352241886906
0.644545218059316,0.124286800080166
0.643264231666624,0.12418883738525
0.641941110782751,0.124058702516475
0.640576166004569,0.12389674418816
0.639169707928952,0.123703311114625
0.637722047152772,0.123478752010188
0.636233494272903,0.123223415589167
0.634704359886216,0.122937650565882
0.633134954589585,0.122621805654651
0.631525588979883,0.122276229569792
0.629876573653982,0.121901271025624
0.628188219208756,0.121497278736467
0.626460836241077,0.121064601416639
0.624694735347818,0.120603587780458
0.622890227125851,0.120114586542243
0.621047622172051,0.119597946416313
0.619167231083289,0.119054016116986
0.617249364456439,0.118483144358582
0.615294332888372,0.117885679855419
0.613302446975963,0.117261971321816
0.611274017316084,0.116612367472091
0.609209354505608,0.115937217020563
0.607108769141407,0.115236868681551
0.604972571820355,0.114511671169373
0.602801073139324,0.113761973198349
0.600594583695187,0.112988123482796
0.598353414084817,0.112190470737034
0.596077874905088,0.111369363675382
0.593768276752871,0.110525151012157
0.591424930225039,0.109658181461679
0.589048145918466,0.108768803738267
0.586638234430024,0.107857366556238
0.584195506356586,0.106924218629913
0.581720272295025,0.105969708673609
0.579212842842214,0.104994185401645
0.576673528595026,0.10399799752834
0.574102640150333,0.102981493768013
0.571500488105008,0.101945022834982
0.568867383055925,0.100888933443566
0.566203635599955,0.0998135743080833
0.563509556333973,0.0987192941428535
0.56078545585485,0.0976064416621948
0.55803164475946,0.096475365580426
0.555248433644675,0.0953264146118656
0.552436133107368,0.0941599374708325
0.549595053744412,0.0929762828716453
0.546725506152681,0.0917757995286227
0.543827800929046,0.0905588361560836
0.540902248670381,0.0893257414683464
0.537949159973558,0.08807686417973
0.53496884543545,0.0868125530045529
0.531961615652931,0.0855331566571341
0.528927781222872,0.0842390238517921
0.525867652742148,0.0829305033028457
0.52278154080763,0.0816079437246134
0.519669756016191,0.0802716938314142
0.516532608964706,0.0789221023375666
0.513370410250045,0.0775595179573893
0.510183470469082,0.076184289405201
0.50697210021869,0.0747967653953206
0.503736610095742,0.0733972946420666
0.500477310697111,0.0719862258597578
0.497194512619669,0.0705639077627128
0.493888526460289,0.0691306890652503
0.490559662815845,0.0676869184816892
0.487208232283208,0.066232944726348
0.483834545459252,0.0647691165135454
0.48043891294085,0.0632957825576003
0.477021645324874,0.0618132915728312
0.473583053208198,0.0603219922735568
0.470123447187694,0.058822233374096
0.466643137860235,0.0573143635887673
0.463142435822694,0.0557987316318895
0.459621651671944,0.0542756862177812
0.456081096004857,0.0527455760607613
0.452521079418307,0.0512087498751483
0.448941912509166,0.049665556375261
0.445343905874307,0.0481163442754181
0.441727370110602,0.0465614622899382
0.438092615814926,0.0450012591331402
0.434439953584151,0.0434360835193427
0.430769694015149,0.0418662841628643
0.427082147704793,0.0402922097780238
0.423377625249957,0.0387142090791399
0.419656437247512,0.0371326307805313
0.415918894294332,0.0355478235965167
0.41216530698729,0.0339601362414148
0.408395985923259,0.0323699174295443
0.404611241699111,0.0307775158752239
0.40081138491172,0.0291832802927722
0.396996726157957,0.0275875593965082
0.393167576034697,0.0259907019007503
0.389324245138811,0.0243930565198173
0.385467044067172,0.0227949719680279
0.381596283416655,0.0211967969597008
0.37771227378413,0.0195988802091547
0.373815325766472,0.0180015704307084
0.369905749960553,0.0164052163386804
0.365983856963246,0.0148101666473896
0.362049957371423,0.0132167700711546
0.358104361781958,0.0116253753242941
0.354147380791723,0.0100363311211268
0.350179324997592,0.00844998617597148
0.346200504996436,0.00686668920314676
0.34221123138513,0.00528678891697137
0.338211814760545,0.00371063403176399
0.334202565719555,0.00213857326184333
0.330183794859033,0.000570955321528142
0.326155812775851,-0.000991871074862954
0.322118930066881,-0.00254955721301121
0.318073457328998,-0.00410175437859794
0.314019705159074,-0.00564811385730442
0.309957984153982,-0.00718828693481193
0.305888604910593,-0.00872192489680189
0.301811878025783,-0.0102486790289554
0.297728114096422,-0.011768200616954
0.293637623719385,-0.0132801409464787
0.289540717491543,-0.0147841513032111
0.285437706009771,-0.0162798829728323
0.28132889987094,-0.0177669872410236
0.277214609671923,-0.0192451153934664
0.273095146009594,-0.020713918715842
0.268970819480824,-0.0221730484938315
0.264841940682488,-0.0236221560131165
0.260708820211458,-0.0250608925593781
0.256571768664606,-0.0264889094182976
0.252431096638806,-0.0279058578755563
0.24828711473093,-0.0293113892168356
0.244140133537851,-0.0307051547278168
0.239990463656443,-0.0320868056941811
0.235838415683577,-0.0334559934016098
0.231684300216127,-0.0348123691357842
0.227528427850966,-0.0361555841823857
0.223371109184966,-0.0374852898270955
0.219212654815,-0.0388011373555949
0.215053375337942,-0.0401027780535653
0.210893581350663,-0.0413898632066879
0.206733583450037,-0.042662044100644
0.202573692232937,-0.0439189720211149
0.198414218296235,-0.045160298253782
0.194255472236805,-0.0463856740843265
0.190097764651519,-0.0475947507984297
0.18594140613725,-0.0487871796817729
0.181786707290871,-0.0499626120200374
0.177633978709255,-0.0511206990989045
0.173483530989274,-0.0522610922040556
0.169335674727801,-0.0533834426211718
0.16519072052171,-0.0544874016359346
0.161048978967873,-0.0555726205340251
0.156910760663163,-0.0566387506011248
0.152776376204452,-0.0576854431229149
0.148646136188615,-0.0587123493850766
0.144520351212522,-0.0597191206732914
0.140399331873049,-0.0607054082732405
0.136283388767066,-0.0616708634706052
0.132172832491447,-0.0626151375510667
0.128067973643065,-0.0635378818003065
0.123969122818793,-0.0644387475040058
0.119876590615504,-0.0653173859478458
0.11579068763007,-0.0661734484175079
0.111711724459364,-0.0670065861986735
0.107640011700259,-0.0678164505770237
0.103575859949628,-0.0686026928382399
0.0995195798043439,-0.0693649642680033
0.0954714818612793,-0.0701029161519954
0.0914318767173074,-0.0708161997758973
0.0874010749693006,-0.0715044664253904
0.0833793872141322,-0.072167367386156
0.0793671240486745,-0.0728045539438754
0.0753645960698009,-0.0734156773842299
0.0713721138743838,-0.0740003889929007
0.0673899880592964,-0.0745583400555692
0.0634185292214112,-0.0750891818579166
0.0594580479576015,-0.0755925656856243
0.0555088548647396,-0.0760681428243736
0.0515712605396988,-0.0765155645598457
0.0476455755793516,-0.0769344821777221
0.0437321105805712,-0.0773245469636838
0.0398311761402301,-0.0776854102034124
0.0359430828552014,-0.078016723182589
0.0320681413223578,-0.0783181371868949
0.0282066621385722,-0.0785893035020115
0.0243589559007174,-0.0788298734136201
0.0205253332056663,-0.0790394982074019
0.0167061046502916,-0.0792178291690382
0.0129015808314665,-0.0793645175842104
0.00911207234606341,-0.0794792147385998
0.00533788979095554,-0.0795615719178876
0.0015793437630154,-0.0796112404077551
-0.00216325514088382,-0.0796278714938837
-0.00588959632386962,-0.0796111164619547
-0.00959936918906881,-0.0795606265976492
-0.0132922631396089,-0.0794760531866487
-0.0169679675786167,-0.0793570475146345
-0.0206261719092197,-0.0792032608672877
-0.0242665655345446,-0.0790143445302899
-0.0278888378577192,-0.0787899497893221
-0.03149267828187,-0.0785297279300658
-0.0350777762101246,-0.0782333302382021
-0.03864382104561,-0.0779004079994126
-0.0421905021914534,-0.0775306124993783
-0.0457175090507818,-0.0771235950237807
-0.0492245310267226,-0.0766790068583009
-0.0527112575224026,-0.0761964992886205
-0.0561773779409494,-0.0756757236004205
-0.0596225816854898,-0.0751163310793824
-0.0630465581591512,-0.0745179730111873
-0.0664489967650605,-0.0738803006815167
-0.0698295869063452,-0.0732029653760518
-0.0731880179861321,-0.0724856183804739
-0.0765239794075486,-0.0717279109804643
-0.0798371605737217,-0.0709294944617043
-0.0831272508877787,-0.0700900201098752
-0.0863939397528465,-0.0692091392106584
-0.0896369165720527,-0.068286503049735
-0.0928558707485239,-0.0673217629127864
-0.0960504916853878,-0.0663145700854939
-0.0992204687857711,-0.0652645758535389
-0.102365491452801,-0.0641714315026025
-0.105485249089605,-0.0630347883183661
-0.10857943109931,-0.0618542975865111
-0.111647726885044,-0.0606296105927186
-0.114689825849932,-0.05936037862267
-0.117705417397104,-0.0580462529620466
-0.120694190929685,-0.0566868848965296
-0.123655835850802,-0.0552819257118005
-0.126590041563584,-0.0538310266935405
-0.129496497471157,-0.0523338391274308
-0.132374892976648,-0.0507900142991528
-0.135224917483185,-0.0491992034943878
-0.138046260393894,-0.047561057998817
-0.140838611111903,-0.0458752290981219
-0.143601659040339,-0.0441413680779836
-0.146335093582329,-0.0423591262240835
-0.149038604141,-0.0405281548221029
-0.15171188011948,-0.038648105157723
-0.154354610920895,-0.0367186285166253
-0.156966485948373,-0.0347393761844908
-0.159547194605041,-0.032709999447001
-0.162096426294025,-0.0306301495898373
-0.164613870418454,-0.0284994778986807
-0.167099216381454,-0.0263176356592128
-0.169552153586153,-0.0240842741571146
-0.171972371435677,-0.0217990446780677
-0.174359559333155,-0.0194615985077531
-0.176713406681712,-0.0170715869318525
-0.179033602884476,-0.0146286612360467
-0.181319837344574,-0.0121324727060174
-0.183571799465134,-0.00958267262744568
-0.185789178649282,-0.006978912286013
-0.187971664300146,-0.00432084296740042
-0.190118945820853,-0.00160811595728953
-0.19223071261453,0.00115961745863864
-0.194306654084304,0.00398270599470252
-0.196346459633303,0.00686149836522111
-0.198349818664653,0.00979634328451282
-0.200316420581481,0.0127875894668967
-0.202245954786916,0.015835585626691
-0.204138110684083,0.0189406804782148
-0.205992577676111,0.0221032227357866
-0.207809045166125,0.0253235611137253
-0.209587202557255,0.0286020443263493
-0.211326739252625,0.0319390210879777
-0.213027344655365,0.0353348401129287
-0.2146887081686,0.0387898501155215
-0.216310519195459,0.0423043998100744
-0.217892467139067,0.0458788379109065
-0.219434241402553,0.049513513132336
-0.220935531389044,0.0532087741886821
-0.222396026501666,0.0569649697942631
-0.223815416143547,0.0607824486633981
-0.225193389717814,0.0646615595104054
-0.226529636627594,0.068602651049604
-0.227823846276014,0.0726060719953124
-0.229075708066202,0.0766721710618495
-0.230284911401284,0.0808012969635338
-0.231451145684388,0.0849937984146842
-0.232574100318641,0.0892500241296191
-0.23365346470717,0.0935703228226577
-0.234688928253102,0.0979550432081181
-0.235680180359565,0.102404534000319
-0.236626910429685,0.10691914391358
-0.23752880786659,0.111499221662219
-0.238385562073407,0.116145115960555
-0.239196862453262,0.120857175522907
-0.239962398409284,0.125635749063593
-0.240681859344599,0.130481185296932
-0.241354934662335,0.135393832937242
-0.241981313765618,0.140374040698843
-0.242560686057576,0.145422157296053
-0.243092740941336,0.150538531443191
-0.243577167820025,0.155723511854575
-0.24401365609677,0.160977447244525
-0.244401895174698,0.166300686327359
-0.244741574456937,0.171693577817395
-0.245032383346614,0.177156470428952
-0.245274011246856,0.18268971287635
-0.245466147560789,0.188293653873906
-0.245608481691542,0.19396864213594
-0.245700703042241,0.19971502637677
-0.245742501016014,0.205533155310714
-0.245733565015987,0.211423377652092
-0.245673584445288,0.217386042115223
-0.245562248707044,0.223421497414424
-0.245399247204382,0.229530092264015
-0.245184269340429,0.235712175378315
-0.244917004518312,0.241968095471641
-0.24459714214116,0.248298201258313
-0.244224371612097,0.25470284145265
-0.243798382334253,0.261182364768969
-0.243318863710754,0.267737119921591
-0.242785505144727,0.274367455624833
-0.242197996039299,0.281073720593014
-0.241556025797598,0.287856263540454
-0.24085928382275,0.29471543318147
-0.240107459517884,0.301651578230381
-0.239300242286125,0.308665047401506
-0.238437321530601,0.315756189409164
-0.237518386654439,0.322925352967674
-0.236543127060767,0.330172886791354
-0.235511232152712,0.337499139594522
-0.2344223913334,0.344904460091498
-0.233276294005959,0.352389196996601
-0.232072629573516,0.359953699024148
-0.230811087439199,0.36759831488846
-0.229491357006133,0.375323393303853
-0.228113127677448,0.383129282984647
-0.226676088856268,0.391016332645162
-0.225179929945723,0.398984890999715
-0.223624340348939,0.407035306762624
-0.222009009469042,0.41516792864821
-0.220333626709162,0.423383105370791
-0.218597881472423,0.431681185644684
-0.216801463161954,0.44006251818421
-0.214944061180882,0.448527451703687
-0.213025364932333,0.457076334917432
-0.211045063819436,0.465709516539766
-0.209002847245317,0.474427345285006
-0.206898404613103,0.483230169867473
-0.204731425325922,0.492118339001483
-0.202501598786901,0.501092201401356
-0.200208614399166,0.510152105781411
-0.197852161565845,0.519298400855966
-0.195431929690066,0.52853143533934
-0.192947608174955,0.537851557945852
-0.190398886423639,0.54725911738982
-0.187785453839246,0.556754462385563
-0.185106999824902,0.5663379416474
-0.182363213783736,0.57600990388965
-0.179553785118873,0.585770697826631
-0.176678403233442,0.595620672172662
