0.136856782708354,0.533937645314014
-0.735814025195415,-0.872428385603882
0.975604972477869,-0.716384456713933
0.0360805897510696,-0.383791582510466
-0.90344379297573,-0.0511987083069991
0.332737012179396,0.301197656725994
-0.690150752284769,0.299953955558861
