0.863291071314339,-0.456691812561488
0.85876340846333,-0.44930822506331
0.854230696236457,-0.441986591259917
0.849693135736841,-0.43472665053074
0.845150928067603,-0.427528142255212
0.840604274331865,-0.420390805812764
0.836053375632746,-0.413314380582829
0.83149843307337,-0.406298605944837
0.826939647756855,-0.399343221278222
0.822377220786325,-0.392447965962415
0.817811353264899,-0.385612579376848
0.813242246295698,-0.378836800900952
0.808670100981845,-0.372120369914161
0.804095118426459,-0.365463025795905
0.799517499732662,-0.358864507925617
0.794937446003575,-0.352324555682728
0.790355158342319,-0.345842908446671
0.785770837852016,-0.339419305596877
0.781184685635786,-0.333053486512778
0.77659690279675,-0.326745190573807
0.772007690438029,-0.320494157159394
0.767417249662745,-0.314300125648973
0.762825781574019,-0.308162835421975
0.758233487274971,-0.302082025857831
0.753640567868722,-0.296057436335975
0.749047224458395,-0.290088806235837
0.74445365814711,-0.284175874936849
0.739860070037987,-0.278318381818444
0.735266661234148,-0.272516066260054
0.730673632838715,-0.26676866764111
0.726081185954808,-0.261075925341044
0.721489521685547,-0.255437578739288
0.716898841134056,-0.249853367215275
0.712309345403453,-0.244323030148435
0.707721235596861,-0.238846306918202
0.703134712817401,-0.233422936904006
0.698549978168193,-0.22805265948528
0.693967232752359,-0.222735214041456
0.68938667767302,-0.217470339951965
0.684808514033296,-0.21225777659624
0.68023294293631,-0.207097263353712
0.675660165485182,-0.201988539603814
0.671090382783032,-0.196931344725977
0.666523795932983,-0.191925418099633
0.661960606038155,-0.186970499104214
0.657401014201669,-0.182066327119152
0.652845221526647,-0.177212641523879
0.648293429116209,-0.172409181697827
0.643745838073477,-0.167655687020428
0.639202649501571,-0.162951896871113
0.634664064503613,-0.158297550629315
0.630130284182724,-0.153692387674465
0.625601509642024,-0.149136147385996
0.621077941984636,-0.144628569143339
0.616559782313679,-0.140169392325927
0.612047231732276,-0.13575835631319
0.607540491343546,-0.131395200484562
0.603039762250613,-0.127079664219474
0.598545245556595,-0.122811486897357
0.594057142364614,-0.118590407897644
0.589575653777793,-0.114416166599768
0.58510098089925,-0.110288502383159
0.580633324832108,-0.106207154627249
0.576172886679488,-0.102171862711471
0.571719867544511,-0.098182366015256
0.567274468530298,-0.0942384039180366
0.562836890739969,-0.0903397157992445
0.558407335276646,-0.0864860410383115
0.553986003243451,-0.0826771190146697
0.549573095743504,-0.0789126891077507
0.545168813879925,-0.0751924906969867
0.540773358755837,-0.0715162631618095
0.536386931474361,-0.067883745881651
0.532009733138617,-0.0642946782359433
0.527641964851726,-0.060748799604118
0.52328382771681,-0.0572458493656072
0.51893552283699,-0.0537855668998429
0.514597251315387,-0.0503676915862569
0.510269214255121,-0.0469919628042811
0.505951612759314,-0.0436581199333473
0.501644647931088,-0.0403659023528878
0.497348520873562,-0.0371150494423342
0.493063432689859,-0.0339053005811185
0.488789584483098,-0.0307363951486725
0.484527177356402,-0.0276080725244283
0.480276412412892,-0.0245200720878178
0.476037490755687,-0.0214721332182728
0.47181061348791,-0.0184639952952253
0.467595981712682,-0.0154953976981072
0.463393796533124,-0.0125660798063504
0.459204259052356,-0.00967578099938676
0.4550275703735,-0.00682424065664827
0.450863931599677,-0.00401119815756687
0.446713543834008,-0.00123639288157446
0.442576608179614,0.0015004357918971
0.438453325739616,0.00419954848341586
0.434343897617136,0.00686120581354988
0.430248524915294,0.0094856684028673
0.426167408737211,0.0120731968719362
0.422100750186008,0.0146240518413246
0.418048750364807,0.0171384939316006
0.414011610376729,0.0196167837633323
0.409989531324894,0.0220591819570878
0.405982714312424,0.0244659491334352
0.401991360442439,0.0268373459129425
0.398015670818062,0.0291736329161779
0.394055846542413,0.0314750707637094
0.390112088718612,0.0337419200761051
0.386184598449782,0.0359744414739331
0.382273576839043,0.0381728955777615
0.378379224989517,0.0403375430081583
0.374501744004323,0.0424686443856917
0.370641334986584,0.0445664603309297
0.366798199039421,0.0466312514644405
0.362972537265954,0.048663278406792
0.359164550769305,0.0506628017785524
0.355374440652594,0.0526300822002898
0.351602408018944,0.0545653802925722
0.347848653971474,0.0564689566759677
0.344113379613306,0.0583410719710445
0.340396786047561,0.0601819867983706
0.336699074377361,0.0619919617785141
0.333020445705825,0.063771257532043
0.329361101136076,0.0655201346795255
0.325721241771234,0.0672388538415297
0.322101068714421,0.0689276756386236
0.318500783068757,0.0705868606913752
0.314920585937363,0.0722166696203527
0.311360678423362,0.0738173630461243
0.307821261629873,0.0753892015892579
0.304302536660018,0.0769324458703217
0.300804704616917,0.0784473565098836
0.297327966603693,0.0799341941285119
0.293872523723466,0.0813932193467746
0.290438577079356,0.0828246927852398
0.287026327774486,0.0842288750644755
0.283635976911977,0.0856060268050499
0.280267725594948,0.086956408627531
0.276921774926522,0.0882802811524869
0.27359832600982,0.0895779050004857
0.270297579947962,0.0908495407920956
0.26701973784407,0.0920954491478844
0.263765000801264,0.0933158906884205
0.260533569922666,0.0945111260342718
0.257325646311397,0.0956814158060064
0.254141431070578,0.0968270206241924
0.25098112530333,0.0979482011093979
0.247844930112774,0.0990452178821909
0.244733046602032,0.10011833156314
0.241645675874223,0.101167802772812
0.23858301903247,0.102193892131777
0.235545277179894,0.103196860260601
0.232532651419614,0.104176967779853
0.229545342854754,0.105134475310101
0.226583552588433,0.106069643471914
0.223647481723772,0.106982732885858
0.220737331363894,0.107874004172503
0.217853302611919,0.108743717952417
0.214995596570967,0.109592134846167
0.21216441434416,0.110419515474321
0.20935995703462,0.111226120457449
0.206582425745466,0.112012210416117
0.203832021579821,0.112778045970893
0.201108945640805,0.113523887742347
0.19841339903154,0.114249996351046
0.195745582855146,0.114956632417558
0.193105698214744,0.115644056562451
0.190493946213457,0.116312529406293
0.187910527954404,0.116962311569652
0.185355644540706,0.117593663673097
0.182829497075486,0.118206846337196
0.180332286661863,0.118802120182516
0.17786421440296,0.119379745829626
0.175425481401897,0.119939983899093
0.173016288761794,0.120483095011487
0.170636837585774,0.121009339787374
0.168287328976958,0.121518978847323
0.165967964038465,0.122012272811903
0.163678943873419,0.122489482301681
0.161420469584938,0.122950867937225
0.159192742276146,0.123396690339103
0.156995963050162,0.123827210127883
0.154830333010108,0.124242687924135
0.152696053259104,0.124643384348424
0.150593324900273,0.125029560021321
0.148522349036735,0.125401475563392
0.14648332677161,0.125759391595206
0.144476459208021,0.126103568737331
0.142501947449088,0.126434267610336
0.140559992597933,0.126751748834787
0.138650795757675,0.127056273031253
0.136774558031438,0.127348100820303
0.134931480522341,0.127627492822504
0.133121764333505,0.127894709658424
0.131345610568052,0.128150011948632
0.129603220329103,0.128393660313696
0.127894794719779,0.128625915374183
0.1262205348432,0.128847037750663
0.124580641802489,0.129057288063701
0.122975316700766,0.129256926933868
0.121404760641151,0.129446214981731
0.119869174726768,0.129625412827858
0.118368760060735,0.129794781092818
0.116903717746175,0.129954580397177
0.115474248886208,0.130105071361505
0.114080554583956,0.13024651460637
0.112722835942539,0.130379170752339
0.111401294065079,0.13050330041998
0.110116130054697,0.130619164229862
0.108867545014514,0.130727022802554
0.10765574004765,0.130827136758621
0.106480916257228,0.130919766718634
0.105343274746367,0.13100517330316
0.10424301661819,0.131083617132767
0.103180342975817,0.131155358828024
0.102155454922369,0.131220659009497
0.101168553560968,0.131279778297756
0.100219839994734,0.131332977313369
0.0993095153267887,0.131380516676903
0.0984377806602529,0.131422657008926
0.0976048370982479,0.131459658930008
0.0968108857438945,0.131491783060715
0.096056127700314,0.131519290021616
0.0953407640706274,0.131542440433279
0.0946649959579557,0.131561494916272
0.0940290244654202,0.131576714091163
0.0934330506961418,0.13158835857852
0.0928772757532416,0.131596688998912
0.0923619007398407,0.131601965972906
0.0918871267590601,0.131604450121071
0.091453154914021,0.131604402063974
0.0910601863078444,0.131602082422184
0.0907084220436514,0.131597751816268
0.0903980632245631,0.131591670866796
0.0901293109537005,0.131584100194334
0.0899023663341847,0.131575300419451
0.0897174304691369,0.131565532162715
0.089574704461678,0.131555056044695
0.0894743894149292,0.131544132685957
0.0894166864320115,0.131533022707071
0.089401796616046,0.131521986728605
0.0894299210701538,0.131511285371125
0.0895012608974559,0.131501179255202
0.0896160172010735,0.131491929001402
0.0897743910841276,0.131483795230294
0.0899765836497393,0.131477038562445
0.0902227960010296,0.131471919618425
0.0905132292411197,0.1314686990188
0.0908480844731306,0.13146763738414
0.0912275628001834,0.131468995335012
0.0916518653253992,0.131473033491984
0.092121193151899,0.131480012475624
0.0926357473828039,0.131490192906501
0.0931957291212351,0.131503835405182
0.0938013394703135,0.131521200592236
0.0944527795331603,0.13154254908823
0.0951502504128964,0.131568141513733
0.0958939532126431,0.131598238489314
0.0966840890355214,0.131633100635538
0.0975208589846524,0.131672988572976
0.098404464163157,0.131718162922196
0.0993351056741565,0.131768884303764
0.100312984620772,0.131825413338249
0.101338302106124,0.13188801064622
0.102411259233335,0.131956936848244
0.103532057105524,0.13203245256489
0.104700896825814,0.132114818416725
0.105917979497325,0.132204295024318
0.107183506223178,0.132301143008237
0.108497678106495,0.13240562298905
0.109860696250396,0.132517995587324
0.111272761758003,0.132638521423629
0.112734075732436,0.132767461118531
0.114244839276817,0.1329050752926
0.115805253494267,0.133051624566403
0.117415519487907,0.133207369560508
0.119075838360858,0.133372570895484
0.120786411216241,0.133547489191899
0.122547439157176,0.13373238507032
0.124359123286787,0.133927519151315
0.126221664708192,0.134133152055454
0.128135264524514,0.134349544403303
0.130100123838873,0.134576956815431
0.132116443754391,0.134815649912406
0.134184425374188,0.135065884314796
0.136304269801385,0.13532792064317
0.138476178139105,0.135602019518095
0.140700351490467,0.135888441560139
0.142976990958594,0.13618744738987
0.145306297646605,0.136499297627857
0.147688472657622,0.136824252894668
0.150123717094766,0.13716257381087
0.152612232061159,0.137514520997033
0.15515421865992,0.137880355073723
0.157749877994172,0.138260336661509
0.160399411167036,0.138654726380959
0.163103019281632,0.139063784852641
0.165860903441082,0.139487772697123
0.168673264748506,0.139926950534974
0.171540304307025,0.14038157898676
0.174462223219762,0.140851918673052
0.177439222589837,0.141338230214416
0.18047150352037,0.14184077423142
0.183559267114484,0.142359811344634
0.186702714475298,0.142895602174624
0.189902046705935,0.143448407341959
0.193157464909515,0.144018487467206
0.196469170189159,0.144606103170935
0.199837363647989,0.145211515073713
0.203262246389125,0.145834983796109
0.206744019515689,0.146476769958689
0.210282884130801,0.147137134182023
0.213879041337583,0.147816337086678
0.217532692239156,0.148514639293223
0.221244037938641,0.149232301422226
0.225013279539159,0.149969584094254
0.22884061814383,0.150726747929876
0.232726254855777,0.15150405354966
0.23667039077812,0.152301761574174
0.24067322701398,0.153120132623986
0.244734964666478,0.153959427319664
0.248855804838736,0.154819906281776
0.253035948633875,0.155701830130891
0.257275597155015,0.156605459487575
0.261574951505277,0.157531054972399
0.265934212787783,0.158478877205929
0.270353582105654,0.159449186808733
0.274833260562011,0.160442244401381
0.279373449259975,0.161458310604439
0.283974349302667,0.162497646038476
0.288636161793207,0.16356051132406
0.293359087834718,0.164647167081759
0.298143328530321,0.165757873932141
0.302989084983135,0.166892892495775
0.307896558296283,0.168052483393227
0.312865949572886,0.169236907245068
0.317897459916063,0.170446424671863
0.322991290428938,0.171681296294182
0.32814764221463,0.172941782732593
0.333366716376261,0.174228144607664
0.338648714016952,0.175540642539962
0.343993836239824,0.176879537150056
0.349402284147998,0.178245089058515
0.354874258844595,0.179637558885905
0.360409961432735,0.181057207252796
0.366009593015542,0.182504294779754
0.371673354696134,0.183979082087349
0.377401447577634,0.185481829796149
0.383194072763163,0.187012798526721
0.38905143135584,0.188572248899633
0.394973724458789,0.190160441535454
0.400961153175129,0.191777637054752
0.407013918607982,0.193424096078095
0.413132221860469,0.19510007922605
0.41931626403571,0.196805847119187
0.425566246236828,0.198541660378073
0.431882369566943,0.200307779623276
0.438264835129176,0.202104465475364
0.444713844026648,0.203931978554905
0.45122959736248,0.205790579482468
0.457812296239794,0.20768052887862
0.46446214176171,0.20960208736393
0.47117933503135,0.211555515558966
0.477964077151835,0.213541074084295
0.484816569226285,0.215559023560487
0.491737012357822,0.217609624608108
0.498725607649566,0.219693137847727
0.50578255620464,0.221809823899912
0.512908059126163,0.223959943385231
0.520102317517258,0.226143756924253
0.527365532481044,0.228361525137545
0.534697905120644,0.230613508645675
0.542099636539178,0.232899968069212
0.549570927839768,0.235221164028724
0.557111980125534,0.237577357144778
0.564722994499598,0.239968808037943
0.57240417206508,0.242395777328787
0.580155713925102,0.244858525637877
0.587977821182784,0.247357313585783
0.595870694941249,0.249892401793072
0.603834536303616,0.252464050880312
0.611869546373007,0.255072521468071
0.619975926252543,0.257718074176918
0.628153877045346,0.26040096962742
0.636403599854535,0.263121468440145
0.644725295783234,0.265879831235662
0.653119165934561,0.268676318634539
0.661585411411639,0.271511191257344
0.670124233317588,0.274384709724644
0.67873583275553,0.277297134657009
0.687420410828585,0.280248726675005
0.696178168639875,0.283239746399202
0.705009307292521,0.286270454450166
0.713914027889645,0.289341111448467
0.722892531534365,0.292451978014673
0.731945019329805,0.295603314769351
0.741071692379085,0.298795382333069
0.750272751785327,0.302028441326396
0.75954839865165,0.3053027523699
0.768898834081177,0.308618576084148
