-0.774149662884094,0.582180192542543
-0.767184721086096,0.583580848362776
-0.76027994214887,0.584964892715439
-0.753434983539868,0.586332279850951
-0.746649502726543,0.587682964019731
-0.739923157176348,0.589016899472196
-0.733255604356733,0.590334040458764
-0.726646501735152,0.591634341229854
-0.720095506779058,0.592917756035885
-0.713602276955901,0.594184239127273
-0.707166469733135,0.595433744754438
-0.700787742578213,0.596666227167797
-0.694465752958586,0.597881640617769
-0.688200158341707,0.599079939354772
-0.681990616195027,0.600261077629224
-0.675836783986,0.601425009691543
-0.669738319182078,0.602571689792147
-0.663694879250713,0.603701072181455
-0.657706121659357,0.604813111109885
-0.651771703875463,0.605907760827855
-0.645891283366483,0.606984975585783
-0.640064517599869,0.608044709634087
-0.634291064043074,0.609086917223185
-0.62857058016355,0.610111552603497
-0.622902723428749,0.611118570025439
-0.617287151306124,0.612107923739431
-0.611723521263127,0.613079567995889
-0.606211490767211,0.614033457045233
-0.600750717285827,0.61496954513788
-0.595340858286428,0.61588778652425
-0.589981571236466,0.616788135454759
-0.584672513603395,0.617670546179826
-0.579413342854665,0.61853497294987
-0.574203716457729,0.619381370015308
-0.569043291880041,0.620209691626559
-0.563931726589051,0.621019892034041
-0.558868678052212,0.621811925488171
-0.553853803736978,0.622585746239369
-0.548886761110799,0.623341308538053
-0.543967207641128,0.62407856663464
-0.539094800795419,0.624797474779549
-0.534269198041122,0.625497987223198
-0.52949005684569,0.626180058216004
-0.524757034676576,0.626843642008387
-0.520069789001233,0.627488692850765
-0.515427977287111,0.628115164993556
-0.510831257001664,0.628723012687177
-0.506279285612344,0.629312190182047
-0.501771720586604,0.629882651728585
-0.497308219391895,0.630434351577208
-0.49288843949567,0.630967243978334
-0.488512038365381,0.631481283182383
-0.484178673468481,0.631976423439771
-0.479888002272422,0.632452619000917
-0.475639682244657,0.63290982411624
-0.471433370852637,0.633347993036157
-0.467268725563815,0.633767080011087
-0.463145403845643,0.634167039291448
-0.459063063165573,0.634547825127658
-0.455021360991059,0.634909391770135
-0.451019954789552,0.635251693469298
-0.447058502028505,0.635574684475564
-0.44313666017537,0.635878319039352
-0.439254086697598,0.636162551411079
-0.435410439062644,0.636427335841166
-0.431605374737958,0.636672626580028
-0.427838551190994,0.636898377878085
-0.424109625889203,0.637104543985754
-0.420418256300039,0.637291079153455
-0.416764099890952,0.637457937631605
-0.413146814129396,0.637605073670621
-0.409566056482823,0.637732441520923
-0.406021484418686,0.637839995432929
-0.402512755404436,0.637927689657057
-0.399039526907526,0.637995478443724
-0.395601456395408,0.63804331604335
-0.392198201335534,0.638071156706351
-0.388829419195358,0.638078954683148
-0.385494767442331,0.638066664224157
-0.382193903543905,0.638034239579797
-0.378926484967534,0.637981635000486
-0.375692169180668,0.637908804736643
-0.372490613650762,0.637815703038684
-0.369321475845265,0.63770228415703
-0.366184413231633,0.637568502342097
-0.363079083277316,0.637414311844304
-0.360005143449767,0.637239666914069
-0.356962251216438,0.637044521801811
-0.353950064044781,0.636828830757947
-0.35096823940225,0.636592548032896
-0.348016434756296,0.636335627877075
-0.345094307574371,0.636058024540904
-0.342201515323928,0.6357596922748
-0.339337715472419,0.635440585329182
-0.336502565487297,0.635100657954467
-0.333695722836014,0.634739864401073
-0.330916844986022,0.63435815891942
-0.328165589404774,0.633955495759925
-0.325441613559721,0.633531829173007
-0.322744574918317,0.633087113409082
-0.320074130948013,0.632621302718571
-0.317429939116262,0.63213435135189
-0.314811656890516,0.631626213559459
-0.312218941738228,0.631096843591694
-0.30965145112685,0.630546195699015
-0.307108842523834,0.62997422413184
-0.304590773396632,0.629380883140587
-0.302096901212697,0.628766126975673
-0.299626883439482,0.628129909887518
-0.297180377544438,0.627472186126539
-0.294757040995017,0.626792909943154
-0.292356531258674,0.626092035587782
-0.289978505802858,0.625369517310842
-0.287622622095023,0.62462530936275
-0.285288537602622,0.623859365993925
-0.282975909793106,0.623071641454786
-0.280684396133928,0.62226208999575
-0.27841365409254,0.621430665867237
-0.276163341136394,0.620577323319663
-0.273933114732944,0.619702016603447
-0.27172263234964,0.618804699969008
-0.269531551453936,0.617885327666763
-0.267359529513284,0.616943853947131
-0.265206223995136,0.61598023306053
-0.263071292366945,0.614994419257378
-0.260954392096162,0.613986366788093
-0.258855180650241,0.612956029903093
-0.256773315496632,0.611903362852798
-0.25470845410279,0.610828319887624
-0.252660253936166,0.60973085525799
-0.274456598212092,0.635986817547103
-0.25234980042668,0.578597090668702
-0.246612195474126,0.606303473886509
-0.244627214890898,0.605115865103217
-0.290819796156139,0.610392222440376
-0.240701756885333,0.602672650549943
-0.238760594397901,0.601416953280798
-0.270742056155002,0.644686569604482
-0.199133993782792,0.582284505077009
-0.243104163114609,0.637552541813316
-0.24162948392145,0.626167832882636
-0.229256745812341,0.594795737026718
-0.217084821369731,0.623615997018007
-0.22554306223464,0.591986455908993
-0.260167456326849,0.637869007390791
-0.18155977376195,0.610635075778474
-0.231028445403914,0.590086499906006
-0.229915661260167,0.631950451798519
-0.228673172985624,0.585526411933373
-0.214667608196085,0.583002558772705
-0.232736276222812,0.545342676874541
-0.216327935592953,0.563505339660525
-0.205894947932543,0.557077246414583
-0.207611233478693,0.57654625589604
-0.217159036155608,0.624260481495292
-0.200174118206711,0.528545850788813
-0.202405179396593,0.57145675212002
-0.22844752296368,0.549517754025618
-0.204726642828378,0.562237629971942
-0.163754584142579,0.563447137372441
-0.195561159890939,0.564338696448766
-0.193865261810126,0.562499582777211
-0.191502938052702,0.548318791740187
-0.227772655868921,0.529912485131033
-0.188648839564298,0.532835775175603
-0.181168434195218,0.554647347386816
-0.204849183413015,0.564300110669101
-0.210072557107206,0.530776733976688
-0.155871625157082,0.571042767914323
-0.180462179942845,0.546921300016141
-0.129318926617056,0.586150713954024
-0.178511379501942,0.587288048516881
-0.189936138108267,0.573945926691562
-0.173834417477059,0.538550485086675
-0.221431576274463,0.514783630742269
-0.170529389949795,0.534218378246418
-0.126136047911036,0.487068819853495
-0.167226611212442,0.52978798382694
-0.152620046981573,0.532796637470467
-0.177645396974005,0.571948090185965
-0.16227066526791,0.522957302368999
-0.160616839065942,0.520630868263699
-0.158961519866166,0.518279587766103
-0.157304365136034,0.515903415126628
-0.155645032342998,0.513502304595693
-0.15398317895451,0.511076210423717
-0.152318462438024,0.508625086861116
-0.150650540260991,0.50614888815831
-0.148979069890864,0.503647568565717
-0.147303708795095,0.501121082333755
-0.145624114441136,0.498569383712842
-0.14393994429644,0.495992426953396
-0.142250855828459,0.493390166305836
-0.140556506504645,0.49076255602058
-0.138856553792451,0.488109550348045
-0.137150655159329,0.48543110353865
-0.135438468072731,0.482727169842813
-0.13371965000011,0.479997703510953
-0.131993858408918,0.477242658793487
-0.130260750766607,0.474461989940834
-0.12851998454063,0.471655651203412
-0.126771217198439,0.468823596831639
-0.125014106207486,0.465965781075933
-0.123248309035224,0.463082158186713
-0.121473483149105,0.460172682414396
-0.119689286016581,0.457237308009401
-0.117895375105105,0.454275989222146
-0.116091407882129,0.451288680303049
-0.114277041815105,0.448275335502529
-0.112451934371486,0.445235909071003
-0.110615743018724,0.44217035525889
-0.108768125224271,0.439078628316608
-0.10690873845558,0.435960682494575
-0.105037240180102,0.432816472043209
-0.103153287865291,0.429645951212929
-0.101256538978599,0.426449074254152
-0.0993466509874775,0.423225795417297
-0.0974232813593793,0.419976068952782
-0.0954860875617568,0.416699849111025
-0.0935347270620623,0.413397090142445
-0.0915688573277481,0.410067746297459
-0.0895881358262665,0.406711771826486
-0.0875922200250698,0.403329120979944
-0.0855807673916104,0.399919748008251
-0.0835534353933407,0.396483607161825
-0.0815098814977128,0.393020652691085
-0.0794497631721794,0.389530838846448
-0.0773727378841924,0.386014119878333
-0.0752784631012044,0.382470450037158
-0.0731665962906677,0.378899783573342
-0.0710367949200346,0.375302074737301
-0.0688887164567573,0.371677277779455
-0.0667220183682885,0.368025346950223
-0.0645363581220802,0.36434623650002
-0.0623313931855848,0.360639900679267
-0.0601067810262546,0.356906293738382
-0.0578621791115421,0.353145369927781
-0.0555972449088994,0.349357083497885
-0.0533116358857791,0.34554138869911
-0.0510050095096333,0.341698239781875
-0.0486770232479145,0.337827590996598
-0.0463273345680748,0.333929396593698
-0.0439556009375668,0.330003610823593
-0.0415614798238426,0.326050187936699
-0.0391446286943547,0.322069082183437
-0.0367047050165553,0.318060247814224
-0.034241366257897,0.314023639079479
-0.0317542698858317,0.309959210229618
-0.0292430733678122,0.305866915515062
-0.0267074341712904,0.301746709186227
-0.0241470097637189,0.297598545493533
-0.0215614576125499,0.293422378687396
-0.0189504351852359,0.289218163018236
-0.0163135999492291,0.28498585273647
-0.0136506093719818,0.280725402092517
-0.0109611209209464,0.276436765336795
-0.00824479206357524,0.272119896719722
-0.00550128026732048,0.267774750491717
-0.00273024299963481,0.263401280903197
6.86622720297986e-05,0.25899944220458
0.00289577808022075,0.254569188646286
0.00575144695748595,0.250110474478731
0.00863601143637284,0.245623253952335
0.0115498140494293,0.241107481317515
0.0144931973292027,0.236563110824689
0.0174665038082412,0.231990096724276
0.0204700760190919,0.227388393266695
0.023504256494303,0.222757954702362
0.0265693877664216,0.218098735281696
0.029665812367996,0.213410689255116
0.0327938728315733,0.20869377087304
0.0359539116897016,0.203947934385886
0.0391462714749282,0.199173134044071
0.0423712947198011,0.194369324098015
0.0456293239568677,0.189536458798135
0.048920701718676,0.18467449239485
0.0522457705377732,0.179783379138577
0.0556048729467074,0.174863073279735
0.058998351478026,0.169913529068743
0.0624265486642769,0.164934700756018
0.0658898070380074,0.159926542591978
0.0693884691317657,0.154889008827042
0.0729228774780989,0.149822053711627
0.0764933746095552,0.144725631496153
0.0801003030586818,0.139599696431037
0.0837440053580268,0.134444202766697
0.0874248240401373,0.129259104753552
0.0911431016375616,0.12404435664202
0.094899180682847,0.118799912682518
0.0986934037085413,0.113525727125466
0.102526113247192,0.108221754221281
0.106397651831347,0.102887948220381
0.110308361993554,0.0975242633731852
0.11425858626636,0.092130653930111
0.118248667182314,0.086707074141577
0.122278947273962,0.081253478258001
0.126349769073853,0.0757698205298016
0.130461475114534,0.0702560552073965
0.134614407928553,0.0647121365412044
0.138808910048458,0.0591380187816431
0.143045324006796,0.0535336561791311
0.147323992336114,0.0478990029840861
0.151645257568961,0.0422340134469268
0.156009462237885,0.036538641818071
0.160416948875432,0.0308128423479373
0.164868060014151,0.0250565692869433
0.169363138186589,0.0192697768855077
0.173902525925294,0.0134524193940483
0.178486565762814,0.00760445106298377
0.183115600231696,0.00172582614273176
0.187789971864487,-0.00418350111628921
0.192510023193736,-0.0101235764636612
0.197276096751991,-0.0160944456489656
0.202088535071798,-0.0220961544217849
0.206947680685706,-0.0281287485317002
0.211853876126262,-0.034192273728294
0.216807463926014,-0.0402867757611474
0.22180878661751,-0.046412300379843
0.226858186733297,-0.0525688933339618
0.231956006805923,-0.0587566003730864
0.237102589367935,-0.0649754672467979
0.242298276951882,-0.0712255397046788
0.24754341209031,-0.0775068634963103
0.252838337315769,-0.0838194843712746
0.258183395160804,-0.0901634480791534
0.263578928157964,-0.0965388003695287
0.269025278839797,-0.102945586991982
0.274522789738851,-0.109383853696095
0.280071803387672,-0.11585364623145
0.285672662318809,-0.122355010347629
0.291325709064809,-0.128887991794213
0.29703128615822,-0.135452636320785
0.302789736131589,-0.142048989676925
0.308601401517465,-0.148677097612216
0.314466624848395,-0.15533700587624
0.320385748656926,-0.162028760218579
0.326359115475607,-0.168752406388814
0.332387067836985,-0.175507990136527
0.338469948273607,-0.182295557211299
0.344608099318022,-0.189115153362714
0.350801863502776,-0.195966824340353
0.357051583360418,-0.202850615893797
0.363357601423495,-0.209766573772627
0.369720260224556,-0.216714743726428
0.376139902296147,-0.223695171504778
0.382616870170816,-0.230707902857262
0.389151506381112,-0.23775298353346
0.395744153459581,-0.244830459282955
0.402395153938771,-0.251940375855327
0.40910485035123,-0.25908277900016
0.415873585229506,-0.266257714467034
0.422701701106147,-0.273465228005533
0.429589540513699,-0.280705365365236
0.436537445984711,-0.287978172295727
0.44354576005173,-0.295283694546586
0.450614825247304,-0.302621977867397
0.457744984103981,-0.30999306800774
0.464936579154308,-0.317397010717198
0.472189952930833,-0.324833851745352
0.479505447966104,-0.332303636841784
0.486883406792668,-0.339806411756077
0.494324171943073,-0.347342222237811
0.501828085949867,-0.354911114036568
0.509395491345597,-0.362513132901931
0.517026730662811,-0.370148324583481
0.524722146434057,-0.377816734830801
0.532482081191882,-0.385518409393471
0.540306877468835,-0.393253394021074
0.548196877797461,-0.401021734463191
0.556152424710311,-0.408823476469405
0.56417386073993,-0.416658665789297
0.572261528418867,-0.424527348172449
0.580415770279669,-0.432429569368442
0.588636928854885,-0.44036537512686
0.596925346677061,-0.448334811197282
0.605281366278745,-0.456337923329292
0.613705330192486,-0.464374757272471
0.62219758095083,-0.472445358776401
0.630758461086325,-0.480549773590663
0.63938831313152,-0.48868804746484
0.648087479618961,-0.496860226148513
0.656856303081197,-0.505066355391265
0.665695126050774,-0.513306480942676
0.674604291060242,-0.521580648552329
0.683584140642146,-0.529888903969806
0.692635017329037,-0.538231292944688
0.701757263653459,-0.546607861226557
0.710951222147962,-0.555018654564996
0.720217235345093,-0.563463718709585
0.7295556457774,-0.571943099409907
0.73896679597743,-0.580456842415544
0.748451028477731,-0.589004993476076
0.758008685810851,-0.597587598341087
0.767640110509338,-0.606204702760158
0.777345645105738,-0.614856352482871
0.7871256321326,-0.623542593258807
0.796980414122472,-0.632263470837549
0.8069103336079,-0.641019030968678
0.816915733121434,-0.649809319401776
0.82699695519562,-0.658634381886425
