0.347620744485335,-0.198743578037377
0.344350394189055,-0.198542482552243
0.341117799760254,-0.198332763408841
0.337922822240589,-0.198114390170206
0.334765322671722,-0.197887332399376
0.331645162095311,-0.197651559659385
0.328562201553016,-0.197407041513271
0.325516302086496,-0.197153747524068
0.32250732473741,-0.196891647254814
0.319535130547418,-0.196620710268544
0.316599580558179,-0.196340906128295
0.313700535811353,-0.196052204397103
0.310837857348599,-0.195754574638003
0.308011406211577,-0.195447986414032
0.305221043441945,-0.195132409288226
0.302466630081363,-0.194807812823622
0.299748027171491,-0.194474166583254
0.297065095753988,-0.19413144013016
0.294417696870514,-0.193779603027376
0.291805691562727,-0.193418624837937
0.289228940872287,-0.19304847512488
0.286687305840854,-0.192669123451241
0.284180647510087,-0.192280539380056
0.281708826921646,-0.191882692474361
0.279271705117189,-0.191475552297192
0.276869143138376,-0.191059088411586
0.274501002026867,-0.190633270380578
0.272167142824321,-0.190198067767204
0.269867426572397,-0.189753450134502
0.267601714312756,-0.189299387045506
0.265369867087055,-0.188835848063254
0.263171745936955,-0.18836280275078
0.261007211904114,-0.187880220671122
0.258876126030194,-0.187388071387315
0.256778349356851,-0.186886324462395
0.254713742925747,-0.186374949459399
0.252682167778541,-0.185853915941363
0.250683484956892,-0.185323193471323
0.248717555502458,-0.184782751612315
0.246784240456901,-0.184232559927374
0.244883400861879,-0.183672587979538
0.243014897759051,-0.183102805331843
0.241178592190077,-0.182523181547324
0.239374345196617,-0.181933686189017
0.237602017820329,-0.181334288819959
0.235861471102874,-0.180724959003186
0.234152566085909,-0.180105666301734
0.232475163811096,-0.179476380278639
0.230829125320093,-0.178837070496937
0.22921431165456,-0.178187706519665
0.227630583856156,-0.177528257909857
0.226077802966541,-0.176858694230552
0.224555830027373,-0.176178985044784
0.223064526080313,-0.17548909991559
0.221603752167019,-0.174789008406006
0.220173369329151,-0.174078680079068
0.218773238608369,-0.173358084497812
0.217403221046332,-0.172627191225275
0.216063177684699,-0.171885969824491
0.21475296956513,-0.171134389858499
0.213472457729283,-0.170372420890333
0.21222150321882,-0.16960003248303
0.210999967075398,-0.168817194199625
0.209807710340677,-0.168023875603156
0.208644594056317,-0.167220046256658
0.207510479263977,-0.166405675723168
0.206405227005317,-0.16558073356572
0.205328698321995,-0.164745189347352
0.204280754255672,-0.1638990126311
0.203261255848006,-0.16304217298
0.202270064140657,-0.162174639957088
0.201307040175285,-0.161296383125399
0.200372044993549,-0.160407372047971
0.199464939637108,-0.159507576287839
0.198585585147621,-0.158596965408039
0.197733842566748,-0.157675508971608
0.196909572936149,-0.156743176541581
0.196112637297483,-0.155799937680996
0.195342896692409,-0.154845761952887
0.194600212162586,-0.153880618920291
0.193884444749675,-0.152904478146244
0.193195455495334,-0.151917309193782
0.192533105441222,-0.150919081625942
0.191897255629,-0.14990976500576
0.191287767100327,-0.148889328896271
0.190704500896861,-0.147857742860511
0.190147318060263,-0.146814976461518
0.189616079632192,-0.145760999262326
0.189110646654307,-0.144695780825973
0.0822590900637602,-0.0302403001416207
0.297031161374913,-0.234393416442856
0.0714363633599177,-0.0349960443194414
0.0732799288364328,-0.027697166427424
0.186965699975752,-0.139200004793042
0.0869345807285428,-0.0366546280980342
0.288886186602079,-0.0237455203468902
0.0765127538110056,-0.0348933093787838
0.185700066985519,-0.134597937127467
0.185445045800762,-0.133418632286482
0.278530501907259,-0.244821744439382
0.185007695198227,-0.131025264036253
0.275131023616044,-0.219844683432191
0.27911985996312,-0.0335484943245224
0.280120436421263,-0.0254911222021173
0.0776841382250584,-0.220931402034009
0.0699693897944075,-0.216523094047095
0.286283448975715,-0.234820469305249
0.286777454606421,-0.233281891869083
0.076309417956192,-0.00508996028205307
0.184211517890517,-0.119675564015127
0.0805239505252637,-0.211426849151888
0.070226064306611,-0.212048625417553
0.0703877310376584,-0.023685439456207
0.0657320604450062,-0.204493791427786
0.282663422991168,-0.21485382908388
0.0650089250062665,-0.00476258548538201
0.0667781358607605,-0.224945100349696
0.185053843385613,-0.10877769385367
0.185257958284932,-0.107361085114257
0.185483570925879,-0.105932291591802
0.185730542350114,-0.10449128284934
0.185998733599294,-0.103038028449909
0.18628800571508,-0.101572497956544
0.186598219739131,-0.100094660932282
0.186929236713106,-0.0986044869401575
0.187280917678666,-0.0971019455432082
0.187653123677468,-0.0955870063044695
0.188045715751174,-0.0940596387869777
0.188458554941441,-0.092519812553769
0.18889150228993,-0.0909674971678794
0.189344418838299,-0.089402662192345
0.189817165628209,-0.087825277190202
0.190309603701318,-0.0862353117244865
0.190821594099287,-0.0846327353582347
0.191352997863774,-0.0830175176544826
0.191903676036439,-0.0813896281762662
0.192473489658941,-0.079749036486622
0.193062299772939,-0.0780957121485858
0.193669967420094,-0.0764296247251939
0.194296353642064,-0.0747507437794823
0.194941319480509,-0.0730590388744872
0.195604725977088,-0.0713544795732448
0.19628643417346,-0.069637035438791
0.196986305111286,-0.067906676034162
0.197704199832224,-0.0661633709223941
0.198439979377934,-0.0644070896665232
0.199193504790075,-0.0626378018295856
0.199964637110306,-0.0608554769746173
0.200753237380288,-0.0590600846646544
0.201559166641679,-0.0572515944627332
0.202382285936139,-0.0554299759318896
0.203222456305327,-0.0535951986351598
0.204079538790902,-0.05174723213558
0.204953394434525,-0.0498860459961863
0.205843884277853,-0.0480116097800148
0.206750869362548,-0.0461238930501015
0.207674210730268,-0.0442228653694828
0.208613769422672,-0.0423084963011947
0.20956940648142,-0.0403807554082731
0.210540982948172,-0.0384396122537544
0.211528359864586,-0.0364850364006746
0.212531398272323,-0.0345169974120699
0.213549959213041,-0.0325354648509763
0.2145839037284,-0.0305404082804301
0.215633092860059,-0.0285317972634673
0.216697387649678,-0.026509601363124
0.217776649138916,-0.0244737901424363
0.218870738369433,-0.0224243331644405
0.219979516382887,-0.0203611999921726
0.221102844220939,-0.0182843601886687
0.222240582925248,-0.016193783316965
0.223392593537472,-0.0140894389400975
0.224558737099273,-0.0119712966211025
0.225738874652308,-0.00983932592301599
0.226932867238237,-0.00769349640887408
0.22814057589872,-0.00553377764171298
0.229361861675416,-0.00336013918456879
0.230596585609985,-0.00117255060047759
0.231844608744086,0.00102901854752448
0.233105792119377,0.0032445986964013
0.23437999677752,0.0054742202831167
0.235667083760173,0.00771791374463457
0.236966914108995,0.00997570951791889
0.238279348865646,0.0122476380399334
0.239604249071785,0.0145337297476421
0.240941475769072,0.0168340150780087
0.242290889999166,0.0191485244679973
0.243652352803726,0.0214772883545716
0.245025725224412,0.0238203371746955
0.246410868302884,0.026177701365333
0.2478076430808,0.0285494113634478
0.24921591059982,0.0309354976060039
0.250635531901604,0.0333359905299652
0.25206636802781,0.0357509205722954
0.253508280020099,0.0381803181699586
0.254961128920129,0.0406242137599186
0.25642477576956,0.0430826377791392
0.257899081610052,0.0455556206645843
0.259383907483264,0.0480431928532179
0.260879114430855,0.0505453847820038
0.262384563494484,0.0530622268879057
0.263900115715812,0.0555937496078878
0.265425632136496,0.0581399833789138
0.266960973798198,0.0607009586379476
0.268506001742576,0.063276705821953
0.270060577011289,0.065867255367894
0.271624560645998,0.0684726377127344
0.27319781368836,0.0710928832934382
0.274780197180037,0.073728022546969
0.276371572162687,0.076378085910291
0.277971799677969,0.0790431038203679
0.279580740767544,0.0817231067141637
0.281198256473069,0.084418125028642
0.282824207836206,0.0871281892007671
0.284458455898612,0.0898533296675025
0.286100861701949,0.0925935768658123
0.287751286287874,0.0953489612326602
0.289409590698047,0.0981195132050103
0.291075635974129,0.100905263219826
0.292749283157777,0.103706241714072
0.294430393290652,0.106522479124712
0.296118827414413,0.109354005888709
0.297814446570719,0.112200852443027
0.29951711180123,0.115063049224631
0.301226684147606,0.117940626670485
0.302943024651504,0.120833615217551
0.304665994354586,0.123742045302794
0.30639545429851,0.126665947363178
0.308131265524935,0.129605351835667
0.309873289075522,0.132560289157225
0.31162138599193,0.135530789764814
0.313375417315817,0.138516884095401
0.315135244088843,0.141518602585947
0.316900727352669,0.144535975673418
0.318671728148952,0.147569033794777
0.320448107519353,0.150617807386987
0.32222972650553,0.153682326887013
0.324016446149144,0.156762622731819
0.325808127491854,0.159858725358369
0.327604631575319,0.162970665203626
0.329405819441198,0.166098472704554
0.331211552131151,0.169242178298117
0.333021690686838,0.172401812421279
0.334836096149917,0.175577405511004
0.336654629562048,0.178768988004256
0.338477151964891,0.181976590337999
0.340303524400104,0.185200242949196
0.342133607909348,0.188439976274811
0.343967263534281,0.191695820751809
0.345804352316564,0.194967806817153
0.347644735297855,0.198255964907806
0.349488273519814,0.201560325460734
0.3513348280241,0.2048809189129
0.353184259852372,0.208217775701267
0.355036430046291,0.2115709262628
0.356891199647515,0.214940401034462
0.358748429697704,0.218326230453218
0.360607981238517,0.221728444956031
0.362469715311614,0.225147074979864
0.364333492958654,0.228582150961683
0.366199175221296,0.23203370333845
0.3680666231412,0.235501762547131
0.369935697760025,0.238986359024687
0.371806260119431,0.242487523208085
0.373678171261077,0.246005285534286
0.375551292226623,0.249539676440256
0.377425484057727,0.253090726362958
0.379300607796049,0.256658465739355
0.381176524483249,0.260242925006413
0.383053095160986,0.263844134601094
0.384930180870919,0.267462124960363
0.386807642654708,0.271096926521183
0.388685341554012,0.274748569720519
0.390563138610491,0.278417084995334
0.392440894865804,0.282102502782592
0.39431847136161,0.285804853519257
0.396195729139569,0.289524167642292
0.39807252924134,0.293260475588663
0.399948732708582,0.297013807795332
0.401824200582956,0.300784194699264
0.40369879390612,0.304571666737422
0.405572373719734,0.30837625434677
0.407444801065456,0.312197987964272
0.409315936984948,0.316036898026892
0.411185642519867,0.319893014971594
0.413053778711874,0.323766369235342
0.414920206602627,0.3276569912551
0.416784787233786,0.331564911467831
0.418647381647011,0.335490160310499
0.420507850883961,0.339432768220069
0.422366055986296,0.343392765633503
0.424221857995674,0.347370182987767
0.426075117953755,0.351365050719824
0.427925696902198,0.355377399266637
0.429773455882664,0.359407259065171
0.431618255936811,0.36345466055239
0.433459958106298,0.367519634165257
0.435298423432786,0.371602210340736
0.437133512957933,0.375702419515791
0.438965087723399,0.379820292127387
0.440793008770843,0.383955858612486
0.442617137141925,0.388109149408053
0.444437333878304,0.392280194951052
0.44625346002164,0.396469025678446
0.448065376613591,0.4006756720272
0.449872944695818,0.404900164434277
0.451676025309979,0.409142533336641
0.453474479497735,0.413402809171256
0.455268168300743,0.417681022375086
0.457056952760665,0.421977203385095
0.458840693919159,0.426291382638246
0.460619252817885,0.430623590571505
0.462392490498501,0.434973857621833
0.464160268002669,0.439342214226196
0.465922446372046,0.443728690821557
0.467678886648292,0.44813331784488
0.469429449873067,0.452556125733129
0.471173997088029,0.456997144923268
0.47291238933484,0.461456405852261
0.474644487655157,0.465933938957071
0.47637015309064,0.470429774674662
0.478089246682949,0.474943943441999
0.479801629473743,0.479476475696045
0.481507162504682,0.484027401873765
0.483205706817424,0.488596752412121
0.484897123453629,0.493184557748078
0.486581273454957,0.4977908483186
0.488258017863067,0.50241565456065
0.489927217719618,0.507059006911193
0.491588734066271,0.511720935807192
0.493242427944683,0.516401471685611
0.494888160396515,0.521100644983415
0.496525792463426,0.525818486137566
0.498155185187075,0.53055502558503
0.499776199609122,0.535310293762769
0.501388696771227,0.540084321107747
0.502992537715048,0.544877138056929
0.504587583482244,0.549688775047279
0.506173695114477,0.55451926251576
0.507750733653404,0.559368630899336
0.509318560140685,0.56423691063497
0.510877035617979,0.569124132159628
0.512426021126947,0.574030325910273
0.513965377709247,0.578955522323868
0.515494966406538,0.583899751837377
0.517014648260481,0.588863044887766
0.518524284312735,0.593845431911996
0.520023735604958,0.598846943347032
0.521512863178811,0.603867609629839
0.522991528075952,0.608907461197379
0.524459591338041,0.613966528486617
0.525916914006738,0.619044841934517
0.527363357123702,0.624142431978042
0.528798781730593,0.629259329054157
0.530223048869068,0.634395563599825
0.53163601958079,0.63955116605201
0.533037554907415,0.644726166847676
0.534427515890605,0.649920596423788
0.535805763572017,0.655134485217307
0.537172158993313,0.6603678636652
0.53852656319615,0.665620762204429
0.539868837222189,0.670893211271959
0.541198842113089,0.676185241304752
0.542516438910509,0.681496882739774
0.543821488656109,0.686828166013988
0.545113852391548,0.692179121564358
0.546393391158486,0.697549779827848
0.547659965998581,0.702940171241422
0.548913437953494,0.708350326242043
0.550153668064883,0.713780275266675
0.551380517374408,0.719230048752283
0.552593846923729,0.72469967713583
0.553793517754504,0.73018919085428
0.554979390908394,0.735698620344597
0.556151327427058,0.741227996043745
0.557309188352154,0.746777348388688
0.558452834725343,0.752346707816389
0.559582127588284,0.757936104763813
0.560696927982636,0.763545569667923
0.561797096950059,0.769175132965683
0.562882495532211,0.774824825094057
0.563952984770753,0.78049467649001
0.565008425707344,0.786184717590503
0.566048679383644,0.791894978832503
0.56707360684131,0.797625490652973
0.568083069122004,0.803376283488876
0.569076927267384,0.809147387777176
0.57005504231911,0.814938833954838
0.571017275318841,0.820750652458824
0.571963487308237,0.8265828737261
0.572893539328957,0.832435528193628
0.57380729242266,0.838308646298373
0.574704607631006,0.844202258477299
0.575585345995654,0.85011639516737
0.576449368558264,0.856051086805548
0.577296536360495,0.8620063638288
0.578126710444006,0.867982256674087
0.578939751850457,0.873978795778374
0.579735521621507,0.879996011578625
0.580513880798815,0.886033934511804
