0.474092810290686,-0.0520587038658298
0.471062437548629,-0.0521581748923087
0.468034337886545,-0.0522381472090347
0.465008481746281,-0.0522987794028191
0.461984839569682,-0.0523402300604732
0.458963381798593,-0.0523626577688082
0.455944078874859,-0.0523662211146354
0.452926901240325,-0.0523510786847659
0.449911819336838,-0.0523173890660112
0.446898803606242,-0.0522653108451824
0.443887824490382,-0.0521950026090907
0.440878852431104,-0.0521066229445475
0.437871857870254,-0.052000330438364
0.434866811249675,-0.0518762836773515
0.431863683011214,-0.0517346412483212
0.428862443596716,-0.0515755617380843
0.425863063448026,-0.0513992037334522
0.42286551300699,-0.0512057258212361
0.419869762715452,-0.0509952865882472
0.416875783015259,-0.0507680446212969
0.413883544348255,-0.0505241585071962
0.407904171881196,-0.0499870881847893
0.404916978964831,-0.0496942211501055
0.401931408849037,-0.0493853443155165
0.398947431975659,-0.0490606162678335
0.395965018786542,-0.0487201955938678
0.392984139723531,-0.0483642408804307
0.390004765228472,-0.0479929107143334
0.387026865743209,-0.0476063636823872
0.384050411709589,-0.0472047583714032
0.381075373569457,-0.0467882533681929
0.378101721764657,-0.0463570072595674
0.375129426737035,-0.045911178632338
0.372158458928437,-0.045450926073316
0.369188788780706,-0.0449764081693126
0.366220386735691,-0.044487783507139
0.363253223235234,-0.0439852106736066
0.360287268721182,-0.0434688482555265
0.357322493635379,-0.0429388548397101
0.354358868419672,-0.0423953890129685
0.351396363515904,-0.0418386093621132
0.348434949365923,-0.0412686744739552
0.345474596411572,-0.0406857429353059
0.339556955857145,-0.0394815242537783
0.336599609140759,-0.0388605542845225
0.333643205387384,-0.0382272220120205
0.330687715038868,-0.0375816860230833
0.327733108537053,-0.0369241049045224
0.321826428840914,-0.0355734416257742
0.318874296530279,-0.0348806766392095
0.315922929833728,-0.0341765008702659
0.312972299193107,-0.0334610729057549
0.310022375050259,-0.0327345513324876
0.307073127847031,-0.0319970947372753
0.304124528025268,-0.0312488617069293
0.301176546026816,-0.0304900108282608
0.298229152293518,-0.029720700688081
0.399781171394248,0.0710787011669911
0.402413204033162,-0.135450756950257
0.289390205103012,-0.0273516005665871
0.389799449836209,-0.132213415953796
0.400762523954343,0.0685128036356752
0.377199720911338,0.0712530087173453
0.169210837820745,-0.12143900137405
0.365686143337655,-0.117433509310005
0.371047095530093,-0.133465438721619
0.378407725938568,0.092444933865783
0.173111133197997,0.0769928617816262
0.259953116929406,-0.0188400330673449
0.257010855302041,-0.0179409448811899
0.25406873856751,-0.0170337762356926
0.251126737167659,-0.0161186857176642
0.345056618831632,-0.125968736386982
0.35651616858881,-0.118474097584969
0.336398768438009,0.106516991704355
0.137251867191663,-0.106741310252457
0.23347549554017,-0.0104706641477707
0.326695239195118,-0.118285873659908
0.227591331038768,-0.00853180457966752
0.317640555959383,-0.123724026479427
0.109580108818221,-0.0959797611709356
0.329204752242411,0.0863350782281087
0.315543886669523,-0.103647742075454
0.0956248476205585,-0.0928923765963974
0.206990456786295,-0.0015495422751587
0.0976713608394184,-0.0942243344323813
0.0935396168488631,-0.0901204117355088
0.10226517835831,-0.11359821573508
0.189319002589882,0.00464731047288447
0.186372060339849,0.00569655972334946
0.183424553586938,0.00675008334968668
0.174578350729387,0.00993471461581896
0.171628290383416,0.0110037498775324
0.16277371735097,0.0142311099663233
0.159820630481462,0.015313119474433
0.156866713085683,0.0163979760771135
0.150956268482695,0.0185755962189422
0.147999682159176,0.0196680425844679
0.145042147076767,0.0207627016973194
0.139124112402661,0.0229580238177551
0.136163553694654,0.0240583696517167
0.133201927995139,0.0251602938857592
0.130239205745961,0.0262636379330712
0.127275357388965,0.0273682432068416
0.124310353365996,0.028473951120259
0.1213441641189,0.0295806030865123
0.118376760089522,0.0306880405187901
0.115408111719707,0.0317961048302812
0.1124381894513,0.0329046374341744
0.109466963726148,0.0340134797436584
0.100545170228664,0.0373402790375424
0.0975684350949794,0.0384487743012769
0.0916105815268954,0.0406641565565382
0.0856466865034942,0.0428763372034475
0.0826623995506631,0.043980830456742
0.0796765135595386,0.0450840475475147
0.0707089657748573,0.0483844559765896
0.0647220634940998,0.0505754400251576
0.0587280556644555,0.0527575133401683
0.0557283132734142,0.0538448120055615
0.0527267058206869,0.0549294072271316
0.0467177774975562,0.0570898529915576
0.0437103975108432,0.0581653863607909
0.0407010342298255,0.0592375819389561
0.0376896580963485,0.0603062811392419
0.0346762395522573,0.0613713253748371
0.0316607490393974,0.0624325560589304
0.0286431569996139,0.0634898146047105
0.0256234338747521,0.0645429424253662
0.0226015501066575,0.0655917809340864
0.0195774761371751,0.0666361715440595
0.0165511824081503,0.0676759556684745
0.0104918174388548,0.0697410701133849
0.00745868708227454,0.0707660832602579
0.00442321873353303,0.0717858555743276
0.00138538283447558,0.0728002284687829
-0.00165485017305254,0.0738090433568124
-0.00469750984720602,0.074812141651605
-0.0107902274280081,0.0768005541142342
-0.0138403444509661,0.0777855511084484
-0.0168930063731683,0.0787641971621805
-0.0199482427527695,0.0797363336886193
-0.0230060831479243,0.0807018021009537
-0.0260665571167875,0.0816604438123723
-0.0321955240082581,0.0835566127852172
-0.0383353798924188,0.0854235719126639
-0.0414094651021447,0.0863457013173347
-0.0444863612345073,0.0872600525002223
-0.0475660978476613,0.0881664668745153
-0.0506487044997614,0.0890647858534025
-0.0537342107489623,0.0899548508500726
-0.0661058228798685,0.0934293992783571
-0.0692062704868943,0.0942758155617729
-0.0723097950399492,0.0951130263421042
-0.0754164260971879,0.0959408730325395
-0.0785261932167651,0.0967591970462678
-0.0941231042851442,0.100702426425908
-0.100384855684281,0.10220750890242
-0.103520775396136,0.102943942377286
-0.106660097193722,0.103669425894143
-0.119251996404471,0.106458688645263
-0.122408772003032,0.10712704356991
-0.135071964325419,0.109679862611623
-0.138246932678824,0.110287124273776
-0.141425628257662,0.110881691522998
-0.144608080620088,0.111463405772476
-0.154178273990437,0.113129844654336
-0.157376049068759,0.113658561036728
-0.163783342506643,0.1146748974133
-0.170206490707209,0.115635381360182
-0.176645730135694,0.116538744182886
-0.179871457955794,0.116968608705642
-0.18633527759848,0.117783911039907
-0.189573428537376,0.118169031677794
-0.192815779632181,0.118538920513768
-0.196062360441048,0.118893418961019
-0.199313200522133,0.119232368432735
-0.20256832943359,0.119555610342104
-0.205827776733575,0.119862986102316
-0.209091571980241,0.12015433712656
-0.212359744731744,0.120429504828023
-0.215632324546238,0.120688330619896
-0.218909340981878,0.120930655915366
-0.222190823596819,0.121156322127622
-0.225476801949215,0.121365170669853
-0.232062364098992,0.121731780396996
-0.241975164308441,0.122151597792242
-0.248607013949735,0.122342894412629
-0.251930022295344,0.122411492469455
-0.255257792401801,0.122461845574955
-0.25859035382726,0.122493795142318
-0.265269968867805,0.122501849315386
-0.271969103882217,0.122434386294168
-0.27532606527501,0.122371939368675
-0.298965572983287,0.121383988376646
-0.302363111347859,0.121162260548397
-0.309173833034662,0.120656775044601
-0.333178734600152,0.118219610769521
-0.336629654413371,0.117784508999814
-0.371446268950452,0.112185795290463
-0.374959322324052,0.111497665408452
-0.378478201552071,0.11078558144991
-0.385533555803979,0.109288916955986
-0.396161020043841,0.106860299970832
-0.428370778024811,0.098212419380206
-0.446483131569524,0.0924937912376487
-0.450124735098383,0.0912693225181124
-0.461088343371579,0.0874315756148508
-0.468430042540772,0.0847345411906869
-0.475798119175726,0.0819251974320262
-0.479492122938249,0.0804780130852315
-0.490614350703865,0.0759645071332544
-0.509287225395988,0.0678593056326414
-0.51304244062022,0.0661494343141197
-0.520573747819728,0.0626395919641874
-0.531923343868923,0.0571472003548975
-0.535720696851256,0.0552550679820514
-0.550981668494383,0.0473756336602865
-0.554814949124388,0.0453272559381938
-0.562503362554548,0.0411351674163479
-0.570221109265939,0.0368149108788796
-0.5779684257238,0.0323652176312988
-0.593552713739882,0.0230724462278395
-0.601390158228579,0.0182268306829809
-0.629063076150575,0.000199572499812263
-0.63703970303641,-0.00526133571048264
-0.641039844088122,-0.00804429325220367
-0.645047909623236,-0.0108624645340555
-0.693773564918297,-0.0474849172457727
-0.70200945043871,-0.0541031138080127
-0.726918881398252,-0.0748649992878832
-0.731100189018552,-0.0784592926658809
-0.735290071401659,-0.0820922886938572
-0.756369139294696,-0.100843359121808
-0.812207935033774,-0.154285159308566
-0.825310719147077,-0.167606374669101
-0.838496528640268,-0.18130731406807
-0.842910386493806,-0.185959417059165
