0.957920367063674,-0.129143462434904
-0.876912823898042,0.325224266143759
0.0408136135014434,-0.177750713457636
0.151071370708917,0.683021214071095
0.261329127916391,1.54379314159983
0.385948498803114,-0.347966901417377
0.897202537055868,-0.839315458788657
