-0.0597095535202317,0.386153078957829
-0.037553079604777,0.341162745711929
-0.0718705080848684,0.372001771003549
-0.0924706626582714,0.308561871418483
-0.116382283338923,0.358160295545256
-0.119201422886365,0.289103419477067
-0.114051392015872,0.343271157869176
-0.143778459634927,0.289775014193505
-0.0834181050593433,0.345661986908826
-0.130480394785903,0.273614426458655
-0.139245558067548,0.297921830993751
-0.150411328130819,0.316726226779856
-0.174682261282185,0.232632842209893
-0.155939615997806,0.235601035668683
-0.217710404315564,0.29214123221879
-0.192976158592351,0.29721851030696
-0.196008956432153,0.290232710288582
-0.211180065234649,0.263771528599261
-0.215364267704482,0.236818637171989
-0.223230017980974,0.231032618864249
-0.182352131891311,0.182323105832984
-0.254376033484808,0.255674834382299
-0.246282588435137,0.215095314089762
-0.215301319701878,0.176031695518571
-0.302395753872181,0.245945805874635
-0.285828184569321,0.179727241569591
-0.232678755772847,0.16336291895453
-0.28476474995583,0.235064523342038
-0.320227206906997,0.220394389514852
-0.303140863031914,0.207934774806432
-0.333117479293731,0.150116583092429
-0.312745413756867,0.153396141156792
-0.301944146260653,0.152108018378842
-0.363325910567061,0.132898144772956
-0.329766805678887,0.170860320234301
-0.336053462639704,0.168453646175798
-0.342231582932839,0.16622635877995
-0.384845604514846,0.18465592852397
-0.382112585826018,0.205831040961764
-0.389956856305203,0.115812738775348
-0.365835536639259,0.159036199698588
-0.358582487637694,0.207237342177329
-0.410928026949374,0.182423357136905
-0.38234212297463,0.155343693840366
-0.426821156029069,0.123955970331948
-0.432918698669703,0.152110889124016
-0.362563202006504,0.144415423560352
-0.404985236309672,0.177356174467185
-0.457218585114738,0.120947141605084
-0.412143402027968,0.151892377102667
-0.416680414829732,0.15178340333025
-0.42109152037184,0.151797659127096
-0.425375560614826,0.151931400686979
-0.429953238910785,0.16836430400304
-0.462972657002021,0.160514860525481
-0.431292795494391,0.139262521593624
-0.482328146567382,0.120978049859798
-0.407915268606629,0.125425055038262
-0.488969100078706,0.110220412300377
-0.415669927937231,0.154651907992853
-0.443311411348129,0.161228714954732
-0.458022907829512,0.157894206035294
-0.44235935664613,0.141153263005741
-0.492065293979817,0.114126827707914
-0.466451423833928,0.161493443456175
-0.466838245105027,0.212467351615704
-0.471361765508483,0.164253256157627
-0.485815846495556,0.197310536846644
-0.457917395486727,0.186698172534463
-0.46374978896941,0.173512123532994
-0.438393740066483,0.156614329877729
-0.48108972591005,0.172195523021095
-0.48258927188296,0.173932780534238
-0.508620254794871,0.201309661887185
-0.485133053405657,0.177526149251162
-0.515844867682089,0.173901440770354
-0.458564071110974,0.157071631970437
-0.471188620646714,0.160025114824269
-0.459786362456695,0.214369908980447
-0.488782487902482,0.187028173281654
-0.489038535747284,0.188987530878774
-0.523649125358473,0.183674969382544
-0.489067528066606,0.192935248414227
-0.486393531669101,0.181338711906059
-0.520081477173608,0.214759089716602
-0.487885887527909,0.198873173477048
-0.486567020538443,0.250187033867328
-0.452352519411466,0.251814794597472
-0.485206299220835,0.204740865702009
-0.483974821652445,0.206663684717306
-0.482572273285266,0.208563724859047
-0.48099749607983,0.210437242321006
-0.502950485231444,0.225197062059411
-0.477326622996332,0.214089733980676
-0.485694888724533,0.207750332213399
-0.453899589719672,0.168573818261679
-0.470499646097545,0.219275956216166
-0.469283788261511,0.181914321409093
-0.465054372855568,0.222494749797844
-0.462060075523348,0.224021308797411
-0.48855639622913,0.231019389460646
-0.455522369239124,0.226890032182867
-0.461372413925729,0.221329021738386
-0.428518369680456,0.208148708844818
-0.493126538455766,0.197426015741339
-0.486404584305201,0.259612764893524
-0.435920910571446,0.232811494442844
-0.383595925712914,0.259785177348193
-0.464205361743999,0.241790838295475
-0.447409037387136,0.278325006950259
-0.435532178894792,0.243866107165021
-0.411550515161388,0.236572367217832
-0.443150400155161,0.283424206817497
-0.388825923585826,0.218719597418491
-0.436027356941508,0.247453212565294
-0.362568186735048,0.224098876144103
-0.38226642807583,0.237704674729564
-0.375718371709403,0.209523891609319
-0.366439064451778,0.233201271868219
-0.319555972754604,0.194745788306387
-0.355204025085964,0.236403474026412
-0.347923894381649,0.235740441199776
-0.375578427850687,0.229590308050635
-0.332738090748543,0.233982889721903
-0.370387152541405,0.275558226362567
-0.316710510553038,0.231625065103056
-0.30662979979737,0.230917849943772
-0.284963406717414,0.184171790497729
-0.291070543514645,0.2268972994265
-0.280614452646381,0.199336011237543
-0.277814908918674,0.186630544645174
-0.263484467434931,0.220650447902575
-0.207200617824026,0.231357669272128
-0.212861777310503,0.186008809944493
-0.26652208775556,0.252214276969596
-0.242862833822165,0.165956314356046
-0.233315693490778,0.191542295786587
-0.215562146183175,0.176724283609055
-0.163801288008593,0.247052240611122
-0.180169502916871,0.195796807039873
-0.201246839934244,0.238330980587413
-0.130644391788859,0.18593112176202
-0.145180186569236,0.183115154837361
-0.133053731391776,0.178450527971078
-0.134788487667809,0.214976493604957
-0.108098848207694,0.168442697202987
-0.0486865480333569,0.194815139290872
-0.0822002809882944,0.157505138346023
-0.0688942207666887,0.151678351368648
-0.00882203171135758,0.122022773230981
-0.0558648601317883,0.178510393784836
-0.0464905417530905,0.0947555981963998
-0.0418742952179706,0.137144902831154
-0.0320313322102998,0.110561693305764
-0.0321131948798201,0.147172114398426
0.033965236050763,0.10906933265588
0.0506740005323834,0.0692282503083387
0.0347372699006304,0.0602600735833001
0.0775241899584144,0.0793912643182621
0.132742020112492,0.0702601825129658
0.15933802906465,0.0642618956028881
0.0856063345168544,0.0682145641682961
0.150162567848158,0.00781434963416371
0.160072599924673,0.0329404023137745
0.177347946917661,0.0227657435349153
0.161209673995441,0.0219941288862365
0.194936915091836,0.0259074130246207
0.197270635233256,0.0215654444423904
0.264053787985734,0.000884966687990985
0.270774066349626,-0.0411726494261769
0.242494305460476,0.00516451292141727
0.298100544605871,-0.0430704546124138
0.372962758972689,-0.0283946362313815
0.368549573867903,-0.0580762377972891
0.364478300085763,-0.0962946110093009
0.407240058703921,-0.136723839958766
0.39696774819547,-0.156729178896994
0.440202374603341,-0.112875536450542
0.446811707435741,-0.153257166956054
0.468077504952506,-0.168378390496378
0.468775833699861,-0.196866716922202
0.489947543972556,-0.174564567349758
0.533531295764491,-0.215915364945696
0.555905218920599,-0.232497937059004
0.59639252103316,-0.272602794189126
0.601494002797775,-0.266790915068279
0.578668041850646,-0.269403430485659
0.648211757024663,-0.302612630162608
0.671996893117912,-0.321106123632233
0.650094664823083,-0.313216320948117
0.695907365416161,-0.36214189119547
0.745071233790456,-0.378962073405664
0.799083762145988,-0.413818152250409
0.791528499846105,-0.394531134705014
0.870043052565434,-0.427170012644957
0.866682943295376,-0.500401459707111
0.885534546613239,-0.524635929452261
0.941282426815133,-0.514981456260637
0.896365311316285,-0.556229574933057
0.952745461410264,-0.551323624704015
